#
#                              ======================
#                              | THE SUSYHIT OUTPUT |
#                              ======================
#
#
#              ------------------------------------------------------
#              |     This is the output of the SUSY-HIT package     |
#              |  created by A.Djouadi, M.Muehlleitner and M.Spira. |
#              |  In case of problems with SUSY-HIT email to        |
#              |           margarete.muehlleitner@cern.ch           |
#              |           michael.spira@psi.ch                     |
#              |           abdelhak.djouadi@cern.ch                 |
#              ------------------------------------------------------
#
#              ------------------------------------------------------
#              |  SUSY Les Houches Accord - MSSM Spectrum + Decays  |
#              |              based on the decay programs           |
#              |                                                    |
#              |                     SDECAY 1.3b                    |
#              |                                                    |
#              |  Authors: M.Muhlleitner, A.Djouadi and Y.Mambrini  |
#              |  Ref.:    Comput.Phys.Commun.168(2005)46           |
#              |           [hep-ph/0311167]                         |
#              |                                                    |
#              |                     HDECAY 3.4                     |
#              |                                                    |
#              |  By: A.Djouadi,J.Kalinowski,M.Muhlleitner,M.Spira  |
#              |  Ref.:    Comput.Phys.Commun.108(1998)56           |
#              |           [hep-ph/9704448]                         |
#              |                                                    |
#              |                                                    |
#              |  If not stated otherwise all DRbar couplings and   |
#              |  soft SUSY breaking masses are given at the scale  |
#              |  Q=  0.50007202E+04
#              |                                                    |
#              ------------------------------------------------------
#
#
BLOCK DCINFO  # Decay Program information
     1   SDECAY/HDECAY # decay calculator
     2   1.3b  /3.4    # version number
#
BLOCK SPINFO  # Spectrum calculator information
     1    SOFTSUSY    # spectrum calculator                
     2    3.4.0       # version number                     
#
BLOCK MODSEL  # Model selection
     1     0   #  nonUniversal                                     
#
BLOCK SMINPUTS  # Standard Model inputs
         1     1.25778332E+02   # alpha_em^-1(M_Z)^MSbar
         2     1.16570000E-05   # G_F [GeV^-2]
         3     1.17200002E-01   # alpha_S(M_Z)^MSbar
         4     9.11876000E+01   # M_Z pole mass
         5     4.25000000E+00   # mb(mb)^MSbar
         6     1.72500000E+02   # mt pole mass
         7     1.77682000E+00   # mtau pole mass
#
BLOCK MINPAR  # Input parameters - minimal models
         3     1.00000000E+01   # tanb                
#
BLOCK EXTPAR  # Input parameters - non-minimal models
         0    -1.00000000E+00   # Set                 
         1     6.00000000E+01   # M_1(MX)             
         2     3.00000000E+03   # M_2(MX)             
         3     1.03377600E+03   # M_3(MX)             
        11     5.00000000E+03   # At(MX)              
        12     5.00000000E+03   # Ab(MX)              
        13     0.00000000E+00   # Atau(MX)            
        23    -1.25156500E+03   # mu(MX)              
        26     3.00000000E+03   # mA(pole)            
        31     5.00000000E+03   # meL(MX)             
        32     5.00000000E+03   # mmuL(MX)            
        33     5.00000000E+03   # mtauL(MX)           
        34     5.00000000E+03   # meR(MX)             
        35     5.00000000E+03   # mmuR(MX)            
        36     5.00000000E+03   # mtauR(MX)           
        41     5.00000000E+03   # mqL1(MX)            
        42     5.00000000E+03   # mqL2(MX)            
        43     5.00000000E+03   # mqL3(MX)            
        44     5.00000000E+03   # muR(MX)             
        45     5.00000000E+03   # mcR(MX)             
        46     5.00000000E+03   # mtR(MX)             
        47     5.00000000E+03   # mdR(MX)             
        48     5.00000000E+03   # msR(MX)             
        49     5.00000000E+03   # mbR(MX)             
#
BLOCK MASS  # Mass Spectrum
# PDG code           mass       particle
        24     8.00944047E+01   # W+
        25     1.24522843E+02   # h
        35     3.00008135E+03   # H
        36     2.99999988E+03   # A
        37     3.00086945E+03   # H+
         5     4.87878001E+00   # b-quark pole mass calculated from mb(mb)_Msbar
   1000001     5.06524998E+03   # ~d_L
   2000001     5.04743775E+03   # ~d_R
   1000002     5.06477379E+03   # ~u_L
   2000002     5.04715832E+03   # ~u_R
   1000003     5.06524998E+03   # ~s_L
   2000003     5.04743775E+03   # ~s_R
   1000004     5.06477379E+03   # ~c_L
   2000004     5.04715832E+03   # ~c_R
   1000005     5.01145005E+03   # ~b_1
   2000005     5.04619636E+03   # ~b_2
   1000006     4.90208726E+03   # ~t_1
   2000006     5.05783270E+03   # ~t_2
   1000011     5.01905893E+03   # ~e_L
   2000011     5.00591554E+03   # ~e_R
   1000012     5.01811036E+03   # ~nu_eL
   1000013     5.01905893E+03   # ~mu_L
   2000013     5.00591554E+03   # ~mu_R
   1000014     5.01811036E+03   # ~nu_muL
   1000015     5.00447614E+03   # ~tau_1
   2000015     5.01889897E+03   # ~tau_2
   1000016     5.01756816E+03   # ~nu_tauL
   1000021     1.30000108E+03   # ~g
   1000022     6.03027607E+01   # ~chi_10
   1000023     1.29950234E+03   # ~chi_20
   1000025    -1.30184462E+03   # ~chi_30
   1000035     3.07430921E+03   # ~chi_40
   1000024     1.30000041E+03   # ~chi_1+
   1000037     3.07447670E+03   # ~chi_2+
#
BLOCK NMIX  # Neutralino Mixing Matrix
  1  1     9.99410277E-01   # N_11
  1  2     1.55310647E-04   # N_12
  1  3    -3.42796861E-02   # N_13
  1  4     1.99429029E-03   # N_14
  2  1     2.28318208E-02   # N_21
  2  2     2.74334250E-02   # N_22
  2  3     7.06875147E-01   # N_23
  2  4     7.06437288E-01   # N_24
  3  1    -2.56441967E-02   # N_31
  3  2     1.38805198E-02   # N_32
  3  3    -7.06442177E-01   # N_33
  3  4     7.07169822E-01   # N_34
  4  1    -4.25820630E-04   # N_41
  4  2     9.99527245E-01   # N_42
  4  3    -9.58542925E-03   # N_43
  4  4    -2.92099979E-02   # N_44
#
BLOCK UMIX  # Chargino Mixing Matrix U
  1  1     1.35701883E-02   # U_11
  1  2     9.99907921E-01   # U_12
  2  1    -9.99907921E-01   # U_21
  2  2     1.35701883E-02   # U_22
#
BLOCK VMIX  # Chargino Mixing Matrix V
  1  1     4.13360215E-02   # V_11
  1  2    -9.99145301E-01   # V_12
  2  1    -9.99145301E-01   # V_21
  2  2    -4.13360215E-02   # V_22
#
BLOCK STOPMIX  # Stop Mixing Matrix
  1  1    -5.11588465E-01   # cos(theta_t)
  1  2     8.59230611E-01   # sin(theta_t)
  2  1    -8.59230611E-01   # -sin(theta_t)
  2  2    -5.11588465E-01   # cos(theta_t)
#
BLOCK SBOTMIX  # Sbottom Mixing Matrix
  1  1     9.95612294E-01   # cos(theta_b)
  1  2    -9.35743557E-02   # sin(theta_b)
  2  1     9.35743557E-02   # -sin(theta_b)
  2  2     9.95612294E-01   # cos(theta_b)
#
BLOCK STAUMIX  # Stau Mixing Matrix
  1  1    -1.46901122E-01   # cos(theta_tau)
  1  2     9.89151182E-01   # sin(theta_tau)
  2  1    -9.89151182E-01   # -sin(theta_tau)
  2  2    -1.46901122E-01   # cos(theta_tau)
#
BLOCK ALPHA  # Higgs mixing
          -1.05439855E-01   # Mixing angle in the neutral Higgs boson sector
#
BLOCK HMIX Q=  5.00072023E+03  # DRbar Higgs Parameters
         1    -1.27411836E+03   # mu(Q)MSSM           
         2     9.47262670E+00   # tan                 
         3     2.41953074E+02   # higgs               
         4     8.43642888E+06   # mA^2(Q)MSSM         
#
BLOCK GAUGE Q=  5.00072023E+03  # The gauge couplings
     1     3.70749509E-01   # gprime(Q) DRbar
     2     6.32290316E-01   # g(Q) DRbar
     3     1.00479564E+00   # g3(Q) DRbar
#
BLOCK AU Q=  5.00072023E+03  # The trilinear couplings
  1  1     5.00000001E+03   # A_u(Q) DRbar
  2  2     5.00000001E+03   # A_c(Q) DRbar
  3  3     5.00000001E+03   # A_t(Q) DRbar
#
BLOCK AD Q=  5.00072023E+03  # The trilinear couplings
  1  1     5.00000000E+03   # A_d(Q) DRbar
  2  2     5.00000000E+03   # A_s(Q) DRbar
  3  3     5.00000001E+03   # A_b(Q) DRbar
#
BLOCK AE Q=  5.00072023E+03  # The trilinear couplings
  1  1     0.00000000E+00   # A_e(Q) DRbar
  2  2     6.59319043E-08   # A_mu(Q) DRbar
  3  3     6.51474663E-08   # A_tau(Q) DRbar
#
BLOCK Yu Q=  5.00072023E+03  # The Yukawa couplings
  1  1     0.00000000E+00   # y_u(Q) DRbar
  2  2     0.00000000E+00   # y_c(Q) DRbar
  3  3     8.16359964E-01   # y_t(Q) DRbar
#
BLOCK Yd Q=  5.00072023E+03  # The Yukawa couplings
  1  1     0.00000000E+00   # y_d(Q) DRbar
  2  2     0.00000000E+00   # y_s(Q) DRbar
  3  3     1.30113469E-01   # y_b(Q) DRbar
#
BLOCK Ye Q=  5.00072023E+03  # The Yukawa couplings
  1  1     0.00000000E+00   # y_e(Q) DRbar
  2  2     0.00000000E+00   # y_mu(Q) DRbar
  3  3     9.67240058E-02   # y_tau(Q) DRbar
#
BLOCK MSOFT Q=  5.00072023E+03  # The soft SUSY breaking masses at the scale Q
         1     6.00000000E+01   # M_1(Q)              
         2     3.00000000E+03   # M_2(Q)              
         3     1.03377600E+03   # M_3(Q)              
        21     7.05641877E+06   # mH1^2(Q)            
        22    -1.07131024E+06   # mH2^2(Q)            
        31     5.00000000E+03   # meL(Q)              
        32     5.00000000E+03   # mmuL(Q)             
        33     5.00000000E+03   # mtauL(Q)            
        34     5.00000000E+03   # meR(Q)              
        35     5.00000000E+03   # mmuR(Q)             
        36     5.00000000E+03   # mtauR(Q)            
        41     5.00000000E+03   # mqL1(Q)             
        42     5.00000000E+03   # mqL2(Q)             
        43     5.00000000E+03   # mqL3(Q)             
        44     5.00000000E+03   # muR(Q)              
        45     5.00000000E+03   # mcR(Q)              
        46     5.00000000E+03   # mtR(Q)              
        47     5.00000000E+03   # mdR(Q)              
        48     5.00000000E+03   # msR(Q)              
        49     5.00000000E+03   # mbR(Q)              
#
#
#
#                             =================
#                             |The decay table|
#                             =================
#
# - The QCD corrections to the decays gluino -> squark  + quark
#                                     squark -> gaugino + quark_prime
#                                     squark -> squark_prime + Higgs
#                                     squark -> gluino  + quark
#   are included.
#
# - The multi-body decays for the inos, stops and sbottoms are included.
#
# - The loop induced decays for the gluino, neutralinos and stops
#   are included.
#
# - The SUSY decays of the top quark are included.
#
#
#         PDG            Width
DECAY         6     1.40102946E+00   # top decays
#          BR         NDA      ID1       ID2
     1.00000000E+00    2           5        24   # BR(t ->  b    W+)
#
#         PDG            Width
DECAY   1000021     3.27597551E-05   # gluino decays
#          BR         NDA      ID1       ID2
     1.42466093E-05    2     1000022        21   # BR(~g -> ~chi_10 g)
     5.91647383E-11    2     1000023        21   # BR(~g -> ~chi_20 g)
#           BR         NDA      ID1       ID2       ID3
     7.94150105E-02    3     1000022         1        -1   # BR(~g -> ~chi_10 d  db)
     4.05703737E-20    3     1000023         1        -1   # BR(~g -> ~chi_20 d  db)
     2.70734443E-01    3     1000022         2        -2   # BR(~g -> ~chi_10 u  ub)
     8.94247545E-20    3     1000023         2        -2   # BR(~g -> ~chi_20 u  ub)
     7.94150105E-02    3     1000022         3        -3   # BR(~g -> ~chi_10 s  sb)
     4.05703737E-20    3     1000023         3        -3   # BR(~g -> ~chi_20 s  sb)
     2.70734443E-01    3     1000022         4        -4   # BR(~g -> ~chi_10 c  cb)
     8.94247545E-20    3     1000023         4        -4   # BR(~g -> ~chi_20 c  cb)
     8.04277872E-02    3     1000022         5        -5   # BR(~g -> ~chi_10 b  bb)
     2.19259059E-01    3     1000022         6        -6   # BR(~g -> ~chi_10 t  tb)
     4.77607209E-34    3     1000024         1        -2   # BR(~g -> ~chi_1+ d  ub)
     4.77607209E-34    3    -1000024         2        -1   # BR(~g -> ~chi_1- u  db)
     4.77607209E-34    3     1000024         3        -4   # BR(~g -> ~chi_1+ s  cb)
     4.77607209E-34    3    -1000024         4        -3   # BR(~g -> ~chi_1- c  sb)
#
#         PDG            Width
DECAY   1000006     3.90376114E+02   # stop1 decays
#          BR         NDA      ID1       ID2
     2.25063661E-02    2     1000022         6   # BR(~t_1 -> ~chi_10 t )
     7.28686835E-02    2     1000023         6   # BR(~t_1 -> ~chi_20 t )
     7.00394512E-02    2     1000025         6   # BR(~t_1 -> ~chi_30 t )
     5.50309387E-03    2     1000035         6   # BR(~t_1 -> ~chi_40 t )
     1.04795575E-01    2     1000024         5   # BR(~t_1 -> ~chi_1+ b )
     1.09549809E-02    2     1000037         5   # BR(~t_1 -> ~chi_2+ b )
     7.13331849E-01    2     1000021         6   # BR(~t_1 -> ~g      t )
#
#         PDG            Width
DECAY   2000006     3.95454735E+02   # stop2 decays
#          BR         NDA      ID1       ID2
     9.05266157E-03    2     1000022         6   # BR(~t_2 -> ~chi_10 t )
     7.41137166E-02    2     1000023         6   # BR(~t_2 -> ~chi_20 t )
     7.71452155E-02    2     1000025         6   # BR(~t_2 -> ~chi_30 t )
     1.37620582E-02    2     1000035         6   # BR(~t_2 -> ~chi_40 t )
     4.54219498E-02    2     1000024         5   # BR(~t_2 -> ~chi_1+ b )
     2.73542553E-02    2     1000037         5   # BR(~t_2 -> ~chi_2+ b )
     7.49830827E-01    2     1000021         6   # BR(~t_2 -> ~g      t )
     7.34549659E-04    2     1000006        25   # BR(~t_2 -> ~t_1    h )
     2.58476595E-03    2     1000006        23   # BR(~t_2 -> ~t_1    Z )
#
#         PDG            Width
DECAY   1000005     3.73207253E+02   # sbottom1 decays
#          BR         NDA      ID1       ID2
     2.08761626E-03    2     1000022         5   # BR(~b_1 -> ~chi_10 b )
     2.03404736E-03    2     1000023         5   # BR(~b_1 -> ~chi_20 b )
     1.94801845E-03    2     1000025         5   # BR(~b_1 -> ~chi_30 b )
     2.00191474E-02    2     1000035         5   # BR(~b_1 -> ~chi_40 b )
     1.54618705E-01    2    -1000024         6   # BR(~b_1 -> ~chi_1- t )
     4.02597298E-02    2    -1000037         6   # BR(~b_1 -> ~chi_2- t )
     7.77512811E-01    2     1000021         5   # BR(~b_1 -> ~g      b )
     1.51992523E-03    2     1000006       -24   # BR(~b_1 -> ~t_1    W-)
#
#         PDG            Width
DECAY   2000005     2.99171346E+02   # sbottom2 decays
#          BR         NDA      ID1       ID2
     9.81164643E-03    2     1000022         5   # BR(~b_2 -> ~chi_10 b )
     2.47331579E-03    2     1000023         5   # BR(~b_2 -> ~chi_20 b )
     2.56436556E-03    2     1000025         5   # BR(~b_2 -> ~chi_30 b )
     2.32776537E-04    2     1000035         5   # BR(~b_2 -> ~chi_40 b )
     6.65349605E-03    2    -1000024         6   # BR(~b_2 -> ~chi_1- t )
     4.67986102E-04    2    -1000037         6   # BR(~b_2 -> ~chi_2- t )
     9.77727379E-01    2     1000021         5   # BR(~b_2 -> ~g      b )
     6.90347963E-05    2     1000006       -24   # BR(~b_2 -> ~t_1    W-)
#
#         PDG            Width
DECAY   1000002     3.18030553E+02   # sup_L decays
#          BR         NDA      ID1       ID2
     2.34992036E-03    2     1000022         2   # BR(~u_L -> ~chi_10 u)
     5.46300721E-05    2     1000023         2   # BR(~u_L -> ~chi_20 u)
     4.22102106E-06    2     1000025         2   # BR(~u_L -> ~chi_30 u)
     2.45557459E-02    2     1000035         2   # BR(~u_L -> ~chi_40 u)
     1.83484886E-04    2     1000024         1   # BR(~u_L -> ~chi_1+ d)
     4.90759339E-02    2     1000037         1   # BR(~u_L -> ~chi_2+ d)
     9.23776064E-01    2     1000021         2   # BR(~u_L -> ~g      u)
#
#         PDG            Width
DECAY   2000002     3.04387577E+02   # sup_R decays
#          BR         NDA      ID1       ID2
     3.90844630E-02    2     1000022         2   # BR(~u_R -> ~chi_10 u)
     1.77968728E-05    2     1000023         2   # BR(~u_R -> ~chi_20 u)
     2.24397495E-05    2     1000025         2   # BR(~u_R -> ~chi_30 u)
     2.81381524E-09    2     1000035         2   # BR(~u_R -> ~chi_40 u)
     9.60875298E-01    2     1000021         2   # BR(~u_R -> ~g      u)
#
#         PDG            Width
DECAY   1000001     3.18041742E+02   # sdown_L decays
#          BR         NDA      ID1       ID2
     2.34259756E-03    2     1000022         1   # BR(~d_L -> ~chi_10 d)
     2.83368828E-05    2     1000023         1   # BR(~d_L -> ~chi_20 d)
     1.91587345E-05    2     1000025         1   # BR(~d_L -> ~chi_30 d)
     2.45707270E-02    2     1000035         1   # BR(~d_L -> ~chi_40 d)
     1.97766105E-05    2    -1000024         2   # BR(~d_L -> ~chi_1- u)
     4.91644893E-02    2    -1000037         2   # BR(~d_L -> ~chi_2- u)
     9.23854914E-01    2     1000021         1   # BR(~d_L -> ~g      d)
#
#         PDG            Width
DECAY   2000001     2.95476733E+02   # sdown_R decays
#          BR         NDA      ID1       ID2
     1.00663484E-02    2     1000022         1   # BR(~d_R -> ~chi_10 d)
     4.58372199E-06    2     1000023         1   # BR(~d_R -> ~chi_20 d)
     5.77953107E-06    2     1000025         1   # BR(~d_R -> ~chi_30 d)
     7.24802420E-10    2     1000035         1   # BR(~d_R -> ~chi_40 d)
     9.89923288E-01    2     1000021         1   # BR(~d_R -> ~g      d)
#
#         PDG            Width
DECAY   1000004     3.18030553E+02   # scharm_L decays
#          BR         NDA      ID1       ID2
     2.34992036E-03    2     1000022         4   # BR(~c_L -> ~chi_10 c)
     5.46300721E-05    2     1000023         4   # BR(~c_L -> ~chi_20 c)
     4.22102106E-06    2     1000025         4   # BR(~c_L -> ~chi_30 c)
     2.45557459E-02    2     1000035         4   # BR(~c_L -> ~chi_40 c)
     1.83484886E-04    2     1000024         3   # BR(~c_L -> ~chi_1+ s)
     4.90759339E-02    2     1000037         3   # BR(~c_L -> ~chi_2+ s)
     9.23776064E-01    2     1000021         4   # BR(~c_L -> ~g      c)
#
#         PDG            Width
DECAY   2000004     3.04387577E+02   # scharm_R decays
#          BR         NDA      ID1       ID2
     3.90844630E-02    2     1000022         4   # BR(~c_R -> ~chi_10 c)
     1.77968728E-05    2     1000023         4   # BR(~c_R -> ~chi_20 c)
     2.24397495E-05    2     1000025         4   # BR(~c_R -> ~chi_30 c)
     2.81381524E-09    2     1000035         4   # BR(~c_R -> ~chi_40 c)
     9.60875298E-01    2     1000021         4   # BR(~c_R -> ~g      c)
#
#         PDG            Width
DECAY   1000003     3.18041742E+02   # sstrange_L decays
#          BR         NDA      ID1       ID2
     2.34259756E-03    2     1000022         3   # BR(~s_L -> ~chi_10 s)
     2.83368828E-05    2     1000023         3   # BR(~s_L -> ~chi_20 s)
     1.91587345E-05    2     1000025         3   # BR(~s_L -> ~chi_30 s)
     2.45707270E-02    2     1000035         3   # BR(~s_L -> ~chi_40 s)
     1.97766105E-05    2    -1000024         4   # BR(~s_L -> ~chi_1- c)
     4.91644893E-02    2    -1000037         4   # BR(~s_L -> ~chi_2- c)
     9.23854914E-01    2     1000021         3   # BR(~s_L -> ~g      s)
#
#         PDG            Width
DECAY   2000003     2.95476733E+02   # sstrange_R decays
#          BR         NDA      ID1       ID2
     1.00663484E-02    2     1000022         3   # BR(~s_R -> ~chi_10 s)
     4.58372199E-06    2     1000023         3   # BR(~s_R -> ~chi_20 s)
     5.77953107E-06    2     1000025         3   # BR(~s_R -> ~chi_30 s)
     7.24802420E-10    2     1000035         3   # BR(~s_R -> ~chi_40 s)
     9.89923288E-01    2     1000021         3   # BR(~s_R -> ~g      s)
#
#         PDG            Width
DECAY   1000011     3.02514738E+01   # selectron_L decays
#          BR         NDA      ID1       ID2
     2.26636302E-01    2     1000022        11   # BR(~e_L -> ~chi_10 e-)
     9.56990377E-04    2     1000023        11   # BR(~e_L -> ~chi_20 e-)
     7.67326963E-07    2     1000025        11   # BR(~e_L -> ~chi_30 e-)
     2.57204217E-01    2     1000035        11   # BR(~e_L -> ~chi_40 e-)
     2.11491259E-04    2    -1000024        12   # BR(~e_L -> ~chi_1- nu_e)
     5.14990233E-01    2    -1000037        12   # BR(~e_L -> ~chi_2- nu_e)
#
#         PDG            Width
DECAY   2000011     2.73660452E+01   # selectron_R decays
#          BR         NDA      ID1       ID2
     9.98974393E-01    2     1000022        11   # BR(~e_R -> ~chi_10 e-)
     4.53602276E-04    2     1000023        11   # BR(~e_R -> ~chi_20 e-)
     5.71933907E-04    2     1000025        11   # BR(~e_R -> ~chi_30 e-)
     7.03714068E-08    2     1000035        11   # BR(~e_R -> ~chi_40 e-)
#
#         PDG            Width
DECAY   1000013     3.02514738E+01   # smuon_L decays
#          BR         NDA      ID1       ID2
     2.26636302E-01    2     1000022        13   # BR(~mu_L -> ~chi_10 mu-)
     9.56990377E-04    2     1000023        13   # BR(~mu_L -> ~chi_20 mu-)
     7.67326963E-07    2     1000025        13   # BR(~mu_L -> ~chi_30 mu-)
     2.57204217E-01    2     1000035        13   # BR(~mu_L -> ~chi_40 mu-)
     2.11491259E-04    2    -1000024        14   # BR(~mu_L -> ~chi_1- nu_mu)
     5.14990233E-01    2    -1000037        14   # BR(~mu_L -> ~chi_2- nu_mu)
#
#         PDG            Width
DECAY   2000013     2.73660452E+01   # smuon_R decays
#          BR         NDA      ID1       ID2
     9.98974393E-01    2     1000022        13   # BR(~mu_R -> ~chi_10 mu-)
     4.53602276E-04    2     1000023        13   # BR(~mu_R -> ~chi_20 mu-)
     5.71933907E-04    2     1000025        13   # BR(~mu_R -> ~chi_30 mu-)
     7.03714068E-08    2     1000035        13   # BR(~mu_R -> ~chi_40 mu-)
#
#         PDG            Width
DECAY   1000015     2.90381689E+01   # stau_1 decays
#          BR         NDA      ID1       ID2
     9.26850192E-01    2     1000022        15   # BR(~tau_1 -> ~chi_10  tau-)
     1.47506835E-02    2     1000023        15   # BR(~tau_1 -> ~chi_20  tau-)
     1.36771941E-02    2     1000025        15   # BR(~tau_1 -> ~chi_30  tau-)
     5.56635869E-03    2     1000035        15   # BR(~tau_1 -> ~chi_40  tau-)
     2.80104436E-02    2    -1000024        16   # BR(~tau_1 -> ~chi_1-  nu_tau)
     1.11451277E-02    2    -1000037        16   # BR(~tau_1 -> ~chi_2-  nu_tau)
#
#         PDG            Width
DECAY   2000015     3.09980006E+01   # stau_2 decays
#          BR         NDA      ID1       ID2
     2.34703248E-01    2     1000022        15   # BR(~tau_2 -> ~chi_10  tau-)
     1.36796199E-02    2     1000023        15   # BR(~tau_2 -> ~chi_20  tau-)
     1.38154230E-02    2     1000025        15   # BR(~tau_2 -> ~chi_30  tau-)
     2.45718174E-01    2     1000035        15   # BR(~tau_2 -> ~chi_40  tau-)
     9.17332865E-05    2    -1000024        16   # BR(~tau_2 -> ~chi_1-  nu_tau)
     4.91991801E-01    2    -1000037        16   # BR(~tau_2 -> ~chi_2-  nu_tau)
#
#         PDG            Width
DECAY   1000012     3.02538493E+01   # snu_eL decays
#          BR         NDA      ID1       ID2
     2.26335583E-01    2     1000022        12   # BR(~nu_eL -> ~chi_10 nu_e)
     1.13263422E-04    2     1000023        12   # BR(~nu_eL -> ~chi_20 nu_e)
     4.79829731E-04    2     1000025        12   # BR(~nu_eL -> ~chi_30 nu_e)
     2.57275612E-01    2     1000035        12   # BR(~nu_eL -> ~chi_40 nu_e)
     1.96172542E-03    2     1000024        11   # BR(~nu_eL -> ~chi_1+ e-)
     5.13833986E-01    2     1000037        11   # BR(~nu_eL -> ~chi_2+ e-)
#
#         PDG            Width
DECAY   1000014     3.02538493E+01   # snu_muL decays
#          BR         NDA      ID1       ID2
     2.26335583E-01    2     1000022        14   # BR(~nu_muL -> ~chi_10 nu_mu)
     1.13263422E-04    2     1000023        14   # BR(~nu_muL -> ~chi_20 nu_mu)
     4.79829731E-04    2     1000025        14   # BR(~nu_muL -> ~chi_30 nu_mu)
     2.57275612E-01    2     1000035        14   # BR(~nu_muL -> ~chi_40 nu_mu)
     1.96172542E-03    2     1000024        13   # BR(~nu_muL -> ~chi_1+ mu-)
     5.13833986E-01    2     1000037        13   # BR(~nu_muL -> ~chi_2+ mu-)
#
#         PDG            Width
DECAY   1000016     3.10571792E+01   # snu_tauL decays
#          BR         NDA      ID1       ID2
     2.20457314E-01    2     1000022        16   # BR(~nu_tauL -> ~chi_10 nu_tau)
     1.10318383E-04    2     1000023        16   # BR(~nu_tauL -> ~chi_20 nu_tau)
     4.67353296E-04    2     1000025        16   # BR(~nu_tauL -> ~chi_30 nu_tau)
     2.50528719E-01    2     1000035        16   # BR(~nu_tauL -> ~chi_40 nu_tau)
     2.80769143E-02    2     1000024        15   # BR(~nu_tauL -> ~chi_1+ tau-)
     5.00359380E-01    2     1000037        15   # BR(~nu_tauL -> ~chi_2+ tau-)
#
#         PDG            Width
DECAY   1000024     7.97543460E-01   # chargino1+ decays
#          BR         NDA      ID1       ID2
     1.00000000E+00    2     1000022        24   # BR(~chi_1+ -> ~chi_10  W+)
#
#         PDG            Width
DECAY   1000037     1.92839211E+01   # chargino2+ decays
#          BR         NDA      ID1       ID2
     2.52928775E-01    2     1000024        23   # BR(~chi_2+ -> ~chi_1+  Z )
     2.27552643E-04    2     1000022        24   # BR(~chi_2+ -> ~chi_10  W+)
     2.43986842E-01    2     1000023        24   # BR(~chi_2+ -> ~chi_20  W+)
     2.43898889E-01    2     1000025        24   # BR(~chi_2+ -> ~chi_30  W+)
     2.58957350E-01    2     1000024        25   # BR(~chi_2+ -> ~chi_1+  h )
     5.92116126E-07    2     1000022        37   # BR(~chi_2+ -> ~chi_10  H+)
#
#         PDG            Width
DECAY   1000022     0.00000000E+00   # neutralino1 decays
#
#         PDG            Width
DECAY   1000023     8.36652867E-01   # neutralino2 decays
#          BR         NDA      ID1       ID2
     5.51262315E-01    2     1000022        23   # BR(~chi_20 -> ~chi_10   Z )
     4.48737685E-01    2     1000022        25   # BR(~chi_20 -> ~chi_10   h )
#
#         PDG            Width
DECAY   1000025     8.43744373E-01   # neutralino3 decays
#          BR         NDA      ID1       ID2
     4.33637105E-01    2     1000022        23   # BR(~chi_30 -> ~chi_10   Z )
     5.66362895E-01    2     1000022        25   # BR(~chi_30 -> ~chi_10   h )
#
#         PDG            Width
DECAY   1000035     1.92927074E+01   # neutralino4 decays
#          BR         NDA      ID1       ID2
     7.23475580E-05    2     1000022        23   # BR(~chi_40 -> ~chi_10   Z )
     5.16753932E-02    2     1000023        23   # BR(~chi_40 -> ~chi_20   Z )
     2.00581293E-01    2     1000025        23   # BR(~chi_40 -> ~chi_30   Z )
     2.44542434E-01    2     1000024       -24   # BR(~chi_40 -> ~chi_1+   W-)
     2.44542434E-01    2    -1000024        24   # BR(~chi_40 -> ~chi_1-   W+)
     1.59097366E-04    2     1000022        25   # BR(~chi_40 -> ~chi_10   h )
     5.39902220E-07    2     1000022        35   # BR(~chi_40 -> ~chi_10   H )
     7.33257751E-08    2     1000022        36   # BR(~chi_40 -> ~chi_10   A )
     2.06701851E-01    2     1000023        25   # BR(~chi_40 -> ~chi_20   h )
     5.17245371E-02    2     1000025        25   # BR(~chi_40 -> ~chi_30   h )
#
#         PDG            Width
DECAY        25     4.03153562E-03   # h decays
#          BR         NDA      ID1       ID2
     6.12741876E-01    2           5        -5   # BR(h -> b       bb     )
     6.42022413E-02    2         -15        15   # BR(h -> tau+    tau-   )
     2.27300389E-04    2         -13        13   # BR(h -> mu+     mu-    )
     4.82052567E-04    2           3        -3   # BR(h -> s       sb     )
     2.08895570E-02    2           4        -4   # BR(h -> c       cb     )
     6.72826955E-02    2          21        21   # BR(h -> g       g      )
     2.30768491E-03    2          22        22   # BR(h -> gam     gam    )
     1.46679481E-03    2          22        23   # BR(h -> Z       gam    )
     2.05929712E-01    2          24       -24   # BR(h -> W+      W-     )
     2.44330623E-02    2          23        23   # BR(h -> Z       Z      )
     3.70236535E-05    2     1000022   1000022   # BR(h -> ~chi_10 ~chi_10)
#
#         PDG            Width
DECAY        35     7.61945828E+00   # H decays
#          BR         NDA      ID1       ID2
     4.26052406E-01    2           5        -5   # BR(H -> b       bb     )
     7.31599852E-02    2         -15        15   # BR(H -> tau+    tau-   )
     2.58699519E-04    2         -13        13   # BR(H -> mu+     mu-    )
     3.17126022E-04    2           3        -3   # BR(H -> s       sb     )
     1.77170579E-06    2           4        -4   # BR(H -> c       cb     )
     1.77007440E-01    2           6        -6   # BR(H -> t       tb     )
     5.87653269E-05    2          21        21   # BR(H -> g       g      )
     3.62492438E-07    2          22        22   # BR(H -> gam     gam    )
     1.04462075E-07    2          23        22   # BR(H -> Z       gam    )
     7.94894291E-05    2          24       -24   # BR(H -> W+      W-     )
     3.96944044E-05    2          23        23   # BR(H -> Z       Z      )
     3.00249356E-04    2          25        25   # BR(H -> h       h      )
    -6.05690590E-25    2          36        36   # BR(H -> A       A      )
     1.12921690E-18    2          23        36   # BR(H -> Z       A      )
     7.44392961E-04    2     1000024  -1000024   # BR(H -> ~chi_1+ ~chi_1-)
     1.12183023E-03    2     1000022   1000022   # BR(H -> ~chi_10 ~chi_10)
     5.61985468E-05    2     1000023   1000023   # BR(H -> ~chi_20 ~chi_20)
     1.24194453E-04    2     1000025   1000025   # BR(H -> ~chi_30 ~chi_30)
     1.91366396E-01    2     1000022   1000023   # BR(H -> ~chi_10 ~chi_20)
     1.29187823E-01    2     1000022   1000025   # BR(H -> ~chi_10 ~chi_30)
     1.23071539E-04    2     1000023   1000025   # BR(H -> ~chi_20 ~chi_30)
#
#         PDG            Width
DECAY        36     7.64052461E+00   # A decays
#          BR         NDA      ID1       ID2
     4.25021085E-01    2           5        -5   # BR(A -> b       bb     )
     7.29604328E-02    2         -15        15   # BR(A -> tau+    tau-   )
     2.57993525E-04    2         -13        13   # BR(A -> mu+     mu-    )
     3.16491562E-04    2           3        -3   # BR(A -> s       sb     )
     1.77416945E-06    2           4        -4   # BR(A -> c       cb     )
     1.77155781E-01    2           6        -6   # BR(A -> t       tb     )
     1.75354931E-04    2          21        21   # BR(A -> g       g      )
     4.87514227E-07    2          22        22   # BR(A -> gam     gam    )
     2.12315244E-07    2          23        22   # BR(A -> Z       gam    )
     7.89723339E-05    2          23        25   # BR(A -> Z       h      )
     2.59566223E-03    2     1000024  -1000024   # BR(A -> ~chi_1+ ~chi_1-)
     1.14848516E-03    2     1000022   1000022   # BR(A -> ~chi_10 ~chi_10)
     1.46979249E-04    2     1000023   1000023   # BR(A -> ~chi_20 ~chi_20)
     7.67474419E-04    2     1000025   1000025   # BR(A -> ~chi_30 ~chi_30)
     1.30434623E-01    2     1000022   1000023   # BR(A -> ~chi_10 ~chi_20)
     1.88931212E-01    2     1000022   1000025   # BR(A -> ~chi_10 ~chi_30)
     6.97893577E-06    2     1000023   1000025   # BR(A -> ~chi_20 ~chi_30)
#
#         PDG            Width
DECAY        37     7.59804226E+00   # H+ decays
#          BR         NDA      ID1       ID2
     6.83083465E-04    2           4        -5   # BR(H+ -> c       bb     )
     7.33896373E-02    2         -15        16   # BR(H+ -> tau+    nu_tau )
     2.59511224E-04    2         -13        14   # BR(H+ -> mu+     nu_mu  )
     4.37171161E-06    2           2        -5   # BR(H+ -> u       bb     )
     1.52275805E-05    2           2        -3   # BR(H+ -> u       sb     )
     3.14905289E-04    2           4        -3   # BR(H+ -> c       sb     )
     6.01348598E-01    2           6        -5   # BR(H+ -> t       bb     )
     7.95339601E-05    2          24        25   # BR(H+ -> W+      h      )
     8.60003111E-14    2          24        36   # BR(H+ -> W+      A      )
     3.23481612E-01    2     1000024   1000022   # BR(H+ -> ~chi_1+ ~chi_10)
     3.57137433E-04    2     1000024   1000023   # BR(H+ -> ~chi_1+ ~chi_20)
     6.63818459E-05    2     1000024   1000025   # BR(H+ -> ~chi_1+ ~chi_30)
