#
#                              ======================
#                              | THE SUSYHIT OUTPUT |
#                              ======================
#
#
#              ------------------------------------------------------
#              |     This is the output of the SUSY-HIT package     |
#              |  created by A.Djouadi, M.Muehlleitner and M.Spira. |
#              |  In case of problems with SUSY-HIT email to        |
#              |           margarete.muehlleitner@cern.ch           |
#              |           michael.spira@psi.ch                     |
#              |           abdelhak.djouadi@cern.ch                 |
#              ------------------------------------------------------
#
#              ------------------------------------------------------
#              |  SUSY Les Houches Accord - MSSM Spectrum + Decays  |
#              |              based on the decay programs           |
#              |                                                    |
#              |                     SDECAY 1.3b                    |
#              |                                                    |
#              |  Authors: M.Muhlleitner, A.Djouadi and Y.Mambrini  |
#              |  Ref.:    Comput.Phys.Commun.168(2005)46           |
#              |           [hep-ph/0311167]                         |
#              |                                                    |
#              |                     HDECAY 3.4                     |
#              |                                                    |
#              |  By: A.Djouadi,J.Kalinowski,M.Muhlleitner,M.Spira  |
#              |  Ref.:    Comput.Phys.Commun.108(1998)56           |
#              |           [hep-ph/9704448]                         |
#              |                                                    |
#              |                                                    |
#              |  If not stated otherwise all DRbar couplings and   |
#              |  soft SUSY breaking masses are given at the scale  |
#              |  Q=  0.50007399E+04
#              |                                                    |
#              ------------------------------------------------------
#
#
BLOCK DCINFO  # Decay Program information
     1   SDECAY/HDECAY # decay calculator
     2   1.3b  /3.4    # version number
#
BLOCK SPINFO  # Spectrum calculator information
     1    SOFTSUSY    # spectrum calculator                
     2    3.4.0       # version number                     
#
BLOCK MODSEL  # Model selection
     1     0   #  nonUniversal                                     
#
BLOCK SMINPUTS  # Standard Model inputs
         1     1.25778332E+02   # alpha_em^-1(M_Z)^MSbar
         2     1.16570000E-05   # G_F [GeV^-2]
         3     1.17200002E-01   # alpha_S(M_Z)^MSbar
         4     9.11876000E+01   # M_Z pole mass
         5     4.25000000E+00   # mb(mb)^MSbar
         6     1.72500000E+02   # mt pole mass
         7     1.77682000E+00   # mtau pole mass
#
BLOCK MINPAR  # Input parameters - minimal models
         3     1.00000000E+01   # tanb                
#
BLOCK EXTPAR  # Input parameters - non-minimal models
         0    -1.00000000E+00   # Set                 
         1     6.00000000E+01   # M_1(MX)             
         2     3.00000000E+03   # M_2(MX)             
         3     1.66797100E+03   # M_3(MX)             
        11     5.00000000E+03   # At(MX)              
        12     5.00000000E+03   # Ab(MX)              
        13     0.00000000E+00   # Atau(MX)            
        23    -9.59005000E+02   # mu(MX)              
        26     3.00000000E+03   # mA(pole)            
        31     5.00000000E+03   # meL(MX)             
        32     5.00000000E+03   # mmuL(MX)            
        33     5.00000000E+03   # mtauL(MX)           
        34     5.00000000E+03   # meR(MX)             
        35     5.00000000E+03   # mmuR(MX)            
        36     5.00000000E+03   # mtauR(MX)           
        41     5.00000000E+03   # mqL1(MX)            
        42     5.00000000E+03   # mqL2(MX)            
        43     5.00000000E+03   # mqL3(MX)            
        44     5.00000000E+03   # muR(MX)             
        45     5.00000000E+03   # mcR(MX)             
        46     5.00000000E+03   # mtR(MX)             
        47     5.00000000E+03   # mdR(MX)             
        48     5.00000000E+03   # msR(MX)             
        49     5.00000000E+03   # mbR(MX)             
#
BLOCK MASS  # Mass Spectrum
# PDG code           mass       particle
        24     8.00951130E+01   # W+
        25     1.24765859E+02   # h
        35     3.00008143E+03   # H
        36     2.99999860E+03   # A
        37     3.00112941E+03   # H+
         5     4.87878001E+00   # b-quark pole mass calculated from mb(mb)_Msbar
   1000001     5.07191315E+03   # ~d_L
   2000001     5.05411136E+03   # ~d_R
   1000002     5.07143939E+03   # ~u_L
   2000002     5.05382570E+03   # ~u_R
   1000003     5.07191315E+03   # ~s_L
   2000003     5.05411136E+03   # ~s_R
   1000004     5.07143939E+03   # ~c_L
   2000004     5.05382570E+03   # ~c_R
   1000005     5.01765630E+03   # ~b_1
   2000005     5.05262716E+03   # ~b_2
   1000006     4.90867854E+03   # ~t_1
   2000006     5.06257733E+03   # ~t_2
   1000011     5.01907075E+03   # ~e_L
   2000011     5.00592427E+03   # ~e_R
   1000012     5.01812212E+03   # ~nu_eL
   1000013     5.01907075E+03   # ~mu_L
   2000013     5.00592427E+03   # ~mu_R
   1000014     5.01812212E+03   # ~nu_muL
   1000015     5.00461228E+03   # ~tau_1
   2000015     5.01876546E+03   # ~tau_2
   1000016     5.01757600E+03   # ~nu_tauL
   1000021     2.00000084E+03   # ~g
   1000022     6.02986106E+01   # ~chi_10
   1000023     9.99652922E+02   # ~chi_20
   1000025    -1.00190592E+03   # ~chi_30
   1000035     3.07425321E+03   # ~chi_40
   1000024     1.00000057E+03   # ~chi_1+
   1000037     3.07442067E+03   # ~chi_2+
#
BLOCK NMIX  # Neutralino Mixing Matrix
  1  1     9.99007072E-01   # N_11
  1  2     1.84587978E-04   # N_12
  1  3    -4.45083819E-02   # N_13
  1  4     1.95970383E-03   # N_14
  2  1     3.00951709E-02   # N_21
  2  2     2.34924327E-02   # N_22
  2  3     7.06701032E-01   # N_23
  2  4     7.06481449E-01   # N_24
  3  1    -3.28479810E-02   # N_31
  3  2     1.49116592E-02   # N_32
  3  3    -7.06084869E-01   # N_33
  3  4     7.07207756E-01   # N_34
  4  1    -4.01751141E-04   # N_41
  4  2     9.99612782E-01   # N_42
  4  3    -6.06736317E-03   # N_43
  4  4    -2.71534850E-02   # N_44
#
BLOCK UMIX  # Chargino Mixing Matrix U
  1  1     8.59422858E-03   # U_11
  1  2     9.99963069E-01   # U_12
  2  1    -9.99963069E-01   # U_21
  2  2     8.59422858E-03   # U_22
#
BLOCK VMIX  # Chargino Mixing Matrix V
  1  1     3.84306465E-02   # V_11
  1  2    -9.99261270E-01   # V_12
  2  1    -9.99261270E-01   # V_21
  2  2    -3.84306465E-02   # V_22
#
BLOCK STOPMIX  # Stop Mixing Matrix
  1  1    -5.06859174E-01   # cos(theta_t)
  1  2     8.62028873E-01   # sin(theta_t)
  2  1    -8.62028873E-01   # -sin(theta_t)
  2  2    -5.06859174E-01   # cos(theta_t)
#
BLOCK SBOTMIX  # Sbottom Mixing Matrix
  1  1     9.97088337E-01   # cos(theta_b)
  1  2    -7.62551521E-02   # sin(theta_b)
  2  1     7.62551521E-02   # -sin(theta_b)
  2  2     9.97088337E-01   # cos(theta_b)
#
BLOCK STAUMIX  # Stau Mixing Matrix
  1  1    -1.13910472E-01   # cos(theta_tau)
  1  2     9.93491019E-01   # sin(theta_tau)
  2  1    -9.93491019E-01   # -sin(theta_tau)
  2  2    -1.13910472E-01   # cos(theta_tau)
#
BLOCK ALPHA  # Higgs mixing
          -1.05474125E-01   # Mixing angle in the neutral Higgs boson sector
#
BLOCK HMIX Q=  5.00073988E+03  # DRbar Higgs Parameters
         1    -9.76565230E+02   # mu(Q)MSSM           
         2     9.46983394E+00   # tan                 
         3     2.41855308E+02   # higgs               
         4     8.51626993E+06   # mA^2(Q)MSSM         
#
BLOCK GAUGE Q=  5.00073988E+03  # The gauge couplings
     1     3.70797459E-01   # gprime(Q) DRbar
     2     6.32553297E-01   # g(Q) DRbar
     3     9.98502942E-01   # g3(Q) DRbar
#
BLOCK AU Q=  5.00073988E+03  # The trilinear couplings
  1  1     5.00000001E+03   # A_u(Q) DRbar
  2  2     5.00000001E+03   # A_c(Q) DRbar
  3  3     5.00000002E+03   # A_t(Q) DRbar
#
BLOCK AD Q=  5.00073988E+03  # The trilinear couplings
  1  1     5.00000001E+03   # A_d(Q) DRbar
  2  2     5.00000001E+03   # A_s(Q) DRbar
  3  3     5.00000001E+03   # A_b(Q) DRbar
#
BLOCK AE Q=  5.00073988E+03  # The trilinear couplings
  1  1     0.00000000E+00   # A_e(Q) DRbar
  2  2     1.74508730E-07   # A_mu(Q) DRbar
  3  3     1.74146893E-07   # A_tau(Q) DRbar
#
BLOCK Yu Q=  5.00073988E+03  # The Yukawa couplings
  1  1     0.00000000E+00   # y_u(Q) DRbar
  2  2     0.00000000E+00   # y_c(Q) DRbar
  3  3     8.19879401E-01   # y_t(Q) DRbar
#
BLOCK Yd Q=  5.00073988E+03  # The Yukawa couplings
  1  1     0.00000000E+00   # y_d(Q) DRbar
  2  2     0.00000000E+00   # y_s(Q) DRbar
  3  3     1.30634282E-01   # y_b(Q) DRbar
#
BLOCK Ye Q=  5.00073988E+03  # The Yukawa couplings
  1  1     0.00000000E+00   # y_e(Q) DRbar
  2  2     0.00000000E+00   # y_mu(Q) DRbar
  3  3     9.68546955E-02   # y_tau(Q) DRbar
#
BLOCK MSOFT Q=  5.00073988E+03  # The soft SUSY breaking masses at the scale Q
         1     6.00000000E+01   # M_1(Q)              
         2     3.00000000E+03   # M_2(Q)              
         3     1.66797100E+03   # M_3(Q)              
        21     7.74294781E+06   # mH1^2(Q)            
        22    -3.89350593E+05   # mH2^2(Q)            
        31     5.00000000E+03   # meL(Q)              
        32     5.00000000E+03   # mmuL(Q)             
        33     5.00000000E+03   # mtauL(Q)            
        34     5.00000000E+03   # meR(Q)              
        35     5.00000000E+03   # mmuR(Q)             
        36     5.00000000E+03   # mtauR(Q)            
        41     5.00000000E+03   # mqL1(Q)             
        42     5.00000000E+03   # mqL2(Q)             
        43     5.00000000E+03   # mqL3(Q)             
        44     5.00000000E+03   # muR(Q)              
        45     5.00000000E+03   # mcR(Q)              
        46     4.99999999E+03   # mtR(Q)              
        47     5.00000000E+03   # mdR(Q)              
        48     5.00000000E+03   # msR(Q)              
        49     5.00000000E+03   # mbR(Q)              
#
#
#
#                             =================
#                             |The decay table|
#                             =================
#
# - The QCD corrections to the decays gluino -> squark  + quark
#                                     squark -> gaugino + quark_prime
#                                     squark -> squark_prime + Higgs
#                                     squark -> gluino  + quark
#   are included.
#
# - The multi-body decays for the inos, stops and sbottoms are included.
#
# - The loop induced decays for the gluino, neutralinos and stops
#   are included.
#
# - The SUSY decays of the top quark are included.
#
#
#         PDG            Width
DECAY         6     1.40216417E+00   # top decays
#          BR         NDA      ID1       ID2
     1.00000000E+00    2           5        24   # BR(t ->  b    W+)
#
#         PDG            Width
DECAY   1000021     6.74180369E-04   # gluino decays
#          BR         NDA      ID1       ID2
     3.73510172E-06    2     1000022        21   # BR(~g -> ~chi_10 g)
     1.02902595E-02    2     1000023        21   # BR(~g -> ~chi_20 g)
     1.01238548E-02    2     1000025        21   # BR(~g -> ~chi_30 g)
#           BR         NDA      ID1       ID2       ID3
     3.46490676E-02    3     1000022         1        -1   # BR(~g -> ~chi_10 d  db)
     1.91313043E-05    3     1000023         1        -1   # BR(~g -> ~chi_20 d  db)
     1.00518823E-05    3     1000025         1        -1   # BR(~g -> ~chi_30 d  db)
     1.18142456E-01    3     1000022         2        -2   # BR(~g -> ~chi_10 u  ub)
     6.05016224E-05    3     1000023         2        -2   # BR(~g -> ~chi_20 u  ub)
     1.19818535E-05    3     1000025         2        -2   # BR(~g -> ~chi_30 u  ub)
     3.46490676E-02    3     1000022         3        -3   # BR(~g -> ~chi_10 s  sb)
     1.91313043E-05    3     1000023         3        -3   # BR(~g -> ~chi_20 s  sb)
     1.00518823E-05    3     1000025         3        -3   # BR(~g -> ~chi_30 s  sb)
     1.18142456E-01    3     1000022         4        -4   # BR(~g -> ~chi_10 c  cb)
     6.05016224E-05    3     1000023         4        -4   # BR(~g -> ~chi_20 c  cb)
     1.19818535E-05    3     1000025         4        -4   # BR(~g -> ~chi_30 c  cb)
     3.51452153E-02    3     1000022         5        -5   # BR(~g -> ~chi_10 b  bb)
     3.89739647E-03    3     1000023         5        -5   # BR(~g -> ~chi_20 b  bb)
     3.83810216E-03    3     1000025         5        -5   # BR(~g -> ~chi_30 b  bb)
     1.14719991E-01    3     1000022         6        -6   # BR(~g -> ~chi_10 t  tb)
     1.29239047E-01    3     1000023         6        -6   # BR(~g -> ~chi_20 t  tb)
     1.06709529E-01    3     1000025         6        -6   # BR(~g -> ~chi_30 t  tb)
     5.41419899E-05    3     1000024         1        -2   # BR(~g -> ~chi_1+ d  ub)
     5.41419899E-05    3    -1000024         2        -1   # BR(~g -> ~chi_1- u  db)
     5.41419899E-05    3     1000024         3        -4   # BR(~g -> ~chi_1+ s  cb)
     5.41419899E-05    3    -1000024         4        -3   # BR(~g -> ~chi_1- c  sb)
     1.40014961E-01    3     1000024         5        -6   # BR(~g -> ~chi_1+ b  tb)
     1.40014961E-01    3    -1000024         6        -5   # BR(~g -> ~chi_1- t  bb)
#
#         PDG            Width
DECAY   1000006     3.41440321E+02   # stop1 decays
#          BR         NDA      ID1       ID2
     2.59241264E-02    2     1000022         6   # BR(~t_1 -> ~chi_10 t )
     8.91529229E-02    2     1000023         6   # BR(~t_1 -> ~chi_20 t )
     8.56562597E-02    2     1000025         6   # BR(~t_1 -> ~chi_30 t )
     6.07322091E-03    2     1000035         6   # BR(~t_1 -> ~chi_40 t )
     1.29825433E-01    2     1000024         5   # BR(~t_1 -> ~chi_1+ b )
     1.20993884E-02    2     1000037         5   # BR(~t_1 -> ~chi_2+ b )
     6.51268649E-01    2     1000021         6   # BR(~t_1 -> ~g      t )
#
#         PDG            Width
DECAY   2000006     3.48618417E+02   # stop2 decays
#          BR         NDA      ID1       ID2
     9.99082823E-03    2     1000022         6   # BR(~t_2 -> ~chi_10 t )
     8.94060193E-02    2     1000023         6   # BR(~t_2 -> ~chi_20 t )
     9.31670086E-02    2     1000025         6   # BR(~t_2 -> ~chi_30 t )
     1.59396268E-02    2     1000035         6   # BR(~t_2 -> ~chi_40 t )
     5.30558580E-02    2     1000024         5   # BR(~t_2 -> ~chi_1+ b )
     3.17127151E-02    2     1000037         5   # BR(~t_2 -> ~chi_2+ b )
     7.03121744E-01    2     1000021         6   # BR(~t_2 -> ~g      t )
     8.20183601E-04    2     1000006        25   # BR(~t_2 -> ~t_1    h )
     2.78601643E-03    2     1000006        23   # BR(~t_2 -> ~t_1    Z )
#
#         PDG            Width
DECAY   1000005     3.24058750E+02   # sbottom1 decays
#          BR         NDA      ID1       ID2
     2.38491386E-03    2     1000022         5   # BR(~b_1 -> ~chi_10 b )
     2.46198126E-03    2     1000023         5   # BR(~b_1 -> ~chi_20 b )
     2.39625338E-03    2     1000025         5   # BR(~b_1 -> ~chi_30 b )
     2.32676040E-02    2     1000035         5   # BR(~b_1 -> ~chi_40 b )
     1.90477278E-01    2    -1000024         6   # BR(~b_1 -> ~chi_1- t )
     4.67508881E-02    2    -1000037         6   # BR(~b_1 -> ~chi_2- t )
     7.30540321E-01    2     1000021         5   # BR(~b_1 -> ~g      b )
     1.72076064E-03    2     1000006       -24   # BR(~b_1 -> ~t_1    W-)
#
#         PDG            Width
DECAY   2000005     2.46013807E+02   # sbottom2 decays
#          BR         NDA      ID1       ID2
     1.19354491E-02    2     1000022         5   # BR(~b_2 -> ~chi_10 b )
     3.23065154E-03    2     1000023         5   # BR(~b_2 -> ~chi_20 b )
     3.31678388E-03    2     1000025         5   # BR(~b_2 -> ~chi_30 b )
     1.80941419E-04    2     1000035         5   # BR(~b_2 -> ~chi_40 b )
     7.85498767E-03    2    -1000024         6   # BR(~b_2 -> ~chi_1- t )
     3.63512150E-04    2    -1000037         6   # BR(~b_2 -> ~chi_2- t )
     9.73062066E-01    2     1000021         5   # BR(~b_2 -> ~g      b )
     5.56083081E-05    2     1000006       -24   # BR(~b_2 -> ~t_1    W-)
#
#         PDG            Width
DECAY   1000002     2.65209038E+02   # sup_L decays
#          BR         NDA      ID1       ID2
     2.81300795E-03    2     1000022         2   # BR(~u_L -> ~chi_10 u)
     5.88361504E-05    2     1000023         2   # BR(~u_L -> ~chi_20 u)
     4.91745222E-06    2     1000025         2   # BR(~u_L -> ~chi_30 u)
     2.96243201E-02    2     1000035         2   # BR(~u_L -> ~chi_40 u)
     2.01423604E-04    2     1000024         1   # BR(~u_L -> ~chi_1+ d)
     5.92088363E-02    2     1000037         1   # BR(~u_L -> ~chi_2+ d)
     9.08088658E-01    2     1000021         2   # BR(~u_L -> ~g      u)
#
#         PDG            Width
DECAY   2000002     2.51273997E+02   # sup_R decays
#          BR         NDA      ID1       ID2
     4.72477815E-02    2     1000022         2   # BR(~u_R -> ~chi_10 u)
     3.96618404E-05    2     1000023         2   # BR(~u_R -> ~chi_20 u)
     4.72321815E-05    2     1000025         2   # BR(~u_R -> ~chi_30 u)
     3.05033106E-09    2     1000035         2   # BR(~u_R -> ~chi_40 u)
     9.52665321E-01    2     1000021         2   # BR(~u_R -> ~g      u)
#
#         PDG            Width
DECAY   1000001     2.65223366E+02   # sdown_L decays
#          BR         NDA      ID1       ID2
     2.80250145E-03    2     1000022         1   # BR(~d_L -> ~chi_10 d)
     2.11537145E-05    2     1000023         1   # BR(~d_L -> ~chi_20 d)
     3.10170214E-05    2     1000025         1   # BR(~d_L -> ~chi_30 d)
     2.96411841E-02    2     1000035         1   # BR(~d_L -> ~chi_40 d)
     1.00737868E-05    2    -1000024         2   # BR(~d_L -> ~chi_1- u)
     5.93071544E-02    2    -1000037         2   # BR(~d_L -> ~chi_2- u)
     9.08186916E-01    2     1000021         1   # BR(~d_L -> ~g      d)
#
#         PDG            Width
DECAY   2000001     2.42377267E+02   # sdown_R decays
#          BR         NDA      ID1       ID2
     1.22462167E-02    2     1000022         1   # BR(~d_R -> ~chi_10 d)
     1.02800982E-05    2     1000023         1   # BR(~d_R -> ~chi_20 d)
     1.22422833E-05    2     1000025         1   # BR(~d_R -> ~chi_30 d)
     7.90723188E-10    2     1000035         1   # BR(~d_R -> ~chi_40 d)
     9.87731260E-01    2     1000021         1   # BR(~d_R -> ~g      d)
#
#         PDG            Width
DECAY   1000004     2.65209038E+02   # scharm_L decays
#          BR         NDA      ID1       ID2
     2.81300795E-03    2     1000022         4   # BR(~c_L -> ~chi_10 c)
     5.88361504E-05    2     1000023         4   # BR(~c_L -> ~chi_20 c)
     4.91745222E-06    2     1000025         4   # BR(~c_L -> ~chi_30 c)
     2.96243201E-02    2     1000035         4   # BR(~c_L -> ~chi_40 c)
     2.01423604E-04    2     1000024         3   # BR(~c_L -> ~chi_1+ s)
     5.92088363E-02    2     1000037         3   # BR(~c_L -> ~chi_2+ s)
     9.08088658E-01    2     1000021         4   # BR(~c_L -> ~g      c)
#
#         PDG            Width
DECAY   2000004     2.51273997E+02   # scharm_R decays
#          BR         NDA      ID1       ID2
     4.72477815E-02    2     1000022         4   # BR(~c_R -> ~chi_10 c)
     3.96618404E-05    2     1000023         4   # BR(~c_R -> ~chi_20 c)
     4.72321815E-05    2     1000025         4   # BR(~c_R -> ~chi_30 c)
     3.05033106E-09    2     1000035         4   # BR(~c_R -> ~chi_40 c)
     9.52665321E-01    2     1000021         4   # BR(~c_R -> ~g      c)
#
#         PDG            Width
DECAY   1000003     2.65223366E+02   # sstrange_L decays
#          BR         NDA      ID1       ID2
     2.80250145E-03    2     1000022         3   # BR(~s_L -> ~chi_10 s)
     2.11537145E-05    2     1000023         3   # BR(~s_L -> ~chi_20 s)
     3.10170214E-05    2     1000025         3   # BR(~s_L -> ~chi_30 s)
     2.96411841E-02    2     1000035         3   # BR(~s_L -> ~chi_40 s)
     1.00737868E-05    2    -1000024         4   # BR(~s_L -> ~chi_1- c)
     5.93071544E-02    2    -1000037         4   # BR(~s_L -> ~chi_2- c)
     9.08186916E-01    2     1000021         3   # BR(~s_L -> ~g      s)
#
#         PDG            Width
DECAY   2000003     2.42377267E+02   # sstrange_R decays
#          BR         NDA      ID1       ID2
     1.22462167E-02    2     1000022         3   # BR(~s_R -> ~chi_10 s)
     1.02800982E-05    2     1000023         3   # BR(~s_R -> ~chi_20 s)
     1.22422833E-05    2     1000025         3   # BR(~s_R -> ~chi_30 s)
     7.90723188E-10    2     1000035         3   # BR(~s_R -> ~chi_40 s)
     9.87731260E-01    2     1000021         3   # BR(~s_R -> ~g      s)
#
#         PDG            Width
DECAY   1000011     3.02712087E+01   # selectron_L decays
#          BR         NDA      ID1       ID2
     2.26387631E-01    2     1000022        11   # BR(~e_L -> ~chi_10 e-)
     1.02974825E-03    2     1000023        11   # BR(~e_L -> ~chi_20 e-)
     1.14777854E-05    2     1000025        11   # BR(~e_L -> ~chi_30 e-)
     2.57315057E-01    2     1000035        11   # BR(~e_L -> ~chi_40 e-)
     8.98977115E-05    2    -1000024        12   # BR(~e_L -> ~chi_1- nu_e)
     5.15166189E-01    2    -1000037        12   # BR(~e_L -> ~chi_2- nu_e)
#
#         PDG            Width
DECAY   2000011     2.73731341E+01   # selectron_R decays
#          BR         NDA      ID1       ID2
     9.98169921E-01    2     1000022        11   # BR(~e_R -> ~chi_10 e-)
     8.35295505E-04    2     1000023        11   # BR(~e_R -> ~chi_20 e-)
     9.94720493E-04    2     1000025        11   # BR(~e_R -> ~chi_30 e-)
     6.26438834E-08    2     1000035        11   # BR(~e_R -> ~chi_40 e-)
#
#         PDG            Width
DECAY   1000013     3.02712087E+01   # smuon_L decays
#          BR         NDA      ID1       ID2
     2.26387631E-01    2     1000022        13   # BR(~mu_L -> ~chi_10 mu-)
     1.02974825E-03    2     1000023        13   # BR(~mu_L -> ~chi_20 mu-)
     1.14777854E-05    2     1000025        13   # BR(~mu_L -> ~chi_30 mu-)
     2.57315057E-01    2     1000035        13   # BR(~mu_L -> ~chi_40 mu-)
     8.98977115E-05    2    -1000024        14   # BR(~mu_L -> ~chi_1- nu_mu)
     5.15166189E-01    2    -1000037        14   # BR(~mu_L -> ~chi_2- nu_mu)
#
#         PDG            Width
DECAY   2000013     2.73731341E+01   # smuon_R decays
#          BR         NDA      ID1       ID2
     9.98169921E-01    2     1000022        13   # BR(~mu_R -> ~chi_10 mu-)
     8.35295505E-04    2     1000023        13   # BR(~mu_R -> ~chi_20 mu-)
     9.94720493E-04    2     1000025        13   # BR(~mu_R -> ~chi_30 mu-)
     6.26438834E-08    2     1000035        13   # BR(~mu_R -> ~chi_40 mu-)
#
#         PDG            Width
DECAY   1000015     2.91224843E+01   # stau_1 decays
#          BR         NDA      ID1       ID2
     9.29774741E-01    2     1000022        15   # BR(~tau_1 -> ~chi_10  tau-)
     1.56803031E-02    2     1000023        15   # BR(~tau_1 -> ~chi_20  tau-)
     1.49113626E-02    2     1000025        15   # BR(~tau_1 -> ~chi_30  tau-)
     3.35819616E-03    2     1000035        15   # BR(~tau_1 -> ~chi_40  tau-)
     2.95522494E-02    2    -1000024        16   # BR(~tau_1 -> ~chi_1-  nu_tau)
     6.72314721E-03    2    -1000037        16   # BR(~tau_1 -> ~chi_2-  nu_tau)
#
#         PDG            Width
DECAY   2000015     3.10928453E+01   # stau_2 decays
#          BR         NDA      ID1       ID2
     2.28204003E-01    2     1000022        15   # BR(~tau_2 -> ~chi_10  tau-)
     1.47540794E-02    2     1000023        15   # BR(~tau_2 -> ~chi_20  tau-)
     1.45681853E-02    2     1000025        15   # BR(~tau_2 -> ~chi_30  tau-)
     2.47288055E-01    2     1000035        15   # BR(~tau_2 -> ~chi_40  tau-)
     9.39111308E-05    2    -1000024        16   # BR(~tau_2 -> ~chi_1-  nu_tau)
     4.95091766E-01    2    -1000037        16   # BR(~tau_2 -> ~chi_2-  nu_tau)
#
#         PDG            Width
DECAY   1000012     3.02740018E+01   # snu_eL decays
#          BR         NDA      ID1       ID2
     2.26038759E-01    2     1000022        12   # BR(~nu_eL -> ~chi_10 nu_e)
     2.08275730E-05    2     1000023        12   # BR(~nu_eL -> ~chi_20 nu_e)
     7.09974097E-04    2     1000025        12   # BR(~nu_eL -> ~chi_30 nu_e)
     2.57368316E-01    2     1000035        12   # BR(~nu_eL -> ~chi_40 nu_e)
     1.79702648E-03    2     1000024        11   # BR(~nu_eL -> ~chi_1+ e-)
     5.14065097E-01    2     1000037        11   # BR(~nu_eL -> ~chi_2+ e-)
#
#         PDG            Width
DECAY   1000014     3.02740018E+01   # snu_muL decays
#          BR         NDA      ID1       ID2
     2.26038759E-01    2     1000022        14   # BR(~nu_muL -> ~chi_10 nu_mu)
     2.08275730E-05    2     1000023        14   # BR(~nu_muL -> ~chi_20 nu_mu)
     7.09974097E-04    2     1000025        14   # BR(~nu_muL -> ~chi_30 nu_mu)
     2.57368316E-01    2     1000035        14   # BR(~nu_muL -> ~chi_40 nu_mu)
     1.79702648E-03    2     1000024        13   # BR(~nu_muL -> ~chi_1+ mu-)
     5.14065097E-01    2     1000037        13   # BR(~nu_muL -> ~chi_2+ mu-)
#
#         PDG            Width
DECAY   1000016     3.11280819E+01   # snu_tauL decays
#          BR         NDA      ID1       ID2
     2.19812858E-01    2     1000022        16   # BR(~nu_tauL -> ~chi_10 nu_tau)
     2.02535453E-05    2     1000023        16   # BR(~nu_tauL -> ~chi_20 nu_tau)
     6.90406480E-04    2     1000025        16   # BR(~nu_tauL -> ~chi_30 nu_tau)
     2.50214039E-01    2     1000035        16   # BR(~nu_tauL -> ~chi_40 nu_tau)
     2.94876251E-02    2     1000024        15   # BR(~nu_tauL -> ~chi_1+ tau-)
     4.99774818E-01    2     1000037        15   # BR(~nu_tauL -> ~chi_2+ tau-)
#
#         PDG            Width
DECAY   1000024     6.08973751E-01   # chargino1+ decays
#          BR         NDA      ID1       ID2
     1.00000000E+00    2     1000022        24   # BR(~chi_1+ -> ~chi_10  W+)
#
#         PDG            Width
DECAY   1000037     2.04135527E+01   # chargino2+ decays
#          BR         NDA      ID1       ID2
     2.53195667E-01    2     1000024        23   # BR(~chi_2+ -> ~chi_1+  Z )
     1.97855573E-04    2     1000022        24   # BR(~chi_2+ -> ~chi_10  W+)
     2.44153581E-01    2     1000023        24   # BR(~chi_2+ -> ~chi_20  W+)
     2.44104627E-01    2     1000025        24   # BR(~chi_2+ -> ~chi_30  W+)
     2.58347100E-01    2     1000024        25   # BR(~chi_2+ -> ~chi_1+  h )
     1.17051744E-06    2     1000022        37   # BR(~chi_2+ -> ~chi_10  H+)
#
#         PDG            Width
DECAY   1000022     0.00000000E+00   # neutralino1 decays
#
#         PDG            Width
DECAY   1000023     6.36036920E-01   # neutralino2 decays
#          BR         NDA      ID1       ID2
     5.40217990E-01    2     1000022        23   # BR(~chi_20 -> ~chi_10   Z )
     4.59782010E-01    2     1000022        25   # BR(~chi_20 -> ~chi_10   h )
#
#         PDG            Width
DECAY   1000025     6.39079909E-01   # neutralino3 decays
#          BR         NDA      ID1       ID2
     4.50297711E-01    2     1000022        23   # BR(~chi_30 -> ~chi_10   Z )
     5.49702289E-01    2     1000022        25   # BR(~chi_30 -> ~chi_10   h )
#
#         PDG            Width
DECAY   1000035     2.04285700E+01   # neutralino4 decays
#          BR         NDA      ID1       ID2
     4.77419882E-05    2     1000022        23   # BR(~chi_40 -> ~chi_10   Z )
     7.27268394E-02    2     1000023        23   # BR(~chi_40 -> ~chi_20   Z )
     1.79754767E-01    2     1000025        23   # BR(~chi_40 -> ~chi_30   Z )
     2.44784114E-01    2     1000024       -24   # BR(~chi_40 -> ~chi_1+   W-)
     2.44784114E-01    2    -1000024        24   # BR(~chi_40 -> ~chi_1-   W+)
     1.51069466E-04    2     1000022        25   # BR(~chi_40 -> ~chi_10   h )
     1.09473752E-06    2     1000022        35   # BR(~chi_40 -> ~chi_10   H )
     1.34404131E-07    2     1000022        36   # BR(~chi_40 -> ~chi_10   A )
     1.84826897E-01    2     1000023        25   # BR(~chi_40 -> ~chi_20   h )
     7.29232278E-02    2     1000025        25   # BR(~chi_40 -> ~chi_30   h )
#
#         PDG            Width
DECAY        25     4.05767635E-03   # h decays
#          BR         NDA      ID1       ID2
     6.08386473E-01    2           5        -5   # BR(h -> b       bb     )
     6.39175335E-02    2         -15        15   # BR(h -> tau+    tau-   )
     2.26291342E-04    2         -13        13   # BR(h -> mu+     mu-    )
     4.79729906E-04    2           3        -3   # BR(h -> s       sb     )
     2.07875517E-02    2           4        -4   # BR(h -> c       cb     )
     6.72340301E-02    2          21        21   # BR(h -> g       g      )
     2.31142922E-03    2          22        22   # BR(h -> gam     gam    )
     1.48977723E-03    2          22        23   # BR(h -> Z       gam    )
     2.10080004E-01    2          24       -24   # BR(h -> W+      W-     )
     2.50305114E-02    2          23        23   # BR(h -> Z       Z      )
     5.66685031E-05    2     1000022   1000022   # BR(h -> ~chi_10 ~chi_10)
#
#         PDG            Width
DECAY        35     8.10310905E+00   # H decays
#          BR         NDA      ID1       ID2
     3.98496726E-01    2           5        -5   # BR(H -> b       bb     )
     6.87526728E-02    2         -15        15   # BR(H -> tau+    tau-   )
     2.43114912E-04    2         -13        13   # BR(H -> mu+     mu-    )
     2.98021626E-04    2           3        -3   # BR(H -> s       sb     )
     1.66704785E-06    2           4        -4   # BR(H -> c       cb     )
     1.66551283E-01    2           6        -6   # BR(H -> t       tb     )
     5.53418583E-05    2          21        21   # BR(H -> g       g      )
     2.68904156E-07    2          22        22   # BR(H -> gam     gam    )
     9.83347181E-08    2          23        22   # BR(H -> Z       gam    )
     7.67432634E-05    2          24       -24   # BR(H -> W+      W-     )
     3.83230626E-05    2          23        23   # BR(H -> Z       Z      )
     2.84631745E-04    2          25        25   # BR(H -> h       h      )
    -3.80119758E-23    2          36        36   # BR(H -> A       A      )
     2.66675886E-19    2          23        36   # BR(H -> Z       A      )
     1.97468231E-03    2     1000024  -1000024   # BR(H -> ~chi_1+ ~chi_1-)
     1.78192479E-03    2     1000022   1000022   # BR(H -> ~chi_10 ~chi_10)
     3.94777711E-05    2     1000023   1000023   # BR(H -> ~chi_20 ~chi_20)
     5.44066932E-04    2     1000025   1000025   # BR(H -> ~chi_30 ~chi_30)
     2.16430695E-01    2     1000022   1000023   # BR(H -> ~chi_10 ~chi_20)
     1.43917719E-01    2     1000022   1000025   # BR(H -> ~chi_10 ~chi_30)
     5.12541985E-04    2     1000023   1000025   # BR(H -> ~chi_20 ~chi_30)
#
#         PDG            Width
DECAY        36     8.11941835E+00   # A decays
#          BR         NDA      ID1       ID2
     3.97830864E-01    2           5        -5   # BR(A -> b       bb     )
     6.86166258E-02    2         -15        15   # BR(A -> tau+    tau-   )
     2.42633500E-04    2         -13        13   # BR(A -> mu+     mu-    )
     2.97648863E-04    2           3        -3   # BR(A -> s       sb     )
     1.67051090E-06    2           4        -4   # BR(A -> c       cb     )
     1.66805185E-01    2           6        -6   # BR(A -> t       tb     )
     1.65069141E-04    2          21        21   # BR(A -> g       g      )
     5.74656039E-07    2          22        22   # BR(A -> gam     gam    )
     1.99909884E-07    2          23        22   # BR(A -> Z       gam    )
     7.62996133E-05    2          23        25   # BR(A -> Z       h      )
     3.22721391E-03    2     1000024  -1000024   # BR(A -> ~chi_1+ ~chi_1-)
     1.81475596E-03    2     1000022   1000022   # BR(A -> ~chi_10 ~chi_10)
     4.63672969E-05    2     1000023   1000023   # BR(A -> ~chi_20 ~chi_20)
     1.49985443E-03    2     1000025   1000025   # BR(A -> ~chi_30 ~chi_30)
     1.45687793E-01    2     1000022   1000023   # BR(A -> ~chi_10 ~chi_20)
     2.13540984E-01    2     1000022   1000025   # BR(A -> ~chi_10 ~chi_30)
     1.46260570E-04    2     1000023   1000025   # BR(A -> ~chi_20 ~chi_30)
#
#         PDG            Width
DECAY        37     8.08074927E+00   # H+ decays
#          BR         NDA      ID1       ID2
     6.40436458E-04    2           4        -5   # BR(H+ -> c       bb     )
     6.89709672E-02    2         -15        16   # BR(H+ -> tau+    nu_tau )
     2.43886477E-04    2         -13        14   # BR(H+ -> mu+     nu_mu  )
     4.09877212E-06    2           2        -5   # BR(H+ -> u       bb     )
     1.43105922E-05    2           2        -3   # BR(H+ -> u       sb     )
     2.95943933E-04    2           4        -3   # BR(H+ -> c       sb     )
     5.64386551E-01    2           6        -5   # BR(H+ -> t       bb     )
     7.68008013E-05    2          24        25   # BR(H+ -> W+      h      )
     3.00710114E-13    2          24        36   # BR(H+ -> W+      A      )
     3.64459316E-01    2     1000024   1000022   # BR(H+ -> ~chi_1+ ~chi_10)
     8.74909317E-04    2     1000024   1000023   # BR(H+ -> ~chi_1+ ~chi_20)
     3.27794663E-05    2     1000024   1000025   # BR(H+ -> ~chi_1+ ~chi_30)
