#
#                              ======================
#                              | THE SUSYHIT OUTPUT |
#                              ======================
#
#
#              ------------------------------------------------------
#              |     This is the output of the SUSY-HIT package     |
#              |  created by A.Djouadi, M.Muehlleitner and M.Spira. |
#              |  In case of problems with SUSY-HIT email to        |
#              |           margarete.muehlleitner@cern.ch           |
#              |           michael.spira@psi.ch                     |
#              |           abdelhak.djouadi@cern.ch                 |
#              ------------------------------------------------------
#
#              ------------------------------------------------------
#              |  SUSY Les Houches Accord - MSSM Spectrum + Decays  |
#              |              based on the decay programs           |
#              |                                                    |
#              |                     SDECAY 1.3b                    |
#              |                                                    |
#              |  Authors: M.Muhlleitner, A.Djouadi and Y.Mambrini  |
#              |  Ref.:    Comput.Phys.Commun.168(2005)46           |
#              |           [hep-ph/0311167]                         |
#              |                                                    |
#              |                     HDECAY 3.4                     |
#              |                                                    |
#              |  By: A.Djouadi,J.Kalinowski,M.Muhlleitner,M.Spira  |
#              |  Ref.:    Comput.Phys.Commun.108(1998)56           |
#              |           [hep-ph/9704448]                         |
#              |                                                    |
#              |                                                    |
#              |  If not stated otherwise all DRbar couplings and   |
#              |  soft SUSY breaking masses are given at the scale  |
#              |  Q=  0.50007266E+04
#              |                                                    |
#              ------------------------------------------------------
#
#
BLOCK DCINFO  # Decay Program information
     1   SDECAY/HDECAY # decay calculator
     2   1.3b  /3.4    # version number
#
BLOCK SPINFO  # Spectrum calculator information
     1    SOFTSUSY    # spectrum calculator                
     2    3.4.0       # version number                     
#
BLOCK MODSEL  # Model selection
     1     0   #  nonUniversal                                     
#
BLOCK SMINPUTS  # Standard Model inputs
         1     1.25778332E+02   # alpha_em^-1(M_Z)^MSbar
         2     1.16570000E-05   # G_F [GeV^-2]
         3     1.17200002E-01   # alpha_S(M_Z)^MSbar
         4     9.11876000E+01   # M_Z pole mass
         5     4.25000000E+00   # mb(mb)^MSbar
         6     1.72500000E+02   # mt pole mass
         7     1.77682000E+00   # mtau pole mass
#
BLOCK MINPAR  # Input parameters - minimal models
         3     1.00000000E+01   # tanb                
#
BLOCK EXTPAR  # Input parameters - non-minimal models
         0    -1.00000000E+00   # Set                 
         1     6.00000000E+01   # M_1(MX)             
         2     3.00000000E+03   # M_2(MX)             
         3     2.33132800E+03   # M_3(MX)             
        11     5.00000000E+03   # At(MX)              
        12     5.00000000E+03   # Ab(MX)              
        13     0.00000000E+00   # Atau(MX)            
        23    -1.34875400E+03   # mu(MX)              
        26     3.00000000E+03   # mA(pole)            
        31     5.00000000E+03   # meL(MX)             
        32     5.00000000E+03   # mmuL(MX)            
        33     5.00000000E+03   # mtauL(MX)           
        34     5.00000000E+03   # meR(MX)             
        35     5.00000000E+03   # mmuR(MX)            
        36     5.00000000E+03   # mtauR(MX)           
        41     5.00000000E+03   # mqL1(MX)            
        42     5.00000000E+03   # mqL2(MX)            
        43     5.00000000E+03   # mqL3(MX)            
        44     5.00000000E+03   # muR(MX)             
        45     5.00000000E+03   # mcR(MX)             
        46     5.00000000E+03   # mtR(MX)             
        47     5.00000000E+03   # mdR(MX)             
        48     5.00000000E+03   # msR(MX)             
        49     5.00000000E+03   # mbR(MX)             
#
BLOCK MASS  # Mass Spectrum
# PDG code           mass       particle
        24     8.00966379E+01   # W+
        25     1.24828654E+02   # h
        35     3.00008426E+03   # H
        36     2.99999990E+03   # A
        37     3.00087261E+03   # H+
         5     4.87878001E+00   # b-quark pole mass calculated from mb(mb)_Msbar
   1000001     5.08400505E+03   # ~d_L
   2000001     5.06626951E+03   # ~d_R
   1000002     5.08353518E+03   # ~u_L
   2000002     5.06599392E+03   # ~u_R
   1000003     5.08400505E+03   # ~s_L
   2000003     5.06626951E+03   # ~s_R
   1000004     5.08353518E+03   # ~c_L
   2000004     5.06599392E+03   # ~c_R
   1000005     5.02988198E+03   # ~b_1
   2000005     5.06500635E+03   # ~b_2
   1000006     4.92234345E+03   # ~t_1
   2000006     5.07453532E+03   # ~t_2
   1000011     5.01905005E+03   # ~e_L
   2000011     5.00591285E+03   # ~e_R
   1000012     5.01810212E+03   # ~nu_eL
   1000013     5.01905005E+03   # ~mu_L
   2000013     5.00591285E+03   # ~mu_R
   1000014     5.01810212E+03   # ~nu_muL
   1000015     5.00442494E+03   # ~tau_1
   2000015     5.01894558E+03   # ~tau_2
   1000016     5.01756161E+03   # ~nu_tauL
   1000021     2.70000091E+03   # ~g
   1000022     6.03032529E+01   # ~chi_10
   1000023     1.39947340E+03   # ~chi_20
   1000025    -1.40186054E+03   # ~chi_30
   1000035     3.07430940E+03   # ~chi_40
   1000024     1.40000054E+03   # ~chi_1+
   1000037     3.07447683E+03   # ~chi_2+
#
BLOCK NMIX  # Neutralino Mixing Matrix
  1  1     9.99491097E-01   # N_11
  1  2     1.47271089E-04   # N_12
  1  3    -3.18383234E-02   # N_13
  1  4     1.96137564E-03   # N_14
  2  1     2.11272350E-02   # N_21
  2  2     2.90567795E-02   # N_22
  2  3     7.06893152E-01   # N_23
  2  4     7.06407400E-01   # N_24
  3  1    -2.38955297E-02   # N_31
  3  2     1.35646811E-02   # N_32
  3  3    -7.06518457E-01   # N_33
  3  4     7.07160995E-01   # N_34
  4  1    -4.37175148E-04   # N_41
  4  2     9.99485708E-01   # N_42
  4  3    -1.09572873E-02   # N_43
  4  4    -3.01341240E-02   # N_44
#
BLOCK UMIX  # Chargino Mixing Matrix U
  1  1     1.55086089E-02   # U_11
  1  2     9.99879734E-01   # U_12
  2  1    -9.99879734E-01   # U_21
  2  2     1.55086089E-02   # U_22
#
BLOCK VMIX  # Chargino Mixing Matrix V
  1  1     4.26398835E-02   # V_11
  1  2    -9.99090507E-01   # V_12
  2  1    -9.99090507E-01   # V_21
  2  2    -4.26398835E-02   # V_22
#
BLOCK STOPMIX  # Stop Mixing Matrix
  1  1    -5.07337280E-01   # cos(theta_t)
  1  2     8.61747576E-01   # sin(theta_t)
  2  1    -8.61747576E-01   # -sin(theta_t)
  2  2    -5.07337280E-01   # cos(theta_t)
#
BLOCK SBOTMIX  # Sbottom Mixing Matrix
  1  1     9.95148033E-01   # cos(theta_b)
  1  2    -9.83889852E-02   # sin(theta_b)
  2  1     9.83889852E-02   # -sin(theta_b)
  2  2     9.95148033E-01   # cos(theta_b)
#
BLOCK STAUMIX  # Stau Mixing Matrix
  1  1    -1.57636793E-01   # cos(theta_tau)
  1  2     9.87497160E-01   # sin(theta_tau)
  2  1    -9.87497160E-01   # -sin(theta_tau)
  2  2    -1.57636793E-01   # cos(theta_tau)
#
BLOCK ALPHA  # Higgs mixing
          -1.05474982E-01   # Mixing angle in the neutral Higgs boson sector
#
BLOCK HMIX Q=  5.00072663E+03  # DRbar Higgs Parameters
         1    -1.37361571E+03   # mu(Q)MSSM           
         2     9.46948932E+00   # tan                 
         3     2.41937425E+02   # higgs               
         4     8.42320530E+06   # mA^2(Q)MSSM         
#
BLOCK GAUGE Q=  5.00072663E+03  # The gauge couplings
     1     3.70704980E-01   # gprime(Q) DRbar
     2     6.32127348E-01   # g(Q) DRbar
     3     9.94061044E-01   # g3(Q) DRbar
#
BLOCK AU Q=  5.00072663E+03  # The trilinear couplings
  1  1     5.00000002E+03   # A_u(Q) DRbar
  2  2     5.00000002E+03   # A_c(Q) DRbar
  3  3     5.00000002E+03   # A_t(Q) DRbar
#
BLOCK AD Q=  5.00072663E+03  # The trilinear couplings
  1  1     5.00000001E+03   # A_d(Q) DRbar
  2  2     5.00000001E+03   # A_s(Q) DRbar
  3  3     5.00000001E+03   # A_b(Q) DRbar
#
BLOCK AE Q=  5.00072663E+03  # The trilinear couplings
  1  1     0.00000000E+00   # A_e(Q) DRbar
  2  2     2.82516094E-07   # A_mu(Q) DRbar
  3  3     2.82570733E-07   # A_tau(Q) DRbar
#
BLOCK Yu Q=  5.00072663E+03  # The Yukawa couplings
  1  1     0.00000000E+00   # y_u(Q) DRbar
  2  2     0.00000000E+00   # y_c(Q) DRbar
  3  3     8.21107465E-01   # y_t(Q) DRbar
#
BLOCK Yd Q=  5.00072663E+03  # The Yukawa couplings
  1  1     0.00000000E+00   # y_d(Q) DRbar
  2  2     0.00000000E+00   # y_s(Q) DRbar
  3  3     1.31691447E-01   # y_b(Q) DRbar
#
BLOCK Ye Q=  5.00072663E+03  # The Yukawa couplings
  1  1     0.00000000E+00   # y_e(Q) DRbar
  2  2     0.00000000E+00   # y_mu(Q) DRbar
  3  3     9.66636072E-02   # y_tau(Q) DRbar
#
BLOCK MSOFT Q=  5.00072663E+03  # The soft SUSY breaking masses at the scale Q
         1     6.00000000E+01   # M_1(Q)              
         2     3.00000000E+03   # M_2(Q)              
         3     2.33132800E+03   # M_3(Q)              
        21     6.78862691E+06   # mH1^2(Q)            
        22    -1.33239585E+06   # mH2^2(Q)            
        31     5.00000000E+03   # meL(Q)              
        32     5.00000000E+03   # mmuL(Q)             
        33     5.00000000E+03   # mtauL(Q)            
        34     5.00000000E+03   # meR(Q)              
        35     5.00000000E+03   # mmuR(Q)             
        36     5.00000000E+03   # mtauR(Q)            
        41     4.99999999E+03   # mqL1(Q)             
        42     4.99999999E+03   # mqL2(Q)             
        43     4.99999999E+03   # mqL3(Q)             
        44     4.99999999E+03   # muR(Q)              
        45     4.99999999E+03   # mcR(Q)              
        46     4.99999999E+03   # mtR(Q)              
        47     4.99999999E+03   # mdR(Q)              
        48     4.99999999E+03   # msR(Q)              
        49     4.99999999E+03   # mbR(Q)              
#
#
#
#                             =================
#                             |The decay table|
#                             =================
#
# - The QCD corrections to the decays gluino -> squark  + quark
#                                     squark -> gaugino + quark_prime
#                                     squark -> squark_prime + Higgs
#                                     squark -> gluino  + quark
#   are included.
#
# - The multi-body decays for the inos, stops and sbottoms are included.
#
# - The loop induced decays for the gluino, neutralinos and stops
#   are included.
#
# - The SUSY decays of the top quark are included.
#
#
#         PDG            Width
DECAY         6     1.40020987E+00   # top decays
#          BR         NDA      ID1       ID2
     1.00000000E+00    2           5        24   # BR(t ->  b    W+)
#
#         PDG            Width
DECAY   1000021     3.35211437E-03   # gluino decays
#          BR         NDA      ID1       ID2
     3.00440744E-06    2     1000022        21   # BR(~g -> ~chi_10 g)
     5.38849946E-03    2     1000023        21   # BR(~g -> ~chi_20 g)
     5.36255071E-03    2     1000025        21   # BR(~g -> ~chi_30 g)
#           BR         NDA      ID1       ID2       ID3
     3.42235492E-02    3     1000022         1        -1   # BR(~g -> ~chi_10 d  db)
     2.68949183E-05    3     1000023         1        -1   # BR(~g -> ~chi_20 d  db)
     6.27480844E-06    3     1000025         1        -1   # BR(~g -> ~chi_30 d  db)
     1.16695686E-01    3     1000022         2        -2   # BR(~g -> ~chi_10 u  ub)
     5.37122086E-05    3     1000023         2        -2   # BR(~g -> ~chi_20 u  ub)
     6.46917659E-06    3     1000025         2        -2   # BR(~g -> ~chi_30 u  ub)
     3.42235492E-02    3     1000022         3        -3   # BR(~g -> ~chi_10 s  sb)
     2.68949183E-05    3     1000023         3        -3   # BR(~g -> ~chi_20 s  sb)
     6.27480844E-06    3     1000025         3        -3   # BR(~g -> ~chi_30 s  sb)
     1.16695686E-01    3     1000022         4        -4   # BR(~g -> ~chi_10 c  cb)
     5.37122086E-05    3     1000023         4        -4   # BR(~g -> ~chi_20 c  cb)
     6.46917659E-06    3     1000025         4        -4   # BR(~g -> ~chi_30 c  cb)
     3.46738488E-02    3     1000022         5        -5   # BR(~g -> ~chi_10 b  bb)
     3.66295796E-03    3     1000023         5        -5   # BR(~g -> ~chi_20 b  bb)
     3.60217227E-03    3     1000025         5        -5   # BR(~g -> ~chi_30 b  bb)
     1.20445048E-01    3     1000022         6        -6   # BR(~g -> ~chi_10 t  tb)
     1.31755339E-01    3     1000023         6        -6   # BR(~g -> ~chi_20 t  tb)
     1.17137269E-01    3     1000025         6        -6   # BR(~g -> ~chi_30 t  tb)
     7.12684477E-05    3     1000024         1        -2   # BR(~g -> ~chi_1+ d  ub)
     7.12684477E-05    3    -1000024         2        -1   # BR(~g -> ~chi_1- u  db)
     7.12684477E-05    3     1000024         3        -4   # BR(~g -> ~chi_1+ s  cb)
     7.12684477E-05    3    -1000024         4        -3   # BR(~g -> ~chi_1- c  sb)
     1.37829532E-01    3     1000024         5        -6   # BR(~g -> ~chi_1+ b  tb)
     1.37829532E-01    3    -1000024         6        -5   # BR(~g -> ~chi_1- t  bb)
#
#         PDG            Width
DECAY   1000006     2.65676416E+02   # stop1 decays
#          BR         NDA      ID1       ID2
     3.33838519E-02    2     1000022         6   # BR(~t_1 -> ~chi_10 t )
     1.04828766E-01    2     1000023         6   # BR(~t_1 -> ~chi_20 t )
     1.00833667E-01    2     1000025         6   # BR(~t_1 -> ~chi_30 t )
     7.91727029E-03    2     1000035         6   # BR(~t_1 -> ~chi_40 t )
     1.53082740E-01    2     1000024         5   # BR(~t_1 -> ~chi_1+ b )
     1.57549788E-02    2     1000037         5   # BR(~t_1 -> ~chi_2+ b )
     5.84198726E-01    2     1000021         6   # BR(~t_1 -> ~g      t )
#
#         PDG            Width
DECAY   2000006     2.78305840E+02   # stop2 decays
#          BR         NDA      ID1       ID2
     1.23734704E-02    2     1000022         6   # BR(~t_2 -> ~chi_10 t )
     1.03556430E-01    2     1000023         6   # BR(~t_2 -> ~chi_20 t )
     1.07715143E-01    2     1000025         6   # BR(~t_2 -> ~chi_30 t )
     2.00649728E-02    2     1000035         6   # BR(~t_2 -> ~chi_40 t )
     6.13685531E-02    2     1000024         5   # BR(~t_2 -> ~chi_1+ b )
     3.98648704E-02    2     1000037         5   # BR(~t_2 -> ~chi_2+ b )
     6.50640153E-01    2     1000021         6   # BR(~t_2 -> ~g      t )
     9.88513362E-04    2     1000006        25   # BR(~t_2 -> ~t_1    h )
     3.42789347E-03    2     1000006        23   # BR(~t_2 -> ~t_1    Z )
#
#         PDG            Width
DECAY   1000005     2.53443612E+02   # sbottom1 decays
#          BR         NDA      ID1       ID2
     3.06332759E-03    2     1000022         5   # BR(~b_1 -> ~chi_10 b )
     2.99097449E-03    2     1000023         5   # BR(~b_1 -> ~chi_20 b )
     2.85211795E-03    2     1000025         5   # BR(~b_1 -> ~chi_30 b )
     2.98031703E-02    2     1000035         5   # BR(~b_1 -> ~chi_40 b )
     2.23386905E-01    2    -1000024         6   # BR(~b_1 -> ~chi_1- t )
     5.99622902E-02    2    -1000037         6   # BR(~b_1 -> ~chi_2- t )
     6.75843097E-01    2     1000021         5   # BR(~b_1 -> ~g      b )
     2.09811753E-03    2     1000006       -24   # BR(~b_1 -> ~t_1    W-)
#
#         PDG            Width
DECAY   2000005     1.80919222E+02   # sbottom2 decays
#          BR         NDA      ID1       ID2
     1.61590004E-02    2     1000022         5   # BR(~b_2 -> ~chi_10 b )
     4.05695369E-03    2     1000023         5   # BR(~b_2 -> ~chi_20 b )
     4.21488810E-03    2     1000025         5   # BR(~b_2 -> ~chi_30 b )
     4.17625395E-04    2     1000035         5   # BR(~b_2 -> ~chi_40 b )
     1.10844214E-02    2    -1000024         6   # BR(~b_2 -> ~chi_1- t )
     8.39950513E-04    2    -1000037         6   # BR(~b_2 -> ~chi_2- t )
     9.63100687E-01    2     1000021         5   # BR(~b_2 -> ~g      b )
     1.26473371E-04    2     1000006       -24   # BR(~b_2 -> ~t_1    W-)
#
#         PDG            Width
DECAY   1000002     2.00298789E+02   # sup_L decays
#          BR         NDA      ID1       ID2
     3.71687780E-03    2     1000022         2   # BR(~u_L -> ~chi_10 u)
     9.18024461E-05    2     1000023         2   # BR(~u_L -> ~chi_20 u)
     6.58927107E-06    2     1000025         2   # BR(~u_L -> ~chi_30 u)
     3.94356204E-02    2     1000035         2   # BR(~u_L -> ~chi_40 u)
     3.03063785E-04    2     1000024         1   # BR(~u_L -> ~chi_1+ d)
     7.88125473E-02    2     1000037         1   # BR(~u_L -> ~chi_2+ d)
     8.77633499E-01    2     1000021         2   # BR(~u_L -> ~g      u)
#
#         PDG            Width
DECAY   2000002     1.86090826E+02   # sup_R decays
#          BR         NDA      ID1       ID2
     6.36887582E-02    2     1000022         2   # BR(~u_R -> ~chi_10 u)
     2.43710385E-05    2     1000023         2   # BR(~u_R -> ~chi_20 u)
     3.11586851E-05    2     1000025         2   # BR(~u_R -> ~chi_30 u)
     4.90949834E-09    2     1000035         2   # BR(~u_R -> ~chi_40 u)
     9.36255707E-01    2     1000021         2   # BR(~u_R -> ~g      u)
#
#         PDG            Width
DECAY   1000001     2.00316819E+02   # sdown_L decays
#          BR         NDA      ID1       ID2
     3.70570456E-03    2     1000022         1   # BR(~d_L -> ~chi_10 d)
     5.17933379E-05    2     1000023         1   # BR(~d_L -> ~chi_20 d)
     2.77043324E-05    2     1000025         1   # BR(~d_L -> ~chi_30 d)
     3.94575657E-02    2     1000035         1   # BR(~d_L -> ~chi_40 d)
     4.00924373E-05    2    -1000024         2   # BR(~d_L -> ~chi_1- u)
     7.89540339E-02    2    -1000037         2   # BR(~d_L -> ~chi_2- u)
     8.77763106E-01    2     1000021         1   # BR(~d_L -> ~g      d)
#
#         PDG            Width
DECAY   2000001     1.77218840E+02   # sdown_R decays
#          BR         NDA      ID1       ID2
     1.67202210E-02    2     1000022         1   # BR(~d_R -> ~chi_10 d)
     6.39824492E-06    2     1000023         1   # BR(~d_R -> ~chi_20 d)
     8.18023870E-06    2     1000025         1   # BR(~d_R -> ~chi_30 d)
     1.28905244E-09    2     1000035         1   # BR(~d_R -> ~chi_40 d)
     9.83265199E-01    2     1000021         1   # BR(~d_R -> ~g      d)
#
#         PDG            Width
DECAY   1000004     2.00298789E+02   # scharm_L decays
#          BR         NDA      ID1       ID2
     3.71687780E-03    2     1000022         4   # BR(~c_L -> ~chi_10 c)
     9.18024461E-05    2     1000023         4   # BR(~c_L -> ~chi_20 c)
     6.58927107E-06    2     1000025         4   # BR(~c_L -> ~chi_30 c)
     3.94356204E-02    2     1000035         4   # BR(~c_L -> ~chi_40 c)
     3.03063785E-04    2     1000024         3   # BR(~c_L -> ~chi_1+ s)
     7.88125473E-02    2     1000037         3   # BR(~c_L -> ~chi_2+ s)
     8.77633499E-01    2     1000021         4   # BR(~c_L -> ~g      c)
#
#         PDG            Width
DECAY   2000004     1.86090826E+02   # scharm_R decays
#          BR         NDA      ID1       ID2
     6.36887582E-02    2     1000022         4   # BR(~c_R -> ~chi_10 c)
     2.43710385E-05    2     1000023         4   # BR(~c_R -> ~chi_20 c)
     3.11586851E-05    2     1000025         4   # BR(~c_R -> ~chi_30 c)
     4.90949834E-09    2     1000035         4   # BR(~c_R -> ~chi_40 c)
     9.36255707E-01    2     1000021         4   # BR(~c_R -> ~g      c)
#
#         PDG            Width
DECAY   1000003     2.00316819E+02   # sstrange_L decays
#          BR         NDA      ID1       ID2
     3.70570456E-03    2     1000022         3   # BR(~s_L -> ~chi_10 s)
     5.17933379E-05    2     1000023         3   # BR(~s_L -> ~chi_20 s)
     2.77043324E-05    2     1000025         3   # BR(~s_L -> ~chi_30 s)
     3.94575657E-02    2     1000035         3   # BR(~s_L -> ~chi_40 s)
     4.00924373E-05    2    -1000024         4   # BR(~s_L -> ~chi_1- c)
     7.89540339E-02    2    -1000037         4   # BR(~s_L -> ~chi_2- c)
     8.77763106E-01    2     1000021         3   # BR(~s_L -> ~g      s)
#
#         PDG            Width
DECAY   2000003     1.77218840E+02   # sstrange_R decays
#          BR         NDA      ID1       ID2
     1.67202210E-02    2     1000022         3   # BR(~s_R -> ~chi_10 s)
     6.39824492E-06    2     1000023         3   # BR(~s_R -> ~chi_20 s)
     8.18023870E-06    2     1000025         3   # BR(~s_R -> ~chi_30 s)
     1.28905244E-09    2     1000035         3   # BR(~s_R -> ~chi_40 s)
     9.83265199E-01    2     1000021         3   # BR(~s_R -> ~g      s)
#
#         PDG            Width
DECAY   1000011     3.02388637E+01   # selectron_L decays
#          BR         NDA      ID1       ID2
     2.26706369E-01    2     1000022        11   # BR(~e_L -> ~chi_10 e-)
     9.63926214E-04    2     1000023        11   # BR(~e_L -> ~chi_20 e-)
     1.12869175E-07    2     1000025        11   # BR(~e_L -> ~chi_30 e-)
     2.57152441E-01    2     1000035        11   # BR(~e_L -> ~chi_40 e-)
     2.69889253E-04    2    -1000024        12   # BR(~e_L -> ~chi_1- nu_e)
     5.14907262E-01    2    -1000037        12   # BR(~e_L -> ~chi_2- nu_e)
#
#         PDG            Width
DECAY   2000011     2.73594761E+01   # selectron_R decays
#          BR         NDA      ID1       ID2
     9.99135278E-01    2     1000022        11   # BR(~e_R -> ~chi_10 e-)
     3.79483252E-04    2     1000023        11   # BR(~e_R -> ~chi_20 e-)
     4.85164634E-04    2     1000025        11   # BR(~e_R -> ~chi_30 e-)
     7.41741947E-08    2     1000035        11   # BR(~e_R -> ~chi_40 e-)
#
#         PDG            Width
DECAY   1000013     3.02388637E+01   # smuon_L decays
#          BR         NDA      ID1       ID2
     2.26706369E-01    2     1000022        13   # BR(~mu_L -> ~chi_10 mu-)
     9.63926214E-04    2     1000023        13   # BR(~mu_L -> ~chi_20 mu-)
     1.12869175E-07    2     1000025        13   # BR(~mu_L -> ~chi_30 mu-)
     2.57152441E-01    2     1000035        13   # BR(~mu_L -> ~chi_40 mu-)
     2.69889253E-04    2    -1000024        14   # BR(~mu_L -> ~chi_1- nu_mu)
     5.14907262E-01    2    -1000037        14   # BR(~mu_L -> ~chi_2- nu_mu)
#
#         PDG            Width
DECAY   2000013     2.73594761E+01   # smuon_R decays
#          BR         NDA      ID1       ID2
     9.99135278E-01    2     1000022        13   # BR(~mu_R -> ~chi_10 mu-)
     3.79483252E-04    2     1000023        13   # BR(~mu_R -> ~chi_20 mu-)
     4.85164634E-04    2     1000025        13   # BR(~mu_R -> ~chi_30 mu-)
     7.41741947E-08    2     1000035        13   # BR(~mu_R -> ~chi_40 mu-)
#
#         PDG            Width
DECAY   1000015     2.90018556E+01   # stau_1 decays
#          BR         NDA      ID1       ID2
     9.25607949E-01    2     1000022        15   # BR(~tau_1 -> ~chi_10  tau-)
     1.44556668E-02    2     1000023        15   # BR(~tau_1 -> ~chi_20  tau-)
     1.32794368E-02    2     1000025        15   # BR(~tau_1 -> ~chi_30  tau-)
     6.40206595E-03    2     1000035        15   # BR(~tau_1 -> ~chi_40  tau-)
     2.74358495E-02    2    -1000024        16   # BR(~tau_1 -> ~chi_1-  nu_tau)
     1.28190323E-02    2    -1000037        16   # BR(~tau_1 -> ~chi_2-  nu_tau)
#
#         PDG            Width
DECAY   2000015     3.09564144E+01   # stau_2 decays
#          BR         NDA      ID1       ID2
     2.37166579E-01    2     1000022        15   # BR(~tau_2 -> ~chi_10  tau-)
     1.33015520E-02    2     1000023        15   # BR(~tau_2 -> ~chi_20  tau-)
     1.35185452E-02    2     1000025        15   # BR(~tau_2 -> ~chi_30  tau-)
     2.45118465E-01    2     1000035        15   # BR(~tau_2 -> ~chi_40  tau-)
     8.46469811E-05    2    -1000024        16   # BR(~tau_2 -> ~chi_1-  nu_tau)
     4.90810212E-01    2    -1000037        16   # BR(~tau_2 -> ~chi_2-  nu_tau)
#
#         PDG            Width
DECAY   1000012     3.02410766E+01   # snu_eL decays
#          BR         NDA      ID1       ID2
     2.26419271E-01    2     1000022        12   # BR(~nu_eL -> ~chi_10 nu_e)
     1.55823919E-04    2     1000023        12   # BR(~nu_eL -> ~chi_20 nu_e)
     4.26381619E-04    2     1000025        12   # BR(~nu_eL -> ~chi_30 nu_e)
     2.57232208E-01    2     1000035        12   # BR(~nu_eL -> ~chi_40 nu_e)
     2.03953151E-03    2     1000024        11   # BR(~nu_eL -> ~chi_1+ e-)
     5.13726783E-01    2     1000037        11   # BR(~nu_eL -> ~chi_2+ e-)
#
#         PDG            Width
DECAY   1000014     3.02410766E+01   # snu_muL decays
#          BR         NDA      ID1       ID2
     2.26419271E-01    2     1000022        14   # BR(~nu_muL -> ~chi_10 nu_mu)
     1.55823919E-04    2     1000023        14   # BR(~nu_muL -> ~chi_20 nu_mu)
     4.26381619E-04    2     1000025        14   # BR(~nu_muL -> ~chi_30 nu_mu)
     2.57232208E-01    2     1000035        14   # BR(~nu_muL -> ~chi_40 nu_mu)
     2.03953151E-03    2     1000024        13   # BR(~nu_muL -> ~chi_1+ mu-)
     5.13726783E-01    2     1000037        13   # BR(~nu_muL -> ~chi_2+ mu-)
#
#         PDG            Width
DECAY   1000016     3.10248499E+01   # snu_tauL decays
#          BR         NDA      ID1       ID2
     2.20675510E-01    2     1000022        16   # BR(~nu_tauL -> ~chi_10 nu_tau)
     1.51865498E-04    2     1000023        16   # BR(~nu_tauL -> ~chi_20 nu_tau)
     4.15550118E-04    2     1000025        16   # BR(~nu_tauL -> ~chi_30 nu_tau)
     2.50641898E-01    2     1000035        16   # BR(~nu_tauL -> ~chi_40 nu_tau)
     2.75492905E-02    2     1000024        15   # BR(~nu_tauL -> ~chi_1+ tau-)
     5.00565886E-01    2     1000037        15   # BR(~nu_tauL -> ~chi_2+ tau-)
#
#         PDG            Width
DECAY   1000024     8.59829879E-01   # chargino1+ decays
#          BR         NDA      ID1       ID2
     1.00000000E+00    2     1000022        24   # BR(~chi_1+ -> ~chi_10  W+)
#
#         PDG            Width
DECAY   1000037     1.88497367E+01   # chargino2+ decays
#          BR         NDA      ID1       ID2
     2.52814223E-01    2     1000024        23   # BR(~chi_2+ -> ~chi_1+  Z )
     2.42480862E-04    2     1000022        24   # BR(~chi_2+ -> ~chi_10  W+)
     2.43960160E-01    2     1000023        24   # BR(~chi_2+ -> ~chi_20  W+)
     2.43774996E-01    2     1000025        24   # BR(~chi_2+ -> ~chi_30  W+)
     2.59207674E-01    2     1000024        25   # BR(~chi_2+ -> ~chi_1+  h )
     4.66992164E-07    2     1000022        37   # BR(~chi_2+ -> ~chi_10  H+)
#
#         PDG            Width
DECAY   1000022     0.00000000E+00   # neutralino1 decays
#
#         PDG            Width
DECAY   1000023     9.02971414E-01   # neutralino2 decays
#          BR         NDA      ID1       ID2
     5.54023807E-01    2     1000022        23   # BR(~chi_20 -> ~chi_10   Z )
     4.45976193E-01    2     1000022        25   # BR(~chi_20 -> ~chi_10   h )
#
#         PDG            Width
DECAY   1000025     9.11328324E-01   # neutralino3 decays
#          BR         NDA      ID1       ID2
     4.29709539E-01    2     1000022        23   # BR(~chi_30 -> ~chi_10   Z )
     5.70290461E-01    2     1000022        25   # BR(~chi_30 -> ~chi_10   h )
#
#         PDG            Width
DECAY   1000035     1.88548413E+01   # neutralino4 decays
#          BR         NDA      ID1       ID2
     8.22979445E-05    2     1000022        23   # BR(~chi_40 -> ~chi_10   Z )
     4.53972478E-02    2     1000023        23   # BR(~chi_40 -> ~chi_20   Z )
     2.06799857E-01    2     1000025        23   # BR(~chi_40 -> ~chi_30   Z )
     2.44416533E-01    2     1000024       -24   # BR(~chi_40 -> ~chi_1+   W-)
     2.44416533E-01    2    -1000024        24   # BR(~chi_40 -> ~chi_1-   W+)
     1.65209516E-04    2     1000022        25   # BR(~chi_40 -> ~chi_10   h )
     4.23669524E-07    2     1000022        35   # BR(~chi_40 -> ~chi_10   H )
     6.01906363E-08    2     1000022        36   # BR(~chi_40 -> ~chi_10   A )
     2.13308299E-01    2     1000023        25   # BR(~chi_40 -> ~chi_20   h )
     4.54135390E-02    2     1000025        25   # BR(~chi_40 -> ~chi_30   h )
#
#         PDG            Width
DECAY        25     4.04471149E-03   # h decays
#          BR         NDA      ID1       ID2
     6.05403451E-01    2           5        -5   # BR(h -> b       bb     )
     6.41511862E-02    2         -15        15   # BR(h -> tau+    tau-   )
     2.27118280E-04    2         -13        13   # BR(h -> mu+     mu-    )
     4.81436143E-04    2           3        -3   # BR(h -> s       sb     )
     2.08626427E-02    2           4        -4   # BR(h -> c       cb     )
     6.75494971E-02    2          21        21   # BR(h -> g       g      )
     2.32392001E-03    2          22        22   # BR(h -> gam     gam    )
     1.50311606E-03    2          22        23   # BR(h -> Z       gam    )
     2.12150969E-01    2          24       -24   # BR(h -> W+      W-     )
     2.53096347E-02    2          23        23   # BR(h -> Z       Z      )
     3.70284275E-05    2     1000022   1000022   # BR(h -> ~chi_10 ~chi_10)
#
#         PDG            Width
DECAY        35     7.45474014E+00   # H decays
#          BR         NDA      ID1       ID2
     4.37900915E-01    2           5        -5   # BR(H -> b       bb     )
     7.47270487E-02    2         -15        15   # BR(H -> tau+    tau-   )
     2.64240780E-04    2         -13        13   # BR(H -> mu+     mu-    )
     3.23918657E-04    2           3        -3   # BR(H -> s       sb     )
     1.81207002E-06    2           4        -4   # BR(H -> c       cb     )
     1.81040150E-01    2           6        -6   # BR(H -> t       tb     )
     6.01188765E-05    2          21        21   # BR(H -> g       g      )
     3.83979524E-07    2          22        22   # BR(H -> gam     gam    )
     1.06933570E-07    2          23        22   # BR(H -> Z       gam    )
     8.15790784E-05    2          24       -24   # BR(H -> W+      W-     )
     4.07379163E-05    2          23        23   # BR(H -> Z       Z      )
     3.06128318E-04    2          25        25   # BR(H -> h       h      )
     1.61512763E-23    2          36        36   # BR(H -> A       A      )
     7.20443235E-19    2          23        36   # BR(H -> Z       A      )
     3.03995839E-04    2     1000024  -1000024   # BR(H -> ~chi_1+ ~chi_1-)
     9.88382249E-04    2     1000022   1000022   # BR(H -> ~chi_10 ~chi_10)
     2.94418439E-05    2     1000023   1000023   # BR(H -> ~chi_20 ~chi_20)
     4.25016906E-05    2     1000025   1000025   # BR(H -> ~chi_30 ~chi_30)
     1.80993663E-01    2     1000022   1000023   # BR(H -> ~chi_10 ~chi_20)
     1.22838759E-01    2     1000022   1000025   # BR(H -> ~chi_10 ~chi_30)
     5.61163356E-05    2     1000023   1000025   # BR(H -> ~chi_20 ~chi_30)
#
#         PDG            Width
DECAY        36     7.47388997E+00   # A decays
#          BR         NDA      ID1       ID2
     4.36924779E-01    2           5        -5   # BR(A -> b       bb     )
     7.45377288E-02    2         -15        15   # BR(A -> tau+    tau-   )
     2.63570961E-04    2         -13        13   # BR(A -> mu+     mu-    )
     3.23333732E-04    2           3        -3   # BR(A -> s       sb     )
     1.81492760E-06    2           4        -4   # BR(A -> c       cb     )
     1.81225597E-01    2           6        -6   # BR(A -> t       tb     )
     1.79333960E-04    2          21        21   # BR(A -> g       g      )
     4.25998292E-07    2          22        22   # BR(A -> gam     gam    )
     2.17265677E-07    2          23        22   # BR(A -> Z       gam    )
     8.10619486E-05    2          23        25   # BR(A -> Z       h      )
     2.01614195E-03    2     1000024  -1000024   # BR(A -> ~chi_1+ ~chi_1-)
     1.01353986E-03    2     1000022   1000022   # BR(A -> ~chi_10 ~chi_10)
     1.48245546E-04    2     1000023   1000023   # BR(A -> ~chi_20 ~chi_20)
     5.12008456E-04    2     1000025   1000025   # BR(A -> ~chi_30 ~chi_30)
     1.24008174E-01    2     1000022   1000023   # BR(A -> ~chi_10 ~chi_20)
     1.78763300E-01    2     1000022   1000025   # BR(A -> ~chi_10 ~chi_30)
     7.26564909E-07    2     1000023   1000025   # BR(A -> ~chi_20 ~chi_30)
#
#         PDG            Width
DECAY        37     7.47068003E+00   # H+ decays
#          BR         NDA      ID1       ID2
     7.06022324E-04    2           4        -5   # BR(H+ -> c       bb     )
     7.45914482E-02    2         -15        16   # BR(H+ -> tau+    nu_tau )
     2.63760917E-04    2         -13        14   # BR(H+ -> mu+     nu_mu  )
     4.51851983E-06    2           2        -5   # BR(H+ -> u       bb     )
     1.54769416E-05    2           2        -3   # BR(H+ -> u       sb     )
     3.20064364E-04    2           4        -3   # BR(H+ -> c       sb     )
     6.18766740E-01    2           6        -5   # BR(H+ -> t       bb     )
     8.12196463E-05    2          24        25   # BR(H+ -> W+      h      )
     8.90582816E-14    2          24        36   # BR(H+ -> W+      A      )
     3.04978022E-01    2     1000024   1000022   # BR(H+ -> ~chi_1+ ~chi_10)
     2.16225011E-04    2     1000024   1000023   # BR(H+ -> ~chi_1+ ~chi_20)
     5.65021615E-05    2     1000024   1000025   # BR(H+ -> ~chi_1+ ~chi_30)
