#
#                              ======================
#                              | THE SUSYHIT OUTPUT |
#                              ======================
#
#
#              ------------------------------------------------------
#              |     This is the output of the SUSY-HIT package     |
#              |  created by A.Djouadi, M.Muehlleitner and M.Spira. |
#              |  In case of problems with SUSY-HIT email to        |
#              |           margarete.muehlleitner@cern.ch           |
#              |           michael.spira@psi.ch                     |
#              |           abdelhak.djouadi@cern.ch                 |
#              ------------------------------------------------------
#
#              ------------------------------------------------------
#              |  SUSY Les Houches Accord - MSSM Spectrum + Decays  |
#              |              based on the decay programs           |
#              |                                                    |
#              |                     SDECAY 1.3b                    |
#              |                                                    |
#              |  Authors: M.Muhlleitner, A.Djouadi and Y.Mambrini  |
#              |  Ref.:    Comput.Phys.Commun.168(2005)46           |
#              |           [hep-ph/0311167]                         |
#              |                                                    |
#              |                     HDECAY 3.4                     |
#              |                                                    |
#              |  By: A.Djouadi,J.Kalinowski,M.Muhlleitner,M.Spira  |
#              |  Ref.:    Comput.Phys.Commun.108(1998)56           |
#              |           [hep-ph/9704448]                         |
#              |                                                    |
#              |                                                    |
#              |  If not stated otherwise all DRbar couplings and   |
#              |  soft SUSY breaking masses are given at the scale  |
#              |  Q=  0.50007679E+04
#              |                                                    |
#              ------------------------------------------------------
#
#
BLOCK DCINFO  # Decay Program information
     1   SDECAY/HDECAY # decay calculator
     2   1.3b  /3.4    # version number
#
BLOCK SPINFO  # Spectrum calculator information
     1    SOFTSUSY    # spectrum calculator                
     2    3.4.0       # version number                     
#
BLOCK MODSEL  # Model selection
     1     0   #  nonUniversal                                     
#
BLOCK SMINPUTS  # Standard Model inputs
         1     1.25778332E+02   # alpha_em^-1(M_Z)^MSbar
         2     1.16570000E-05   # G_F [GeV^-2]
         3     1.17200002E-01   # alpha_S(M_Z)^MSbar
         4     9.11876000E+01   # M_Z pole mass
         5     4.25000000E+00   # mb(mb)^MSbar
         6     1.72500000E+02   # mt pole mass
         7     1.77682000E+00   # mtau pole mass
#
BLOCK MINPAR  # Input parameters - minimal models
         3     1.00000000E+01   # tanb                
#
BLOCK EXTPAR  # Input parameters - non-minimal models
         0    -1.00000000E+00   # Set                 
         1     6.00000000E+01   # M_1(MX)             
         2     3.00000000E+03   # M_2(MX)             
         3     2.52553300E+03   # M_3(MX)             
        11     5.00000000E+03   # At(MX)              
        12     5.00000000E+03   # Ab(MX)              
        13     0.00000000E+00   # Atau(MX)            
        23    -3.78669000E+02   # mu(MX)              
        26     3.00000000E+03   # mA(pole)            
        31     5.00000000E+03   # meL(MX)             
        32     5.00000000E+03   # mmuL(MX)            
        33     5.00000000E+03   # mtauL(MX)           
        34     5.00000000E+03   # meR(MX)             
        35     5.00000000E+03   # mmuR(MX)            
        36     5.00000000E+03   # mtauR(MX)           
        41     5.00000000E+03   # mqL1(MX)            
        42     5.00000000E+03   # mqL2(MX)            
        43     5.00000000E+03   # mqL3(MX)            
        44     5.00000000E+03   # muR(MX)             
        45     5.00000000E+03   # mcR(MX)             
        46     5.00000000E+03   # mtR(MX)             
        47     5.00000000E+03   # mdR(MX)             
        48     5.00000000E+03   # msR(MX)             
        49     5.00000000E+03   # mbR(MX)             
#
BLOCK MASS  # Mass Spectrum
# PDG code           mass       particle
        24     8.00926807E+01   # W+
        25     1.24796896E+02   # h
        35     3.00008741E+03   # H
        36     2.99999961E+03   # A
        37     3.00145199E+03   # H+
         5     4.87878001E+00   # b-quark pole mass calculated from mb(mb)_Msbar
   1000001     5.08872659E+03   # ~d_L
   2000001     5.07093381E+03   # ~d_R
   1000002     5.08825702E+03   # ~u_L
   2000002     5.07063243E+03   # ~u_R
   1000003     5.08872659E+03   # ~s_L
   2000003     5.07093381E+03   # ~s_R
   1000004     5.08825702E+03   # ~c_L
   2000004     5.07063243E+03   # ~c_R
   1000005     5.03462812E+03   # ~b_1
   2000005     5.06909103E+03   # ~b_2
   1000006     4.92732801E+03   # ~t_1
   2000006     5.07687674E+03   # ~t_2
   1000011     5.01911837E+03   # ~e_L
   2000011     5.00594821E+03   # ~e_R
   1000012     5.01816773E+03   # ~nu_eL
   1000013     5.01911837E+03   # ~mu_L
   2000013     5.00594821E+03   # ~mu_R
   1000014     5.01816773E+03   # ~nu_muL
   1000015     5.00479670E+03   # ~tau_1
   2000015     5.01861951E+03   # ~tau_2
   1000016     5.01761509E+03   # ~nu_tauL
   1000021     2.90000057E+03   # ~g
   1000022     6.00913927E+01   # ~chi_10
   1000023     4.01022000E+02   # ~chi_20
   1000025    -4.03141398E+02   # ~chi_30
   1000035     3.07418056E+03   # ~chi_40
   1000024     4.00000156E+02   # ~chi_1+
   1000037     3.07434834E+03   # ~chi_2+
#
BLOCK NMIX  # Neutralino Mixing Matrix
  1  1     9.93745618E-01   # N_11
  1  2     1.92589139E-04   # N_12
  1  3    -1.11540973E-01   # N_13
  1  4    -5.31232538E-03   # N_14
  2  1     8.26716150E-02   # N_21
  2  2     1.83214336E-02   # N_22
  2  3     7.02939605E-01   # N_23
  2  4     7.06190938E-01   # N_24
  3  1    -7.50659507E-02   # N_31
  3  2     1.75058588E-02   # N_32
  3  3    -7.02448724E-01   # N_33
  3  4     7.07548188E-01   # N_34
  4  1    -3.92079095E-04   # N_41
  4  2     9.99678865E-01   # N_42
  4  3    -5.60591569E-04   # N_43
  4  4    -2.53317808E-02   # N_44
#
BLOCK UMIX  # Chargino Mixing Matrix U
  1  1     7.96369162E-04   # U_11
  1  2     9.99999683E-01   # U_12
  2  1    -9.99999683E-01   # U_21
  2  2     7.96369162E-04   # U_22
#
BLOCK VMIX  # Chargino Mixing Matrix V
  1  1     3.58397785E-02   # V_11
  1  2    -9.99357549E-01   # V_12
  2  1    -9.99357549E-01   # V_21
  2  2    -3.58397785E-02   # V_22
#
BLOCK STOPMIX  # Stop Mixing Matrix
  1  1    -4.99647388E-01   # cos(theta_t)
  1  2     8.66228889E-01   # sin(theta_t)
  2  1    -8.66228889E-01   # -sin(theta_t)
  2  2    -4.99647388E-01   # cos(theta_t)
#
BLOCK SBOTMIX  # Sbottom Mixing Matrix
  1  1     9.99024870E-01   # cos(theta_b)
  1  2    -4.41509810E-02   # sin(theta_b)
  2  1     4.41509810E-02   # -sin(theta_b)
  2  2     9.99024870E-01   # cos(theta_b)
#
BLOCK STAUMIX  # Stau Mixing Matrix
  1  1    -4.53500959E-02   # cos(theta_tau)
  1  2     9.98971155E-01   # sin(theta_tau)
  2  1    -9.98971155E-01   # -sin(theta_tau)
  2  2    -4.53500959E-02   # cos(theta_tau)
#
BLOCK ALPHA  # Higgs mixing
          -1.05496111E-01   # Mixing angle in the neutral Higgs boson sector
#
BLOCK HMIX Q=  5.00076792E+03  # DRbar Higgs Parameters
         1    -3.85617468E+02   # mu(Q)MSSM           
         2     9.46840409E+00   # tan                 
         3     2.41730733E+02   # higgs               
         4     8.71488056E+06   # mA^2(Q)MSSM         
#
BLOCK GAUGE Q=  5.00076792E+03  # The gauge couplings
     1     3.70987609E-01   # gprime(Q) DRbar
     2     6.33518976E-01   # g(Q) DRbar
     3     9.92995417E-01   # g3(Q) DRbar
#
BLOCK AU Q=  5.00076792E+03  # The trilinear couplings
  1  1     5.00000002E+03   # A_u(Q) DRbar
  2  2     5.00000002E+03   # A_c(Q) DRbar
  3  3     5.00000003E+03   # A_t(Q) DRbar
#
BLOCK AD Q=  5.00076792E+03  # The trilinear couplings
  1  1     5.00000001E+03   # A_d(Q) DRbar
  2  2     5.00000001E+03   # A_s(Q) DRbar
  3  3     5.00000001E+03   # A_b(Q) DRbar
#
BLOCK AE Q=  5.00076792E+03  # The trilinear couplings
  1  1     0.00000000E+00   # A_e(Q) DRbar
  2  2     3.04579555E-07   # A_mu(Q) DRbar
  3  3     3.04735177E-07   # A_tau(Q) DRbar
#
BLOCK Yu Q=  5.00076792E+03  # The Yukawa couplings
  1  1     0.00000000E+00   # y_u(Q) DRbar
  2  2     0.00000000E+00   # y_c(Q) DRbar
  3  3     8.21898659E-01   # y_t(Q) DRbar
#
BLOCK Yd Q=  5.00076792E+03  # The Yukawa couplings
  1  1     0.00000000E+00   # y_d(Q) DRbar
  2  2     0.00000000E+00   # y_s(Q) DRbar
  3  3     1.30319634E-01   # y_b(Q) DRbar
#
BLOCK Ye Q=  5.00076792E+03  # The Yukawa couplings
  1  1     0.00000000E+00   # y_e(Q) DRbar
  2  2     0.00000000E+00   # y_mu(Q) DRbar
  3  3     9.71974261E-02   # y_tau(Q) DRbar
#
BLOCK MSOFT Q=  5.00076792E+03  # The soft SUSY breaking masses at the scale Q
         1     6.00000000E+01   # M_1(Q)              
         2     3.00000000E+03   # M_2(Q)              
         3     2.52553300E+03   # M_3(Q)              
        21     8.57939711E+06   # mH1^2(Q)            
        22     4.31941156E+05   # mH2^2(Q)            
        31     5.00000000E+03   # meL(Q)              
        32     5.00000000E+03   # mmuL(Q)             
        33     5.00000000E+03   # mtauL(Q)            
        34     5.00000000E+03   # meR(Q)              
        35     5.00000000E+03   # mmuR(Q)             
        36     5.00000000E+03   # mtauR(Q)            
        41     4.99999999E+03   # mqL1(Q)             
        42     4.99999999E+03   # mqL2(Q)             
        43     4.99999999E+03   # mqL3(Q)             
        44     4.99999999E+03   # muR(Q)              
        45     4.99999999E+03   # mcR(Q)              
        46     4.99999999E+03   # mtR(Q)              
        47     4.99999999E+03   # mdR(Q)              
        48     4.99999999E+03   # msR(Q)              
        49     4.99999999E+03   # mbR(Q)              
#
#
#
#                             =================
#                             |The decay table|
#                             =================
#
# - The QCD corrections to the decays gluino -> squark  + quark
#                                     squark -> gaugino + quark_prime
#                                     squark -> squark_prime + Higgs
#                                     squark -> gluino  + quark
#   are included.
#
# - The multi-body decays for the inos, stops and sbottoms are included.
#
# - The loop induced decays for the gluino, neutralinos and stops
#   are included.
#
# - The SUSY decays of the top quark are included.
#
#
#         PDG            Width
DECAY         6     1.40655528E+00   # top decays
#          BR         NDA      ID1       ID2
     1.00000000E+00    2           5        24   # BR(t ->  b    W+)
#
#         PDG            Width
DECAY   1000021     1.84565438E-02   # gluino decays
#          BR         NDA      ID1       ID2
     6.50275881E-08    2     1000022        21   # BR(~g -> ~chi_10 g)
     2.91792751E-03    2     1000023        21   # BR(~g -> ~chi_20 g)
     2.83046149E-03    2     1000025        21   # BR(~g -> ~chi_30 g)
#           BR         NDA      ID1       ID2       ID3
     9.11353519E-03    3     1000022         1        -1   # BR(~g -> ~chi_10 d  db)
     5.20374394E-05    3     1000023         1        -1   # BR(~g -> ~chi_20 d  db)
     6.13307302E-05    3     1000025         1        -1   # BR(~g -> ~chi_30 d  db)
     3.10819406E-02    3     1000022         2        -2   # BR(~g -> ~chi_10 u  ub)
     2.65392442E-04    3     1000023         2        -2   # BR(~g -> ~chi_20 u  ub)
     1.12610483E-04    3     1000025         2        -2   # BR(~g -> ~chi_30 u  ub)
     9.11353519E-03    3     1000022         3        -3   # BR(~g -> ~chi_10 s  sb)
     5.20374394E-05    3     1000023         3        -3   # BR(~g -> ~chi_20 s  sb)
     6.13307302E-05    3     1000025         3        -3   # BR(~g -> ~chi_30 s  sb)
     3.10819406E-02    3     1000022         4        -4   # BR(~g -> ~chi_10 c  cb)
     2.65392442E-04    3     1000023         4        -4   # BR(~g -> ~chi_20 c  cb)
     1.12610483E-04    3     1000025         4        -4   # BR(~g -> ~chi_30 c  cb)
     9.39078986E-03    3     1000022         5        -5   # BR(~g -> ~chi_10 b  bb)
     5.29615088E-03    3     1000023         5        -5   # BR(~g -> ~chi_20 b  bb)
     5.28785464E-03    3     1000025         5        -5   # BR(~g -> ~chi_30 b  bb)
     3.21648201E-02    3     1000022         6        -6   # BR(~g -> ~chi_10 t  tb)
     2.14022127E-01    3     1000023         6        -6   # BR(~g -> ~chi_20 t  tb)
     2.06503884E-01    3     1000025         6        -6   # BR(~g -> ~chi_30 t  tb)
     5.26797560E-05    3     1000024         1        -2   # BR(~g -> ~chi_1+ d  ub)
     5.26797560E-05    3    -1000024         2        -1   # BR(~g -> ~chi_1- u  db)
     5.26797560E-05    3     1000024         3        -4   # BR(~g -> ~chi_1+ s  cb)
     5.26797560E-05    3    -1000024         4        -3   # BR(~g -> ~chi_1- c  sb)
     2.20000753E-01    3     1000024         5        -6   # BR(~g -> ~chi_1+ b  tb)
     2.20000753E-01    3    -1000024         6        -5   # BR(~g -> ~chi_1- t  bb)
#
#         PDG            Width
DECAY   1000006     2.62670954E+02   # stop1 decays
#          BR         NDA      ID1       ID2
     3.33061865E-02    2     1000022         6   # BR(~t_1 -> ~chi_10 t )
     1.26313276E-01    2     1000023         6   # BR(~t_1 -> ~chi_20 t )
     1.18367700E-01    2     1000025         6   # BR(~t_1 -> ~chi_30 t )
     7.55901466E-03    2     1000035         6   # BR(~t_1 -> ~chi_40 t )
     1.84390056E-01    2     1000024         5   # BR(~t_1 -> ~chi_1+ b )
     1.50690699E-02    2     1000037         5   # BR(~t_1 -> ~chi_2+ b )
     5.14994698E-01    2     1000021         6   # BR(~t_1 -> ~g      t )
#
#         PDG            Width
DECAY   2000006     2.69567630E+02   # stop2 decays
#          BR         NDA      ID1       ID2
     1.27502421E-02    2     1000022         6   # BR(~t_2 -> ~chi_10 t )
     1.21445487E-01    2     1000023         6   # BR(~t_2 -> ~chi_20 t )
     1.30200548E-01    2     1000025         6   # BR(~t_2 -> ~chi_30 t )
     2.13043100E-02    2     1000035         6   # BR(~t_2 -> ~chi_40 t )
     6.97782822E-02    2     1000024         5   # BR(~t_2 -> ~chi_1+ b )
     4.24242030E-02    2     1000037         5   # BR(~t_2 -> ~chi_2+ b )
     5.97859869E-01    2     1000021         6   # BR(~t_2 -> ~g      t )
     9.81759667E-04    2     1000006        25   # BR(~t_2 -> ~t_1    h )
     3.25529907E-03    2     1000006        23   # BR(~t_2 -> ~t_1    Z )
#
#         PDG            Width
DECAY   1000005     2.43791820E+02   # sbottom1 decays
#          BR         NDA      ID1       ID2
     3.20283569E-03    2     1000022         5   # BR(~b_1 -> ~chi_10 b )
     3.35070517E-03    2     1000023         5   # BR(~b_1 -> ~chi_20 b )
     3.38462341E-03    2     1000025         5   # BR(~b_1 -> ~chi_30 b )
     3.14688115E-02    2     1000035         5   # BR(~b_1 -> ~chi_40 b )
     2.71883245E-01    2    -1000024         6   # BR(~b_1 -> ~chi_1- t )
     6.31777300E-02    2    -1000037         6   # BR(~b_1 -> ~chi_2- t )
     6.21380898E-01    2     1000021         5   # BR(~b_1 -> ~g      b )
     2.15115148E-03    2     1000006       -24   # BR(~b_1 -> ~t_1    W-)
#
#         PDG            Width
DECAY   2000005     1.60876079E+02   # sbottom2 decays
#          BR         NDA      ID1       ID2
     1.81382856E-02    2     1000022         5   # BR(~b_2 -> ~chi_10 b )
     5.36041757E-03    2     1000023         5   # BR(~b_2 -> ~chi_20 b )
     5.39388988E-03    2     1000025         5   # BR(~b_2 -> ~chi_30 b )
     8.03054976E-05    2     1000035         5   # BR(~b_2 -> ~chi_40 b )
     1.11425676E-02    2    -1000024         6   # BR(~b_2 -> ~chi_1- t )
     1.61259031E-04    2    -1000037         6   # BR(~b_2 -> ~chi_2- t )
     9.59695636E-01    2     1000021         5   # BR(~b_2 -> ~g      b )
     2.76391591E-05    2     1000006       -24   # BR(~b_2 -> ~t_1    W-)
#
#         PDG            Width
DECAY   1000002     1.80701638E+02   # sup_L decays
#          BR         NDA      ID1       ID2
     4.07837562E-03    2     1000022         2   # BR(~u_L -> ~chi_10 u)
     1.27043582E-04    2     1000023         2   # BR(~u_L -> ~chi_20 u)
     8.70779178E-07    2     1000025         2   # BR(~u_L -> ~chi_30 u)
     4.40375596E-02    2     1000035         2   # BR(~u_L -> ~chi_40 u)
     2.74876188E-04    2     1000024         1   # BR(~u_L -> ~chi_1+ d)
     8.80210465E-02    2     1000037         1   # BR(~u_L -> ~chi_2+ d)
     8.63460228E-01    2     1000021         2   # BR(~u_L -> ~g      u)
#
#         PDG            Width
DECAY   2000002     1.66320883E+02   # sup_R decays
#          BR         NDA      ID1       ID2
     7.05043686E-02    2     1000022         2   # BR(~u_R -> ~chi_10 u)
     4.82589387E-04    2     1000023         2   # BR(~u_R -> ~chi_20 u)
     3.97828556E-04    2     1000025         2   # BR(~u_R -> ~chi_30 u)
     4.43645538E-09    2     1000035         2   # BR(~u_R -> ~chi_40 u)
     9.28615209E-01    2     1000021         2   # BR(~u_R -> ~g      u)
#
#         PDG            Width
DECAY   1000001     1.80718352E+02   # sdown_L decays
#          BR         NDA      ID1       ID2
     4.06221956E-03    2     1000022         1   # BR(~d_L -> ~chi_10 d)
     5.10329088E-07    2     1000023         1   # BR(~d_L -> ~chi_20 d)
     1.10635419E-04    2     1000025         1   # BR(~d_L -> ~chi_30 d)
     4.40603354E-02    2     1000035         1   # BR(~d_L -> ~chi_40 d)
     1.35717901E-07    2    -1000024         2   # BR(~d_L -> ~chi_1- u)
     8.81527841E-02    2    -1000037         2   # BR(~d_L -> ~chi_2- u)
     8.63613380E-01    2     1000021         1   # BR(~d_L -> ~g      d)
#
#         PDG            Width
DECAY   2000001     1.57443507E+02   # sdown_R decays
#          BR         NDA      ID1       ID2
     1.86210653E-02    2     1000022         1   # BR(~d_R -> ~chi_10 d)
     1.27457922E-04    2     1000023         1   # BR(~d_R -> ~chi_20 d)
     1.05071523E-04    2     1000025         1   # BR(~d_R -> ~chi_30 d)
     1.17188135E-09    2     1000035         1   # BR(~d_R -> ~chi_40 d)
     9.81146404E-01    2     1000021         1   # BR(~d_R -> ~g      d)
#
#         PDG            Width
DECAY   1000004     1.80701638E+02   # scharm_L decays
#          BR         NDA      ID1       ID2
     4.07837562E-03    2     1000022         4   # BR(~c_L -> ~chi_10 c)
     1.27043582E-04    2     1000023         4   # BR(~c_L -> ~chi_20 c)
     8.70779178E-07    2     1000025         4   # BR(~c_L -> ~chi_30 c)
     4.40375596E-02    2     1000035         4   # BR(~c_L -> ~chi_40 c)
     2.74876188E-04    2     1000024         3   # BR(~c_L -> ~chi_1+ s)
     8.80210465E-02    2     1000037         3   # BR(~c_L -> ~chi_2+ s)
     8.63460228E-01    2     1000021         4   # BR(~c_L -> ~g      c)
#
#         PDG            Width
DECAY   2000004     1.66320883E+02   # scharm_R decays
#          BR         NDA      ID1       ID2
     7.05043686E-02    2     1000022         4   # BR(~c_R -> ~chi_10 c)
     4.82589387E-04    2     1000023         4   # BR(~c_R -> ~chi_20 c)
     3.97828556E-04    2     1000025         4   # BR(~c_R -> ~chi_30 c)
     4.43645538E-09    2     1000035         4   # BR(~c_R -> ~chi_40 c)
     9.28615209E-01    2     1000021         4   # BR(~c_R -> ~g      c)
#
#         PDG            Width
DECAY   1000003     1.80718352E+02   # sstrange_L decays
#          BR         NDA      ID1       ID2
     4.06221956E-03    2     1000022         3   # BR(~s_L -> ~chi_10 s)
     5.10329088E-07    2     1000023         3   # BR(~s_L -> ~chi_20 s)
     1.10635419E-04    2     1000025         3   # BR(~s_L -> ~chi_30 s)
     4.40603354E-02    2     1000035         3   # BR(~s_L -> ~chi_40 s)
     1.35717901E-07    2    -1000024         4   # BR(~s_L -> ~chi_1- c)
     8.81527841E-02    2    -1000037         4   # BR(~s_L -> ~chi_2- c)
     8.63613380E-01    2     1000021         3   # BR(~s_L -> ~g      s)
#
#         PDG            Width
DECAY   2000003     1.57443507E+02   # sstrange_R decays
#          BR         NDA      ID1       ID2
     1.86210653E-02    2     1000022         3   # BR(~s_R -> ~chi_10 s)
     1.27457922E-04    2     1000023         3   # BR(~s_R -> ~chi_20 s)
     1.05071523E-04    2     1000025         3   # BR(~s_R -> ~chi_30 s)
     1.17188135E-09    2     1000035         3   # BR(~s_R -> ~chi_40 s)
     9.81146404E-01    2     1000021         3   # BR(~s_R -> ~g      s)
#
#         PDG            Width
DECAY   1000011     3.03499948E+01   # selectron_L decays
#          BR         NDA      ID1       ID2
     2.23666594E-01    2     1000022        11   # BR(~e_L -> ~chi_10 e-)
     2.90279968E-03    2     1000023        11   # BR(~e_L -> ~chi_20 e-)
     4.56041253E-04    2     1000025        11   # BR(~e_L -> ~chi_30 e-)
     2.57491310E-01    2     1000035        11   # BR(~e_L -> ~chi_40 e-)
     8.26823455E-07    2    -1000024        12   # BR(~e_L -> ~chi_1- nu_e)
     5.15482429E-01    2    -1000037        12   # BR(~e_L -> ~chi_2- nu_e)
#
#         PDG            Width
DECAY   2000011     2.74013533E+01   # selectron_R decays
#          BR         NDA      ID1       ID2
     9.87685261E-01    2     1000022        11   # BR(~e_R -> ~chi_10 e-)
     6.75015939E-03    2     1000023        11   # BR(~e_R -> ~chi_20 e-)
     5.56451997E-03    2     1000025        11   # BR(~e_R -> ~chi_30 e-)
     5.96680158E-08    2     1000035        11   # BR(~e_R -> ~chi_40 e-)
#
#         PDG            Width
DECAY   1000013     3.03499948E+01   # smuon_L decays
#          BR         NDA      ID1       ID2
     2.23666594E-01    2     1000022        13   # BR(~mu_L -> ~chi_10 mu-)
     2.90279968E-03    2     1000023        13   # BR(~mu_L -> ~chi_20 mu-)
     4.56041253E-04    2     1000025        13   # BR(~mu_L -> ~chi_30 mu-)
     2.57491310E-01    2     1000035        13   # BR(~mu_L -> ~chi_40 mu-)
     8.26823455E-07    2    -1000024        14   # BR(~mu_L -> ~chi_1- nu_mu)
     5.15482429E-01    2    -1000037        14   # BR(~mu_L -> ~chi_2- nu_mu)
#
#         PDG            Width
DECAY   2000013     2.74013533E+01   # smuon_R decays
#          BR         NDA      ID1       ID2
     9.87685261E-01    2     1000022        13   # BR(~mu_R -> ~chi_10 mu-)
     6.75015939E-03    2     1000023        13   # BR(~mu_R -> ~chi_20 mu-)
     5.56451997E-03    2     1000025        13   # BR(~mu_R -> ~chi_30 mu-)
     5.96680158E-08    2     1000035        13   # BR(~mu_R -> ~chi_40 mu-)
#
#         PDG            Width
DECAY   1000015     2.92567665E+01   # stau_1 decays
#          BR         NDA      ID1       ID2
     9.24679429E-01    2     1000022        15   # BR(~tau_1 -> ~chi_10  tau-)
     2.17157540E-02    2     1000023        15   # BR(~tau_1 -> ~chi_20  tau-)
     2.02888192E-02    2     1000025        15   # BR(~tau_1 -> ~chi_30  tau-)
     5.41170501E-04    2     1000035        15   # BR(~tau_1 -> ~chi_40  tau-)
     3.16915835E-02    2    -1000024        16   # BR(~tau_1 -> ~chi_1-  nu_tau)
     1.08324372E-03    2    -1000037        16   # BR(~tau_1 -> ~chi_2-  nu_tau)
#
#         PDG            Width
DECAY   2000015     3.12680033E+01   # stau_2 decays
#          BR         NDA      ID1       ID2
     2.17974618E-01    2     1000022        15   # BR(~tau_2 -> ~chi_10  tau-)
     1.78036387E-02    2     1000023        15   # BR(~tau_2 -> ~chi_20  tau-)
     1.56820858E-02    2     1000025        15   # BR(~tau_2 -> ~chi_30  tau-)
     2.49335740E-01    2     1000035        15   # BR(~tau_2 -> ~chi_40  tau-)
     4.80484779E-05    2    -1000024        16   # BR(~tau_2 -> ~chi_1-  nu_tau)
     4.99155869E-01    2    -1000037        16   # BR(~tau_2 -> ~chi_2-  nu_tau)
#
#         PDG            Width
DECAY   1000012     3.03531890E+01   # snu_eL decays
#          BR         NDA      ID1       ID2
     2.23304870E-01    2     1000022        12   # BR(~nu_eL -> ~chi_10 nu_e)
     5.90019511E-04    2     1000023        12   # BR(~nu_eL -> ~chi_20 nu_e)
     2.46140364E-03    2     1000025        12   # BR(~nu_eL -> ~chi_30 nu_e)
     2.57534829E-01    2     1000035        12   # BR(~nu_eL -> ~chi_40 nu_e)
     1.67411189E-03    2     1000024        11   # BR(~nu_eL -> ~chi_1+ e-)
     5.14434766E-01    2     1000037        11   # BR(~nu_eL -> ~chi_2+ e-)
#
#         PDG            Width
DECAY   1000014     3.03531890E+01   # snu_muL decays
#          BR         NDA      ID1       ID2
     2.23304870E-01    2     1000022        14   # BR(~nu_muL -> ~chi_10 nu_mu)
     5.90019511E-04    2     1000023        14   # BR(~nu_muL -> ~chi_20 nu_mu)
     2.46140364E-03    2     1000025        14   # BR(~nu_muL -> ~chi_30 nu_mu)
     2.57534829E-01    2     1000035        14   # BR(~nu_muL -> ~chi_40 nu_mu)
     1.67411189E-03    2     1000024        13   # BR(~nu_muL -> ~chi_1+ mu-)
     5.14434766E-01    2     1000037        13   # BR(~nu_muL -> ~chi_2+ mu-)
#
#         PDG            Width
DECAY   1000016     3.12747619E+01   # snu_tauL decays
#          BR         NDA      ID1       ID2
     2.16700868E-01    2     1000022        16   # BR(~nu_tauL -> ~chi_10 nu_tau)
     5.72568731E-04    2     1000023        16   # BR(~nu_tauL -> ~chi_20 nu_tau)
     2.38860358E-03    2     1000025        16   # BR(~nu_tauL -> ~chi_30 nu_tau)
     2.49852384E-01    2     1000035        16   # BR(~nu_tauL -> ~chi_40 nu_tau)
     3.13971804E-02    2     1000024        15   # BR(~nu_tauL -> ~chi_1+ tau-)
     4.99088395E-01    2     1000037        15   # BR(~nu_tauL -> ~chi_2+ tau-)
#
#         PDG            Width
DECAY   1000024     2.29904072E-01   # chargino1+ decays
#          BR         NDA      ID1       ID2
     1.00000000E+00    2     1000022        24   # BR(~chi_1+ -> ~chi_10  W+)
#
#         PDG            Width
DECAY   1000037     2.25198180E+01   # chargino2+ decays
#          BR         NDA      ID1       ID2
     2.53607379E-01    2     1000024        23   # BR(~chi_2+ -> ~chi_1+  Z )
     1.38126610E-04    2     1000022        24   # BR(~chi_2+ -> ~chi_10  W+)
     2.45207972E-01    2     1000023        24   # BR(~chi_2+ -> ~chi_20  W+)
     2.44427627E-01    2     1000025        24   # BR(~chi_2+ -> ~chi_30  W+)
     2.56610664E-01    2     1000024        25   # BR(~chi_2+ -> ~chi_1+  h )
     8.23083766E-06    2     1000022        37   # BR(~chi_2+ -> ~chi_10  H+)
#
#         PDG            Width
DECAY   1000022     0.00000000E+00   # neutralino1 decays
#
#         PDG            Width
DECAY   1000023     2.27157237E-01   # neutralino2 decays
#          BR         NDA      ID1       ID2
     4.94365291E-01    2     1000022        23   # BR(~chi_20 -> ~chi_10   Z )
     5.05634709E-01    2     1000022        25   # BR(~chi_20 -> ~chi_10   h )
#
#         PDG            Width
DECAY   1000025     2.16580808E-01   # neutralino3 decays
#          BR         NDA      ID1       ID2
     5.81761434E-01    2     1000022        23   # BR(~chi_30 -> ~chi_10   Z )
     4.18238566E-01    2     1000022        25   # BR(~chi_30 -> ~chi_10   h )
#
#         PDG            Width
DECAY   1000035     2.25266889E+01   # neutralino4 decays
#          BR         NDA      ID1       ID2
     2.15563211E-06    2     1000022        23   # BR(~chi_40 -> ~chi_10   Z )
     1.20958194E-01    2     1000023        23   # BR(~chi_40 -> ~chi_20   Z )
     1.32332863E-01    2     1000025        23   # BR(~chi_40 -> ~chi_30   Z )
     2.45200746E-01    2     1000024       -24   # BR(~chi_40 -> ~chi_1+   W-)
     2.45200746E-01    2    -1000024        24   # BR(~chi_40 -> ~chi_1-   W+)
     1.25400202E-04    2     1000022        25   # BR(~chi_40 -> ~chi_10   h )
     7.93896918E-06    2     1000022        35   # BR(~chi_40 -> ~chi_10   H )
     8.50056857E-07    2     1000022        36   # BR(~chi_40 -> ~chi_10   A )
     1.34951613E-01    2     1000023        25   # BR(~chi_40 -> ~chi_20   h )
     1.21219493E-01    2     1000025        25   # BR(~chi_40 -> ~chi_30   h )
#
#         PDG            Width
DECAY        25     4.07142975E-03   # h decays
#          BR         NDA      ID1       ID2
     6.08741379E-01    2           5        -5   # BR(h -> b       bb     )
     6.37249357E-02    2         -15        15   # BR(h -> tau+    tau-   )
     2.25609339E-04    2         -13        13   # BR(h -> mu+     mu-    )
     4.78260175E-04    2           3        -3   # BR(h -> s       sb     )
     2.07214505E-02    2           4        -4   # BR(h -> c       cb     )
     6.70569122E-02    2          21        21   # BR(h -> g       g      )
     2.30490186E-03    2          22        22   # BR(h -> gam     gam    )
     1.48877560E-03    2          22        23   # BR(h -> Z       gam    )
     2.10152744E-01    2          24       -24   # BR(h -> W+      W-     )
     2.50434509E-02    2          23        23   # BR(h -> Z       Z      )
     6.15804250E-05    2     1000022   1000022   # BR(h -> ~chi_10 ~chi_10)
#
#         PDG            Width
DECAY        35     8.72666902E+00   # H decays
#          BR         NDA      ID1       ID2
     3.64438296E-01    2           5        -5   # BR(H -> b       bb     )
     6.38207491E-02    2         -15        15   # BR(H -> tau+    tau-   )
     2.25675238E-04    2         -13        13   # BR(H -> mu+     mu-    )
     2.76643156E-04    2           3        -3   # BR(H -> s       sb     )
     1.54858058E-06    2           4        -4   # BR(H -> c       cb     )
     1.54715471E-01    2           6        -6   # BR(H -> t       tb     )
     5.14711927E-05    2          21        21   # BR(H -> g       g      )
     1.40016221E-07    2          22        22   # BR(H -> gam     gam    )
     9.12997871E-08    2          23        22   # BR(H -> Z       gam    )
     7.46346587E-05    2          24       -24   # BR(H -> W+      W-     )
     3.72700852E-05    2          23        23   # BR(H -> Z       Z      )
     2.68587931E-04    2          25        25   # BR(H -> h       h      )
    -1.16995775E-23    2          36        36   # BR(H -> A       A      )
     6.90332691E-19    2          23        36   # BR(H -> Z       A      )
     3.30551712E-03    2     1000024  -1000024   # BR(H -> ~chi_1+ ~chi_1-)
     1.04857509E-02    2     1000022   1000022   # BR(H -> ~chi_10 ~chi_10)
     1.10171910E-03    2     1000023   1000023   # BR(H -> ~chi_20 ~chi_20)
     3.42941019E-03    2     1000025   1000025   # BR(H -> ~chi_30 ~chi_30)
     2.39015305E-01    2     1000022   1000023   # BR(H -> ~chi_10 ~chi_20)
     1.53431981E-01    2     1000022   1000025   # BR(H -> ~chi_10 ~chi_30)
     5.31973904E-03    2     1000023   1000025   # BR(H -> ~chi_20 ~chi_30)
#
#         PDG            Width
DECAY        36     8.73267855E+00   # A decays
#          BR         NDA      ID1       ID2
     3.64311951E-01    2           5        -5   # BR(A -> b       bb     )
     6.37787188E-02    2         -15        15   # BR(A -> tau+    tau-   )
     2.25526300E-04    2         -13        13   # BR(A -> mu+     mu-    )
     2.76662757E-04    2           3        -3   # BR(A -> s       sb     )
     1.55366737E-06    2           4        -4   # BR(A -> c       cb     )
     1.55138031E-01    2           6        -6   # BR(A -> t       tb     )
     1.53504086E-04    2          21        21   # BR(A -> g       g      )
     5.82801045E-07    2          22        22   # BR(A -> gam     gam    )
     1.85804418E-07    2          23        22   # BR(A -> Z       gam    )
     7.43007997E-05    2          23        25   # BR(A -> Z       h      )
     3.52295090E-03    2     1000024  -1000024   # BR(A -> ~chi_1+ ~chi_1-)
     1.02863385E-02    2     1000022   1000022   # BR(A -> ~chi_10 ~chi_10)
     7.74024660E-04    2     1000023   1000023   # BR(A -> ~chi_20 ~chi_20)
     5.66584297E-03    2     1000025   1000025   # BR(A -> ~chi_30 ~chi_30)
     1.57123205E-01    2     1000022   1000023   # BR(A -> ~chi_10 ~chi_20)
     2.34454399E-01    2     1000022   1000025   # BR(A -> ~chi_10 ~chi_30)
     4.21222040E-03    2     1000023   1000025   # BR(A -> ~chi_20 ~chi_30)
#
#         PDG            Width
DECAY        37     8.68288196E+00   # H+ decays
#          BR         NDA      ID1       ID2
     5.85074522E-04    2           4        -5   # BR(H+ -> c       bb     )
     6.41755458E-02    2         -15        16   # BR(H+ -> tau+    nu_tau )
     2.26929510E-04    2         -13        14   # BR(H+ -> mu+     nu_mu  )
     3.74445727E-06    2           2        -5   # BR(H+ -> u       bb     )
     1.33154183E-05    2           2        -3   # BR(H+ -> u       sb     )
     2.75364580E-04    2           4        -3   # BR(H+ -> c       sb     )
     5.18475544E-01    2           6        -5   # BR(H+ -> t       bb     )
     7.48837407E-05    2          24        25   # BR(H+ -> W+      h      )
     9.78022200E-13    2          24        36   # BR(H+ -> W+      A      )
     4.10203129E-01    2     1000024   1000022   # BR(H+ -> ~chi_1+ ~chi_10)
     5.22007755E-03    2     1000024   1000023   # BR(H+ -> ~chi_1+ ~chi_20)
     7.46391326E-04    2     1000024   1000025   # BR(H+ -> ~chi_1+ ~chi_30)
