#
#                              ======================
#                              | THE SUSYHIT OUTPUT |
#                              ======================
#
#
#              ------------------------------------------------------
#              |     This is the output of the SUSY-HIT package     |
#              |  created by A.Djouadi, M.Muehlleitner and M.Spira. |
#              |  In case of problems with SUSY-HIT email to        |
#              |           margarete.muehlleitner@kit.edu           |
#              |           michael.spira@psi.ch                     |
#              |           abdelhak.djouadi@cern.ch                 |
#              ------------------------------------------------------
#
#              ------------------------------------------------------
#              |  SUSY Les Houches Accord - MSSM Spectrum + Decays  |
#              |              based on the decay programs           |
#              |                                                    |
#              |                     SDECAY 1.5                     |
#              |                                                    |
#              |  Authors: M.Muhlleitner, A.Djouadi and Y.Mambrini  |
#              |  Ref.:    Comput.Phys.Commun.168(2005)46           |
#              |           [hep-ph/0311167]                         |
#              |                                                    |
#              |                     HDECAY 3.4                     |
#              |                                                    |
#              |  By: A.Djouadi,J.Kalinowski,M.Muhlleitner,M.Spira  |
#              |  Ref.:    Comput.Phys.Commun.108(1998)56           |
#              |           [hep-ph/9704448]                         |
#              |                                                    |
#              |                                                    |
#              |  If not stated otherwise all DRbar couplings and   |
#              |  soft SUSY breaking masses are given at the scale  |
#              |  Q=  0.91187600E+02
#              |                                                    |
#              ------------------------------------------------------
#
#
BLOCK DCINFO  # Decay Program information
     1   SDECAY/HDECAY # decay calculator
     2   1.5  /3.4    # version number
#
BLOCK SPINFO  # Spectrum calculator information
     1   SuSpect     # RGE +Spectrum calculator            
     2   2.43         # version number                     
#
BLOCK MODSEL  # Model selection
     1     2   # GMSB                                              
#
BLOCK SMINPUTS  # Standard Model inputs
         1     1.27932904E+02   # alpha_em^-1(M_Z)^MSbar
         2     1.16639000E-05   # G_F [GeV^-2]
         3     1.17200000E-01   # alpha_S(M_Z)^MSbar
         4     9.11870000E+01   # M_Z pole mass
         5     4.25000000E+00   # mb(mb)^MSbar
         6     1.72900000E+02   # mt pole mass
         7     1.77700000E+00   # mtau pole mass
#
BLOCK MINPAR  # Input parameters - minimal models
#
BLOCK EXTPAR  # Input parameters - non-minimal models
         0     9.11876000E+01   # EWSB                
         1     2.08900000E+03   # M_1                 
         2     3.00000000E+03   # M_2                 
         3     2.20000000E+03   # M_3                 
        11     0.00000000E+00   # A_t                 
        12     0.00000000E+00   # A_b                 
        13     0.00000000E+00   # A_tau               
        14     0.00000000E+00   # A_u                 
        15     0.00000000E+00   # A_d                 
        16     0.00000000E+00   # A_e                 
        23     2.11000000E+03   # mu(EWSB)            
        25     1.50000000E+00   # tanbeta(in)         
        26     2.00000000E+03   # MA_pole             
        31     5.00000000E+03   # M_eL                
        32     5.00000000E+03   # M_muL               
        33     5.00000000E+03   # M_tauL              
        34     5.00000000E+03   # M_eR                
        35     5.00000000E+03   # M_muR               
        36     5.00000000E+03   # M_tauR              
        41     5.00000000E+03   # M_q1L               
        42     5.00000000E+03   # M_q2L               
        43     5.00000000E+03   # M_q3L               
        44     5.00000000E+03   # M_uR                
        45     5.00000000E+03   # M_cR                
        46     5.00000000E+03   # M_tR                
        47     5.00000000E+03   # M_dR                
        48     5.00000000E+03   # M_sR                
        49     5.00000000E+03   # M_bR                
#
BLOCK MASS  # Mass Spectrum
# PDG code           mass       particle
        24     8.05422814E+01   # W+
        25     1.26000000E+02   # h
        35     2.00398866E+03   # H
        36     2.00000000E+03   # A
        37     2.00152123E+03   # H+
         5     4.87877839E+00   # b-quark pole mass calculated from mb(mb)_Msbar
   1000001     4.92095255E+03   # ~d_L
   2000001     4.92084214E+03   # ~d_R
   1000002     4.92070565E+03   # ~u_L
   2000002     4.92076392E+03   # ~u_R
   1000003     4.92095255E+03   # ~s_L
   2000003     4.92084214E+03   # ~s_R
   1000004     4.92070565E+03   # ~c_L
   2000004     4.92076392E+03   # ~c_R
   1000005     4.92002369E+03   # ~b_1
   2000005     4.92177232E+03   # ~b_2
   1000006     5.02767379E+03   # ~t_1
   2000006     5.31494032E+03   # ~t_2
   1000011     5.00008214E+03   # ~e_L
   2000011     5.00007618E+03   # ~e_R
   1000012     4.99984168E+03   # ~nu_eL
   1000013     5.00008214E+03   # ~mu_L
   2000013     5.00007618E+03   # ~mu_R
   1000014     4.99984168E+03   # ~nu_muL
   1000015     4.99951643E+03   # ~tau_1
   2000015     5.00064245E+03   # ~tau_2
   1000016     4.99984168E+03   # ~nu_tauL
   1000021     2.23870418E+03   # ~g
   1000022     2.17828234E+03   # ~chi_10
   1000023    -2.23385765E+03   # ~chi_20
   1000025     2.26580093E+03   # ~chi_30
   1000035     3.12469834E+03   # ~chi_40
   1000024     2.22709257E+03   # ~chi_1+
   1000037     3.12468271E+03   # ~chi_2+
   1000039     1.00000000E-09   # ~gravitino
#
BLOCK NMIX  # Neutralino Mixing Matrix
  1  1     7.46453227E-01   # N_11
  1  2    -5.46959190E-02   # N_12
  1  3     4.70122030E-01   # N_13
  1  4    -4.67761919E-01   # N_14
  2  1     1.96159652E-03   # N_21
  2  2    -2.89846665E-03   # N_22
  2  3    -7.07053332E-01   # N_23
  2  4    -7.07151565E-01   # N_24
  3  1     6.65421702E-01   # N_31
  3  2     6.76618140E-02   # N_32
  3  3    -5.24911181E-01   # N_33
  3  4     5.26406772E-01   # N_34
  4  1     4.20597567E-03   # N_41
  4  2    -9.96203711E-01   # N_42
  4  3    -5.94063523E-02   # N_43
  4  4     6.34929981E-02   # N_44
#
BLOCK UMIX  # Chargino Mixing Matrix U
  1  1    -8.38185426E-02   # U_11
  1  2     9.96481034E-01   # U_12
  2  1     9.96481034E-01   # U_21
  2  2     8.38185426E-02   # U_22
#
BLOCK VMIX  # Chargino Mixing Matrix V
  1  1    -8.95916692E-02   # V_11
  1  2     9.95978581E-01   # V_12
  2  1     9.95978581E-01   # V_21
  2  2     8.95916692E-02   # V_22
#
BLOCK STOPMIX  # Stop Mixing Matrix
  1  1     9.99728384E-01   # cos(theta_t)
  1  2     2.33057552E-02   # sin(theta_t)
  2  1    -2.33057552E-02   # -sin(theta_t)
  2  2     9.99728384E-01   # cos(theta_t)
#
BLOCK SBOTMIX  # Sbottom Mixing Matrix
  1  1     6.84418168E-01   # cos(theta_b)
  1  2     7.29089687E-01   # sin(theta_b)
  2  1    -7.29089687E-01   # -sin(theta_b)
  2  2     6.84418168E-01   # cos(theta_b)
#
BLOCK STAUMIX  # Stau Mixing Matrix
  1  1     7.05231998E-01   # cos(theta_tau)
  1  2     7.08976607E-01   # sin(theta_tau)
  2  1    -7.08976607E-01   # -sin(theta_tau)
  2  2     7.05231998E-01   # cos(theta_tau)
#
BLOCK ALPHA  # Higgs mixing
          -5.90196227E-01   # Mixing angle in the neutral Higgs boson sector
#
BLOCK HMIX Q=  9.11876000E+01  # DRbar Higgs Parameters
         1     2.11000000E+03   # mu(Q)               
         2     1.49999979E+00   # tanbeta(Q)          
         3     2.52362487E+02   # vev(Q)              
         4     2.96265216E+06   # MA^2(Q)             
#
BLOCK GAUGE Q=  9.11876000E+01  # The gauge couplings
     1     3.52696036E-01   # gprime(Q) DRbar
     2     6.26625097E-01   # g(Q) DRbar
     3     1.07892804E+00   # g3(Q) DRbar
#
BLOCK AU Q=  9.11876000E+01  # The trilinear couplings
  1  1     0.00000000E+00   # A_u(Q) DRbar
  2  2     0.00000000E+00   # A_c(Q) DRbar
  3  3     0.00000000E+00   # A_t(Q) DRbar
#
BLOCK AD Q=  9.11876000E+01  # The trilinear couplings
  1  1     0.00000000E+00   # A_d(Q) DRbar
  2  2     0.00000000E+00   # A_s(Q) DRbar
  3  3     0.00000000E+00   # A_b(Q) DRbar
#
BLOCK AE Q=  9.11876000E+01  # The trilinear couplings
  1  1     0.00000000E+00   # A_e(Q) DRbar
  2  2     0.00000000E+00   # A_mu(Q) DRbar
  3  3     0.00000000E+00   # A_tau(Q) DRbar
#
BLOCK Yu Q=  9.11876000E+01  # The Yukawa couplings
  1  1     0.00000000E+00   # y_u(Q) DRbar
  2  2     0.00000000E+00   # y_c(Q) DRbar
  3  3     1.02460956E+00   # y_t(Q) DRbar
#
BLOCK Yd Q=  9.11876000E+01  # The Yukawa couplings
  1  1     0.00000000E+00   # y_d(Q) DRbar
  2  2     0.00000000E+00   # y_s(Q) DRbar
  3  3     2.71247140E-02   # y_b(Q) DRbar
#
BLOCK Ye Q=  9.11876000E+01  # The Yukawa couplings
  1  1     0.00000000E+00   # y_e(Q) DRbar
  2  2     0.00000000E+00   # y_mu(Q) DRbar
  3  3     1.79712179E-02   # y_tau(Q) DRbar
#
BLOCK MSOFT Q=  9.11876000E+01  # The soft SUSY breaking masses at the scale Q
         1     2.08900000E+03   # M_1                 
         2     3.00000000E+03   # M_2                 
         3     2.20000000E+03   # M_3                 
        14     0.00000000E+00   # A_u                 
        15     0.00000000E+00   # A_d                 
        16     0.00000000E+00   # A_e                 
        21    -1.93567088E+06   # M^2_Hd              
        22    -9.49522686E+06   # M^2_Hu              
        31     5.00000000E+03   # M_eL                
        32     5.00000000E+03   # M_muL               
        33     5.00000000E+03   # M_tauL              
        34     5.00000000E+03   # M_eR                
        35     5.00000000E+03   # M_muR               
        36     5.00000000E+03   # M_tauR              
        41     5.00000000E+03   # M_q1L               
        42     5.00000000E+03   # M_q2L               
        43     5.00000000E+03   # M_q3L               
        44     5.00000000E+03   # M_uR                
        45     5.00000000E+03   # M_cR                
        46     5.00000000E+03   # M_tR                
        47     5.00000000E+03   # M_dR                
        48     5.00000000E+03   # M_sR                
        49     5.00000000E+03   # M_bR                
#
#
#
#                             =================
#                             |The decay table|
#                             =================
#
# - The QCD corrections to the decays gluino -> squark  + quark
#                                     squark -> gaugino + quark_prime
#                                     squark -> squark_prime + Higgs
#                                     squark -> gluino  + quark
#   are included.
#
# - The multi-body decays for the inos, stops and sbottoms are included.
#
# - The loop induced decays for the gluino, neutralinos and stops
#   are included.
#
# - The SUSY decays of the top quark are included.
#
# - Possible decays of the NLSP in GMSB models are included.
#
#
#         PDG            Width
DECAY         6     1.36803117E+00   # top decays
#          BR         NDA      ID1       ID2
     1.00000000E+00    2           5        24   # BR(t ->  b    W+)
#
#         PDG            Width
DECAY   1000021     6.47428968E-05   # gluino decays
#          BR         NDA      ID1       ID2
     4.95454921E-05    2     1000022        21   # BR(~g -> ~chi_10 g)
     6.11069144E-08    2     1000023        21   # BR(~g -> ~chi_20 g)
#          BR         NDA      ID1       ID2
0.0E+00    2     1000039    21 # BR(~g -> ~G      g)
#           BR         NDA      ID1       ID2       ID3
     1.71198359E-07    3     1000022         1        -1   # BR(~g -> ~chi_10 d  db)
     1.91970894E-17    3     1000023         1        -1   # BR(~g -> ~chi_20 d  db)
     4.72406619E-07    3     1000022         2        -2   # BR(~g -> ~chi_10 u  ub)
     1.46775963E-17    3     1000023         2        -2   # BR(~g -> ~chi_20 u  ub)
     1.71198359E-07    3     1000022         3        -3   # BR(~g -> ~chi_10 s  sb)
     1.91970894E-17    3     1000023         3        -3   # BR(~g -> ~chi_20 s  sb)
     4.72406619E-07    3     1000022         4        -4   # BR(~g -> ~chi_10 c  cb)
     1.46775963E-17    3     1000023         4        -4   # BR(~g -> ~chi_20 c  cb)
     1.53267717E-07    3     1000022         5        -5   # BR(~g -> ~chi_10 b  bb)
     6.06272062E-12    3     1000024         1        -2   # BR(~g -> ~chi_1+ d  ub)
     6.06272062E-12    3    -1000024         2        -1   # BR(~g -> ~chi_1- u  db)
     6.06272062E-12    3     1000024         3        -4   # BR(~g -> ~chi_1+ s  cb)
     6.06272062E-12    3    -1000024         4        -3   # BR(~g -> ~chi_1- c  sb)
#
#         PDG            Width
DECAY   1000006     2.41176522E+02   # stop1 decays
#          BR         NDA      ID1       ID2
     4.30910287E-02    2     1000022         6   # BR(~t_1 -> ~chi_10 t )
     9.59370086E-02    2     1000023         6   # BR(~t_1 -> ~chi_20 t )
     5.42950772E-02    2     1000025         6   # BR(~t_1 -> ~chi_30 t )
     3.03693853E-02    2     1000035         6   # BR(~t_1 -> ~chi_40 t )
     2.74053980E-04    2     1000024         5   # BR(~t_1 -> ~chi_1+ b )
     5.92677059E-02    2     1000037         5   # BR(~t_1 -> ~chi_2+ b )
     7.09277356E-01    2     1000021         6   # BR(~t_1 -> ~g      t )
     3.71977483E-03    2     1000005        24   # BR(~t_1 -> ~b_1    W+)
     3.76860913E-03    2     2000005        24   # BR(~t_1 -> ~b_2    W+)
#
#         PDG            Width
DECAY   2000006     2.99424457E+02   # stop2 decays
#          BR         NDA      ID1       ID2
     5.25026366E-02    2     1000022         6   # BR(~t_2 -> ~chi_10 t )
     8.66924703E-02    2     1000023         6   # BR(~t_2 -> ~chi_20 t )
     5.92658478E-02    2     1000025         6   # BR(~t_2 -> ~chi_30 t )
     2.96747346E-04    2     1000035         6   # BR(~t_2 -> ~chi_40 t )
     1.73278587E-01    2     1000024         5   # BR(~t_2 -> ~chi_1+ b )
     5.95910742E-04    2     1000037         5   # BR(~t_2 -> ~chi_2+ b )
     6.26720842E-01    2     1000021         6   # BR(~t_2 -> ~g      t )
     1.30072412E-05    2     1000006        25   # BR(~t_2 -> ~t_1    h )
     9.53245171E-05    2     1000006        23   # BR(~t_2 -> ~t_1    Z )
     2.54169497E-04    2     1000005        24   # BR(~t_2 -> ~b_1    W+)
     2.84457107E-04    2     2000005        24   # BR(~t_2 -> ~b_2    W+)
#
#         PDG            Width
DECAY   1000005     1.95611320E+02   # sbottom1 decays
#          BR         NDA      ID1       ID2
     4.43025775E-03    2     1000022         5   # BR(~b_1 -> ~chi_10 b )
     7.17598011E-05    2     1000023         5   # BR(~b_1 -> ~chi_20 b )
     1.63787460E-03    2     1000025         5   # BR(~b_1 -> ~chi_30 b )
     1.52227044E-02    2     1000035         5   # BR(~b_1 -> ~chi_40 b )
     1.01546774E-01    2    -1000024         6   # BR(~b_1 -> ~chi_1- t )
     3.12170476E-02    2    -1000037         6   # BR(~b_1 -> ~chi_2- t )
     8.45873582E-01    2     1000021         5   # BR(~b_1 -> ~g      b )
#
#         PDG            Width
DECAY   2000005     2.01770007E+02   # sbottom2 decays
#          BR         NDA      ID1       ID2
     2.69361635E-03    2     1000022         5   # BR(~b_2 -> ~chi_10 b )
     8.65748973E-05    2     1000023         5   # BR(~b_2 -> ~chi_20 b )
     2.24529750E-03    2     1000025         5   # BR(~b_2 -> ~chi_30 b )
     1.79611073E-02    2     1000035         5   # BR(~b_2 -> ~chi_40 b )
     1.20569267E-01    2    -1000024         6   # BR(~b_2 -> ~chi_1- t )
     3.68393590E-02    2    -1000037         6   # BR(~b_2 -> ~chi_2- t )
     8.19604778E-01    2     1000021         5   # BR(~b_2 -> ~g      b )
#
#         PDG            Width
DECAY   1000002     1.85860530E+02   # sup_L decays
#          BR         NDA      ID1       ID2
     4.70177653E-04    2     1000022         2   # BR(~u_L -> ~chi_10 u)
     4.02989096E-07    2     1000023         2   # BR(~u_L -> ~chi_20 u)
     2.29780309E-03    2     1000025         2   # BR(~u_L -> ~chi_30 u)
     3.53991965E-02    2     1000035         2   # BR(~u_L -> ~chi_40 u)
     1.01349363E-03    2     1000024         1   # BR(~u_L -> ~chi_1+ d)
     7.08795901E-02    2     1000037         1   # BR(~u_L -> ~chi_2+ d)
     8.89939336E-01    2     1000021         2   # BR(~u_L -> ~g      u)
#
#         PDG            Width
DECAY   2000002     1.72047149E+02   # sup_R decays
#          BR         NDA      ID1       ID2
     2.18806879E-02    2     1000022         2   # BR(~u_R -> ~chi_10 u)
     1.47344653E-07    2     1000023         2   # BR(~u_R -> ~chi_20 u)
     1.67044197E-02    2     1000025         2   # BR(~u_R -> ~chi_30 u)
     3.84539158E-07    2     1000035         2   # BR(~u_R -> ~chi_40 u)
     9.61414361E-01    2     1000021         2   # BR(~u_R -> ~g      u)
#
#         PDG            Width
DECAY   1000001     1.85870106E+02   # sdown_L decays
#          BR         NDA      ID1       ID2
     2.44786456E-03    2     1000022         1   # BR(~d_L -> ~chi_10 d)
     6.71564657E-07    2     1000023         1   # BR(~d_L -> ~chi_20 d)
     2.02755216E-04    2     1000025         1   # BR(~d_L -> ~chi_30 d)
     3.55162603E-02    2     1000035         1   # BR(~d_L -> ~chi_40 d)
     8.87131257E-04    2    -1000024         2   # BR(~d_L -> ~chi_1- u)
     7.09605623E-02    2    -1000037         2   # BR(~d_L -> ~chi_2- u)
     8.89984755E-01    2     1000021         1   # BR(~d_L -> ~g      d)
#
#         PDG            Width
DECAY   2000001     1.67073665E+02   # sdown_R decays
#          BR         NDA      ID1       ID2
     5.63318625E-03    2     1000022         1   # BR(~d_R -> ~chi_10 d)
     3.79339400E-08    2     1000023         1   # BR(~d_R -> ~chi_20 d)
     4.30056210E-03    2     1000025         1   # BR(~d_R -> ~chi_30 d)
     9.90023389E-08    2     1000035         1   # BR(~d_R -> ~chi_40 d)
     9.90066115E-01    2     1000021         1   # BR(~d_R -> ~g      d)
#
#         PDG            Width
DECAY   1000004     1.85860530E+02   # scharm_L decays
#          BR         NDA      ID1       ID2
     4.70177653E-04    2     1000022         4   # BR(~c_L -> ~chi_10 c)
     4.02989096E-07    2     1000023         4   # BR(~c_L -> ~chi_20 c)
     2.29780309E-03    2     1000025         4   # BR(~c_L -> ~chi_30 c)
     3.53991965E-02    2     1000035         4   # BR(~c_L -> ~chi_40 c)
     1.01349363E-03    2     1000024         3   # BR(~c_L -> ~chi_1+ s)
     7.08795901E-02    2     1000037         3   # BR(~c_L -> ~chi_2+ s)
     8.89939336E-01    2     1000021         4   # BR(~c_L -> ~g      c)
#
#         PDG            Width
DECAY   2000004     1.72047149E+02   # scharm_R decays
#          BR         NDA      ID1       ID2
     2.18806879E-02    2     1000022         4   # BR(~c_R -> ~chi_10 c)
     1.47344653E-07    2     1000023         4   # BR(~c_R -> ~chi_20 c)
     1.67044197E-02    2     1000025         4   # BR(~c_R -> ~chi_30 c)
     3.84539158E-07    2     1000035         4   # BR(~c_R -> ~chi_40 c)
     9.61414361E-01    2     1000021         4   # BR(~c_R -> ~g      c)
#
#         PDG            Width
DECAY   1000003     1.85870106E+02   # sstrange_L decays
#          BR         NDA      ID1       ID2
     2.44786456E-03    2     1000022         3   # BR(~s_L -> ~chi_10 s)
     6.71564657E-07    2     1000023         3   # BR(~s_L -> ~chi_20 s)
     2.02755216E-04    2     1000025         3   # BR(~s_L -> ~chi_30 s)
     3.55162603E-02    2     1000035         3   # BR(~s_L -> ~chi_40 s)
     8.87131257E-04    2    -1000024         4   # BR(~s_L -> ~chi_1- c)
     7.09605623E-02    2    -1000037         4   # BR(~s_L -> ~chi_2- c)
     8.89984755E-01    2     1000021         3   # BR(~s_L -> ~g      s)
#
#         PDG            Width
DECAY   2000003     1.67073665E+02   # sstrange_R decays
#          BR         NDA      ID1       ID2
     5.63318625E-03    2     1000022         3   # BR(~s_R -> ~chi_10 s)
     3.79339400E-08    2     1000023         3   # BR(~s_R -> ~chi_20 s)
     4.30056210E-03    2     1000025         3   # BR(~s_R -> ~chi_30 s)
     9.90023389E-08    2     1000035         3   # BR(~s_R -> ~chi_40 s)
     9.90066115E-01    2     1000021         3   # BR(~s_R -> ~g      s)
#
#         PDG            Width
DECAY   1000011     2.58715381E+01   # selectron_L decays
#          BR         NDA      ID1       ID2
     6.61775156E-02    2     1000022        11   # BR(~e_L -> ~chi_10 e-)
     1.55709947E-06    2     1000023        11   # BR(~e_L -> ~chi_20 e-)
     9.32077323E-02    2     1000025        11   # BR(~e_L -> ~chi_30 e-)
     2.76946208E-01    2     1000035        11   # BR(~e_L -> ~chi_40 e-)
     6.81562739E-03    2    -1000024        12   # BR(~e_L -> ~chi_1- nu_e)
     5.56851359E-01    2    -1000037        12   # BR(~e_L -> ~chi_2- nu_e)
#
#         PDG            Width
DECAY   2000011     1.59717550E+01   # selectron_R decays
#          BR         NDA      ID1       ID2
     5.66741281E-01    2     1000022        11   # BR(~e_R -> ~chi_10 e-)
     3.81962033E-06    2     1000023        11   # BR(~e_R -> ~chi_20 e-)
     4.33244718E-01    2     1000025        11   # BR(~e_R -> ~chi_30 e-)
     1.01815173E-05    2     1000035        11   # BR(~e_R -> ~chi_40 e-)
#
#         PDG            Width
DECAY   1000013     2.58715381E+01   # smuon_L decays
#          BR         NDA      ID1       ID2
     6.61775156E-02    2     1000022        13   # BR(~mu_L -> ~chi_10 mu-)
     1.55709947E-06    2     1000023        13   # BR(~mu_L -> ~chi_20 mu-)
     9.32077323E-02    2     1000025        13   # BR(~mu_L -> ~chi_30 mu-)
     2.76946208E-01    2     1000035        13   # BR(~mu_L -> ~chi_40 mu-)
     6.81562739E-03    2    -1000024        14   # BR(~mu_L -> ~chi_1- nu_mu)
     5.56851359E-01    2    -1000037        14   # BR(~mu_L -> ~chi_2- nu_mu)
#
#         PDG            Width
DECAY   2000013     1.59717550E+01   # smuon_R decays
#          BR         NDA      ID1       ID2
     5.66741281E-01    2     1000022        13   # BR(~mu_R -> ~chi_10 mu-)
     3.81962033E-06    2     1000023        13   # BR(~mu_R -> ~chi_20 mu-)
     4.33244718E-01    2     1000025        13   # BR(~mu_R -> ~chi_30 mu-)
     1.01815173E-05    2     1000035        13   # BR(~mu_R -> ~chi_40 mu-)
#
#         PDG            Width
DECAY   1000015     2.09684742E+01   # stau_1 decays
#          BR         NDA      ID1       ID2
     2.63367060E-01    2     1000022        15   # BR(~tau_1 -> ~chi_10  tau-)
     4.24702775E-04    2     1000023        15   # BR(~tau_1 -> ~chi_20  tau-)
     2.19526952E-01    2     1000025        15   # BR(~tau_1 -> ~chi_30  tau-)
     1.69052200E-01    2     1000035        15   # BR(~tau_1 -> ~chi_40  tau-)
     7.53925746E-03    2    -1000024        16   # BR(~tau_1 -> ~chi_1-  nu_tau)
     3.39918329E-01    2    -1000037        16   # BR(~tau_1 -> ~chi_2-  nu_tau)
     1.71498204E-04    2     1000039        15   # BR(~tau_1 -> ~G       tau-)
#
#         PDG            Width
DECAY   2000015     2.09401583E+01   # stau_2 decays
#          BR         NDA      ID1       ID2
     2.50749841E-01    2     1000022        15   # BR(~tau_2 -> ~chi_10  tau-)
     5.62261771E-04    2     1000023        15   # BR(~tau_2 -> ~chi_20  tau-)
     2.26323012E-01    2     1000025        15   # BR(~tau_2 -> ~chi_30  tau-)
     1.72899388E-01    2     1000035        15   # BR(~tau_2 -> ~chi_40  tau-)
     1.84887452E-03    2    -1000024        16   # BR(~tau_2 -> ~chi_1-  nu_tau)
     3.47616622E-01    2    -1000037        16   # BR(~tau_2 -> ~chi_2-  nu_tau)
#
#         PDG            Width
DECAY   1000012     2.58749493E+01   # snu_eL decays
#          BR         NDA      ID1       ID2
     1.11701057E-01    2     1000022        12   # BR(~nu_eL -> ~chi_10 nu_e)
     7.74571597E-06    2     1000023        12   # BR(~nu_eL -> ~chi_20 nu_e)
     4.48783508E-02    2     1000025        12   # BR(~nu_eL -> ~chi_30 nu_e)
     2.79506492E-01    2     1000035        12   # BR(~nu_eL -> ~chi_40 nu_e)
     7.78506174E-03    2     1000024        11   # BR(~nu_eL -> ~chi_1+ e-)
     5.56121293E-01    2     1000037        11   # BR(~nu_eL -> ~chi_2+ e-)
#
#         PDG            Width
DECAY   1000014     2.58749493E+01   # snu_muL decays
#          BR         NDA      ID1       ID2
     1.11701057E-01    2     1000022        14   # BR(~nu_muL -> ~chi_10 nu_mu)
     7.74571597E-06    2     1000023        14   # BR(~nu_muL -> ~chi_20 nu_mu)
     4.48783508E-02    2     1000025        14   # BR(~nu_muL -> ~chi_30 nu_mu)
     2.79506492E-01    2     1000035        14   # BR(~nu_muL -> ~chi_40 nu_mu)
     7.78506174E-03    2     1000024        13   # BR(~nu_muL -> ~chi_1+ mu-)
     5.56121293E-01    2     1000037        13   # BR(~nu_muL -> ~chi_2+ mu-)
#
#         PDG            Width
DECAY   1000016     2.58955198E+01   # snu_tauL decays
#          BR         NDA      ID1       ID2
     1.11612326E-01    2     1000022        16   # BR(~nu_tauL -> ~chi_10 nu_tau)
     7.73956304E-06    2     1000023        16   # BR(~nu_tauL -> ~chi_20 nu_tau)
     4.48427010E-02    2     1000025        16   # BR(~nu_tauL -> ~chi_30 nu_tau)
     2.79284461E-01    2     1000035        16   # BR(~nu_tauL -> ~chi_40 nu_tau)
     8.56842905E-03    2     1000024        15   # BR(~nu_tauL -> ~chi_1+ tau-)
     5.55684343E-01    2     1000037        15   # BR(~nu_tauL -> ~chi_2+ tau-)
#
#         PDG            Width
DECAY   1000024     2.02308977E-04   # chargino1+ decays
#          BR         NDA      ID1       ID2
     1.56248154E-01    2     1000039        24   # BR(~chi_1+ -> ~G       W+)
     2.11669141E-04    2     1000039        37   # BR(~chi_1+ -> ~G       H+)
#           BR         NDA      ID1       ID2       ID3
     2.81383396E-01    3     1000022         2        -1   # BR(~chi_1+ -> ~chi_10 u    db)
     2.81383396E-01    3     1000022         4        -3   # BR(~chi_1+ -> ~chi_10 c    sb)
     9.37945512E-02    3     1000022       -11        12   # BR(~chi_1+ -> ~chi_10 e+   nu_e)
     9.37945512E-02    3     1000022       -13        14   # BR(~chi_1+ -> ~chi_10 mu+  nu_mu)
     9.31842825E-02    3     1000022       -15        16   # BR(~chi_1+ -> ~chi_10 tau+ nu_tau)
#
#         PDG            Width
DECAY   1000037     3.24590824E+01   # chargino2+ decays
#          BR         NDA      ID1       ID2
     2.54700114E-01    2     1000024        23   # BR(~chi_2+ -> ~chi_1+  Z )
     1.00911161E-01    2     1000022        24   # BR(~chi_2+ -> ~chi_10  W+)
     2.45916664E-01    2     1000023        24   # BR(~chi_2+ -> ~chi_20  W+)
     1.47570571E-01    2     1000025        24   # BR(~chi_2+ -> ~chi_30  W+)
     2.50890985E-01    2     1000024        25   # BR(~chi_2+ -> ~chi_1+  h )
     1.04994642E-05    2     1000039        24   # BR(~chi_2+ -> ~G       W+)
     4.68453489E-09    2     1000039        37   # BR(~chi_2+ -> ~G       H+)
#
#         PDG            Width
DECAY   1000022    1.0E-05    # neutralino1 decays
#          BR         NDA      ID1       ID2
     5.00701677E-01    2     1000039        22   # BR(~chi_10 -> ~G        gam)
     4.88897007E-01    2     1000039        23   # BR(~chi_10 -> ~G        Z)
     1.02426359E-02    2     1000039        25   # BR(~chi_10 -> ~G        h)
     1.51898657E-04    2     1000039        35   # BR(~chi_10 -> ~G        H)
     6.78129107E-06    2     1000039        36   # BR(~chi_10 -> ~G        A)
#
#         PDG            Width
DECAY   1000023     2.99960232E-04   # neutralino2 decays
#          BR         NDA      ID1       ID2
     1.68065361E-04    2     1000022        22   # BR(~chi_20 -> ~chi_10 gam)
#          BR         NDA      ID1       ID2
     1.76774211E-08    2     1000039        22   # BR(~chi_20 -> ~G        gam)
     4.08385452E-03    2     1000039        23   # BR(~chi_20 -> ~G        Z)
     1.01434747E-01    2     1000039        25   # BR(~chi_20 -> ~G        h)
     5.82858607E-06    2     1000039        35   # BR(~chi_20 -> ~G        H)
     1.59084132E-04    2     1000039        36   # BR(~chi_20 -> ~G        A)
#           BR         NDA      ID1       ID2       ID3
     1.05766908E-01    3     1000022        -2         2   # BR(~chi_20 -> ~chi_10 ub      u)
     1.36964106E-01    3     1000022        -1         1   # BR(~chi_20 -> ~chi_10 db      d)
     1.05766908E-01    3     1000022        -4         4   # BR(~chi_20 -> ~chi_10 cb      c)
     1.36964106E-01    3     1000022        -3         3   # BR(~chi_20 -> ~chi_10 sb      s)
     1.27535634E-01    3     1000022        -5         5   # BR(~chi_20 -> ~chi_10 bb      b)
     3.12859289E-02    3     1000022       -11        11   # BR(~chi_20 -> ~chi_10 e+      e-)
     3.12859289E-02    3     1000022       -13        13   # BR(~chi_20 -> ~chi_10 mu+     mu-)
     3.10282079E-02    3     1000022       -15        15   # BR(~chi_20 -> ~chi_10 tau+    tau-)
     6.24833654E-02    3     1000022       -12        12   # BR(~chi_20 -> ~chi_10 nu_eb   nu_e)
     6.24833654E-02    3     1000022       -14        14   # BR(~chi_20 -> ~chi_10 nu_mub  nu_mu)
     6.24833654E-02    3     1000022       -16        16   # BR(~chi_20 -> ~chi_10 nu_taub nu_tau)
     1.73040167E-05    3     1000024        -2         1   # BR(~chi_20 -> ~chi_1+ ub      d)
     1.73040167E-05    3    -1000024        -1         2   # BR(~chi_20 -> ~chi_1- db      u)
     1.73040167E-05    3     1000024        -4         3   # BR(~chi_20 -> ~chi_1+ cb      s)
     1.73040167E-05    3    -1000024        -3         4   # BR(~chi_20 -> ~chi_1- sb      c)
     5.76800605E-06    3     1000024       -12        11   # BR(~chi_20 -> ~chi_1+ nu_eb   e-)
     5.76800605E-06    3    -1000024        12       -11   # BR(~chi_20 -> ~chi_1- nu_e    e+)
     5.76800605E-06    3     1000024       -14        13   # BR(~chi_20 -> ~chi_1+ nu_mub  mu-)
     5.76800605E-06    3    -1000024        14       -13   # BR(~chi_20 -> ~chi_1- nu_mu   mu+)
     4.14531109E-06    3     1000024       -16        15   # BR(~chi_20 -> ~chi_1+ nu_taub tau-)
     4.14531109E-06    3    -1000024        16       -15   # BR(~chi_20 -> ~chi_1- nu_tau  tau+)
#
#         PDG            Width
DECAY   1000025     1.90135229E-04   # neutralino3 decays
#          BR         NDA      ID1       ID2
     4.43001426E-04    2     1000022        22   # BR(~chi_30 -> ~chi_10 gam)
     4.10017849E-06    2     1000023        22   # BR(~chi_30 -> ~chi_20 gam)
#          BR         NDA      ID1       ID2
     1.35908692E-01    2     1000039        22   # BR(~chi_30 -> ~G        gam)
     1.21200351E-01    2     1000039        23   # BR(~chi_30 -> ~G        Z)
     3.76645315E-03    2     1000039        25   # BR(~chi_30 -> ~G        h)
     2.16049780E-04    2     1000039        35   # BR(~chi_30 -> ~G        H)
     9.01407428E-06    2     1000039        36   # BR(~chi_30 -> ~G        A)
#           BR         NDA      ID1       ID2       ID3
     2.18305447E-05    3     1000022        -2         2   # BR(~chi_30 -> ~chi_10 ub      u)
     2.62287304E-05    3     1000022        -1         1   # BR(~chi_30 -> ~chi_10 db      d)
     2.18305447E-05    3     1000022        -4         4   # BR(~chi_30 -> ~chi_10 cb      c)
     2.62287304E-05    3     1000022        -3         3   # BR(~chi_30 -> ~chi_10 sb      s)
     1.03432149E-04    3     1000022        -5         5   # BR(~chi_30 -> ~chi_10 bb      b)
     4.71058399E-06    3     1000022       -11        11   # BR(~chi_30 -> ~chi_10 e+      e-)
     4.71058399E-06    3     1000022       -13        13   # BR(~chi_30 -> ~chi_10 mu+     mu-)
     1.64432392E-05    3     1000022       -15        15   # BR(~chi_30 -> ~chi_10 tau+    tau-)
     1.26716715E-05    3     1000022       -12        12   # BR(~chi_30 -> ~chi_10 nu_eb   nu_e)
     1.26716715E-05    3     1000022       -14        14   # BR(~chi_30 -> ~chi_10 nu_mub  nu_mu)
     1.26716715E-05    3     1000022       -16        16   # BR(~chi_30 -> ~chi_10 nu_taub nu_tau)
     1.12000275E-02    3     1000023        -2         2   # BR(~chi_30 -> ~chi_20 ub      u)
     1.45036213E-02    3     1000023        -1         1   # BR(~chi_30 -> ~chi_20 db      d)
     1.12000275E-02    3     1000023        -4         4   # BR(~chi_30 -> ~chi_20 cb      c)
     1.45036213E-02    3     1000023        -3         3   # BR(~chi_30 -> ~chi_20 sb      s)
     1.17980947E-02    3     1000023        -5         5   # BR(~chi_30 -> ~chi_20 bb      b)
     3.31298160E-03    3     1000023       -11        11   # BR(~chi_30 -> ~chi_20 e+      e-)
     3.31298160E-03    3     1000023       -13        13   # BR(~chi_30 -> ~chi_20 mu+     mu-)
     3.25004025E-03    3     1000023       -15        15   # BR(~chi_30 -> ~chi_20 tau+    tau-)
     6.61656506E-03    3     1000023       -12        12   # BR(~chi_30 -> ~chi_20 nu_eb   nu_e)
     6.61656506E-03    3     1000023       -14        14   # BR(~chi_30 -> ~chi_20 nu_mub  nu_mu)
     6.61656506E-03    3     1000023       -16        16   # BR(~chi_30 -> ~chi_20 nu_taub nu_tau)
     1.07667582E-01    3     1000024        -2         1   # BR(~chi_30 -> ~chi_1+ ub      d)
     1.07667582E-01    3    -1000024        -1         2   # BR(~chi_30 -> ~chi_1- db      u)
     1.07667582E-01    3     1000024        -4         3   # BR(~chi_30 -> ~chi_1+ cb      s)
     1.07667582E-01    3    -1000024        -3         4   # BR(~chi_30 -> ~chi_1- sb      c)
     3.58891383E-02    3     1000024       -12        11   # BR(~chi_30 -> ~chi_1+ nu_eb   e-)
     3.58891383E-02    3    -1000024        12       -11   # BR(~chi_30 -> ~chi_1- nu_e    e+)
     3.58891383E-02    3     1000024       -14        13   # BR(~chi_30 -> ~chi_1+ nu_mub  mu-)
     3.58891383E-02    3    -1000024        14       -13   # BR(~chi_30 -> ~chi_1- nu_mu   mu+)
     3.55154406E-02    3     1000024       -16        15   # BR(~chi_30 -> ~chi_1+ nu_taub tau-)
     3.55154406E-02    3    -1000024        16       -15   # BR(~chi_30 -> ~chi_1- nu_tau  tau+)
     2.17411075E-08    3     1000021        -2         2   # BR(~chi_30 -> ~g      ub      u)
     4.97979004E-09    3     1000021        -1         1   # BR(~chi_30 -> ~g      db      d)
     2.17411075E-08    3     1000021        -4         4   # BR(~chi_30 -> ~g      cb      c)
     4.97979004E-09    3     1000021        -3         3   # BR(~chi_30 -> ~g      sb      s)
     3.06817226E-09    3     1000021        -5         5   # BR(~chi_30 -> ~g      bb      b)
#
#         PDG            Width
DECAY   1000035     3.24567580E+01   # neutralino4 decays
#          BR         NDA      ID1       ID2
     1.25546054E-04    2     1000022        23   # BR(~chi_40 -> ~chi_10   Z )
     2.52663239E-01    2     1000023        23   # BR(~chi_40 -> ~chi_20   Z )
     1.58080965E-04    2     1000025        23   # BR(~chi_40 -> ~chi_30   Z )
     2.47643138E-01    2     1000024       -24   # BR(~chi_40 -> ~chi_1+   W-)
     2.47643138E-01    2    -1000024        24   # BR(~chi_40 -> ~chi_1-   W+)
     1.02091850E-01    2     1000022        25   # BR(~chi_40 -> ~chi_10   h )
     2.71067205E-04    2     1000023        25   # BR(~chi_40 -> ~chi_20   h )
     1.49393437E-01    2     1000025        25   # BR(~chi_40 -> ~chi_30   h )
     2.48507343E-06    2     1000039        22   # BR(~chi_40 -> ~G        gam)
     8.01272381E-06    2     1000039        23   # BR(~chi_40 -> ~G        Z)
     2.03512984E-09    2     1000039        25   # BR(~chi_40 -> ~G        h)
     4.55098057E-09    2     1000039        35   # BR(~chi_40 -> ~G        H)
     1.29537877E-10    2     1000039        36   # BR(~chi_40 -> ~G        A)
#
#         PDG            Width
DECAY        25     4.22307190E-03   # h decays
#          BR         NDA      ID1       ID2
     6.02359786E-01    2           5        -5   # BR(h -> b       bb     )
     6.21682344E-02    2         -15        15   # BR(h -> tau+    tau-   )
     2.20048447E-04    2         -13        13   # BR(h -> mu+     mu-    )
     4.65580125E-04    2           3        -3   # BR(h -> s       sb     )
     2.00865545E-02    2           4        -4   # BR(h -> c       cb     )
     6.63366571E-02    2          21        21   # BR(h -> g       g      )
     2.30359221E-03    2          22        22   # BR(h -> gam     gam    )
     1.62488879E-03    2          22        23   # BR(h -> Z       gam    )
     2.16385046E-01    2          24       -24   # BR(h -> W+      W-     )
     2.80496122E-02    2          23        23   # BR(h -> Z       Z      )
#
#         PDG            Width
DECAY        35     3.78086734E+01   # H decays
#          BR         NDA      ID1       ID2
     1.46450408E-03    2           5        -5   # BR(H -> b       bb     )
     2.46436327E-04    2         -15        15   # BR(H -> tau+    tau-   )
     8.71244165E-07    2         -13        13   # BR(H -> mu+     mu-    )
     1.11551267E-06    2           3        -3   # BR(H -> s       sb     )
     1.00669346E-05    2           4        -4   # BR(H -> c       cb     )
     9.96076026E-01    2           6        -6   # BR(H -> t       tb     )
     7.97742990E-04    2          21        21   # BR(H -> g       g      )
     2.71853634E-06    2          22        22   # BR(H -> gam     gam    )
     1.16042039E-06    2          23        22   # BR(H -> Z       gam    )
     3.32867997E-04    2          24       -24   # BR(H -> W+      W-     )
     1.65980082E-04    2          23        23   # BR(H -> Z       Z      )
     9.00509776E-04    2          25        25   # BR(H -> h       h      )
     7.07691141E-24    2          36        36   # BR(H -> A       A      )
     2.88134935E-11    2          23        36   # BR(H -> Z       A      )
     6.35990178E-12    2          24       -37   # BR(H -> W+      H-     )
     6.35990178E-12    2         -24        37   # BR(H -> W-      H+     )
#
#         PDG            Width
DECAY        36     3.82379130E+01   # A decays
#          BR         NDA      ID1       ID2
     1.46741476E-03    2           5        -5   # BR(A -> b       bb     )
     2.43899723E-04    2         -15        15   # BR(A -> tau+    tau-   )
     8.62273629E-07    2         -13        13   # BR(A -> mu+     mu-    )
     1.13678329E-06    2           3        -3   # BR(A -> s       sb     )
     9.96184663E-06    2           4        -4   # BR(A -> c       cb     )
     9.97004179E-01    2           6        -6   # BR(A -> t       tb     )
     9.43683396E-04    2          21        21   # BR(A -> g       g      )
     3.12687111E-06    2          22        22   # BR(A -> gam     gam    )
     1.35301137E-06    2          23        22   # BR(A -> Z       gam    )
     3.24382483E-04    2          23        25   # BR(A -> Z       h      )
#
#         PDG            Width
DECAY        37     3.74470686E+01   # H+ decays
#          BR         NDA      ID1       ID2
     2.34971805E-06    2           4        -5   # BR(H+ -> c       bb     )
     2.49240072E-04    2         -15        16   # BR(H+ -> tau+    nu_tau )
     8.81153690E-07    2         -13        14   # BR(H+ -> mu+     nu_mu  )
     1.49383086E-08    2           2        -5   # BR(H+ -> u       bb     )
     5.45699302E-08    2           2        -3   # BR(H+ -> u       sb     )
     1.08732655E-05    2           4        -3   # BR(H+ -> c       sb     )
     9.99404126E-01    2           6        -5   # BR(H+ -> t       bb     )
     3.32459887E-04    2          24        25   # BR(H+ -> W+      h      )
     2.86093974E-13    2          24        36   # BR(H+ -> W+      A      )
