#
#                              ======================
#                              | THE SUSYHIT OUTPUT |
#                              ======================
#
#
#              ------------------------------------------------------
#              |     This is the output of the SUSY-HIT package     |
#              |  created by A.Djouadi, M.Muehlleitner and M.Spira. |
#              |  In case of problems with SUSY-HIT email to        |
#              |           margarete.muehlleitner@cern.ch           |
#              |           michael.spira@psi.ch                     |
#              |           abdelhak.djouadi@cern.ch                 |
#              ------------------------------------------------------
#
#              ------------------------------------------------------
#              |  SUSY Les Houches Accord - MSSM Spectrum + Decays  |
#              |              based on the decay programs           |
#              |                                                    |
#              |                     SDECAY 1.3b                    |
#              |                                                    |
#              |  Authors: M.Muhlleitner, A.Djouadi and Y.Mambrini  |
#              |  Ref.:    Comput.Phys.Commun.168(2005)46           |
#              |           [hep-ph/0311167]                         |
#              |                                                    |
#              |                     HDECAY 3.4                     |
#              |                                                    |
#              |  By: A.Djouadi,J.Kalinowski,M.Muhlleitner,M.Spira  |
#              |  Ref.:    Comput.Phys.Commun.108(1998)56           |
#              |           [hep-ph/9704448]                         |
#              |                                                    |
#              |                                                    |
#              |  If not stated otherwise all DRbar couplings and   |
#              |  soft SUSY breaking masses are given at the scale  |
#              |  Q=  0.50007473E+04
#              |                                                    |
#              ------------------------------------------------------
#
#
BLOCK DCINFO  # Decay Program information
     1   SDECAY/HDECAY # decay calculator
     2   1.3b  /3.4    # version number
#
BLOCK SPINFO  # Spectrum calculator information
     1    SOFTSUSY    # spectrum calculator                
     2    3.4.0       # version number                     
#
BLOCK MODSEL  # Model selection
     1     0   #  nonUniversal                                     
#
BLOCK SMINPUTS  # Standard Model inputs
         1     1.25778332E+02   # alpha_em^-1(M_Z)^MSbar
         2     1.16570000E-05   # G_F [GeV^-2]
         3     1.17200002E-01   # alpha_S(M_Z)^MSbar
         4     9.11876000E+01   # M_Z pole mass
         5     4.25000000E+00   # mb(mb)^MSbar
         6     1.72500000E+02   # mt pole mass
         7     1.77682000E+00   # mtau pole mass
#
BLOCK MINPAR  # Input parameters - minimal models
         3     1.00000000E+01   # tanb                
#
BLOCK EXTPAR  # Input parameters - non-minimal models
         0    -1.00000000E+00   # Set                 
         1     6.00000000E+01   # M_1(MX)             
         2     3.00000000E+03   # M_2(MX)             
         3     2.33132300E+03   # M_3(MX)             
        11     5.00000000E+03   # At(MX)              
        12     5.00000000E+03   # Ab(MX)              
        13     0.00000000E+00   # Atau(MX)            
        23    -8.61786000E+02   # mu(MX)              
        26     3.00000000E+03   # mA(pole)            
        31     5.00000000E+03   # meL(MX)             
        32     5.00000000E+03   # mmuL(MX)            
        33     5.00000000E+03   # mtauL(MX)           
        34     5.00000000E+03   # meR(MX)             
        35     5.00000000E+03   # mmuR(MX)            
        36     5.00000000E+03   # mtauR(MX)           
        41     5.00000000E+03   # mqL1(MX)            
        42     5.00000000E+03   # mqL2(MX)            
        43     5.00000000E+03   # mqL3(MX)            
        44     5.00000000E+03   # muR(MX)             
        45     5.00000000E+03   # mcR(MX)             
        46     5.00000000E+03   # mtR(MX)             
        47     5.00000000E+03   # mdR(MX)             
        48     5.00000000E+03   # msR(MX)             
        49     5.00000000E+03   # mbR(MX)             
#
BLOCK MASS  # Mass Spectrum
# PDG code           mass       particle
        24     8.00951973E+01   # W+
        25     1.24819418E+02   # h
        35     3.00007951E+03   # H
        36     2.99998954E+03   # A
        37     3.00141055E+03   # H+
         5     4.87878001E+00   # b-quark pole mass calculated from mb(mb)_Msbar
   1000001     5.08403614E+03   # ~d_L
   2000001     5.06627438E+03   # ~d_R
   1000002     5.08356610E+03   # ~u_L
   2000002     5.06598751E+03   # ~u_R
   1000003     5.08403614E+03   # ~s_L
   2000003     5.06627438E+03   # ~s_R
   1000004     5.08356610E+03   # ~c_L
   2000004     5.06598751E+03   # ~c_R
   1000005     5.02973324E+03   # ~b_1
   2000005     5.06469831E+03   # ~b_2
   1000006     4.92191706E+03   # ~t_1
   2000006     5.07330800E+03   # ~t_2
   1000011     5.01907365E+03   # ~e_L
   2000011     5.00592741E+03   # ~e_R
   1000012     5.01812496E+03   # ~nu_eL
   1000013     5.01907365E+03   # ~mu_L
   2000013     5.00592741E+03   # ~mu_R
   1000014     5.01812496E+03   # ~nu_muL
   1000015     5.00465117E+03   # ~tau_1
   2000015     5.01872711E+03   # ~tau_2
   1000016     5.01757774E+03   # ~nu_tauL
   1000021     2.70000003E+03   # ~g
   1000022     6.02946100E+01   # ~chi_10
   1000023     8.99734746E+02   # ~chi_20
   1000025    -9.01973191E+02   # ~chi_30
   1000035     3.07422409E+03   # ~chi_40
   1000024     9.00000686E+02   # ~chi_1+
   1000037     3.07439155E+03   # ~chi_2+
#
BLOCK NMIX  # Neutralino Mixing Matrix
  1  1     9.98775619E-01   # N_11
  1  2     1.96009592E-04   # N_12
  1  3    -4.94351788E-02   # N_13
  1  4     1.84072288E-03   # N_14
  2  1     3.36660628E-02   # N_21
  2  2     2.24239679E-02   # N_22
  2  3     7.06575244E-01   # N_23
  2  4     7.06480847E-01   # N_24
  3  1    -3.62450335E-02   # N_31
  3  2     1.52897756E-02   # N_32
  3  3    -7.05891034E-01   # N_33
  3  4     7.07227240E-01   # N_34
  4  1    -3.96664013E-04   # N_41
  4  2     9.99631607E-01   # N_42
  4  3    -5.04347330E-03   # N_43
  4  4    -2.66656339E-02   # N_44
#
BLOCK UMIX  # Chargino Mixing Matrix U
  1  1     7.14492721E-03   # U_11
  1  2     9.99974475E-01   # U_12
  2  1    -9.99974475E-01   # U_21
  2  2     7.14492721E-03   # U_22
#
BLOCK VMIX  # Chargino Mixing Matrix V
  1  1     3.77402413E-02   # V_11
  1  2    -9.99287583E-01   # V_12
  2  1    -9.99287583E-01   # V_21
  2  2    -3.77402413E-02   # V_22
#
BLOCK STOPMIX  # Stop Mixing Matrix
  1  1    -5.03408136E-01   # cos(theta_t)
  1  2     8.64048754E-01   # sin(theta_t)
  2  1    -8.64048754E-01   # -sin(theta_t)
  2  2    -5.03408136E-01   # cos(theta_t)
#
BLOCK SBOTMIX  # Sbottom Mixing Matrix
  1  1     9.97516957E-01   # cos(theta_b)
  1  2    -7.04267030E-02   # sin(theta_b)
  2  1     7.04267030E-02   # -sin(theta_b)
  2  2     9.97516957E-01   # cos(theta_b)
#
BLOCK STAUMIX  # Stau Mixing Matrix
  1  1    -1.02693990E-01   # cos(theta_tau)
  1  2     9.94712996E-01   # sin(theta_tau)
  2  1    -9.94712996E-01   # -sin(theta_tau)
  2  2    -1.02693990E-01   # cos(theta_tau)
#
BLOCK ALPHA  # Higgs mixing
          -1.05484810E-01   # Mixing angle in the neutral Higgs boson sector
#
BLOCK HMIX Q=  5.00074731E+03  # DRbar Higgs Parameters
         1    -8.77647140E+02   # mu(Q)MSSM           
         2     9.46897420E+00   # tan                 
         3     2.41835247E+02   # higgs               
         4     8.54742118E+06   # mA^2(Q)MSSM         
#
BLOCK GAUGE Q=  5.00074731E+03  # The gauge couplings
     1     3.70807720E-01   # gprime(Q) DRbar
     2     6.32626856E-01   # g(Q) DRbar
     3     9.94065371E-01   # g3(Q) DRbar
#
BLOCK AU Q=  5.00074731E+03  # The trilinear couplings
  1  1     5.00000002E+03   # A_u(Q) DRbar
  2  2     5.00000002E+03   # A_c(Q) DRbar
  3  3     5.00000002E+03   # A_t(Q) DRbar
#
BLOCK AD Q=  5.00074731E+03  # The trilinear couplings
  1  1     5.00000001E+03   # A_d(Q) DRbar
  2  2     5.00000001E+03   # A_s(Q) DRbar
  3  3     5.00000001E+03   # A_b(Q) DRbar
#
BLOCK AE Q=  5.00074731E+03  # The trilinear couplings
  1  1     0.00000000E+00   # A_e(Q) DRbar
  2  2     2.78955048E-07   # A_mu(Q) DRbar
  3  3     2.79003781E-07   # A_tau(Q) DRbar
#
BLOCK Yu Q=  5.00074731E+03  # The Yukawa couplings
  1  1     0.00000000E+00   # y_u(Q) DRbar
  2  2     0.00000000E+00   # y_c(Q) DRbar
  3  3     8.21388649E-01   # y_t(Q) DRbar
#
BLOCK Yd Q=  5.00074731E+03  # The Yukawa couplings
  1  1     0.00000000E+00   # y_d(Q) DRbar
  2  2     0.00000000E+00   # y_s(Q) DRbar
  3  3     1.30941928E-01   # y_b(Q) DRbar
#
BLOCK Ye Q=  5.00074731E+03  # The Yukawa couplings
  1  1     0.00000000E+00   # y_e(Q) DRbar
  2  2     0.00000000E+00   # y_mu(Q) DRbar
  3  3     9.68987422E-02   # y_tau(Q) DRbar
#
BLOCK MSOFT Q=  5.00074731E+03  # The soft SUSY breaking masses at the scale Q
         1     6.00000000E+01   # M_1(Q)              
         2     3.00000000E+03   # M_2(Q)              
         3     2.33132300E+03   # M_3(Q)              
        21     7.93288999E+06   # mH1^2(Q)            
        22    -2.00705666E+05   # mH2^2(Q)            
        31     5.00000000E+03   # meL(Q)              
        32     5.00000000E+03   # mmuL(Q)             
        33     5.00000000E+03   # mtauL(Q)            
        34     5.00000000E+03   # meR(Q)              
        35     5.00000000E+03   # mmuR(Q)             
        36     5.00000000E+03   # mtauR(Q)            
        41     4.99999999E+03   # mqL1(Q)             
        42     4.99999999E+03   # mqL2(Q)             
        43     4.99999999E+03   # mqL3(Q)             
        44     4.99999999E+03   # muR(Q)              
        45     4.99999999E+03   # mcR(Q)              
        46     4.99999999E+03   # mtR(Q)              
        47     4.99999999E+03   # mdR(Q)              
        48     4.99999999E+03   # msR(Q)              
        49     4.99999999E+03   # mbR(Q)              
#
#
#
#                             =================
#                             |The decay table|
#                             =================
#
# - The QCD corrections to the decays gluino -> squark  + quark
#                                     squark -> gaugino + quark_prime
#                                     squark -> squark_prime + Higgs
#                                     squark -> gluino  + quark
#   are included.
#
# - The multi-body decays for the inos, stops and sbottoms are included.
#
# - The loop induced decays for the gluino, neutralinos and stops
#   are included.
#
# - The SUSY decays of the top quark are included.
#
#
#         PDG            Width
DECAY         6     1.40248662E+00   # top decays
#          BR         NDA      ID1       ID2
     1.00000000E+00    2           5        24   # BR(t ->  b    W+)
#
#         PDG            Width
DECAY   1000021     7.28611800E-03   # gluino decays
#          BR         NDA      ID1       ID2
     1.31506140E-06    2     1000022        21   # BR(~g -> ~chi_10 g)
     4.32373042E-03    2     1000023        21   # BR(~g -> ~chi_20 g)
     4.24766824E-03    2     1000025        21   # BR(~g -> ~chi_30 g)
#           BR         NDA      ID1       ID2       ID3
     1.57297058E-02    3     1000022         1        -1   # BR(~g -> ~chi_10 d  db)
     2.18564273E-05    3     1000023         1        -1   # BR(~g -> ~chi_20 d  db)
     1.65540807E-05    3     1000025         1        -1   # BR(~g -> ~chi_30 d  db)
     5.36428118E-02    3     1000022         2        -2   # BR(~g -> ~chi_10 u  ub)
     7.90941579E-05    3     1000023         2        -2   # BR(~g -> ~chi_20 u  ub)
     2.07621285E-05    3     1000025         2        -2   # BR(~g -> ~chi_30 u  ub)
     1.57297058E-02    3     1000022         3        -3   # BR(~g -> ~chi_10 s  sb)
     2.18564273E-05    3     1000023         3        -3   # BR(~g -> ~chi_20 s  sb)
     1.65540807E-05    3     1000025         3        -3   # BR(~g -> ~chi_30 s  sb)
     5.36428118E-02    3     1000022         4        -4   # BR(~g -> ~chi_10 c  cb)
     7.90941579E-05    3     1000023         4        -4   # BR(~g -> ~chi_20 c  cb)
     2.07621285E-05    3     1000025         4        -4   # BR(~g -> ~chi_30 c  cb)
     1.59745608E-02    3     1000022         5        -5   # BR(~g -> ~chi_10 b  bb)
     4.97912196E-03    3     1000023         5        -5   # BR(~g -> ~chi_20 b  bb)
     4.93743909E-03    3     1000025         5        -5   # BR(~g -> ~chi_30 b  bb)
     5.54076384E-02    3     1000022         6        -6   # BR(~g -> ~chi_10 t  tb)
     1.92312146E-01    3     1000023         6        -6   # BR(~g -> ~chi_20 t  tb)
     1.80725589E-01    3     1000025         6        -6   # BR(~g -> ~chi_30 t  tb)
     6.26052192E-05    3     1000024         1        -2   # BR(~g -> ~chi_1+ d  ub)
     6.26052192E-05    3    -1000024         2        -1   # BR(~g -> ~chi_1- u  db)
     6.26052192E-05    3     1000024         3        -4   # BR(~g -> ~chi_1+ s  cb)
     6.26052192E-05    3    -1000024         4        -3   # BR(~g -> ~chi_1- c  sb)
     1.98909401E-01    3     1000024         5        -6   # BR(~g -> ~chi_1+ b  tb)
     1.98909401E-01    3    -1000024         6        -5   # BR(~g -> ~chi_1- t  bb)
#
#         PDG            Width
DECAY   1000006     2.76281688E+02   # stop1 decays
#          BR         NDA      ID1       ID2
     3.22257279E-02    2     1000022         6   # BR(~t_1 -> ~chi_10 t )
     1.11924484E-01    2     1000023         6   # BR(~t_1 -> ~chi_20 t )
     1.07475534E-01    2     1000025         6   # BR(~t_1 -> ~chi_30 t )
     7.34595680E-03    2     1000035         6   # BR(~t_1 -> ~chi_40 t )
     1.64604660E-01    2     1000024         5   # BR(~t_1 -> ~chi_1+ b )
     1.46376819E-02    2     1000037         5   # BR(~t_1 -> ~chi_2+ b )
     5.61785956E-01    2     1000021         6   # BR(~t_1 -> ~g      t )
#
#         PDG            Width
DECAY   2000006     2.85323964E+02   # stop2 decays
#          BR         NDA      ID1       ID2
     1.19024301E-02    2     1000022         6   # BR(~t_2 -> ~chi_10 t )
     1.10784649E-01    2     1000023         6   # BR(~t_2 -> ~chi_20 t )
     1.15548082E-01    2     1000025         6   # BR(~t_2 -> ~chi_30 t )
     1.98359330E-02    2     1000035         6   # BR(~t_2 -> ~chi_40 t )
     6.40976773E-02    2     1000024         5   # BR(~t_2 -> ~chi_1+ b )
     3.94742103E-02    2     1000037         5   # BR(~t_2 -> ~chi_2+ b )
     6.34162853E-01    2     1000021         6   # BR(~t_2 -> ~g      t )
     9.60412748E-04    2     1000006        25   # BR(~t_2 -> ~t_1    h )
     3.23375138E-03    2     1000006        23   # BR(~t_2 -> ~t_1    Z )
#
#         PDG            Width
DECAY   1000005     2.59786500E+02   # sbottom1 decays
#          BR         NDA      ID1       ID2
     2.96242739E-03    2     1000022         5   # BR(~b_1 -> ~chi_10 b )
     3.10722962E-03    2     1000023         5   # BR(~b_1 -> ~chi_20 b )
     3.04035894E-03    2     1000025         5   # BR(~b_1 -> ~chi_30 b )
     2.92744926E-02    2     1000035         5   # BR(~b_1 -> ~chi_40 b )
     2.41404806E-01    2    -1000024         6   # BR(~b_1 -> ~chi_1- t )
     5.88076583E-02    2    -1000037         6   # BR(~b_1 -> ~chi_2- t )
     6.59339337E-01    2     1000021         5   # BR(~b_1 -> ~g      b )
     2.06369005E-03    2     1000006       -24   # BR(~b_1 -> ~t_1    W-)
#
#         PDG            Width
DECAY   2000005     1.80803514E+02   # sbottom2 decays
#          BR         NDA      ID1       ID2
     1.62130237E-02    2     1000022         5   # BR(~b_2 -> ~chi_10 b )
     4.47782694E-03    2     1000023         5   # BR(~b_2 -> ~chi_20 b )
     4.58230675E-03    2     1000025         5   # BR(~b_2 -> ~chi_30 b )
     2.03407888E-04    2     1000035         5   # BR(~b_2 -> ~chi_40 b )
     1.05191435E-02    2    -1000024         6   # BR(~b_2 -> ~chi_1- t )
     4.08588829E-04    2    -1000037         6   # BR(~b_2 -> ~chi_2- t )
     9.63531538E-01    2     1000021         5   # BR(~b_2 -> ~g      b )
     6.41645634E-05    2     1000006       -24   # BR(~b_2 -> ~t_1    W-)
#
#         PDG            Width
DECAY   1000002     2.00339448E+02   # sup_L decays
#          BR         NDA      ID1       ID2
     3.71474467E-03    2     1000022         2   # BR(~u_L -> ~chi_10 u)
     7.70411259E-05    2     1000023         2   # BR(~u_L -> ~chi_20 u)
     6.16933319E-06    2     1000025         2   # BR(~u_L -> ~chi_30 u)
     3.95054002E-02    2     1000035         2   # BR(~u_L -> ~chi_40 u)
     2.60915875E-04    2     1000024         1   # BR(~u_L -> ~chi_1+ d)
     7.89588393E-02    2     1000037         1   # BR(~u_L -> ~chi_2+ d)
     8.77476889E-01    2     1000021         2   # BR(~u_L -> ~g      u)
#
#         PDG            Width
DECAY   2000002     1.86098362E+02   # sup_R decays
#          BR         NDA      ID1       ID2
     6.36301892E-02    2     1000022         2   # BR(~u_R -> ~chi_10 u)
     6.79895174E-05    2     1000023         2   # BR(~u_R -> ~chi_20 u)
     7.87799304E-05    2     1000025         2   # BR(~u_R -> ~chi_30 u)
     4.04409003E-09    2     1000035         2   # BR(~u_R -> ~chi_40 u)
     9.36223037E-01    2     1000021         2   # BR(~u_R -> ~g      u)
#
#         PDG            Width
DECAY   1000001     2.00356500E+02   # sdown_L decays
#          BR         NDA      ID1       ID2
     3.69988419E-03    2     1000022         1   # BR(~d_L -> ~chi_10 d)
     2.30007530E-05    2     1000023         1   # BR(~d_L -> ~chi_20 d)
     4.58281482E-05    2     1000025         1   # BR(~d_L -> ~chi_30 d)
     3.95263205E-02    2     1000035         1   # BR(~d_L -> ~chi_40 d)
     9.35181286E-06    2    -1000024         2   # BR(~d_L -> ~chi_1- u)
     7.90847706E-02    2    -1000037         2   # BR(~d_L -> ~chi_2- u)
     8.77610844E-01    2     1000021         1   # BR(~d_L -> ~g      d)
#
#         PDG            Width
DECAY   2000001     1.77222466E+02   # sdown_R decays
#          BR         NDA      ID1       ID2
     1.67052176E-02    2     1000022         1   # BR(~d_R -> ~chi_10 d)
     1.78498239E-05    2     1000023         1   # BR(~d_R -> ~chi_20 d)
     2.06827168E-05    2     1000025         1   # BR(~d_R -> ~chi_30 d)
     1.06185737E-09    2     1000035         1   # BR(~d_R -> ~chi_40 d)
     9.83256249E-01    2     1000021         1   # BR(~d_R -> ~g      d)
#
#         PDG            Width
DECAY   1000004     2.00339448E+02   # scharm_L decays
#          BR         NDA      ID1       ID2
     3.71474467E-03    2     1000022         4   # BR(~c_L -> ~chi_10 c)
     7.70411259E-05    2     1000023         4   # BR(~c_L -> ~chi_20 c)
     6.16933319E-06    2     1000025         4   # BR(~c_L -> ~chi_30 c)
     3.95054002E-02    2     1000035         4   # BR(~c_L -> ~chi_40 c)
     2.60915875E-04    2     1000024         3   # BR(~c_L -> ~chi_1+ s)
     7.89588393E-02    2     1000037         3   # BR(~c_L -> ~chi_2+ s)
     8.77476889E-01    2     1000021         4   # BR(~c_L -> ~g      c)
#
#         PDG            Width
DECAY   2000004     1.86098362E+02   # scharm_R decays
#          BR         NDA      ID1       ID2
     6.36301892E-02    2     1000022         4   # BR(~c_R -> ~chi_10 c)
     6.79895174E-05    2     1000023         4   # BR(~c_R -> ~chi_20 c)
     7.87799304E-05    2     1000025         4   # BR(~c_R -> ~chi_30 c)
     4.04409003E-09    2     1000035         4   # BR(~c_R -> ~chi_40 c)
     9.36223037E-01    2     1000021         4   # BR(~c_R -> ~g      c)
#
#         PDG            Width
DECAY   1000003     2.00356500E+02   # sstrange_L decays
#          BR         NDA      ID1       ID2
     3.69988419E-03    2     1000022         3   # BR(~s_L -> ~chi_10 s)
     2.30007530E-05    2     1000023         3   # BR(~s_L -> ~chi_20 s)
     4.58281482E-05    2     1000025         3   # BR(~s_L -> ~chi_30 s)
     3.95263205E-02    2     1000035         3   # BR(~s_L -> ~chi_40 s)
     9.35181286E-06    2    -1000024         4   # BR(~s_L -> ~chi_1- c)
     7.90847706E-02    2    -1000037         4   # BR(~s_L -> ~chi_2- c)
     8.77610844E-01    2     1000021         3   # BR(~s_L -> ~g      s)
#
#         PDG            Width
DECAY   2000003     1.77222466E+02   # sstrange_R decays
#          BR         NDA      ID1       ID2
     1.67052176E-02    2     1000022         3   # BR(~s_R -> ~chi_10 s)
     1.78498239E-05    2     1000023         3   # BR(~s_R -> ~chi_20 s)
     2.06827168E-05    2     1000025         3   # BR(~s_R -> ~chi_30 s)
     1.06185737E-09    2     1000035         3   # BR(~s_R -> ~chi_40 s)
     9.83256249E-01    2     1000021         3   # BR(~s_R -> ~g      s)
#
#         PDG            Width
DECAY   1000011     3.02769978E+01   # selectron_L decays
#          BR         NDA      ID1       ID2
     2.26261009E-01    2     1000022        11   # BR(~e_L -> ~chi_10 e-)
     1.09868845E-03    2     1000023        11   # BR(~e_L -> ~chi_20 e-)
     2.19147994E-05    2     1000025        11   # BR(~e_L -> ~chi_30 e-)
     2.57343296E-01    2     1000035        11   # BR(~e_L -> ~chi_40 e-)
     6.31166667E-05    2    -1000024        12   # BR(~e_L -> ~chi_1- nu_e)
     5.15211975E-01    2    -1000037        12   # BR(~e_L -> ~chi_2- nu_e)
#
#         PDG            Width
DECAY   2000011     2.73746588E+01   # selectron_R decays
#          BR         NDA      ID1       ID2
     9.97707771E-01    2     1000022        11   # BR(~e_R -> ~chi_10 e-)
     1.06183202E-03    2     1000023        11   # BR(~e_R -> ~chi_20 e-)
     1.23033592E-03    2     1000025        11   # BR(~e_R -> ~chi_30 e-)
     6.10689960E-08    2     1000035        11   # BR(~e_R -> ~chi_40 e-)
#
#         PDG            Width
DECAY   1000013     3.02769978E+01   # smuon_L decays
#          BR         NDA      ID1       ID2
     2.26261009E-01    2     1000022        13   # BR(~mu_L -> ~chi_10 mu-)
     1.09868845E-03    2     1000023        13   # BR(~mu_L -> ~chi_20 mu-)
     2.19147994E-05    2     1000025        13   # BR(~mu_L -> ~chi_30 mu-)
     2.57343296E-01    2     1000035        13   # BR(~mu_L -> ~chi_40 mu-)
     6.31166667E-05    2    -1000024        14   # BR(~mu_L -> ~chi_1- nu_mu)
     5.15211975E-01    2    -1000037        14   # BR(~mu_L -> ~chi_2- nu_mu)
#
#         PDG            Width
DECAY   2000013     2.73746588E+01   # smuon_R decays
#          BR         NDA      ID1       ID2
     9.97707771E-01    2     1000022        13   # BR(~mu_R -> ~chi_10 mu-)
     1.06183202E-03    2     1000023        13   # BR(~mu_R -> ~chi_20 mu-)
     1.23033592E-03    2     1000025        13   # BR(~mu_R -> ~chi_30 mu-)
     6.10689960E-08    2     1000035        13   # BR(~mu_R -> ~chi_40 mu-)
#
#         PDG            Width
DECAY   1000015     2.91461414E+01   # stau_1 decays
#          BR         NDA      ID1       ID2
     9.30372896E-01    2     1000022        15   # BR(~tau_1 -> ~chi_10  tau-)
     1.60464606E-02    2     1000023        15   # BR(~tau_1 -> ~chi_20  tau-)
     1.53743868E-02    2     1000025        15   # BR(~tau_1 -> ~chi_30  tau-)
     2.73294242E-03    2     1000035        15   # BR(~tau_1 -> ~chi_40  tau-)
     3.00020801E-02    2    -1000024        16   # BR(~tau_1 -> ~chi_1-  nu_tau)
     5.47123392E-03    2    -1000037        16   # BR(~tau_1 -> ~chi_2-  nu_tau)
#
#         PDG            Width
DECAY   2000015     3.11197466E+01   # stau_2 decays
#          BR         NDA      ID1       ID2
     2.26328873E-01    2     1000022        15   # BR(~tau_2 -> ~chi_10  tau-)
     1.51060398E-02    2     1000023        15   # BR(~tau_2 -> ~chi_20  tau-)
     1.47755723E-02    2     1000025        15   # BR(~tau_2 -> ~chi_30  tau-)
     2.47731256E-01    2     1000035        15   # BR(~tau_2 -> ~chi_40  tau-)
     8.94137187E-05    2    -1000024        16   # BR(~tau_2 -> ~chi_1-  nu_tau)
     4.95968846E-01    2    -1000037        16   # BR(~tau_2 -> ~chi_2-  nu_tau)
#
#         PDG            Width
DECAY   1000012     3.02799051E+01   # snu_eL decays
#          BR         NDA      ID1       ID2
     2.25893761E-01    2     1000022        12   # BR(~nu_eL -> ~chi_10 nu_e)
     4.47520156E-06    2     1000023        12   # BR(~nu_eL -> ~chi_20 nu_e)
     8.24634865E-04    2     1000025        12   # BR(~nu_eL -> ~chi_30 nu_e)
     2.57392491E-01    2     1000035        12   # BR(~nu_eL -> ~chi_40 nu_e)
     1.76044748E-03    2     1000024        11   # BR(~nu_eL -> ~chi_1+ e-)
     5.14124190E-01    2     1000037        11   # BR(~nu_eL -> ~chi_2+ e-)
#
#         PDG            Width
DECAY   1000014     3.02799051E+01   # snu_muL decays
#          BR         NDA      ID1       ID2
     2.25893761E-01    2     1000022        14   # BR(~nu_muL -> ~chi_10 nu_mu)
     4.47520156E-06    2     1000023        14   # BR(~nu_muL -> ~chi_20 nu_mu)
     8.24634865E-04    2     1000025        14   # BR(~nu_muL -> ~chi_30 nu_mu)
     2.57392491E-01    2     1000035        14   # BR(~nu_muL -> ~chi_40 nu_mu)
     1.76044748E-03    2     1000024        13   # BR(~nu_muL -> ~chi_1+ mu-)
     5.14124190E-01    2     1000037        13   # BR(~nu_muL -> ~chi_2+ mu-)
#
#         PDG            Width
DECAY   1000016     3.11483968E+01   # snu_tauL decays
#          BR         NDA      ID1       ID2
     2.19571343E-01    2     1000022        16   # BR(~nu_tauL -> ~chi_10 nu_tau)
     4.34988481E-06    2     1000023        16   # BR(~nu_tauL -> ~chi_20 nu_tau)
     8.01542982E-04    2     1000025        16   # BR(~nu_tauL -> ~chi_30 nu_tau)
     2.50122917E-01    2     1000035        16   # BR(~nu_tauL -> ~chi_40 nu_tau)
     2.98966483E-02    2     1000024        15   # BR(~nu_tauL -> ~chi_1+ tau-)
     4.99603199E-01    2     1000037        15   # BR(~nu_tauL -> ~chi_2+ tau-)
#
#         PDG            Width
DECAY   1000024     5.46089606E-01   # chargino1+ decays
#          BR         NDA      ID1       ID2
     1.00000000E+00    2     1000022        24   # BR(~chi_1+ -> ~chi_10  W+)
#
#         PDG            Width
DECAY   1000037     2.07624618E+01   # chargino2+ decays
#          BR         NDA      ID1       ID2
     2.53278846E-01    2     1000024        23   # BR(~chi_2+ -> ~chi_1+  Z )
     1.91052530E-04    2     1000022        24   # BR(~chi_2+ -> ~chi_10  W+)
     2.44261888E-01    2     1000023        24   # BR(~chi_2+ -> ~chi_20  W+)
     2.44159457E-01    2     1000025        24   # BR(~chi_2+ -> ~chi_30  W+)
     2.58107284E-01    2     1000024        25   # BR(~chi_2+ -> ~chi_1+  h )
     1.47301779E-06    2     1000022        37   # BR(~chi_2+ -> ~chi_10  H+)
#
#         PDG            Width
DECAY   1000022     0.00000000E+00   # neutralino1 decays
#
#         PDG            Width
DECAY   1000023     5.68912252E-01   # neutralino2 decays
#          BR         NDA      ID1       ID2
     5.35270074E-01    2     1000022        23   # BR(~chi_20 -> ~chi_10   Z )
     4.64729926E-01    2     1000022        25   # BR(~chi_20 -> ~chi_10   h )
#
#         PDG            Width
DECAY   1000025     5.70410592E-01   # neutralino3 decays
#          BR         NDA      ID1       ID2
     4.58684315E-01    2     1000022        23   # BR(~chi_30 -> ~chi_10   Z )
     5.41315685E-01    2     1000022        25   # BR(~chi_30 -> ~chi_10   h )
#
#         PDG            Width
DECAY   1000035     2.07781746E+01   # neutralino4 decays
#          BR         NDA      ID1       ID2
     4.00052175E-05    2     1000022        23   # BR(~chi_40 -> ~chi_10   Z )
     8.03618978E-02    2     1000023        23   # BR(~chi_40 -> ~chi_20   Z )
     1.72222106E-01    2     1000025        23   # BR(~chi_40 -> ~chi_30   Z )
     2.44858484E-01    2     1000024       -24   # BR(~chi_40 -> ~chi_1+   W-)
     2.44858484E-01    2    -1000024        24   # BR(~chi_40 -> ~chi_1-   W+)
     1.50923053E-04    2     1000022        25   # BR(~chi_40 -> ~chi_10   h )
     1.40389147E-06    2     1000022        35   # BR(~chi_40 -> ~chi_10   H )
     1.67881143E-07    2     1000022        36   # BR(~chi_40 -> ~chi_10   A )
     1.76906501E-01    2     1000023        25   # BR(~chi_40 -> ~chi_20   h )
     8.06000272E-02    2     1000025        25   # BR(~chi_40 -> ~chi_30   h )
#
#         PDG            Width
DECAY        25     4.05936334E-03   # h decays
#          BR         NDA      ID1       ID2
     6.07014355E-01    2           5        -5   # BR(h -> b       bb     )
     6.39198875E-02    2         -15        15   # BR(h -> tau+    tau-   )
     2.26299440E-04    2         -13        13   # BR(h -> mu+     mu-    )
     4.79706822E-04    2           3        -3   # BR(h -> s       sb     )
     2.07860851E-02    2           4        -4   # BR(h -> c       cb     )
     6.72914724E-02    2          21        21   # BR(h -> g       g      )
     2.31453954E-03    2          22        22   # BR(h -> gam     gam    )
     1.49636853E-03    2          22        23   # BR(h -> Z       gam    )
     2.11217192E-01    2          24       -24   # BR(h -> W+      W-     )
     2.51890513E-02    2          23        23   # BR(h -> Z       Z      )
     6.50422794E-05    2     1000022   1000022   # BR(h -> ~chi_10 ~chi_10)
#
#         PDG            Width
DECAY        35     8.24313322E+00   # H decays
#          BR         NDA      ID1       ID2
     3.91008576E-01    2           5        -5   # BR(H -> b       bb     )
     6.75724553E-02    2         -15        15   # BR(H -> tau+    tau-   )
     2.38941569E-04    2         -13        13   # BR(H -> mu+     mu-    )
     2.92905756E-04    2           3        -3   # BR(H -> s       sb     )
     1.63906327E-06    2           4        -4   # BR(H -> c       cb     )
     1.63755400E-01    2           6        -6   # BR(H -> t       tb     )
     5.44290793E-05    2          21        21   # BR(H -> g       g      )
     2.37968959E-07    2          22        22   # BR(H -> gam     gam    )
     9.66936106E-08    2          23        22   # BR(H -> Z       gam    )
     7.61244732E-05    2          24       -24   # BR(H -> W+      W-     )
     3.80140594E-05    2          23        23   # BR(H -> Z       Z      )
     2.80603824E-04    2          25        25   # BR(H -> h       h      )
     3.10875820E-23    2          36        36   # BR(H -> A       A      )
     1.01335841E-18    2          23        36   # BR(H -> Z       A      )
     2.29829910E-03    2     1000024  -1000024   # BR(H -> ~chi_1+ ~chi_1-)
     2.16292130E-03    2     1000022   1000022   # BR(H -> ~chi_10 ~chi_10)
     1.59466186E-05    2     1000023   1000023   # BR(H -> ~chi_20 ~chi_20)
     7.54317203E-04    2     1000025   1000025   # BR(H -> ~chi_30 ~chi_30)
     2.23088217E-01    2     1000022   1000023   # BR(H -> ~chi_10 ~chi_20)
     1.47617834E-01    2     1000022   1000025   # BR(H -> ~chi_10 ~chi_30)
     7.43041883E-04    2     1000023   1000025   # BR(H -> ~chi_20 ~chi_30)
#
#         PDG            Width
DECAY        36     8.25716680E+00   # A decays
#          BR         NDA      ID1       ID2
     3.90475409E-01    2           5        -5   # BR(A -> b       bb     )
     6.74594891E-02    2         -15        15   # BR(A -> tau+    tau-   )
     2.38541778E-04    2         -13        13   # BR(A -> mu+     mu-    )
     2.92629515E-04    2           3        -3   # BR(A -> s       sb     )
     1.64293695E-06    2           4        -4   # BR(A -> c       cb     )
     1.64051847E-01    2           6        -6   # BR(A -> t       tb     )
     1.62332731E-04    2          21        21   # BR(A -> g       g      )
     5.87890322E-07    2          22        22   # BR(A -> gam     gam    )
     1.96604200E-07    2          23        22   # BR(A -> Z       gam    )
     7.57069606E-05    2          23        25   # BR(A -> Z       h      )
     3.30919847E-03    2     1000024  -1000024   # BR(A -> ~chi_1+ ~chi_1-)
     2.19712932E-03    2     1000022   1000022   # BR(A -> ~chi_10 ~chi_10)
     1.62653512E-05    2     1000023   1000023   # BR(A -> ~chi_20 ~chi_20)
     1.80493033E-03    2     1000025   1000025   # BR(A -> ~chi_30 ~chi_30)
     1.49631751E-01    2     1000022   1000023   # BR(A -> ~chi_10 ~chi_20)
     2.20005513E-01    2     1000022   1000025   # BR(A -> ~chi_10 ~chi_30)
     2.76829106E-04    2     1000023   1000025   # BR(A -> ~chi_20 ~chi_30)
#
#         PDG            Width
DECAY        37     8.22610685E+00   # H+ decays
#          BR         NDA      ID1       ID2
     6.29419126E-04    2           4        -5   # BR(H+ -> c       bb     )
     6.77462754E-02    2         -15        16   # BR(H+ -> tau+    nu_tau )
     2.39555876E-04    2         -13        14   # BR(H+ -> mu+     nu_mu  )
     4.02826157E-06    2           2        -5   # BR(H+ -> u       bb     )
     1.40563137E-05    2           2        -3   # BR(H+ -> u       sb     )
     2.90686013E-04    2           4        -3   # BR(H+ -> c       sb     )
     5.54643340E-01    2           6        -5   # BR(H+ -> t       bb     )
     7.61498848E-05    2          24        25   # BR(H+ -> W+      h      )
     9.25561906E-13    2          24        36   # BR(H+ -> W+      A      )
     3.75213782E-01    2     1000024   1000022   # BR(H+ -> ~chi_1+ ~chi_10)
     1.12097080E-03    2     1000024   1000023   # BR(H+ -> ~chi_1+ ~chi_20)
     2.17364593E-05    2     1000024   1000025   # BR(H+ -> ~chi_1+ ~chi_30)
