#
#                              ======================
#                              | THE SUSYHIT OUTPUT |
#                              ======================
#
#
#              ------------------------------------------------------
#              |     This is the output of the SUSY-HIT package     |
#              |  created by A.Djouadi, M.Muehlleitner and M.Spira. |
#              |  In case of problems with SUSY-HIT email to        |
#              |           margarete.muehlleitner@kit.edu           |
#              |           michael.spira@psi.ch                     |
#              |           abdelhak.djouadi@cern.ch                 |
#              ------------------------------------------------------
#
#              ------------------------------------------------------
#              |  SUSY Les Houches Accord - MSSM Spectrum + Decays  |
#              |              based on the decay programs           |
#              |                                                    |
#              |                     SDECAY 1.5                     |
#              |                                                    |
#              |  Authors: M.Muhlleitner, A.Djouadi and Y.Mambrini  |
#              |  Ref.:    Comput.Phys.Commun.168(2005)46           |
#              |           [hep-ph/0311167]                         |
#              |                                                    |
#              |                     HDECAY 3.4                     |
#              |                                                    |
#              |  By: A.Djouadi,J.Kalinowski,M.Muhlleitner,M.Spira  |
#              |  Ref.:    Comput.Phys.Commun.108(1998)56           |
#              |           [hep-ph/9704448]                         |
#              |                                                    |
#              |                                                    |
#              |  If not stated otherwise all DRbar couplings and   |
#              |  soft SUSY breaking masses are given at the scale  |
#              |  Q=  0.91187600E+02
#              |                                                    |
#              ------------------------------------------------------
#
#
BLOCK DCINFO  # Decay Program information
     1   SDECAY/HDECAY # decay calculator
     2   1.5  /3.4    # version number
#
BLOCK SPINFO  # Spectrum calculator information
     1   SuSpect     # RGE +Spectrum calculator            
     2   2.43         # version number                     
#
BLOCK MODSEL  # Model selection
     1     2   # GMSB                                              
#
BLOCK SMINPUTS  # Standard Model inputs
         1     1.27932904E+02   # alpha_em^-1(M_Z)^MSbar
         2     1.16639000E-05   # G_F [GeV^-2]
         3     1.17200000E-01   # alpha_S(M_Z)^MSbar
         4     9.11870000E+01   # M_Z pole mass
         5     4.25000000E+00   # mb(mb)^MSbar
         6     1.72900000E+02   # mt pole mass
         7     1.77700000E+00   # mtau pole mass
#
BLOCK MINPAR  # Input parameters - minimal models
#
BLOCK EXTPAR  # Input parameters - non-minimal models
         0     9.11876000E+01   # EWSB                
         1     1.24900000E+03   # M_1                 
         2     3.00000000E+03   # M_2                 
         3     2.40000000E+03   # M_3                 
        11     0.00000000E+00   # A_t                 
        12     0.00000000E+00   # A_b                 
        13     0.00000000E+00   # A_tau               
        14     0.00000000E+00   # A_u                 
        15     0.00000000E+00   # A_d                 
        16     0.00000000E+00   # A_e                 
        23     1.25000000E+03   # mu(EWSB)            
        25     1.50000000E+00   # tanbeta(in)         
        26     2.00000000E+03   # MA_pole             
        31     5.00000000E+03   # M_eL                
        32     5.00000000E+03   # M_muL               
        33     5.00000000E+03   # M_tauL              
        34     5.00000000E+03   # M_eR                
        35     5.00000000E+03   # M_muR               
        36     5.00000000E+03   # M_tauR              
        41     5.00000000E+03   # M_q1L               
        42     5.00000000E+03   # M_q2L               
        43     5.00000000E+03   # M_q3L               
        44     5.00000000E+03   # M_uR                
        45     5.00000000E+03   # M_cR                
        46     5.00000000E+03   # M_tR                
        47     5.00000000E+03   # M_dR                
        48     5.00000000E+03   # M_sR                
        49     5.00000000E+03   # M_bR                
#
BLOCK MASS  # Mass Spectrum
# PDG code           mass       particle
        24     8.05410144E+01   # W+
        25     1.26000000E+02   # h
        35     2.00402407E+03   # H
        36     2.00000000E+03   # A
        37     2.00151279E+03   # H+
         5     4.87877839E+00   # b-quark pole mass calculated from mb(mb)_Msbar
   1000001     4.89730096E+03   # ~d_L
   2000001     4.89719018E+03   # ~d_R
   1000002     4.89705328E+03   # ~u_L
   2000002     4.89711182E+03   # ~u_R
   1000003     4.89730096E+03   # ~s_L
   2000003     4.89719018E+03   # ~s_R
   1000004     4.89705328E+03   # ~c_L
   2000004     4.89711182E+03   # ~c_R
   1000005     4.89672456E+03   # ~b_1
   2000005     4.89776802E+03   # ~b_2
   1000006     5.02030133E+03   # ~t_1
   2000006     5.31964454E+03   # ~t_2
   1000011     5.00008220E+03   # ~e_L
   2000011     5.00007609E+03   # ~e_R
   1000012     4.99984171E+03   # ~nu_eL
   1000013     5.00008220E+03   # ~mu_L
   2000013     5.00007609E+03   # ~mu_R
   1000014     4.99984171E+03   # ~nu_muL
   1000015     4.99974600E+03   # ~tau_1
   2000015     5.00041290E+03   # ~tau_2
   1000016     4.99984171E+03   # ~nu_tauL
   1000021     2.41236772E+03   # ~g
   1000022     1.28284630E+03   # ~chi_10
   1000023    -1.33144632E+03   # ~chi_20
   1000025     1.37004656E+03   # ~chi_30
   1000035     3.12827884E+03   # ~chi_40
   1000024     1.32807161E+03   # ~chi_1+
   1000037     3.12827695E+03   # ~chi_2+
   1000039     1.00000000E-09   # ~gravitino
#
BLOCK NMIX  # Neutralino Mixing Matrix
  1  1     7.19731945E-01   # N_11
  1  2    -2.91763717E-02   # N_12
  1  3     4.92293806E-01   # N_13
  1  4    -4.88652714E-01   # N_14
  2  1     3.28639311E-03   # N_21
  2  2    -3.48261514E-03   # N_22
  2  3    -7.06988895E-01   # N_23
  2  4    -7.07208437E-01   # N_24
  3  1     6.94243475E-01   # N_31
  3  2     3.17895099E-02   # N_32
  3  3    -5.06978344E-01   # N_33
  3  4     5.09890560E-01   # N_34
  4  1     1.06004149E-03   # N_41
  4  2    -9.99062580E-01   # N_42
  4  3    -2.80440590E-02   # N_43
  4  4     3.29601165E-02   # N_44
#
BLOCK UMIX  # Chargino Mixing Matrix U
  1  1    -3.96354261E-02   # U_11
  1  2     9.99214208E-01   # U_12
  2  1     9.99214208E-01   # U_21
  2  2     3.96354261E-02   # U_22
#
BLOCK VMIX  # Chargino Mixing Matrix V
  1  1    -4.65888656E-02   # V_11
  1  2     9.98914149E-01   # V_12
  2  1     9.98914149E-01   # V_21
  2  2     4.65888656E-02   # V_22
#
BLOCK STOPMIX  # Stop Mixing Matrix
  1  1     9.99996851E-01   # cos(theta_t)
  1  2    -2.50957966E-03   # sin(theta_t)
  2  1     2.50957966E-03   # -sin(theta_t)
  2  2     9.99996851E-01   # cos(theta_t)
#
BLOCK SBOTMIX  # Sbottom Mixing Matrix
  1  1     6.68519643E-01   # cos(theta_b)
  1  2     7.43694485E-01   # sin(theta_b)
  2  1    -7.43694485E-01   # -sin(theta_b)
  2  2     6.68519643E-01   # cos(theta_b)
#
BLOCK STAUMIX  # Stau Mixing Matrix
  1  1     7.03859650E-01   # cos(theta_tau)
  1  2     7.10339069E-01   # sin(theta_tau)
  2  1    -7.10339069E-01   # -sin(theta_tau)
  2  2     7.03859650E-01   # cos(theta_tau)
#
BLOCK ALPHA  # Higgs mixing
          -5.90205720E-01   # Mixing angle in the neutral Higgs boson sector
#
BLOCK HMIX Q=  9.11876000E+01  # DRbar Higgs Parameters
         1     1.25000000E+03   # mu(Q)               
         2     1.49999979E+00   # tanbeta(Q)          
         3     2.52157100E+02   # vev(Q)              
         4     3.38014289E+06   # MA^2(Q)             
#
BLOCK GAUGE Q=  9.11876000E+01  # The gauge couplings
     1     3.52784413E-01   # gprime(Q) DRbar
     2     6.27185188E-01   # g(Q) DRbar
     3     1.07754567E+00   # g3(Q) DRbar
#
BLOCK AU Q=  9.11876000E+01  # The trilinear couplings
  1  1     0.00000000E+00   # A_u(Q) DRbar
  2  2     0.00000000E+00   # A_c(Q) DRbar
  3  3     0.00000000E+00   # A_t(Q) DRbar
#
BLOCK AD Q=  9.11876000E+01  # The trilinear couplings
  1  1     0.00000000E+00   # A_d(Q) DRbar
  2  2     0.00000000E+00   # A_s(Q) DRbar
  3  3     0.00000000E+00   # A_b(Q) DRbar
#
BLOCK AE Q=  9.11876000E+01  # The trilinear couplings
  1  1     0.00000000E+00   # A_e(Q) DRbar
  2  2     0.00000000E+00   # A_mu(Q) DRbar
  3  3     0.00000000E+00   # A_tau(Q) DRbar
#
BLOCK Yu Q=  9.11876000E+01  # The Yukawa couplings
  1  1     0.00000000E+00   # y_u(Q) DRbar
  2  2     0.00000000E+00   # y_c(Q) DRbar
  3  3     1.02562104E+00   # y_t(Q) DRbar
#
BLOCK Yd Q=  9.11876000E+01  # The Yukawa couplings
  1  1     0.00000000E+00   # y_d(Q) DRbar
  2  2     0.00000000E+00   # y_s(Q) DRbar
  3  3     2.71636435E-02   # y_b(Q) DRbar
#
BLOCK Ye Q=  9.11876000E+01  # The Yukawa couplings
  1  1     0.00000000E+00   # y_e(Q) DRbar
  2  2     0.00000000E+00   # y_mu(Q) DRbar
  3  3     1.79803118E-02   # y_tau(Q) DRbar
#
BLOCK MSOFT Q=  9.11876000E+01  # The soft SUSY breaking masses at the scale Q
         1     1.24900000E+03   # M_1                 
         2     3.00000000E+03   # M_2                 
         3     2.40000000E+03   # M_3                 
        14     0.00000000E+00   # A_u                 
        15     0.00000000E+00   # A_d                 
        16     0.00000000E+00   # A_e                 
        21     1.29825722E+06   # M^2_Hd              
        22    -6.79143206E+06   # M^2_Hu              
        31     5.00000000E+03   # M_eL                
        32     5.00000000E+03   # M_muL               
        33     5.00000000E+03   # M_tauL              
        34     5.00000000E+03   # M_eR                
        35     5.00000000E+03   # M_muR               
        36     5.00000000E+03   # M_tauR              
        41     5.00000000E+03   # M_q1L               
        42     5.00000000E+03   # M_q2L               
        43     5.00000000E+03   # M_q3L               
        44     5.00000000E+03   # M_uR                
        45     5.00000000E+03   # M_cR                
        46     5.00000000E+03   # M_tR                
        47     5.00000000E+03   # M_dR                
        48     5.00000000E+03   # M_sR                
        49     5.00000000E+03   # M_bR                
#
#
#
#                             =================
#                             |The decay table|
#                             =================
#
# - The QCD corrections to the decays gluino -> squark  + quark
#                                     squark -> gaugino + quark_prime
#                                     squark -> squark_prime + Higgs
#                                     squark -> gluino  + quark
#   are included.
#
# - The multi-body decays for the inos, stops and sbottoms are included.
#
# - The loop induced decays for the gluino, neutralinos and stops
#   are included.
#
# - The SUSY decays of the top quark are included.
#
# - Possible decays of the NLSP in GMSB models are included.
#
#
#         PDG            Width
DECAY         6     1.37053179E+00   # top decays
#          BR         NDA      ID1       ID2
     1.00000000E+00    2           5        24   # BR(t ->  b    W+)
#
#         PDG            Width
DECAY   1000021     1.33176649E-03   # gluino decays
#          BR         NDA      ID1       ID2
     7.65735913E-03    2     1000022        21   # BR(~g -> ~chi_10 g)
     1.43936527E-02    2     1000023        21   # BR(~g -> ~chi_20 g)
     6.72562646E-03    2     1000025        21   # BR(~g -> ~chi_30 g)
#          BR         NDA      ID1       ID2
0.0E+00    2     1000039    21 # BR(~g -> ~G      g)
#           BR         NDA      ID1       ID2       ID3
     6.36488694E-03    3     1000022         1        -1   # BR(~g -> ~chi_10 d  db)
     3.71191610E-07    3     1000023         1        -1   # BR(~g -> ~chi_20 d  db)
     3.64362402E-03    3     1000025         1        -1   # BR(~g -> ~chi_30 d  db)
     1.93021568E-02    3     1000022         2        -2   # BR(~g -> ~chi_10 u  ub)
     2.89643072E-07    3     1000023         2        -2   # BR(~g -> ~chi_20 u  ub)
     1.39885722E-02    3     1000025         2        -2   # BR(~g -> ~chi_30 u  ub)
     6.36488694E-03    3     1000022         3        -3   # BR(~g -> ~chi_10 s  sb)
     3.71191610E-07    3     1000023         3        -3   # BR(~g -> ~chi_20 s  sb)
     3.64362402E-03    3     1000025         3        -3   # BR(~g -> ~chi_30 s  sb)
     1.93021568E-02    3     1000022         4        -4   # BR(~g -> ~chi_10 c  cb)
     2.89643072E-07    3     1000023         4        -4   # BR(~g -> ~chi_20 c  cb)
     1.39885722E-02    3     1000025         4        -4   # BR(~g -> ~chi_30 c  cb)
     6.45482709E-03    3     1000022         5        -5   # BR(~g -> ~chi_10 b  bb)
     2.09406626E-04    3     1000023         5        -5   # BR(~g -> ~chi_20 b  bb)
     3.75544131E-03    3     1000025         5        -5   # BR(~g -> ~chi_30 b  bb)
     9.96595135E-02    3     1000022         6        -6   # BR(~g -> ~chi_10 t  tb)
     1.64756329E-01    3     1000023         6        -6   # BR(~g -> ~chi_20 t  tb)
     1.03524181E-01    3     1000025         6        -6   # BR(~g -> ~chi_30 t  tb)
     2.03882825E-04    3     1000024         1        -2   # BR(~g -> ~chi_1+ d  ub)
     2.03882825E-04    3    -1000024         2        -1   # BR(~g -> ~chi_1- u  db)
     2.03882825E-04    3     1000024         3        -4   # BR(~g -> ~chi_1+ s  cb)
     2.03882825E-04    3    -1000024         4        -3   # BR(~g -> ~chi_1- c  sb)
     2.17410250E-01    3     1000024         5        -6   # BR(~g -> ~chi_1+ b  tb)
     2.17410250E-01    3    -1000024         6        -5   # BR(~g -> ~chi_1- t  bb)
#
#         PDG            Width
DECAY   1000006     2.46116718E+02   # stop1 decays
#          BR         NDA      ID1       ID2
     5.98852549E-02    2     1000022         6   # BR(~t_1 -> ~chi_10 t )
     1.25959156E-01    2     1000023         6   # BR(~t_1 -> ~chi_20 t )
     6.82537054E-02    2     1000025         6   # BR(~t_1 -> ~chi_30 t )
     2.92351873E-02    2     1000035         6   # BR(~t_1 -> ~chi_40 t )
    -1.11903068E-04    2     1000024         5   # BR(~t_1 -> ~chi_1+ b )
     5.80422967E-02    2     1000037         5   # BR(~t_1 -> ~chi_2+ b )
     6.41436451E-01    2     1000021         6   # BR(~t_1 -> ~g      t )
     7.92055506E-03    2     1000005        24   # BR(~t_1 -> ~b_1    W+)
     9.37929659E-03    2     2000005        24   # BR(~t_1 -> ~b_2    W+)
#
#         PDG            Width
DECAY   2000006     3.20806005E+02   # stop2 decays
#          BR         NDA      ID1       ID2
     6.75794067E-02    2     1000022         6   # BR(~t_2 -> ~chi_10 t )
     1.05023671E-01    2     1000023         6   # BR(~t_2 -> ~chi_20 t )
     6.80632610E-02    2     1000025         6   # BR(~t_2 -> ~chi_30 t )
    -1.74610668E-05    2     1000035         6   # BR(~t_2 -> ~chi_40 t )
     2.10411226E-01    2     1000024         5   # BR(~t_2 -> ~chi_1+ b )
    -3.40454262E-05    2     1000037         5   # BR(~t_2 -> ~chi_2+ b )
     5.49132424E-01    2     1000021         6   # BR(~t_2 -> ~g      t )
    -1.61352804E-04    2     1000006        25   # BR(~t_2 -> ~t_1    h )
     8.25480989E-07    2     1000006        23   # BR(~t_2 -> ~t_1    Z )
     9.07494291E-07    2     1000005        24   # BR(~t_2 -> ~b_1    W+)
     1.13669524E-06    2     2000005        24   # BR(~t_2 -> ~b_2    W+)
#
#         PDG            Width
DECAY   1000005     1.84857039E+02   # sbottom1 decays
#          BR         NDA      ID1       ID2
     5.68244907E-03    2     1000022         5   # BR(~b_1 -> ~chi_10 b )
     9.89973852E-05    2     1000023         5   # BR(~b_1 -> ~chi_20 b )
     2.97855470E-03    2     1000025         5   # BR(~b_1 -> ~chi_30 b )
     1.44349636E-02    2     1000035         5   # BR(~b_1 -> ~chi_40 b )
     1.29209432E-01    2    -1000024         6   # BR(~b_1 -> ~chi_1- t )
     2.90804604E-02    2    -1000037         6   # BR(~b_1 -> ~chi_2- t )
     8.18515142E-01    2     1000021         5   # BR(~b_1 -> ~g      b )
#
#         PDG            Width
DECAY   2000005     2.00171346E+02   # sbottom2 decays
#          BR         NDA      ID1       ID2
     2.83272475E-03    2     1000022         5   # BR(~b_2 -> ~chi_10 b )
     1.22250099E-04    2     1000023         5   # BR(~b_2 -> ~chi_20 b )
     3.42373616E-03    2     1000025         5   # BR(~b_2 -> ~chi_30 b )
     1.91642595E-02    2     1000035         5   # BR(~b_2 -> ~chi_40 b )
     1.80643300E-01    2    -1000024         6   # BR(~b_2 -> ~chi_1- t )
     3.86201817E-02    2    -1000037         6   # BR(~b_2 -> ~chi_2- t )
     7.55193548E-01    2     1000021         5   # BR(~b_2 -> ~g      b )
#
#         PDG            Width
DECAY   1000002     1.71379381E+02   # sup_L decays
#          BR         NDA      ID1       ID2
     1.04462217E-03    2     1000022         2   # BR(~u_L -> ~chi_10 u)
     7.58579488E-07    2     1000023         2   # BR(~u_L -> ~chi_20 u)
     2.39920808E-03    2     1000025         2   # BR(~u_L -> ~chi_30 u)
     3.79153009E-02    2     1000035         2   # BR(~u_L -> ~chi_40 u)
     4.01107542E-04    2     1000024         1   # BR(~u_L -> ~chi_1+ d)
     7.58383677E-02    2     1000037         1   # BR(~u_L -> ~chi_2+ d)
     8.82400635E-01    2     1000021         2   # BR(~u_L -> ~g      u)
#
#         PDG            Width
DECAY   2000002     1.60141951E+02   # sup_R decays
#          BR         NDA      ID1       ID2
     2.91162761E-02    2     1000022         2   # BR(~u_R -> ~chi_10 u)
     6.00236971E-07    2     1000023         2   # BR(~u_R -> ~chi_20 u)
     2.65371709E-02    2     1000025         2   # BR(~u_R -> ~chi_30 u)
     2.57054470E-08    2     1000035         2   # BR(~u_R -> ~chi_40 u)
     9.44345927E-01    2     1000021         2   # BR(~u_R -> ~g      u)
#
#         PDG            Width
DECAY   1000001     1.71387251E+02   # sdown_L decays
#          BR         NDA      ID1       ID2
     2.51523646E-03    2     1000022         1   # BR(~d_L -> ~chi_10 d)
     1.55110682E-06    2     1000023         1   # BR(~d_L -> ~chi_20 d)
     8.85269921E-04    2     1000025         1   # BR(~d_L -> ~chi_30 d)
     3.79509056E-02    2     1000035         1   # BR(~d_L -> ~chi_40 d)
     2.90317287E-04    2    -1000024         2   # BR(~d_L -> ~chi_1- u)
     7.58947772E-02    2    -1000037         2   # BR(~d_L -> ~chi_2- u)
     8.82461942E-01    2     1000021         1   # BR(~d_L -> ~g      d)
#
#         PDG            Width
DECAY   2000001     1.53463106E+02   # sdown_R decays
#          BR         NDA      ID1       ID2
     7.59601927E-03    2     1000022         1   # BR(~d_R -> ~chi_10 d)
     1.56593287E-07    2     1000023         1   # BR(~d_R -> ~chi_20 d)
     6.92317258E-03    2     1000025         1   # BR(~d_R -> ~chi_30 d)
     6.70644302E-09    2     1000035         1   # BR(~d_R -> ~chi_40 d)
     9.85480645E-01    2     1000021         1   # BR(~d_R -> ~g      d)
#
#         PDG            Width
DECAY   1000004     1.71379381E+02   # scharm_L decays
#          BR         NDA      ID1       ID2
     1.04462217E-03    2     1000022         4   # BR(~c_L -> ~chi_10 c)
     7.58579488E-07    2     1000023         4   # BR(~c_L -> ~chi_20 c)
     2.39920808E-03    2     1000025         4   # BR(~c_L -> ~chi_30 c)
     3.79153009E-02    2     1000035         4   # BR(~c_L -> ~chi_40 c)
     4.01107542E-04    2     1000024         3   # BR(~c_L -> ~chi_1+ s)
     7.58383677E-02    2     1000037         3   # BR(~c_L -> ~chi_2+ s)
     8.82400635E-01    2     1000021         4   # BR(~c_L -> ~g      c)
#
#         PDG            Width
DECAY   2000004     1.60141951E+02   # scharm_R decays
#          BR         NDA      ID1       ID2
     2.91162761E-02    2     1000022         4   # BR(~c_R -> ~chi_10 c)
     6.00236971E-07    2     1000023         4   # BR(~c_R -> ~chi_20 c)
     2.65371709E-02    2     1000025         4   # BR(~c_R -> ~chi_30 c)
     2.57054470E-08    2     1000035         4   # BR(~c_R -> ~chi_40 c)
     9.44345927E-01    2     1000021         4   # BR(~c_R -> ~g      c)
#
#         PDG            Width
DECAY   1000003     1.71387251E+02   # sstrange_L decays
#          BR         NDA      ID1       ID2
     2.51523646E-03    2     1000022         3   # BR(~s_L -> ~chi_10 s)
     1.55110682E-06    2     1000023         3   # BR(~s_L -> ~chi_20 s)
     8.85269921E-04    2     1000025         3   # BR(~s_L -> ~chi_30 s)
     3.79509056E-02    2     1000035         3   # BR(~s_L -> ~chi_40 s)
     2.90317287E-04    2    -1000024         4   # BR(~s_L -> ~chi_1- c)
     7.58947772E-02    2    -1000037         4   # BR(~s_L -> ~chi_2- c)
     8.82461942E-01    2     1000021         3   # BR(~s_L -> ~g      s)
#
#         PDG            Width
DECAY   2000003     1.53463106E+02   # sstrange_R decays
#          BR         NDA      ID1       ID2
     7.59601927E-03    2     1000022         3   # BR(~s_R -> ~chi_10 s)
     1.56593287E-07    2     1000023         3   # BR(~s_R -> ~chi_20 s)
     6.92317258E-03    2     1000025         3   # BR(~s_R -> ~chi_30 s)
     6.70644302E-09    2     1000035         3   # BR(~s_R -> ~chi_40 s)
     9.85480645E-01    2     1000021         3   # BR(~s_R -> ~g      s)
#
#         PDG            Width
DECAY   1000011     2.71398498E+01   # selectron_L decays
#          BR         NDA      ID1       ID2
     8.87805247E-02    2     1000022        11   # BR(~e_L -> ~chi_10 e-)
     1.66155085E-06    2     1000023        11   # BR(~e_L -> ~chi_20 e-)
     1.09976456E-01    2     1000025        11   # BR(~e_L -> ~chi_30 e-)
     2.66162042E-01    2     1000035        11   # BR(~e_L -> ~chi_40 e-)
     1.95664404E-03    2    -1000024        12   # BR(~e_L -> ~chi_1- nu_e)
     5.33122672E-01    2    -1000037        12   # BR(~e_L -> ~chi_2- nu_e)
#
#         PDG            Width
DECAY   2000011     2.14025313E+01   # selectron_R decays
#          BR         NDA      ID1       ID2
     5.22983158E-01    2     1000022        11   # BR(~e_R -> ~chi_10 e-)
     1.07856675E-05    2     1000023        11   # BR(~e_R -> ~chi_20 e-)
     4.77005575E-01    2     1000025        11   # BR(~e_R -> ~chi_30 e-)
     4.81451554E-07    2     1000035        11   # BR(~e_R -> ~chi_40 e-)
#
#         PDG            Width
DECAY   1000013     2.71398498E+01   # smuon_L decays
#          BR         NDA      ID1       ID2
     8.87805247E-02    2     1000022        13   # BR(~mu_L -> ~chi_10 mu-)
     1.66155085E-06    2     1000023        13   # BR(~mu_L -> ~chi_20 mu-)
     1.09976456E-01    2     1000025        13   # BR(~mu_L -> ~chi_30 mu-)
     2.66162042E-01    2     1000035        13   # BR(~mu_L -> ~chi_40 mu-)
     1.95664404E-03    2    -1000024        14   # BR(~mu_L -> ~chi_1- nu_mu)
     5.33122672E-01    2    -1000037        14   # BR(~mu_L -> ~chi_2- nu_mu)
#
#         PDG            Width
DECAY   2000013     2.14025313E+01   # smuon_R decays
#          BR         NDA      ID1       ID2
     5.22983158E-01    2     1000022        13   # BR(~mu_R -> ~chi_10 mu-)
     1.07856675E-05    2     1000023        13   # BR(~mu_R -> ~chi_20 mu-)
     4.77005575E-01    2     1000025        13   # BR(~mu_R -> ~chi_30 mu-)
     4.81451554E-07    2     1000035        13   # BR(~mu_R -> ~chi_40 mu-)
#
#         PDG            Width
DECAY   1000015     2.43242848E+01   # stau_1 decays
#          BR         NDA      ID1       ID2
     2.87640666E-01    2     1000022        15   # BR(~tau_1 -> ~chi_10  tau-)
     4.70102538E-04    2     1000023        15   # BR(~tau_1 -> ~chi_20  tau-)
     2.67811365E-01    2     1000025        15   # BR(~tau_1 -> ~chi_30  tau-)
     1.46751369E-01    2     1000035        15   # BR(~tau_1 -> ~chi_40  tau-)
     3.23441721E-03    2    -1000024        16   # BR(~tau_1 -> ~chi_1-  nu_tau)
     2.93944208E-01    2    -1000037        16   # BR(~tau_1 -> ~chi_2-  nu_tau)
     1.47872030E-04    2     1000039        15   # BR(~tau_1 -> ~G       tau-)
#
#         PDG            Width
DECAY   2000015     2.43049660E+01   # stau_2 decays
#          BR         NDA      ID1       ID2
     2.72352459E-01    2     1000022        15   # BR(~tau_2 -> ~chi_10  tau-)
     6.82623630E-04    2     1000023        15   # BR(~tau_2 -> ~chi_20  tau-)
     2.75407283E-01    2     1000025        15   # BR(~tau_2 -> ~chi_30  tau-)
     1.50340361E-01    2     1000035        15   # BR(~tau_2 -> ~chi_40  tau-)
     8.88396599E-05    2    -1000024        16   # BR(~tau_2 -> ~chi_1-  nu_tau)
     3.01128433E-01    2    -1000037        16   # BR(~tau_2 -> ~chi_2-  nu_tau)
#
#         PDG            Width
DECAY   1000012     2.71406479E+01   # snu_eL decays
#          BR         NDA      ID1       ID2
     1.18492758E-01    2     1000022        12   # BR(~nu_eL -> ~chi_10 nu_e)
     1.76841737E-05    2     1000023        12   # BR(~nu_eL -> ~chi_20 nu_e)
     7.93465917E-02    2     1000025        12   # BR(~nu_eL -> ~chi_30 nu_e)
     2.66744513E-01    2     1000035        12   # BR(~nu_eL -> ~chi_40 nu_e)
     2.70314307E-03    2     1000024        11   # BR(~nu_eL -> ~chi_1+ e-)
     5.32695310E-01    2     1000037        11   # BR(~nu_eL -> ~chi_2+ e-)
#
#         PDG            Width
DECAY   1000014     2.71406479E+01   # snu_muL decays
#          BR         NDA      ID1       ID2
     1.18492758E-01    2     1000022        14   # BR(~nu_muL -> ~chi_10 nu_mu)
     1.76841737E-05    2     1000023        14   # BR(~nu_muL -> ~chi_20 nu_mu)
     7.93465917E-02    2     1000025        14   # BR(~nu_muL -> ~chi_30 nu_mu)
     2.66744513E-01    2     1000035        14   # BR(~nu_muL -> ~chi_40 nu_mu)
     2.70314307E-03    2     1000024        13   # BR(~nu_muL -> ~chi_1+ mu-)
     5.32695310E-01    2     1000037        13   # BR(~nu_muL -> ~chi_2+ mu-)
#
#         PDG            Width
DECAY   1000016     2.71683985E+01   # snu_tauL decays
#          BR         NDA      ID1       ID2
     1.18371726E-01    2     1000022        16   # BR(~nu_tauL -> ~chi_10 nu_tau)
     1.76661106E-05    2     1000023        16   # BR(~nu_tauL -> ~chi_20 nu_tau)
     7.92655447E-02    2     1000025        16   # BR(~nu_tauL -> ~chi_30 nu_tau)
     2.66472053E-01    2     1000035        16   # BR(~nu_tauL -> ~chi_40 nu_tau)
     3.72060111E-03    2     1000024        15   # BR(~nu_tauL -> ~chi_1+ tau-)
     5.32152409E-01    2     1000037        15   # BR(~nu_tauL -> ~chi_2+ tau-)
#
#         PDG            Width
DECAY   1000024     1.21097406E-04   # chargino1+ decays
#          BR         NDA      ID1       ID2
     1.93964076E-02    2     1000039        24   # BR(~chi_1+ -> ~G       W+)
#           BR         NDA      ID1       ID2       ID3
     3.27144301E-01    3     1000022         2        -1   # BR(~chi_1+ -> ~chi_10 u    db)
     3.27144301E-01    3     1000022         4        -3   # BR(~chi_1+ -> ~chi_10 c    sb)
     1.09048224E-01    3     1000022       -11        12   # BR(~chi_1+ -> ~chi_10 e+   nu_e)
     1.09048224E-01    3     1000022       -13        14   # BR(~chi_1+ -> ~chi_10 mu+  nu_mu)
     1.08218543E-01    3     1000022       -15        16   # BR(~chi_1+ -> ~chi_10 tau+ nu_tau)
#
#         PDG            Width
DECAY   1000037     3.84120402E+01   # chargino2+ decays
#          BR         NDA      ID1       ID2
     2.53102070E-01    2     1000024        23   # BR(~chi_2+ -> ~chi_1+  Z )
     1.12088515E-01    2     1000022        24   # BR(~chi_2+ -> ~chi_10  W+)
     2.46284076E-01    2     1000023        24   # BR(~chi_2+ -> ~chi_20  W+)
     1.34635567E-01    2     1000025        24   # BR(~chi_2+ -> ~chi_30  W+)
     2.53880821E-01    2     1000024        25   # BR(~chi_2+ -> ~chi_1+  h )
     8.94848355E-06    2     1000039        24   # BR(~chi_2+ -> ~G       W+)
     9.59151703E-10    2     1000039        37   # BR(~chi_2+ -> ~G       H+)
#
#         PDG            Width
DECAY   1000022    1.0E-05    # neutralino1 decays
#          BR         NDA      ID1       ID2
     5.00549956E-01    2     1000039        22   # BR(~chi_10 -> ~G        gam)
     4.88285046E-01    2     1000039        23   # BR(~chi_10 -> ~G        Z)
     1.11649985E-02    2     1000039        25   # BR(~chi_10 -> ~G        h)
#
#         PDG            Width
DECAY   1000023     1.40299420E-04   # neutralino2 decays
#          BR         NDA      ID1       ID2
     8.36245424E-04    2     1000022        22   # BR(~chi_20 -> ~chi_10 gam)
#          BR         NDA      ID1       ID2
     4.59629230E-08    2     1000039        22   # BR(~chi_20 -> ~G        gam)
     6.49723181E-04    2     1000039        23   # BR(~chi_20 -> ~G        Z)
     1.59387846E-02    2     1000039        25   # BR(~chi_20 -> ~G        h)
#           BR         NDA      ID1       ID2       ID3
     1.16599953E-01    3     1000022        -2         2   # BR(~chi_20 -> ~chi_10 ub      u)
     1.50976320E-01    3     1000022        -1         1   # BR(~chi_20 -> ~chi_10 db      d)
     1.16599953E-01    3     1000022        -4         4   # BR(~chi_20 -> ~chi_10 cb      c)
     1.50976320E-01    3     1000022        -3         3   # BR(~chi_20 -> ~chi_10 sb      s)
     1.37753658E-01    3     1000022        -5         5   # BR(~chi_20 -> ~chi_10 bb      b)
     3.44790635E-02    3     1000022       -11        11   # BR(~chi_20 -> ~chi_10 e+      e-)
     3.44790635E-02    3     1000022       -13        13   # BR(~chi_20 -> ~chi_10 mu+     mu-)
     3.41373560E-02    3     1000022       -15        15   # BR(~chi_20 -> ~chi_10 tau+    tau-)
     6.88557278E-02    3     1000022       -12        12   # BR(~chi_20 -> ~chi_10 nu_eb   nu_e)
     6.88557278E-02    3     1000022       -14        14   # BR(~chi_20 -> ~chi_10 nu_mub  nu_mu)
     6.88557278E-02    3     1000022       -16        16   # BR(~chi_20 -> ~chi_10 nu_taub nu_tau)
     1.15086307E-06    3     1000024        -2         1   # BR(~chi_20 -> ~chi_1+ ub      d)
     1.15086307E-06    3    -1000024        -1         2   # BR(~chi_20 -> ~chi_1- db      u)
     1.15086307E-06    3     1000024        -4         3   # BR(~chi_20 -> ~chi_1+ cb      s)
     1.15086307E-06    3    -1000024        -3         4   # BR(~chi_20 -> ~chi_1- sb      c)
     3.83621046E-07    3     1000024       -12        11   # BR(~chi_20 -> ~chi_1+ nu_eb   e-)
     3.83621046E-07    3    -1000024        12       -11   # BR(~chi_20 -> ~chi_1- nu_e    e+)
     3.83621046E-07    3     1000024       -14        13   # BR(~chi_20 -> ~chi_1+ nu_mub  mu-)
     3.83621046E-07    3    -1000024        14       -13   # BR(~chi_20 -> ~chi_1- nu_mu   mu+)
     9.68626513E-08    3     1000024       -16        15   # BR(~chi_20 -> ~chi_1+ nu_taub tau-)
     9.68626513E-08    3    -1000024        16       -15   # BR(~chi_20 -> ~chi_1- nu_tau  tau+)
#
#         PDG            Width
DECAY   1000025     2.19035956E-04   # neutralino3 decays
#          BR         NDA      ID1       ID2
     3.82248934E-04    2     1000022        22   # BR(~chi_30 -> ~chi_10 gam)
     8.79960538E-06    2     1000023        22   # BR(~chi_30 -> ~chi_20 gam)
#          BR         NDA      ID1       ID2
     9.77403954E-03    2     1000039        22   # BR(~chi_30 -> ~G        gam)
     8.63892239E-03    2     1000039        23   # BR(~chi_30 -> ~G        Z)
     2.45446568E-04    2     1000039        25   # BR(~chi_30 -> ~G        h)
#           BR         NDA      ID1       ID2       ID3
     1.05220187E-05    3     1000022        -2         2   # BR(~chi_30 -> ~chi_10 ub      u)
     1.24549577E-05    3     1000022        -1         1   # BR(~chi_30 -> ~chi_10 db      d)
     1.05220187E-05    3     1000022        -4         4   # BR(~chi_30 -> ~chi_10 cb      c)
     1.24549577E-05    3     1000022        -3         3   # BR(~chi_30 -> ~chi_10 sb      s)
     2.36866326E-05    3     1000022        -5         5   # BR(~chi_30 -> ~chi_10 bb      b)
     2.16606243E-06    3     1000022       -11        11   # BR(~chi_30 -> ~chi_10 e+      e-)
     2.16606243E-06    3     1000022       -13        13   # BR(~chi_30 -> ~chi_10 mu+     mu-)
     3.89059599E-06    3     1000022       -15        15   # BR(~chi_30 -> ~chi_10 tau+    tau-)
     6.10302798E-06    3     1000022       -12        12   # BR(~chi_30 -> ~chi_10 nu_eb   nu_e)
     6.10302798E-06    3     1000022       -14        14   # BR(~chi_30 -> ~chi_10 nu_mub  nu_mu)
     6.10302798E-06    3     1000022       -16        16   # BR(~chi_30 -> ~chi_10 nu_taub nu_tau)
     2.38759939E-02    3     1000023        -2         2   # BR(~chi_30 -> ~chi_20 ub      u)
     3.09152348E-02    3     1000023        -1         1   # BR(~chi_30 -> ~chi_20 db      d)
     2.38759939E-02    3     1000023        -4         4   # BR(~chi_30 -> ~chi_20 cb      c)
     3.09152348E-02    3     1000023        -3         3   # BR(~chi_30 -> ~chi_20 sb      s)
     2.68168354E-02    3     1000023        -5         5   # BR(~chi_30 -> ~chi_20 bb      b)
     7.06024969E-03    3     1000023       -11        11   # BR(~chi_30 -> ~chi_20 e+      e-)
     7.06024969E-03    3     1000023       -13        13   # BR(~chi_30 -> ~chi_20 mu+     mu-)
     6.96163329E-03    3     1000023       -15        15   # BR(~chi_30 -> ~chi_20 tau+    tau-)
     1.40994454E-02    3     1000023       -12        12   # BR(~chi_30 -> ~chi_20 nu_eb   nu_e)
     1.40994454E-02    3     1000023       -14        14   # BR(~chi_30 -> ~chi_20 nu_mub  nu_mu)
     1.40994454E-02    3     1000023       -16        16   # BR(~chi_30 -> ~chi_20 nu_taub nu_tau)
     1.30307294E-01    3     1000024        -2         1   # BR(~chi_30 -> ~chi_1+ ub      d)
     1.30307294E-01    3    -1000024        -1         2   # BR(~chi_30 -> ~chi_1- db      u)
     1.30307294E-01    3     1000024        -4         3   # BR(~chi_30 -> ~chi_1+ cb      s)
     1.30307294E-01    3    -1000024        -3         4   # BR(~chi_30 -> ~chi_1- sb      c)
     4.34356994E-02    3     1000024       -12        11   # BR(~chi_30 -> ~chi_1+ nu_eb   e-)
     4.34356994E-02    3    -1000024        12       -11   # BR(~chi_30 -> ~chi_1- nu_e    e+)
     4.34356994E-02    3     1000024       -14        13   # BR(~chi_30 -> ~chi_1+ nu_mub  mu-)
     4.34356994E-02    3    -1000024        14       -13   # BR(~chi_30 -> ~chi_1- nu_mu   mu+)
     4.30513185E-02    3     1000024       -16        15   # BR(~chi_30 -> ~chi_1+ nu_taub tau-)
     4.30513185E-02    3    -1000024        16       -15   # BR(~chi_30 -> ~chi_1- nu_tau  tau+)
#
#         PDG            Width
DECAY   1000035     3.84122960E+01   # neutralino4 decays
#          BR         NDA      ID1       ID2
     7.53956282E-04    2     1000022        23   # BR(~chi_40 -> ~chi_10   Z )
     2.51374013E-01    2     1000023        23   # BR(~chi_40 -> ~chi_20   Z )
     8.75964030E-04    2     1000025        23   # BR(~chi_40 -> ~chi_30   Z )
     2.46375501E-01    2     1000024       -24   # BR(~chi_40 -> ~chi_1+   W-)
     2.46375501E-01    2    -1000024        24   # BR(~chi_40 -> ~chi_1-   W+)
     1.14754106E-01    2     1000022        25   # BR(~chi_40 -> ~chi_10   h )
     1.60424146E-03    2     1000023        25   # BR(~chi_40 -> ~chi_20   h )
     1.37877768E-01    2     1000025        25   # BR(~chi_40 -> ~chi_30   h )
     2.14598402E-06    2     1000039        22   # BR(~chi_40 -> ~G        gam)
     6.80156647E-06    2     1000039        23   # BR(~chi_40 -> ~G        Z)
     6.18638962E-10    2     1000039        25   # BR(~chi_40 -> ~G        h)
     9.40935834E-10    2     1000039        35   # BR(~chi_40 -> ~G        H)
     1.39986761E-11    2     1000039        36   # BR(~chi_40 -> ~G        A)
#
#         PDG            Width
DECAY        25     4.22052129E-03   # h decays
#          BR         NDA      ID1       ID2
     6.02077278E-01    2           5        -5   # BR(h -> b       bb     )
     6.22075681E-02    2         -15        15   # BR(h -> tau+    tau-   )
     2.20187670E-04    2         -13        13   # BR(h -> mu+     mu-    )
     4.65874448E-04    2           3        -3   # BR(h -> s       sb     )
     2.00984379E-02    2           4        -4   # BR(h -> c       cb     )
     6.63767287E-02    2          21        21   # BR(h -> g       g      )
     2.30609078E-03    2          22        22   # BR(h -> gam     gam    )
     1.62579935E-03    2          22        23   # BR(h -> Z       gam    )
     2.16555473E-01    2          24       -24   # BR(h -> W+      W-     )
     2.80665624E-02    2          23        23   # BR(h -> Z       Z      )
#
#         PDG            Width
DECAY        35     3.78107893E+01   # H decays
#          BR         NDA      ID1       ID2
     1.46864448E-03    2           5        -5   # BR(H -> b       bb     )
     2.46423756E-04    2         -15        15   # BR(H -> tau+    tau-   )
     8.71199723E-07    2         -13        13   # BR(H -> mu+     mu-    )
     1.11545277E-06    2           3        -3   # BR(H -> s       sb     )
     1.00668098E-05    2           4        -4   # BR(H -> c       cb     )
     9.96064655E-01    2           6        -6   # BR(H -> t       tb     )
     7.97740849E-04    2          21        21   # BR(H -> g       g      )
     2.71231704E-06    2          22        22   # BR(H -> gam     gam    )
     1.15998912E-06    2          23        22   # BR(H -> Z       gam    )
     3.35754538E-04    2          24       -24   # BR(H -> W+      W-     )
     1.67419381E-04    2          23        23   # BR(H -> Z       Z      )
     9.03436530E-04    2          25        25   # BR(H -> h       h      )
     7.55253641E-24    2          36        36   # BR(H -> A       A      )
     3.01126638E-11    2          23        36   # BR(H -> Z       A      )
     6.94499121E-12    2          24       -37   # BR(H -> W+      H-     )
     6.94499121E-12    2         -24        37   # BR(H -> W-      H+     )
#
#         PDG            Width
DECAY        36     3.82381822E+01   # A decays
#          BR         NDA      ID1       ID2
     1.47158823E-03    2           5        -5   # BR(A -> b       bb     )
     2.43898006E-04    2         -15        15   # BR(A -> tau+    tau-   )
     8.62267557E-07    2         -13        13   # BR(A -> mu+     mu-    )
     1.13677529E-06    2           3        -3   # BR(A -> s       sb     )
     9.96177649E-06    2           4        -4   # BR(A -> c       cb     )
     9.96997159E-01    2           6        -6   # BR(A -> t       tb     )
     9.43676752E-04    2          21        21   # BR(A -> g       g      )
     3.17091654E-06    2          22        22   # BR(A -> gam     gam    )
     1.35257488E-06    2          23        22   # BR(A -> Z       gam    )
     3.27193891E-04    2          23        25   # BR(A -> Z       h      )
#
#         PDG            Width
DECAY        37     3.74472539E+01   # H+ decays
#          BR         NDA      ID1       ID2
     2.35897910E-06    2           4        -5   # BR(H+ -> c       bb     )
     2.49237788E-04    2         -15        16   # BR(H+ -> tau+    nu_tau )
     8.81145614E-07    2         -13        14   # BR(H+ -> mu+     nu_mu  )
     1.49975800E-08    2           2        -5   # BR(H+ -> u       bb     )
     5.45694612E-08    2           2        -3   # BR(H+ -> u       sb     )
     1.08731721E-05    2           4        -3   # BR(H+ -> c       sb     )
     9.99401242E-01    2           6        -5   # BR(H+ -> t       bb     )
     3.35337766E-04    2          24        25   # BR(H+ -> W+      h      )
     2.78244859E-13    2          24        36   # BR(H+ -> W+      A      )
