#
#                              ======================
#                              | THE SUSYHIT OUTPUT |
#                              ======================
#
#
#              ------------------------------------------------------
#              |     This is the output of the SUSY-HIT package     |
#              |  created by A.Djouadi, M.Muehlleitner and M.Spira. |
#              |  In case of problems with SUSY-HIT email to        |
#              |           margarete.muehlleitner@cern.ch           |
#              |           michael.spira@psi.ch                     |
#              |           abdelhak.djouadi@cern.ch                 |
#              ------------------------------------------------------
#
#              ------------------------------------------------------
#              |  SUSY Les Houches Accord - MSSM Spectrum + Decays  |
#              |              based on the decay programs           |
#              |                                                    |
#              |                     SDECAY 1.3b                    |
#              |                                                    |
#              |  Authors: M.Muhlleitner, A.Djouadi and Y.Mambrini  |
#              |  Ref.:    Comput.Phys.Commun.168(2005)46           |
#              |           [hep-ph/0311167]                         |
#              |                                                    |
#              |                     HDECAY 3.4                     |
#              |                                                    |
#              |  By: A.Djouadi,J.Kalinowski,M.Muhlleitner,M.Spira  |
#              |  Ref.:    Comput.Phys.Commun.108(1998)56           |
#              |           [hep-ph/9704448]                         |
#              |                                                    |
#              |                                                    |
#              |  If not stated otherwise all DRbar couplings and   |
#              |  soft SUSY breaking masses are given at the scale  |
#              |  Q=  0.50007263E+04
#              |                                                    |
#              ------------------------------------------------------
#
#
BLOCK DCINFO  # Decay Program information
     1   SDECAY/HDECAY # decay calculator
     2   1.3b  /3.4    # version number
#
BLOCK SPINFO  # Spectrum calculator information
     1    SOFTSUSY    # spectrum calculator                
     2    3.4.0       # version number                     
#
BLOCK MODSEL  # Model selection
     1     0   #  nonUniversal                                     
#
BLOCK SMINPUTS  # Standard Model inputs
         1     1.25778332E+02   # alpha_em^-1(M_Z)^MSbar
         2     1.16570000E-05   # G_F [GeV^-2]
         3     1.17200002E-01   # alpha_S(M_Z)^MSbar
         4     9.11876000E+01   # M_Z pole mass
         5     4.25000000E+00   # mb(mb)^MSbar
         6     1.72500000E+02   # mt pole mass
         7     1.77682000E+00   # mtau pole mass
#
BLOCK MINPAR  # Input parameters - minimal models
         3     1.00000000E+01   # tanb                
#
BLOCK EXTPAR  # Input parameters - non-minimal models
         0    -1.00000000E+00   # Set                 
         1     6.00000000E+01   # M_1(MX)             
         2     3.00000000E+03   # M_2(MX)             
         3     2.23497600E+03   # M_3(MX)             
        11     5.00000000E+03   # At(MX)              
        12     5.00000000E+03   # Ab(MX)              
        13     0.00000000E+00   # Atau(MX)            
        23    -1.34876000E+03   # mu(MX)              
        26     3.00000000E+03   # mA(pole)            
        31     5.00000000E+03   # meL(MX)             
        32     5.00000000E+03   # mmuL(MX)            
        33     5.00000000E+03   # mtauL(MX)           
        34     5.00000000E+03   # meR(MX)             
        35     5.00000000E+03   # mmuR(MX)            
        36     5.00000000E+03   # mtauR(MX)           
        41     5.00000000E+03   # mqL1(MX)            
        42     5.00000000E+03   # mqL2(MX)            
        43     5.00000000E+03   # mqL3(MX)            
        44     5.00000000E+03   # muR(MX)             
        45     5.00000000E+03   # mcR(MX)             
        46     5.00000000E+03   # mtR(MX)             
        47     5.00000000E+03   # mdR(MX)             
        48     5.00000000E+03   # msR(MX)             
        49     5.00000000E+03   # mbR(MX)             
#
BLOCK MASS  # Mass Spectrum
# PDG code           mass       particle
        24     8.00966277E+01   # W+
        25     1.24828257E+02   # h
        35     3.00008425E+03   # H
        36     2.99999990E+03   # A
        37     3.00087264E+03   # H+
         5     4.87878001E+00   # b-quark pole mass calculated from mb(mb)_Msbar
   1000001     5.08189212E+03   # ~d_L
   2000001     5.06414859E+03   # ~d_R
   1000002     5.08142162E+03   # ~u_L
   2000002     5.06387275E+03   # ~u_R
   1000003     5.08189212E+03   # ~s_L
   2000003     5.06414859E+03   # ~s_R
   1000004     5.08142162E+03   # ~c_L
   2000004     5.06387275E+03   # ~c_R
   1000005     5.02775954E+03   # ~b_1
   2000005     5.06289115E+03   # ~b_2
   1000006     4.92001823E+03   # ~t_1
   2000006     5.07259691E+03   # ~t_2
   1000011     5.01905048E+03   # ~e_L
   2000011     5.00591290E+03   # ~e_R
   1000012     5.01810253E+03   # ~nu_eL
   1000013     5.01905048E+03   # ~mu_L
   2000013     5.00591290E+03   # ~mu_R
   1000014     5.01810253E+03   # ~nu_muL
   1000015     5.00442497E+03   # ~tau_1
   2000015     5.01894599E+03   # ~tau_2
   1000016     5.01756201E+03   # ~nu_tauL
   1000021     2.60000002E+03   # ~g
   1000022     6.03032466E+01   # ~chi_10
   1000023     1.39947350E+03   # ~chi_20
   1000025    -1.40186070E+03   # ~chi_30
   1000035     3.07431090E+03   # ~chi_40
   1000024     1.40000068E+03   # ~chi_1+
   1000037     3.07447833E+03   # ~chi_2+
#
BLOCK NMIX  # Neutralino Mixing Matrix
  1  1     9.99491101E-01   # N_11
  1  2     1.47269763E-04   # N_12
  1  3    -3.18381885E-02   # N_13
  1  4     1.96135634E-03   # N_14
  2  1     2.11271536E-02   # N_21
  2  2     2.90568287E-02   # N_22
  2  3     7.06893164E-01   # N_23
  2  4     7.06407389E-01   # N_24
  3  1    -2.38954204E-02   # N_31
  3  2     1.35647045E-02   # N_32
  3  3    -7.06518452E-01   # N_33
  3  4     7.07161004E-01   # N_34
  4  1    -4.37173419E-04   # N_41
  4  2     9.99485707E-01   # N_42
  4  3    -1.09573060E-02   # N_43
  4  4    -3.01341752E-02   # N_44
#
BLOCK UMIX  # Chargino Mixing Matrix U
  1  1     1.55086359E-02   # U_11
  1  2     9.99879734E-01   # U_12
  2  1    -9.99879734E-01   # U_21
  2  2     1.55086359E-02   # U_22
#
BLOCK VMIX  # Chargino Mixing Matrix V
  1  1     4.26399546E-02   # V_11
  1  2    -9.99090504E-01   # V_12
  2  1    -9.99090504E-01   # V_21
  2  2    -4.26399546E-02   # V_22
#
BLOCK STOPMIX  # Stop Mixing Matrix
  1  1    -5.07739132E-01   # cos(theta_t)
  1  2     8.61510867E-01   # sin(theta_t)
  2  1    -8.61510867E-01   # -sin(theta_t)
  2  2    -5.07739132E-01   # cos(theta_t)
#
BLOCK SBOTMIX  # Sbottom Mixing Matrix
  1  1     9.95144159E-01   # cos(theta_b)
  1  2    -9.84281606E-02   # sin(theta_b)
  2  1     9.84281606E-02   # -sin(theta_b)
  2  2     9.95144159E-01   # cos(theta_b)
#
BLOCK STAUMIX  # Stau Mixing Matrix
  1  1    -1.57632838E-01   # cos(theta_tau)
  1  2     9.87497792E-01   # sin(theta_tau)
  2  1    -9.87497792E-01   # -sin(theta_tau)
  2  2    -1.57632838E-01   # cos(theta_tau)
#
BLOCK ALPHA  # Higgs mixing
          -1.05474616E-01   # Mixing angle in the neutral Higgs boson sector
#
BLOCK HMIX Q=  5.00072633E+03  # DRbar Higgs Parameters
         1    -1.37361368E+03   # mu(Q)MSSM           
         2     9.46951910E+00   # tan                 
         3     2.41935763E+02   # higgs               
         4     8.42301332E+06   # mA^2(Q)MSSM         
#
BLOCK GAUGE Q=  5.00072633E+03  # The gauge couplings
     1     3.70707085E-01   # gprime(Q) DRbar
     2     6.32134473E-01   # g(Q) DRbar
     3     9.94624651E-01   # g3(Q) DRbar
#
BLOCK AU Q=  5.00072633E+03  # The trilinear couplings
  1  1     5.00000002E+03   # A_u(Q) DRbar
  2  2     5.00000002E+03   # A_c(Q) DRbar
  3  3     5.00000002E+03   # A_t(Q) DRbar
#
BLOCK AD Q=  5.00072633E+03  # The trilinear couplings
  1  1     5.00000001E+03   # A_d(Q) DRbar
  2  2     5.00000001E+03   # A_s(Q) DRbar
  3  3     5.00000001E+03   # A_b(Q) DRbar
#
BLOCK AE Q=  5.00072633E+03  # The trilinear couplings
  1  1     0.00000000E+00   # A_e(Q) DRbar
  2  2     2.67506342E-07   # A_mu(Q) DRbar
  3  3     2.67502425E-07   # A_tau(Q) DRbar
#
BLOCK Yu Q=  5.00072633E+03  # The Yukawa couplings
  1  1     0.00000000E+00   # y_u(Q) DRbar
  2  2     0.00000000E+00   # y_c(Q) DRbar
  3  3     8.20980043E-01   # y_t(Q) DRbar
#
BLOCK Yd Q=  5.00072633E+03  # The Yukawa couplings
  1  1     0.00000000E+00   # y_d(Q) DRbar
  2  2     0.00000000E+00   # y_s(Q) DRbar
  3  3     1.31631547E-01   # y_b(Q) DRbar
#
BLOCK Ye Q=  5.00072633E+03  # The Yukawa couplings
  1  1     0.00000000E+00   # y_e(Q) DRbar
  2  2     0.00000000E+00   # y_mu(Q) DRbar
  3  3     9.66645484E-02   # y_tau(Q) DRbar
#
BLOCK MSOFT Q=  5.00072633E+03  # The soft SUSY breaking masses at the scale Q
         1     6.00000000E+01   # M_1(Q)              
         2     3.00000000E+03   # M_2(Q)              
         3     2.23497600E+03   # M_3(Q)              
        21     6.78858943E+06   # mH1^2(Q)            
        22    -1.33275141E+06   # mH2^2(Q)            
        31     5.00000000E+03   # meL(Q)              
        32     5.00000000E+03   # mmuL(Q)             
        33     5.00000000E+03   # mtauL(Q)            
        34     5.00000000E+03   # meR(Q)              
        35     5.00000000E+03   # mmuR(Q)             
        36     5.00000000E+03   # mtauR(Q)            
        41     4.99999999E+03   # mqL1(Q)             
        42     4.99999999E+03   # mqL2(Q)             
        43     4.99999999E+03   # mqL3(Q)             
        44     4.99999999E+03   # muR(Q)              
        45     4.99999999E+03   # mcR(Q)              
        46     4.99999999E+03   # mtR(Q)              
        47     4.99999999E+03   # mdR(Q)              
        48     4.99999999E+03   # msR(Q)              
        49     4.99999999E+03   # mbR(Q)              
#
#
#
#                             =================
#                             |The decay table|
#                             =================
#
# - The QCD corrections to the decays gluino -> squark  + quark
#                                     squark -> gaugino + quark_prime
#                                     squark -> squark_prime + Higgs
#                                     squark -> gluino  + quark
#   are included.
#
# - The multi-body decays for the inos, stops and sbottoms are included.
#
# - The loop induced decays for the gluino, neutralinos and stops
#   are included.
#
# - The SUSY decays of the top quark are included.
#
#
#         PDG            Width
DECAY         6     1.40024188E+00   # top decays
#          BR         NDA      ID1       ID2
     1.00000000E+00    2           5        24   # BR(t ->  b    W+)
#
#         PDG            Width
DECAY   1000021     2.47180110E-03   # gluino decays
#          BR         NDA      ID1       ID2
     3.39384433E-06    2     1000022        21   # BR(~g -> ~chi_10 g)
     5.86752647E-03    2     1000023        21   # BR(~g -> ~chi_20 g)
     5.83822638E-03    2     1000025        21   # BR(~g -> ~chi_30 g)
#           BR         NDA      ID1       ID2       ID3
     3.78185732E-02    3     1000022         1        -1   # BR(~g -> ~chi_10 d  db)
     2.51570341E-05    3     1000023         1        -1   # BR(~g -> ~chi_20 d  db)
     5.76914739E-06    3     1000025         1        -1   # BR(~g -> ~chi_30 d  db)
     1.28950790E-01    3     1000022         2        -2   # BR(~g -> ~chi_10 u  ub)
     5.02399885E-05    3     1000023         2        -2   # BR(~g -> ~chi_20 u  ub)
     5.94698474E-06    3     1000025         2        -2   # BR(~g -> ~chi_30 u  ub)
     3.78185732E-02    3     1000022         3        -3   # BR(~g -> ~chi_10 s  sb)
     2.51570341E-05    3     1000023         3        -3   # BR(~g -> ~chi_20 s  sb)
     5.76914739E-06    3     1000025         3        -3   # BR(~g -> ~chi_30 s  sb)
     1.28950790E-01    3     1000022         4        -4   # BR(~g -> ~chi_10 c  cb)
     5.02399885E-05    3     1000023         4        -4   # BR(~g -> ~chi_20 c  cb)
     5.94698474E-06    3     1000025         4        -4   # BR(~g -> ~chi_30 c  cb)
     3.83121534E-02    3     1000022         5        -5   # BR(~g -> ~chi_10 b  bb)
     3.40767654E-03    3     1000023         5        -5   # BR(~g -> ~chi_20 b  bb)
     3.34789462E-03    3     1000025         5        -5   # BR(~g -> ~chi_30 b  bb)
     1.32265163E-01    3     1000022         6        -6   # BR(~g -> ~chi_10 t  tb)
     1.19897168E-01    3     1000023         6        -6   # BR(~g -> ~chi_20 t  tb)
     1.04561456E-01    3     1000025         6        -6   # BR(~g -> ~chi_30 t  tb)
     6.65689342E-05    3     1000024         1        -2   # BR(~g -> ~chi_1+ d  ub)
     6.65689342E-05    3    -1000024         2        -1   # BR(~g -> ~chi_1- u  db)
     6.65689342E-05    3     1000024         3        -4   # BR(~g -> ~chi_1+ s  cb)
     6.65689342E-05    3    -1000024         4        -3   # BR(~g -> ~chi_1- c  sb)
     1.26260056E-01    3     1000024         5        -6   # BR(~g -> ~chi_1+ b  tb)
     1.26260056E-01    3    -1000024         6        -5   # BR(~g -> ~chi_1- t  bb)
#
#         PDG            Width
DECAY   1000006     2.75627477E+02   # stop1 decays
#          BR         NDA      ID1       ID2
     3.21522616E-02    2     1000022         6   # BR(~t_1 -> ~chi_10 t )
     1.01088863E-01    2     1000023         6   # BR(~t_1 -> ~chi_20 t )
     9.72275184E-02    2     1000025         6   # BR(~t_1 -> ~chi_30 t )
     7.64786787E-03    2     1000035         6   # BR(~t_1 -> ~chi_40 t )
     1.47421443E-01    2     1000024         5   # BR(~t_1 -> ~chi_1+ b )
     1.52188698E-02    2     1000037         5   # BR(~t_1 -> ~chi_2+ b )
     5.99243176E-01    2     1000021         6   # BR(~t_1 -> ~g      t )
#
#         PDG            Width
DECAY   2000006     2.88061672E+02   # stop2 decays
#          BR         NDA      ID1       ID2
     1.19951434E-02    2     1000022         6   # BR(~t_2 -> ~chi_10 t )
     1.00078700E-01    2     1000023         6   # BR(~t_2 -> ~chi_20 t )
     1.04105245E-01    2     1000025         6   # BR(~t_2 -> ~chi_30 t )
     1.93371131E-02    2     1000035         6   # BR(~t_2 -> ~chi_40 t )
     5.94953976E-02    2     1000024         5   # BR(~t_2 -> ~chi_1+ b )
     3.84186539E-02    2     1000037         5   # BR(~t_2 -> ~chi_2+ b )
     6.62274767E-01    2     1000021         6   # BR(~t_2 -> ~g      t )
     9.61904907E-04    2     1000006        25   # BR(~t_2 -> ~t_1    h )
     3.33307473E-03    2     1000006        23   # BR(~t_2 -> ~t_1    Z )
#
#         PDG            Width
DECAY   1000005     2.63251390E+02   # sbottom1 decays
#          BR         NDA      ID1       ID2
     2.95064869E-03    2     1000022         5   # BR(~b_1 -> ~chi_10 b )
     2.87894251E-03    2     1000023         5   # BR(~b_1 -> ~chi_20 b )
     2.74505607E-03    2     1000025         5   # BR(~b_1 -> ~chi_30 b )
     2.86580957E-02    2     1000035         5   # BR(~b_1 -> ~chi_40 b )
     2.15131961E-01    2    -1000024         6   # BR(~b_1 -> ~chi_1- t )
     5.76584949E-02    2    -1000037         6   # BR(~b_1 -> ~chi_2- t )
     6.87944768E-01    2     1000021         5   # BR(~b_1 -> ~g      b )
     2.03203233E-03    2     1000006       -24   # BR(~b_1 -> ~t_1    W-)
#
#         PDG            Width
DECAY   2000005     1.90706674E+02   # sbottom2 decays
#          BR         NDA      ID1       ID2
     1.53343234E-02    2     1000022         5   # BR(~b_2 -> ~chi_10 b )
     3.84764194E-03    2     1000023         5   # BR(~b_2 -> ~chi_20 b )
     3.99776454E-03    2     1000025         5   # BR(~b_2 -> ~chi_30 b )
     3.97207539E-04    2     1000035         5   # BR(~b_2 -> ~chi_40 b )
     1.05249418E-02    2    -1000024         6   # BR(~b_2 -> ~chi_1- t )
     7.98883235E-04    2    -1000037         6   # BR(~b_2 -> ~chi_2- t )
     9.64979171E-01    2     1000021         5   # BR(~b_2 -> ~g      b )
     1.20066040E-04    2     1000006       -24   # BR(~b_2 -> ~t_1    W-)
#
#         PDG            Width
DECAY   1000002     2.10043657E+02   # sup_L decays
#          BR         NDA      ID1       ID2
     3.54562512E-03    2     1000022         2   # BR(~u_L -> ~chi_10 u)
     8.75433941E-05    2     1000023         2   # BR(~u_L -> ~chi_20 u)
     6.28366122E-06    2     1000025         2   # BR(~u_L -> ~chi_30 u)
     3.75636080E-02    2     1000035         2   # BR(~u_L -> ~chi_40 u)
     2.89004271E-04    2     1000024         1   # BR(~u_L -> ~chi_1+ d)
     7.50712935E-02    2     1000037         1   # BR(~u_L -> ~chi_2+ d)
     8.83436642E-01    2     1000021         2   # BR(~u_L -> ~g      u)
#
#         PDG            Width
DECAY   2000002     1.95876098E+02   # sup_R decays
#          BR         NDA      ID1       ID2
     6.05275365E-02    2     1000022         2   # BR(~u_R -> ~chi_10 u)
     2.31530950E-05    2     1000023         2   # BR(~u_R -> ~chi_20 u)
     2.96014589E-05    2     1000025         2   # BR(~u_R -> ~chi_30 u)
     4.65880108E-09    2     1000035         2   # BR(~u_R -> ~chi_40 u)
     9.39419704E-01    2     1000021         2   # BR(~u_R -> ~g      u)
#
#         PDG            Width
DECAY   1000001     2.10061433E+02   # sdown_L decays
#          BR         NDA      ID1       ID2
     3.53498585E-03    2     1000022         1   # BR(~d_L -> ~chi_10 d)
     4.93910469E-05    2     1000023         1   # BR(~d_L -> ~chi_20 d)
     2.64190625E-05    2     1000025         1   # BR(~d_L -> ~chi_30 d)
     3.75847426E-02    2     1000035         1   # BR(~d_L -> ~chi_40 d)
     3.82327149E-05    2    -1000024         2   # BR(~d_L -> ~chi_1- u)
     7.52065266E-02    2    -1000037         2   # BR(~d_L -> ~chi_2- u)
     8.83559702E-01    2     1000021         1   # BR(~d_L -> ~g      d)
#
#         PDG            Width
DECAY   2000001     1.87000966E+02   # sdown_R decays
#          BR         NDA      ID1       ID2
     1.58509300E-02    2     1000022         1   # BR(~d_R -> ~chi_10 d)
     6.06343073E-06    2     1000023         1   # BR(~d_R -> ~chi_20 d)
     7.75215612E-06    2     1000025         1   # BR(~d_R -> ~chi_30 d)
     1.22019803E-09    2     1000035         1   # BR(~d_R -> ~chi_40 d)
     9.84135253E-01    2     1000021         1   # BR(~d_R -> ~g      d)
#
#         PDG            Width
DECAY   1000004     2.10043657E+02   # scharm_L decays
#          BR         NDA      ID1       ID2
     3.54562512E-03    2     1000022         4   # BR(~c_L -> ~chi_10 c)
     8.75433941E-05    2     1000023         4   # BR(~c_L -> ~chi_20 c)
     6.28366122E-06    2     1000025         4   # BR(~c_L -> ~chi_30 c)
     3.75636080E-02    2     1000035         4   # BR(~c_L -> ~chi_40 c)
     2.89004271E-04    2     1000024         3   # BR(~c_L -> ~chi_1+ s)
     7.50712935E-02    2     1000037         3   # BR(~c_L -> ~chi_2+ s)
     8.83436642E-01    2     1000021         4   # BR(~c_L -> ~g      c)
#
#         PDG            Width
DECAY   2000004     1.95876098E+02   # scharm_R decays
#          BR         NDA      ID1       ID2
     6.05275365E-02    2     1000022         4   # BR(~c_R -> ~chi_10 c)
     2.31530950E-05    2     1000023         4   # BR(~c_R -> ~chi_20 c)
     2.96014589E-05    2     1000025         4   # BR(~c_R -> ~chi_30 c)
     4.65880108E-09    2     1000035         4   # BR(~c_R -> ~chi_40 c)
     9.39419704E-01    2     1000021         4   # BR(~c_R -> ~g      c)
#
#         PDG            Width
DECAY   1000003     2.10061433E+02   # sstrange_L decays
#          BR         NDA      ID1       ID2
     3.53498585E-03    2     1000022         3   # BR(~s_L -> ~chi_10 s)
     4.93910469E-05    2     1000023         3   # BR(~s_L -> ~chi_20 s)
     2.64190625E-05    2     1000025         3   # BR(~s_L -> ~chi_30 s)
     3.75847426E-02    2     1000035         3   # BR(~s_L -> ~chi_40 s)
     3.82327149E-05    2    -1000024         4   # BR(~s_L -> ~chi_1- c)
     7.52065266E-02    2    -1000037         4   # BR(~s_L -> ~chi_2- c)
     8.83559702E-01    2     1000021         3   # BR(~s_L -> ~g      s)
#
#         PDG            Width
DECAY   2000003     1.87000966E+02   # sstrange_R decays
#          BR         NDA      ID1       ID2
     1.58509300E-02    2     1000022         3   # BR(~s_R -> ~chi_10 s)
     6.06343073E-06    2     1000023         3   # BR(~s_R -> ~chi_20 s)
     7.75215612E-06    2     1000025         3   # BR(~s_R -> ~chi_30 s)
     1.22019803E-09    2     1000035         3   # BR(~s_R -> ~chi_40 s)
     9.84135253E-01    2     1000021         3   # BR(~s_R -> ~g      s)
#
#         PDG            Width
DECAY   1000011     3.02394488E+01   # selectron_L decays
#          BR         NDA      ID1       ID2
     2.26704579E-01    2     1000022        11   # BR(~e_L -> ~chi_10 e-)
     9.63926227E-04    2     1000023        11   # BR(~e_L -> ~chi_20 e-)
     1.12786095E-07    2     1000025        11   # BR(~e_L -> ~chi_30 e-)
     2.57153037E-01    2     1000035        11   # BR(~e_L -> ~chi_40 e-)
     2.69891077E-04    2    -1000024        12   # BR(~e_L -> ~chi_1- nu_e)
     5.14908454E-01    2    -1000037        12   # BR(~e_L -> ~chi_2- nu_e)
#
#         PDG            Width
DECAY   2000011     2.73597871E+01   # selectron_R decays
#          BR         NDA      ID1       ID2
     9.99135285E-01    2     1000022        11   # BR(~e_R -> ~chi_10 e-)
     3.79480319E-04    2     1000023        11   # BR(~e_R -> ~chi_20 e-)
     4.85160178E-04    2     1000025        11   # BR(~e_R -> ~chi_30 e-)
     7.41735220E-08    2     1000035        11   # BR(~e_R -> ~chi_40 e-)
#
#         PDG            Width
DECAY   1000013     3.02394488E+01   # smuon_L decays
#          BR         NDA      ID1       ID2
     2.26704579E-01    2     1000022        13   # BR(~mu_L -> ~chi_10 mu-)
     9.63926227E-04    2     1000023        13   # BR(~mu_L -> ~chi_20 mu-)
     1.12786095E-07    2     1000025        13   # BR(~mu_L -> ~chi_30 mu-)
     2.57153037E-01    2     1000035        13   # BR(~mu_L -> ~chi_40 mu-)
     2.69891077E-04    2    -1000024        14   # BR(~mu_L -> ~chi_1- nu_mu)
     5.14908454E-01    2    -1000037        14   # BR(~mu_L -> ~chi_2- nu_mu)
#
#         PDG            Width
DECAY   2000013     2.73597871E+01   # smuon_R decays
#          BR         NDA      ID1       ID2
     9.99135285E-01    2     1000022        13   # BR(~mu_R -> ~chi_10 mu-)
     3.79480319E-04    2     1000023        13   # BR(~mu_R -> ~chi_20 mu-)
     4.85160178E-04    2     1000025        13   # BR(~mu_R -> ~chi_30 mu-)
     7.41735220E-08    2     1000035        13   # BR(~mu_R -> ~chi_40 mu-)
#
#         PDG            Width
DECAY   1000015     2.90022009E+01   # stau_1 decays
#          BR         NDA      ID1       ID2
     9.25608313E-01    2     1000022        15   # BR(~tau_1 -> ~chi_10  tau-)
     1.44557641E-02    2     1000023        15   # BR(~tau_1 -> ~chi_20  tau-)
     1.32795504E-02    2     1000025        15   # BR(~tau_1 -> ~chi_30  tau-)
     6.40180038E-03    2     1000035        15   # BR(~tau_1 -> ~chi_40  tau-)
     2.74360718E-02    2    -1000024        16   # BR(~tau_1 -> ~chi_1-  nu_tau)
     1.28185005E-02    2    -1000037        16   # BR(~tau_1 -> ~chi_2-  nu_tau)
#
#         PDG            Width
DECAY   2000015     3.09570108E+01   # stau_2 decays
#          BR         NDA      ID1       ID2
     2.37163917E-01    2     1000022        15   # BR(~tau_2 -> ~chi_10  tau-)
     1.33015624E-02    2     1000023        15   # BR(~tau_2 -> ~chi_20  tau-)
     1.35185284E-02    2     1000025        15   # BR(~tau_2 -> ~chi_30  tau-)
     2.45119358E-01    2     1000035        15   # BR(~tau_2 -> ~chi_40  tau-)
     8.46342010E-05    2    -1000024        16   # BR(~tau_2 -> ~chi_1-  nu_tau)
     4.90812000E-01    2    -1000037        16   # BR(~tau_2 -> ~chi_2-  nu_tau)
#
#         PDG            Width
DECAY   1000012     3.02416615E+01   # snu_eL decays
#          BR         NDA      ID1       ID2
     2.26417484E-01    2     1000022        12   # BR(~nu_eL -> ~chi_10 nu_e)
     1.55827539E-04    2     1000023        12   # BR(~nu_eL -> ~chi_20 nu_e)
     4.26379331E-04    2     1000025        12   # BR(~nu_eL -> ~chi_30 nu_e)
     2.57232800E-01    2     1000035        12   # BR(~nu_eL -> ~chi_40 nu_e)
     2.03954500E-03    2     1000024        11   # BR(~nu_eL -> ~chi_1+ e-)
     5.13727965E-01    2     1000037        11   # BR(~nu_eL -> ~chi_2+ e-)
#
#         PDG            Width
DECAY   1000014     3.02416615E+01   # snu_muL decays
#          BR         NDA      ID1       ID2
     2.26417484E-01    2     1000022        14   # BR(~nu_muL -> ~chi_10 nu_mu)
     1.55827539E-04    2     1000023        14   # BR(~nu_muL -> ~chi_20 nu_mu)
     4.26379331E-04    2     1000025        14   # BR(~nu_muL -> ~chi_30 nu_mu)
     2.57232800E-01    2     1000035        14   # BR(~nu_muL -> ~chi_40 nu_mu)
     2.03954500E-03    2     1000024        13   # BR(~nu_muL -> ~chi_1+ mu-)
     5.13727965E-01    2     1000037        13   # BR(~nu_muL -> ~chi_2+ mu-)
#
#         PDG            Width
DECAY   1000016     3.10254500E+01   # snu_tauL decays
#          BR         NDA      ID1       ID2
     2.20673768E-01    2     1000022        16   # BR(~nu_tauL -> ~chi_10 nu_tau)
     1.51869026E-04    2     1000023        16   # BR(~nu_tauL -> ~chi_20 nu_tau)
     4.15547888E-04    2     1000025        16   # BR(~nu_tauL -> ~chi_30 nu_tau)
     2.50642473E-01    2     1000035        16   # BR(~nu_tauL -> ~chi_40 nu_tau)
     2.75493089E-02    2     1000024        15   # BR(~nu_tauL -> ~chi_1+ tau-)
     5.00567034E-01    2     1000037        15   # BR(~nu_tauL -> ~chi_2+ tau-)
#
#         PDG            Width
DECAY   1000024     8.59842418E-01   # chargino1+ decays
#          BR         NDA      ID1       ID2
     1.00000000E+00    2     1000022        24   # BR(~chi_1+ -> ~chi_10  W+)
#
#         PDG            Width
DECAY   1000037     1.88502329E+01   # chargino2+ decays
#          BR         NDA      ID1       ID2
     2.52813915E-01    2     1000024        23   # BR(~chi_2+ -> ~chi_1+  Z )
     2.42478140E-04    2     1000022        24   # BR(~chi_2+ -> ~chi_10  W+)
     2.43960639E-01    2     1000023        24   # BR(~chi_2+ -> ~chi_20  W+)
     2.43775475E-01    2     1000025        24   # BR(~chi_2+ -> ~chi_30  W+)
     2.59207025E-01    2     1000024        25   # BR(~chi_2+ -> ~chi_1+  h )
     4.67025283E-07    2     1000022        37   # BR(~chi_2+ -> ~chi_10  H+)
#
#         PDG            Width
DECAY   1000022     0.00000000E+00   # neutralino1 decays
#
#         PDG            Width
DECAY   1000023     9.02981807E-01   # neutralino2 decays
#          BR         NDA      ID1       ID2
     5.54023415E-01    2     1000022        23   # BR(~chi_20 -> ~chi_10   Z )
     4.45976585E-01    2     1000022        25   # BR(~chi_20 -> ~chi_10   h )
#
#         PDG            Width
DECAY   1000025     9.11338870E-01   # neutralino3 decays
#          BR         NDA      ID1       ID2
     4.29709839E-01    2     1000022        23   # BR(~chi_30 -> ~chi_10   Z )
     5.70290161E-01    2     1000022        25   # BR(~chi_30 -> ~chi_10   h )
#
#         PDG            Width
DECAY   1000035     1.88553367E+01   # neutralino4 decays
#          BR         NDA      ID1       ID2
     8.22969724E-05    2     1000022        23   # BR(~chi_40 -> ~chi_10   Z )
     4.53971952E-02    2     1000023        23   # BR(~chi_40 -> ~chi_20   Z )
     2.06799627E-01    2     1000025        23   # BR(~chi_40 -> ~chi_30   Z )
     2.44416999E-01    2     1000024       -24   # BR(~chi_40 -> ~chi_1+   W-)
     2.44416999E-01    2    -1000024        24   # BR(~chi_40 -> ~chi_1-   W+)
     1.65207379E-04    2     1000022        25   # BR(~chi_40 -> ~chi_10   h )
     4.23694343E-07    2     1000022        35   # BR(~chi_40 -> ~chi_10   H )
     6.01998505E-08    2     1000022        36   # BR(~chi_40 -> ~chi_10   A )
     2.13307785E-01    2     1000023        25   # BR(~chi_40 -> ~chi_20   h )
     4.54134063E-02    2     1000025        25   # BR(~chi_40 -> ~chi_30   h )
#
#         PDG            Width
DECAY        25     4.04597331E-03   # h decays
#          BR         NDA      ID1       ID2
     6.05537714E-01    2           5        -5   # BR(h -> b       bb     )
     6.41309304E-02    2         -15        15   # BR(h -> tau+    tau-   )
     2.27046569E-04    2         -13        13   # BR(h -> mu+     mu-    )
     4.81284436E-04    2           3        -3   # BR(h -> s       sb     )
     2.08560830E-02    2           4        -4   # BR(h -> c       cb     )
     6.75277273E-02    2          21        21   # BR(h -> g       g      )
     2.32316538E-03    2          22        22   # BR(h -> gam     gam    )
     1.50259302E-03    2          22        23   # BR(h -> Z       gam    )
     2.12075965E-01    2          24       -24   # BR(h -> W+      W-     )
     2.53004802E-02    2          23        23   # BR(h -> Z       Z      )
     3.70113726E-05    2     1000022   1000022   # BR(h -> ~chi_10 ~chi_10)
#
#         PDG            Width
DECAY        35     7.45390184E+00   # H decays
#          BR         NDA      ID1       ID2
     4.37838281E-01    2           5        -5   # BR(H -> b       bb     )
     7.47359233E-02    2         -15        15   # BR(H -> tau+    tau-   )
     2.64272161E-04    2         -13        13   # BR(H -> mu+     mu-    )
     3.23957126E-04    2           3        -3   # BR(H -> s       sb     )
     1.81226115E-06    2           4        -4   # BR(H -> c       cb     )
     1.81059245E-01    2           6        -6   # BR(H -> t       tb     )
     6.01245256E-05    2          21        21   # BR(H -> g       g      )
     3.84011186E-07    2          22        22   # BR(H -> gam     gam    )
     1.06944259E-07    2          23        22   # BR(H -> Z       gam    )
     8.15649150E-05    2          24       -24   # BR(H -> W+      W-     )
     4.07308435E-05    2          23        23   # BR(H -> Z       Z      )
     3.06170706E-04    2          25        25   # BR(H -> h       h      )
    -2.35742837E-23    2          36        36   # BR(H -> A       A      )
     5.62424853E-19    2          23        36   # BR(H -> Z       A      )
     3.04030272E-04    2     1000024  -1000024   # BR(H -> ~chi_1+ ~chi_1-)
     9.88486085E-04    2     1000022   1000022   # BR(H -> ~chi_10 ~chi_10)
     2.94453785E-05    2     1000023   1000023   # BR(H -> ~chi_20 ~chi_20)
     4.25063017E-05    2     1000025   1000025   # BR(H -> ~chi_30 ~chi_30)
     1.81014059E-01    2     1000022   1000023   # BR(H -> ~chi_10 ~chi_20)
     1.22852778E-01    2     1000022   1000025   # BR(H -> ~chi_10 ~chi_30)
     5.61215709E-05    2     1000023   1000025   # BR(H -> ~chi_20 ~chi_30)
#
#         PDG            Width
DECAY        36     7.47305281E+00   # A decays
#          BR         NDA      ID1       ID2
     4.36862151E-01    2           5        -5   # BR(A -> b       bb     )
     7.45465477E-02    2         -15        15   # BR(A -> tau+    tau-   )
     2.63602145E-04    2         -13        13   # BR(A -> mu+     mu-    )
     3.23371986E-04    2           3        -3   # BR(A -> s       sb     )
     1.81511950E-06    2           4        -4   # BR(A -> c       cb     )
     1.81244758E-01    2           6        -6   # BR(A -> t       tb     )
     1.79353391E-04    2          21        21   # BR(A -> g       g      )
     4.26043807E-07    2          22        22   # BR(A -> gam     gam    )
     2.17288520E-07    2          23        22   # BR(A -> Z       gam    )
     8.10478427E-05    2          23        25   # BR(A -> Z       h      )
     2.01637329E-03    2     1000024  -1000024   # BR(A -> ~chi_1+ ~chi_1-)
     1.01364565E-03    2     1000022   1000022   # BR(A -> ~chi_10 ~chi_10)
     1.48263641E-04    2     1000023   1000023   # BR(A -> ~chi_20 ~chi_20)
     5.12063890E-04    2     1000025   1000025   # BR(A -> ~chi_30 ~chi_30)
     1.24022270E-01    2     1000022   1000023   # BR(A -> ~chi_10 ~chi_20)
     1.78783366E-01    2     1000022   1000025   # BR(A -> ~chi_10 ~chi_30)
     7.26609182E-07    2     1000023   1000025   # BR(A -> ~chi_20 ~chi_30)
#
#         PDG            Width
DECAY        37     7.46811537E+00   # H+ decays
#          BR         NDA      ID1       ID2
     7.05716080E-04    2           4        -5   # BR(H+ -> c       bb     )
     7.46175341E-02    2         -15        16   # BR(H+ -> tau+    nu_tau )
     2.63853158E-04    2         -13        14   # BR(H+ -> mu+     nu_mu  )
     4.51655987E-06    2           2        -5   # BR(H+ -> u       bb     )
     1.54823541E-05    2           2        -3   # BR(H+ -> u       sb     )
     3.20176274E-04    2           4        -3   # BR(H+ -> c       sb     )
     6.18635682E-01    2           6        -5   # BR(H+ -> t       bb     )
     8.12243036E-05    2          24        25   # BR(H+ -> W+      h      )
     8.91048225E-14    2          24        36   # BR(H+ -> W+      A      )
     3.05082994E-01    2     1000024   1000022   # BR(H+ -> ~chi_1+ ~chi_10)
     2.16298894E-04    2     1000024   1000023   # BR(H+ -> ~chi_1+ ~chi_20)
     5.65224482E-05    2     1000024   1000025   # BR(H+ -> ~chi_1+ ~chi_30)
