#
#                              ======================
#                              | THE SUSYHIT OUTPUT |
#                              ======================
#
#
#              ------------------------------------------------------
#              |     This is the output of the SUSY-HIT package     |
#              |  created by A.Djouadi, M.Muehlleitner and M.Spira. |
#              |  In case of problems with SUSY-HIT email to        |
#              |           margarete.muehlleitner@cern.ch           |
#              |           michael.spira@psi.ch                     |
#              |           abdelhak.djouadi@cern.ch                 |
#              ------------------------------------------------------
#
#              ------------------------------------------------------
#              |  SUSY Les Houches Accord - MSSM Spectrum + Decays  |
#              |              based on the decay programs           |
#              |                                                    |
#              |                     SDECAY 1.3b                    |
#              |                                                    |
#              |  Authors: M.Muhlleitner, A.Djouadi and Y.Mambrini  |
#              |  Ref.:    Comput.Phys.Commun.168(2005)46           |
#              |           [hep-ph/0311167]                         |
#              |                                                    |
#              |                     HDECAY 3.4                     |
#              |                                                    |
#              |  By: A.Djouadi,J.Kalinowski,M.Muhlleitner,M.Spira  |
#              |  Ref.:    Comput.Phys.Commun.108(1998)56           |
#              |           [hep-ph/9704448]                         |
#              |                                                    |
#              |                                                    |
#              |  If not stated otherwise all DRbar couplings and   |
#              |  soft SUSY breaking masses are given at the scale  |
#              |  Q=  0.50007228E+04
#              |                                                    |
#              ------------------------------------------------------
#
#
BLOCK DCINFO  # Decay Program information
     1   SDECAY/HDECAY # decay calculator
     2   1.3b  /3.4    # version number
#
BLOCK SPINFO  # Spectrum calculator information
     1    SOFTSUSY    # spectrum calculator                
     2    3.4.0       # version number                     
#
BLOCK MODSEL  # Model selection
     1     0   #  nonUniversal                                     
#
BLOCK SMINPUTS  # Standard Model inputs
         1     1.25778332E+02   # alpha_em^-1(M_Z)^MSbar
         2     1.16570000E-05   # G_F [GeV^-2]
         3     1.17200002E-01   # alpha_S(M_Z)^MSbar
         4     9.11876000E+01   # M_Z pole mass
         5     4.25000000E+00   # mb(mb)^MSbar
         6     1.72500000E+02   # mt pole mass
         7     1.77682000E+00   # mtau pole mass
#
BLOCK MINPAR  # Input parameters - minimal models
         3     1.00000000E+01   # tanb                
#
BLOCK EXTPAR  # Input parameters - non-minimal models
         0    -1.00000000E+00   # Set                 
         1     6.00000000E+01   # M_1(MX)             
         2     3.00000000E+03   # M_2(MX)             
         3     9.46041000E+02   # M_3(MX)             
        11     5.00000000E+03   # At(MX)              
        12     5.00000000E+03   # Ab(MX)              
        13     0.00000000E+00   # Atau(MX)            
        23    -1.15407700E+03   # mu(MX)              
        26     3.00000000E+03   # mA(pole)            
        31     5.00000000E+03   # meL(MX)             
        32     5.00000000E+03   # mmuL(MX)            
        33     5.00000000E+03   # mtauL(MX)           
        34     5.00000000E+03   # meR(MX)             
        35     5.00000000E+03   # mmuR(MX)            
        36     5.00000000E+03   # mtauR(MX)           
        41     5.00000000E+03   # mqL1(MX)            
        42     5.00000000E+03   # mqL2(MX)            
        43     5.00000000E+03   # mqL3(MX)            
        44     5.00000000E+03   # muR(MX)             
        45     5.00000000E+03   # mcR(MX)             
        46     5.00000000E+03   # mtR(MX)             
        47     5.00000000E+03   # mdR(MX)             
        48     5.00000000E+03   # msR(MX)             
        49     5.00000000E+03   # mbR(MX)             
#
BLOCK MASS  # Mass Spectrum
# PDG code           mass       particle
        24     8.00937949E+01   # W+
        25     1.24461729E+02   # h
        35     3.00007976E+03   # H
        36     2.99999986E+03   # A
        37     3.00086518E+03   # H+
         5     4.87878001E+00   # b-quark pole mass calculated from mb(mb)_Msbar
   1000001     5.06468001E+03   # ~d_L
   2000001     5.04686066E+03   # ~d_R
   1000002     5.06420352E+03   # ~u_L
   2000002     5.04657909E+03   # ~u_R
   1000003     5.06468001E+03   # ~s_L
   2000003     5.04686066E+03   # ~s_R
   1000004     5.06420352E+03   # ~c_L
   2000004     5.04657909E+03   # ~c_R
   1000005     5.01091395E+03   # ~b_1
   2000005     5.04555828E+03   # ~b_2
   1000006     4.90146580E+03   # ~t_1
   2000006     5.05715186E+03   # ~t_2
   1000011     5.01906347E+03   # ~e_L
   2000011     5.00591823E+03   # ~e_R
   1000012     5.01811469E+03   # ~nu_eL
   1000013     5.01906347E+03   # ~mu_L
   2000013     5.00591823E+03   # ~mu_R
   1000014     5.01811469E+03   # ~nu_muL
   1000015     5.00452448E+03   # ~tau_1
   2000015     5.01885154E+03   # ~tau_2
   1000016     5.01757106E+03   # ~nu_tauL
   1000021     1.20000047E+03   # ~g
   1000022     6.03020750E+01   # ~chi_10
   1000023     1.19954040E+03   # ~chi_20
   1000025    -1.20184540E+03   # ~chi_30
   1000035     3.07429461E+03   # ~chi_40
   1000024     1.20000026E+03   # ~chi_1+
   1000037     3.07446210E+03   # ~chi_2+
#
BLOCK NMIX  # Neutralino Mixing Matrix
  1  1     9.99308626E-01   # N_11
  1  2     1.64186959E-04   # N_12
  1  3    -3.71239806E-02   # N_13
  1  4     2.01304021E-03   # N_14
  2  1     2.48315076E-02   # N_21
  2  2     2.59803714E-02   # N_22
  2  3     7.06840591E-01   # N_23
  2  4     7.06459337E-01   # N_24
  3  1    -2.76675295E-02   # N_31
  3  2     1.42092472E-02   # N_32
  3  3    -7.06348983E-01   # N_33
  3  4     7.07180118E-01   # N_34
  4  1    -4.16253015E-04   # N_41
  4  2     9.99561449E-01   # N_42
  4  3    -8.32484936E-03   # N_43
  4  4    -2.84153652E-02   # N_44
#
BLOCK UMIX  # Chargino Mixing Matrix U
  1  1     1.17879803E-02   # U_11
  1  2     9.99930519E-01   # U_12
  2  1    -9.99930519E-01   # U_21
  2  2     1.17879803E-02   # U_22
#
BLOCK VMIX  # Chargino Mixing Matrix V
  1  1     4.02140999E-02   # V_11
  1  2    -9.99191086E-01   # V_12
  2  1    -9.99191086E-01   # V_21
  2  2    -4.02140999E-02   # V_22
#
BLOCK STOPMIX  # Stop Mixing Matrix
  1  1    -5.11112066E-01   # cos(theta_t)
  1  2     8.59514081E-01   # sin(theta_t)
  2  1    -8.59514081E-01   # -sin(theta_t)
  2  2    -5.11112066E-01   # cos(theta_t)
#
BLOCK SBOTMIX  # Sbottom Mixing Matrix
  1  1     9.96116516E-01   # cos(theta_b)
  1  2    -8.80447986E-02   # sin(theta_b)
  2  1     8.80447986E-02   # -sin(theta_b)
  2  2     9.96116516E-01   # cos(theta_b)
#
BLOCK STAUMIX  # Stau Mixing Matrix
  1  1    -1.36038909E-01   # cos(theta_tau)
  1  2     9.90703495E-01   # sin(theta_tau)
  2  1    -9.90703495E-01   # -sin(theta_tau)
  2  2    -1.36038909E-01   # cos(theta_tau)
#
BLOCK ALPHA  # Higgs mixing
          -1.05435297E-01   # Mixing angle in the neutral Higgs boson sector
#
BLOCK HMIX Q=  5.00072281E+03  # DRbar Higgs Parameters
         1    -1.17479273E+03   # mu(Q)MSSM           
         2     9.47310023E+00   # tan                 
         3     2.41942457E+02   # higgs               
         4     8.45855883E+06   # mA^2(Q)MSSM         
#
BLOCK GAUGE Q=  5.00072281E+03  # The gauge couplings
     1     3.70770157E-01   # gprime(Q) DRbar
     2     6.32385357E-01   # g(Q) DRbar
     3     1.00596712E+00   # g3(Q) DRbar
#
BLOCK AU Q=  5.00072281E+03  # The trilinear couplings
  1  1     5.00000001E+03   # A_u(Q) DRbar
  2  2     5.00000001E+03   # A_c(Q) DRbar
  3  3     5.00000001E+03   # A_t(Q) DRbar
#
BLOCK AD Q=  5.00072281E+03  # The trilinear couplings
  1  1     5.00000000E+03   # A_d(Q) DRbar
  2  2     5.00000000E+03   # A_s(Q) DRbar
  3  3     5.00000001E+03   # A_b(Q) DRbar
#
BLOCK AE Q=  5.00072281E+03  # The trilinear couplings
  1  1     0.00000000E+00   # A_e(Q) DRbar
  2  2     4.96389972E-08   # A_mu(Q) DRbar
  3  3     4.87914432E-08   # A_tau(Q) DRbar
#
BLOCK Yu Q=  5.00072281E+03  # The Yukawa couplings
  1  1     0.00000000E+00   # y_u(Q) DRbar
  2  2     0.00000000E+00   # y_c(Q) DRbar
  3  3     8.15709642E-01   # y_t(Q) DRbar
#
BLOCK Yd Q=  5.00072281E+03  # The Yukawa couplings
  1  1     0.00000000E+00   # y_d(Q) DRbar
  2  2     0.00000000E+00   # y_s(Q) DRbar
  3  3     1.29861215E-01   # y_b(Q) DRbar
#
BLOCK Ye Q=  5.00072281E+03  # The Yukawa couplings
  1  1     0.00000000E+00   # y_e(Q) DRbar
  2  2     0.00000000E+00   # y_mu(Q) DRbar
  3  3     9.67705751E-02   # y_tau(Q) DRbar
#
BLOCK MSOFT Q=  5.00072281E+03  # The soft SUSY breaking masses at the scale Q
         1     6.00000000E+01   # M_1(Q)              
         2     3.00000000E+03   # M_2(Q)              
         3     9.46041000E+02   # M_3(Q)              
        21     7.30454453E+06   # mH1^2(Q)            
        22    -8.25497983E+05   # mH2^2(Q)            
        31     5.00000000E+03   # meL(Q)              
        32     5.00000000E+03   # mmuL(Q)             
        33     5.00000000E+03   # mtauL(Q)            
        34     5.00000000E+03   # meR(Q)              
        35     5.00000000E+03   # mmuR(Q)             
        36     5.00000000E+03   # mtauR(Q)            
        41     5.00000000E+03   # mqL1(Q)             
        42     5.00000000E+03   # mqL2(Q)             
        43     5.00000000E+03   # mqL3(Q)             
        44     5.00000000E+03   # muR(Q)              
        45     5.00000000E+03   # mcR(Q)              
        46     5.00000000E+03   # mtR(Q)              
        47     5.00000000E+03   # mdR(Q)              
        48     5.00000000E+03   # msR(Q)              
        49     5.00000000E+03   # mbR(Q)              
#
#
#
#                             =================
#                             |The decay table|
#                             =================
#
# - The QCD corrections to the decays gluino -> squark  + quark
#                                     squark -> gaugino + quark_prime
#                                     squark -> squark_prime + Higgs
#                                     squark -> gluino  + quark
#   are included.
#
# - The multi-body decays for the inos, stops and sbottoms are included.
#
# - The loop induced decays for the gluino, neutralinos and stops
#   are included.
#
# - The SUSY decays of the top quark are included.
#
#
#         PDG            Width
DECAY         6     1.40147732E+00   # top decays
#          BR         NDA      ID1       ID2
     1.00000000E+00    2           5        24   # BR(t ->  b    W+)
#
#         PDG            Width
DECAY   1000021     2.16527341E-05   # gluino decays
#          BR         NDA      ID1       ID2
     1.59397418E-05    2     1000022        21   # BR(~g -> ~chi_10 g)
     6.96691288E-11    2     1000023        21   # BR(~g -> ~chi_20 g)
#           BR         NDA      ID1       ID2       ID3
     8.03602488E-02    3     1000022         1        -1   # BR(~g -> ~chi_10 d  db)
     3.58786084E-20    3     1000023         1        -1   # BR(~g -> ~chi_20 d  db)
     2.73961476E-01    3     1000022         2        -2   # BR(~g -> ~chi_10 u  ub)
     8.82848228E-20    3     1000023         2        -2   # BR(~g -> ~chi_20 u  ub)
     8.03602488E-02    3     1000022         3        -3   # BR(~g -> ~chi_10 s  sb)
     3.58786084E-20    3     1000023         3        -3   # BR(~g -> ~chi_20 s  sb)
     2.73961476E-01    3     1000022         4        -4   # BR(~g -> ~chi_10 c  cb)
     8.82848228E-20    3     1000023         4        -4   # BR(~g -> ~chi_20 c  cb)
     8.14180763E-02    3     1000022         5        -5   # BR(~g -> ~chi_10 b  bb)
     2.09922534E-01    3     1000022         6        -6   # BR(~g -> ~chi_10 t  tb)
     1.95193442E-36    3     1000024         1        -2   # BR(~g -> ~chi_1+ d  ub)
     1.95193442E-36    3    -1000024         2        -1   # BR(~g -> ~chi_1- u  db)
     1.95193442E-36    3     1000024         3        -4   # BR(~g -> ~chi_1+ s  cb)
     1.95193442E-36    3    -1000024         4        -3   # BR(~g -> ~chi_1- c  sb)
#
#         PDG            Width
DECAY   1000006     3.99298897E+02   # stop1 decays
#          BR         NDA      ID1       ID2
     2.20083835E-02    2     1000022         6   # BR(~t_1 -> ~chi_10 t )
     7.27937893E-02    2     1000023         6   # BR(~t_1 -> ~chi_20 t )
     6.99651177E-02    2     1000025         6   # BR(~t_1 -> ~chi_30 t )
     5.35062761E-03    2     1000035         6   # BR(~t_1 -> ~chi_40 t )
     1.04757193E-01    2     1000024         5   # BR(~t_1 -> ~chi_1+ b )
     1.06548505E-02    2     1000037         5   # BR(~t_1 -> ~chi_2+ b )
     7.14470039E-01    2     1000021         6   # BR(~t_1 -> ~g      t )
#
#         PDG            Width
DECAY   2000006     4.03007634E+02   # stop2 decays
#          BR         NDA      ID1       ID2
     8.87979801E-03    2     1000022         6   # BR(~t_2 -> ~chi_10 t )
     7.41275189E-02    2     1000023         6   # BR(~t_2 -> ~chi_20 t )
     7.71763142E-02    2     1000025         6   # BR(~t_2 -> ~chi_30 t )
     1.35221229E-02    2     1000035         6   # BR(~t_2 -> ~chi_40 t )
     4.53131233E-02    2     1000024         5   # BR(~t_2 -> ~chi_1+ b )
     2.68876034E-02    2     1000037         5   # BR(~t_2 -> ~chi_2+ b )
     7.50845996E-01    2     1000021         6   # BR(~t_2 -> ~g      t )
     7.20699801E-04    2     1000006        25   # BR(~t_2 -> ~t_1    h )
     2.52682363E-03    2     1000006        23   # BR(~t_2 -> ~t_1    Z )
#
#         PDG            Width
DECAY   1000005     3.80898650E+02   # sbottom1 decays
#          BR         NDA      ID1       ID2
     2.04166059E-03    2     1000022         5   # BR(~b_1 -> ~chi_10 b )
     2.01905301E-03    2     1000023         5   # BR(~b_1 -> ~chi_20 b )
     1.94397142E-03    2     1000025         5   # BR(~b_1 -> ~chi_30 b )
     1.96325320E-02    2     1000035         5   # BR(~b_1 -> ~chi_40 b )
     1.54729310E-01    2    -1000024         6   # BR(~b_1 -> ~chi_1- t )
     3.94679048E-02    2    -1000037         6   # BR(~b_1 -> ~chi_2- t )
     7.78672091E-01    2     1000021         5   # BR(~b_1 -> ~g      b )
     1.49347722E-03    2     1000006       -24   # BR(~b_1 -> ~t_1    W-)
#
#         PDG            Width
DECAY   2000005     3.05531023E+02   # sbottom2 decays
#          BR         NDA      ID1       ID2
     9.61469191E-03    2     1000022         5   # BR(~b_2 -> ~chi_10 b )
     2.47183491E-03    2     1000023         5   # BR(~b_2 -> ~chi_20 b )
     2.55482229E-03    2     1000025         5   # BR(~b_2 -> ~chi_30 b )
     2.00936034E-04    2     1000035         5   # BR(~b_2 -> ~chi_40 b )
     6.44558833E-03    2    -1000024         6   # BR(~b_2 -> ~chi_1- t )
     4.03848113E-04    2    -1000037         6   # BR(~b_2 -> ~chi_2- t )
     9.78248653E-01    2     1000021         5   # BR(~b_2 -> ~g      b )
     5.96258924E-05    2     1000006       -24   # BR(~b_2 -> ~t_1    W-)
#
#         PDG            Width
DECAY   1000002     3.24391100E+02   # sup_L decays
#          BR         NDA      ID1       ID2
     2.30416709E-03    2     1000022         2   # BR(~u_L -> ~chi_10 u)
     5.11125219E-05    2     1000023         2   # BR(~u_L -> ~chi_20 u)
     4.16347359E-06    2     1000025         2   # BR(~u_L -> ~chi_30 u)
     2.40700776E-02    2     1000035         2   # BR(~u_L -> ~chi_40 u)
     1.73873759E-04    2     1000024         1   # BR(~u_L -> ~chi_1+ d)
     4.81062328E-02    2     1000037         1   # BR(~u_L -> ~chi_2+ d)
     9.25290373E-01    2     1000021         2   # BR(~u_L -> ~g      u)
#
#         PDG            Width
DECAY   2000002     3.10774485E+02   # sup_R decays
#          BR         NDA      ID1       ID2
     3.82831092E-02    2     1000022         2   # BR(~u_R -> ~chi_10 u)
     2.10553026E-05    2     1000023         2   # BR(~u_R -> ~chi_20 u)
     2.61273645E-05    2     1000025         2   # BR(~u_R -> ~chi_30 u)
     2.63235575E-09    2     1000035         2   # BR(~u_R -> ~chi_40 u)
     9.61669705E-01    2     1000021         2   # BR(~u_R -> ~g      u)
#
#         PDG            Width
DECAY   1000001     3.24401601E+02   # sdown_L decays
#          BR         NDA      ID1       ID2
     2.29657435E-03    2     1000022         1   # BR(~d_L -> ~chi_10 d)
     2.40003222E-05    2     1000023         1   # BR(~d_L -> ~chi_20 d)
     2.06806971E-05    2     1000025         1   # BR(~d_L -> ~chi_30 d)
     2.40846570E-02    2     1000035         1   # BR(~d_L -> ~chi_40 d)
     1.49414503E-05    2    -1000024         2   # BR(~d_L -> ~chi_1- u)
     4.81909518E-02    2    -1000037         2   # BR(~d_L -> ~chi_2- u)
     9.25368194E-01    2     1000021         1   # BR(~d_L -> ~g      d)
#
#         PDG            Width
DECAY   2000001     3.01861266E+02   # sdown_R decays
#          BR         NDA      ID1       ID2
     9.85393085E-03    2     1000022         1   # BR(~d_R -> ~chi_10 d)
     5.41962890E-06    2     1000023         1   # BR(~d_R -> ~chi_20 d)
     6.72517655E-06    2     1000025         1   # BR(~d_R -> ~chi_30 d)
     6.77647161E-10    2     1000035         1   # BR(~d_R -> ~chi_40 d)
     9.90133924E-01    2     1000021         1   # BR(~d_R -> ~g      d)
#
#         PDG            Width
DECAY   1000004     3.24391100E+02   # scharm_L decays
#          BR         NDA      ID1       ID2
     2.30416709E-03    2     1000022         4   # BR(~c_L -> ~chi_10 c)
     5.11125219E-05    2     1000023         4   # BR(~c_L -> ~chi_20 c)
     4.16347359E-06    2     1000025         4   # BR(~c_L -> ~chi_30 c)
     2.40700776E-02    2     1000035         4   # BR(~c_L -> ~chi_40 c)
     1.73873759E-04    2     1000024         3   # BR(~c_L -> ~chi_1+ s)
     4.81062328E-02    2     1000037         3   # BR(~c_L -> ~chi_2+ s)
     9.25290373E-01    2     1000021         4   # BR(~c_L -> ~g      c)
#
#         PDG            Width
DECAY   2000004     3.10774485E+02   # scharm_R decays
#          BR         NDA      ID1       ID2
     3.82831092E-02    2     1000022         4   # BR(~c_R -> ~chi_10 c)
     2.10553026E-05    2     1000023         4   # BR(~c_R -> ~chi_20 c)
     2.61273645E-05    2     1000025         4   # BR(~c_R -> ~chi_30 c)
     2.63235575E-09    2     1000035         4   # BR(~c_R -> ~chi_40 c)
     9.61669705E-01    2     1000021         4   # BR(~c_R -> ~g      c)
#
#         PDG            Width
DECAY   1000003     3.24401601E+02   # sstrange_L decays
#          BR         NDA      ID1       ID2
     2.29657435E-03    2     1000022         3   # BR(~s_L -> ~chi_10 s)
     2.40003222E-05    2     1000023         3   # BR(~s_L -> ~chi_20 s)
     2.06806971E-05    2     1000025         3   # BR(~s_L -> ~chi_30 s)
     2.40846570E-02    2     1000035         3   # BR(~s_L -> ~chi_40 s)
     1.49414503E-05    2    -1000024         4   # BR(~s_L -> ~chi_1- c)
     4.81909518E-02    2    -1000037         4   # BR(~s_L -> ~chi_2- c)
     9.25368194E-01    2     1000021         3   # BR(~s_L -> ~g      s)
#
#         PDG            Width
DECAY   2000003     3.01861266E+02   # sstrange_R decays
#          BR         NDA      ID1       ID2
     9.85393085E-03    2     1000022         3   # BR(~s_R -> ~chi_10 s)
     5.41962890E-06    2     1000023         3   # BR(~s_R -> ~chi_20 s)
     6.72517655E-06    2     1000025         3   # BR(~s_R -> ~chi_30 s)
     6.77647161E-10    2     1000035         3   # BR(~s_R -> ~chi_40 s)
     9.90133924E-01    2     1000021         3   # BR(~s_R -> ~g      s)
#
#         PDG            Width
DECAY   1000011     3.02585477E+01   # selectron_L decays
#          BR         NDA      ID1       ID2
     2.26569555E-01    2     1000022        11   # BR(~e_L -> ~chi_10 e-)
     9.64054870E-04    2     1000023        11   # BR(~e_L -> ~chi_20 e-)
     2.37438963E-06    2     1000025        11   # BR(~e_L -> ~chi_30 e-)
     2.57245632E-01    2     1000035        11   # BR(~e_L -> ~chi_40 e-)
     1.63012205E-04    2    -1000024        12   # BR(~e_L -> ~chi_1- nu_e)
     5.15055372E-01    2    -1000037        12   # BR(~e_L -> ~chi_2- nu_e)
#
#         PDG            Width
DECAY   2000011     2.73690924E+01   # selectron_R decays
#          BR         NDA      ID1       ID2
     9.98771772E-01    2     1000022        11   # BR(~e_R -> ~chi_10 e-)
     5.48069668E-04    2     1000023        11   # BR(~e_R -> ~chi_20 e-)
     6.80090621E-04    2     1000025        11   # BR(~e_R -> ~chi_30 e-)
     6.72455318E-08    2     1000035        11   # BR(~e_R -> ~chi_40 e-)
#
#         PDG            Width
DECAY   1000013     3.02585477E+01   # smuon_L decays
#          BR         NDA      ID1       ID2
     2.26569555E-01    2     1000022        13   # BR(~mu_L -> ~chi_10 mu-)
     9.64054870E-04    2     1000023        13   # BR(~mu_L -> ~chi_20 mu-)
     2.37438963E-06    2     1000025        13   # BR(~mu_L -> ~chi_30 mu-)
     2.57245632E-01    2     1000035        13   # BR(~mu_L -> ~chi_40 mu-)
     1.63012205E-04    2    -1000024        14   # BR(~mu_L -> ~chi_1- nu_mu)
     5.15055372E-01    2    -1000037        14   # BR(~mu_L -> ~chi_2- nu_mu)
#
#         PDG            Width
DECAY   2000013     2.73690924E+01   # smuon_R decays
#          BR         NDA      ID1       ID2
     9.98771772E-01    2     1000022        13   # BR(~mu_R -> ~chi_10 mu-)
     5.48069668E-04    2     1000023        13   # BR(~mu_R -> ~chi_20 mu-)
     6.80090621E-04    2     1000025        13   # BR(~mu_R -> ~chi_30 mu-)
     6.72455318E-08    2     1000035        13   # BR(~mu_R -> ~chi_40 mu-)
#
#         PDG            Width
DECAY   1000015     2.90688154E+01   # stau_1 decays
#          BR         NDA      ID1       ID2
     9.27974439E-01    2     1000022        15   # BR(~tau_1 -> ~chi_10  tau-)
     1.50475181E-02    2     1000023        15   # BR(~tau_1 -> ~chi_20  tau-)
     1.40761678E-02    2     1000025        15   # BR(~tau_1 -> ~chi_30  tau-)
     4.77879025E-03    2     1000035        15   # BR(~tau_1 -> ~chi_40  tau-)
     2.85552500E-02    2    -1000024        16   # BR(~tau_1 -> ~chi_1-  nu_tau)
     9.56783512E-03    2    -1000037        16   # BR(~tau_1 -> ~chi_2-  nu_tau)
#
#         PDG            Width
DECAY   2000015     3.10320608E+01   # stau_2 decays
#          BR         NDA      ID1       ID2
     2.32395135E-01    2     1000022        15   # BR(~tau_2 -> ~chi_10  tau-)
     1.40460854E-02    2     1000023        15   # BR(~tau_2 -> ~chi_20  tau-)
     1.40892625E-02    2     1000025        15   # BR(~tau_2 -> ~chi_30  tau-)
     2.46277979E-01    2     1000035        15   # BR(~tau_2 -> ~chi_40  tau-)
     9.55010554E-05    2    -1000024        16   # BR(~tau_2 -> ~chi_1-  nu_tau)
     4.93096037E-01    2    -1000037        16   # BR(~tau_2 -> ~chi_2-  nu_tau)
#
#         PDG            Width
DECAY   1000012     3.02610742E+01   # snu_eL decays
#          BR         NDA      ID1       ID2
     2.26254032E-01    2     1000022        12   # BR(~nu_eL -> ~chi_10 nu_e)
     7.65004382E-05    2     1000023        12   # BR(~nu_eL -> ~chi_20 nu_e)
     5.42798469E-04    2     1000025        12   # BR(~nu_eL -> ~chi_30 nu_e)
     2.57309915E-01    2     1000035        12   # BR(~nu_eL -> ~chi_40 nu_e)
     1.89653011E-03    2     1000024        11   # BR(~nu_eL -> ~chi_1+ e-)
     5.13920223E-01    2     1000037        11   # BR(~nu_eL -> ~chi_2+ e-)
#
#         PDG            Width
DECAY   1000014     3.02610742E+01   # snu_muL decays
#          BR         NDA      ID1       ID2
     2.26254032E-01    2     1000022        14   # BR(~nu_muL -> ~chi_10 nu_mu)
     7.65004382E-05    2     1000023        14   # BR(~nu_muL -> ~chi_20 nu_mu)
     5.42798469E-04    2     1000025        14   # BR(~nu_muL -> ~chi_30 nu_mu)
     2.57309915E-01    2     1000035        14   # BR(~nu_muL -> ~chi_40 nu_mu)
     1.89653011E-03    2     1000024        13   # BR(~nu_muL -> ~chi_1+ mu-)
     5.13920223E-01    2     1000037        13   # BR(~nu_muL -> ~chi_2+ mu-)
#
#         PDG            Width
DECAY   1000016     3.10825870E+01   # snu_tauL decays
#          BR         NDA      ID1       ID2
     2.20250262E-01    2     1000022        16   # BR(~nu_tauL -> ~chi_10 nu_tau)
     7.44685072E-05    2     1000023        16   # BR(~nu_tauL -> ~chi_20 nu_tau)
     5.28381122E-04    2     1000025        16   # BR(~nu_tauL -> ~chi_30 nu_tau)
     2.50416853E-01    2     1000035        16   # BR(~nu_tauL -> ~chi_40 nu_tau)
     2.85771629E-02    2     1000024        15   # BR(~nu_tauL -> ~chi_1+ tau-)
     5.00152872E-01    2     1000037        15   # BR(~nu_tauL -> ~chi_2+ tau-)
#
#         PDG            Width
DECAY   1000024     7.34840389E-01   # chargino1+ decays
#          BR         NDA      ID1       ID2
     1.00000000E+00    2     1000022        24   # BR(~chi_1+ -> ~chi_10  W+)
#
#         PDG            Width
DECAY   1000037     1.96824296E+01   # chargino2+ decays
#          BR         NDA      ID1       ID2
     2.53028907E-01    2     1000024        23   # BR(~chi_2+ -> ~chi_1+  Z )
     2.15565061E-04    2     1000022        24   # BR(~chi_2+ -> ~chi_10  W+)
     2.44025311E-01    2     1000023        24   # BR(~chi_2+ -> ~chi_20  W+)
     2.43988051E-01    2     1000025        24   # BR(~chi_2+ -> ~chi_30  W+)
     2.58741421E-01    2     1000024        25   # BR(~chi_2+ -> ~chi_1+  h )
     7.45812028E-07    2     1000022        37   # BR(~chi_2+ -> ~chi_10  H+)
#
#         PDG            Width
DECAY   1000022     0.00000000E+00   # neutralino1 decays
#
#         PDG            Width
DECAY   1000023     7.69977425E-01   # neutralino2 decays
#          BR         NDA      ID1       ID2
     5.48097466E-01    2     1000022        23   # BR(~chi_20 -> ~chi_10   Z )
     4.51902534E-01    2     1000022        25   # BR(~chi_20 -> ~chi_10   h )
#
#         PDG            Width
DECAY   1000025     7.75782723E-01   # neutralino3 decays
#          BR         NDA      ID1       ID2
     4.38199429E-01    2     1000022        23   # BR(~chi_30 -> ~chi_10   Z )
     5.61800571E-01    2     1000022        25   # BR(~chi_30 -> ~chi_10   h )
#
#         PDG            Width
DECAY   1000035     1.96940356E+01   # neutralino4 decays
#          BR         NDA      ID1       ID2
     6.35459323E-05    2     1000022        23   # BR(~chi_40 -> ~chi_10   Z )
     5.83442376E-02    2     1000023        23   # BR(~chi_40 -> ~chi_20   Z )
     1.93980263E-01    2     1000025        23   # BR(~chi_40 -> ~chi_30   Z )
     2.44639040E-01    2     1000024       -24   # BR(~chi_40 -> ~chi_1+   W-)
     2.44639040E-01    2    -1000024        24   # BR(~chi_40 -> ~chi_1-   W+)
     1.54902565E-04    2     1000022        25   # BR(~chi_40 -> ~chi_10   h )
     6.82789021E-07    2     1000022        35   # BR(~chi_40 -> ~chi_10   H )
     8.92406148E-08    2     1000022        36   # BR(~chi_40 -> ~chi_10   A )
     1.99742789E-01    2     1000023        25   # BR(~chi_40 -> ~chi_20   h )
     5.84354100E-02    2     1000025        25   # BR(~chi_40 -> ~chi_30   h )
#
#         PDG            Width
DECAY        25     4.02777104E-03   # h decays
#          BR         NDA      ID1       ID2
     6.14071529E-01    2           5        -5   # BR(h -> b       bb     )
     6.42314504E-02    2         -15        15   # BR(h -> tau+    tau-   )
     2.27404072E-04    2         -13        13   # BR(h -> mu+     mu-    )
     4.82318522E-04    2           3        -3   # BR(h -> s       sb     )
     2.09008214E-02    2           4        -4   # BR(h -> c       cb     )
     6.72485454E-02    2          21        21   # BR(h -> g       g      )
     2.30506645E-03    2          22        22   # BR(h -> gam     gam    )
     1.46000797E-03    2          22        23   # BR(h -> Z       gam    )
     2.04764647E-01    2          24       -24   # BR(h -> W+      W-     )
     2.42677451E-02    2          23        23   # BR(h -> Z       Z      )
     4.04647690E-05    2     1000022   1000022   # BR(h -> ~chi_10 ~chi_10)
#
#         PDG            Width
DECAY        35     7.78881365E+00   # H decays
#          BR         NDA      ID1       ID2
     4.15924182E-01    2           5        -5   # BR(H -> b       bb     )
     7.15763454E-02    2         -15        15   # BR(H -> tau+    tau-   )
     2.53099643E-04    2         -13        13   # BR(H -> mu+     mu-    )
     3.10261461E-04    2           3        -3   # BR(H -> s       sb     )
     1.73303087E-06    2           4        -4   # BR(H -> c       cb     )
     1.73143507E-01    2           6        -6   # BR(H -> t       tb     )
     5.74897598E-05    2          21        21   # BR(H -> g       g      )
     3.33291995E-07    2          22        22   # BR(H -> gam     gam    )
     1.02161751E-07    2          23        22   # BR(H -> Z       gam    )
     7.81535741E-05    2          24       -24   # BR(H -> W+      W-     )
     3.90273198E-05    2          23        23   # BR(H -> Z       Z      )
     2.94435929E-04    2          25        25   # BR(H -> h       h      )
     5.14081187E-24    2          36        36   # BR(H -> A       A      )
     8.83683361E-19    2          23        36   # BR(H -> Z       A      )
     1.19025899E-03    2     1000024  -1000024   # BR(H -> ~chi_1+ ~chi_1-)
     1.28795597E-03    2     1000022   1000022   # BR(H -> ~chi_10 ~chi_10)
     6.58771948E-05    2     1000023   1000023   # BR(H -> ~chi_20 ~chi_20)
     2.34627567E-04    2     1000025   1000025   # BR(H -> ~chi_30 ~chi_30)
     2.00599774E-01    2     1000022   1000023   # BR(H -> ~chi_10 ~chi_20)
     1.34726579E-01    2     1000022   1000025   # BR(H -> ~chi_10 ~chi_30)
     2.16256075E-04    2     1000023   1000025   # BR(H -> ~chi_20 ~chi_30)
#
#         PDG            Width
DECAY        36     7.80913965E+00   # A decays
#          BR         NDA      ID1       ID2
     4.14982104E-01    2           5        -5   # BR(A -> b       bb     )
     7.13922070E-02    2         -15        15   # BR(A -> tau+    tau-   )
     2.52448162E-04    2         -13        13   # BR(A -> mu+     mu-    )
     3.09688816E-04    2           3        -3   # BR(A -> s       sb     )
     1.73568801E-06    2           4        -4   # BR(A -> c       cb     )
     1.73313302E-01    2           6        -6   # BR(A -> t       tb     )
     1.71558648E-04    2          21        21   # BR(A -> g       g      )
     5.27411150E-07    2          22        22   # BR(A -> gam     gam    )
     2.07686288E-07    2          23        22   # BR(A -> Z       gam    )
     7.76576984E-05    2          23        25   # BR(A -> Z       h      )
     2.91313847E-03    2     1000024  -1000024   # BR(A -> ~chi_1+ ~chi_1-)
     1.31655962E-03    2     1000022   1000022   # BR(A -> ~chi_10 ~chi_10)
     1.19257717E-04    2     1000023   1000023   # BR(A -> ~chi_20 ~chi_20)
     9.99586773E-04    2     1000025   1000025   # BR(A -> ~chi_30 ~chi_30)
     1.36110511E-01    2     1000022   1000023   # BR(A -> ~chi_10 ~chi_20)
     1.98013039E-01    2     1000022   1000025   # BR(A -> ~chi_10 ~chi_30)
     2.64703180E-05    2     1000023   1000025   # BR(A -> ~chi_20 ~chi_30)
#
#         PDG            Width
DECAY        37     7.75905928E+00   # H+ decays
#          BR         NDA      ID1       ID2
     6.66462415E-04    2           4        -5   # BR(H+ -> c       bb     )
     7.18737290E-02    2         -15        16   # BR(H+ -> tau+    nu_tau )
     2.54150859E-04    2         -13        14   # BR(H+ -> mu+     nu_mu  )
     4.26533738E-06    2           2        -5   # BR(H+ -> u       bb     )
     1.49130482E-05    2           2        -3   # BR(H+ -> u       sb     )
     3.08400447E-04    2           4        -3   # BR(H+ -> c       sb     )
     5.87325724E-01    2           6        -5   # BR(H+ -> t       bb     )
     7.82767799E-05    2          24        25   # BR(H+ -> W+      h      )
     8.21788191E-14    2          24        36   # BR(H+ -> W+      A      )
     3.38906616E-01    2     1000024   1000022   # BR(H+ -> ~chi_1+ ~chi_10)
     5.06117474E-04    2     1000024   1000023   # BR(H+ -> ~chi_1+ ~chi_20)
     6.13444968E-05    2     1000024   1000025   # BR(H+ -> ~chi_1+ ~chi_30)
