#
#                              ======================
#                              | THE SUSYHIT OUTPUT |
#                              ======================
#
#
#              ------------------------------------------------------
#              |     This is the output of the SUSY-HIT package     |
#              |  created by A.Djouadi, M.Muehlleitner and M.Spira. |
#              |  In case of problems with SUSY-HIT email to        |
#              |           margarete.muehlleitner@cern.ch           |
#              |           michael.spira@psi.ch                     |
#              |           abdelhak.djouadi@cern.ch                 |
#              ------------------------------------------------------
#
#              ------------------------------------------------------
#              |  SUSY Les Houches Accord - MSSM Spectrum + Decays  |
#              |              based on the decay programs           |
#              |                                                    |
#              |                     SDECAY 1.3b                    |
#              |                                                    |
#              |  Authors: M.Muhlleitner, A.Djouadi and Y.Mambrini  |
#              |  Ref.:    Comput.Phys.Commun.168(2005)46           |
#              |           [hep-ph/0311167]                         |
#              |                                                    |
#              |                     HDECAY 3.4                     |
#              |                                                    |
#              |  By: A.Djouadi,J.Kalinowski,M.Muhlleitner,M.Spira  |
#              |  Ref.:    Comput.Phys.Commun.108(1998)56           |
#              |           [hep-ph/9704448]                         |
#              |                                                    |
#              |                                                    |
#              |  If not stated otherwise all DRbar couplings and   |
#              |  soft SUSY breaking masses are given at the scale  |
#              |  Q=  0.50006952E+04
#              |                                                    |
#              ------------------------------------------------------
#
#
BLOCK DCINFO  # Decay Program information
     1   SDECAY/HDECAY # decay calculator
     2   1.3b  /3.4    # version number
#
BLOCK SPINFO  # Spectrum calculator information
     1    SOFTSUSY    # spectrum calculator                
     2    3.4.0       # version number                     
#
BLOCK MODSEL  # Model selection
     1     0   #  nonUniversal                                     
#
BLOCK SMINPUTS  # Standard Model inputs
         1     1.25778332E+02   # alpha_em^-1(M_Z)^MSbar
         2     1.16570000E-05   # G_F [GeV^-2]
         3     1.17200002E-01   # alpha_S(M_Z)^MSbar
         4     9.11876000E+01   # M_Z pole mass
         5     4.25000000E+00   # mb(mb)^MSbar
         6     1.72500000E+02   # mt pole mass
         7     1.77682000E+00   # mtau pole mass
#
BLOCK MINPAR  # Input parameters - minimal models
         3     1.00000000E+01   # tanb                
#
BLOCK EXTPAR  # Input parameters - non-minimal models
         0    -1.00000000E+00   # Set                 
         1     6.00000000E+01   # M_1(MX)             
         2     3.00000000E+03   # M_2(MX)             
         3     1.03378000E+03   # M_3(MX)             
        11     5.00000000E+03   # At(MX)              
        12     5.00000000E+03   # Ab(MX)              
        13     0.00000000E+00   # Atau(MX)            
        23    -1.83926900E+03   # mu(MX)              
        26     3.00000000E+03   # mA(pole)            
        31     5.00000000E+03   # meL(MX)             
        32     5.00000000E+03   # mmuL(MX)            
        33     5.00000000E+03   # mtauL(MX)           
        34     5.00000000E+03   # meR(MX)             
        35     5.00000000E+03   # mmuR(MX)            
        36     5.00000000E+03   # mtauR(MX)           
        41     5.00000000E+03   # mqL1(MX)            
        42     5.00000000E+03   # mqL2(MX)            
        43     5.00000000E+03   # mqL3(MX)            
        44     5.00000000E+03   # muR(MX)             
        45     5.00000000E+03   # mcR(MX)             
        46     5.00000000E+03   # mtR(MX)             
        47     5.00000000E+03   # mdR(MX)             
        48     5.00000000E+03   # msR(MX)             
        49     5.00000000E+03   # mbR(MX)             
#
BLOCK MASS  # Mass Spectrum
# PDG code           mass       particle
        24     8.00956130E+01   # W+
        25     1.24522273E+02   # h
        35     3.00007699E+03   # H
        36     2.99999995E+03   # A
        37     3.00087382E+03   # H+
         5     4.87878001E+00   # b-quark pole mass calculated from mb(mb)_Msbar
   1000001     5.06522284E+03   # ~d_L
   2000001     5.04743348E+03   # ~d_R
   1000002     5.06474653E+03   # ~u_L
   2000002     5.04716361E+03   # ~u_R
   1000003     5.06522284E+03   # ~s_L
   2000003     5.04743348E+03   # ~s_R
   1000004     5.06474653E+03   # ~c_L
   2000004     5.04716361E+03   # ~c_R
   1000005     5.01214212E+03   # ~b_1
   2000005     5.04666672E+03   # ~b_2
   1000006     4.90361287E+03   # ~t_1
   2000006     5.05996300E+03   # ~t_2
   1000011     5.01903834E+03   # ~e_L
   2000011     5.00590316E+03   # ~e_R
   1000012     5.01809015E+03   # ~nu_eL
   1000013     5.01903834E+03   # ~mu_L
   2000013     5.00590316E+03   # ~mu_R
   1000014     5.01809015E+03   # ~nu_muL
   1000015     5.00412507E+03   # ~tau_1
   2000015     5.01926213E+03   # ~tau_2
   1000016     5.01755935E+03   # ~nu_tauL
   1000021     1.30000108E+03   # ~g
   1000022     6.02999616E+01   # ~chi_10
   1000023     1.89938913E+03   # ~chi_20
   1000025    -1.90224377E+03   # ~chi_30
   1000035     3.07443358E+03   # ~chi_40
   1000024     1.90000033E+03   # ~chi_1+
   1000037     3.07460139E+03   # ~chi_2+
#
BLOCK NMIX  # Neutralino Mixing Matrix
  1  1     9.99722478E-01   # N_11
  1  2     1.16339116E-04   # N_12
  1  3    -2.34944419E-02   # N_13
  1  4     1.72179082E-03   # N_14
  2  1     1.53889702E-02   # N_21
  2  2     4.14240552E-02   # N_22
  2  3     7.06771699E-01   # N_23
  2  4     7.06060190E-01   # N_24
  3  1    -1.78285757E-02   # N_31
  3  2     1.21866076E-02   # N_32
  3  3    -7.06748945E-01   # N_33
  3  4     7.07134752E-01   # N_34
  4  1    -5.37011380E-04   # N_41
  4  2     9.99067325E-01   # N_42
  4  3    -2.06810332E-02   # N_43
  4  4    -3.79009996E-02   # N_44
#
BLOCK UMIX  # Chargino Mixing Matrix U
  1  1     2.92087109E-02   # U_11
  1  2     9.99573335E-01   # U_12
  2  1    -9.99573335E-01   # U_21
  2  2     2.92087109E-02   # U_22
#
BLOCK VMIX  # Chargino Mixing Matrix V
  1  1     5.35642337E-02   # V_11
  1  2    -9.98564406E-01   # V_12
  2  1    -9.98564406E-01   # V_21
  2  2    -5.35642337E-02   # V_22
#
BLOCK STOPMIX  # Stop Mixing Matrix
  1  1    -5.17603452E-01   # cos(theta_t)
  1  2     8.55620632E-01   # sin(theta_t)
  2  1    -8.55620632E-01   # -sin(theta_t)
  2  2    -5.17603452E-01   # cos(theta_t)
#
BLOCK SBOTMIX  # Sbottom Mixing Matrix
  1  1     9.91508721E-01   # cos(theta_b)
  1  2    -1.30040210E-01   # sin(theta_b)
  2  1     1.30040210E-01   # -sin(theta_b)
  2  2     9.91508721E-01   # cos(theta_b)
#
BLOCK STAUMIX  # Stau Mixing Matrix
  1  1    -2.08915730E-01   # cos(theta_tau)
  1  2     9.77933647E-01   # sin(theta_tau)
  2  1    -9.77933647E-01   # -sin(theta_tau)
  2  2    -2.08915730E-01   # cos(theta_tau)
#
BLOCK ALPHA  # Higgs mixing
          -1.05428764E-01   # Mixing angle in the neutral Higgs boson sector
#
BLOCK HMIX Q=  5.00069518E+03  # DRbar Higgs Parameters
         1    -1.87242478E+03   # mu(Q)MSSM           
         2     9.47320050E+00   # tan                 
         3     2.42075815E+02   # higgs               
         4     8.33213847E+06   # mA^2(Q)MSSM         
#
BLOCK GAUGE Q=  5.00069518E+03  # The gauge couplings
     1     3.70659790E-01   # gprime(Q) DRbar
     2     6.31856931E-01   # g(Q) DRbar
     3     1.00478877E+00   # g3(Q) DRbar
#
BLOCK AU Q=  5.00069518E+03  # The trilinear couplings
  1  1     5.00000001E+03   # A_u(Q) DRbar
  2  2     5.00000001E+03   # A_c(Q) DRbar
  3  3     5.00000001E+03   # A_t(Q) DRbar
#
BLOCK AD Q=  5.00069518E+03  # The trilinear couplings
  1  1     5.00000000E+03   # A_d(Q) DRbar
  2  2     5.00000000E+03   # A_s(Q) DRbar
  3  3     5.00000001E+03   # A_b(Q) DRbar
#
BLOCK AE Q=  5.00069518E+03  # The trilinear couplings
  1  1     0.00000000E+00   # A_e(Q) DRbar
  2  2     6.69175039E-08   # A_mu(Q) DRbar
  3  3     6.61353611E-08   # A_tau(Q) DRbar
#
BLOCK Yu Q=  5.00069518E+03  # The Yukawa couplings
  1  1     0.00000000E+00   # y_u(Q) DRbar
  2  2     0.00000000E+00   # y_c(Q) DRbar
  3  3     8.15988705E-01   # y_t(Q) DRbar
#
BLOCK Yd Q=  5.00069518E+03  # The Yukawa couplings
  1  1     0.00000000E+00   # y_d(Q) DRbar
  2  2     0.00000000E+00   # y_s(Q) DRbar
  3  3     1.30680408E-01   # y_b(Q) DRbar
#
BLOCK Ye Q=  5.00069518E+03  # The Yukawa couplings
  1  1     0.00000000E+00   # y_e(Q) DRbar
  2  2     0.00000000E+00   # y_mu(Q) DRbar
  3  3     9.64974832E-02   # y_tau(Q) DRbar
#
BLOCK MSOFT Q=  5.00069518E+03  # The soft SUSY breaking masses at the scale Q
         1     6.00000000E+01   # M_1(Q)              
         2     3.00000000E+03   # M_2(Q)              
         3     1.03378000E+03   # M_3(Q)              
        21     5.14190085E+06   # mH1^2(Q)            
        22    -2.97474433E+06   # mH2^2(Q)            
        31     5.00000000E+03   # meL(Q)              
        32     5.00000000E+03   # mmuL(Q)             
        33     5.00000000E+03   # mtauL(Q)            
        34     5.00000000E+03   # meR(Q)              
        35     5.00000000E+03   # mmuR(Q)             
        36     5.00000000E+03   # mtauR(Q)            
        41     5.00000000E+03   # mqL1(Q)             
        42     5.00000000E+03   # mqL2(Q)             
        43     5.00000000E+03   # mqL3(Q)             
        44     5.00000000E+03   # muR(Q)              
        45     5.00000000E+03   # mcR(Q)              
        46     5.00000000E+03   # mtR(Q)              
        47     5.00000000E+03   # mdR(Q)              
        48     5.00000000E+03   # msR(Q)              
        49     5.00000000E+03   # mbR(Q)              
#
#
#
#                             =================
#                             |The decay table|
#                             =================
#
# - The QCD corrections to the decays gluino -> squark  + quark
#                                     squark -> gaugino + quark_prime
#                                     squark -> squark_prime + Higgs
#                                     squark -> gluino  + quark
#   are included.
#
# - The multi-body decays for the inos, stops and sbottoms are included.
#
# - The loop induced decays for the gluino, neutralinos and stops
#   are included.
#
# - The SUSY decays of the top quark are included.
#
#
#         PDG            Width
DECAY         6     1.39905683E+00   # top decays
#          BR         NDA      ID1       ID2
     1.00000000E+00    2           5        24   # BR(t ->  b    W+)
#
#         PDG            Width
DECAY   1000021     3.27417001E-05   # gluino decays
#          BR         NDA      ID1       ID2
     1.35434803E-05    2     1000022        21   # BR(~g -> ~chi_10 g)
#           BR         NDA      ID1       ID2       ID3
     7.94755856E-02    3     1000022         1        -1   # BR(~g -> ~chi_10 d  db)
     2.70910563E-01    3     1000022         2        -2   # BR(~g -> ~chi_10 u  ub)
     7.94755856E-02    3     1000022         3        -3   # BR(~g -> ~chi_10 s  sb)
     2.70910563E-01    3     1000022         4        -4   # BR(~g -> ~chi_10 c  cb)
     8.03717850E-02    3     1000022         5        -5   # BR(~g -> ~chi_10 b  bb)
     2.18842374E-01    3     1000022         6        -6   # BR(~g -> ~chi_10 t  tb)
#
#         PDG            Width
DECAY   1000006     3.73935334E+02   # stop1 decays
#          BR         NDA      ID1       ID2
     2.33113268E-02    2     1000022         6   # BR(~t_1 -> ~chi_10 t )
     6.32568413E-02    2     1000023         6   # BR(~t_1 -> ~chi_20 t )
     6.06634124E-02    2     1000025         6   # BR(~t_1 -> ~chi_30 t )
     6.17811814E-03    2     1000035         6   # BR(~t_1 -> ~chi_40 t )
     8.94554343E-02    2     1000024         5   # BR(~t_1 -> ~chi_1+ b )
     1.22536630E-02    2     1000037         5   # BR(~t_1 -> ~chi_2+ b )
     7.44881204E-01    2     1000021         6   # BR(~t_1 -> ~g      t )
#
#         PDG            Width
DECAY   2000006     3.84126385E+02   # stop2 decays
#          BR         NDA      ID1       ID2
     9.51994017E-03    2     1000022         6   # BR(~t_2 -> ~chi_10 t )
     6.46412351E-02    2     1000023         6   # BR(~t_2 -> ~chi_20 t )
     6.74069933E-02    2     1000025         6   # BR(~t_2 -> ~chi_30 t )
     1.37968326E-02    2     1000035         6   # BR(~t_2 -> ~chi_40 t )
     4.14724894E-02    2     1000024         5   # BR(~t_2 -> ~chi_1+ b )
     2.73035352E-02    2     1000037         5   # BR(~t_2 -> ~chi_2+ b )
     7.72371075E-01    2     1000021         6   # BR(~t_2 -> ~g      t )
     7.42293475E-04    2     1000006        25   # BR(~t_2 -> ~t_1    h )
     2.74560603E-03    2     1000006        23   # BR(~t_2 -> ~t_1    Z )
#
#         PDG            Width
DECAY   1000005     3.63270177E+02   # sbottom1 decays
#          BR         NDA      ID1       ID2
     2.18988416E-03    2     1000022         5   # BR(~b_1 -> ~chi_10 b )
     1.85974604E-03    2     1000023         5   # BR(~b_1 -> ~chi_20 b )
     1.69439963E-03    2     1000025         5   # BR(~b_1 -> ~chi_30 b )
     2.03399546E-02    2     1000035         5   # BR(~b_1 -> ~chi_40 b )
     1.32456967E-01    2    -1000024         6   # BR(~b_1 -> ~chi_1- t )
     4.10748024E-02    2    -1000037         6   # BR(~b_1 -> ~chi_2- t )
     7.98878050E-01    2     1000021         5   # BR(~b_1 -> ~g      b )
     1.50619544E-03    2     1000006       -24   # BR(~b_1 -> ~t_1    W-)
#
#         PDG            Width
DECAY   2000005     2.99267568E+02   # sbottom2 decays
#          BR         NDA      ID1       ID2
     9.75019559E-03    2     1000022         5   # BR(~b_2 -> ~chi_10 b )
     2.04874067E-03    2     1000023         5   # BR(~b_2 -> ~chi_20 b )
     2.18860453E-03    2     1000025         5   # BR(~b_2 -> ~chi_30 b )
     4.67407863E-04    2     1000035         5   # BR(~b_2 -> ~chi_40 b )
     6.94576532E-03    2    -1000024         6   # BR(~b_2 -> ~chi_1- t )
     9.42916075E-04    2    -1000037         6   # BR(~b_2 -> ~chi_2- t )
     9.77524375E-01    2     1000021         5   # BR(~b_2 -> ~g      b )
     1.31994752E-04    2     1000006       -24   # BR(~b_2 -> ~t_1    W-)
#
#         PDG            Width
DECAY   1000002     3.17999537E+02   # sup_L decays
#          BR         NDA      ID1       ID2
     2.34952922E-03    2     1000022         2   # BR(~u_L -> ~chi_10 u)
     8.95903303E-05    2     1000023         2   # BR(~u_L -> ~chi_20 u)
     3.43160487E-06    2     1000025         2   # BR(~u_L -> ~chi_30 u)
     2.44981243E-02    2     1000035         2   # BR(~u_L -> ~chi_40 u)
     2.60335842E-04    2     1000024         1   # BR(~u_L -> ~chi_1+ d)
     4.89510218E-02    2     1000037         1   # BR(~u_L -> ~chi_2+ d)
     9.23847967E-01    2     1000021         2   # BR(~u_L -> ~g      u)
#
#         PDG            Width
DECAY   2000002     3.04378538E+02   # sup_R decays
#          BR         NDA      ID1       ID2
     3.90911786E-02    2     1000022         2   # BR(~u_R -> ~chi_10 u)
     6.82910389E-06    2     1000023         2   # BR(~u_R -> ~chi_20 u)
     9.15686219E-06    2     1000025         2   # BR(~u_R -> ~chi_30 u)
     4.47272609E-09    2     1000035         2   # BR(~u_R -> ~chi_40 u)
     9.60892831E-01    2     1000021         2   # BR(~u_R -> ~g      u)
#
#         PDG            Width
DECAY   1000001     3.18012397E+02   # sdown_L decays
#          BR         NDA      ID1       ID2
     2.34406950E-03    2     1000022         1   # BR(~d_L -> ~chi_10 d)
     6.69722804E-05    2     1000023         1   # BR(~d_L -> ~chi_20 d)
     1.11368302E-05    2     1000025         1   # BR(~d_L -> ~chi_30 d)
     2.45150855E-02    2     1000035         1   # BR(~d_L -> ~chi_40 d)
     7.74210438E-05    2    -1000024         2   # BR(~d_L -> ~chi_1- u)
     4.90633198E-02    2    -1000037         2   # BR(~d_L -> ~chi_2- u)
     9.23921995E-01    2     1000021         1   # BR(~d_L -> ~g      d)
#
#         PDG            Width
DECAY   2000001     2.95471244E+02   # sdown_R decays
#          BR         NDA      ID1       ID2
     1.00679469E-02    2     1000022         1   # BR(~d_R -> ~chi_10 d)
     1.75889980E-06    2     1000023         1   # BR(~d_R -> ~chi_20 d)
     2.35843609E-06    2     1000025         1   # BR(~d_R -> ~chi_30 d)
     1.15209631E-09    2     1000035         1   # BR(~d_R -> ~chi_40 d)
     9.89927935E-01    2     1000021         1   # BR(~d_R -> ~g      d)
#
#         PDG            Width
DECAY   1000004     3.17999537E+02   # scharm_L decays
#          BR         NDA      ID1       ID2
     2.34952922E-03    2     1000022         4   # BR(~c_L -> ~chi_10 c)
     8.95903303E-05    2     1000023         4   # BR(~c_L -> ~chi_20 c)
     3.43160487E-06    2     1000025         4   # BR(~c_L -> ~chi_30 c)
     2.44981243E-02    2     1000035         4   # BR(~c_L -> ~chi_40 c)
     2.60335842E-04    2     1000024         3   # BR(~c_L -> ~chi_1+ s)
     4.89510218E-02    2     1000037         3   # BR(~c_L -> ~chi_2+ s)
     9.23847967E-01    2     1000021         4   # BR(~c_L -> ~g      c)
#
#         PDG            Width
DECAY   2000004     3.04378538E+02   # scharm_R decays
#          BR         NDA      ID1       ID2
     3.90911786E-02    2     1000022         4   # BR(~c_R -> ~chi_10 c)
     6.82910389E-06    2     1000023         4   # BR(~c_R -> ~chi_20 c)
     9.15686219E-06    2     1000025         4   # BR(~c_R -> ~chi_30 c)
     4.47272609E-09    2     1000035         4   # BR(~c_R -> ~chi_40 c)
     9.60892831E-01    2     1000021         4   # BR(~c_R -> ~g      c)
#
#         PDG            Width
DECAY   1000003     3.18012397E+02   # sstrange_L decays
#          BR         NDA      ID1       ID2
     2.34406950E-03    2     1000022         3   # BR(~s_L -> ~chi_10 s)
     6.69722804E-05    2     1000023         3   # BR(~s_L -> ~chi_20 s)
     1.11368302E-05    2     1000025         3   # BR(~s_L -> ~chi_30 s)
     2.45150855E-02    2     1000035         3   # BR(~s_L -> ~chi_40 s)
     7.74210438E-05    2    -1000024         4   # BR(~s_L -> ~chi_1- c)
     4.90633198E-02    2    -1000037         4   # BR(~s_L -> ~chi_2- c)
     9.23921995E-01    2     1000021         3   # BR(~s_L -> ~g      s)
#
#         PDG            Width
DECAY   2000003     2.95471244E+02   # sstrange_R decays
#          BR         NDA      ID1       ID2
     1.00679469E-02    2     1000022         3   # BR(~s_R -> ~chi_10 s)
     1.75889980E-06    2     1000023         3   # BR(~s_R -> ~chi_20 s)
     2.35843609E-06    2     1000025         3   # BR(~s_R -> ~chi_30 s)
     1.15209631E-09    2     1000035         3   # BR(~s_R -> ~chi_40 s)
     9.89927935E-01    2     1000021         3   # BR(~s_R -> ~g      s)
#
#         PDG            Width
DECAY   1000011     3.02251903E+01   # selectron_L decays
#          BR         NDA      ID1       ID2
     2.26834125E-01    2     1000022        11   # BR(~e_L -> ~chi_10 e-)
     1.23220244E-03    2     1000023        11   # BR(~e_L -> ~chi_20 e-)
     1.44407595E-06    2     1000025        11   # BR(~e_L -> ~chi_30 e-)
     2.56776384E-01    2     1000035        11   # BR(~e_L -> ~chi_40 e-)
     8.25837691E-04    2    -1000024        12   # BR(~e_L -> ~chi_1- nu_e)
     5.14330006E-01    2    -1000037        12   # BR(~e_L -> ~chi_2- nu_e)
#
#         PDG            Width
DECAY   2000011     2.73528757E+01   # selectron_R decays
#          BR         NDA      ID1       ID2
     9.99593481E-01    2     1000022        11   # BR(~e_R -> ~chi_10 e-)
     1.73616364E-04    2     1000023        11   # BR(~e_R -> ~chi_20 e-)
     2.32790528E-04    2     1000025        11   # BR(~e_R -> ~chi_30 e-)
     1.11908329E-07    2     1000035        11   # BR(~e_R -> ~chi_40 e-)
#
#         PDG            Width
DECAY   1000013     3.02251903E+01   # smuon_L decays
#          BR         NDA      ID1       ID2
     2.26834125E-01    2     1000022        13   # BR(~mu_L -> ~chi_10 mu-)
     1.23220244E-03    2     1000023        13   # BR(~mu_L -> ~chi_20 mu-)
     1.44407595E-06    2     1000025        13   # BR(~mu_L -> ~chi_30 mu-)
     2.56776384E-01    2     1000035        13   # BR(~mu_L -> ~chi_40 mu-)
     8.25837691E-04    2    -1000024        14   # BR(~mu_L -> ~chi_1- nu_mu)
     5.14330006E-01    2    -1000037        14   # BR(~mu_L -> ~chi_2- nu_mu)
#
#         PDG            Width
DECAY   2000013     2.73528757E+01   # smuon_R decays
#          BR         NDA      ID1       ID2
     9.99593481E-01    2     1000022        13   # BR(~mu_R -> ~chi_10 mu-)
     1.73616364E-04    2     1000023        13   # BR(~mu_R -> ~chi_20 mu-)
     2.32790528E-04    2     1000025        13   # BR(~mu_R -> ~chi_30 mu-)
     1.11908329E-07    2     1000035        13   # BR(~mu_R -> ~chi_40 mu-)
#
#         PDG            Width
DECAY   1000015     2.88295868E+01   # stau_1 decays
#          BR         NDA      ID1       ID2
     9.17879037E-01    2     1000022        15   # BR(~tau_1 -> ~chi_10  tau-)
     1.30023306E-02    2     1000023        15   # BR(~tau_1 -> ~chi_20  tau-)
     1.12529626E-02    2     1000025        15   # BR(~tau_1 -> ~chi_30  tau-)
     1.11490890E-02    2     1000035        15   # BR(~tau_1 -> ~chi_40  tau-)
     2.43826281E-02    2    -1000024        16   # BR(~tau_1 -> ~chi_1-  nu_tau)
     2.23339532E-02    2    -1000037        16   # BR(~tau_1 -> ~chi_2-  nu_tau)
#
#         PDG            Width
DECAY   2000015     3.07748646E+01   # stau_2 decays
#          BR         NDA      ID1       ID2
     2.51179899E-01    2     1000022        15   # BR(~tau_2 -> ~chi_10  tau-)
     1.12837310E-02    2     1000023        15   # BR(~tau_2 -> ~chi_20  tau-)
     1.17505514E-02    2     1000025        15   # BR(~tau_2 -> ~chi_30  tau-)
     2.41684186E-01    2     1000035        15   # BR(~tau_2 -> ~chi_40  tau-)
     1.05297733E-05    2    -1000024        16   # BR(~tau_2 -> ~chi_1-  nu_tau)
     4.84091104E-01    2    -1000037        16   # BR(~tau_2 -> ~chi_2-  nu_tau)
#
#         PDG            Width
DECAY   1000012     3.02264322E+01   # snu_eL decays
#          BR         NDA      ID1       ID2
     2.26602048E-01    2     1000022        12   # BR(~nu_eL -> ~chi_10 nu_e)
     5.07898529E-04    2     1000023        12   # BR(~nu_eL -> ~chi_20 nu_e)
     2.47909981E-04    2     1000025        12   # BR(~nu_eL -> ~chi_30 nu_e)
     2.56924644E-01    2     1000035        12   # BR(~nu_eL -> ~chi_40 nu_e)
     2.77629044E-03    2     1000024        11   # BR(~nu_eL -> ~chi_1+ e-)
     5.12941209E-01    2     1000037        11   # BR(~nu_eL -> ~chi_2+ e-)
#
#         PDG            Width
DECAY   1000014     3.02264322E+01   # snu_muL decays
#          BR         NDA      ID1       ID2
     2.26602048E-01    2     1000022        14   # BR(~nu_muL -> ~chi_10 nu_mu)
     5.07898529E-04    2     1000023        14   # BR(~nu_muL -> ~chi_20 nu_mu)
     2.47909981E-04    2     1000025        14   # BR(~nu_muL -> ~chi_30 nu_mu)
     2.56924644E-01    2     1000035        14   # BR(~nu_muL -> ~chi_40 nu_mu)
     2.77629044E-03    2     1000024        13   # BR(~nu_muL -> ~chi_1+ mu-)
     5.12941209E-01    2     1000037        13   # BR(~nu_muL -> ~chi_2+ mu-)
#
#         PDG            Width
DECAY   1000016     3.08991358E+01   # snu_tauL decays
#          BR         NDA      ID1       ID2
     2.21645244E-01    2     1000022        16   # BR(~nu_tauL -> ~chi_10 nu_tau)
     4.96753384E-04    2     1000023        16   # BR(~nu_tauL -> ~chi_20 nu_tau)
     2.42469872E-04    2     1000025        16   # BR(~nu_tauL -> ~chi_30 nu_tau)
     2.51240661E-01    2     1000035        16   # BR(~nu_tauL -> ~chi_40 nu_tau)
     2.47749867E-02    2     1000024        15   # BR(~nu_tauL -> ~chi_1+ tau-)
     5.01599884E-01    2     1000037        15   # BR(~nu_tauL -> ~chi_2+ tau-)
#
#         PDG            Width
DECAY   1000024     1.17323171E+00   # chargino1+ decays
#          BR         NDA      ID1       ID2
     1.00000000E+00    2     1000022        24   # BR(~chi_1+ -> ~chi_10  W+)
#
#         PDG            Width
DECAY   1000037     1.61088346E+01   # chargino2+ decays
#          BR         NDA      ID1       ID2
     2.52112933E-01    2     1000024        23   # BR(~chi_2+ -> ~chi_1+  Z )
     4.06577914E-04    2     1000022        24   # BR(~chi_2+ -> ~chi_10  W+)
     2.44910142E-01    2     1000023        24   # BR(~chi_2+ -> ~chi_20  W+)
     2.43051802E-01    2     1000025        24   # BR(~chi_2+ -> ~chi_30  W+)
     2.59518458E-01    2     1000024        25   # BR(~chi_2+ -> ~chi_1+  h )
     8.63725856E-08    2     1000022        37   # BR(~chi_2+ -> ~chi_10  H+)
#
#         PDG            Width
DECAY   1000022     0.00000000E+00   # neutralino1 decays
#
#         PDG            Width
DECAY   1000023     1.23517944E+00   # neutralino2 decays
#          BR         NDA      ID1       ID2
     5.64047475E-01    2     1000022        23   # BR(~chi_20 -> ~chi_10   Z )
     4.35952525E-01    2     1000022        25   # BR(~chi_20 -> ~chi_10   h )
#
#         PDG            Width
DECAY   1000025     1.24992794E+00   # neutralino3 decays
#          BR         NDA      ID1       ID2
     4.17058982E-01    2     1000022        23   # BR(~chi_30 -> ~chi_10   Z )
     5.82941018E-01    2     1000022        25   # BR(~chi_30 -> ~chi_10   h )
#
#         PDG            Width
DECAY   1000035     1.60756300E+01   # neutralino4 decays
#          BR         NDA      ID1       ID2
     1.76067748E-04    2     1000022        23   # BR(~chi_40 -> ~chi_10   Z )
     2.03990835E-02    2     1000023        23   # BR(~chi_40 -> ~chi_20   Z )
     2.31981955E-01    2     1000025        23   # BR(~chi_40 -> ~chi_30   Z )
     2.43796134E-01    2     1000024       -24   # BR(~chi_40 -> ~chi_1+   W-)
     2.43796134E-01    2    -1000024        24   # BR(~chi_40 -> ~chi_1-   W+)
     2.45968442E-04    2     1000022        25   # BR(~chi_40 -> ~chi_10   h )
     7.13877732E-08    2     1000022        35   # BR(~chi_40 -> ~chi_10   H )
     1.82503174E-08    2     1000022        36   # BR(~chi_40 -> ~chi_10   A )
     2.39425325E-01    2     1000023        25   # BR(~chi_40 -> ~chi_20   h )
     2.01792436E-02    2     1000025        25   # BR(~chi_40 -> ~chi_30   h )
#
#         PDG            Width
DECAY        25     4.01998001E-03   # h decays
#          BR         NDA      ID1       ID2
     6.11703598E-01    2           5        -5   # BR(h -> b       bb     )
     6.43807167E-02    2         -15        15   # BR(h -> tau+    tau-   )
     2.27932262E-04    2         -13        13   # BR(h -> mu+     mu-    )
     4.83393629E-04    2           3        -3   # BR(h -> s       sb     )
     2.09495491E-02    2           4        -4   # BR(h -> c       cb     )
     6.74746105E-02    2          21        21   # BR(h -> g       g      )
     2.31443374E-03    2          22        22   # BR(h -> gam     gam    )
     1.47099879E-03    2          22        23   # BR(h -> Z       gam    )
     2.06472381E-01    2          24       -24   # BR(h -> W+      W-     )
     2.45015323E-02    2          23        23   # BR(h -> Z       Z      )
     2.08535384E-05    2     1000022   1000022   # BR(h -> ~chi_10 ~chi_10)
#
#         PDG            Width
DECAY        35     6.52342722E+00   # H decays
#          BR         NDA      ID1       ID2
     5.03115907E-01    2           5        -5   # BR(H -> b       bb     )
     8.54622463E-02    2         -15        15   # BR(H -> tau+    tau-   )
     3.02201291E-04    2         -13        13   # BR(H -> mu+     mu-    )
     3.70452629E-04    2           3        -3   # BR(H -> s       sb     )
     2.06893916E-06    2           4        -4   # BR(H -> c       cb     )
     2.06703401E-01    2           6        -6   # BR(H -> t       tb     )
     6.85453414E-05    2          21        21   # BR(H -> g       g      )
     3.92227258E-07    2          22        22   # BR(H -> gam     gam    )
     1.22016047E-07    2          23        22   # BR(H -> Z       gam    )
     8.94974547E-05    2          24       -24   # BR(H -> W+      W-     )
     4.46920886E-05    2          23        23   # BR(H -> Z       Z      )
     3.45337040E-04    2          25        25   # BR(H -> h       h      )
    -2.05668885E-24    2          36        36   # BR(H -> A       A      )
     9.28510096E-19    2          23        36   # BR(H -> Z       A      )
     6.13937309E-04    2     1000022   1000022   # BR(H -> ~chi_10 ~chi_10)
     1.19028541E-01    2     1000022   1000023   # BR(H -> ~chi_10 ~chi_20)
     8.38526584E-02    2     1000022   1000025   # BR(H -> ~chi_10 ~chi_30)
#
#         PDG            Width
DECAY        36     6.52668784E+00   # A decays
#          BR         NDA      ID1       ID2
     5.03033034E-01    2           5        -5   # BR(A -> b       bb     )
     8.54221232E-02    2         -15        15   # BR(A -> tau+    tau-   )
     3.02058991E-04    2         -13        13   # BR(A -> mu+     mu-    )
     3.70548511E-04    2           3        -3   # BR(A -> s       sb     )
     2.07669553E-06    2           4        -4   # BR(A -> c       cb     )
     2.07363857E-01    2           6        -6   # BR(A -> t       tb     )
     2.05266270E-04    2          21        21   # BR(A -> g       g      )
     3.93153451E-07    2          22        22   # BR(A -> gam     gam    )
     2.48598080E-07    2          23        22   # BR(A -> Z       gam    )
     8.91169571E-05    2          23        25   # BR(A -> Z       h      )
     6.33983064E-04    2     1000022   1000022   # BR(A -> ~chi_10 ~chi_10)
     8.48554315E-02    2     1000022   1000023   # BR(A -> ~chi_10 ~chi_20)
     1.17721863E-01    2     1000022   1000025   # BR(A -> ~chi_10 ~chi_30)
#
#         PDG            Width
DECAY        37     6.51750297E+00   # H+ decays
#          BR         NDA      ID1       ID2
     8.08554539E-04    2           4        -5   # BR(H+ -> c       bb     )
     8.55674232E-02    2         -15        16   # BR(H+ -> tau+    nu_tau )
     3.02572782E-04    2         -13        14   # BR(H+ -> mu+     nu_mu  )
     5.17472266E-06    2           2        -5   # BR(H+ -> u       bb     )
     1.77543401E-05    2           2        -3   # BR(H+ -> u       sb     )
     3.67158015E-04    2           4        -3   # BR(H+ -> c       sb     )
     7.08649682E-01    2           6        -5   # BR(H+ -> t       bb     )
     8.93778618E-05    2          24        25   # BR(H+ -> W+      h      )
     1.02760094E-13    2          24        36   # BR(H+ -> W+      A      )
     2.04192302E-01    2     1000024   1000022   # BR(H+ -> ~chi_1+ ~chi_10)
