#
#                              ======================
#                              | THE SUSYHIT OUTPUT |
#                              ======================
#
#
#              ------------------------------------------------------
#              |     This is the output of the SUSY-HIT package     |
#              |  created by A.Djouadi, M.Muehlleitner and M.Spira. |
#              |  In case of problems with SUSY-HIT email to        |
#              |           margarete.muehlleitner@cern.ch           |
#              |           michael.spira@psi.ch                     |
#              |           abdelhak.djouadi@cern.ch                 |
#              ------------------------------------------------------
#
#              ------------------------------------------------------
#              |  SUSY Les Houches Accord - MSSM Spectrum + Decays  |
#              |              based on the decay programs           |
#              |                                                    |
#              |                     SDECAY 1.3b                    |
#              |                                                    |
#              |  Authors: M.Muhlleitner, A.Djouadi and Y.Mambrini  |
#              |  Ref.:    Comput.Phys.Commun.168(2005)46           |
#              |           [hep-ph/0311167]                         |
#              |                                                    |
#              |                     HDECAY 3.4                     |
#              |                                                    |
#              |  By: A.Djouadi,J.Kalinowski,M.Muhlleitner,M.Spira  |
#              |  Ref.:    Comput.Phys.Commun.108(1998)56           |
#              |           [hep-ph/9704448]                         |
#              |                                                    |
#              |                                                    |
#              |  If not stated otherwise all DRbar couplings and   |
#              |  soft SUSY breaking masses are given at the scale  |
#              |  Q=  0.50007019E+04
#              |                                                    |
#              ------------------------------------------------------
#
#
BLOCK DCINFO  # Decay Program information
     1   SDECAY/HDECAY # decay calculator
     2   1.3b  /3.4    # version number
#
BLOCK SPINFO  # Spectrum calculator information
     1    SOFTSUSY    # spectrum calculator                
     2    3.4.0       # version number                     
#
BLOCK MODSEL  # Model selection
     1     0   #  nonUniversal                                     
#
BLOCK SMINPUTS  # Standard Model inputs
         1     1.25778332E+02   # alpha_em^-1(M_Z)^MSbar
         2     1.16570000E-05   # G_F [GeV^-2]
         3     1.17200002E-01   # alpha_S(M_Z)^MSbar
         4     9.11876000E+01   # M_Z pole mass
         5     4.25000000E+00   # mb(mb)^MSbar
         6     1.72500000E+02   # mt pole mass
         7     1.77682000E+00   # mtau pole mass
#
BLOCK MINPAR  # Input parameters - minimal models
         3     1.00000000E+01   # tanb                
#
BLOCK EXTPAR  # Input parameters - non-minimal models
         0    -1.00000000E+00   # Set                 
         1     6.00000000E+01   # M_1(MX)             
         2     3.00000000E+03   # M_2(MX)             
         3     2.62339900E+03   # M_3(MX)             
        11     5.00000000E+03   # At(MX)              
        12     5.00000000E+03   # Ab(MX)              
        13     0.00000000E+00   # Atau(MX)            
        23    -1.93689500E+03   # mu(MX)              
        26     3.00000000E+03   # mA(pole)            
        31     5.00000000E+03   # meL(MX)             
        32     5.00000000E+03   # mmuL(MX)            
        33     5.00000000E+03   # mtauL(MX)           
        34     5.00000000E+03   # meR(MX)             
        35     5.00000000E+03   # mmuR(MX)            
        36     5.00000000E+03   # mtauR(MX)           
        41     5.00000000E+03   # mqL1(MX)            
        42     5.00000000E+03   # mqL2(MX)            
        43     5.00000000E+03   # mqL3(MX)            
        44     5.00000000E+03   # muR(MX)             
        45     5.00000000E+03   # mcR(MX)             
        46     5.00000000E+03   # mtR(MX)             
        47     5.00000000E+03   # mdR(MX)             
        48     5.00000000E+03   # msR(MX)             
        49     5.00000000E+03   # mbR(MX)             
#
BLOCK MASS  # Mass Spectrum
# PDG code           mass       particle
        24     8.00977613E+01   # W+
        25     1.24821613E+02   # h
        35     3.00007629E+03   # H
        36     2.99999995E+03   # A
        37     3.00087245E+03   # H+
         5     4.87878001E+00   # b-quark pole mass calculated from mb(mb)_Msbar
   1000001     5.09114193E+03   # ~d_L
   2000001     5.07345481E+03   # ~d_R
   1000002     5.09067395E+03   # ~u_L
   2000002     5.07318842E+03   # ~u_R
   1000003     5.09114193E+03   # ~s_L
   2000003     5.07345481E+03   # ~s_R
   1000004     5.09067395E+03   # ~c_L
   2000004     5.07318842E+03   # ~c_R
   1000005     5.03792747E+03   # ~b_1
   2000005     5.07264375E+03   # ~b_2
   1000006     4.93203660E+03   # ~t_1
   2000006     5.08343250E+03   # ~t_2
   1000011     5.01902906E+03   # ~e_L
   2000011     5.00590164E+03   # ~e_R
   1000012     5.01808144E+03   # ~nu_eL
   1000013     5.01902906E+03   # ~mu_L
   2000013     5.00590164E+03   # ~mu_R
   1000014     5.01808144E+03   # ~nu_muL
   1000015     5.00405750E+03   # ~tau_1
   2000015     5.01932843E+03   # ~tau_2
   1000016     5.01755330E+03   # ~nu_tauL
   1000021     3.00000039E+03   # ~g
   1000022     6.02993627E+01   # ~chi_10
   1000023     1.99938317E+03   # ~chi_20
   1000025    -2.00239699E+03   # ~chi_30
   1000035     3.07448693E+03   # ~chi_40
   1000024     2.00000056E+03   # ~chi_1+
   1000037     3.07465480E+03   # ~chi_2+
#
BLOCK NMIX  # Neutralino Mixing Matrix
  1  1     9.99749429E-01   # N_11
  1  2     1.11647795E-04   # N_12
  1  3    -2.23218360E-02   # N_13
  1  4     1.67388062E-03   # N_14
  2  1     1.45915850E-02   # N_21
  2  2     4.52818612E-02   # N_22
  2  3     7.06689804E-01   # N_23
  2  4     7.05922205E-01   # N_24
  3  1    -1.69658188E-02   # N_31
  3  2     1.19411900E-02   # N_32
  3  3    -7.06777941E-01   # N_33
  3  4     7.07131183E-01   # N_34
  4  1    -5.70387668E-04   # N_41
  4  2     9.98902872E-01   # N_42
  4  3    -2.35838423E-02   # N_43
  4  4    -4.04540293E-02   # N_44
#
BLOCK UMIX  # Chargino Mixing Matrix U
  1  1     3.32827453E-02   # U_11
  1  2     9.99445976E-01   # U_12
  2  1    -9.99445976E-01   # U_21
  2  2     3.32827453E-02   # U_22
#
BLOCK VMIX  # Chargino Mixing Matrix V
  1  1     5.71419292E-02   # V_11
  1  2    -9.98366065E-01   # V_12
  2  1    -9.98366065E-01   # V_21
  2  2    -5.71419292E-02   # V_22
#
BLOCK STOPMIX  # Stop Mixing Matrix
  1  1    -5.12759313E-01   # cos(theta_t)
  1  2     8.58532403E-01   # sin(theta_t)
  2  1    -8.58532403E-01   # -sin(theta_t)
  2  2    -5.12759313E-01   # cos(theta_t)
#
BLOCK SBOTMIX  # Sbottom Mixing Matrix
  1  1     9.90712482E-01   # cos(theta_b)
  1  2    -1.35973446E-01   # sin(theta_b)
  2  1     1.35973446E-01   # -sin(theta_b)
  2  2     9.90712482E-01   # cos(theta_b)
#
BLOCK STAUMIX  # Stau Mixing Matrix
  1  1    -2.18707216E-01   # cos(theta_tau)
  1  2     9.75790528E-01   # sin(theta_tau)
  2  1    -9.75790528E-01   # -sin(theta_tau)
  2  2    -2.18707216E-01   # cos(theta_tau)
#
BLOCK ALPHA  # Higgs mixing
          -1.05463360E-01   # Mixing angle in the neutral Higgs boson sector
#
BLOCK HMIX Q=  5.00070190E+03  # DRbar Higgs Parameters
         1    -1.97264453E+03   # mu(Q)MSSM           
         2     9.47014879E+00   # tan                 
         3     2.42067675E+02   # higgs               
         4     8.33183717E+06   # mA^2(Q)MSSM         
#
BLOCK GAUGE Q=  5.00070190E+03  # The gauge couplings
     1     3.70613945E-01   # gprime(Q) DRbar
     2     6.31697269E-01   # g(Q) DRbar
     3     9.92468642E-01   # g3(Q) DRbar
#
BLOCK AU Q=  5.00070190E+03  # The trilinear couplings
  1  1     5.00000002E+03   # A_u(Q) DRbar
  2  2     5.00000002E+03   # A_c(Q) DRbar
  3  3     5.00000003E+03   # A_t(Q) DRbar
#
BLOCK AD Q=  5.00070190E+03  # The trilinear couplings
  1  1     5.00000001E+03   # A_d(Q) DRbar
  2  2     5.00000001E+03   # A_s(Q) DRbar
  3  3     5.00000001E+03   # A_b(Q) DRbar
#
BLOCK AE Q=  5.00070190E+03  # The trilinear couplings
  1  1     0.00000000E+00   # A_e(Q) DRbar
  2  2     3.32549461E-07   # A_mu(Q) DRbar
  3  3     3.32786389E-07   # A_tau(Q) DRbar
#
BLOCK Yu Q=  5.00070190E+03  # The Yukawa couplings
  1  1     0.00000000E+00   # y_u(Q) DRbar
  2  2     0.00000000E+00   # y_c(Q) DRbar
  3  3     8.21033133E-01   # y_t(Q) DRbar
#
BLOCK Yd Q=  5.00070190E+03  # The Yukawa couplings
  1  1     0.00000000E+00   # y_d(Q) DRbar
  2  2     0.00000000E+00   # y_s(Q) DRbar
  3  3     1.32846503E-01   # y_b(Q) DRbar
#
BLOCK Ye Q=  5.00070190E+03  # The Yukawa couplings
  1  1     0.00000000E+00   # y_e(Q) DRbar
  2  2     0.00000000E+00   # y_mu(Q) DRbar
  3  3     9.64463633E-02   # y_tau(Q) DRbar
#
BLOCK MSOFT Q=  5.00070190E+03  # The soft SUSY breaking masses at the scale Q
         1     6.00000000E+01   # M_1(Q)              
         2     3.00000000E+03   # M_2(Q)              
         3     2.62339900E+03   # M_3(Q)              
        21     4.75215849E+06   # mH1^2(Q)            
        22    -3.35685060E+06   # mH2^2(Q)            
        31     5.00000000E+03   # meL(Q)              
        32     5.00000000E+03   # mmuL(Q)             
        33     5.00000000E+03   # mtauL(Q)            
        34     5.00000000E+03   # meR(Q)              
        35     5.00000000E+03   # mmuR(Q)             
        36     5.00000000E+03   # mtauR(Q)            
        41     4.99999999E+03   # mqL1(Q)             
        42     4.99999999E+03   # mqL2(Q)             
        43     4.99999999E+03   # mqL3(Q)             
        44     4.99999999E+03   # muR(Q)              
        45     4.99999999E+03   # mcR(Q)              
        46     4.99999999E+03   # mtR(Q)              
        47     4.99999999E+03   # mdR(Q)              
        48     4.99999999E+03   # msR(Q)              
        49     4.99999999E+03   # mbR(Q)              
#
#
#
#                             =================
#                             |The decay table|
#                             =================
#
# - The QCD corrections to the decays gluino -> squark  + quark
#                                     squark -> gaugino + quark_prime
#                                     squark -> squark_prime + Higgs
#                                     squark -> gluino  + quark
#   are included.
#
# - The multi-body decays for the inos, stops and sbottoms are included.
#
# - The loop induced decays for the gluino, neutralinos and stops
#   are included.
#
# - The SUSY decays of the top quark are included.
#
#
#         PDG            Width
DECAY         6     1.39825623E+00   # top decays
#          BR         NDA      ID1       ID2
     1.00000000E+00    2           5        24   # BR(t ->  b    W+)
#
#         PDG            Width
DECAY   1000021     3.49426126E-03   # gluino decays
#          BR         NDA      ID1       ID2
     4.64027628E-06    2     1000022        21   # BR(~g -> ~chi_10 g)
     3.51347659E-03    2     1000023        21   # BR(~g -> ~chi_20 g)
     3.55479067E-03    2     1000025        21   # BR(~g -> ~chi_30 g)
#           BR         NDA      ID1       ID2       ID3
     5.87617025E-02    3     1000022         1        -1   # BR(~g -> ~chi_10 d  db)
     3.06459370E-05    3     1000023         1        -1   # BR(~g -> ~chi_20 d  db)
     1.63793941E-06    3     1000025         1        -1   # BR(~g -> ~chi_30 d  db)
     2.00362884E-01    3     1000022         2        -2   # BR(~g -> ~chi_10 u  ub)
     4.09693632E-05    3     1000023         2        -2   # BR(~g -> ~chi_20 u  ub)
     1.49768147E-06    3     1000025         2        -2   # BR(~g -> ~chi_30 u  ub)
     5.87617025E-02    3     1000022         3        -3   # BR(~g -> ~chi_10 s  sb)
     3.06459370E-05    3     1000023         3        -3   # BR(~g -> ~chi_20 s  sb)
     1.63793941E-06    3     1000025         3        -3   # BR(~g -> ~chi_30 s  sb)
     2.00362884E-01    3     1000022         4        -4   # BR(~g -> ~chi_10 c  cb)
     4.09693632E-05    3     1000023         4        -4   # BR(~g -> ~chi_20 c  cb)
     1.49768147E-06    3     1000025         4        -4   # BR(~g -> ~chi_30 c  cb)
     5.94870990E-02    3     1000022         5        -5   # BR(~g -> ~chi_10 b  bb)
     1.59801249E-03    3     1000023         5        -5   # BR(~g -> ~chi_20 b  bb)
     1.53954444E-03    3     1000025         5        -5   # BR(~g -> ~chi_30 b  bb)
     2.09530642E-01    3     1000022         6        -6   # BR(~g -> ~chi_10 t  tb)
     5.09242883E-02    3     1000023         6        -6   # BR(~g -> ~chi_20 t  tb)
     4.20752715E-02    3     1000025         6        -6   # BR(~g -> ~chi_30 t  tb)
     6.98863338E-05    3     1000024         1        -2   # BR(~g -> ~chi_1+ d  ub)
     6.98863338E-05    3    -1000024         2        -1   # BR(~g -> ~chi_1- u  db)
     6.98863338E-05    3     1000024         3        -4   # BR(~g -> ~chi_1+ s  cb)
     6.98863338E-05    3    -1000024         4        -3   # BR(~g -> ~chi_1- c  sb)
     5.45470072E-02    3     1000024         5        -6   # BR(~g -> ~chi_1+ b  tb)
     5.45470072E-02    3    -1000024         6        -5   # BR(~g -> ~chi_1- t  bb)
#
#         PDG            Width
DECAY   1000006     2.18593269E+02   # stop1 decays
#          BR         NDA      ID1       ID2
     4.03249000E-02    2     1000022         6   # BR(~t_1 -> ~chi_10 t )
     1.04466194E-01    2     1000023         6   # BR(~t_1 -> ~chi_20 t )
     1.00321747E-01    2     1000025         6   # BR(~t_1 -> ~chi_30 t )
     1.04412845E-02    2     1000035         6   # BR(~t_1 -> ~chi_40 t )
     1.50366640E-01    2     1000024         5   # BR(~t_1 -> ~chi_1+ b )
     2.06867449E-02    2     1000037         5   # BR(~t_1 -> ~chi_2+ b )
     5.73392489E-01    2     1000021         6   # BR(~t_1 -> ~g      t )
#
#         PDG            Width
DECAY   2000006     2.36943537E+02   # stop2 decays
#          BR         NDA      ID1       ID2
     1.47429111E-02    2     1000022         6   # BR(~t_2 -> ~chi_10 t )
     1.01859958E-01    2     1000023         6   # BR(~t_2 -> ~chi_20 t )
     1.06134253E-01    2     1000025         6   # BR(~t_2 -> ~chi_30 t )
     2.30557294E-02    2     1000035         6   # BR(~t_2 -> ~chi_40 t )
     6.31673851E-02    2     1000024         5   # BR(~t_2 -> ~chi_1+ b )
     4.55661705E-02    2     1000037         5   # BR(~t_2 -> ~chi_2+ b )
     6.40291711E-01    2     1000021         6   # BR(~t_2 -> ~g      t )
     1.10803960E-03    2     1000006        25   # BR(~t_2 -> ~t_1    h )
     4.07384208E-03    2     1000006        23   # BR(~t_2 -> ~t_1    Z )
#
#         PDG            Width
DECAY   1000005     2.13385756E+02   # sbottom1 decays
#          BR         NDA      ID1       ID2
     3.71812933E-03    2     1000022         5   # BR(~b_1 -> ~chi_10 b )
     3.16930086E-03    2     1000023         5   # BR(~b_1 -> ~chi_20 b )
     2.85575600E-03    2     1000025         5   # BR(~b_1 -> ~chi_30 b )
     3.51182573E-02    2     1000035         5   # BR(~b_1 -> ~chi_40 b )
     2.18379632E-01    2    -1000024         6   # BR(~b_1 -> ~chi_1- t )
     7.10094707E-02    2    -1000037         6   # BR(~b_1 -> ~chi_2- t )
     6.63413890E-01    2     1000021         5   # BR(~b_1 -> ~g      b )
     2.33556370E-03    2     1000006       -24   # BR(~b_1 -> ~t_1    W-)
#
#         PDG            Width
DECAY   2000005     1.51307448E+02   # sbottom2 decays
#          BR         NDA      ID1       ID2
     1.91782390E-02    2     1000022         5   # BR(~b_2 -> ~chi_10 b )
     3.98895368E-03    2     1000023         5   # BR(~b_2 -> ~chi_20 b )
     4.28557293E-03    2     1000025         5   # BR(~b_2 -> ~chi_30 b )
     1.00386850E-03    2     1000035         5   # BR(~b_2 -> ~chi_40 b )
     1.37772540E-02    2    -1000024         6   # BR(~b_2 -> ~chi_1- t )
     2.02718551E-03    2    -1000037         6   # BR(~b_2 -> ~chi_2- t )
     9.55454114E-01    2     1000021         5   # BR(~b_2 -> ~g      b )
     2.84812266E-04    2     1000006       -24   # BR(~b_2 -> ~t_1    W-)
#
#         PDG            Width
DECAY   1000002     1.70653666E+02   # sup_L decays
#          BR         NDA      ID1       ID2
     4.35694049E-03    2     1000022         2   # BR(~u_L -> ~chi_10 u)
     1.89803062E-04    2     1000023         2   # BR(~u_L -> ~chi_20 u)
     6.08474403E-06    2     1000025         2   # BR(~u_L -> ~chi_30 u)
     4.63344197E-02    2     1000035         2   # BR(~u_L -> ~chi_40 u)
     5.34829771E-04    2     1000024         1   # BR(~u_L -> ~chi_1+ d)
     9.25784472E-02    2     1000037         1   # BR(~u_L -> ~chi_2+ d)
     8.55999475E-01    2     1000021         2   # BR(~u_L -> ~g      u)
#
#         PDG            Width
DECAY   2000002     1.56355174E+02   # sup_R decays
#          BR         NDA      ID1       ID2
     7.57313196E-02    2     1000022         2   # BR(~u_R -> ~chi_10 u)
     1.15791959E-05    2     1000023         2   # BR(~u_R -> ~chi_20 u)
     1.56366992E-05    2     1000025         2   # BR(~u_R -> ~chi_30 u)
     9.97868663E-09    2     1000035         2   # BR(~u_R -> ~chi_40 u)
     9.24241455E-01    2     1000021         2   # BR(~u_R -> ~g      u)
#
#         PDG            Width
DECAY   1000001     1.70673641E+02   # sdown_L decays
#          BR         NDA      ID1       ID2
     4.34690117E-03    2     1000022         1   # BR(~d_L -> ~chi_10 d)
     1.47469378E-04    2     1000023         1   # BR(~d_L -> ~chi_20 d)
     1.90535550E-05    2     1000025         1   # BR(~d_L -> ~chi_30 d)
     4.63636937E-02    2     1000035         1   # BR(~d_L -> ~chi_40 d)
     1.81452411E-04    2    -1000024         2   # BR(~d_L -> ~chi_1- u)
     9.27959969E-02    2    -1000037         2   # BR(~d_L -> ~chi_2- u)
     8.56145433E-01    2     1000021         1   # BR(~d_L -> ~g      d)
#
#         PDG            Width
DECAY   2000001     1.47495312E+02   # sdown_R decays
#          BR         NDA      ID1       ID2
     2.00711833E-02    2     1000022         1   # BR(~d_R -> ~chi_10 d)
     3.06896745E-06    2     1000023         1   # BR(~d_R -> ~chi_20 d)
     4.14437477E-06    2     1000025         1   # BR(~d_R -> ~chi_30 d)
     2.64498313E-09    2     1000035         1   # BR(~d_R -> ~chi_40 d)
     9.79921601E-01    2     1000021         1   # BR(~d_R -> ~g      d)
#
#         PDG            Width
DECAY   1000004     1.70653666E+02   # scharm_L decays
#          BR         NDA      ID1       ID2
     4.35694049E-03    2     1000022         4   # BR(~c_L -> ~chi_10 c)
     1.89803062E-04    2     1000023         4   # BR(~c_L -> ~chi_20 c)
     6.08474403E-06    2     1000025         4   # BR(~c_L -> ~chi_30 c)
     4.63344197E-02    2     1000035         4   # BR(~c_L -> ~chi_40 c)
     5.34829771E-04    2     1000024         3   # BR(~c_L -> ~chi_1+ s)
     9.25784472E-02    2     1000037         3   # BR(~c_L -> ~chi_2+ s)
     8.55999475E-01    2     1000021         4   # BR(~c_L -> ~g      c)
#
#         PDG            Width
DECAY   2000004     1.56355174E+02   # scharm_R decays
#          BR         NDA      ID1       ID2
     7.57313196E-02    2     1000022         4   # BR(~c_R -> ~chi_10 c)
     1.15791959E-05    2     1000023         4   # BR(~c_R -> ~chi_20 c)
     1.56366992E-05    2     1000025         4   # BR(~c_R -> ~chi_30 c)
     9.97868663E-09    2     1000035         4   # BR(~c_R -> ~chi_40 c)
     9.24241455E-01    2     1000021         4   # BR(~c_R -> ~g      c)
#
#         PDG            Width
DECAY   1000003     1.70673641E+02   # sstrange_L decays
#          BR         NDA      ID1       ID2
     4.34690117E-03    2     1000022         3   # BR(~s_L -> ~chi_10 s)
     1.47469378E-04    2     1000023         3   # BR(~s_L -> ~chi_20 s)
     1.90535550E-05    2     1000025         3   # BR(~s_L -> ~chi_30 s)
     4.63636937E-02    2     1000035         3   # BR(~s_L -> ~chi_40 s)
     1.81452411E-04    2    -1000024         4   # BR(~s_L -> ~chi_1- c)
     9.27959969E-02    2    -1000037         4   # BR(~s_L -> ~chi_2- c)
     8.56145433E-01    2     1000021         3   # BR(~s_L -> ~g      s)
#
#         PDG            Width
DECAY   2000003     1.47495312E+02   # sstrange_R decays
#          BR         NDA      ID1       ID2
     2.00711833E-02    2     1000022         3   # BR(~s_R -> ~chi_10 s)
     3.06896745E-06    2     1000023         3   # BR(~s_R -> ~chi_20 s)
     4.14437477E-06    2     1000025         3   # BR(~s_R -> ~chi_30 s)
     2.64498313E-09    2     1000035         3   # BR(~s_R -> ~chi_40 s)
     9.79921601E-01    2     1000021         3   # BR(~s_R -> ~g      s)
#
#         PDG            Width
DECAY   1000011     3.02139473E+01   # selectron_L decays
#          BR         NDA      ID1       ID2
     2.26870575E-01    2     1000022        11   # BR(~e_L -> ~chi_10 e-)
     1.35299017E-03    2     1000023        11   # BR(~e_L -> ~chi_20 e-)
     1.84130784E-06    2     1000025        11   # BR(~e_L -> ~chi_30 e-)
     2.56635192E-01    2     1000035        11   # BR(~e_L -> ~chi_40 e-)
     1.03373306E-03    2    -1000024        12   # BR(~e_L -> ~chi_1- nu_e)
     5.14105669E-01    2    -1000037        12   # BR(~e_L -> ~chi_2- nu_e)
#
#         PDG            Width
DECAY   2000011     2.73461333E+01   # selectron_R decays
#          BR         NDA      ID1       ID2
     9.99646220E-01    2     1000022        11   # BR(~e_R -> ~chi_10 e-)
     1.50468321E-04    2     1000023        11   # BR(~e_R -> ~chi_20 e-)
     2.03185286E-04    2     1000025        11   # BR(~e_R -> ~chi_30 e-)
     1.26245703E-07    2     1000035        11   # BR(~e_R -> ~chi_40 e-)
#
#         PDG            Width
DECAY   1000013     3.02139473E+01   # smuon_L decays
#          BR         NDA      ID1       ID2
     2.26870575E-01    2     1000022        13   # BR(~mu_L -> ~chi_10 mu-)
     1.35299017E-03    2     1000023        13   # BR(~mu_L -> ~chi_20 mu-)
     1.84130784E-06    2     1000025        13   # BR(~mu_L -> ~chi_30 mu-)
     2.56635192E-01    2     1000035        13   # BR(~mu_L -> ~chi_40 mu-)
     1.03373306E-03    2    -1000024        14   # BR(~mu_L -> ~chi_1- nu_mu)
     5.14105669E-01    2    -1000037        14   # BR(~mu_L -> ~chi_2- nu_mu)
#
#         PDG            Width
DECAY   2000013     2.73461333E+01   # smuon_R decays
#          BR         NDA      ID1       ID2
     9.99646220E-01    2     1000022        13   # BR(~mu_R -> ~chi_10 mu-)
     1.50468321E-04    2     1000023        13   # BR(~mu_R -> ~chi_20 mu-)
     2.03185286E-04    2     1000025        13   # BR(~mu_R -> ~chi_30 mu-)
     1.26245703E-07    2     1000035        13   # BR(~mu_R -> ~chi_40 mu-)
#
#         PDG            Width
DECAY   1000015     2.87853773E+01   # stau_1 decays
#          BR         NDA      ID1       ID2
     9.16109060E-01    2     1000022        15   # BR(~tau_1 -> ~chi_10  tau-)
     1.27157758E-02    2     1000023        15   # BR(~tau_1 -> ~chi_20  tau-)
     1.08246181E-02    2     1000025        15   # BR(~tau_1 -> ~chi_30  tau-)
     1.21803149E-02    2     1000035        15   # BR(~tau_1 -> ~chi_40  tau-)
     2.37666372E-02    2    -1000024        16   # BR(~tau_1 -> ~chi_1-  nu_tau)
     2.44035941E-02    2    -1000037        16   # BR(~tau_1 -> ~chi_2-  nu_tau)
#
#         PDG            Width
DECAY   2000015     3.07255585E+01   # stau_2 decays
#          BR         NDA      ID1       ID2
     2.54339988E-01    2     1000022        15   # BR(~tau_2 -> ~chi_10  tau-)
     1.08631043E-02    2     1000023        15   # BR(~tau_2 -> ~chi_20  tau-)
     1.13429270E-02    2     1000025        15   # BR(~tau_2 -> ~chi_30  tau-)
     2.40893966E-01    2     1000035        15   # BR(~tau_2 -> ~chi_40  tau-)
     7.37314125E-07    2    -1000024        16   # BR(~tau_2 -> ~chi_1-  nu_tau)
     4.82559277E-01    2    -1000037        16   # BR(~tau_2 -> ~chi_2-  nu_tau)
#
#         PDG            Width
DECAY   1000012     3.02149617E+01   # snu_eL decays
#          BR         NDA      ID1       ID2
     2.26647468E-01    2     1000022        12   # BR(~nu_eL -> ~chi_10 nu_e)
     6.29090166E-04    2     1000023        12   # BR(~nu_eL -> ~chi_20 nu_e)
     2.23396564E-04    2     1000025        12   # BR(~nu_eL -> ~chi_30 nu_e)
     2.56805622E-01    2     1000035        12   # BR(~nu_eL -> ~chi_40 nu_e)
     3.04594040E-03    2     1000024        11   # BR(~nu_eL -> ~chi_1+ e-)
     5.12648483E-01    2     1000037        11   # BR(~nu_eL -> ~chi_2+ e-)
#
#         PDG            Width
DECAY   1000014     3.02149617E+01   # snu_muL decays
#          BR         NDA      ID1       ID2
     2.26647468E-01    2     1000022        14   # BR(~nu_muL -> ~chi_10 nu_mu)
     6.29090166E-04    2     1000023        14   # BR(~nu_muL -> ~chi_20 nu_mu)
     2.23396564E-04    2     1000025        14   # BR(~nu_muL -> ~chi_30 nu_mu)
     2.56805622E-01    2     1000035        14   # BR(~nu_muL -> ~chi_40 nu_mu)
     3.04594040E-03    2     1000024        13   # BR(~nu_muL -> ~chi_1+ mu-)
     5.12648483E-01    2     1000037        13   # BR(~nu_muL -> ~chi_2+ mu-)
#
#         PDG            Width
DECAY   1000016     3.08625197E+01   # snu_tauL decays
#          BR         NDA      ID1       ID2
     2.21868579E-01    2     1000022        16   # BR(~nu_tauL -> ~chi_10 nu_tau)
     6.15776832E-04    2     1000023        16   # BR(~nu_tauL -> ~chi_20 nu_tau)
     2.18668796E-04    2     1000025        16   # BR(~nu_tauL -> ~chi_30 nu_tau)
     2.51327252E-01    2     1000035        16   # BR(~nu_tauL -> ~chi_40 nu_tau)
     2.42483393E-02    2     1000024        15   # BR(~nu_tauL -> ~chi_1+ tau-)
     5.01721384E-01    2     1000037        15   # BR(~nu_tauL -> ~chi_2+ tau-)
#
#         PDG            Width
DECAY   1000024     1.23480879E+00   # chargino1+ decays
#          BR         NDA      ID1       ID2
     1.00000000E+00    2     1000022        24   # BR(~chi_1+ -> ~chi_10  W+)
#
#         PDG            Width
DECAY   1000037     1.53592498E+01   # chargino2+ decays
#          BR         NDA      ID1       ID2
     2.51883567E-01    2     1000024        23   # BR(~chi_2+ -> ~chi_1+  Z )
     4.76660473E-04    2     1000022        24   # BR(~chi_2+ -> ~chi_10  W+)
     2.45379897E-01    2     1000023        24   # BR(~chi_2+ -> ~chi_20  W+)
     2.42766925E-01    2     1000025        24   # BR(~chi_2+ -> ~chi_30  W+)
     2.59492908E-01    2     1000024        25   # BR(~chi_2+ -> ~chi_1+  h )
     4.32001301E-08    2     1000022        37   # BR(~chi_2+ -> ~chi_10  H+)
#
#         PDG            Width
DECAY   1000022     0.00000000E+00   # neutralino1 decays
#
#         PDG            Width
DECAY   1000023     1.30069478E+00   # neutralino2 decays
#          BR         NDA      ID1       ID2
     5.65494462E-01    2     1000022        23   # BR(~chi_20 -> ~chi_10   Z )
     4.34505538E-01    2     1000022        25   # BR(~chi_20 -> ~chi_10   h )
#
#         PDG            Width
DECAY   1000025     1.31701709E+00   # neutralino3 decays
#          BR         NDA      ID1       ID2
     4.15219637E-01    2     1000022        23   # BR(~chi_30 -> ~chi_10   Z )
     5.84780363E-01    2     1000022        25   # BR(~chi_30 -> ~chi_10   h )
#
#         PDG            Width
DECAY   1000035     1.53126269E+01   # neutralino4 decays
#          BR         NDA      ID1       ID2
     2.14727254E-04    2     1000022        23   # BR(~chi_40 -> ~chi_10   Z )
     1.67164377E-02    2     1000023        23   # BR(~chi_40 -> ~chi_20   Z )
     2.35828313E-01    2     1000025        23   # BR(~chi_40 -> ~chi_30   Z )
     2.43569929E-01    2     1000024       -24   # BR(~chi_40 -> ~chi_1+   W-)
     2.43569929E-01    2    -1000024        24   # BR(~chi_40 -> ~chi_1-   W+)
     2.82203479E-04    2     1000022        25   # BR(~chi_40 -> ~chi_10   h )
     3.23164023E-08    2     1000022        35   # BR(~chi_40 -> ~chi_10   H )
     1.24417780E-08    2     1000022        36   # BR(~chi_40 -> ~chi_10   A )
     2.43355058E-01    2     1000023        25   # BR(~chi_40 -> ~chi_20   h )
     1.64633573E-02    2     1000025        25   # BR(~chi_40 -> ~chi_30   h )
#
#         PDG            Width
DECAY        25     4.02087448E-03   # h decays
#          BR         NDA      ID1       ID2
     6.03323530E-01    2           5        -5   # BR(h -> b       bb     )
     6.45225660E-02    2         -15        15   # BR(h -> tau+    tau-   )
     2.28433130E-04    2         -13        13   # BR(h -> mu+     mu-    )
     4.84229149E-04    2           3        -3   # BR(h -> s       sb     )
     2.09853898E-02    2           4        -4   # BR(h -> c       cb     )
     6.79383192E-02    2          21        21   # BR(h -> g       g      )
     2.33728057E-03    2          22        22   # BR(h -> gam     gam    )
     1.51112912E-03    2          22        23   # BR(h -> Z       gam    )
     2.13210577E-01    2          24       -24   # BR(h -> W+      W-     )
     2.54371784E-02    2          23        23   # BR(h -> Z       Z      )
     2.13674617E-05    2     1000022   1000022   # BR(h -> ~chi_10 ~chi_10)
#
#         PDG            Width
DECAY        35     6.37194298E+00   # H decays
#          BR         NDA      ID1       ID2
     5.20564073E-01    2           5        -5   # BR(H -> b       bb     )
     8.74375931E-02    2         -15        15   # BR(H -> tau+    tau-   )
     3.09186274E-04    2         -13        13   # BR(H -> mu+     mu-    )
     3.79015092E-04    2           3        -3   # BR(H -> s       sb     )
     2.11952516E-06    2           4        -4   # BR(H -> c       cb     )
     2.11757342E-01    2           6        -6   # BR(H -> t       tb     )
     7.02435994E-05    2          21        21   # BR(H -> g       g      )
     3.97317663E-07    2          22        22   # BR(H -> gam     gam    )
     1.25103732E-07    2          23        22   # BR(H -> Z       gam    )
     9.23060697E-05    2          24       -24   # BR(H -> W+      W-     )
     4.60946292E-05    2          23        23   # BR(H -> Z       Z      )
     3.52152411E-04    2          25        25   # BR(H -> h       h      )
     5.73864879E-24    2          36        36   # BR(H -> A       A      )
     1.01411897E-18    2          23        36   # BR(H -> Z       A      )
     5.67082666E-04    2     1000022   1000022   # BR(H -> ~chi_10 ~chi_10)
     1.04207328E-01    2     1000022   1000023   # BR(H -> ~chi_10 ~chi_20)
     7.42149418E-02    2     1000022   1000025   # BR(H -> ~chi_10 ~chi_30)
#
#         PDG            Width
DECAY        36     6.37529674E+00   # A decays
#          BR         NDA      ID1       ID2
     5.20462448E-01    2           5        -5   # BR(A -> b       bb     )
     8.73942674E-02    2         -15        15   # BR(A -> tau+    tau-   )
     3.09032639E-04    2         -13        13   # BR(A -> mu+     mu-    )
     3.79103487E-04    2           3        -3   # BR(A -> s       sb     )
     2.12738024E-06    2           4        -4   # BR(A -> c       cb     )
     2.12424866E-01    2           6        -6   # BR(A -> t       tb     )
     2.10219740E-04    2          21        21   # BR(A -> g       g      )
     4.10914982E-07    2          22        22   # BR(A -> gam     gam    )
     2.54747157E-07    2          23        22   # BR(A -> Z       gam    )
     9.19089855E-05    2          23        25   # BR(A -> Z       h      )
     5.86011266E-04    2     1000022   1000022   # BR(A -> ~chi_10 ~chi_10)
     7.51413591E-02    2     1000022   1000023   # BR(A -> ~chi_10 ~chi_20)
     1.02997991E-01    2     1000022   1000025   # BR(A -> ~chi_10 ~chi_30)
#
#         PDG            Width
DECAY        37     6.41568844E+00   # H+ decays
#          BR         NDA      ID1       ID2
     8.42595131E-04    2           4        -5   # BR(H+ -> c       bb     )
     8.68693104E-02    2         -15        16   # BR(H+ -> tau+    nu_tau )
     3.07176352E-04    2         -13        14   # BR(H+ -> mu+     nu_mu  )
     5.39258186E-06    2           2        -5   # BR(H+ -> u       bb     )
     1.80244691E-05    2           2        -3   # BR(H+ -> u       sb     )
     3.72746867E-04    2           4        -3   # BR(H+ -> c       sb     )
     7.33265400E-01    2           6        -5   # BR(H+ -> t       bb     )
     9.14686952E-05    2          24        25   # BR(H+ -> W+      h      )
     1.03577804E-13    2          24        36   # BR(H+ -> W+      A      )
     1.78227885E-01    2     1000024   1000022   # BR(H+ -> ~chi_1+ ~chi_10)
