#
#                              ======================
#                              | THE SUSYHIT OUTPUT |
#                              ======================
#
#
#              ------------------------------------------------------
#              |     This is the output of the SUSY-HIT package     |
#              |  created by A.Djouadi, M.Muehlleitner and M.Spira. |
#              |  In case of problems with SUSY-HIT email to        |
#              |           margarete.muehlleitner@kit.edu           |
#              |           michael.spira@psi.ch                     |
#              |           abdelhak.djouadi@cern.ch                 |
#              ------------------------------------------------------
#
#              ------------------------------------------------------
#              |  SUSY Les Houches Accord - MSSM Spectrum + Decays  |
#              |              based on the decay programs           |
#              |                                                    |
#              |                     SDECAY 1.5                     |
#              |                                                    |
#              |  Authors: M.Muhlleitner, A.Djouadi and Y.Mambrini  |
#              |  Ref.:    Comput.Phys.Commun.168(2005)46           |
#              |           [hep-ph/0311167]                         |
#              |                                                    |
#              |                     HDECAY 3.4                     |
#              |                                                    |
#              |  By: A.Djouadi,J.Kalinowski,M.Muhlleitner,M.Spira  |
#              |  Ref.:    Comput.Phys.Commun.108(1998)56           |
#              |           [hep-ph/9704448]                         |
#              |                                                    |
#              |                                                    |
#              |  If not stated otherwise all DRbar couplings and   |
#              |  soft SUSY breaking masses are given at the scale  |
#              |  Q=  0.91187600E+02
#              |                                                    |
#              ------------------------------------------------------
#
#
BLOCK DCINFO  # Decay Program information
     1   SDECAY/HDECAY # decay calculator
     2   1.5  /3.4    # version number
#
BLOCK SPINFO  # Spectrum calculator information
     1   SuSpect     # RGE +Spectrum calculator            
     2   2.43         # version number                     
#
BLOCK MODSEL  # Model selection
     1     2   # GMSB                                              
#
BLOCK SMINPUTS  # Standard Model inputs
         1     1.27932904E+02   # alpha_em^-1(M_Z)^MSbar
         2     1.16639000E-05   # G_F [GeV^-2]
         3     1.17200000E-01   # alpha_S(M_Z)^MSbar
         4     9.11870000E+01   # M_Z pole mass
         5     4.25000000E+00   # mb(mb)^MSbar
         6     1.72900000E+02   # mt pole mass
         7     1.77700000E+00   # mtau pole mass
#
BLOCK MINPAR  # Input parameters - minimal models
#
BLOCK EXTPAR  # Input parameters - non-minimal models
         0     9.11876000E+01   # EWSB                
         1     4.63000000E+02   # M_1                 
         2     3.00000000E+03   # M_2                 
         3     1.40000000E+03   # M_3                 
        11     0.00000000E+00   # A_t                 
        12     0.00000000E+00   # A_b                 
        13     0.00000000E+00   # A_tau               
        14     0.00000000E+00   # A_u                 
        15     0.00000000E+00   # A_d                 
        16     0.00000000E+00   # A_e                 
        23     4.50000000E+02   # mu(EWSB)            
        25     1.50000000E+00   # tanbeta(in)         
        26     2.00000000E+03   # MA_pole             
        31     5.00000000E+03   # M_eL                
        32     5.00000000E+03   # M_muL               
        33     5.00000000E+03   # M_tauL              
        34     5.00000000E+03   # M_eR                
        35     5.00000000E+03   # M_muR               
        36     5.00000000E+03   # M_tauR              
        41     5.00000000E+03   # M_q1L               
        42     5.00000000E+03   # M_q2L               
        43     5.00000000E+03   # M_q3L               
        44     5.00000000E+03   # M_uR                
        45     5.00000000E+03   # M_cR                
        46     5.00000000E+03   # M_tR                
        47     5.00000000E+03   # M_dR                
        48     5.00000000E+03   # M_sR                
        49     5.00000000E+03   # M_bR                
#
BLOCK MASS  # Mass Spectrum
# PDG code           mass       particle
        24     8.05385987E+01   # W+
        25     1.26000000E+02   # h
        35     2.00420268E+03   # H
        36     2.00000000E+03   # A
        37     2.00203052E+03   # H+
         5     4.87877839E+00   # b-quark pole mass calculated from mb(mb)_Msbar
   1000001     4.99643645E+03   # ~d_L
   2000001     4.99632684E+03   # ~d_R
   1000002     4.99619147E+03   # ~u_L
   2000002     4.99624953E+03   # ~u_R
   1000003     4.99643645E+03   # ~s_L
   2000003     4.99632684E+03   # ~s_R
   1000004     4.99619147E+03   # ~c_L
   2000004     4.99624953E+03   # ~c_R
   1000005     4.99618979E+03   # ~b_1
   2000005     4.99657496E+03   # ~b_2
   1000006     5.12558867E+03   # ~t_1
   2000006     5.42367920E+03   # ~t_2
   1000011     5.00008242E+03   # ~e_L
   2000011     5.00007600E+03   # ~e_R
   1000012     4.99984158E+03   # ~nu_eL
   1000013     5.00008242E+03   # ~mu_L
   2000013     5.00007600E+03   # ~mu_R
   1000014     4.99984158E+03   # ~nu_muL
   1000015     4.99995950E+03   # ~tau_1
   2000015     5.00019955E+03   # ~tau_2
   1000016     4.99984158E+03   # ~nu_tauL
   1000021     1.52200842E+03   # ~g
   1000022     4.42353437E+02   # ~chi_10
   1000023    -4.84171516E+02   # ~chi_20
   1000025     5.29925820E+02   # ~chi_30
   1000035     3.12901595E+03   # ~chi_40
   1000024     4.81816560E+02   # ~chi_1+
   1000037     3.12901539E+03   # ~chi_2+
   1000039     1.00000000E-09   # ~gravitino
#
BLOCK NMIX  # Neutralino Mixing Matrix
  1  1     6.70698847E-01   # N_11
  1  2    -2.13926701E-02   # N_12
  1  3     5.28959320E-01   # N_13
  1  4    -5.19526176E-01   # N_14
  2  1     8.97813865E-03   # N_21
  2  2    -4.31378819E-03   # N_22
  2  3    -7.06541218E-01   # N_23
  2  4    -7.07601789E-01   # N_24
  3  1     7.41675266E-01   # N_31
  3  2     2.00698558E-02   # N_32
  3  3    -4.69774532E-01   # N_33
  3  4     4.78358536E-01   # N_34
  4  1     4.98765948E-04   # N_41
  4  2    -9.99560376E-01   # N_42
  4  3    -1.77040733E-02   # N_43
  4  4     2.37775363E-02   # N_44
#
BLOCK UMIX  # Chargino Mixing Matrix U
  1  1    -2.50283707E-02   # U_11
  1  2     9.99686741E-01   # U_12
  2  1     9.99686741E-01   # U_21
  2  2     2.50283707E-02   # U_22
#
BLOCK VMIX  # Chargino Mixing Matrix V
  1  1    -3.36205552E-02   # V_11
  1  2     9.99434669E-01   # V_12
  2  1     9.99434669E-01   # V_21
  2  2     3.36205552E-02   # V_22
#
BLOCK STOPMIX  # Stop Mixing Matrix
  1  1     9.99918649E-01   # cos(theta_t)
  1  2    -1.27552100E-02   # sin(theta_t)
  2  1     1.27552100E-02   # -sin(theta_t)
  2  2     9.99918649E-01   # cos(theta_t)
#
BLOCK SBOTMIX  # Sbottom Mixing Matrix
  1  1     5.98099910E-01   # cos(theta_b)
  1  2     8.01421548E-01   # sin(theta_b)
  2  1    -8.01421548E-01   # -sin(theta_b)
  2  2     5.98099910E-01   # cos(theta_b)
#
BLOCK STAUMIX  # Stau Mixing Matrix
  1  1     6.97597417E-01   # cos(theta_tau)
  1  2     7.16489947E-01   # sin(theta_tau)
  2  1    -7.16489947E-01   # -sin(theta_tau)
  2  2     6.97597417E-01   # cos(theta_tau)
#
BLOCK ALPHA  # Higgs mixing
          -5.90204698E-01   # Mixing angle in the neutral Higgs boson sector
#
BLOCK HMIX Q=  9.11876000E+01  # DRbar Higgs Parameters
         1     4.50000000E+02   # mu(Q)               
         2     1.49999979E+00   # tanbeta(Q)          
         3     2.51889358E+02   # vev(Q)              
         4     3.76798227E+06   # MA^2(Q)             
#
BLOCK GAUGE Q=  9.11876000E+01  # The gauge couplings
     1     3.52960489E-01   # gprime(Q) DRbar
     2     6.28305220E-01   # g(Q) DRbar
     3     1.08619183E+00   # g3(Q) DRbar
#
BLOCK AU Q=  9.11876000E+01  # The trilinear couplings
  1  1     0.00000000E+00   # A_u(Q) DRbar
  2  2     0.00000000E+00   # A_c(Q) DRbar
  3  3     0.00000000E+00   # A_t(Q) DRbar
#
BLOCK AD Q=  9.11876000E+01  # The trilinear couplings
  1  1     0.00000000E+00   # A_d(Q) DRbar
  2  2     0.00000000E+00   # A_s(Q) DRbar
  3  3     0.00000000E+00   # A_b(Q) DRbar
#
BLOCK AE Q=  9.11876000E+01  # The trilinear couplings
  1  1     0.00000000E+00   # A_e(Q) DRbar
  2  2     0.00000000E+00   # A_mu(Q) DRbar
  3  3     0.00000000E+00   # A_tau(Q) DRbar
#
BLOCK Yu Q=  9.11876000E+01  # The Yukawa couplings
  1  1     0.00000000E+00   # y_u(Q) DRbar
  2  2     0.00000000E+00   # y_c(Q) DRbar
  3  3     1.02624212E+00   # y_t(Q) DRbar
#
BLOCK Yd Q=  9.11876000E+01  # The Yukawa couplings
  1  1     0.00000000E+00   # y_d(Q) DRbar
  2  2     0.00000000E+00   # y_s(Q) DRbar
  3  3     2.72170627E-02   # y_b(Q) DRbar
#
BLOCK Ye Q=  9.11876000E+01  # The Yukawa couplings
  1  1     0.00000000E+00   # y_e(Q) DRbar
  2  2     0.00000000E+00   # y_mu(Q) DRbar
  3  3     1.79914396E-02   # y_tau(Q) DRbar
#
BLOCK MSOFT Q=  9.11876000E+01  # The soft SUSY breaking masses at the scale Q
         1     4.63000000E+02   # M_1                 
         2     3.00000000E+03   # M_2                 
         3     1.40000000E+03   # M_3                 
        14     0.00000000E+00   # A_u                 
        15     0.00000000E+00   # A_d                 
        16     0.00000000E+00   # A_e                 
        21     2.83448308E+06   # M^2_Hd              
        22    -5.66557769E+06   # M^2_Hu              
        31     5.00000000E+03   # M_eL                
        32     5.00000000E+03   # M_muL               
        33     5.00000000E+03   # M_tauL              
        34     5.00000000E+03   # M_eR                
        35     5.00000000E+03   # M_muR               
        36     5.00000000E+03   # M_tauR              
        41     5.00000000E+03   # M_q1L               
        42     5.00000000E+03   # M_q2L               
        43     5.00000000E+03   # M_q3L               
        44     5.00000000E+03   # M_uR                
        45     5.00000000E+03   # M_cR                
        46     5.00000000E+03   # M_tR                
        47     5.00000000E+03   # M_dR                
        48     5.00000000E+03   # M_sR                
        49     5.00000000E+03   # M_bR                
#
#
#
#                             =================
#                             |The decay table|
#                             =================
#
# - The QCD corrections to the decays gluino -> squark  + quark
#                                     squark -> gaugino + quark_prime
#                                     squark -> squark_prime + Higgs
#                                     squark -> gluino  + quark
#   are included.
#
# - The multi-body decays for the inos, stops and sbottoms are included.
#
# - The loop induced decays for the gluino, neutralinos and stops
#   are included.
#
# - The SUSY decays of the top quark are included.
#
# - Possible decays of the NLSP in GMSB models are included.
#
#
#         PDG            Width
DECAY         6     1.37553444E+00   # top decays
#          BR         NDA      ID1       ID2
     1.00000000E+00    2           5        24   # BR(t ->  b    W+)
#
#         PDG            Width
DECAY   1000021     4.25904626E-04   # gluino decays
#          BR         NDA      ID1       ID2
     1.15915306E-02    2     1000022        21   # BR(~g -> ~chi_10 g)
     2.01542524E-02    2     1000023        21   # BR(~g -> ~chi_20 g)
     8.37227315E-03    2     1000025        21   # BR(~g -> ~chi_30 g)
#          BR         NDA      ID1       ID2
0.0E+00    2     1000039    21 # BR(~g -> ~G      g)
#           BR         NDA      ID1       ID2       ID3
     5.12127475E-03    3     1000022         1        -1   # BR(~g -> ~chi_10 d  db)
     1.17371450E-06    3     1000023         1        -1   # BR(~g -> ~chi_20 d  db)
     4.37644070E-03    3     1000025         1        -1   # BR(~g -> ~chi_30 d  db)
     1.59177532E-02    3     1000022         2        -2   # BR(~g -> ~chi_10 u  ub)
     1.29582516E-06    3     1000023         2        -2   # BR(~g -> ~chi_20 u  ub)
     1.60110326E-02    3     1000025         2        -2   # BR(~g -> ~chi_30 u  ub)
     5.12127475E-03    3     1000022         3        -3   # BR(~g -> ~chi_10 s  sb)
     1.17371450E-06    3     1000023         3        -3   # BR(~g -> ~chi_20 s  sb)
     4.37644070E-03    3     1000025         3        -3   # BR(~g -> ~chi_30 s  sb)
     1.59177532E-02    3     1000022         4        -4   # BR(~g -> ~chi_10 c  cb)
     1.29582516E-06    3     1000023         4        -4   # BR(~g -> ~chi_20 c  cb)
     1.60110326E-02    3     1000025         4        -4   # BR(~g -> ~chi_30 c  cb)
     5.22952333E-03    3     1000022         5        -5   # BR(~g -> ~chi_10 b  bb)
     2.24569646E-04    3     1000023         5        -5   # BR(~g -> ~chi_20 b  bb)
     4.48411353E-03    3     1000025         5        -5   # BR(~g -> ~chi_30 b  bb)
     1.09718073E-01    3     1000022         6        -6   # BR(~g -> ~chi_10 t  tb)
     1.73313228E-01    3     1000023         6        -6   # BR(~g -> ~chi_20 t  tb)
     9.90787174E-02    3     1000025         6        -6   # BR(~g -> ~chi_30 t  tb)
     9.52303294E-05    3     1000024         1        -2   # BR(~g -> ~chi_1+ d  ub)
     9.52303294E-05    3    -1000024         2        -1   # BR(~g -> ~chi_1- u  db)
     9.52303294E-05    3     1000024         3        -4   # BR(~g -> ~chi_1+ s  cb)
     9.52303294E-05    3    -1000024         4        -3   # BR(~g -> ~chi_1- c  sb)
     2.31258438E-01    3     1000024         5        -6   # BR(~g -> ~chi_1+ b  tb)
     2.31258438E-01    3    -1000024         6        -5   # BR(~g -> ~chi_1- t  bb)
#
#         PDG            Width
DECAY   1000006     3.21513496E+02   # stop1 decays
#          BR         NDA      ID1       ID2
     6.01046646E-02    2     1000022         6   # BR(~t_1 -> ~chi_10 t )
     1.12707229E-01    2     1000023         6   # BR(~t_1 -> ~chi_20 t )
     5.42761105E-02    2     1000025         6   # BR(~t_1 -> ~chi_30 t )
     2.39831261E-02    2     1000035         6   # BR(~t_1 -> ~chi_40 t )
     1.01124726E-04    2     1000024         5   # BR(~t_1 -> ~chi_1+ b )
     4.77892623E-02    2     1000037         5   # BR(~t_1 -> ~chi_2+ b )
     6.84625620E-01    2     1000021         6   # BR(~t_1 -> ~g      t )
     5.92585922E-03    2     1000005        24   # BR(~t_1 -> ~b_1    W+)
     1.04870033E-02    2     2000005        24   # BR(~t_1 -> ~b_2    W+)
#
#         PDG            Width
DECAY   2000006     4.00373226E+02   # stop2 decays
#          BR         NDA      ID1       ID2
     6.59892132E-02    2     1000022         6   # BR(~t_2 -> ~chi_10 t )
     9.63745375E-02    2     1000023         6   # BR(~t_2 -> ~chi_20 t )
     5.83577263E-02    2     1000025         6   # BR(~t_2 -> ~chi_30 t )
    -9.56504621E-06    2     1000035         6   # BR(~t_2 -> ~chi_40 t )
     1.92801867E-01    2     1000024         5   # BR(~t_2 -> ~chi_1+ b )
    -1.89833752E-05    2     1000037         5   # BR(~t_2 -> ~chi_2+ b )
     5.86398925E-01    2     1000021         6   # BR(~t_2 -> ~g      t )
    -4.77679436E-05    2     1000006        25   # BR(~t_2 -> ~t_1    h )
     2.23945034E-05    2     1000006        23   # BR(~t_2 -> ~t_1    Z )
     4.71421734E-05    2     1000005        24   # BR(~t_2 -> ~b_1    W+)
     8.45107428E-05    2     2000005        24   # BR(~t_2 -> ~b_2    W+)
#
#         PDG            Width
DECAY   1000005     2.32068686E+02   # sbottom1 decays
#          BR         NDA      ID1       ID2
     5.18704464E-03    2     1000022         5   # BR(~b_1 -> ~chi_10 b )
     8.50486942E-05    2     1000023         5   # BR(~b_1 -> ~chi_20 b )
     4.46652720E-03    2     1000025         5   # BR(~b_1 -> ~chi_30 b )
     6.41859098E-03    2     1000035         5   # BR(~b_1 -> ~chi_40 b )
     4.70812901E-02    2    -1000024         6   # BR(~b_1 -> ~chi_1- t )
     1.28778220E-02    2    -1000037         6   # BR(~b_1 -> ~chi_2- t )
     9.23883676E-01    2     1000021         5   # BR(~b_1 -> ~g      b )
#
#         PDG            Width
DECAY   2000005     2.91748210E+02   # sbottom2 decays
#          BR         NDA      ID1       ID2
     1.38542059E-03    2     1000022         5   # BR(~b_2 -> ~chi_10 b )
     1.06521024E-04    2     1000023         5   # BR(~b_2 -> ~chi_20 b )
     2.31868735E-03    2     1000025         5   # BR(~b_2 -> ~chi_30 b )
     1.89645617E-02    2     1000035         5   # BR(~b_2 -> ~chi_40 b )
     2.04485751E-01    2    -1000024         6   # BR(~b_2 -> ~chi_1- t )
     3.80721816E-02    2    -1000037         6   # BR(~b_2 -> ~chi_2- t )
     7.34666876E-01    2     1000021         5   # BR(~b_2 -> ~g      b )
#
#         PDG            Width
DECAY   1000002     2.36127214E+02   # sup_L decays
#          BR         NDA      ID1       ID2
     8.57691889E-04    2     1000022         2   # BR(~u_L -> ~chi_10 u)
     5.45792305E-07    2     1000023         2   # BR(~u_L -> ~chi_20 u)
     1.98238210E-03    2     1000025         2   # BR(~u_L -> ~chi_30 u)
     2.97224465E-02    2     1000035         2   # BR(~u_L -> ~chi_40 u)
     1.78066196E-04    2     1000024         1   # BR(~u_L -> ~chi_1+ d)
     5.94410768E-02    2     1000037         1   # BR(~u_L -> ~chi_2+ d)
     9.07817791E-01    2     1000021         2   # BR(~u_L -> ~g      u)
#
#         PDG            Width
DECAY   2000002     2.24790089E+02   # sup_R decays
#          BR         NDA      ID1       ID2
     2.09420701E-02    2     1000022         2   # BR(~u_R -> ~chi_10 u)
     3.74108902E-06    2     1000023         2   # BR(~u_R -> ~chi_20 u)
     2.54356455E-02    2     1000025         2   # BR(~u_R -> ~chi_30 u)
     4.36230890E-09    2     1000035         2   # BR(~u_R -> ~chi_40 u)
     9.53618539E-01    2     1000021         2   # BR(~u_R -> ~g      u)
#
#         PDG            Width
DECAY   1000001     2.36131138E+02   # sdown_L decays
#          BR         NDA      ID1       ID2
     1.70671336E-03    2     1000022         1   # BR(~d_L -> ~chi_10 d)
     2.83044840E-06    2     1000023         1   # BR(~d_L -> ~chi_20 d)
     1.10762866E-03    2     1000025         1   # BR(~d_L -> ~chi_30 d)
     2.97382530E-02    2     1000035         1   # BR(~d_L -> ~chi_40 d)
     9.86851670E-05    2    -1000024         2   # BR(~d_L -> ~chi_1- u)
     5.94804564E-02    2    -1000037         2   # BR(~d_L -> ~chi_2- u)
     9.07865433E-01    2     1000021         1   # BR(~d_L -> ~g      d)
#
#         PDG            Width
DECAY   2000001     2.16975236E+02   # sdown_R decays
#          BR         NDA      ID1       ID2
     5.42417361E-03    2     1000022         1   # BR(~d_R -> ~chi_10 d)
     9.68973848E-07    2     1000023         1   # BR(~d_R -> ~chi_20 d)
     6.58804911E-03    2     1000025         1   # BR(~d_R -> ~chi_30 d)
     1.12991906E-09    2     1000035         1   # BR(~d_R -> ~chi_40 d)
     9.87986807E-01    2     1000021         1   # BR(~d_R -> ~g      d)
#
#         PDG            Width
DECAY   1000004     2.36127214E+02   # scharm_L decays
#          BR         NDA      ID1       ID2
     8.57691889E-04    2     1000022         4   # BR(~c_L -> ~chi_10 c)
     5.45792305E-07    2     1000023         4   # BR(~c_L -> ~chi_20 c)
     1.98238210E-03    2     1000025         4   # BR(~c_L -> ~chi_30 c)
     2.97224465E-02    2     1000035         4   # BR(~c_L -> ~chi_40 c)
     1.78066196E-04    2     1000024         3   # BR(~c_L -> ~chi_1+ s)
     5.94410768E-02    2     1000037         3   # BR(~c_L -> ~chi_2+ s)
     9.07817791E-01    2     1000021         4   # BR(~c_L -> ~g      c)
#
#         PDG            Width
DECAY   2000004     2.24790089E+02   # scharm_R decays
#          BR         NDA      ID1       ID2
     2.09420701E-02    2     1000022         4   # BR(~c_R -> ~chi_10 c)
     3.74108902E-06    2     1000023         4   # BR(~c_R -> ~chi_20 c)
     2.54356455E-02    2     1000025         4   # BR(~c_R -> ~chi_30 c)
     4.36230890E-09    2     1000035         4   # BR(~c_R -> ~chi_40 c)
     9.53618539E-01    2     1000021         4   # BR(~c_R -> ~g      c)
#
#         PDG            Width
DECAY   1000003     2.36131138E+02   # sstrange_L decays
#          BR         NDA      ID1       ID2
     1.70671336E-03    2     1000022         3   # BR(~s_L -> ~chi_10 s)
     2.83044840E-06    2     1000023         3   # BR(~s_L -> ~chi_20 s)
     1.10762866E-03    2     1000025         3   # BR(~s_L -> ~chi_30 s)
     2.97382530E-02    2     1000035         3   # BR(~s_L -> ~chi_40 s)
     9.86851670E-05    2    -1000024         4   # BR(~s_L -> ~chi_1- c)
     5.94804564E-02    2    -1000037         4   # BR(~s_L -> ~chi_2- c)
     9.07865433E-01    2     1000021         3   # BR(~s_L -> ~g      s)
#
#         PDG            Width
DECAY   2000003     2.16975236E+02   # sstrange_R decays
#          BR         NDA      ID1       ID2
     5.42417361E-03    2     1000022         3   # BR(~s_R -> ~chi_10 s)
     9.68973848E-07    2     1000023         3   # BR(~s_R -> ~chi_20 s)
     6.58804911E-03    2     1000025         3   # BR(~s_R -> ~chi_30 s)
     1.12991906E-09    2     1000035         3   # BR(~s_R -> ~chi_40 s)
     9.87986807E-01    2     1000021         3   # BR(~s_R -> ~g      s)
#
#         PDG            Width
DECAY   1000011     2.79086881E+01   # selectron_L decays
#          BR         NDA      ID1       ID2
     8.74677161E-02    2     1000022        11   # BR(~e_L -> ~chi_10 e-)
     3.67733625E-07    2     1000023        11   # BR(~e_L -> ~chi_20 e-)
     1.31180520E-01    2     1000025        11   # BR(~e_L -> ~chi_30 e-)
     2.60020935E-01    2     1000035        11   # BR(~e_L -> ~chi_40 e-)
     8.65110026E-04    2    -1000024        12   # BR(~e_L -> ~chi_1- nu_e)
     5.20465351E-01    2    -1000037        12   # BR(~e_L -> ~chi_2- nu_e)
#
#         PDG            Width
DECAY   2000011     2.43065532E+01   # selectron_R decays
#          BR         NDA      ID1       ID2
     4.51539383E-01    2     1000022        11   # BR(~e_R -> ~chi_10 e-)
     8.06594649E-05    2     1000023        11   # BR(~e_R -> ~chi_20 e-)
     5.48379864E-01    2     1000025        11   # BR(~e_R -> ~chi_30 e-)
     9.38884665E-08    2     1000035        11   # BR(~e_R -> ~chi_40 e-)
#
#         PDG            Width
DECAY   1000013     2.79086881E+01   # smuon_L decays
#          BR         NDA      ID1       ID2
     8.74677161E-02    2     1000022        13   # BR(~mu_L -> ~chi_10 mu-)
     3.67733625E-07    2     1000023        13   # BR(~mu_L -> ~chi_20 mu-)
     1.31180520E-01    2     1000025        13   # BR(~mu_L -> ~chi_30 mu-)
     2.60020935E-01    2     1000035        13   # BR(~mu_L -> ~chi_40 mu-)
     8.65110026E-04    2    -1000024        14   # BR(~mu_L -> ~chi_1- nu_mu)
     5.20465351E-01    2    -1000037        14   # BR(~mu_L -> ~chi_2- nu_mu)
#
#         PDG            Width
DECAY   2000013     2.43065532E+01   # smuon_R decays
#          BR         NDA      ID1       ID2
     4.51539383E-01    2     1000022        13   # BR(~mu_R -> ~chi_10 mu-)
     8.06594649E-05    2     1000023        13   # BR(~mu_R -> ~chi_20 mu-)
     5.48379864E-01    2     1000025        13   # BR(~mu_R -> ~chi_30 mu-)
     9.38884665E-08    2     1000035        13   # BR(~mu_R -> ~chi_40 mu-)
#
#         PDG            Width
DECAY   1000015     2.61373089E+01   # stau_1 decays
#          BR         NDA      ID1       ID2
     2.67664996E-01    2     1000022        15   # BR(~tau_1 -> ~chi_10  tau-)
     4.44906354E-04    2     1000023        15   # BR(~tau_1 -> ~chi_20  tau-)
     3.24700789E-01    2     1000025        15   # BR(~tau_1 -> ~chi_30  tau-)
     1.34901861E-01    2     1000035        15   # BR(~tau_1 -> ~chi_40  tau-)
     2.12594741E-03    2    -1000024        16   # BR(~tau_1 -> ~chi_1-  nu_tau)
     2.70023857E-01    2    -1000037        16   # BR(~tau_1 -> ~chi_2-  nu_tau)
     1.37644217E-04    2     1000039        15   # BR(~tau_1 -> ~G       tau-)
#
#         PDG            Width
DECAY   2000015     2.61763104E+01   # stau_2 decays
#          BR         NDA      ID1       ID2
     2.45952855E-01    2     1000022        15   # BR(~tau_2 -> ~chi_10  tau-)
     8.36210719E-04    2     1000023        15   # BR(~tau_2 -> ~chi_20  tau-)
     3.25386427E-01    2     1000025        15   # BR(~tau_2 -> ~chi_30  tau-)
     1.42529120E-01    2     1000035        15   # BR(~tau_2 -> ~chi_40  tau-)
     6.10851527E-06    2    -1000024        16   # BR(~tau_2 -> ~chi_1-  nu_tau)
     2.85289278E-01    2    -1000037        16   # BR(~tau_2 -> ~chi_2-  nu_tau)
#
#         PDG            Width
DECAY   1000012     2.79076430E+01   # snu_eL decays
#          BR         NDA      ID1       ID2
     1.09795007E-01    2     1000022        12   # BR(~nu_eL -> ~chi_10 nu_e)
     6.04507148E-05    2     1000023        12   # BR(~nu_eL -> ~chi_20 nu_e)
     1.08173126E-01    2     1000025        12   # BR(~nu_eL -> ~chi_30 nu_e)
     2.60277571E-01    2     1000035        12   # BR(~nu_eL -> ~chi_40 nu_e)
     1.56102734E-03    2     1000024        11   # BR(~nu_eL -> ~chi_1+ e-)
     5.20132817E-01    2     1000037        11   # BR(~nu_eL -> ~chi_2+ e-)
#
#         PDG            Width
DECAY   1000014     2.79076430E+01   # snu_muL decays
#          BR         NDA      ID1       ID2
     1.09795007E-01    2     1000022        14   # BR(~nu_muL -> ~chi_10 nu_mu)
     6.04507148E-05    2     1000023        14   # BR(~nu_muL -> ~chi_20 nu_mu)
     1.08173126E-01    2     1000025        14   # BR(~nu_muL -> ~chi_30 nu_mu)
     2.60277571E-01    2     1000035        14   # BR(~nu_muL -> ~chi_40 nu_mu)
     1.56102734E-03    2     1000024        13   # BR(~nu_muL -> ~chi_1+ mu-)
     5.20132817E-01    2     1000037        13   # BR(~nu_muL -> ~chi_2+ mu-)
#
#         PDG            Width
DECAY   1000016     2.79392329E+01   # snu_tauL decays
#          BR         NDA      ID1       ID2
     1.09670866E-01    2     1000022        16   # BR(~nu_tauL -> ~chi_10 nu_tau)
     6.03823655E-05    2     1000023        16   # BR(~nu_tauL -> ~chi_20 nu_tau)
     1.08050819E-01    2     1000025        16   # BR(~nu_tauL -> ~chi_30 nu_tau)
     2.59983285E-01    2     1000035        16   # BR(~nu_tauL -> ~chi_40 nu_tau)
     2.68946672E-03    2     1000024        15   # BR(~nu_tauL -> ~chi_1+ tau-)
     5.19545181E-01    2     1000037        15   # BR(~nu_tauL -> ~chi_2+ tau-)
#
#         PDG            Width
DECAY   1000024     6.06522004E-05   # chargino1+ decays
#          BR         NDA      ID1       ID2
     2.21083517E-04    2     1000039        24   # BR(~chi_1+ -> ~G       W+)
#           BR         NDA      ID1       ID2       ID3
     3.33631243E-01    3     1000022         2        -1   # BR(~chi_1+ -> ~chi_10 u    db)
     3.33631243E-01    3     1000022         4        -3   # BR(~chi_1+ -> ~chi_10 c    sb)
     1.11210541E-01    3     1000022       -11        12   # BR(~chi_1+ -> ~chi_10 e+   nu_e)
     1.11210541E-01    3     1000022       -13        14   # BR(~chi_1+ -> ~chi_10 mu+  nu_mu)
     1.10095347E-01    3     1000022       -15        16   # BR(~chi_1+ -> ~chi_10 tau+ nu_tau)
#
#         PDG            Width
DECAY   1000037     3.50051914E+01   # chargino2+ decays
#          BR         NDA      ID1       ID2
     2.21825352E-01    2     1000024        23   # BR(~chi_2+ -> ~chi_1+  Z )
     1.12699900E-01    2     1000022        24   # BR(~chi_2+ -> ~chi_10  W+)
     2.16298174E-01    2     1000023        24   # BR(~chi_2+ -> ~chi_20  W+)
     1.03589843E-01    2     1000025        24   # BR(~chi_2+ -> ~chi_30  W+)
     2.22780048E-01    2     1000024        25   # BR(~chi_2+ -> ~chi_1+  h )
     3.05872372E-02    2     1000024        35   # BR(~chi_2+ -> ~chi_1+  H )
     3.08289400E-02    2     1000024        36   # BR(~chi_2+ -> ~chi_1+  A )
     1.80030230E-02    2     1000022        37   # BR(~chi_2+ -> ~chi_10  H+)
     3.05913576E-02    2     1000023        37   # BR(~chi_2+ -> ~chi_20  H+)
     1.27862883E-02    2     1000025        37   # BR(~chi_2+ -> ~chi_30  H+)
     9.83574022E-06    2     1000039        24   # BR(~chi_2+ -> ~G       W+)
     4.69036003E-10    2     1000039        37   # BR(~chi_2+ -> ~G       H+)
#
#         PDG            Width
DECAY   1000022    1.0E-05    # neutralino1 decays
#          BR         NDA      ID1       ID2
     5.00342648E-01    2     1000039        22   # BR(~chi_10 -> ~G        gam)
     4.89469955E-01    2     1000039        23   # BR(~chi_10 -> ~G        Z)
     1.01873969E-02    2     1000039        25   # BR(~chi_10 -> ~G        h)
#
#         PDG            Width
DECAY   1000023     6.55117227E-05   # neutralino2 decays
#          BR         NDA      ID1       ID2
     8.02993521E-04    2     1000022        22   # BR(~chi_20 -> ~chi_10 gam)
#          BR         NDA      ID1       ID2
     1.52709047E-08    2     1000039        22   # BR(~chi_20 -> ~G        gam)
     7.86718063E-06    2     1000039        23   # BR(~chi_20 -> ~G        Z)
     1.69998091E-04    2     1000039        25   # BR(~chi_20 -> ~G        h)
#           BR         NDA      ID1       ID2       ID3
     1.19103361E-01    3     1000022        -2         2   # BR(~chi_20 -> ~chi_10 ub      u)
     1.54184480E-01    3     1000022        -1         1   # BR(~chi_20 -> ~chi_10 db      d)
     1.19103361E-01    3     1000022        -4         4   # BR(~chi_20 -> ~chi_10 cb      c)
     1.54184480E-01    3     1000022        -3         3   # BR(~chi_20 -> ~chi_10 sb      s)
     1.36454715E-01    3     1000022        -5         5   # BR(~chi_20 -> ~chi_10 bb      b)
     3.51963576E-02    3     1000022       -11        11   # BR(~chi_20 -> ~chi_10 e+      e-)
     3.51963576E-02    3     1000022       -13        13   # BR(~chi_20 -> ~chi_10 mu+     mu-)
     3.47596484E-02    3     1000022       -15        15   # BR(~chi_20 -> ~chi_10 tau+    tau-)
     7.02780565E-02    3     1000022       -12        12   # BR(~chi_20 -> ~chi_10 nu_eb   nu_e)
     7.02780565E-02    3     1000022       -14        14   # BR(~chi_20 -> ~chi_10 nu_mub  nu_mu)
     7.02780565E-02    3     1000022       -16        16   # BR(~chi_20 -> ~chi_10 nu_taub nu_tau)
     4.09553705E-07    3     1000024        -2         1   # BR(~chi_20 -> ~chi_1+ ub      d)
     4.09553705E-07    3    -1000024        -1         2   # BR(~chi_20 -> ~chi_1- db      u)
     4.09553705E-07    3     1000024        -4         3   # BR(~chi_20 -> ~chi_1+ cb      s)
     4.09553705E-07    3    -1000024        -3         4   # BR(~chi_20 -> ~chi_1- sb      c)
     1.36517916E-07    3     1000024       -12        11   # BR(~chi_20 -> ~chi_1+ nu_eb   e-)
     1.36517916E-07    3    -1000024        12       -11   # BR(~chi_20 -> ~chi_1- nu_e    e+)
     1.36517916E-07    3     1000024       -14        13   # BR(~chi_20 -> ~chi_1+ nu_mub  mu-)
     1.36517916E-07    3    -1000024        14       -13   # BR(~chi_20 -> ~chi_1- nu_mu   mu+)
     4.82402437E-09    3     1000024       -16        15   # BR(~chi_20 -> ~chi_1+ nu_taub tau-)
     4.82402437E-09    3    -1000024        16       -15   # BR(~chi_20 -> ~chi_1- nu_tau  tau+)
#
#         PDG            Width
DECAY   1000025     3.74484363E-04   # neutralino3 decays
#          BR         NDA      ID1       ID2
     2.17081691E-04    2     1000022        22   # BR(~chi_30 -> ~chi_10 gam)
     5.21470932E-04    2     1000023        22   # BR(~chi_30 -> ~chi_20 gam)
#          BR         NDA      ID1       ID2
     5.53659308E-05    2     1000039        22   # BR(~chi_30 -> ~G        gam)
     3.83268454E-05    2     1000039        23   # BR(~chi_30 -> ~G        Z)
     9.41260942E-07    2     1000039        25   # BR(~chi_30 -> ~G        h)
#           BR         NDA      ID1       ID2       ID3
     3.39066860E-08    3     1000022        -2         2   # BR(~chi_30 -> ~chi_10 ub      u)
     3.80466604E-08    3     1000022        -1         1   # BR(~chi_30 -> ~chi_10 db      d)
     3.39066860E-08    3     1000022        -4         4   # BR(~chi_30 -> ~chi_10 cb      c)
     3.80466604E-08    3     1000022        -3         3   # BR(~chi_30 -> ~chi_10 sb      s)
     1.02728566E-06    3     1000022        -5         5   # BR(~chi_30 -> ~chi_10 bb      b)
     9.05817467E-08    3     1000022       -11        11   # BR(~chi_30 -> ~chi_10 e+      e-)
     9.05817467E-08    3     1000022       -13        13   # BR(~chi_30 -> ~chi_10 mu+     mu-)
     2.38942264E-07    3     1000022       -15        15   # BR(~chi_30 -> ~chi_10 tau+    tau-)
     6.05539477E-09    3     1000022       -12        12   # BR(~chi_30 -> ~chi_10 nu_eb   nu_e)
     6.05539477E-09    3     1000022       -14        14   # BR(~chi_30 -> ~chi_10 nu_mub  nu_mu)
     6.05539477E-09    3     1000022       -16        16   # BR(~chi_30 -> ~chi_10 nu_taub nu_tau)
     2.75005006E-02    3     1000023        -2         2   # BR(~chi_30 -> ~chi_20 ub      u)
     3.56007236E-02    3     1000023        -1         1   # BR(~chi_30 -> ~chi_20 db      d)
     2.75005006E-02    3     1000023        -4         4   # BR(~chi_30 -> ~chi_20 cb      c)
     3.56007236E-02    3     1000023        -3         3   # BR(~chi_30 -> ~chi_20 sb      s)
     3.21190274E-02    3     1000023        -5         5   # BR(~chi_30 -> ~chi_20 bb      b)
     8.12680624E-03    3     1000023       -11        11   # BR(~chi_30 -> ~chi_20 e+      e-)
     8.12680624E-03    3     1000023       -13        13   # BR(~chi_30 -> ~chi_20 mu+     mu-)
     8.03859892E-03    3     1000023       -15        15   # BR(~chi_30 -> ~chi_20 tau+    tau-)
     1.62268823E-02    3     1000023       -12        12   # BR(~chi_30 -> ~chi_20 nu_eb   nu_e)
     1.62268823E-02    3     1000023       -14        14   # BR(~chi_30 -> ~chi_20 nu_mub  nu_mu)
     1.62268823E-02    3     1000023       -16        16   # BR(~chi_30 -> ~chi_20 nu_taub nu_tau)
     1.28074066E-01    3     1000024        -2         1   # BR(~chi_30 -> ~chi_1+ ub      d)
     1.28074066E-01    3    -1000024        -1         2   # BR(~chi_30 -> ~chi_1- db      u)
     1.28074066E-01    3     1000024        -4         3   # BR(~chi_30 -> ~chi_1+ cb      s)
     1.28074066E-01    3    -1000024        -3         4   # BR(~chi_30 -> ~chi_1- sb      c)
     4.26912706E-02    3     1000024       -12        11   # BR(~chi_30 -> ~chi_1+ nu_eb   e-)
     4.26912706E-02    3    -1000024        12       -11   # BR(~chi_30 -> ~chi_1- nu_e    e+)
     4.26912706E-02    3     1000024       -14        13   # BR(~chi_30 -> ~chi_1+ nu_mub  mu-)
     4.26912706E-02    3    -1000024        14       -13   # BR(~chi_30 -> ~chi_1- nu_mu   mu+)
     4.24047621E-02    3     1000024       -16        15   # BR(~chi_30 -> ~chi_1+ nu_taub tau-)
     4.24047621E-02    3    -1000024        16       -15   # BR(~chi_30 -> ~chi_1- nu_tau  tau+)
#
#         PDG            Width
DECAY   1000035     3.50055865E+01   # neutralino4 decays
#          BR         NDA      ID1       ID2
     2.28675609E-03    2     1000022        23   # BR(~chi_40 -> ~chi_10   Z )
     2.17341715E-01    2     1000023        23   # BR(~chi_40 -> ~chi_20   Z )
     2.33072222E-03    2     1000025        23   # BR(~chi_40 -> ~chi_30   Z )
     2.16109847E-01    2     1000024       -24   # BR(~chi_40 -> ~chi_1+   W-)
     2.16109847E-01    2    -1000024        24   # BR(~chi_40 -> ~chi_1-   W+)
     1.13922479E-01    2     1000022        25   # BR(~chi_40 -> ~chi_10   h )
     1.89684840E-03    2     1000022        35   # BR(~chi_40 -> ~chi_10   H )
     1.60804836E-02    2     1000022        36   # BR(~chi_40 -> ~chi_10   A )
     4.60543359E-03    2     1000023        25   # BR(~chi_40 -> ~chi_20   h )
     2.72086622E-02    2     1000023        35   # BR(~chi_40 -> ~chi_20   H )
     3.30326504E-03    2     1000023        36   # BR(~chi_40 -> ~chi_20   A )
     1.04487940E-01    2     1000025        25   # BR(~chi_40 -> ~chi_30   h )
     1.35030498E-03    2     1000025        35   # BR(~chi_40 -> ~chi_30   H )
     1.14202137E-02    2     1000025        36   # BR(~chi_40 -> ~chi_30   A )
     3.07678225E-02    2     1000024       -37   # BR(~chi_40 -> ~chi_1+   H-)
     3.07678225E-02    2    -1000024        37   # BR(~chi_40 -> ~chi_1-   H+)
     2.36006040E-06    2     1000039        22   # BR(~chi_40 -> ~G        gam)
     7.47484137E-06    2     1000039        23   # BR(~chi_40 -> ~G        Z)
     4.80499758E-10    2     1000039        25   # BR(~chi_40 -> ~G        h)
     4.65785378E-10    2     1000039        35   # BR(~chi_40 -> ~G        H)
     1.43379593E-12    2     1000039        36   # BR(~chi_40 -> ~G        A)
#
#         PDG            Width
DECAY        25     4.21729601E-03   # h decays
#          BR         NDA      ID1       ID2
     6.01695760E-01    2           5        -5   # BR(h -> b       bb     )
     6.22549527E-02    2         -15        15   # BR(h -> tau+    tau-   )
     2.20355392E-04    2         -13        13   # BR(h -> mu+     mu-    )
     4.66229340E-04    2           3        -3   # BR(h -> s       sb     )
     2.01138362E-02    2           4        -4   # BR(h -> c       cb     )
     6.64245100E-02    2          21        21   # BR(h -> g       g      )
     2.31262672E-03    2          22        22   # BR(h -> gam     gam    )
     1.62690395E-03    2          22        23   # BR(h -> Z       gam    )
     2.16796798E-01    2          24       -24   # BR(h -> W+      W-     )
     2.80880271E-02    2          23        23   # BR(h -> Z       Z      )
#
#         PDG            Width
DECAY        35     3.99028823E+01   # H decays
#          BR         NDA      ID1       ID2
     1.39685606E-03    2           5        -5   # BR(H -> b       bb     )
     2.33524983E-04    2         -15        15   # BR(H -> tau+    tau-   )
     8.25597757E-07    2         -13        13   # BR(H -> mu+     mu-    )
     1.05705258E-06    2           3        -3   # BR(H -> s       sb     )
     9.53971414E-06    2           4        -4   # BR(H -> c       cb     )
     9.43915622E-01    2           6        -6   # BR(H -> t       tb     )
     7.55946422E-04    2          21        21   # BR(H -> g       g      )
     2.63734435E-06    2          22        22   # BR(H -> gam     gam    )
     1.09853435E-06    2          23        22   # BR(H -> Z       gam    )
     3.17941671E-04    2          24       -24   # BR(H -> W+      W-     )
     1.58537225E-04    2          23        23   # BR(H -> Z       Z      )
     8.57401268E-04    2          25        25   # BR(H -> h       h      )
     8.92821452E-24    2          36        36   # BR(H -> A       A      )
     3.54509442E-11    2          23        36   # BR(H -> Z       A      )
     3.18651591E-12    2          24       -37   # BR(H -> W+      H-     )
     3.18651591E-12    2         -24        37   # BR(H -> W-      H+     )
     5.65292081E-05    2     1000024  -1000024   # BR(H -> ~chi_1+ ~chi_1-)
     9.95171171E-04    2     1000022   1000022   # BR(H -> ~chi_10 ~chi_10)
     2.27683900E-05    2     1000023   1000023   # BR(H -> ~chi_20 ~chi_20)
     5.62237780E-04    2     1000025   1000025   # BR(H -> ~chi_30 ~chi_30)
     2.57855196E-02    2     1000022   1000023   # BR(H -> ~chi_10 ~chi_20)
     1.24761406E-05    2     1000022   1000025   # BR(H -> ~chi_10 ~chi_30)
     2.49143102E-02    2     1000023   1000025   # BR(H -> ~chi_20 ~chi_30)
#
#         PDG            Width
DECAY        36     4.03526714E+01   # A decays
#          BR         NDA      ID1       ID2
     1.39953748E-03    2           5        -5   # BR(A -> b       bb     )
     2.31117695E-04    2         -15        15   # BR(A -> tau+    tau-   )
     8.17084541E-07    2         -13        13   # BR(A -> mu+     mu-    )
     1.07720800E-06    2           3        -3   # BR(A -> s       sb     )
     9.43977713E-06    2           4        -4   # BR(A -> c       cb     )
     9.44754280E-01    2           6        -6   # BR(A -> t       tb     )
     8.94227875E-04    2          21        21   # BR(A -> g       g      )
     2.66894005E-06    2          22        22   # BR(A -> gam     gam    )
     1.28092844E-06    2          23        22   # BR(A -> Z       gam    )
     3.09761259E-04    2          23        25   # BR(A -> Z       h      )
     6.47366235E-04    2     1000024  -1000024   # BR(A -> ~chi_1+ ~chi_1-)
     2.86082592E-02    2     1000022   1000022   # BR(A -> ~chi_10 ~chi_10)
     1.16217902E-06    2     1000023   1000023   # BR(A -> ~chi_20 ~chi_20)
     2.15247087E-02    2     1000025   1000025   # BR(A -> ~chi_30 ~chi_30)
     6.61866605E-04    2     1000022   1000023   # BR(A -> ~chi_10 ~chi_20)
     1.09996348E-04    2     1000022   1000025   # BR(A -> ~chi_10 ~chi_30)
     8.42432273E-04    2     1000023   1000025   # BR(A -> ~chi_20 ~chi_30)
#
#         PDG            Width
DECAY        37     3.95433813E+01   # H+ decays
#          BR         NDA      ID1       ID2
     2.24564106E-06    2           4        -5   # BR(H+ -> c       bb     )
     2.36087169E-04    2         -15        16   # BR(H+ -> tau+    nu_tau )
     8.34653425E-07    2         -13        14   # BR(H+ -> mu+     nu_mu  )
     1.42774900E-08    2           2        -5   # BR(H+ -> u       bb     )
     5.16883844E-08    2           2        -3   # BR(H+ -> u       sb     )
     1.02991055E-05    2           4        -3   # BR(H+ -> c       sb     )
     9.46647600E-01    2           6        -5   # BR(H+ -> t       bb     )
     3.17516651E-04    2          24        25   # BR(H+ -> W+      h      )
     1.14767418E-12    2          24        36   # BR(H+ -> W+      A      )
     2.39209581E-02    2     1000024   1000022   # BR(H+ -> ~chi_1+ ~chi_10)
     1.46290569E-04    2     1000024   1000023   # BR(H+ -> ~chi_1+ ~chi_20)
     2.87181023E-02    2     1000024   1000025   # BR(H+ -> ~chi_1+ ~chi_30)
