#
#                              ======================
#                              | THE SUSYHIT OUTPUT |
#                              ======================
#
#
#              ------------------------------------------------------
#              |     This is the output of the SUSY-HIT package     |
#              |  created by A.Djouadi, M.Muehlleitner and M.Spira. |
#              |  In case of problems with SUSY-HIT email to        |
#              |           margarete.muehlleitner@cern.ch           |
#              |           michael.spira@psi.ch                     |
#              |           abdelhak.djouadi@cern.ch                 |
#              ------------------------------------------------------
#
#              ------------------------------------------------------
#              |  SUSY Les Houches Accord - MSSM Spectrum + Decays  |
#              |              based on the decay programs           |
#              |                                                    |
#              |                     SDECAY 1.3b                    |
#              |                                                    |
#              |  Authors: M.Muhlleitner, A.Djouadi and Y.Mambrini  |
#              |  Ref.:    Comput.Phys.Commun.168(2005)46           |
#              |           [hep-ph/0311167]                         |
#              |                                                    |
#              |                     HDECAY 3.4                     |
#              |                                                    |
#              |  By: A.Djouadi,J.Kalinowski,M.Muhlleitner,M.Spira  |
#              |  Ref.:    Comput.Phys.Commun.108(1998)56           |
#              |           [hep-ph/9704448]                         |
#              |                                                    |
#              |                                                    |
#              |  If not stated otherwise all DRbar couplings and   |
#              |  soft SUSY breaking masses are given at the scale  |
#              |  Q=  0.50007204E+04
#              |                                                    |
#              ------------------------------------------------------
#
#
BLOCK DCINFO  # Decay Program information
     1   SDECAY/HDECAY # decay calculator
     2   1.3b  /3.4    # version number
#
BLOCK SPINFO  # Spectrum calculator information
     1    SOFTSUSY    # spectrum calculator                
     2    3.4.0       # version number                     
#
BLOCK MODSEL  # Model selection
     1     0   #  nonUniversal                                     
#
BLOCK SMINPUTS  # Standard Model inputs
         1     1.25778332E+02   # alpha_em^-1(M_Z)^MSbar
         2     1.16570000E-05   # G_F [GeV^-2]
         3     1.17200002E-01   # alpha_S(M_Z)^MSbar
         4     9.11876000E+01   # M_Z pole mass
         5     4.25000000E+00   # mb(mb)^MSbar
         6     1.72500000E+02   # mt pole mass
         7     1.77682000E+00   # mtau pole mass
#
BLOCK MINPAR  # Input parameters - minimal models
         3     1.00000000E+01   # tanb                
#
BLOCK EXTPAR  # Input parameters - non-minimal models
         0    -1.00000000E+00   # Set                 
         1     6.00000000E+01   # M_1(MX)             
         2     3.00000000E+03   # M_2(MX)             
         3     1.85478800E+03   # M_3(MX)             
        11     5.00000000E+03   # At(MX)              
        12     5.00000000E+03   # Ab(MX)              
        13     0.00000000E+00   # Atau(MX)            
        23    -1.44657100E+03   # mu(MX)              
        26     3.00000000E+03   # mA(pole)            
        31     5.00000000E+03   # meL(MX)             
        32     5.00000000E+03   # mmuL(MX)            
        33     5.00000000E+03   # mtauL(MX)           
        34     5.00000000E+03   # meR(MX)             
        35     5.00000000E+03   # mmuR(MX)            
        36     5.00000000E+03   # mtauR(MX)           
        41     5.00000000E+03   # mqL1(MX)            
        42     5.00000000E+03   # mqL2(MX)            
        43     5.00000000E+03   # mqL3(MX)            
        44     5.00000000E+03   # muR(MX)             
        45     5.00000000E+03   # mcR(MX)             
        46     5.00000000E+03   # mtR(MX)             
        47     5.00000000E+03   # mdR(MX)             
        48     5.00000000E+03   # msR(MX)             
        49     5.00000000E+03   # mbR(MX)             
#
BLOCK MASS  # Mass Spectrum
# PDG code           mass       particle
        24     8.00966448E+01   # W+
        25     1.24803123E+02   # h
        35     3.00008796E+03   # H
        36     2.99999993E+03   # A
        37     3.00087752E+03   # H+
         5     4.87878001E+00   # b-quark pole mass calculated from mb(mb)_Msbar
   1000001     5.07473211E+03   # ~d_L
   2000001     5.05696546E+03   # ~d_R
   1000002     5.07425939E+03   # ~u_L
   2000002     5.05669058E+03   # ~u_R
   1000003     5.07473211E+03   # ~s_L
   2000003     5.05696546E+03   # ~s_R
   1000004     5.07425939E+03   # ~c_L
   2000004     5.05669058E+03   # ~c_R
   1000005     5.02069997E+03   # ~b_1
   2000005     5.05580384E+03   # ~b_2
   1000006     4.91236515E+03   # ~t_1
   2000006     5.06643580E+03   # ~t_2
   1000011     5.01904835E+03   # ~e_L
   2000011     5.00591076E+03   # ~e_R
   1000012     5.01810041E+03   # ~nu_eL
   1000013     5.01904835E+03   # ~mu_L
   2000013     5.00591076E+03   # ~mu_R
   1000014     5.01810041E+03   # ~nu_muL
   1000015     5.00437074E+03   # ~tau_1
   2000015     5.01900272E+03   # ~tau_2
   1000016     5.01756150E+03   # ~nu_tauL
   1000021     2.20000078E+03   # ~g
   1000022     6.03030446E+01   # ~chi_10
   1000023     1.49944835E+03   # ~chi_20
   1000025    -1.50189573E+03   # ~chi_30
   1000035     3.07432778E+03   # ~chi_40
   1000024     1.50000024E+03   # ~chi_1+
   1000037     3.07449526E+03   # ~chi_2+
#
BLOCK NMIX  # Neutralino Mixing Matrix
  1  1     9.99556260E-01   # N_11
  1  2     1.39914225E-04   # N_12
  1  3    -2.97251080E-02   # N_13
  1  4     1.91872344E-03   # N_14
  2  1     1.96616827E-02   # N_21
  2  2     3.08960543E-02   # N_22
  2  3     7.06897493E-01   # N_23
  2  4     7.06367317E-01   # N_24
  3  1    -2.23718153E-02   # N_31
  3  2     1.32649326E-02   # N_32
  3  3    -7.06581092E-01   # N_33
  3  4     7.07153947E-01   # N_34
  4  1    -4.50814838E-04   # N_41
  4  2     9.99434568E-01   # N_42
  4  3    -1.24704850E-02   # N_43
  4  4    -3.12222350E-02   # N_44
#
BLOCK UMIX  # Chargino Mixing Matrix U
  1  1     1.76453354E-02   # U_11
  1  2     9.99844309E-01   # U_12
  2  1    -9.99844309E-01   # U_21
  2  2     1.76453354E-02   # U_22
#
BLOCK VMIX  # Chargino Mixing Matrix V
  1  1     4.41739275E-02   # V_11
  1  2    -9.99023856E-01   # V_12
  2  1    -9.99023856E-01   # V_21
  2  2    -4.41739275E-02   # V_22
#
BLOCK STOPMIX  # Stop Mixing Matrix
  1  1    -5.10225827E-01   # cos(theta_t)
  1  2     8.60040467E-01   # sin(theta_t)
  2  1    -8.60040467E-01   # -sin(theta_t)
  2  2    -5.10225827E-01   # cos(theta_t)
#
BLOCK SBOTMIX  # Sbottom Mixing Matrix
  1  1     9.94525218E-01   # cos(theta_b)
  1  2    -1.04496846E-01   # sin(theta_b)
  2  1     1.04496846E-01   # -sin(theta_b)
  2  2     9.94525218E-01   # cos(theta_b)
#
BLOCK STAUMIX  # Stau Mixing Matrix
  1  1    -1.68199814E-01   # cos(theta_tau)
  1  2     9.85752922E-01   # sin(theta_tau)
  2  1    -9.85752922E-01   # -sin(theta_tau)
  2  2    -1.68199814E-01   # cos(theta_tau)
#
BLOCK ALPHA  # Higgs mixing
          -1.05468477E-01   # Mixing angle in the neutral Higgs boson sector
#
BLOCK HMIX Q=  5.00072041E+03  # DRbar Higgs Parameters
         1    -1.47315574E+03   # mu(Q)MSSM           
         2     9.46998314E+00   # tan                 
         3     2.41954608E+02   # higgs               
         4     8.40235371E+06   # mA^2(Q)MSSM         
#
BLOCK GAUGE Q=  5.00072041E+03  # The gauge couplings
     1     3.70698913E-01   # gprime(Q) DRbar
     2     6.32081998E-01   # g(Q) DRbar
     3     9.97097659E-01   # g3(Q) DRbar
#
BLOCK AU Q=  5.00072041E+03  # The trilinear couplings
  1  1     5.00000001E+03   # A_u(Q) DRbar
  2  2     5.00000001E+03   # A_c(Q) DRbar
  3  3     5.00000002E+03   # A_t(Q) DRbar
#
BLOCK AD Q=  5.00072041E+03  # The trilinear couplings
  1  1     5.00000001E+03   # A_d(Q) DRbar
  2  2     5.00000001E+03   # A_s(Q) DRbar
  3  3     5.00000001E+03   # A_b(Q) DRbar
#
BLOCK AE Q=  5.00072041E+03  # The trilinear couplings
  1  1     0.00000000E+00   # A_e(Q) DRbar
  2  2     2.07382733E-07   # A_mu(Q) DRbar
  3  3     2.07143630E-07   # A_tau(Q) DRbar
#
BLOCK Yu Q=  5.00072041E+03  # The Yukawa couplings
  1  1     0.00000000E+00   # y_u(Q) DRbar
  2  2     0.00000000E+00   # y_c(Q) DRbar
  3  3     8.20154410E-01   # y_t(Q) DRbar
#
BLOCK Yd Q=  5.00072041E+03  # The Yukawa couplings
  1  1     0.00000000E+00   # y_d(Q) DRbar
  2  2     0.00000000E+00   # y_s(Q) DRbar
  3  3     1.31470845E-01   # y_b(Q) DRbar
#
BLOCK Ye Q=  5.00072041E+03  # The Yukawa couplings
  1  1     0.00000000E+00   # y_e(Q) DRbar
  2  2     0.00000000E+00   # y_mu(Q) DRbar
  3  3     9.66282898E-02   # y_tau(Q) DRbar
#
BLOCK MSOFT Q=  5.00072041E+03  # The soft SUSY breaking masses at the scale Q
         1     6.00000000E+01   # M_1(Q)              
         2     3.00000000E+03   # M_2(Q)              
         3     1.85478800E+03   # M_3(Q)              
        21     6.49987816E+06   # mH1^2(Q)            
        22    -1.62092703E+06   # mH2^2(Q)            
        31     5.00000000E+03   # meL(Q)              
        32     5.00000000E+03   # mmuL(Q)             
        33     5.00000000E+03   # mtauL(Q)            
        34     5.00000000E+03   # meR(Q)              
        35     5.00000000E+03   # mmuR(Q)             
        36     5.00000000E+03   # mtauR(Q)            
        41     5.00000000E+03   # mqL1(Q)             
        42     5.00000000E+03   # mqL2(Q)             
        43     4.99999999E+03   # mqL3(Q)             
        44     5.00000000E+03   # muR(Q)              
        45     5.00000000E+03   # mcR(Q)              
        46     4.99999999E+03   # mtR(Q)              
        47     5.00000000E+03   # mdR(Q)              
        48     5.00000000E+03   # msR(Q)              
        49     5.00000000E+03   # mbR(Q)              
#
#
#
#                             =================
#                             |The decay table|
#                             =================
#
# - The QCD corrections to the decays gluino -> squark  + quark
#                                     squark -> gaugino + quark_prime
#                                     squark -> squark_prime + Higgs
#                                     squark -> gluino  + quark
#   are included.
#
# - The multi-body decays for the inos, stops and sbottoms are included.
#
# - The loop induced decays for the gluino, neutralinos and stops
#   are included.
#
# - The SUSY decays of the top quark are included.
#
#
#         PDG            Width
DECAY         6     1.40000866E+00   # top decays
#          BR         NDA      ID1       ID2
     1.00000000E+00    2           5        24   # BR(t ->  b    W+)
#
#         PDG            Width
DECAY   1000021     5.90841863E-04   # gluino decays
#          BR         NDA      ID1       ID2
     6.55791061E-06    2     1000022        21   # BR(~g -> ~chi_10 g)
     6.02186751E-03    2     1000023        21   # BR(~g -> ~chi_20 g)
     5.99028714E-03    2     1000025        21   # BR(~g -> ~chi_30 g)
#           BR         NDA      ID1       ID2       ID3
     6.50512517E-02    3     1000022         1        -1   # BR(~g -> ~chi_10 d  db)
     1.05563439E-05    3     1000023         1        -1   # BR(~g -> ~chi_20 d  db)
     1.78906443E-06    3     1000025         1        -1   # BR(~g -> ~chi_30 d  db)
     2.21783329E-01    3     1000022         2        -2   # BR(~g -> ~chi_10 u  ub)
     1.92983054E-05    3     1000023         2        -2   # BR(~g -> ~chi_20 u  ub)
     1.79532545E-06    3     1000025         2        -2   # BR(~g -> ~chi_30 u  ub)
     6.50512517E-02    3     1000022         3        -3   # BR(~g -> ~chi_10 s  sb)
     1.05563439E-05    3     1000023         3        -3   # BR(~g -> ~chi_20 s  sb)
     1.78906443E-06    3     1000025         3        -3   # BR(~g -> ~chi_30 s  sb)
     2.21783329E-01    3     1000022         4        -4   # BR(~g -> ~chi_10 c  cb)
     1.92983054E-05    3     1000023         4        -4   # BR(~g -> ~chi_20 c  cb)
     1.79532545E-06    3     1000025         4        -4   # BR(~g -> ~chi_30 c  cb)
     6.58614207E-02    3     1000022         5        -5   # BR(~g -> ~chi_10 b  bb)
     1.22119551E-03    3     1000023         5        -5   # BR(~g -> ~chi_20 b  bb)
     1.18691338E-03    3     1000025         5        -5   # BR(~g -> ~chi_30 b  bb)
     2.20158199E-01    3     1000022         6        -6   # BR(~g -> ~chi_10 t  tb)
     3.06608046E-02    3     1000023         6        -6   # BR(~g -> ~chi_20 t  tb)
     2.10519734E-02    3     1000025         6        -6   # BR(~g -> ~chi_30 t  tb)
     2.70338505E-05    3     1000024         1        -2   # BR(~g -> ~chi_1+ d  ub)
     2.70338505E-05    3    -1000024         2        -1   # BR(~g -> ~chi_1- u  db)
     2.70338505E-05    3     1000024         3        -4   # BR(~g -> ~chi_1+ s  cb)
     2.70338505E-05    3    -1000024         4        -3   # BR(~g -> ~chi_1- c  sb)
     3.69983030E-02    3     1000024         5        -6   # BR(~g -> ~chi_1+ b  tb)
     3.69983030E-02    3    -1000024         6        -5   # BR(~g -> ~chi_1- t  bb)
#
#         PDG            Width
DECAY   1000006     3.11761885E+02   # stop1 decays
#          BR         NDA      ID1       ID2
     2.83028108E-02    2     1000022         6   # BR(~t_1 -> ~chi_10 t )
     8.70726498E-02    2     1000023         6   # BR(~t_1 -> ~chi_20 t )
     8.36901894E-02    2     1000025         6   # BR(~t_1 -> ~chi_30 t )
     6.88917665E-03    2     1000035         6   # BR(~t_1 -> ~chi_40 t )
     1.26018064E-01    2     1000024         5   # BR(~t_1 -> ~chi_1+ b )
     1.37029629E-02    2     1000037         5   # BR(~t_1 -> ~chi_2+ b )
     6.54324146E-01    2     1000021         6   # BR(~t_1 -> ~g      t )
#
#         PDG            Width
DECAY   2000006     3.23655254E+02   # stop2 decays
#          BR         NDA      ID1       ID2
     1.08536748E-02    2     1000022         6   # BR(~t_2 -> ~chi_10 t )
     8.69459090E-02    2     1000023         6   # BR(~t_2 -> ~chi_20 t )
     9.04873445E-02    2     1000025         6   # BR(~t_2 -> ~chi_30 t )
     1.69895578E-02    2     1000035         6   # BR(~t_2 -> ~chi_40 t )
     5.26684181E-02    2     1000024         5   # BR(~t_2 -> ~chi_1+ b )
     3.37362440E-02    2     1000037         5   # BR(~t_2 -> ~chi_2+ b )
     7.04383534E-01    2     1000021         6   # BR(~t_2 -> ~g      t )
     8.75081028E-04    2     1000006        25   # BR(~t_2 -> ~t_1    h )
     3.06023640E-03    2     1000006        23   # BR(~t_2 -> ~t_1    Z )
#
#         PDG            Width
DECAY   1000005     2.99523819E+02   # sbottom1 decays
#          BR         NDA      ID1       ID2
     2.60593637E-03    2     1000022         5   # BR(~b_1 -> ~chi_10 b )
     2.48211420E-03    2     1000023         5   # BR(~b_1 -> ~chi_20 b )
     2.35051008E-03    2     1000025         5   # BR(~b_1 -> ~chi_30 b )
     2.50387508E-02    2     1000035         5   # BR(~b_1 -> ~chi_40 b )
     1.84172920E-01    2    -1000024         6   # BR(~b_1 -> ~chi_1- t )
     5.04021135E-02    2    -1000037         6   # BR(~b_1 -> ~chi_2- t )
     7.31127739E-01    2     1000021         5   # BR(~b_1 -> ~g      b )
     1.81991649E-03    2     1000006       -24   # BR(~b_1 -> ~t_1    W-)
#
#         PDG            Width
DECAY   2000005     2.28457475E+02   # sbottom2 decays
#          BR         NDA      ID1       ID2
     1.28045176E-02    2     1000022         5   # BR(~b_2 -> ~chi_10 b )
     3.12110486E-03    2     1000023         5   # BR(~b_2 -> ~chi_20 b )
     3.25682461E-03    2     1000025         5   # BR(~b_2 -> ~chi_30 b )
     3.79323080E-04    2     1000035         5   # BR(~b_2 -> ~chi_40 b )
     8.88709514E-03    2    -1000024         6   # BR(~b_2 -> ~chi_1- t )
     7.63228389E-04    2    -1000037         6   # BR(~b_2 -> ~chi_2- t )
     9.70674798E-01    2     1000021         5   # BR(~b_2 -> ~g      b )
     1.13108692E-04    2     1000006       -24   # BR(~b_2 -> ~t_1    W-)
#
#         PDG            Width
DECAY   1000002     2.47595784E+02   # sup_L decays
#          BR         NDA      ID1       ID2
     3.01169576E-03    2     1000022         2   # BR(~u_L -> ~chi_10 u)
     7.93983202E-05    2     1000023         2   # BR(~u_L -> ~chi_20 u)
     5.19795816E-06    2     1000025         2   # BR(~u_L -> ~chi_30 u)
     3.17265879E-02    2     1000035         2   # BR(~u_L -> ~chi_40 u)
     2.56719840E-04    2     1000024         1   # BR(~u_L -> ~chi_1+ d)
     6.34042651E-02    2     1000037         1   # BR(~u_L -> ~chi_2+ d)
     9.01516135E-01    2     1000021         2   # BR(~u_L -> ~g      u)
#
#         PDG            Width
DECAY   2000002     2.33603277E+02   # sup_R decays
#          BR         NDA      ID1       ID2
     5.08212188E-02    2     1000022         2   # BR(~u_R -> ~chi_10 u)
     1.64036889E-05    2     1000023         2   # BR(~u_R -> ~chi_20 u)
     2.12241495E-05    2     1000025         2   # BR(~u_R -> ~chi_30 u)
     4.13645838E-09    2     1000035         2   # BR(~u_R -> ~chi_40 u)
     9.49141149E-01    2     1000021         2   # BR(~u_R -> ~g      u)
#
#         PDG            Width
DECAY   1000001     2.47612221E+02   # sdown_L decays
#          BR         NDA      ID1       ID2
     3.00316683E-03    2     1000022         1   # BR(~d_L -> ~chi_10 d)
     4.81500180E-05    2     1000023         1   # BR(~d_L -> ~chi_20 d)
     2.04566658E-05    2     1000025         1   # BR(~d_L -> ~chi_30 d)
     3.17454436E-02    2     1000035         1   # BR(~d_L -> ~chi_40 d)
     4.09651596E-05    2    -1000024         2   # BR(~d_L -> ~chi_1- u)
     6.35237865E-02    2    -1000037         2   # BR(~d_L -> ~chi_2- u)
     9.01618031E-01    2     1000021         1   # BR(~d_L -> ~g      d)
#
#         PDG            Width
DECAY   2000001     2.24716154E+02   # sdown_R decays
#          BR         NDA      ID1       ID2
     1.32085055E-02    2     1000022         1   # BR(~d_R -> ~chi_10 d)
     4.26342916E-06    2     1000023         1   # BR(~d_R -> ~chi_20 d)
     5.51629972E-06    2     1000025         1   # BR(~d_R -> ~chi_30 d)
     1.07520657E-09    2     1000035         1   # BR(~d_R -> ~chi_40 d)
     9.86781714E-01    2     1000021         1   # BR(~d_R -> ~g      d)
#
#         PDG            Width
DECAY   1000004     2.47595784E+02   # scharm_L decays
#          BR         NDA      ID1       ID2
     3.01169576E-03    2     1000022         4   # BR(~c_L -> ~chi_10 c)
     7.93983202E-05    2     1000023         4   # BR(~c_L -> ~chi_20 c)
     5.19795816E-06    2     1000025         4   # BR(~c_L -> ~chi_30 c)
     3.17265879E-02    2     1000035         4   # BR(~c_L -> ~chi_40 c)
     2.56719840E-04    2     1000024         3   # BR(~c_L -> ~chi_1+ s)
     6.34042651E-02    2     1000037         3   # BR(~c_L -> ~chi_2+ s)
     9.01516135E-01    2     1000021         4   # BR(~c_L -> ~g      c)
#
#         PDG            Width
DECAY   2000004     2.33603277E+02   # scharm_R decays
#          BR         NDA      ID1       ID2
     5.08212188E-02    2     1000022         4   # BR(~c_R -> ~chi_10 c)
     1.64036889E-05    2     1000023         4   # BR(~c_R -> ~chi_20 c)
     2.12241495E-05    2     1000025         4   # BR(~c_R -> ~chi_30 c)
     4.13645838E-09    2     1000035         4   # BR(~c_R -> ~chi_40 c)
     9.49141149E-01    2     1000021         4   # BR(~c_R -> ~g      c)
#
#         PDG            Width
DECAY   1000003     2.47612221E+02   # sstrange_L decays
#          BR         NDA      ID1       ID2
     3.00316683E-03    2     1000022         3   # BR(~s_L -> ~chi_10 s)
     4.81500180E-05    2     1000023         3   # BR(~s_L -> ~chi_20 s)
     2.04566658E-05    2     1000025         3   # BR(~s_L -> ~chi_30 s)
     3.17454436E-02    2     1000035         3   # BR(~s_L -> ~chi_40 s)
     4.09651596E-05    2    -1000024         4   # BR(~s_L -> ~chi_1- c)
     6.35237865E-02    2    -1000037         4   # BR(~s_L -> ~chi_2- c)
     9.01618031E-01    2     1000021         3   # BR(~s_L -> ~g      s)
#
#         PDG            Width
DECAY   2000003     2.24716154E+02   # sstrange_R decays
#          BR         NDA      ID1       ID2
     1.32085055E-02    2     1000022         3   # BR(~s_R -> ~chi_10 s)
     4.26342916E-06    2     1000023         3   # BR(~s_R -> ~chi_20 s)
     5.51629972E-06    2     1000025         3   # BR(~s_R -> ~chi_30 s)
     1.07520657E-09    2     1000035         3   # BR(~s_R -> ~chi_40 s)
     9.86781714E-01    2     1000021         3   # BR(~s_R -> ~g      s)
#
#         PDG            Width
DECAY   1000011     3.02363933E+01   # selectron_L decays
#          BR         NDA      ID1       ID2
     2.26741254E-01    2     1000022        11   # BR(~e_L -> ~chi_10 e-)
     9.84965495E-04    2     1000023        11   # BR(~e_L -> ~chi_20 e-)
     1.14134598E-08    2     1000025        11   # BR(~e_L -> ~chi_30 e-)
     2.57102120E-01    2     1000035        11   # BR(~e_L -> ~chi_40 e-)
     3.40691693E-04    2    -1000024        12   # BR(~e_L -> ~chi_1- nu_e)
     5.14830957E-01    2    -1000037        12   # BR(~e_L -> ~chi_2- nu_e)
#
#         PDG            Width
DECAY   2000011     2.73585894E+01   # selectron_R decays
#          BR         NDA      ID1       ID2
     9.99264823E-01    2     1000022        11   # BR(~e_R -> ~chi_10 e-)
     3.20466064E-04    2     1000023        11   # BR(~e_R -> ~chi_20 e-)
     4.14632544E-04    2     1000025        11   # BR(~e_R -> ~chi_30 e-)
     7.88735270E-08    2     1000035        11   # BR(~e_R -> ~chi_40 e-)
#
#         PDG            Width
DECAY   1000013     3.02363933E+01   # smuon_L decays
#          BR         NDA      ID1       ID2
     2.26741254E-01    2     1000022        13   # BR(~mu_L -> ~chi_10 mu-)
     9.84965495E-04    2     1000023        13   # BR(~mu_L -> ~chi_20 mu-)
     1.14134598E-08    2     1000025        13   # BR(~mu_L -> ~chi_30 mu-)
     2.57102120E-01    2     1000035        13   # BR(~mu_L -> ~chi_40 mu-)
     3.40691693E-04    2    -1000024        14   # BR(~mu_L -> ~chi_1- nu_mu)
     5.14830957E-01    2    -1000037        14   # BR(~mu_L -> ~chi_2- nu_mu)
#
#         PDG            Width
DECAY   2000013     2.73585894E+01   # smuon_R decays
#          BR         NDA      ID1       ID2
     9.99264823E-01    2     1000022        13   # BR(~mu_R -> ~chi_10 mu-)
     3.20466064E-04    2     1000023        13   # BR(~mu_R -> ~chi_20 mu-)
     4.14632544E-04    2     1000025        13   # BR(~mu_R -> ~chi_30 mu-)
     7.88735270E-08    2     1000035        13   # BR(~mu_R -> ~chi_40 mu-)
#
#         PDG            Width
DECAY   1000015     2.89705635E+01   # stau_1 decays
#          BR         NDA      ID1       ID2
     9.24243793E-01    2     1000022        15   # BR(~tau_1 -> ~chi_10  tau-)
     1.41655574E-02    2     1000023        15   # BR(~tau_1 -> ~chi_20  tau-)
     1.28845071E-02    2     1000025        15   # BR(~tau_1 -> ~chi_30  tau-)
     7.28019534E-03    2     1000035        15   # BR(~tau_1 -> ~chi_40  tau-)
     2.68477635E-02    2    -1000024        16   # BR(~tau_1 -> ~chi_1-  nu_tau)
     1.45781838E-02    2    -1000037        16   # BR(~tau_1 -> ~chi_2-  nu_tau)
#
#         PDG            Width
DECAY   2000015     3.09235496E+01   # stau_2 decays
#          BR         NDA      ID1       ID2
     2.39727764E-01    2     1000022        15   # BR(~tau_2 -> ~chi_10  tau-)
     1.29155107E-02    2     1000023        15   # BR(~tau_2 -> ~chi_20  tau-)
     1.32029712E-02    2     1000025        15   # BR(~tau_2 -> ~chi_30  tau-)
     2.44495151E-01    2     1000035        15   # BR(~tau_2 -> ~chi_40  tau-)
     7.39757979E-05    2    -1000024        16   # BR(~tau_2 -> ~chi_1-  nu_tau)
     4.89584627E-01    2    -1000037        16   # BR(~tau_2 -> ~chi_2-  nu_tau)
#
#         PDG            Width
DECAY   1000012     3.02384337E+01   # snu_eL decays
#          BR         NDA      ID1       ID2
     2.26466797E-01    2     1000022        12   # BR(~nu_eL -> ~chi_10 nu_e)
     2.05128694E-04    2     1000023        12   # BR(~nu_eL -> ~chi_20 nu_e)
     3.80574606E-04    2     1000025        12   # BR(~nu_eL -> ~chi_30 nu_e)
     2.57191595E-01    2     1000035        12   # BR(~nu_eL -> ~chi_40 nu_e)
     2.13447075E-03    2     1000024        11   # BR(~nu_eL -> ~chi_1+ e-)
     5.13621434E-01    2     1000037        11   # BR(~nu_eL -> ~chi_2+ e-)
#
#         PDG            Width
DECAY   1000014     3.02384337E+01   # snu_muL decays
#          BR         NDA      ID1       ID2
     2.26466797E-01    2     1000022        14   # BR(~nu_muL -> ~chi_10 nu_mu)
     2.05128694E-04    2     1000023        14   # BR(~nu_muL -> ~chi_20 nu_mu)
     3.80574606E-04    2     1000025        14   # BR(~nu_muL -> ~chi_30 nu_mu)
     2.57191595E-01    2     1000035        14   # BR(~nu_muL -> ~chi_40 nu_mu)
     2.13447075E-03    2     1000024        13   # BR(~nu_muL -> ~chi_1+ mu-)
     5.13621434E-01    2     1000037        13   # BR(~nu_muL -> ~chi_2+ mu-)
#
#         PDG            Width
DECAY   1000016     3.10019574E+01   # snu_tauL decays
#          BR         NDA      ID1       ID2
     2.20865582E-01    2     1000022        16   # BR(~nu_tauL -> ~chi_10 nu_tau)
     2.00046821E-04    2     1000023        16   # BR(~nu_tauL -> ~chi_20 nu_tau)
     3.71146168E-04    2     1000025        16   # BR(~nu_tauL -> ~chi_30 nu_tau)
     2.50765729E-01    2     1000035        16   # BR(~nu_tauL -> ~chi_40 nu_tau)
     2.70073349E-02    2     1000024        15   # BR(~nu_tauL -> ~chi_1+ tau-)
     5.00790161E-01    2     1000037        15   # BR(~nu_tauL -> ~chi_2+ tau-)
#
#         PDG            Width
DECAY   1000024     9.22597116E-01   # chargino1+ decays
#          BR         NDA      ID1       ID2
     1.00000000E+00    2     1000022        24   # BR(~chi_1+ -> ~chi_10  W+)
#
#         PDG            Width
DECAY   1000037     1.83978317E+01   # chargino2+ decays
#          BR         NDA      ID1       ID2
     2.52702251E-01    2     1000024        23   # BR(~chi_2+ -> ~chi_1+  Z )
     2.61220756E-04    2     1000022        24   # BR(~chi_2+ -> ~chi_10  W+)
     2.44011652E-01    2     1000023        24   # BR(~chi_2+ -> ~chi_20  W+)
     2.43672185E-01    2     1000025        24   # BR(~chi_2+ -> ~chi_30  W+)
     2.59352327E-01    2     1000024        25   # BR(~chi_2+ -> ~chi_1+  h )
     3.63743279E-07    2     1000022        37   # BR(~chi_2+ -> ~chi_10  H+)
#
#         PDG            Width
DECAY   1000022     0.00000000E+00   # neutralino1 decays
#
#         PDG            Width
DECAY   1000023     9.69581913E-01   # neutralino2 decays
#          BR         NDA      ID1       ID2
     5.56481260E-01    2     1000022        23   # BR(~chi_20 -> ~chi_10   Z )
     4.43518740E-01    2     1000022        25   # BR(~chi_20 -> ~chi_10   h )
#
#         PDG            Width
DECAY   1000025     9.79167761E-01   # neutralino3 decays
#          BR         NDA      ID1       ID2
     4.26432027E-01    2     1000022        23   # BR(~chi_30 -> ~chi_10   Z )
     5.73567973E-01    2     1000022        25   # BR(~chi_30 -> ~chi_10   h )
#
#         PDG            Width
DECAY   1000035     1.83981779E+01   # neutralino4 decays
#          BR         NDA      ID1       ID2
     9.39467051E-05    2     1000022        23   # BR(~chi_40 -> ~chi_10   Z )
     3.95271208E-02    2     1000023        23   # BR(~chi_40 -> ~chi_20   Z )
     2.12642440E-01    2     1000025        23   # BR(~chi_40 -> ~chi_30   Z )
     2.44317312E-01    2     1000024       -24   # BR(~chi_40 -> ~chi_1+   W-)
     2.44317312E-01    2    -1000024        24   # BR(~chi_40 -> ~chi_1-   W+)
     1.73554369E-04    2     1000022        25   # BR(~chi_40 -> ~chi_10   h )
     3.27791215E-07    2     1000022        35   # BR(~chi_40 -> ~chi_10   H )
     4.92910614E-08    2     1000022        36   # BR(~chi_40 -> ~chi_10   A )
     2.19434983E-01    2     1000023        25   # BR(~chi_40 -> ~chi_20   h )
     3.94929540E-02    2     1000025        25   # BR(~chi_40 -> ~chi_30   h )
#
#         PDG            Width
DECAY        25     4.04581675E-03   # h decays
#          BR         NDA      ID1       ID2
     6.06248840E-01    2           5        -5   # BR(h -> b       bb     )
     6.41192457E-02    2         -15        15   # BR(h -> tau+    tau-   )
     2.27005312E-04    2         -13        13   # BR(h -> mu+     mu-    )
     4.81215978E-04    2           3        -3   # BR(h -> s       sb     )
     2.08535151E-02    2           4        -4   # BR(h -> c       cb     )
     6.74900131E-02    2          21        21   # BR(h -> g       g      )
     2.32133244E-03    2          22        22   # BR(h -> gam     gam    )
     1.49925392E-03    2          22        23   # BR(h -> Z       gam    )
     2.11504736E-01    2          24       -24   # BR(h -> W+      W-     )
     2.52217176E-02    2          23        23   # BR(h -> Z       Z      )
     3.31253419E-05    2     1000022   1000022   # BR(h -> ~chi_10 ~chi_10)
#
#         PDG            Width
DECAY        35     7.27060512E+00   # H decays
#          BR         NDA      ID1       ID2
     4.49445698E-01    2           5        -5   # BR(H -> b       bb     )
     7.66276859E-02    2         -15        15   # BR(H -> tau+    tau-   )
     2.70961584E-04    2         -13        13   # BR(H -> mu+     mu-    )
     3.32157289E-04    2           3        -3   # BR(H -> s       sb     )
     1.85773396E-06    2           4        -4   # BR(H -> c       cb     )
     1.85602344E-01    2           6        -6   # BR(H -> t       tb     )
     6.16172247E-05    2          21        21   # BR(H -> g       g      )
     3.88265377E-07    2          22        22   # BR(H -> gam     gam    )
     1.09622993E-07    2          23        22   # BR(H -> Z       gam    )
     8.29722043E-05    2          24       -24   # BR(H -> W+      W-     )
     4.14335978E-05    2          23        23   # BR(H -> Z       Z      )
     3.13070254E-04    2          25        25   # BR(H -> h       h      )
    -1.14748391E-23    2          36        36   # BR(H -> A       A      )
     1.30831528E-18    2          23        36   # BR(H -> Z       A      )
     3.24103577E-09    2     1000024  -1000024   # BR(H -> ~chi_1+ ~chi_1-)
     8.82938484E-04    2     1000022   1000022   # BR(H -> ~chi_10 ~chi_10)
     1.91509258E-08    2     1000023   1000023   # BR(H -> ~chi_20 ~chi_20)
     1.70162575E-01    2     1000022   1000023   # BR(H -> ~chi_10 ~chi_20)
     1.16174169E-01    2     1000022   1000025   # BR(H -> ~chi_10 ~chi_30)
#
#         PDG            Width
DECAY        36     7.27327424E+00   # A decays
#          BR         NDA      ID1       ID2
     4.49430289E-01    2           5        -5   # BR(A -> b       bb     )
     7.66016617E-02    2         -15        15   # BR(A -> tau+    tau-   )
     2.70869182E-04    2         -13        13   # BR(A -> mu+     mu-    )
     3.32286755E-04    2           3        -3   # BR(A -> s       sb     )
     1.86479352E-06    2           4        -4   # BR(A -> c       cb     )
     1.86204848E-01    2           6        -6   # BR(A -> t       tb     )
     1.84269226E-04    2          21        21   # BR(A -> g       g      )
     2.67770077E-07    2          22        22   # BR(A -> gam     gam    )
     2.23242212E-07    2          23        22   # BR(A -> Z       gam    )
     8.26275711E-05    2          23        25   # BR(A -> Z       h      )
     9.08533043E-04    2     1000022   1000022   # BR(A -> ~chi_10 ~chi_10)
     1.51834079E-05    2     1000023   1000023   # BR(A -> ~chi_20 ~chi_20)
     1.17515143E-01    2     1000022   1000023   # BR(A -> ~chi_10 ~chi_20)
     1.68451933E-01    2     1000022   1000025   # BR(A -> ~chi_10 ~chi_30)
#
#         PDG            Width
DECAY        37     7.28117566E+00   # H+ decays
#          BR         NDA      ID1       ID2
     7.23800728E-04    2           4        -5   # BR(H+ -> c       bb     )
     7.65409188E-02    2         -15        16   # BR(H+ -> tau+    nu_tau )
     2.70654390E-04    2         -13        14   # BR(H+ -> mu+     nu_mu  )
     4.63230102E-06    2           2        -5   # BR(H+ -> u       bb     )
     1.58814329E-05    2           2        -3   # BR(H+ -> u       sb     )
     3.28428903E-04    2           4        -3   # BR(H+ -> c       sb     )
     6.34479789E-01    2           6        -5   # BR(H+ -> t       bb     )
     8.26633612E-05    2          24        25   # BR(H+ -> W+      h      )
     9.39611653E-14    2          24        36   # BR(H+ -> W+      A      )
     2.87537693E-01    2     1000024   1000022   # BR(H+ -> ~chi_1+ ~chi_10)
     1.55378660E-05    2     1000024   1000023   # BR(H+ -> ~chi_1+ ~chi_20)
