#
#                              ======================
#                              | THE SUSYHIT OUTPUT |
#                              ======================
#
#
#              ------------------------------------------------------
#              |     This is the output of the SUSY-HIT package     |
#              |  created by A.Djouadi, M.Muehlleitner and M.Spira. |
#              |  In case of problems with SUSY-HIT email to        |
#              |           margarete.muehlleitner@cern.ch           |
#              |           michael.spira@psi.ch                     |
#              |           abdelhak.djouadi@cern.ch                 |
#              ------------------------------------------------------
#
#              ------------------------------------------------------
#              |  SUSY Les Houches Accord - MSSM Spectrum + Decays  |
#              |              based on the decay programs           |
#              |                                                    |
#              |                     SDECAY 1.3b                    |
#              |                                                    |
#              |  Authors: M.Muhlleitner, A.Djouadi and Y.Mambrini  |
#              |  Ref.:    Comput.Phys.Commun.168(2005)46           |
#              |           [hep-ph/0311167]                         |
#              |                                                    |
#              |                     HDECAY 3.4                     |
#              |                                                    |
#              |  By: A.Djouadi,J.Kalinowski,M.Muhlleitner,M.Spira  |
#              |  Ref.:    Comput.Phys.Commun.108(1998)56           |
#              |           [hep-ph/9704448]                         |
#              |                                                    |
#              |                                                    |
#              |  If not stated otherwise all DRbar couplings and   |
#              |  soft SUSY breaking masses are given at the scale  |
#              |  Q=  0.50007185E+04
#              |                                                    |
#              ------------------------------------------------------
#
#
BLOCK DCINFO  # Decay Program information
     1   SDECAY/HDECAY # decay calculator
     2   1.3b  /3.4    # version number
#
BLOCK SPINFO  # Spectrum calculator information
     1    SOFTSUSY    # spectrum calculator                
     2    3.4.0       # version number                     
#
BLOCK MODSEL  # Model selection
     1     0   #  nonUniversal                                     
#
BLOCK SMINPUTS  # Standard Model inputs
         1     1.25778332E+02   # alpha_em^-1(M_Z)^MSbar
         2     1.16570000E-05   # G_F [GeV^-2]
         3     1.17200002E-01   # alpha_S(M_Z)^MSbar
         4     9.11876000E+01   # M_Z pole mass
         5     4.25000000E+00   # mb(mb)^MSbar
         6     1.72500000E+02   # mt pole mass
         7     1.77682000E+00   # mtau pole mass
#
BLOCK MINPAR  # Input parameters - minimal models
         3     1.00000000E+01   # tanb                
#
BLOCK EXTPAR  # Input parameters - non-minimal models
         0    -1.00000000E+00   # Set                 
         1     6.00000000E+01   # M_1(MX)             
         2     3.00000000E+03   # M_2(MX)             
         3     2.42818600E+03   # M_3(MX)             
        11     5.00000000E+03   # At(MX)              
        12     5.00000000E+03   # Ab(MX)              
        13     0.00000000E+00   # Atau(MX)            
        23    -1.54435500E+03   # mu(MX)              
        26     3.00000000E+03   # mA(pole)            
        31     5.00000000E+03   # meL(MX)             
        32     5.00000000E+03   # mmuL(MX)            
        33     5.00000000E+03   # mtauL(MX)           
        34     5.00000000E+03   # meR(MX)             
        35     5.00000000E+03   # mmuR(MX)            
        36     5.00000000E+03   # mtauR(MX)           
        41     5.00000000E+03   # mqL1(MX)            
        42     5.00000000E+03   # mqL2(MX)            
        43     5.00000000E+03   # mqL3(MX)            
        44     5.00000000E+03   # muR(MX)             
        45     5.00000000E+03   # mcR(MX)             
        46     5.00000000E+03   # mtR(MX)             
        47     5.00000000E+03   # mdR(MX)             
        48     5.00000000E+03   # msR(MX)             
        49     5.00000000E+03   # mbR(MX)             
#
BLOCK MASS  # Mass Spectrum
# PDG code           mass       particle
        24     8.00970727E+01   # W+
        25     1.24828691E+02   # h
        35     3.00008283E+03   # H
        36     2.99999995E+03   # A
        37     3.00087328E+03   # H+
         5     4.87878001E+00   # b-quark pole mass calculated from mb(mb)_Msbar
   1000001     5.08624408E+03   # ~d_L
   2000001     5.06852501E+03   # ~d_R
   1000002     5.08577484E+03   # ~u_L
   2000002     5.06825303E+03   # ~u_R
   1000003     5.08624408E+03   # ~s_L
   2000003     5.06852501E+03   # ~s_R
   1000004     5.08577484E+03   # ~c_L
   2000004     5.06825303E+03   # ~c_R
   1000005     5.03233385E+03   # ~b_1
   2000005     5.06739970E+03   # ~b_2
   1000006     4.92524813E+03   # ~t_1
   2000006     5.07724863E+03   # ~t_2
   1000011     5.01904240E+03   # ~e_L
   2000011     5.00590845E+03   # ~e_R
   1000012     5.01809462E+03   # ~nu_eL
   1000013     5.01904240E+03   # ~mu_L
   2000013     5.00590845E+03   # ~mu_R
   1000014     5.01809462E+03   # ~nu_muL
   1000015     5.00431342E+03   # ~tau_1
   2000015     5.01905916E+03   # ~tau_2
   1000016     5.01755757E+03   # ~nu_tauL
   1000021     2.80000027E+03   # ~g
   1000022     6.03026971E+01   # ~chi_10
   1000023     1.59942963E+03   # ~chi_20
   1000025    -1.60194972E+03   # ~chi_30
   1000035     3.07433281E+03   # ~chi_40
   1000024     1.60000075E+03   # ~chi_1+
   1000037     3.07450030E+03   # ~chi_2+
#
BLOCK NMIX  # Neutralino Mixing Matrix
  1  1     9.99609631E-01   # N_11
  1  2     1.33228465E-04   # N_12
  1  3    -2.78758805E-02   # N_13
  1  4     1.87167480E-03   # N_14
  2  1     1.83859310E-02   # N_21
  2  2     3.29857223E-02   # N_22
  2  3     7.06888604E-01   # N_23
  2  4     7.06316077E-01   # N_24
  3  1    -2.10315258E-02   # N_31
  3  2     1.29774534E-02   # N_32
  3  3    -7.06633677E-01   # N_33
  3  4     7.07147867E-01   # N_34
  4  1    -4.67007512E-04   # N_41
  4  2     9.99371558E-01   # N_42
  4  3    -1.41521056E-02   # N_43
  4  4    -3.24959957E-02   # N_44
#
BLOCK UMIX  # Chargino Mixing Matrix U
  1  1     2.00179730E-02   # U_11
  1  2     9.99799620E-01   # U_12
  2  1    -9.99799620E-01   # U_21
  2  2     2.00179730E-02   # U_22
#
BLOCK VMIX  # Chargino Mixing Matrix V
  1  1     4.59682115E-02   # V_11
  1  2    -9.98942903E-01   # V_12
  2  1    -9.98942903E-01   # V_21
  2  2    -4.59682115E-02   # V_22
#
BLOCK STOPMIX  # Stop Mixing Matrix
  1  1    -5.08881574E-01   # cos(theta_t)
  1  2     8.60836537E-01   # sin(theta_t)
  2  1    -8.60836537E-01   # -sin(theta_t)
  2  2    -5.08881574E-01   # cos(theta_t)
#
BLOCK SBOTMIX  # Sbottom Mixing Matrix
  1  1     9.93899899E-01   # cos(theta_b)
  1  2    -1.10285950E-01   # sin(theta_b)
  2  1     1.10285950E-01   # -sin(theta_b)
  2  2     9.93899899E-01   # cos(theta_b)
#
BLOCK STAUMIX  # Stau Mixing Matrix
  1  1    -1.78646590E-01   # cos(theta_tau)
  1  2     9.83913307E-01   # sin(theta_tau)
  2  1    -9.83913307E-01   # -sin(theta_tau)
  2  2    -1.78646590E-01   # cos(theta_tau)
#
BLOCK ALPHA  # Higgs mixing
          -1.05471281E-01   # Mixing angle in the neutral Higgs boson sector
#
BLOCK HMIX Q=  5.00071849E+03  # DRbar Higgs Parameters
         1    -1.57283950E+03   # mu(Q)MSSM           
         2     9.46968775E+00   # tan                 
         3     2.41980516E+02   # higgs               
         4     8.38662409E+06   # mA^2(Q)MSSM         
#
BLOCK GAUGE Q=  5.00071849E+03  # The gauge couplings
     1     3.70671387E-01   # gprime(Q) DRbar
     2     6.31967967E-01   # g(Q) DRbar
     3     9.93513833E-01   # g3(Q) DRbar
#
BLOCK AU Q=  5.00071849E+03  # The trilinear couplings
  1  1     5.00000002E+03   # A_u(Q) DRbar
  2  2     5.00000002E+03   # A_c(Q) DRbar
  3  3     5.00000003E+03   # A_t(Q) DRbar
#
BLOCK AD Q=  5.00071849E+03  # The trilinear couplings
  1  1     5.00000001E+03   # A_d(Q) DRbar
  2  2     5.00000001E+03   # A_s(Q) DRbar
  3  3     5.00000001E+03   # A_b(Q) DRbar
#
BLOCK AE Q=  5.00071849E+03  # The trilinear couplings
  1  1     0.00000000E+00   # A_e(Q) DRbar
  2  2     2.99034310E-07   # A_mu(Q) DRbar
  3  3     2.99149520E-07   # A_tau(Q) DRbar
#
BLOCK Yu Q=  5.00071849E+03  # The Yukawa couplings
  1  1     0.00000000E+00   # y_u(Q) DRbar
  2  2     0.00000000E+00   # y_c(Q) DRbar
  3  3     8.21101857E-01   # y_t(Q) DRbar
#
BLOCK Yd Q=  5.00071849E+03  # The Yukawa couplings
  1  1     0.00000000E+00   # y_d(Q) DRbar
  2  2     0.00000000E+00   # y_s(Q) DRbar
  3  3     1.32065211E-01   # y_b(Q) DRbar
#
BLOCK Ye Q=  5.00071849E+03  # The Yukawa couplings
  1  1     0.00000000E+00   # y_e(Q) DRbar
  2  2     0.00000000E+00   # y_mu(Q) DRbar
  3  3     9.65838088E-02   # y_tau(Q) DRbar
#
BLOCK MSOFT Q=  5.00071849E+03  # The soft SUSY breaking masses at the scale Q
         1     6.00000000E+01   # M_1(Q)              
         2     3.00000000E+03   # M_2(Q)              
         3     2.42818600E+03   # M_3(Q)              
        21     6.19123378E+06   # mH1^2(Q)            
        22    -1.92586112E+06   # mH2^2(Q)            
        31     5.00000000E+03   # meL(Q)              
        32     5.00000000E+03   # mmuL(Q)             
        33     5.00000000E+03   # mtauL(Q)            
        34     5.00000000E+03   # meR(Q)              
        35     5.00000000E+03   # mmuR(Q)             
        36     5.00000000E+03   # mtauR(Q)            
        41     4.99999999E+03   # mqL1(Q)             
        42     4.99999999E+03   # mqL2(Q)             
        43     4.99999999E+03   # mqL3(Q)             
        44     4.99999999E+03   # muR(Q)              
        45     4.99999999E+03   # mcR(Q)              
        46     4.99999999E+03   # mtR(Q)              
        47     4.99999999E+03   # mdR(Q)              
        48     4.99999999E+03   # msR(Q)              
        49     4.99999999E+03   # mbR(Q)              
#
#
#
#                             =================
#                             |The decay table|
#                             =================
#
# - The QCD corrections to the decays gluino -> squark  + quark
#                                     squark -> gaugino + quark_prime
#                                     squark -> squark_prime + Higgs
#                                     squark -> gluino  + quark
#   are included.
#
# - The multi-body decays for the inos, stops and sbottoms are included.
#
# - The loop induced decays for the gluino, neutralinos and stops
#   are included.
#
# - The SUSY decays of the top quark are included.
#
#
#         PDG            Width
DECAY         6     1.39948490E+00   # top decays
#          BR         NDA      ID1       ID2
     1.00000000E+00    2           5        24   # BR(t ->  b    W+)
#
#         PDG            Width
DECAY   1000021     3.29111943E-03   # gluino decays
#          BR         NDA      ID1       ID2
     3.61047902E-06    2     1000022        21   # BR(~g -> ~chi_10 g)
     4.96092036E-03    2     1000023        21   # BR(~g -> ~chi_20 g)
     4.96361875E-03    2     1000025        21   # BR(~g -> ~chi_30 g)
#           BR         NDA      ID1       ID2       ID3
     4.25380762E-02    3     1000022         1        -1   # BR(~g -> ~chi_10 d  db)
     2.90762715E-05    3     1000023         1        -1   # BR(~g -> ~chi_20 d  db)
     4.23851228E-06    3     1000025         1        -1   # BR(~g -> ~chi_30 d  db)
     1.45044632E-01    3     1000022         2        -2   # BR(~g -> ~chi_10 u  ub)
     4.91516322E-05    3     1000023         2        -2   # BR(~g -> ~chi_20 u  ub)
     4.15830378E-06    3     1000025         2        -2   # BR(~g -> ~chi_30 u  ub)
     4.25380762E-02    3     1000022         3        -3   # BR(~g -> ~chi_10 s  sb)
     2.90762715E-05    3     1000023         3        -3   # BR(~g -> ~chi_20 s  sb)
     4.23851228E-06    3     1000025         3        -3   # BR(~g -> ~chi_30 s  sb)
     1.45044632E-01    3     1000022         4        -4   # BR(~g -> ~chi_10 c  cb)
     4.91516322E-05    3     1000023         4        -4   # BR(~g -> ~chi_20 c  cb)
     4.15830378E-06    3     1000025         4        -4   # BR(~g -> ~chi_30 c  cb)
     4.30822086E-02    3     1000022         5        -5   # BR(~g -> ~chi_10 b  bb)
     2.98927741E-03    3     1000023         5        -5   # BR(~g -> ~chi_20 b  bb)
     2.92655456E-03    3     1000025         5        -5   # BR(~g -> ~chi_30 b  bb)
     1.50450905E-01    3     1000022         6        -6   # BR(~g -> ~chi_10 t  tb)
     1.04409993E-01    3     1000023         6        -6   # BR(~g -> ~chi_20 t  tb)
     9.10659098E-02    3     1000025         6        -6   # BR(~g -> ~chi_30 t  tb)
     7.29552974E-05    3     1000024         1        -2   # BR(~g -> ~chi_1+ d  ub)
     7.29552974E-05    3    -1000024         2        -1   # BR(~g -> ~chi_1- u  db)
     7.29552974E-05    3     1000024         3        -4   # BR(~g -> ~chi_1+ s  cb)
     7.29552974E-05    3    -1000024         4        -3   # BR(~g -> ~chi_1- c  sb)
     1.09758257E-01    3     1000024         5        -6   # BR(~g -> ~chi_1+ b  tb)
     1.09758257E-01    3    -1000024         6        -5   # BR(~g -> ~chi_1- t  bb)
#
#         PDG            Width
DECAY   1000006     2.50430926E+02   # stop1 decays
#          BR         NDA      ID1       ID2
     3.53560767E-02    2     1000022         6   # BR(~t_1 -> ~chi_10 t )
     1.05120615E-01    2     1000023         6   # BR(~t_1 -> ~chi_20 t )
     1.01049350E-01    2     1000025         6   # BR(~t_1 -> ~chi_30 t )
     8.56675729E-03    2     1000035         6   # BR(~t_1 -> ~chi_40 t )
     1.52962280E-01    2     1000024         5   # BR(~t_1 -> ~chi_1+ b )
     1.70312151E-02    2     1000037         5   # BR(~t_1 -> ~chi_2+ b )
     5.79913706E-01    2     1000021         6   # BR(~t_1 -> ~g      t )
#
#         PDG            Width
DECAY   2000006     2.64915200E+02   # stop2 decays
#          BR         NDA      ID1       ID2
     1.30491955E-02    2     1000022         6   # BR(~t_2 -> ~chi_10 t )
     1.03384536E-01    2     1000023         6   # BR(~t_2 -> ~chi_20 t )
     1.07585371E-01    2     1000025         6   # BR(~t_2 -> ~chi_30 t )
     2.09739286E-02    2     1000035         6   # BR(~t_2 -> ~chi_40 t )
     6.19601758E-02    2     1000024         5   # BR(~t_2 -> ~chi_1+ b )
     4.16231683E-02    2     1000037         5   # BR(~t_2 -> ~chi_2+ b )
     6.46778769E-01    2     1000021         6   # BR(~t_2 -> ~g      t )
     1.02647898E-03    2     1000006        25   # BR(~t_2 -> ~t_1    h )
     3.61837592E-03    2     1000006        23   # BR(~t_2 -> ~t_1    Z )
#
#         PDG            Width
DECAY   1000005     2.40409199E+02   # sbottom1 decays
#          BR         NDA      ID1       ID2
     3.24797960E-03    2     1000022         5   # BR(~b_1 -> ~chi_10 b )
     3.04539843E-03    2     1000023         5   # BR(~b_1 -> ~chi_20 b )
     2.86468122E-03    2     1000025         5   # BR(~b_1 -> ~chi_30 b )
     3.13549614E-02    2     1000035         5   # BR(~b_1 -> ~chi_40 b )
     2.22773260E-01    2    -1000024         6   # BR(~b_1 -> ~chi_1- t )
     6.31529342E-02    2    -1000037         6   # BR(~b_1 -> ~chi_2- t )
     6.71384834E-01    2     1000021         5   # BR(~b_1 -> ~g      b )
     2.17595147E-03    2     1000006       -24   # BR(~b_1 -> ~t_1    W-)
#
#         PDG            Width
DECAY   2000005     1.71090505E+02   # sbottom2 decays
#          BR         NDA      ID1       ID2
     1.70517212E-02    2     1000022         5   # BR(~b_2 -> ~chi_10 b )
     4.06472658E-03    2     1000023         5   # BR(~b_2 -> ~chi_20 b )
     4.25776400E-03    2     1000025         5   # BR(~b_2 -> ~chi_30 b )
     5.63648369E-04    2     1000035         5   # BR(~b_2 -> ~chi_40 b )
     1.19171932E-02    2    -1000024         6   # BR(~b_2 -> ~chi_1- t )
     1.13465891E-03    2    -1000037         6   # BR(~b_2 -> ~chi_2- t )
     9.60842436E-01    2     1000021         5   # BR(~b_2 -> ~g      b )
     1.67851480E-04    2     1000006       -24   # BR(~b_2 -> ~t_1    W-)
#
#         PDG            Width
DECAY   1000002     1.90458033E+02   # sup_L decays
#          BR         NDA      ID1       ID2
     3.90731545E-03    2     1000022         2   # BR(~u_L -> ~chi_10 u)
     1.11486205E-04    2     1000023         2   # BR(~u_L -> ~chi_20 u)
     6.54390663E-06    2     1000025         2   # BR(~u_L -> ~chi_30 u)
     4.14912247E-02    2     1000035         2   # BR(~u_L -> ~chi_40 u)
     3.52048271E-04    2     1000024         1   # BR(~u_L -> ~chi_1+ d)
     8.29161206E-02    2     1000037         1   # BR(~u_L -> ~chi_2+ d)
     8.71215261E-01    2     1000021         2   # BR(~u_L -> ~g      u)
#
#         PDG            Width
DECAY   2000002     1.76219722E+02   # sup_R decays
#          BR         NDA      ID1       ID2
     6.72383660E-02    2     1000022         2   # BR(~u_R -> ~chi_10 u)
     1.85236874E-05    2     1000023         2   # BR(~u_R -> ~chi_20 u)
     2.42212876E-05    2     1000025         2   # BR(~u_R -> ~chi_30 u)
     5.92228268E-09    2     1000035         2   # BR(~u_R -> ~chi_40 u)
     9.32718883E-01    2     1000021         2   # BR(~u_R -> ~g      u)
#
#         PDG            Width
DECAY   1000001     1.90476739E+02   # sdown_L decays
#          BR         NDA      ID1       ID2
     3.89666073E-03    2     1000022         1   # BR(~d_L -> ~chi_10 d)
     7.19731472E-05    2     1000023         1   # BR(~d_L -> ~chi_20 d)
     2.43160827E-05    2     1000025         1   # BR(~d_L -> ~chi_30 d)
     4.15149141E-02    2     1000035         1   # BR(~d_L -> ~chi_40 d)
     6.67640586E-05    2    -1000024         2   # BR(~d_L -> ~chi_1- u)
     8.30754628E-02    2    -1000037         2   # BR(~d_L -> ~chi_2- u)
     8.71349909E-01    2     1000021         1   # BR(~d_L -> ~g      d)
#
#         PDG            Width
DECAY   2000001     1.67352009E+02   # sdown_R decays
#          BR         NDA      ID1       ID2
     1.77012770E-02    2     1000022         1   # BR(~d_R -> ~chi_10 d)
     4.87668775E-06    2     1000023         1   # BR(~d_R -> ~chi_20 d)
     6.37668211E-06    2     1000025         1   # BR(~d_R -> ~chi_30 d)
     1.55930110E-09    2     1000035         1   # BR(~d_R -> ~chi_40 d)
     9.82287468E-01    2     1000021         1   # BR(~d_R -> ~g      d)
#
#         PDG            Width
DECAY   1000004     1.90458033E+02   # scharm_L decays
#          BR         NDA      ID1       ID2
     3.90731545E-03    2     1000022         4   # BR(~c_L -> ~chi_10 c)
     1.11486205E-04    2     1000023         4   # BR(~c_L -> ~chi_20 c)
     6.54390663E-06    2     1000025         4   # BR(~c_L -> ~chi_30 c)
     4.14912247E-02    2     1000035         4   # BR(~c_L -> ~chi_40 c)
     3.52048271E-04    2     1000024         3   # BR(~c_L -> ~chi_1+ s)
     8.29161206E-02    2     1000037         3   # BR(~c_L -> ~chi_2+ s)
     8.71215261E-01    2     1000021         4   # BR(~c_L -> ~g      c)
#
#         PDG            Width
DECAY   2000004     1.76219722E+02   # scharm_R decays
#          BR         NDA      ID1       ID2
     6.72383660E-02    2     1000022         4   # BR(~c_R -> ~chi_10 c)
     1.85236874E-05    2     1000023         4   # BR(~c_R -> ~chi_20 c)
     2.42212876E-05    2     1000025         4   # BR(~c_R -> ~chi_30 c)
     5.92228268E-09    2     1000035         4   # BR(~c_R -> ~chi_40 c)
     9.32718883E-01    2     1000021         4   # BR(~c_R -> ~g      c)
#
#         PDG            Width
DECAY   1000003     1.90476739E+02   # sstrange_L decays
#          BR         NDA      ID1       ID2
     3.89666073E-03    2     1000022         3   # BR(~s_L -> ~chi_10 s)
     7.19731472E-05    2     1000023         3   # BR(~s_L -> ~chi_20 s)
     2.43160827E-05    2     1000025         3   # BR(~s_L -> ~chi_30 s)
     4.15149141E-02    2     1000035         3   # BR(~s_L -> ~chi_40 s)
     6.67640586E-05    2    -1000024         4   # BR(~s_L -> ~chi_1- c)
     8.30754628E-02    2    -1000037         4   # BR(~s_L -> ~chi_2- c)
     8.71349909E-01    2     1000021         3   # BR(~s_L -> ~g      s)
#
#         PDG            Width
DECAY   2000003     1.67352009E+02   # sstrange_R decays
#          BR         NDA      ID1       ID2
     1.77012770E-02    2     1000022         3   # BR(~s_R -> ~chi_10 s)
     4.87668775E-06    2     1000023         3   # BR(~s_R -> ~chi_20 s)
     6.37668211E-06    2     1000025         3   # BR(~s_R -> ~chi_30 s)
     1.55930110E-09    2     1000035         3   # BR(~s_R -> ~chi_40 s)
     9.82287468E-01    2     1000021         3   # BR(~s_R -> ~g      s)
#
#         PDG            Width
DECAY   1000011     3.02284719E+01   # selectron_L decays
#          BR         NDA      ID1       ID2
     2.26785752E-01    2     1000022        11   # BR(~e_L -> ~chi_10 e-)
     1.02006603E-03    2     1000023        11   # BR(~e_L -> ~chi_20 e-)
     2.19113854E-07    2     1000025        11   # BR(~e_L -> ~chi_30 e-)
     2.57037342E-01    2     1000035        11   # BR(~e_L -> ~chi_40 e-)
     4.26658983E-04    2    -1000024        12   # BR(~e_L -> ~chi_1- nu_e)
     5.14729962E-01    2    -1000037        12   # BR(~e_L -> ~chi_2- nu_e)
#
#         PDG            Width
DECAY   2000011     2.73545363E+01   # selectron_R decays
#          BR         NDA      ID1       ID2
     9.99370722E-01    2     1000022        11   # BR(~e_R -> ~chi_10 e-)
     2.72667226E-04    2     1000023        11   # BR(~e_R -> ~chi_20 e-)
     3.56526454E-04    2     1000025        11   # BR(~e_R -> ~chi_30 e-)
     8.46408524E-08    2     1000035        11   # BR(~e_R -> ~chi_40 e-)
#
#         PDG            Width
DECAY   1000013     3.02284719E+01   # smuon_L decays
#          BR         NDA      ID1       ID2
     2.26785752E-01    2     1000022        13   # BR(~mu_L -> ~chi_10 mu-)
     1.02006603E-03    2     1000023        13   # BR(~mu_L -> ~chi_20 mu-)
     2.19113854E-07    2     1000025        13   # BR(~mu_L -> ~chi_30 mu-)
     2.57037342E-01    2     1000035        13   # BR(~mu_L -> ~chi_40 mu-)
     4.26658983E-04    2    -1000024        14   # BR(~mu_L -> ~chi_1- nu_mu)
     5.14729962E-01    2    -1000037        14   # BR(~mu_L -> ~chi_2- nu_mu)
#
#         PDG            Width
DECAY   2000013     2.73545363E+01   # smuon_R decays
#          BR         NDA      ID1       ID2
     9.99370722E-01    2     1000022        13   # BR(~mu_R -> ~chi_10 mu-)
     2.72667226E-04    2     1000023        13   # BR(~mu_R -> ~chi_20 mu-)
     3.56526454E-04    2     1000025        13   # BR(~mu_R -> ~chi_30 mu-)
     8.46408524E-08    2     1000035        13   # BR(~mu_R -> ~chi_40 mu-)
#
#         PDG            Width
DECAY   1000015     2.89342876E+01   # stau_1 decays
#          BR         NDA      ID1       ID2
     9.22777914E-01    2     1000022        15   # BR(~tau_1 -> ~chi_10  tau-)
     1.38734979E-02    2     1000023        15   # BR(~tau_1 -> ~chi_20  tau-)
     1.24846119E-02    2     1000025        15   # BR(~tau_1 -> ~chi_30  tau-)
     8.20089722E-03    2     1000035        15   # BR(~tau_1 -> ~chi_40  tau-)
     2.62400994E-02    2    -1000024        16   # BR(~tau_1 -> ~chi_1-  nu_tau)
     1.64229792E-02    2    -1000037        16   # BR(~tau_1 -> ~chi_2-  nu_tau)
#
#         PDG            Width
DECAY   2000015     3.08834541E+01   # stau_2 decays
#          BR         NDA      ID1       ID2
     2.42440120E-01    2     1000022        15   # BR(~tau_2 -> ~chi_10  tau-)
     1.25188027E-02    2     1000023        15   # BR(~tau_2 -> ~chi_20  tau-)
     1.28671396E-02    2     1000025        15   # BR(~tau_2 -> ~chi_30  tau-)
     2.43831602E-01    2     1000035        15   # BR(~tau_2 -> ~chi_40  tau-)
     6.02136514E-05    2    -1000024        16   # BR(~tau_2 -> ~chi_1-  nu_tau)
     4.88282122E-01    2    -1000037        16   # BR(~tau_2 -> ~chi_2-  nu_tau)
#
#         PDG            Width
DECAY   1000012     3.02303285E+01   # snu_eL decays
#          BR         NDA      ID1       ID2
     2.26522988E-01    2     1000022        12   # BR(~nu_eL -> ~chi_10 nu_e)
     2.62366649E-04    2     1000023        12   # BR(~nu_eL -> ~chi_20 nu_e)
     3.40814996E-04    2     1000025        12   # BR(~nu_eL -> ~chi_30 nu_e)
     2.57138201E-01    2     1000035        12   # BR(~nu_eL -> ~chi_40 nu_e)
     2.24910690E-03    2     1000024        11   # BR(~nu_eL -> ~chi_1+ e-)
     5.13486523E-01    2     1000037        11   # BR(~nu_eL -> ~chi_2+ e-)
#
#         PDG            Width
DECAY   1000014     3.02303285E+01   # snu_muL decays
#          BR         NDA      ID1       ID2
     2.26522988E-01    2     1000022        14   # BR(~nu_muL -> ~chi_10 nu_mu)
     2.62366649E-04    2     1000023        14   # BR(~nu_muL -> ~chi_20 nu_mu)
     3.40814996E-04    2     1000025        14   # BR(~nu_muL -> ~chi_30 nu_mu)
     2.57138201E-01    2     1000035        14   # BR(~nu_muL -> ~chi_40 nu_mu)
     2.24910690E-03    2     1000024        13   # BR(~nu_muL -> ~chi_1+ mu-)
     5.13486523E-01    2     1000037        13   # BR(~nu_muL -> ~chi_2+ mu-)
#
#         PDG            Width
DECAY   1000016     3.09724077E+01   # snu_tauL decays
#          BR         NDA      ID1       ID2
     2.21071965E-01    2     1000022        16   # BR(~nu_tauL -> ~chi_10 nu_tau)
     2.56040708E-04    2     1000023        16   # BR(~nu_tauL -> ~chi_20 nu_tau)
     3.32597525E-04    2     1000025        16   # BR(~nu_tauL -> ~chi_30 nu_tau)
     2.50885916E-01    2     1000035        16   # BR(~nu_tauL -> ~chi_40 nu_tau)
     2.64501008E-02    2     1000024        15   # BR(~nu_tauL -> ~chi_1+ tau-)
     5.01003380E-01    2     1000037        15   # BR(~nu_tauL -> ~chi_2+ tau-)
#
#         PDG            Width
DECAY   1000024     9.85132553E-01   # chargino1+ decays
#          BR         NDA      ID1       ID2
     1.00000000E+00    2     1000022        24   # BR(~chi_1+ -> ~chi_10  W+)
#
#         PDG            Width
DECAY   1000037     1.79004846E+01   # chargino2+ decays
#          BR         NDA      ID1       ID2
     2.52580578E-01    2     1000024        23   # BR(~chi_2+ -> ~chi_1+  Z )
     2.84953911E-04    2     1000022        24   # BR(~chi_2+ -> ~chi_10  W+)
     2.44107738E-01    2     1000023        24   # BR(~chi_2+ -> ~chi_20  W+)
     2.43544565E-01    2     1000025        24   # BR(~chi_2+ -> ~chi_30  W+)
     2.59481888E-01    2     1000024        25   # BR(~chi_2+ -> ~chi_1+  h )
     2.76812312E-07    2     1000022        37   # BR(~chi_2+ -> ~chi_10  H+)
#
#         PDG            Width
DECAY   1000022     0.00000000E+00   # neutralino1 decays
#
#         PDG            Width
DECAY   1000023     1.03596689E+00   # neutralino2 decays
#          BR         NDA      ID1       ID2
     5.58672467E-01    2     1000022        23   # BR(~chi_20 -> ~chi_10   Z )
     4.41327533E-01    2     1000022        25   # BR(~chi_20 -> ~chi_10   h )
#
#         PDG            Width
DECAY   1000025     1.04678450E+00   # neutralino3 decays
#          BR         NDA      ID1       ID2
     4.23580724E-01    2     1000022        23   # BR(~chi_30 -> ~chi_10   Z )
     5.76419276E-01    2     1000022        25   # BR(~chi_30 -> ~chi_10   h )
#
#         PDG            Width
DECAY   1000035     1.78948701E+01   # neutralino4 decays
#          BR         NDA      ID1       ID2
     1.07970210E-04    2     1000022        23   # BR(~chi_40 -> ~chi_10   Z )
     3.40855563E-02    2     1000023        23   # BR(~chi_40 -> ~chi_20   Z )
     2.18082063E-01    2     1000025        23   # BR(~chi_40 -> ~chi_30   Z )
     2.44200164E-01    2     1000024       -24   # BR(~chi_40 -> ~chi_1+   W-)
     2.44200164E-01    2    -1000024        24   # BR(~chi_40 -> ~chi_1-   W+)
     1.84782161E-04    2     1000022        25   # BR(~chi_40 -> ~chi_10   h )
     2.47166744E-07    2     1000022        35   # BR(~chi_40 -> ~chi_10   H )
     3.99185975E-08    2     1000022        36   # BR(~chi_40 -> ~chi_10   A )
     2.25134911E-01    2     1000023        25   # BR(~chi_40 -> ~chi_20   h )
     3.40041034E-02    2     1000025        25   # BR(~chi_40 -> ~chi_30   h )
#
#         PDG            Width
DECAY        25     4.03714469E-03   # h decays
#          BR         NDA      ID1       ID2
     6.04684811E-01    2           5        -5   # BR(h -> b       bb     )
     6.42696136E-02    2         -15        15   # BR(h -> tau+    tau-   )
     2.27537556E-04    2         -13        13   # BR(h -> mu+     mu-    )
     4.82325059E-04    2           3        -3   # BR(h -> s       sb     )
     2.09017571E-02    2           4        -4   # BR(h -> c       cb     )
     6.76760509E-02    2          21        21   # BR(h -> g       g      )
     2.32833659E-03    2          22        22   # BR(h -> gam     gam    )
     1.50596172E-03    2          22        23   # BR(h -> Z       gam    )
     2.12536047E-01    2          24       -24   # BR(h -> W+      W-     )
     2.53571902E-02    2          23        23   # BR(h -> Z       Z      )
     3.03691831E-05    2     1000022   1000022   # BR(h -> ~chi_10 ~chi_10)
#
#         PDG            Width
DECAY        35     7.09610253E+00   # H decays
#          BR         NDA      ID1       ID2
     4.62459425E-01    2           5        -5   # BR(H -> b       bb     )
     7.85070378E-02    2         -15        15   # BR(H -> tau+    tau-   )
     2.77607121E-04    2         -13        13   # BR(H -> mu+     mu-    )
     3.40303768E-04    2           3        -3   # BR(H -> s       sb     )
     1.90351742E-06    2           4        -4   # BR(H -> c       cb     )
     1.90176468E-01    2           6        -6   # BR(H -> t       tb     )
     6.31301465E-05    2          21        21   # BR(H -> g       g      )
     3.82104021E-07    2          22        22   # BR(H -> gam     gam    )
     1.12340005E-07    2          23        22   # BR(H -> Z       gam    )
     8.47175661E-05    2          24       -24   # BR(H -> W+      W-     )
     4.23051760E-05    2          23        23   # BR(H -> Z       Z      )
     3.19825780E-04    2          25        25   # BR(H -> h       h      )
    -2.60237980E-23    2          36        36   # BR(H -> A       A      )
     9.14391267E-19    2          23        36   # BR(H -> Z       A      )
     7.95227601E-04    2     1000022   1000022   # BR(H -> ~chi_10 ~chi_10)
     1.58214812E-01    2     1000022   1000023   # BR(H -> ~chi_10 ~chi_20)
     1.08716742E-01    2     1000022   1000025   # BR(H -> ~chi_10 ~chi_30)
#
#         PDG            Width
DECAY        36     7.09885161E+00   # A decays
#          BR         NDA      ID1       ID2
     4.62434101E-01    2           5        -5   # BR(A -> b       bb     )
     7.84789106E-02    2         -15        15   # BR(A -> tau+    tau-   )
     2.77507273E-04    2         -13        13   # BR(A -> mu+     mu-    )
     3.40429994E-04    2           3        -3   # BR(A -> s       sb     )
     1.91073172E-06    2           4        -4   # BR(A -> c       cb     )
     1.90791906E-01    2           6        -6   # BR(A -> t       tb     )
     1.88803702E-04    2          21        21   # BR(A -> g       g      )
     3.23006271E-07    2          22        22   # BR(A -> gam     gam    )
     2.28760626E-07    2          23        22   # BR(A -> Z       gam    )
     8.43642311E-05    2          23        25   # BR(A -> Z       h      )
     8.19163307E-04    2     1000022   1000022   # BR(A -> ~chi_10 ~chi_10)
     1.09962050E-01    2     1000022   1000023   # BR(A -> ~chi_10 ~chi_20)
     1.56620301E-01    2     1000022   1000025   # BR(A -> ~chi_10 ~chi_30)
#
#         PDG            Width
DECAY        37     7.12166970E+00   # H+ decays
#          BR         NDA      ID1       ID2
     7.46661679E-04    2           4        -5   # BR(H+ -> c       bb     )
     7.82502340E-02    2         -15        16   # BR(H+ -> tau+    nu_tau )
     2.76698656E-04    2         -13        14   # BR(H+ -> mu+     nu_mu  )
     4.77861053E-06    2           2        -5   # BR(H+ -> u       bb     )
     1.62361007E-05    2           2        -3   # BR(H+ -> u       sb     )
     3.35763681E-04    2           4        -3   # BR(H+ -> c       sb     )
     6.52851818E-01    2           6        -5   # BR(H+ -> t       bb     )
     8.42213841E-05    2          24        25   # BR(H+ -> W+      h      )
     9.37559271E-14    2          24        36   # BR(H+ -> W+      A      )
     2.67433588E-01    2     1000024   1000022   # BR(H+ -> ~chi_1+ ~chi_10)
