#
#                              ======================
#                              | THE SUSYHIT OUTPUT |
#                              ======================
#
#
#              ------------------------------------------------------
#              |     This is the output of the SUSY-HIT package     |
#              |  created by A.Djouadi, M.Muehlleitner and M.Spira. |
#              |  In case of problems with SUSY-HIT email to        |
#              |           margarete.muehlleitner@cern.ch           |
#              |           michael.spira@psi.ch                     |
#              |           abdelhak.djouadi@cern.ch                 |
#              ------------------------------------------------------
#
#              ------------------------------------------------------
#              |  SUSY Les Houches Accord - MSSM Spectrum + Decays  |
#              |              based on the decay programs           |
#              |                                                    |
#              |                     SDECAY 1.3b                    |
#              |                                                    |
#              |  Authors: M.Muhlleitner, A.Djouadi and Y.Mambrini  |
#              |  Ref.:    Comput.Phys.Commun.168(2005)46           |
#              |           [hep-ph/0311167]                         |
#              |                                                    |
#              |                     HDECAY 3.4                     |
#              |                                                    |
#              |  By: A.Djouadi,J.Kalinowski,M.Muhlleitner,M.Spira  |
#              |  Ref.:    Comput.Phys.Commun.108(1998)56           |
#              |           [hep-ph/9704448]                         |
#              |                                                    |
#              |                                                    |
#              |  If not stated otherwise all DRbar couplings and   |
#              |  soft SUSY breaking masses are given at the scale  |
#              |  Q=  0.50007145E+04
#              |                                                    |
#              ------------------------------------------------------
#
#
BLOCK DCINFO  # Decay Program information
     1   SDECAY/HDECAY # decay calculator
     2   1.3b  /3.4    # version number
#
BLOCK SPINFO  # Spectrum calculator information
     1    SOFTSUSY    # spectrum calculator                
     2    3.4.0       # version number                     
#
BLOCK MODSEL  # Model selection
     1     0   #  nonUniversal                                     
#
BLOCK SMINPUTS  # Standard Model inputs
         1     1.25778332E+02   # alpha_em^-1(M_Z)^MSbar
         2     1.16570000E-05   # G_F [GeV^-2]
         3     1.17200002E-01   # alpha_S(M_Z)^MSbar
         4     9.11876000E+01   # M_Z pole mass
         5     4.25000000E+00   # mb(mb)^MSbar
         6     1.72500000E+02   # mt pole mass
         7     1.77682000E+00   # mtau pole mass
#
BLOCK MINPAR  # Input parameters - minimal models
         3     1.00000000E+01   # tanb                
#
BLOCK EXTPAR  # Input parameters - non-minimal models
         0    -1.00000000E+00   # Set                 
         1     6.00000000E+01   # M_1(MX)             
         2     3.00000000E+03   # M_2(MX)             
         3     1.21156700E+03   # M_3(MX)             
        11     5.00000000E+03   # At(MX)              
        12     5.00000000E+03   # Ab(MX)              
        13     0.00000000E+00   # Atau(MX)            
        23    -1.44687500E+03   # mu(MX)              
        26     3.00000000E+03   # mA(pole)            
        31     5.00000000E+03   # meL(MX)             
        32     5.00000000E+03   # mmuL(MX)            
        33     5.00000000E+03   # mtauL(MX)           
        34     5.00000000E+03   # meR(MX)             
        35     5.00000000E+03   # mmuR(MX)            
        36     5.00000000E+03   # mtauR(MX)           
        41     5.00000000E+03   # mqL1(MX)            
        42     5.00000000E+03   # mqL2(MX)            
        43     5.00000000E+03   # mqL3(MX)            
        44     5.00000000E+03   # muR(MX)             
        45     5.00000000E+03   # mcR(MX)             
        46     5.00000000E+03   # mtR(MX)             
        47     5.00000000E+03   # mdR(MX)             
        48     5.00000000E+03   # msR(MX)             
        49     5.00000000E+03   # mbR(MX)             
#
BLOCK MASS  # Mass Spectrum
# PDG code           mass       particle
        24     8.00954652E+01   # W+
        25     1.24622443E+02   # h
        35     3.00008773E+03   # H
        36     2.99999996E+03   # A
        37     3.00087832E+03   # H+
         5     4.87878001E+00   # b-quark pole mass calculated from mb(mb)_Msbar
   1000001     5.06665435E+03   # ~d_L
   2000001     5.04885633E+03   # ~d_R
   1000002     5.06617877E+03   # ~u_L
   2000002     5.04858073E+03   # ~u_R
   1000003     5.06665435E+03   # ~s_L
   2000003     5.04885633E+03   # ~s_R
   1000004     5.06617877E+03   # ~c_L
   2000004     5.04858073E+03   # ~c_R
   1000005     5.01287191E+03   # ~b_1
   2000005     5.04774441E+03   # ~b_2
   1000006     4.90378772E+03   # ~t_1
   2000006     5.05952310E+03   # ~t_2
   1000011     5.01905070E+03   # ~e_L
   2000011     5.00591075E+03   # ~e_R
   1000012     5.01810245E+03   # ~nu_eL
   1000013     5.01905070E+03   # ~mu_L
   2000013     5.00591075E+03   # ~mu_R
   1000014     5.01810245E+03   # ~nu_muL
   1000015     5.00437051E+03   # ~tau_1
   2000015     5.01900508E+03   # ~tau_2
   1000016     5.01756348E+03   # ~nu_tauL
   1000021     1.50000051E+03   # ~g
   1000022     6.03028482E+01   # ~chi_10
   1000023     1.49944796E+03   # ~chi_20
   1000025    -1.50189716E+03   # ~chi_30
   1000035     3.07433287E+03   # ~chi_40
   1000024     1.50000069E+03   # ~chi_1+
   1000037     3.07450038E+03   # ~chi_2+
#
BLOCK NMIX  # Neutralino Mixing Matrix
  1  1     9.99556195E-01   # N_11
  1  2     1.39893286E-04   # N_12
  1  3    -2.97273314E-02   # N_13
  1  4     1.91823813E-03   # N_14
  2  1     1.96636032E-02   # N_21
  2  2     3.09000387E-02   # N_22
  2  3     7.06897598E-01   # N_23
  2  4     7.06366984E-01   # N_24
  3  1    -2.23730384E-02   # N_31
  3  2     1.32661258E-02   # N_32
  3  3    -7.06580858E-01   # N_33
  3  4     7.07154119E-01   # N_34
  4  1    -4.50888768E-04   # N_41
  4  2     9.99434429E-01   # N_42
  4  3    -1.24724680E-02   # N_43
  4  4    -3.12258915E-02   # N_44
#
BLOCK UMIX  # Chargino Mixing Matrix U
  1  1     1.76481561E-02   # U_11
  1  2     9.99844259E-01   # U_12
  2  1    -9.99844259E-01   # U_21
  2  2     1.76481561E-02   # U_22
#
BLOCK VMIX  # Chargino Mixing Matrix V
  1  1     4.41790681E-02   # V_11
  1  2    -9.99023628E-01   # V_12
  2  1    -9.99023628E-01   # V_21
  2  2    -4.41790681E-02   # V_22
#
BLOCK STOPMIX  # Stop Mixing Matrix
  1  1    -5.12699739E-01   # cos(theta_t)
  1  2     8.58567981E-01   # sin(theta_t)
  2  1    -8.58567981E-01   # -sin(theta_t)
  2  2    -5.12699739E-01   # cos(theta_t)
#
BLOCK SBOTMIX  # Sbottom Mixing Matrix
  1  1     9.94474173E-01   # cos(theta_b)
  1  2    -1.04981519E-01   # sin(theta_b)
  2  1     1.04981519E-01   # -sin(theta_b)
  2  2     9.94474173E-01   # cos(theta_b)
#
BLOCK STAUMIX  # Stau Mixing Matrix
  1  1    -1.68199205E-01   # cos(theta_tau)
  1  2     9.85753026E-01   # sin(theta_tau)
  2  1    -9.85753026E-01   # -sin(theta_tau)
  2  2    -1.68199205E-01   # cos(theta_tau)
#
BLOCK ALPHA  # Higgs mixing
          -1.05446901E-01   # Mixing angle in the neutral Higgs boson sector
#
BLOCK HMIX Q=  5.00071455E+03  # DRbar Higgs Parameters
         1    -1.47312004E+03   # mu(Q)MSSM           
         2     9.47186892E+00   # tan                 
         3     2.41978373E+02   # higgs               
         4     8.39732437E+06   # mA^2(Q)MSSM         
#
BLOCK GAUGE Q=  5.00071455E+03  # The gauge couplings
     1     3.70712103E-01   # gprime(Q) DRbar
     2     6.32118719E-01   # g(Q) DRbar
     3     1.00270377E+00   # g3(Q) DRbar
#
BLOCK AU Q=  5.00071455E+03  # The trilinear couplings
  1  1     5.00000001E+03   # A_u(Q) DRbar
  2  2     5.00000001E+03   # A_c(Q) DRbar
  3  3     5.00000001E+03   # A_t(Q) DRbar
#
BLOCK AD Q=  5.00071455E+03  # The trilinear couplings
  1  1     5.00000000E+03   # A_d(Q) DRbar
  2  2     5.00000000E+03   # A_s(Q) DRbar
  3  3     5.00000001E+03   # A_b(Q) DRbar
#
BLOCK AE Q=  5.00071455E+03  # The trilinear couplings
  1  1     0.00000000E+00   # A_e(Q) DRbar
  2  2     9.82825854E-08   # A_mu(Q) DRbar
  3  3     9.76222761E-08   # A_tau(Q) DRbar
#
BLOCK Yu Q=  5.00071455E+03  # The Yukawa couplings
  1  1     0.00000000E+00   # y_u(Q) DRbar
  2  2     0.00000000E+00   # y_c(Q) DRbar
  3  3     8.17457399E-01   # y_t(Q) DRbar
#
BLOCK Yd Q=  5.00071455E+03  # The Yukawa couplings
  1  1     0.00000000E+00   # y_d(Q) DRbar
  2  2     0.00000000E+00   # y_s(Q) DRbar
  3  3     1.30625830E-01   # y_b(Q) DRbar
#
BLOCK Ye Q=  5.00071455E+03  # The Yukawa couplings
  1  1     0.00000000E+00   # y_e(Q) DRbar
  2  2     0.00000000E+00   # y_mu(Q) DRbar
  3  3     9.66375820E-02   # y_tau(Q) DRbar
#
BLOCK MSOFT Q=  5.00071455E+03  # The soft SUSY breaking masses at the scale Q
         1     6.00000000E+01   # M_1(Q)              
         2     3.00000000E+03   # M_2(Q)              
         3     1.21156700E+03   # M_3(Q)              
        21     6.49959022E+06   # mH1^2(Q)            
        22    -1.62363818E+06   # mH2^2(Q)            
        31     5.00000000E+03   # meL(Q)              
        32     5.00000000E+03   # mmuL(Q)             
        33     5.00000000E+03   # mtauL(Q)            
        34     5.00000000E+03   # meR(Q)              
        35     5.00000000E+03   # mmuR(Q)             
        36     5.00000000E+03   # mtauR(Q)            
        41     5.00000000E+03   # mqL1(Q)             
        42     5.00000000E+03   # mqL2(Q)             
        43     5.00000000E+03   # mqL3(Q)             
        44     5.00000000E+03   # muR(Q)              
        45     5.00000000E+03   # mcR(Q)              
        46     5.00000000E+03   # mtR(Q)              
        47     5.00000000E+03   # mdR(Q)              
        48     5.00000000E+03   # msR(Q)              
        49     5.00000000E+03   # mbR(Q)              
#
#
#
#                             =================
#                             |The decay table|
#                             =================
#
# - The QCD corrections to the decays gluino -> squark  + quark
#                                     squark -> gaugino + quark_prime
#                                     squark -> squark_prime + Higgs
#                                     squark -> gluino  + quark
#   are included.
#
# - The multi-body decays for the inos, stops and sbottoms are included.
#
# - The loop induced decays for the gluino, neutralinos and stops
#   are included.
#
# - The SUSY decays of the top quark are included.
#
#
#         PDG            Width
DECAY         6     1.40022282E+00   # top decays
#          BR         NDA      ID1       ID2
     1.00000000E+00    2           5        24   # BR(t ->  b    W+)
#
#         PDG            Width
DECAY   1000021     6.86650443E-05   # gluino decays
#          BR         NDA      ID1       ID2
     1.16446675E-05    2     1000022        21   # BR(~g -> ~chi_10 g)
     3.94460805E-11    2     1000023        21   # BR(~g -> ~chi_20 g)
#           BR         NDA      ID1       ID2       ID3
     7.80346273E-02    3     1000022         1        -1   # BR(~g -> ~chi_10 d  db)
     4.38267474E-20    3     1000023         1        -1   # BR(~g -> ~chi_20 d  db)
     2.66022016E-01    3     1000022         2        -2   # BR(~g -> ~chi_10 u  ub)
     8.01108355E-20    3     1000023         2        -2   # BR(~g -> ~chi_20 u  ub)
     7.80346273E-02    3     1000022         3        -3   # BR(~g -> ~chi_10 s  sb)
     4.38267474E-20    3     1000023         3        -3   # BR(~g -> ~chi_20 s  sb)
     2.66022016E-01    3     1000022         4        -4   # BR(~g -> ~chi_10 c  cb)
     8.01108355E-20    3     1000023         4        -4   # BR(~g -> ~chi_20 c  cb)
     7.89834934E-02    3     1000022         5        -5   # BR(~g -> ~chi_10 b  bb)
     2.32891576E-01    3     1000022         6        -6   # BR(~g -> ~chi_10 t  tb)
#
#         PDG            Width
DECAY   1000006     3.71115279E+02   # stop1 decays
#          BR         NDA      ID1       ID2
     2.36549354E-02    2     1000022         6   # BR(~t_1 -> ~chi_10 t )
     7.29247162E-02    2     1000023         6   # BR(~t_1 -> ~chi_20 t )
     7.00605239E-02    2     1000025         6   # BR(~t_1 -> ~chi_30 t )
     5.87206816E-03    2     1000035         6   # BR(~t_1 -> ~chi_40 t )
     1.04651079E-01    2     1000024         5   # BR(~t_1 -> ~chi_1+ b )
     1.16799266E-02    2     1000037         5   # BR(~t_1 -> ~chi_2+ b )
     7.11156751E-01    2     1000021         6   # BR(~t_1 -> ~g      t )
#
#         PDG            Width
DECAY   2000006     3.79063949E+02   # stop2 decays
#          BR         NDA      ID1       ID2
     9.45567088E-03    2     1000022         6   # BR(~t_2 -> ~chi_10 t )
     7.39419711E-02    2     1000023         6   # BR(~t_2 -> ~chi_20 t )
     7.69805272E-02    2     1000025         6   # BR(~t_2 -> ~chi_30 t )
     1.43074285E-02    2     1000035         6   # BR(~t_2 -> ~chi_40 t )
     4.56427964E-02    2     1000024         5   # BR(~t_2 -> ~chi_1+ b )
     2.84104086E-02    2     1000037         5   # BR(~t_2 -> ~chi_2+ b )
     7.47788227E-01    2     1000021         6   # BR(~t_2 -> ~g      t )
     7.63305125E-04    2     1000006        25   # BR(~t_2 -> ~t_1    h )
     2.70966571E-03    2     1000006        23   # BR(~t_2 -> ~t_1    Z )
#
#         PDG            Width
DECAY   1000005     3.56610868E+02   # sbottom1 decays
#          BR         NDA      ID1       ID2
     2.19524240E-03    2     1000022         5   # BR(~b_1 -> ~chi_10 b )
     2.06521270E-03    2     1000023         5   # BR(~b_1 -> ~chi_20 b )
     1.95392004E-03    2     1000025         5   # BR(~b_1 -> ~chi_30 b )
     2.09107553E-02    2     1000035         5   # BR(~b_1 -> ~chi_40 b )
     1.54080763E-01    2    -1000024         6   # BR(~b_1 -> ~chi_1- t )
     4.20919963E-02    2    -1000037         6   # BR(~b_1 -> ~chi_2- t )
     7.75128651E-01    2     1000021         5   # BR(~b_1 -> ~g      b )
     1.57345962E-03    2     1000006       -24   # BR(~b_1 -> ~t_1    W-)
#
#         PDG            Width
DECAY   2000005     2.85541120E+02   # sbottom2 decays
#          BR         NDA      ID1       ID2
     1.02607467E-02    2     1000022         5   # BR(~b_2 -> ~chi_10 b )
     2.47129198E-03    2     1000023         5   # BR(~b_2 -> ~chi_20 b )
     2.58094112E-03    2     1000025         5   # BR(~b_2 -> ~chi_30 b )
     3.09798853E-04    2     1000035         5   # BR(~b_2 -> ~chi_40 b )
     7.10689931E-03    2    -1000024         6   # BR(~b_2 -> ~chi_1- t )
     6.23324763E-04    2    -1000037         6   # BR(~b_2 -> ~chi_2- t )
     9.76555657E-01    2     1000021         5   # BR(~b_2 -> ~g      b )
     9.13400018E-05    2     1000006       -24   # BR(~b_2 -> ~t_1    W-)
#
#         PDG            Width
DECAY   1000002     3.04411176E+02   # sup_L decays
#          BR         NDA      ID1       ID2
     2.45404827E-03    2     1000022         2   # BR(~u_L -> ~chi_10 u)
     6.45697531E-05    2     1000023         2   # BR(~u_L -> ~chi_20 u)
     4.22711599E-06    2     1000025         2   # BR(~u_L -> ~chi_30 u)
     2.56662814E-02    2     1000035         2   # BR(~u_L -> ~chi_40 u)
     2.08771346E-04    2     1000024         1   # BR(~u_L -> ~chi_1+ d)
     5.12929426E-02    2     1000037         1   # BR(~u_L -> ~chi_2+ d)
     9.20309159E-01    2     1000021         2   # BR(~u_L -> ~g      u)
#
#         PDG            Width
DECAY   2000002     2.90707287E+02   # sup_R decays
#          BR         NDA      ID1       ID2
     4.09133407E-02    2     1000022         2   # BR(~u_R -> ~chi_10 u)
     1.31781974E-05    2     1000023         2   # BR(~u_R -> ~chi_20 u)
     1.70492390E-05    2     1000025         2   # BR(~u_R -> ~chi_30 u)
     3.30671632E-09    2     1000035         2   # BR(~u_R -> ~chi_40 u)
     9.59056429E-01    2     1000021         2   # BR(~u_R -> ~g      u)
#
#         PDG            Width
DECAY   1000001     3.04423872E+02   # sdown_L decays
#          BR         NDA      ID1       ID2
     2.44715973E-03    2     1000022         1   # BR(~d_L -> ~chi_10 d)
     3.91594961E-05    2     1000023         1   # BR(~d_L -> ~chi_20 d)
     1.66348973E-05    2     1000025         1   # BR(~d_L -> ~chi_30 d)
     2.56822599E-02    2     1000035         1   # BR(~d_L -> ~chi_40 d)
     3.33176908E-05    2    -1000024         2   # BR(~d_L -> ~chi_1- u)
     5.13910989E-02    2    -1000037         2   # BR(~d_L -> ~chi_2- u)
     9.20390369E-01    2     1000021         1   # BR(~d_L -> ~g      d)
#
#         PDG            Width
DECAY   2000001     2.81801619E+02   # sdown_R decays
#          BR         NDA      ID1       ID2
     1.05521571E-02    2     1000022         1   # BR(~d_R -> ~chi_10 d)
     3.39892355E-06    2     1000023         1   # BR(~d_R -> ~chi_20 d)
     4.39734377E-06    2     1000025         1   # BR(~d_R -> ~chi_30 d)
     8.52959890E-10    2     1000035         1   # BR(~d_R -> ~chi_40 d)
     9.89440046E-01    2     1000021         1   # BR(~d_R -> ~g      d)
#
#         PDG            Width
DECAY   1000004     3.04411176E+02   # scharm_L decays
#          BR         NDA      ID1       ID2
     2.45404827E-03    2     1000022         4   # BR(~c_L -> ~chi_10 c)
     6.45697531E-05    2     1000023         4   # BR(~c_L -> ~chi_20 c)
     4.22711599E-06    2     1000025         4   # BR(~c_L -> ~chi_30 c)
     2.56662814E-02    2     1000035         4   # BR(~c_L -> ~chi_40 c)
     2.08771346E-04    2     1000024         3   # BR(~c_L -> ~chi_1+ s)
     5.12929426E-02    2     1000037         3   # BR(~c_L -> ~chi_2+ s)
     9.20309159E-01    2     1000021         4   # BR(~c_L -> ~g      c)
#
#         PDG            Width
DECAY   2000004     2.90707287E+02   # scharm_R decays
#          BR         NDA      ID1       ID2
     4.09133407E-02    2     1000022         4   # BR(~c_R -> ~chi_10 c)
     1.31781974E-05    2     1000023         4   # BR(~c_R -> ~chi_20 c)
     1.70492390E-05    2     1000025         4   # BR(~c_R -> ~chi_30 c)
     3.30671632E-09    2     1000035         4   # BR(~c_R -> ~chi_40 c)
     9.59056429E-01    2     1000021         4   # BR(~c_R -> ~g      c)
#
#         PDG            Width
DECAY   1000003     3.04423872E+02   # sstrange_L decays
#          BR         NDA      ID1       ID2
     2.44715973E-03    2     1000022         3   # BR(~s_L -> ~chi_10 s)
     3.91594961E-05    2     1000023         3   # BR(~s_L -> ~chi_20 s)
     1.66348973E-05    2     1000025         3   # BR(~s_L -> ~chi_30 s)
     2.56822599E-02    2     1000035         3   # BR(~s_L -> ~chi_40 s)
     3.33176908E-05    2    -1000024         4   # BR(~s_L -> ~chi_1- c)
     5.13910989E-02    2    -1000037         4   # BR(~s_L -> ~chi_2- c)
     9.20390369E-01    2     1000021         3   # BR(~s_L -> ~g      s)
#
#         PDG            Width
DECAY   2000003     2.81801619E+02   # sstrange_R decays
#          BR         NDA      ID1       ID2
     1.05521571E-02    2     1000022         3   # BR(~s_R -> ~chi_10 s)
     3.39892355E-06    2     1000023         3   # BR(~s_R -> ~chi_20 s)
     4.39734377E-06    2     1000025         3   # BR(~s_R -> ~chi_30 s)
     8.52959890E-10    2     1000035         3   # BR(~s_R -> ~chi_40 s)
     9.89440046E-01    2     1000021         3   # BR(~s_R -> ~g      s)
#
#         PDG            Width
DECAY   1000011     3.02395496E+01   # selectron_L decays
#          BR         NDA      ID1       ID2
     2.26733785E-01    2     1000022        11   # BR(~e_L -> ~chi_10 e-)
     9.85203122E-04    2     1000023        11   # BR(~e_L -> ~chi_20 e-)
     1.15357889E-08    2     1000025        11   # BR(~e_L -> ~chi_30 e-)
     2.57104452E-01    2     1000035        11   # BR(~e_L -> ~chi_40 e-)
     3.40804829E-04    2    -1000024        12   # BR(~e_L -> ~chi_1- nu_e)
     5.14835744E-01    2    -1000037        12   # BR(~e_L -> ~chi_2- nu_e)
#
#         PDG            Width
DECAY   2000011     2.73605358E+01   # selectron_R decays
#          BR         NDA      ID1       ID2
     9.99264715E-01    2     1000022        11   # BR(~e_R -> ~chi_10 e-)
     3.20528711E-04    2     1000023        11   # BR(~e_R -> ~chi_20 e-)
     4.14677734E-04    2     1000025        11   # BR(~e_R -> ~chi_30 e-)
     7.88990831E-08    2     1000035        11   # BR(~e_R -> ~chi_40 e-)
#
#         PDG            Width
DECAY   1000013     3.02395496E+01   # smuon_L decays
#          BR         NDA      ID1       ID2
     2.26733785E-01    2     1000022        13   # BR(~mu_L -> ~chi_10 mu-)
     9.85203122E-04    2     1000023        13   # BR(~mu_L -> ~chi_20 mu-)
     1.15357889E-08    2     1000025        13   # BR(~mu_L -> ~chi_30 mu-)
     2.57104452E-01    2     1000035        13   # BR(~mu_L -> ~chi_40 mu-)
     3.40804829E-04    2    -1000024        14   # BR(~mu_L -> ~chi_1- nu_mu)
     5.14835744E-01    2    -1000037        14   # BR(~mu_L -> ~chi_2- nu_mu)
#
#         PDG            Width
DECAY   2000013     2.73605358E+01   # smuon_R decays
#          BR         NDA      ID1       ID2
     9.99264715E-01    2     1000022        13   # BR(~mu_R -> ~chi_10 mu-)
     3.20528711E-04    2     1000023        13   # BR(~mu_R -> ~chi_20 mu-)
     4.14677734E-04    2     1000025        13   # BR(~mu_R -> ~chi_30 mu-)
     7.88990831E-08    2     1000035        13   # BR(~mu_R -> ~chi_40 mu-)
#
#         PDG            Width
DECAY   1000015     2.89728398E+01   # stau_1 decays
#          BR         NDA      ID1       ID2
     9.24237050E-01    2     1000022        15   # BR(~tau_1 -> ~chi_10  tau-)
     1.41672661E-02    2     1000023        15   # BR(~tau_1 -> ~chi_20  tau-)
     1.28859392E-02    2     1000025        15   # BR(~tau_1 -> ~chi_30  tau-)
     7.28033652E-03    2     1000035        15   # BR(~tau_1 -> ~chi_40  tau-)
     2.68509382E-02    2    -1000024        16   # BR(~tau_1 -> ~chi_1-  nu_tau)
     1.45784696E-02    2    -1000037        16   # BR(~tau_1 -> ~chi_2-  nu_tau)
#
#         PDG            Width
DECAY   2000015     3.09268178E+01   # stau_2 decays
#          BR         NDA      ID1       ID2
     2.39719323E-01    2     1000022        15   # BR(~tau_2 -> ~chi_10  tau-)
     1.29167241E-02    2     1000023        15   # BR(~tau_2 -> ~chi_20  tau-)
     1.32041243E-02    2     1000025        15   # BR(~tau_2 -> ~chi_30  tau-)
     2.44497148E-01    2     1000035        15   # BR(~tau_2 -> ~chi_40  tau-)
     7.39428468E-05    2    -1000024        16   # BR(~tau_2 -> ~chi_1-  nu_tau)
     4.89588738E-01    2    -1000037        16   # BR(~tau_2 -> ~chi_2-  nu_tau)
#
#         PDG            Width
DECAY   1000012     3.02415901E+01   # snu_eL decays
#          BR         NDA      ID1       ID2
     2.26459351E-01    2     1000022        12   # BR(~nu_eL -> ~chi_10 nu_e)
     2.05197309E-04    2     1000023        12   # BR(~nu_eL -> ~chi_20 nu_e)
     3.80625767E-04    2     1000025        12   # BR(~nu_eL -> ~chi_30 nu_e)
     2.57193912E-01    2     1000035        12   # BR(~nu_eL -> ~chi_40 nu_e)
     2.13499374E-03    2     1000024        11   # BR(~nu_eL -> ~chi_1+ e-)
     5.13625919E-01    2     1000037        11   # BR(~nu_eL -> ~chi_2+ e-)
#
#         PDG            Width
DECAY   1000014     3.02415901E+01   # snu_muL decays
#          BR         NDA      ID1       ID2
     2.26459351E-01    2     1000022        14   # BR(~nu_muL -> ~chi_10 nu_mu)
     2.05197309E-04    2     1000023        14   # BR(~nu_muL -> ~chi_20 nu_mu)
     3.80625767E-04    2     1000025        14   # BR(~nu_muL -> ~chi_30 nu_mu)
     2.57193912E-01    2     1000035        14   # BR(~nu_muL -> ~chi_40 nu_mu)
     2.13499374E-03    2     1000024        13   # BR(~nu_muL -> ~chi_1+ mu-)
     5.13625919E-01    2     1000037        13   # BR(~nu_muL -> ~chi_2+ mu-)
#
#         PDG            Width
DECAY   1000016     3.10052607E+01   # snu_tauL decays
#          BR         NDA      ID1       ID2
     2.20857840E-01    2     1000022        16   # BR(~nu_tauL -> ~chi_10 nu_tau)
     2.00113300E-04    2     1000023        16   # BR(~nu_tauL -> ~chi_20 nu_tau)
     3.71195252E-04    2     1000025        16   # BR(~nu_tauL -> ~chi_30 nu_tau)
     2.50767434E-01    2     1000035        16   # BR(~nu_tauL -> ~chi_40 nu_tau)
     2.70099871E-02    2     1000024        15   # BR(~nu_tauL -> ~chi_1+ tau-)
     5.00793430E-01    2     1000037        15   # BR(~nu_tauL -> ~chi_2+ tau-)
#
#         PDG            Width
DECAY   1000024     9.22867772E-01   # chargino1+ decays
#          BR         NDA      ID1       ID2
     1.00000000E+00    2     1000022        24   # BR(~chi_1+ -> ~chi_10  W+)
#
#         PDG            Width
DECAY   1000037     1.84038919E+01   # chargino2+ decays
#          BR         NDA      ID1       ID2
     2.52709101E-01    2     1000024        23   # BR(~chi_2+ -> ~chi_1+  Z )
     2.61238072E-04    2     1000022        24   # BR(~chi_2+ -> ~chi_10  W+)
     2.44028748E-01    2     1000023        24   # BR(~chi_2+ -> ~chi_20  W+)
     2.43688969E-01    2     1000025        24   # BR(~chi_2+ -> ~chi_30  W+)
     2.59311581E-01    2     1000024        25   # BR(~chi_2+ -> ~chi_1+  h )
     3.63809660E-07    2     1000022        37   # BR(~chi_2+ -> ~chi_10  H+)
#
#         PDG            Width
DECAY   1000022     0.00000000E+00   # neutralino1 decays
#
#         PDG            Width
DECAY   1000023     9.69767005E-01   # neutralino2 decays
#          BR         NDA      ID1       ID2
     5.56494132E-01    2     1000022        23   # BR(~chi_20 -> ~chi_10   Z )
     4.43505868E-01    2     1000022        25   # BR(~chi_20 -> ~chi_10   h )
#
#         PDG            Width
DECAY   1000025     9.79338714E-01   # neutralino3 decays
#          BR         NDA      ID1       ID2
     4.26486233E-01    2     1000022        23   # BR(~chi_30 -> ~chi_10   Z )
     5.73513767E-01    2     1000022        25   # BR(~chi_30 -> ~chi_10   h )
#
#         PDG            Width
DECAY   1000035     1.84042180E+01   # neutralino4 decays
#          BR         NDA      ID1       ID2
     9.39604369E-05    2     1000022        23   # BR(~chi_40 -> ~chi_10   Z )
     3.95256025E-02    2     1000023        23   # BR(~chi_40 -> ~chi_20   Z )
     2.12651160E-01    2     1000025        23   # BR(~chi_40 -> ~chi_30   Z )
     2.44334025E-01    2     1000024       -24   # BR(~chi_40 -> ~chi_1+   W-)
     2.44334025E-01    2    -1000024        24   # BR(~chi_40 -> ~chi_1-   W+)
     1.73533851E-04    2     1000022        25   # BR(~chi_40 -> ~chi_10   h )
     3.27855218E-07    2     1000022        35   # BR(~chi_40 -> ~chi_10   H )
     4.93129973E-08    2     1000022        36   # BR(~chi_40 -> ~chi_10   A )
     2.19402855E-01    2     1000023        25   # BR(~chi_40 -> ~chi_20   h )
     3.94844607E-02    2     1000025        25   # BR(~chi_40 -> ~chi_30   h )
#
#         PDG            Width
DECAY        25     4.03586454E-03   # h decays
#          BR         NDA      ID1       ID2
     6.10391467E-01    2           5        -5   # BR(h -> b       bb     )
     6.41831897E-02    2         -15        15   # BR(h -> tau+    tau-   )
     2.27232497E-04    2         -13        13   # BR(h -> mu+     mu-    )
     4.81833657E-04    2           3        -3   # BR(h -> s       sb     )
     2.08805854E-02    2           4        -4   # BR(h -> c       cb     )
     6.73685474E-02    2          21        21   # BR(h -> g       g      )
     2.31299483E-03    2          22        22   # BR(h -> gam     gam    )
     1.47856372E-03    2          22        23   # BR(h -> Z       gam    )
     2.07928923E-01    2          24       -24   # BR(h -> W+      W-     )
     2.47155247E-02    2          23        23   # BR(h -> Z       Z      )
     3.11384207E-05    2     1000022   1000022   # BR(h -> ~chi_10 ~chi_10)
#
#         PDG            Width
DECAY        35     7.26332543E+00   # H decays
#          BR         NDA      ID1       ID2
     4.48911596E-01    2           5        -5   # BR(H -> b       bb     )
     7.67350457E-02    2         -15        15   # BR(H -> tau+    tau-   )
     2.71341217E-04    2         -13        13   # BR(H -> mu+     mu-    )
     3.32622702E-04    2           3        -3   # BR(H -> s       sb     )
     1.85882965E-06    2           4        -4   # BR(H -> c       cb     )
     1.85711812E-01    2           6        -6   # BR(H -> t       tb     )
     6.16383347E-05    2          21        21   # BR(H -> g       g      )
     3.88444495E-07    2          22        22   # BR(H -> gam     gam    )
     1.09635478E-07    2          23        22   # BR(H -> Z       gam    )
     8.25580383E-05    2          24       -24   # BR(H -> W+      W-     )
     4.12267717E-05    2          23        23   # BR(H -> Z       Z      )
     3.13390220E-04    2          25        25   # BR(H -> h       h      )
    -4.44420183E-24    2          36        36   # BR(H -> A       A      )
     9.61624431E-19    2          23        36   # BR(H -> Z       A      )
     3.18224680E-09    2     1000024  -1000024   # BR(H -> ~chi_1+ ~chi_1-)
     8.84054020E-04    2     1000022   1000022   # BR(H -> ~chi_10 ~chi_10)
     1.91864386E-08    2     1000023   1000023   # BR(H -> ~chi_20 ~chi_20)
     1.70344267E-01    2     1000022   1000023   # BR(H -> ~chi_10 ~chi_20)
     1.16308069E-01    2     1000022   1000025   # BR(H -> ~chi_10 ~chi_30)
#
#         PDG            Width
DECAY        36     7.26601457E+00   # A decays
#          BR         NDA      ID1       ID2
     4.48895348E-01    2           5        -5   # BR(A -> b       bb     )
     7.67087386E-02    2         -15        15   # BR(A -> tau+    tau-   )
     2.71247813E-04    2         -13        13   # BR(A -> mu+     mu-    )
     3.32751180E-04    2           3        -3   # BR(A -> s       sb     )
     1.86591350E-06    2           4        -4   # BR(A -> c       cb     )
     1.86316681E-01    2           6        -6   # BR(A -> t       tb     )
     1.84410430E-04    2          21        21   # BR(A -> g       g      )
     2.67961927E-07    2          22        22   # BR(A -> gam     gam    )
     2.23339804E-07    2          23        22   # BR(A -> Z       gam    )
     8.22161205E-05    2          23        25   # BR(A -> Z       h      )
     9.09664815E-04    2     1000022   1000022   # BR(A -> ~chi_10 ~chi_10)
     1.52078826E-05    2     1000023   1000023   # BR(A -> ~chi_20 ~chi_20)
     1.17650421E-01    2     1000022   1000023   # BR(A -> ~chi_10 ~chi_20)
     1.68630956E-01    2     1000022   1000025   # BR(A -> ~chi_10 ~chi_30)
#
#         PDG            Width
DECAY        37     7.25613068E+00   # H+ decays
#          BR         NDA      ID1       ID2
     7.20798810E-04    2           4        -5   # BR(H+ -> c       bb     )
     7.68357168E-02    2         -15        16   # BR(H+ -> tau+    nu_tau )
     2.71696818E-04    2         -13        14   # BR(H+ -> mu+     nu_mu  )
     4.61308871E-06    2           2        -5   # BR(H+ -> u       bb     )
     1.59425998E-05    2           2        -3   # BR(H+ -> u       sb     )
     3.29692411E-04    2           4        -3   # BR(H+ -> c       sb     )
     6.33164212E-01    2           6        -5   # BR(H+ -> t       bb     )
     8.24533154E-05    2          24        25   # BR(H+ -> W+      h      )
     9.46974078E-14    2          24        36   # BR(H+ -> W+      A      )
     2.88559275E-01    2     1000024   1000022   # BR(H+ -> ~chi_1+ ~chi_10)
     1.55987274E-05    2     1000024   1000023   # BR(H+ -> ~chi_1+ ~chi_20)
