#
#                              ======================
#                              | THE SUSYHIT OUTPUT |
#                              ======================
#
#
#              ------------------------------------------------------
#              |     This is the output of the SUSY-HIT package     |
#              |  created by A.Djouadi, M.Muehlleitner and M.Spira. |
#              |  In case of problems with SUSY-HIT email to        |
#              |           margarete.muehlleitner@cern.ch           |
#              |           michael.spira@psi.ch                     |
#              |           abdelhak.djouadi@cern.ch                 |
#              ------------------------------------------------------
#
#              ------------------------------------------------------
#              |  SUSY Les Houches Accord - MSSM Spectrum + Decays  |
#              |              based on the decay programs           |
#              |                                                    |
#              |                     SDECAY 1.3b                    |
#              |                                                    |
#              |  Authors: M.Muhlleitner, A.Djouadi and Y.Mambrini  |
#              |  Ref.:    Comput.Phys.Commun.168(2005)46           |
#              |           [hep-ph/0311167]                         |
#              |                                                    |
#              |                     HDECAY 3.4                     |
#              |                                                    |
#              |  By: A.Djouadi,J.Kalinowski,M.Muhlleitner,M.Spira  |
#              |  Ref.:    Comput.Phys.Commun.108(1998)56           |
#              |           [hep-ph/9704448]                         |
#              |                                                    |
#              |                                                    |
#              |  If not stated otherwise all DRbar couplings and   |
#              |  soft SUSY breaking masses are given at the scale  |
#              |  Q=  0.50007229E+04
#              |                                                    |
#              ------------------------------------------------------
#
#
BLOCK DCINFO  # Decay Program information
     1   SDECAY/HDECAY # decay calculator
     2   1.3b  /3.4    # version number
#
BLOCK SPINFO  # Spectrum calculator information
     1    SOFTSUSY    # spectrum calculator                
     2    3.4.0       # version number                     
#
BLOCK MODSEL  # Model selection
     1     0   #  nonUniversal                                     
#
BLOCK SMINPUTS  # Standard Model inputs
         1     1.25778332E+02   # alpha_em^-1(M_Z)^MSbar
         2     1.16570000E-05   # G_F [GeV^-2]
         3     1.17200002E-01   # alpha_S(M_Z)^MSbar
         4     9.11876000E+01   # M_Z pole mass
         5     4.25000000E+00   # mb(mb)^MSbar
         6     1.72500000E+02   # mt pole mass
         7     1.77682000E+00   # mtau pole mass
#
BLOCK MINPAR  # Input parameters - minimal models
         3     1.00000000E+01   # tanb                
#
BLOCK EXTPAR  # Input parameters - non-minimal models
         0    -1.00000000E+00   # Set                 
         1     6.00000000E+01   # M_1(MX)             
         2     3.00000000E+03   # M_2(MX)             
         3     1.21156600E+03   # M_3(MX)             
        11     5.00000000E+03   # At(MX)              
        12     5.00000000E+03   # Ab(MX)              
        13     0.00000000E+00   # Atau(MX)            
        23    -1.25143700E+03   # mu(MX)              
        26     3.00000000E+03   # mA(pole)            
        31     5.00000000E+03   # meL(MX)             
        32     5.00000000E+03   # mmuL(MX)            
        33     5.00000000E+03   # mtauL(MX)           
        34     5.00000000E+03   # meR(MX)             
        35     5.00000000E+03   # mmuR(MX)            
        36     5.00000000E+03   # mtauR(MX)           
        41     5.00000000E+03   # mqL1(MX)            
        42     5.00000000E+03   # mqL2(MX)            
        43     5.00000000E+03   # mqL3(MX)            
        44     5.00000000E+03   # muR(MX)             
        45     5.00000000E+03   # mcR(MX)             
        46     5.00000000E+03   # mtR(MX)             
        47     5.00000000E+03   # mdR(MX)             
        48     5.00000000E+03   # msR(MX)             
        49     5.00000000E+03   # mbR(MX)             
#
BLOCK MASS  # Mass Spectrum
# PDG code           mass       particle
        24     8.00950058E+01   # W+
        25     1.24621448E+02   # h
        35     3.00008144E+03   # H
        36     2.99999988E+03   # A
        37     3.00086913E+03   # H+
         5     4.87878001E+00   # b-quark pole mass calculated from mb(mb)_Msbar
   1000001     5.06666453E+03   # ~d_L
   2000001     5.04885795E+03   # ~d_R
   1000002     5.06618896E+03   # ~u_L
   2000002     5.04857862E+03   # ~u_R
   1000003     5.06666453E+03   # ~s_L
   2000003     5.04885795E+03   # ~s_R
   1000004     5.06618896E+03   # ~c_L
   2000004     5.04857862E+03   # ~c_R
   1000005     5.01272394E+03   # ~b_1
   2000005     5.04760112E+03   # ~b_2
   1000006     4.90344288E+03   # ~t_1
   2000006     5.05892017E+03   # ~t_2
   1000011     5.01905837E+03   # ~e_L
   2000011     5.00591554E+03   # ~e_R
   1000012     5.01810994E+03   # ~nu_eL
   1000013     5.01905837E+03   # ~mu_L
   2000013     5.00591554E+03   # ~mu_R
   1000014     5.01810994E+03   # ~nu_muL
   1000015     5.00447624E+03   # ~tau_1
   2000015     5.01889838E+03   # ~tau_2
   1000016     5.01756777E+03   # ~nu_tauL
   1000021     1.50000090E+03   # ~g
   1000022     6.03028328E+01   # ~chi_10
   1000023     1.29950235E+03   # ~chi_20
   1000025    -1.30184381E+03   # ~chi_30
   1000035     3.07430835E+03   # ~chi_40
   1000024     1.30000007E+03   # ~chi_1+
   1000037     3.07447582E+03   # ~chi_2+
#
BLOCK NMIX  # Neutralino Mixing Matrix
  1  1     9.99410333E-01   # N_11
  1  2     1.55318777E-04   # N_12
  1  3    -3.42780377E-02   # N_13
  1  4     1.99454432E-03   # N_14
  2  1     2.28304722E-02   # N_21
  2  2     2.74315543E-02   # N_22
  2  3     7.06875099E-01   # N_23
  2  4     7.06437453E-01   # N_24
  3  1    -2.56432145E-02   # N_31
  3  2     1.38798561E-02   # N_32
  3  3    -7.06442317E-01   # N_33
  3  4     7.07169731E-01   # N_34
  4  1    -4.25779666E-04   # N_41
  4  2     9.99527306E-01   # N_42
  4  3    -9.58457153E-03   # N_43
  4  4    -2.92082078E-02   # N_44
#
BLOCK UMIX  # Chargino Mixing Matrix U
  1  1     1.35689714E-02   # U_11
  1  2     9.99907937E-01   # U_12
  2  1    -9.99907937E-01   # U_21
  2  2     1.35689714E-02   # U_22
#
BLOCK VMIX  # Chargino Mixing Matrix V
  1  1     4.13335005E-02   # V_11
  1  2    -9.99145406E-01   # V_12
  2  1    -9.99145406E-01   # V_21
  2  2    -4.13335005E-02   # V_22
#
BLOCK STOPMIX  # Stop Mixing Matrix
  1  1    -5.10924619E-01   # cos(theta_t)
  1  2     8.59625519E-01   # sin(theta_t)
  2  1    -8.59625519E-01   # -sin(theta_t)
  2  2    -5.10924619E-01   # cos(theta_t)
#
BLOCK SBOTMIX  # Sbottom Mixing Matrix
  1  1     9.95632374E-01   # cos(theta_b)
  1  2    -9.33604619E-02   # sin(theta_b)
  2  1     9.33604619E-02   # -sin(theta_b)
  2  2     9.95632374E-01   # cos(theta_b)
#
BLOCK STAUMIX  # Stau Mixing Matrix
  1  1    -1.46894760E-01   # cos(theta_tau)
  1  2     9.89152127E-01   # sin(theta_tau)
  2  1    -9.89152127E-01   # -sin(theta_tau)
  2  2    -1.46894760E-01   # cos(theta_tau)
#
BLOCK ALPHA  # Higgs mixing
          -1.05450685E-01   # Mixing angle in the neutral Higgs boson sector
#
BLOCK HMIX Q=  5.00072286E+03  # DRbar Higgs Parameters
         1    -1.27413123E+03   # mu(Q)MSSM           
         2     9.47167512E+00   # tan                 
         3     2.41937466E+02   # higgs               
         4     8.43808657E+06   # mA^2(Q)MSSM         
#
BLOCK GAUGE Q=  5.00072286E+03  # The gauge couplings
     1     3.70745732E-01   # gprime(Q) DRbar
     2     6.32281577E-01   # g(Q) DRbar
     3     1.00270582E+00   # g3(Q) DRbar
#
BLOCK AU Q=  5.00072286E+03  # The trilinear couplings
  1  1     5.00000001E+03   # A_u(Q) DRbar
  2  2     5.00000001E+03   # A_c(Q) DRbar
  3  3     5.00000001E+03   # A_t(Q) DRbar
#
BLOCK AD Q=  5.00072286E+03  # The trilinear couplings
  1  1     5.00000000E+03   # A_d(Q) DRbar
  2  2     5.00000000E+03   # A_s(Q) DRbar
  3  3     5.00000001E+03   # A_b(Q) DRbar
#
BLOCK AE Q=  5.00072286E+03  # The trilinear couplings
  1  1     0.00000000E+00   # A_e(Q) DRbar
  2  2     9.78247991E-08   # A_mu(Q) DRbar
  3  3     9.71635333E-08   # A_tau(Q) DRbar
#
BLOCK Yu Q=  5.00072286E+03  # The Yukawa couplings
  1  1     0.00000000E+00   # y_u(Q) DRbar
  2  2     0.00000000E+00   # y_c(Q) DRbar
  3  3     8.17578839E-01   # y_t(Q) DRbar
#
BLOCK Yd Q=  5.00072286E+03  # The Yukawa couplings
  1  1     0.00000000E+00   # y_d(Q) DRbar
  2  2     0.00000000E+00   # y_s(Q) DRbar
  3  3     1.30416971E-01   # y_b(Q) DRbar
#
BLOCK Ye Q=  5.00072286E+03  # The Yukawa couplings
  1  1     0.00000000E+00   # y_e(Q) DRbar
  2  2     0.00000000E+00   # y_mu(Q) DRbar
  3  3     9.67207123E-02   # y_tau(Q) DRbar
#
BLOCK MSOFT Q=  5.00072286E+03  # The soft SUSY breaking masses at the scale Q
         1     6.00000000E+01   # M_1(Q)              
         2     3.00000000E+03   # M_2(Q)              
         3     1.21156600E+03   # M_3(Q)              
        21     7.05650437E+06   # mH1^2(Q)            
        22    -1.07028955E+06   # mH2^2(Q)            
        31     5.00000000E+03   # meL(Q)              
        32     5.00000000E+03   # mmuL(Q)             
        33     5.00000000E+03   # mtauL(Q)            
        34     5.00000000E+03   # meR(Q)              
        35     5.00000000E+03   # mmuR(Q)             
        36     5.00000000E+03   # mtauR(Q)            
        41     5.00000000E+03   # mqL1(Q)             
        42     5.00000000E+03   # mqL2(Q)             
        43     5.00000000E+03   # mqL3(Q)             
        44     5.00000000E+03   # muR(Q)              
        45     5.00000000E+03   # mcR(Q)              
        46     5.00000000E+03   # mtR(Q)              
        47     5.00000000E+03   # mdR(Q)              
        48     5.00000000E+03   # msR(Q)              
        49     5.00000000E+03   # mbR(Q)              
#
#
#
#                             =================
#                             |The decay table|
#                             =================
#
# - The QCD corrections to the decays gluino -> squark  + quark
#                                     squark -> gaugino + quark_prime
#                                     squark -> squark_prime + Higgs
#                                     squark -> gluino  + quark
#   are included.
#
# - The multi-body decays for the inos, stops and sbottoms are included.
#
# - The loop induced decays for the gluino, neutralinos and stops
#   are included.
#
# - The SUSY decays of the top quark are included.
#
#
#         PDG            Width
DECAY         6     1.40096448E+00   # top decays
#          BR         NDA      ID1       ID2
     1.00000000E+00    2           5        24   # BR(t ->  b    W+)
#
#         PDG            Width
DECAY   1000021     6.88799512E-05   # gluino decays
#          BR         NDA      ID1       ID2
     1.17188692E-05    2     1000022        21   # BR(~g -> ~chi_10 g)
     1.50950556E-03    2     1000023        21   # BR(~g -> ~chi_20 g)
     1.45796560E-03    2     1000025        21   # BR(~g -> ~chi_30 g)
#           BR         NDA      ID1       ID2       ID3
     7.77803411E-02    3     1000022         1        -1   # BR(~g -> ~chi_10 d  db)
     1.67004774E-07    3     1000023         1        -1   # BR(~g -> ~chi_20 d  db)
     3.99613642E-08    3     1000025         1        -1   # BR(~g -> ~chi_30 d  db)
     2.65166908E-01    3     1000022         2        -2   # BR(~g -> ~chi_10 u  ub)
     3.68121536E-07    3     1000023         2        -2   # BR(~g -> ~chi_20 u  ub)
     4.23949382E-08    3     1000025         2        -2   # BR(~g -> ~chi_30 u  ub)
     7.77803411E-02    3     1000022         3        -3   # BR(~g -> ~chi_10 s  sb)
     1.67004774E-07    3     1000023         3        -3   # BR(~g -> ~chi_20 s  sb)
     3.99613642E-08    3     1000025         3        -3   # BR(~g -> ~chi_30 s  sb)
     2.65166908E-01    3     1000022         4        -4   # BR(~g -> ~chi_10 c  cb)
     3.68121536E-07    3     1000023         4        -4   # BR(~g -> ~chi_20 c  cb)
     4.23949382E-08    3     1000025         4        -4   # BR(~g -> ~chi_30 c  cb)
     7.87729797E-02    3     1000022         5        -5   # BR(~g -> ~chi_10 b  bb)
     2.43638417E-05    3     1000023         5        -5   # BR(~g -> ~chi_20 b  bb)
     2.25292823E-05    3     1000025         5        -5   # BR(~g -> ~chi_30 b  bb)
     2.32294477E-01    3     1000022         6        -6   # BR(~g -> ~chi_10 t  tb)
     4.44031390E-07    3     1000024         1        -2   # BR(~g -> ~chi_1+ d  ub)
     4.44031390E-07    3    -1000024         2        -1   # BR(~g -> ~chi_1- u  db)
     4.44031390E-07    3     1000024         3        -4   # BR(~g -> ~chi_1+ s  cb)
     4.44031390E-07    3    -1000024         4        -3   # BR(~g -> ~chi_1- c  sb)
     4.47523276E-06    3     1000024         5        -6   # BR(~g -> ~chi_1+ b  tb)
     4.47523276E-06    3    -1000024         6        -5   # BR(~g -> ~chi_1- t  bb)
#
#         PDG            Width
DECAY   1000006     3.76106918E+02   # stop1 decays
#          BR         NDA      ID1       ID2
     2.33937498E-02    2     1000022         6   # BR(~t_1 -> ~chi_10 t )
     7.57972015E-02    2     1000023         6   # BR(~t_1 -> ~chi_20 t )
     7.28615803E-02    2     1000025         6   # BR(~t_1 -> ~chi_30 t )
     5.68847595E-03    2     1000035         6   # BR(~t_1 -> ~chi_40 t )
     1.09250532E-01    2     1000024         5   # BR(~t_1 -> ~chi_1+ b )
     1.13239292E-02    2     1000037         5   # BR(~t_1 -> ~chi_2+ b )
     7.01684531E-01    2     1000021         6   # BR(~t_1 -> ~g      t )
#
#         PDG            Width
DECAY   2000006     3.82465692E+02   # stop2 decays
#          BR         NDA      ID1       ID2
     9.31198321E-03    2     1000022         6   # BR(~t_2 -> ~chi_10 t )
     7.68162230E-02    2     1000023         6   # BR(~t_2 -> ~chi_20 t )
     7.99516464E-02    2     1000025         6   # BR(~t_2 -> ~chi_30 t )
     1.42771578E-02    2     1000035         6   # BR(~t_2 -> ~chi_40 t )
     4.68437635E-02    2     1000024         5   # BR(~t_2 -> ~chi_1+ b )
     2.83778347E-02    2     1000037         5   # BR(~t_2 -> ~chi_2+ b )
     7.41008031E-01    2     1000021         6   # BR(~t_2 -> ~g      t )
     7.58632884E-04    2     1000006        25   # BR(~t_2 -> ~t_1    h )
     2.65472776E-03    2     1000006        23   # BR(~t_2 -> ~t_1    Z )
#
#         PDG            Width
DECAY   1000005     3.59617229E+02   # sbottom1 decays
#          BR         NDA      ID1       ID2
     2.16496810E-03    2     1000022         5   # BR(~b_1 -> ~chi_10 b )
     2.11908847E-03    2     1000023         5   # BR(~b_1 -> ~chi_20 b )
     2.03002961E-03    2     1000025         5   # BR(~b_1 -> ~chi_30 b )
     2.08012014E-02    2     1000035         5   # BR(~b_1 -> ~chi_40 b )
     1.60850126E-01    2    -1000024         6   # BR(~b_1 -> ~chi_1- t )
     4.18329688E-02    2    -1000037         6   # BR(~b_1 -> ~chi_2- t )
     7.68629410E-01    2     1000021         5   # BR(~b_1 -> ~g      b )
     1.57220852E-03    2     1000006       -24   # BR(~b_1 -> ~t_1    W-)
#
#         PDG            Width
DECAY   2000005     2.85504350E+02   # sbottom2 decays
#          BR         NDA      ID1       ID2
     1.02784180E-02    2     1000022         5   # BR(~b_2 -> ~chi_10 b )
     2.60243929E-03    2     1000023         5   # BR(~b_2 -> ~chi_20 b )
     2.69752379E-03    2     1000025         5   # BR(~b_2 -> ~chi_30 b )
     2.41900657E-04    2     1000035         5   # BR(~b_2 -> ~chi_40 b )
     6.98065004E-03    2    -1000024         6   # BR(~b_2 -> ~chi_1- t )
     4.86336770E-04    2    -1000037         6   # BR(~b_2 -> ~chi_2- t )
     9.76640514E-01    2     1000021         5   # BR(~b_2 -> ~g      b )
     7.22171019E-05    2     1000006       -24   # BR(~b_2 -> ~t_1    W-)
#
#         PDG            Width
DECAY   1000002     3.04423647E+02   # sup_L decays
#          BR         NDA      ID1       ID2
     2.45406972E-03    2     1000022         2   # BR(~u_L -> ~chi_10 u)
     5.70691150E-05    2     1000023         2   # BR(~u_L -> ~chi_20 u)
     4.40957870E-06    2     1000025         2   # BR(~u_L -> ~chi_30 u)
     2.56841258E-02    2     1000035         2   # BR(~u_L -> ~chi_40 u)
     1.91678982E-04    2     1000024         1   # BR(~u_L -> ~chi_1+ d)
     5.13310726E-02    2     1000037         1   # BR(~u_L -> ~chi_2+ d)
     9.20277574E-01    2     1000021         2   # BR(~u_L -> ~g      u)
#
#         PDG            Width
DECAY   2000002     2.90710342E+02   # sup_R decays
#          BR         NDA      ID1       ID2
     4.09083697E-02    2     1000022         2   # BR(~u_R -> ~chi_10 u)
     1.86336859E-05    2     1000023         2   # BR(~u_R -> ~chi_20 u)
     2.34958760E-05    2     1000025         2   # BR(~u_R -> ~chi_30 u)
     2.94923668E-09    2     1000035         2   # BR(~u_R -> ~chi_40 u)
     9.59049498E-01    2     1000021         2   # BR(~u_R -> ~g      u)
#
#         PDG            Width
DECAY   1000001     3.04435851E+02   # sdown_L decays
#          BR         NDA      ID1       ID2
     2.44641001E-03    2     1000022         1   # BR(~d_L -> ~chi_10 d)
     2.96016246E-05    2     1000023         1   # BR(~d_L -> ~chi_20 d)
     2.00149124E-05    2     1000025         1   # BR(~d_L -> ~chi_30 d)
     2.56996494E-02    2     1000035         1   # BR(~d_L -> ~chi_40 d)
     2.06585079E-05    2    -1000024         2   # BR(~d_L -> ~chi_1- u)
     5.14233978E-02    2    -1000037         2   # BR(~d_L -> ~chi_2- u)
     9.20360268E-01    2     1000021         1   # BR(~d_L -> ~g      d)
#
#         PDG            Width
DECAY   2000001     2.81803357E+02   # sdown_R decays
#          BR         NDA      ID1       ID2
     1.05509287E-02    2     1000022         1   # BR(~d_R -> ~chi_10 d)
     4.80600282E-06    2     1000023         1   # BR(~d_R -> ~chi_20 d)
     6.06005993E-06    2     1000025         1   # BR(~d_R -> ~chi_30 d)
     7.60754015E-10    2     1000035         1   # BR(~d_R -> ~chi_40 d)
     9.89438204E-01    2     1000021         1   # BR(~d_R -> ~g      d)
#
#         PDG            Width
DECAY   1000004     3.04423647E+02   # scharm_L decays
#          BR         NDA      ID1       ID2
     2.45406972E-03    2     1000022         4   # BR(~c_L -> ~chi_10 c)
     5.70691150E-05    2     1000023         4   # BR(~c_L -> ~chi_20 c)
     4.40957870E-06    2     1000025         4   # BR(~c_L -> ~chi_30 c)
     2.56841258E-02    2     1000035         4   # BR(~c_L -> ~chi_40 c)
     1.91678982E-04    2     1000024         3   # BR(~c_L -> ~chi_1+ s)
     5.13310726E-02    2     1000037         3   # BR(~c_L -> ~chi_2+ s)
     9.20277574E-01    2     1000021         4   # BR(~c_L -> ~g      c)
#
#         PDG            Width
DECAY   2000004     2.90710342E+02   # scharm_R decays
#          BR         NDA      ID1       ID2
     4.09083697E-02    2     1000022         4   # BR(~c_R -> ~chi_10 c)
     1.86336859E-05    2     1000023         4   # BR(~c_R -> ~chi_20 c)
     2.34958760E-05    2     1000025         4   # BR(~c_R -> ~chi_30 c)
     2.94923668E-09    2     1000035         4   # BR(~c_R -> ~chi_40 c)
     9.59049498E-01    2     1000021         4   # BR(~c_R -> ~g      c)
#
#         PDG            Width
DECAY   1000003     3.04435851E+02   # sstrange_L decays
#          BR         NDA      ID1       ID2
     2.44641001E-03    2     1000022         3   # BR(~s_L -> ~chi_10 s)
     2.96016246E-05    2     1000023         3   # BR(~s_L -> ~chi_20 s)
     2.00149124E-05    2     1000025         3   # BR(~s_L -> ~chi_30 s)
     2.56996494E-02    2     1000035         3   # BR(~s_L -> ~chi_40 s)
     2.06585079E-05    2    -1000024         4   # BR(~s_L -> ~chi_1- c)
     5.14233978E-02    2    -1000037         4   # BR(~s_L -> ~chi_2- c)
     9.20360268E-01    2     1000021         3   # BR(~s_L -> ~g      s)
#
#         PDG            Width
DECAY   2000003     2.81803357E+02   # sstrange_R decays
#          BR         NDA      ID1       ID2
     1.05509287E-02    2     1000022         3   # BR(~s_R -> ~chi_10 s)
     4.80600282E-06    2     1000023         3   # BR(~s_R -> ~chi_20 s)
     6.06005993E-06    2     1000025         3   # BR(~s_R -> ~chi_30 s)
     7.60754015E-10    2     1000035         3   # BR(~s_R -> ~chi_40 s)
     9.89438204E-01    2     1000021         3   # BR(~s_R -> ~g      s)
#
#         PDG            Width
DECAY   1000011     3.02506916E+01   # selectron_L decays
#          BR         NDA      ID1       ID2
     2.26637550E-01    2     1000022        11   # BR(~e_L -> ~chi_10 e-)
     9.56866025E-04    2     1000023        11   # BR(~e_L -> ~chi_20 e-)
     7.67514662E-07    2     1000025        11   # BR(~e_L -> ~chi_30 e-)
     2.57203876E-01    2     1000035        11   # BR(~e_L -> ~chi_40 e-)
     2.11452938E-04    2    -1000024        12   # BR(~e_L -> ~chi_1- nu_e)
     5.14989488E-01    2    -1000037        12   # BR(~e_L -> ~chi_2- nu_e)
#
#         PDG            Width
DECAY   2000011     2.73654880E+01   # selectron_R decays
#          BR         NDA      ID1       ID2
     9.98974491E-01    2     1000022        11   # BR(~e_R -> ~chi_10 e-)
     4.53548685E-04    2     1000023        11   # BR(~e_R -> ~chi_20 e-)
     5.71890192E-04    2     1000025        11   # BR(~e_R -> ~chi_30 e-)
     7.03579147E-08    2     1000035        11   # BR(~e_R -> ~chi_40 e-)
#
#         PDG            Width
DECAY   1000013     3.02506916E+01   # smuon_L decays
#          BR         NDA      ID1       ID2
     2.26637550E-01    2     1000022        13   # BR(~mu_L -> ~chi_10 mu-)
     9.56866025E-04    2     1000023        13   # BR(~mu_L -> ~chi_20 mu-)
     7.67514662E-07    2     1000025        13   # BR(~mu_L -> ~chi_30 mu-)
     2.57203876E-01    2     1000035        13   # BR(~mu_L -> ~chi_40 mu-)
     2.11452938E-04    2    -1000024        14   # BR(~mu_L -> ~chi_1- nu_mu)
     5.14989488E-01    2    -1000037        14   # BR(~mu_L -> ~chi_2- nu_mu)
#
#         PDG            Width
DECAY   2000013     2.73654880E+01   # smuon_R decays
#          BR         NDA      ID1       ID2
     9.98974491E-01    2     1000022        13   # BR(~mu_R -> ~chi_10 mu-)
     4.53548685E-04    2     1000023        13   # BR(~mu_R -> ~chi_20 mu-)
     5.71890192E-04    2     1000025        13   # BR(~mu_R -> ~chi_30 mu-)
     7.03579147E-08    2     1000035        13   # BR(~mu_R -> ~chi_40 mu-)
#
#         PDG            Width
DECAY   1000015     2.90374920E+01   # stau_1 decays
#          BR         NDA      ID1       ID2
     9.26854250E-01    2     1000022        15   # BR(~tau_1 -> ~chi_10  tau-)
     1.47499508E-02    2     1000023        15   # BR(~tau_1 -> ~chi_20  tau-)
     1.36766238E-02    2     1000025        15   # BR(~tau_1 -> ~chi_30  tau-)
     5.56586789E-03    2     1000035        15   # BR(~tau_1 -> ~chi_40  tau-)
     2.80091634E-02    2    -1000024        16   # BR(~tau_1 -> ~chi_1-  nu_tau)
     1.11441437E-02    2    -1000037        16   # BR(~tau_1 -> ~chi_2-  nu_tau)
#
#         PDG            Width
DECAY   2000015     3.09971734E+01   # stau_2 decays
#          BR         NDA      ID1       ID2
     2.34703582E-01    2     1000022        15   # BR(~tau_2 -> ~chi_10  tau-)
     1.36790057E-02    2     1000023        15   # BR(~tau_2 -> ~chi_20  tau-)
     1.38148100E-02    2     1000025        15   # BR(~tau_2 -> ~chi_30  tau-)
     2.45718493E-01    2     1000035        15   # BR(~tau_2 -> ~chi_40  tau-)
     9.17283971E-05    2    -1000024        16   # BR(~tau_2 -> ~chi_1-  nu_tau)
     4.91992381E-01    2    -1000037        16   # BR(~tau_2 -> ~chi_2-  nu_tau)
#
#         PDG            Width
DECAY   1000012     3.02530669E+01   # snu_eL decays
#          BR         NDA      ID1       ID2
     2.26336825E-01    2     1000022        12   # BR(~nu_eL -> ~chi_10 nu_e)
     1.13245007E-04    2     1000023        12   # BR(~nu_eL -> ~chi_20 nu_e)
     4.79789585E-04    2     1000025        12   # BR(~nu_eL -> ~chi_30 nu_e)
     2.57275273E-01    2     1000035        12   # BR(~nu_eL -> ~chi_40 nu_e)
     1.96148258E-03    2     1000024        11   # BR(~nu_eL -> ~chi_1+ e-)
     5.13833385E-01    2     1000037        11   # BR(~nu_eL -> ~chi_2+ e-)
#
#         PDG            Width
DECAY   1000014     3.02530669E+01   # snu_muL decays
#          BR         NDA      ID1       ID2
     2.26336825E-01    2     1000022        14   # BR(~nu_muL -> ~chi_10 nu_mu)
     1.13245007E-04    2     1000023        14   # BR(~nu_muL -> ~chi_20 nu_mu)
     4.79789585E-04    2     1000025        14   # BR(~nu_muL -> ~chi_30 nu_mu)
     2.57275273E-01    2     1000035        14   # BR(~nu_muL -> ~chi_40 nu_mu)
     1.96148258E-03    2     1000024        13   # BR(~nu_muL -> ~chi_1+ mu-)
     5.13833385E-01    2     1000037        13   # BR(~nu_muL -> ~chi_2+ mu-)
#
#         PDG            Width
DECAY   1000016     3.10563423E+01   # snu_tauL decays
#          BR         NDA      ID1       ID2
     2.20458765E-01    2     1000022        16   # BR(~nu_tauL -> ~chi_10 nu_tau)
     1.10300568E-04    2     1000023        16   # BR(~nu_tauL -> ~chi_20 nu_tau)
     4.67314707E-04    2     1000025        16   # BR(~nu_tauL -> ~chi_30 nu_tau)
     2.50528667E-01    2     1000035        16   # BR(~nu_tauL -> ~chi_40 nu_tau)
     2.80756031E-02    2     1000024        15   # BR(~nu_tauL -> ~chi_1+ tau-)
     5.00359350E-01    2     1000037        15   # BR(~nu_tauL -> ~chi_2+ tau-)
#
#         PDG            Width
DECAY   1000024     7.97433096E-01   # chargino1+ decays
#          BR         NDA      ID1       ID2
     1.00000000E+00    2     1000022        24   # BR(~chi_1+ -> ~chi_10  W+)
#
#         PDG            Width
DECAY   1000037     1.92812926E+01   # chargino2+ decays
#          BR         NDA      ID1       ID2
     2.52924299E-01    2     1000024        23   # BR(~chi_2+ -> ~chi_1+  Z )
     2.27540930E-04    2     1000022        24   # BR(~chi_2+ -> ~chi_10  W+)
     2.43978194E-01    2     1000023        24   # BR(~chi_2+ -> ~chi_20  W+)
     2.43890358E-01    2     1000025        24   # BR(~chi_2+ -> ~chi_30  W+)
     2.58979016E-01    2     1000024        25   # BR(~chi_2+ -> ~chi_1+  h )
     5.92103776E-07    2     1000022        37   # BR(~chi_2+ -> ~chi_10  H+)
#
#         PDG            Width
DECAY   1000022     0.00000000E+00   # neutralino1 decays
#
#         PDG            Width
DECAY   1000023     8.36577454E-01   # neutralino2 decays
#          BR         NDA      ID1       ID2
     5.51255354E-01    2     1000022        23   # BR(~chi_20 -> ~chi_10   Z )
     4.48744646E-01    2     1000022        25   # BR(~chi_20 -> ~chi_10   h )
#
#         PDG            Width
DECAY   1000025     8.43674716E-01   # neutralino3 decays
#          BR         NDA      ID1       ID2
     4.33609979E-01    2     1000022        23   # BR(~chi_30 -> ~chi_10   Z )
     5.66390021E-01    2     1000022        25   # BR(~chi_30 -> ~chi_10   h )
#
#         PDG            Width
DECAY   1000035     1.92900870E+01   # neutralino4 decays
#          BR         NDA      ID1       ID2
     7.23399909E-05    2     1000022        23   # BR(~chi_40 -> ~chi_10   Z )
     5.16761477E-02    2     1000023        23   # BR(~chi_40 -> ~chi_20   Z )
     2.00575891E-01    2     1000025        23   # BR(~chi_40 -> ~chi_30   Z )
     2.44533952E-01    2     1000024       -24   # BR(~chi_40 -> ~chi_1+   W-)
     2.44533952E-01    2    -1000024        24   # BR(~chi_40 -> ~chi_1-   W+)
     1.59105586E-04    2     1000022        25   # BR(~chi_40 -> ~chi_10   h )
     5.39882046E-07    2     1000022        35   # BR(~chi_40 -> ~chi_10   H )
     7.33210813E-08    2     1000022        36   # BR(~chi_40 -> ~chi_10   A )
     2.06717578E-01    2     1000023        25   # BR(~chi_40 -> ~chi_20   h )
     5.17304209E-02    2     1000025        25   # BR(~chi_40 -> ~chi_30   h )
#
#         PDG            Width
DECAY        25     4.04005609E-03   # h decays
#          BR         NDA      ID1       ID2
     6.10800597E-01    2           5        -5   # BR(h -> b       bb     )
     6.41180764E-02    2         -15        15   # BR(h -> tau+    tau-   )
     2.27001975E-04    2         -13        13   # BR(h -> mu+     mu-    )
     4.81345403E-04    2           3        -3   # BR(h -> s       sb     )
     2.08587805E-02    2           4        -4   # BR(h -> c       cb     )
     6.72972574E-02    2          21        21   # BR(h -> g       g      )
     2.31044938E-03    2          22        22   # BR(h -> gam     gam    )
     1.47687240E-03    2          22        23   # BR(h -> Z       gam    )
     2.07704520E-01    2          24       -24   # BR(h -> W+      W-     )
     2.46867858E-02    2          23        23   # BR(h -> Z       Z      )
     3.83138640E-05    2     1000022   1000022   # BR(h -> ~chi_10 ~chi_10)
#
#         PDG            Width
DECAY        35     7.62088402E+00   # H decays
#          BR         NDA      ID1       ID2
     4.26154077E-01    2           5        -5   # BR(H -> b       bb     )
     7.31315995E-02    2         -15        15   # BR(H -> tau+    tau-   )
     2.58599145E-04    2         -13        13   # BR(H -> mu+     mu-    )
     3.17002960E-04    2           3        -3   # BR(H -> s       sb     )
     1.77174086E-06    2           4        -4   # BR(H -> c       cb     )
     1.77010943E-01    2           6        -6   # BR(H -> t       tb     )
     5.87730226E-05    2          21        21   # BR(H -> g       g      )
     3.62510562E-07    2          22        22   # BR(H -> gam     gam    )
     1.04489305E-07    2          23        22   # BR(H -> Z       gam    )
     7.96815052E-05    2          24       -24   # BR(H -> W+      W-     )
     3.97903235E-05    2          23        23   # BR(H -> Z       Z      )
     3.00229812E-04    2          25        25   # BR(H -> h       h      )
     5.20759101E-23    2          36        36   # BR(H -> A       A      )
     9.20010426E-19    2          23        36   # BR(H -> Z       A      )
     7.44178132E-04    2     1000024  -1000024   # BR(H -> ~chi_1+ ~chi_1-)
     1.12144931E-03    2     1000022   1000022   # BR(H -> ~chi_10 ~chi_10)
     5.61844122E-05    2     1000023   1000023   # BR(H -> ~chi_20 ~chi_20)
     1.24155778E-04    2     1000025   1000025   # BR(H -> ~chi_30 ~chi_30)
     1.91324214E-01    2     1000022   1000023   # BR(H -> ~chi_10 ~chi_20)
     1.29153843E-01    2     1000022   1000025   # BR(H -> ~chi_10 ~chi_30)
     1.23040064E-04    2     1000023   1000025   # BR(H -> ~chi_20 ~chi_30)
#
#         PDG            Width
DECAY        36     7.64193974E+00   # A decays
#          BR         NDA      ID1       ID2
     4.25123191E-01    2           5        -5   # BR(A -> b       bb     )
     7.29322670E-02    2         -15        15   # BR(A -> tau+    tau-   )
     2.57893929E-04    2         -13        13   # BR(A -> mu+     mu-    )
     3.16369410E-04    2           3        -3   # BR(A -> s       sb     )
     1.77419735E-06    2           4        -4   # BR(A -> c       cb     )
     1.77158567E-01    2           6        -6   # BR(A -> t       tb     )
     1.75343035E-04    2          21        21   # BR(A -> g       g      )
     4.87491135E-07    2          22        22   # BR(A -> gam     gam    )
     2.12336377E-07    2          23        22   # BR(A -> Z       gam    )
     7.91626581E-05    2          23        25   # BR(A -> Z       h      )
     2.59488699E-03    2     1000024  -1000024   # BR(A -> ~chi_1+ ~chi_1-)
     1.14810526E-03    2     1000022   1000022   # BR(A -> ~chi_10 ~chi_10)
     1.46936126E-04    2     1000023   1000023   # BR(A -> ~chi_20 ~chi_20)
     7.67267237E-04    2     1000025   1000025   # BR(A -> ~chi_30 ~chi_30)
     1.30400445E-01    2     1000022   1000023   # BR(A -> ~chi_10 ~chi_20)
     1.88890116E-01    2     1000022   1000025   # BR(A -> ~chi_10 ~chi_30)
     6.97584566E-06    2     1000023   1000025   # BR(A -> ~chi_20 ~chi_30)
#
#         PDG            Width
DECAY        37     7.60494407E+00   # H+ decays
#          BR         NDA      ID1       ID2
     6.83909173E-04    2           4        -5   # BR(H+ -> c       bb     )
     7.33082945E-02    2         -15        16   # BR(H+ -> tau+    nu_tau )
     2.59223590E-04    2         -13        14   # BR(H+ -> mu+     nu_mu  )
     4.37699615E-06    2           2        -5   # BR(H+ -> u       bb     )
     1.52107030E-05    2           2        -3   # BR(H+ -> u       sb     )
     3.14556949E-04    2           4        -3   # BR(H+ -> c       sb     )
     6.01740172E-01    2           6        -5   # BR(H+ -> t       bb     )
     7.96680088E-05    2          24        25   # BR(H+ -> W+      h      )
     8.57667116E-14    2          24        36   # BR(H+ -> W+      A      )
     3.23171505E-01    2     1000024   1000022   # BR(H+ -> ~chi_1+ ~chi_10)
     3.56770452E-04    2     1000024   1000023   # BR(H+ -> ~chi_1+ ~chi_20)
     6.63122558E-05    2     1000024   1000025   # BR(H+ -> ~chi_1+ ~chi_30)
