#
#                              ======================
#                              | THE SUSYHIT OUTPUT |
#                              ======================
#
#
#              ------------------------------------------------------
#              |     This is the output of the SUSY-HIT package     |
#              |  created by A.Djouadi, M.Muehlleitner and M.Spira. |
#              |  In case of problems with SUSY-HIT email to        |
#              |           margarete.muehlleitner@cern.ch           |
#              |           michael.spira@psi.ch                     |
#              |           abdelhak.djouadi@cern.ch                 |
#              ------------------------------------------------------
#
#              ------------------------------------------------------
#              |  SUSY Les Houches Accord - MSSM Spectrum + Decays  |
#              |              based on the decay programs           |
#              |                                                    |
#              |                     SDECAY 1.3b                    |
#              |                                                    |
#              |  Authors: M.Muhlleitner, A.Djouadi and Y.Mambrini  |
#              |  Ref.:    Comput.Phys.Commun.168(2005)46           |
#              |           [hep-ph/0311167]                         |
#              |                                                    |
#              |                     HDECAY 3.4                     |
#              |                                                    |
#              |  By: A.Djouadi,J.Kalinowski,M.Muhlleitner,M.Spira  |
#              |  Ref.:    Comput.Phys.Commun.108(1998)56           |
#              |           [hep-ph/9704448]                         |
#              |                                                    |
#              |                                                    |
#              |  If not stated otherwise all DRbar couplings and   |
#              |  soft SUSY breaking masses are given at the scale  |
#              |  Q=  0.91187600E+02
#              |                                                    |
#              ------------------------------------------------------
#
#
BLOCK DCINFO  # Decay Program information
     1   SDECAY/HDECAY # decay calculator
     2   1.3b  /3.4    # version number
#
BLOCK SPINFO  # Spectrum calculator information
     1   SuSpect     # RGE +Spectrum calculator            
     2   2.41         # version number                     
#
BLOCK MODSEL  # Model selection
     1     0   # #general MSSM low scale                           
#
BLOCK SMINPUTS  # Standard Model inputs
         1     1.27934000E+02   # alpha_em^-1(M_Z)^MSbar
         2     1.16639000E-05   # G_F [GeV^-2]
         3     1.17200000E-01   # alpha_S(M_Z)^MSbar
         4     9.11870000E+01   # M_Z pole mass
         5     4.25000000E+00   # mb(mb)^MSbar
         6     1.72500000E+02   # mt pole mass
         7     1.77700000E+00   # mtau pole mass
#
BLOCK MINPAR  # Input parameters - minimal models
#
BLOCK EXTPAR  # Input parameters - non-minimal models
         0     9.11876000E+01   # EWSB                
         1     1.00000000E+01   # M_1                 
         2     1.00000000E+05   # M_2                 
         3     1.00000000E+05   # M_3                 
        11     0.00000000E+00   # A_t                 
        12     0.00000000E+00   # A_b                 
        13     0.00000000E+00   # A_tau               
        14     0.00000000E+00   # A_u                 
        15     0.00000000E+00   # A_d                 
        16     0.00000000E+00   # A_e                 
        23     3.50000000E+03   # mu(EWSB)            
        25     1.50000000E+00   # tanbeta(in)         
        26     2.00000000E+03   # MA_pole             
        31     1.00000000E+05   # M_eL                
        32     1.00000000E+05   # M_muL               
        33     1.00000000E+05   # M_tauL              
        34     1.00000000E+05   # M_eR                
        35     1.00000000E+05   # M_muR               
        36     1.00000000E+05   # M_tauR              
        41     2.10000000E+03   # M_q1L               
        42     2.10000000E+03   # M_q2L               
        43     2.10000000E+03   # M_q3L               
        44     1.00000000E+05   # M_uR                
        45     1.00000000E+05   # M_cR                
        46     1.00000000E+05   # M_tR                
        47     2.10000000E+03   # M_dR                
        48     2.10000000E+03   # M_sR                
        49     2.10000000E+03   # M_bR                
#
BLOCK MASS  # Mass Spectrum
# PDG code           mass       particle
        24     8.05849472E+01   # W+
        25     1.25000000E+02   # h
        35     2.00406384E+03   # H
        36     2.00000000E+03   # A
        37     2.02368878E+03   # H+
         5     4.87877839E+00   # b-quark pole mass calculated from mb(mb)_Msbar
   1000001     2.10031557E+03   # ~d_L
   2000001     2.10006091E+03   # ~d_R
   1000002     2.09974531E+03   # ~u_L
   2000002     9.99999974E+04   # ~u_R
   1000003     2.10031557E+03   # ~s_L
   2000003     2.10006091E+03   # ~s_R
   1000004     2.09974531E+03   # ~c_L
   2000004     9.99999974E+04   # ~c_R
   1000005     2.09695083E+03   # ~b_1
   2000005     2.10342386E+03   # ~b_2
   1000006     2.10491679E+03   # ~t_1
   2000006     1.00000106E+05   # ~t_2
   1000011     1.00000004E+05   # ~e_L
   2000011     1.00000004E+05   # ~e_R
   1000012     9.99999921E+04   # ~nu_eL
   1000013     1.00000004E+05   # ~mu_L
   2000013     1.00000004E+05   # ~mu_R
   1000014     9.99999921E+04   # ~nu_muL
   1000015     9.99999574E+04   # ~tau_1
   2000015     1.00000051E+05   # ~tau_2
   1000016     9.99999921E+04   # ~nu_tauL
   1000021     1.00000000E+05   # ~g
   1000022     9.47216311E+00   # ~chi_10
   1000023    -3.50002418E+03   # ~chi_20
   1000025     3.50048765E+03   # ~chi_30
   1000035     1.00000064E+05   # ~chi_40
   1000024     3.49994026E+03   # ~chi_1+
   1000037     1.00000064E+05   # ~chi_2+
   1000039     1.00000000E-09   # ~gravitino
#
BLOCK NMIX  # Neutralino Mixing Matrix
  1  1     9.99918150E-01   # N_11
  1  2    -9.32465940E-06   # N_12
  1  3     1.06380811E-02   # N_13
  1  4    -7.10801891E-03   # N_14
  2  1     2.49610742E-03   # N_21
  2  2    -1.49541102E-04   # N_22
  2  3    -7.07092357E-01   # N_23
  2  4    -7.07116784E-01   # N_24
  3  1     1.25483935E-02   # N_31
  3  2     8.01819781E-04   # N_32
  3  3    -7.07041030E-01   # N_33
  3  4     7.07060731E-01   # N_34
  4  1     3.64384596E-07   # N_41
  4  2    -9.99999667E-01   # N_42
  4  3    -4.61279463E-04   # N_43
  4  4     6.72744806E-04   # N_44
#
BLOCK UMIX  # Chargino Mixing Matrix U
  1  1    -6.52347468E-04   # U_11
  1  2     9.99999787E-01   # U_12
  2  1     9.99999787E-01   # U_21
  2  2     6.52347468E-04   # U_22
#
BLOCK VMIX  # Chargino Mixing Matrix V
  1  1    -9.51404742E-04   # V_11
  1  2     9.99999547E-01   # V_12
  2  1     9.99999547E-01   # V_21
  2  2     9.51404742E-04   # V_22
#
BLOCK STOPMIX  # Stop Mixing Matrix
  1  1     9.99999999E-01   # cos(theta_t)
  1  2     4.47213589E-05   # sin(theta_t)
  2  1    -4.47213589E-05   # -sin(theta_t)
  2  2     9.99999999E-01   # cos(theta_t)
#
BLOCK SBOTMIX  # Sbottom Mixing Matrix
  1  1     6.93058032E-01   # cos(theta_b)
  1  2     7.20881796E-01   # sin(theta_b)
  2  1    -7.20881796E-01   # -sin(theta_b)
  2  2     6.93058032E-01   # cos(theta_b)
#
BLOCK STAUMIX  # Stau Mixing Matrix
  1  1     7.06226658E-01   # cos(theta_tau)
  1  2     7.07985810E-01   # sin(theta_tau)
  2  1    -7.07985810E-01   # -sin(theta_tau)
  2  2     7.06226658E-01   # cos(theta_tau)
#
BLOCK ALPHA  # Higgs mixing
          -5.90349466E-01   # Mixing angle in the neutral Higgs boson sector
#
BLOCK HMIX Q=  9.11876000E+01  # DRbar Higgs Parameters
         1     3.50000000E+03   # mu(Q)               
         2     1.49999982E+00   # tanbeta(Q)          
         3     2.54857974E+02   # vev(Q)              
         4    -6.80310852E+07   # MA^2(Q)             
#
BLOCK GAUGE Q=  9.11876000E+01  # The gauge couplings
     1     3.50554729E-01   # gprime(Q) DRbar
     2     6.19274900E-01   # g(Q) DRbar
     3     1.02169418E+00   # g3(Q) DRbar
#
BLOCK AU Q=  9.11876000E+01  # The trilinear couplings
  1  1     0.00000000E+00   # A_u(Q) DRbar
  2  2     0.00000000E+00   # A_c(Q) DRbar
  3  3     0.00000000E+00   # A_t(Q) DRbar
#
BLOCK AD Q=  9.11876000E+01  # The trilinear couplings
  1  1     0.00000000E+00   # A_d(Q) DRbar
  2  2     0.00000000E+00   # A_s(Q) DRbar
  3  3     0.00000000E+00   # A_b(Q) DRbar
#
BLOCK AE Q=  9.11876000E+01  # The trilinear couplings
  1  1     0.00000000E+00   # A_e(Q) DRbar
  2  2     0.00000000E+00   # A_mu(Q) DRbar
  3  3     0.00000000E+00   # A_tau(Q) DRbar
#
BLOCK Yu Q=  9.11876000E+01  # The Yukawa couplings
  1  1     0.00000000E+00   # y_u(Q) DRbar
  2  2     0.00000000E+00   # y_c(Q) DRbar
  3  3     9.83691132E-01   # y_t(Q) DRbar
#
BLOCK Yd Q=  9.11876000E+01  # The Yukawa couplings
  1  1     0.00000000E+00   # y_d(Q) DRbar
  2  2     0.00000000E+00   # y_s(Q) DRbar
  3  3     2.58838216E-02   # y_b(Q) DRbar
#
BLOCK Ye Q=  9.11876000E+01  # The Yukawa couplings
  1  1     0.00000000E+00   # y_e(Q) DRbar
  2  2     0.00000000E+00   # y_mu(Q) DRbar
  3  3     1.77413259E-02   # y_tau(Q) DRbar
#
BLOCK MSOFT Q=  9.11876000E+01  # The soft SUSY breaking masses at the scale Q
         1     1.00000000E+01   # M_1                 
         2     1.00000000E+05   # M_2                 
         3     1.00000000E+05   # M_3                 
        14     0.00000000E+00   # A_u                 
        15     0.00000000E+00   # A_d                 
        16     0.00000000E+00   # A_e                 
        21     6.29719476E+08   # M^2_Hd              
        22    -1.15157669E+09   # M^2_Hu              
        31     1.00000000E+05   # M_eL                
        32     1.00000000E+05   # M_muL               
        33     1.00000000E+05   # M_tauL              
        34     1.00000000E+05   # M_eR                
        35     1.00000000E+05   # M_muR               
        36     1.00000000E+05   # M_tauR              
        41     2.10000000E+03   # M_q1L               
        42     2.10000000E+03   # M_q2L               
        43     2.10000000E+03   # M_q3L               
        44     1.00000000E+05   # M_uR                
        45     1.00000000E+05   # M_cR                
        46     1.00000000E+05   # M_tR                
        47     2.10000000E+03   # M_dR                
        48     2.10000000E+03   # M_sR                
        49     2.10000000E+03   # M_bR                
#
#
#
#                             =================
#                             |The decay table|
#                             =================
#
# - The QCD corrections to the decays gluino -> squark  + quark
#                                     squark -> gaugino + quark_prime
#                                     squark -> squark_prime + Higgs
#                                     squark -> gluino  + quark
#   are included.
#
# - The multi-body decays for the inos, stops and sbottoms are included.
#
# - The loop induced decays for the gluino, neutralinos and stops
#   are included.
#
# - The SUSY decays of the top quark are included.
#
# - Possible decays of the NLSP in GMSB models are included.
#
#
#         PDG            Width
DECAY         6     1.32356181E+00   # top decays
#          BR         NDA      ID1       ID2
     1.00000000E+00    2           5        24   # BR(t ->  b    W+)
#
#         PDG            Width
DECAY   1000021     1.E-04   # gluino decays (OJ Mods)
#          BR         NDA      ID1       ID2
    -6.99081032E-04    2     1000001        -1   # BR(~g -> ~d_L  db)
    -6.99081032E-04    2    -1000001         1   # BR(~g -> ~d_L* d )
    -6.99081181E-04    2     2000001        -1   # BR(~g -> ~d_R  db)
    -6.99081181E-04    2    -2000001         1   # BR(~g -> ~d_R* d )
    -6.99081367E-04    2     1000002        -2   # BR(~g -> ~u_L  ub)
    -6.99081367E-04    2    -1000002         2   # BR(~g -> ~u_L* u )
    -1.89198393E-18    2     2000002        -2   # BR(~g -> ~u_R  ub)
    -1.89198393E-18    2    -2000002         2   # BR(~g -> ~u_R* u )
    -6.99081032E-04    2     1000003        -3   # BR(~g -> ~s_L  sb)
    -6.99081032E-04    2    -1000003         3   # BR(~g -> ~s_L* s )
    -6.99081181E-04    2     2000003        -3   # BR(~g -> ~s_R  sb)
    -6.99081181E-04    2    -2000003         3   # BR(~g -> ~s_R* s )
    -6.99081367E-04    2     1000004        -4   # BR(~g -> ~c_L  cb)
    -6.99081367E-04    2    -1000004         4   # BR(~g -> ~c_L* c )
    -1.89198393E-18    2     2000004        -4   # BR(~g -> ~c_R  cb)
    -1.89198393E-18    2    -2000004         4   # BR(~g -> ~c_R* c )
     2.57291765E-01    2     1000005        -5   # BR(~g -> ~b_1  bb)
     2.57291765E-01    2    -1000005         5   # BR(~g -> ~b_1* b )
     2.57415858E-01    2     2000005        -5   # BR(~g -> ~b_2  bb)
     2.57415858E-01    2    -2000005         5   # BR(~g -> ~b_2* b )
    -6.88060730E-04    2     1000006        -6   # BR(~g -> ~t_1  tb)
    -6.88060730E-04    2    -1000006         6   # BR(~g -> ~t_1* t )
    -1.96501492E-02    2     1000039        21   # BR(~g -> ~G g)
#
#         PDG            Width
DECAY   1000006     3.33831109E-01   # stop1 decays
#          BR         NDA      ID1       ID2
     1.00000000E+00    2     1000022         6   # BR(~t_1 -> ~chi_10 t )
#
#         PDG            Width
DECAY   2000006    -2.78691109E+05   # stop2 decays
#          BR         NDA      ID1       ID2
    -7.47946948E-04    2     1000022         6   # BR(~t_2 -> ~chi_10 t )
    -1.80227059E-03    2     1000023         6   # BR(~t_2 -> ~chi_20 t )
    -1.80207208E-03    2     1000025         6   # BR(~t_2 -> ~chi_30 t )
     1.00429164E+00    2     1000024         5   # BR(~t_2 -> ~chi_1+ b )
     4.85252396E-05    2     1000006        25   # BR(~t_2 -> ~t_1    h )
    -5.08382115E-05    2     1000006        35   # BR(~t_2 -> ~t_1    H )
    -5.07474385E-05    2     1000006        36   # BR(~t_2 -> ~t_1    A )
    -4.78128388E-05    2     1000005        37   # BR(~t_2 -> ~b_1    H+)
    -5.36802773E-05    2     2000005        37   # BR(~t_2 -> ~b_2    H+)
     3.44490177E-05    2     1000006        23   # BR(~t_2 -> ~t_1    Z )
     8.68247103E-05    2     1000005        24   # BR(~t_2 -> ~b_1    W+)
     9.39324387E-05    2     2000005        24   # BR(~t_2 -> ~b_2    W+)
#
#         PDG            Width
DECAY   1000005    -1.05222488E+02   # sbottom1 decays
#          BR         NDA      ID1       ID2
     1.00000000E+00    2     1000022         5   # BR(~b_1 -> ~chi_10 b )
#
#         PDG            Width
DECAY   2000005    -1.00440591E+02   # sbottom2 decays
#          BR         NDA      ID1       ID2
     1.00000000E+00    2     1000022         5   # BR(~b_2 -> ~chi_10 b )
#
#         PDG            Width
DECAY   1000002     3.35435811E-01   # sup_L decays
#          BR         NDA      ID1       ID2
     1.00000000E+00    2     1000022         2   # BR(~u_L -> ~chi_10 u)
#
#         PDG            Width
DECAY   2000002     2.08390660E+02   # sup_R decays
#          BR         NDA      ID1       ID2
     9.99836480E-01    2     1000022         2   # BR(~u_R -> ~chi_10 u)
     6.22399773E-06    2     1000023         2   # BR(~u_R -> ~chi_20 u)
     1.57296465E-04    2     1000025         2   # BR(~u_R -> ~chi_30 u)
#
#         PDG            Width
DECAY   1000001     3.35589162E-01   # sdown_L decays
#          BR         NDA      ID1       ID2
     1.00000000E+00    2     1000022         1   # BR(~d_L -> ~chi_10 d)
#
#         PDG            Width
DECAY   2000001     1.34206853E+00   # sdown_R decays
#          BR         NDA      ID1       ID2
     1.00000000E+00    2     1000022         1   # BR(~d_R -> ~chi_10 d)
#
#         PDG            Width
DECAY   1000004     3.35435811E-01   # scharm_L decays
#          BR         NDA      ID1       ID2
     1.00000000E+00    2     1000022         4   # BR(~c_L -> ~chi_10 c)
#
#         PDG            Width
DECAY   2000004     2.08390660E+02   # scharm_R decays
#          BR         NDA      ID1       ID2
     9.99836480E-01    2     1000022         4   # BR(~c_R -> ~chi_10 c)
     6.22399773E-06    2     1000023         4   # BR(~c_R -> ~chi_20 c)
     1.57296465E-04    2     1000025         4   # BR(~c_R -> ~chi_30 c)
#
#         PDG            Width
DECAY   1000003     3.35589162E-01   # sstrange_L decays
#          BR         NDA      ID1       ID2
     1.00000000E+00    2     1000022         3   # BR(~s_L -> ~chi_10 s)
#
#         PDG            Width
DECAY   2000003     1.34206853E+00   # sstrange_R decays
#          BR         NDA      ID1       ID2
     1.00000000E+00    2     1000022         3   # BR(~s_R -> ~chi_10 s)
#
#         PDG            Width
DECAY   1000011     1.22240247E+02   # selectron_L decays
#          BR         NDA      ID1       ID2
     9.99797843E-01    2     1000022        11   # BR(~e_L -> ~chi_10 e-)
     4.96930701E-06    2     1000023        11   # BR(~e_L -> ~chi_20 e-)
     1.94538439E-04    2     1000025        11   # BR(~e_L -> ~chi_30 e-)
     2.64957505E-06    2    -1000024        12   # BR(~e_L -> ~chi_1- nu_e)
#
#         PDG            Width
DECAY   2000011     4.88958090E+02   # selectron_R decays
#          BR         NDA      ID1       ID2
     9.99836708E-01    2     1000022        11   # BR(~e_R -> ~chi_10 e-)
     6.21529915E-06    2     1000023        11   # BR(~e_R -> ~chi_20 e-)
     1.57076592E-04    2     1000025        11   # BR(~e_R -> ~chi_30 e-)
#
#         PDG            Width
DECAY   1000013     1.22240247E+02   # smuon_L decays
#          BR         NDA      ID1       ID2
     9.99797843E-01    2     1000022        13   # BR(~mu_L -> ~chi_10 mu-)
     4.96930701E-06    2     1000023        13   # BR(~mu_L -> ~chi_20 mu-)
     1.94538439E-04    2     1000025        13   # BR(~mu_L -> ~chi_30 mu-)
     2.64957505E-06    2    -1000024        14   # BR(~mu_L -> ~chi_1- nu_mu)
#
#         PDG            Width
DECAY   2000013     4.88958090E+02   # smuon_R decays
#          BR         NDA      ID1       ID2
     9.99836708E-01    2     1000022        13   # BR(~mu_R -> ~chi_10 mu-)
     6.21529915E-06    2     1000023        13   # BR(~mu_R -> ~chi_20 mu-)
     1.57076592E-04    2     1000025        13   # BR(~mu_R -> ~chi_30 mu-)
#
#         PDG            Width
DECAY   1000015     1.18199344E+04   # stau_1 decays
#          BR         NDA      ID1       ID2
     2.58965888E-02    2     1000022        15   # BR(~tau_1 -> ~chi_10  tau-)
     2.51359458E-05    2     1000023        15   # BR(~tau_1 -> ~chi_20  tau-)
     2.48675743E-05    2     1000025        15   # BR(~tau_1 -> ~chi_30  tau-)
     2.77063831E-05    2    -1000024        16   # BR(~tau_1 -> ~chi_1-  nu_tau)
     9.74025701E-01    2     1000039        15   # BR(~tau_1 -> ~G       tau-)
#
#         PDG            Width
DECAY   2000015     3.06057784E+02   # stau_2 decays
#          BR         NDA      ID1       ID2
     9.96537123E-01    2     1000022        15   # BR(~tau_2 -> ~chi_10  tau-)
     1.08204075E-03    2     1000023        15   # BR(~tau_2 -> ~chi_20  tau-)
     1.40883896E-03    2     1000025        15   # BR(~tau_2 -> ~chi_30  tau-)
     9.71997205E-04    2    -1000024        16   # BR(~tau_2 -> ~chi_1-  nu_tau)
#
#         PDG            Width
DECAY   1000012     1.22240303E+02   # snu_eL decays
#          BR         NDA      ID1       ID2
     9.99863148E-01    2     1000022        12   # BR(~nu_eL -> ~chi_10 nu_e)
     7.60044533E-06    2     1000023        12   # BR(~nu_eL -> ~chi_20 nu_e)
     1.23615682E-04    2     1000025        12   # BR(~nu_eL -> ~chi_30 nu_e)
     5.63570997E-06    2     1000024        11   # BR(~nu_eL -> ~chi_1+ e-)
#
#         PDG            Width
DECAY   1000014     1.22240303E+02   # snu_muL decays
#          BR         NDA      ID1       ID2
     9.99863148E-01    2     1000022        14   # BR(~nu_muL -> ~chi_10 nu_mu)
     7.60044533E-06    2     1000023        14   # BR(~nu_muL -> ~chi_20 nu_mu)
     1.23615682E-04    2     1000025        14   # BR(~nu_muL -> ~chi_30 nu_mu)
     5.63570997E-06    2     1000024        13   # BR(~nu_muL -> ~chi_1+ mu-)
#
#         PDG            Width
DECAY   1000016     1.22864954E+02   # snu_tauL decays
#          BR         NDA      ID1       ID2
     9.94779799E-01    2     1000022        16   # BR(~nu_tauL -> ~chi_10 nu_tau)
     7.56180433E-06    2     1000023        16   # BR(~nu_tauL -> ~chi_20 nu_tau)
     1.22987214E-04    2     1000025        16   # BR(~nu_tauL -> ~chi_30 nu_tau)
     5.08965196E-03    2     1000024        15   # BR(~nu_tauL -> ~chi_1+ tau-)
#
#         PDG            Width
DECAY   1000024     3.49579341E+01   # chargino1+ decays
#          BR         NDA      ID1       ID2
     5.15382152E-07    2     1000002        -1   # BR(~chi_1+ -> ~u_L     db)
     2.42162270E-07    2    -1000001         2   # BR(~chi_1+ -> ~d_L*    u )
     5.15382152E-07    2     1000004        -3   # BR(~chi_1+ -> ~c_L     sb)
     2.42162270E-07    2    -1000003         4   # BR(~chi_1+ -> ~s_L*    c )
    -1.17773255E-01    2     1000006        -5   # BR(~chi_1+ -> ~t_1     bb)
     1.17399147E-01    2    -1000005         6   # BR(~chi_1+ -> ~b_1*    t )
     9.14492124E-01    2    -2000005         6   # BR(~chi_1+ -> ~b_2*    t )
     5.89627287E-02    2     1000022        24   # BR(~chi_1+ -> ~chi_10  W+)
     2.69074107E-02    2     1000022        37   # BR(~chi_1+ -> ~chi_10  H+)
     8.63030638E-06    2     1000039        24   # BR(~chi_1+ -> ~G       W+)
     1.69810063E-06    2     1000039        37   # BR(~chi_1+ -> ~G       H+)
#
#         PDG            Width
DECAY   1000037    -1.58790345E+05   # chargino2+ decays
#          BR         NDA      ID1       ID2
    -7.45034959E-03    2     1000002        -1   # BR(~chi_2+ -> ~u_L     db)
    -7.45035144E-03    2    -1000001         2   # BR(~chi_2+ -> ~d_L*    u )
    -7.45034959E-03    2     1000004        -3   # BR(~chi_2+ -> ~c_L     sb)
    -7.45035144E-03    2    -1000003         4   # BR(~chi_2+ -> ~s_L*    c )
     1.12689756E+00    2     1000006        -5   # BR(~chi_2+ -> ~t_1     bb)
    -1.65008863E-03    2    -1000005         6   # BR(~chi_2+ -> ~b_1*    t )
    -7.04600170E-03    2    -2000005         6   # BR(~chi_2+ -> ~b_2*    t )
    -5.35608926E-15    2     1000012       -11   # BR(~chi_2+ -> ~nu_eL   e+  )
    -5.35608926E-15    2     1000014       -13   # BR(~chi_2+ -> ~nu_muL  mu+ )
    -3.72986219E-15    2    -1000011        12   # BR(~chi_2+ -> ~e_L+    nu_e)
    -3.72986219E-15    2    -1000013        14   # BR(~chi_2+ -> ~mu_L+   nu_mu)
    -5.87187001E-15    2    -1000015        16   # BR(~chi_2+ -> ~tau_1+  nu_tau)
    -8.77692714E-17    2    -2000015        16   # BR(~chi_2+ -> ~tau_2+  nu_tau)
    -1.36337773E-03    2     1000024        23   # BR(~chi_2+ -> ~chi_1+  Z )
    -1.60149013E-07    2     1000022        24   # BR(~chi_2+ -> ~chi_10  W+)
    -1.32208274E-03    2     1000023        24   # BR(~chi_2+ -> ~chi_20  W+)
    -1.32190873E-03    2     1000025        24   # BR(~chi_2+ -> ~chi_30  W+)
    -1.37882601E-03    2     1000024        25   # BR(~chi_2+ -> ~chi_1+  h )
    -1.21034270E-03    2     1000024        35   # BR(~chi_2+ -> ~chi_1+  H )
    -1.21050650E-03    2     1000024        36   # BR(~chi_2+ -> ~chi_1+  A )
    -2.28944468E-07    2     1000022        37   # BR(~chi_2+ -> ~chi_10  H+)
    -1.21045868E-03    2     1000023        37   # BR(~chi_2+ -> ~chi_20  H+)
    -1.21028077E-03    2     1000025        37   # BR(~chi_2+ -> ~chi_30  H+)
    -7.81718703E-02    2     1000039        24   # BR(~chi_2+ -> ~G       W+)
    -2.23647382E-08    2     1000039        37   # BR(~chi_2+ -> ~G       H+)
#
#         PDG            Width
DECAY   1000022     1.E-08   # neutralino1 decays (OJ Mods)
#          BR         NDA      ID1       ID2
     1.00000000E+00    2     1000039        22   # BR(~chi_10 -> ~G        gam)
#
#         PDG            Width
DECAY   1000023     1.E-08   # neutralino2 decays (OJ Mods)
#          BR         NDA      ID1       ID2
     6.64684120E-02    2     1000022        23   # BR(~chi_20 -> ~chi_10   Z )
     2.59224535E-03    2     1000022        25   # BR(~chi_20 -> ~chi_10   h )
     2.99860009E-02    2     1000022        35   # BR(~chi_20 -> ~chi_10   H )
     1.22196607E-03    2     1000022        36   # BR(~chi_20 -> ~chi_10   A )
     3.92990424E-08    2     1000002        -2   # BR(~chi_20 -> ~u_L      ub)
     3.92990424E-08    2    -1000002         2   # BR(~chi_20 -> ~u_L*     u )
     1.46366539E-07    2     1000001        -1   # BR(~chi_20 -> ~d_L      db)
     1.46366539E-07    2    -1000001         1   # BR(~chi_20 -> ~d_L*     d )
     3.37369927E-07    2     2000001        -1   # BR(~chi_20 -> ~d_R      db)
     3.37369927E-07    2    -2000001         1   # BR(~chi_20 -> ~d_R*     d )
     3.92990424E-08    2     1000004        -4   # BR(~chi_20 -> ~c_L      cb)
     3.92990424E-08    2    -1000004         4   # BR(~chi_20 -> ~c_L*     c )
     1.46366539E-07    2     1000003        -3   # BR(~chi_20 -> ~s_L      sb)
     1.46366539E-07    2    -1000003         3   # BR(~chi_20 -> ~s_L*     s )
     3.37369927E-07    2     2000003        -3   # BR(~chi_20 -> ~s_R      sb)
     3.37369927E-07    2    -2000003         3   # BR(~chi_20 -> ~s_R*     s )
     5.84820248E-01    2     1000006        -6   # BR(~chi_20 -> ~t_1      tb)
     5.84820248E-01    2    -1000006         6   # BR(~chi_20 -> ~t_1*     t )
    -6.49163418E-02    2     1000005        -5   # BR(~chi_20 -> ~b_1      bb)
    -6.49163418E-02    2    -1000005         5   # BR(~chi_20 -> ~b_1*     b )
    -7.00450123E-02    2     2000005        -5   # BR(~chi_20 -> ~b_2      bb)
    -7.00450123E-02    2    -2000005         5   # BR(~chi_20 -> ~b_2*     b )
     8.65644812E-11    2     1000039        22   # BR(~chi_20 -> ~G        gam)
     3.77077003E-07    2     1000039        23   # BR(~chi_20 -> ~G        Z)
     9.41074667E-06    2     1000039        25   # BR(~chi_20 -> ~G        h)
     7.53382626E-08    2     1000039        35   # BR(~chi_20 -> ~G        H)
     1.94407570E-06    2     1000039        36   # BR(~chi_20 -> ~G        A)
#
#         PDG            Width
DECAY   1000025     3.07577226E+01   # neutralino3 decays
#          BR         NDA      ID1       ID2
     2.63096840E-03    2     1000022        23   # BR(~chi_30 -> ~chi_10   Z )
     6.70999137E-02    2     1000022        25   # BR(~chi_30 -> ~chi_10   h )
     1.18907443E-03    2     1000022        35   # BR(~chi_30 -> ~chi_10   H )
     3.00821318E-02    2     1000022        36   # BR(~chi_30 -> ~chi_10   A )
     3.82304368E-06    2     1000002        -2   # BR(~chi_30 -> ~u_L      ub)
     3.82304368E-06    2    -1000002         2   # BR(~chi_30 -> ~u_L*     u )
     9.32650881E-07    2     1000001        -1   # BR(~chi_30 -> ~d_L      db)
     9.32650881E-07    2    -1000001         1   # BR(~chi_30 -> ~d_L*     d )
     8.53118746E-06    2     2000001        -1   # BR(~chi_30 -> ~d_R      db)
     8.53118746E-06    2    -2000001         1   # BR(~chi_30 -> ~d_R*     d )
     3.82304368E-06    2     1000004        -4   # BR(~chi_30 -> ~c_L      cb)
     3.82304368E-06    2    -1000004         4   # BR(~chi_30 -> ~c_L*     c )
     9.32650881E-07    2     1000003        -3   # BR(~chi_30 -> ~s_L      sb)
     9.32650881E-07    2    -1000003         3   # BR(~chi_30 -> ~s_L*     s )
     8.53118746E-06    2     2000003        -3   # BR(~chi_30 -> ~s_R      sb)
     8.53118746E-06    2    -2000003         3   # BR(~chi_30 -> ~s_R*     s )
     5.85241112E-01    2     1000006        -6   # BR(~chi_30 -> ~t_1      tb)
     5.85241112E-01    2    -1000006         6   # BR(~chi_30 -> ~t_1*     t )
    -5.83049181E-02    2     1000005        -5   # BR(~chi_30 -> ~b_1      bb)
    -5.83049181E-02    2    -1000005         5   # BR(~chi_30 -> ~b_1*     b )
    -7.74657495E-02    2     2000005        -5   # BR(~chi_30 -> ~b_2      bb)
    -7.74657495E-02    2    -2000005         5   # BR(~chi_30 -> ~b_2*     b )
     2.51878341E-09    2     1000039        22   # BR(~chi_30 -> ~G        gam)
     9.43166155E-06    2     1000039        23   # BR(~chi_30 -> ~G        Z)
     3.67610176E-07    2     1000039        25   # BR(~chi_30 -> ~G        h)
     1.93294036E-06    2     1000039        35   # BR(~chi_30 -> ~G        H)
     7.78472305E-08    2     1000039        36   # BR(~chi_30 -> ~G        A)
#
#         PDG            Width
DECAY   1000035    -1.58791079E+05   # neutralino4 decays
#          BR         NDA      ID1       ID2
    -3.22609021E-11    2     1000022        23   # BR(~chi_40 -> ~chi_10   Z )
    -1.31755786E-03    2     1000023        23   # BR(~chi_40 -> ~chi_20   Z )
    -4.58141116E-05    2     1000025        23   # BR(~chi_40 -> ~chi_30   Z )
    -1.32206803E-03    2     1000024       -24   # BR(~chi_40 -> ~chi_1+   W-)
    -1.32206803E-03    2    -1000024        24   # BR(~chi_40 -> ~chi_1-   W+)
    -1.67308040E-07    2     1000022        25   # BR(~chi_40 -> ~chi_10   h )
    -3.07712800E-08    2     1000022        35   # BR(~chi_40 -> ~chi_10   H )
    -1.97838524E-07    2     1000022        36   # BR(~chi_40 -> ~chi_10   A )
    -4.52541995E-05    2     1000023        25   # BR(~chi_40 -> ~chi_20   h )
    -1.15831015E-03    2     1000023        35   # BR(~chi_40 -> ~chi_20   H )
    -5.32432913E-05    2     1000023        36   # BR(~chi_40 -> ~chi_20   A )
    -1.33339904E-03    2     1000025        25   # BR(~chi_40 -> ~chi_30   h )
    -5.19942543E-05    2     1000025        35   # BR(~chi_40 -> ~chi_30   H )
    -1.15705932E-03    2     1000025        36   # BR(~chi_40 -> ~chi_30   A )
    -1.21047892E-03    2     1000024       -37   # BR(~chi_40 -> ~chi_1+   H-)
    -1.21047892E-03    2    -1000024        37   # BR(~chi_40 -> ~chi_1-   H+)
    -3.56847884E-03    2     1000002        -2   # BR(~chi_40 -> ~u_L      ub)
    -3.56847884E-03    2    -1000002         2   # BR(~chi_40 -> ~u_L*     u )
    -5.52021707E-23    2     2000002        -2   # BR(~chi_40 -> ~u_R      ub)
    -5.52021707E-23    2    -2000002         2   # BR(~chi_40 -> ~u_R*     u )
    -3.56847996E-03    2     1000001        -1   # BR(~chi_40 -> ~d_L      db)
    -3.56847996E-03    2    -1000001         1   # BR(~chi_40 -> ~d_L*     d )
    -6.74785418E-17    2     2000001        -1   # BR(~chi_40 -> ~d_R      db)
    -6.74785418E-17    2    -2000001         1   # BR(~chi_40 -> ~d_R*     d )
    -3.56847884E-03    2     1000004        -4   # BR(~chi_40 -> ~c_L      cb)
    -3.56847884E-03    2    -1000004         4   # BR(~chi_40 -> ~c_L*     c )
    -5.52021707E-23    2     2000004        -4   # BR(~chi_40 -> ~c_R      cb)
    -5.52021707E-23    2    -2000004         4   # BR(~chi_40 -> ~c_R*     c )
    -3.56847996E-03    2     1000003        -3   # BR(~chi_40 -> ~s_L      sb)
    -3.56847996E-03    2    -1000003         3   # BR(~chi_40 -> ~s_L*     s )
    -6.74785418E-17    2     2000003        -3   # BR(~chi_40 -> ~s_R      sb)
    -6.74785418E-17    2    -2000003         3   # BR(~chi_40 -> ~s_R*     s )
    -4.34802635E-03    2     1000006        -6   # BR(~chi_40 -> ~t_1      tb)
    -4.34802635E-03    2    -1000006         6   # BR(~chi_40 -> ~t_1*     t )
     2.71889638E-01    2     1000005        -5   # BR(~chi_40 -> ~b_1      bb)
     2.71889638E-01    2    -1000005         5   # BR(~chi_40 -> ~b_1*     b )
     2.91558827E-01    2     2000005        -5   # BR(~chi_40 -> ~b_2      bb)
     2.91558827E-01    2    -2000005         5   # BR(~chi_40 -> ~b_2*     b )
    -1.86492059E-15    2     1000011       -11   # BR(~chi_40 -> ~e_L-     e+)
    -1.86492059E-15    2    -1000011        11   # BR(~chi_40 -> ~e_L+     e-)
    -3.17384363E-28    2     2000011       -11   # BR(~chi_40 -> ~e_R-     e+)
    -3.17384363E-28    2    -2000011        11   # BR(~chi_40 -> ~e_R+     e-)
    -1.86492059E-15    2     1000013       -13   # BR(~chi_40 -> ~mu_L-    mu+)
    -1.86492059E-15    2    -1000013        13   # BR(~chi_40 -> ~mu_L+    mu-)
    -3.17384363E-28    2     2000013       -13   # BR(~chi_40 -> ~mu_R-    mu+)
    -3.17384363E-28    2    -2000013        13   # BR(~chi_40 -> ~mu_R+    mu-)
    -2.67803304E-15    2     1000012       -12   # BR(~chi_40 -> ~nu_eL    nu_eb)
    -2.67803304E-15    2    -1000012        12   # BR(~chi_40 -> ~nu_eL*   nu_e )
    -2.67803304E-15    2     1000014       -14   # BR(~chi_40 -> ~nu_muL   nu_mub)
    -2.67803304E-15    2    -1000014        14   # BR(~chi_40 -> ~nu_muL*  nu_mu )
    -2.67803304E-15    2     1000016       -16   # BR(~chi_40 -> ~nu_tau1  nu_taub)
    -2.67803304E-15    2    -1000016        16   # BR(~chi_40 -> ~nu_tau1* nu_tau )
    -1.89703446E-02    2     1000039        22   # BR(~chi_40 -> ~G        gam)
    -5.92011304E-02    2     1000039        23   # BR(~chi_40 -> ~G        Z)
    -3.56732169E-09    2     1000039        25   # BR(~chi_40 -> ~G        h)
    -2.24029586E-08    2     1000039        35   # BR(~chi_40 -> ~G        H)
    -4.41448998E-12    2     1000039        36   # BR(~chi_40 -> ~G        A)
#
#
#
#
