#
#                              ======================
#                              | THE SUSYHIT OUTPUT |
#                              ======================
#
#
#              ------------------------------------------------------
#              |     This is the output of the SUSY-HIT package     |
#              |  created by A.Djouadi, M.Muehlleitner and M.Spira. |
#              |  In case of problems with SUSY-HIT email to        |
#              |           margarete.muehlleitner@cern.ch           |
#              |           michael.spira@psi.ch                     |
#              |           abdelhak.djouadi@cern.ch                 |
#              ------------------------------------------------------
#
#              ------------------------------------------------------
#              |  SUSY Les Houches Accord - MSSM Spectrum + Decays  |
#              |              based on the decay programs           |
#              |                                                    |
#              |                     SDECAY 1.3b                    |
#              |                                                    |
#              |  Authors: M.Muhlleitner, A.Djouadi and Y.Mambrini  |
#              |  Ref.:    Comput.Phys.Commun.168(2005)46           |
#              |           [hep-ph/0311167]                         |
#              |                                                    |
#              |                     HDECAY 3.4                     |
#              |                                                    |
#              |  By: A.Djouadi,J.Kalinowski,M.Muhlleitner,M.Spira  |
#              |  Ref.:    Comput.Phys.Commun.108(1998)56           |
#              |           [hep-ph/9704448]                         |
#              |                                                    |
#              |                                                    |
#              |  If not stated otherwise all DRbar couplings and   |
#              |  soft SUSY breaking masses are given at the scale  |
#              |  Q=  0.50007309E+04
#              |                                                    |
#              ------------------------------------------------------
#
#
BLOCK DCINFO  # Decay Program information
     1   SDECAY/HDECAY # decay calculator
     2   1.3b  /3.4    # version number
#
BLOCK SPINFO  # Spectrum calculator information
     1    SOFTSUSY    # spectrum calculator                
     2    3.4.0       # version number                     
#
BLOCK MODSEL  # Model selection
     1     0   #  nonUniversal                                     
#
BLOCK SMINPUTS  # Standard Model inputs
         1     1.25778332E+02   # alpha_em^-1(M_Z)^MSbar
         2     1.16570000E-05   # G_F [GeV^-2]
         3     1.17200002E-01   # alpha_S(M_Z)^MSbar
         4     9.11876000E+01   # M_Z pole mass
         5     4.25000000E+00   # mb(mb)^MSbar
         6     1.72500000E+02   # mt pole mass
         7     1.77682000E+00   # mtau pole mass
#
BLOCK MINPAR  # Input parameters - minimal models
         3     1.00000000E+01   # tanb                
#
BLOCK EXTPAR  # Input parameters - non-minimal models
         0    -1.00000000E+00   # Set                 
         1     6.00000000E+01   # M_1(MX)             
         2     3.00000000E+03   # M_2(MX)             
         3     1.57543600E+03   # M_3(MX)             
        11     5.00000000E+03   # At(MX)              
        12     5.00000000E+03   # Ab(MX)              
        13     0.00000000E+00   # Atau(MX)            
        23    -1.15372600E+03   # mu(MX)              
        26     3.00000000E+03   # mA(pole)            
        31     5.00000000E+03   # meL(MX)             
        32     5.00000000E+03   # mmuL(MX)            
        33     5.00000000E+03   # mtauL(MX)           
        34     5.00000000E+03   # meR(MX)             
        35     5.00000000E+03   # mmuR(MX)            
        36     5.00000000E+03   # mtauR(MX)           
        41     5.00000000E+03   # mqL1(MX)            
        42     5.00000000E+03   # mqL2(MX)            
        43     5.00000000E+03   # mqL3(MX)            
        44     5.00000000E+03   # muR(MX)             
        45     5.00000000E+03   # mcR(MX)             
        46     5.00000000E+03   # mtR(MX)             
        47     5.00000000E+03   # mdR(MX)             
        48     5.00000000E+03   # msR(MX)             
        49     5.00000000E+03   # mbR(MX)             
#
BLOCK MASS  # Mass Spectrum
# PDG code           mass       particle
        24     8.00955655E+01   # W+
        25     1.24748658E+02   # h
        35     3.00008007E+03   # H
        36     2.99999986E+03   # A
        37     3.00086420E+03   # H+
         5     4.87878001E+00   # b-quark pole mass calculated from mb(mb)_Msbar
   1000001     5.07064604E+03   # ~d_L
   2000001     5.05285024E+03   # ~d_R
   1000002     5.07017193E+03   # ~u_L
   2000002     5.05256920E+03   # ~u_R
   1000003     5.07064604E+03   # ~s_L
   2000003     5.05285024E+03   # ~s_R
   1000004     5.07017193E+03   # ~c_L
   2000004     5.05256920E+03   # ~c_R
   1000005     5.01647045E+03   # ~b_1
   2000005     5.05149872E+03   # ~b_2
   1000006     4.90746362E+03   # ~t_1
   2000006     5.06196188E+03   # ~t_2
   1000011     5.01906139E+03   # ~e_L
   2000011     5.00591819E+03   # ~e_R
   1000012     5.01811305E+03   # ~nu_eL
   1000013     5.01906139E+03   # ~mu_L
   2000013     5.00591819E+03   # ~mu_R
   1000014     5.01811305E+03   # ~nu_muL
   1000015     5.00452473E+03   # ~tau_1
   2000015     5.01884944E+03   # ~tau_2
   1000016     5.01756950E+03   # ~nu_tauL
   1000021     1.90000076E+03   # ~g
   1000022     6.03022865E+01   # ~chi_10
   1000023     1.19954142E+03   # ~chi_20
   1000025    -1.20184396E+03   # ~chi_30
   1000035     3.07429057E+03   # ~chi_40
   1000024     1.20000022E+03   # ~chi_1+
   1000037     3.07445802E+03   # ~chi_2+
#
BLOCK NMIX  # Neutralino Mixing Matrix
  1  1     9.99308813E-01   # N_11
  1  2     1.64213326E-04   # N_12
  1  3    -3.71189189E-02   # N_13
  1  4     2.01387450E-03   # N_14
  2  1     2.48273258E-02   # N_21
  2  2     2.59751778E-02   # N_22
  2  3     7.06840424E-01   # N_23
  2  4     7.06459842E-01   # N_24
  3  1    -2.76645535E-02   # N_31
  3  2     1.42072386E-02   # N_32
  3  3    -7.06349443E-01   # N_33
  3  4     7.07179816E-01   # N_34
  4  1    -4.16139542E-04   # N_41
  4  2     9.99561613E-01   # N_42
  4  3    -8.32258366E-03   # N_43
  4  4    -2.84102778E-02   # N_44
#
BLOCK UMIX  # Chargino Mixing Matrix U
  1  1     1.17847682E-02   # U_11
  1  2     9.99930557E-01   # U_12
  2  1    -9.99930557E-01   # U_21
  2  2     1.17847682E-02   # U_22
#
BLOCK VMIX  # Chargino Mixing Matrix V
  1  1     4.02069317E-02   # V_11
  1  2    -9.99191374E-01   # V_12
  2  1    -9.99191374E-01   # V_21
  2  2    -4.02069317E-02   # V_22
#
BLOCK STOPMIX  # Stop Mixing Matrix
  1  1    -5.08714352E-01   # cos(theta_t)
  1  2     8.60935368E-01   # sin(theta_t)
  2  1    -8.60935368E-01   # -sin(theta_t)
  2  2    -5.08714352E-01   # cos(theta_t)
#
BLOCK SBOTMIX  # Sbottom Mixing Matrix
  1  1     9.96175532E-01   # cos(theta_b)
  1  2    -8.73745354E-02   # sin(theta_b)
  2  1     8.73745354E-02   # -sin(theta_b)
  2  2     9.96175532E-01   # cos(theta_b)
#
BLOCK STAUMIX  # Stau Mixing Matrix
  1  1    -1.36024630E-01   # cos(theta_tau)
  1  2     9.90705456E-01   # sin(theta_tau)
  2  1    -9.90705456E-01   # -sin(theta_tau)
  2  2    -1.36024630E-01   # cos(theta_tau)
#
BLOCK ALPHA  # Higgs mixing
          -1.05467607E-01   # Mixing angle in the neutral Higgs boson sector
#
BLOCK HMIX Q=  5.00073090E+03  # DRbar Higgs Parameters
         1    -1.17483020E+03   # mu(Q)MSSM           
         2     9.47026246E+00   # tan                 
         3     2.41898542E+02   # higgs               
         4     8.46349162E+06   # mA^2(Q)MSSM         
#
BLOCK GAUGE Q=  5.00073090E+03  # The gauge couplings
     1     3.70756977E-01   # gprime(Q) DRbar
     2     6.32352633E-01   # g(Q) DRbar
     3     9.99252832E-01   # g3(Q) DRbar
#
BLOCK AU Q=  5.00073090E+03  # The trilinear couplings
  1  1     5.00000001E+03   # A_u(Q) DRbar
  2  2     5.00000001E+03   # A_c(Q) DRbar
  3  3     5.00000002E+03   # A_t(Q) DRbar
#
BLOCK AD Q=  5.00073090E+03  # The trilinear couplings
  1  1     5.00000001E+03   # A_d(Q) DRbar
  2  2     5.00000001E+03   # A_s(Q) DRbar
  3  3     5.00000001E+03   # A_b(Q) DRbar
#
BLOCK AE Q=  5.00073090E+03  # The trilinear couplings
  1  1     0.00000000E+00   # A_e(Q) DRbar
  2  2     1.59958151E-07   # A_mu(Q) DRbar
  3  3     1.59538047E-07   # A_tau(Q) DRbar
#
BLOCK Yu Q=  5.00073090E+03  # The Yukawa couplings
  1  1     0.00000000E+00   # y_u(Q) DRbar
  2  2     0.00000000E+00   # y_c(Q) DRbar
  3  3     8.19424849E-01   # y_t(Q) DRbar
#
BLOCK Yd Q=  5.00073090E+03  # The Yukawa couplings
  1  1     0.00000000E+00   # y_d(Q) DRbar
  2  2     0.00000000E+00   # y_s(Q) DRbar
  3  3     1.30786094E-01   # y_b(Q) DRbar
#
BLOCK Ye Q=  5.00073090E+03  # The Yukawa couplings
  1  1     0.00000000E+00   # y_e(Q) DRbar
  2  2     0.00000000E+00   # y_mu(Q) DRbar
  3  3     9.67596944E-02   # y_tau(Q) DRbar
#
BLOCK MSOFT Q=  5.00073090E+03  # The soft SUSY breaking masses at the scale Q
         1     6.00000000E+01   # M_1(Q)              
         2     3.00000000E+03   # M_2(Q)              
         3     1.57543600E+03   # M_3(Q)              
        21     7.30482895E+06   # mH1^2(Q)            
        22    -8.22229908E+05   # mH2^2(Q)            
        31     5.00000000E+03   # meL(Q)              
        32     5.00000000E+03   # mmuL(Q)             
        33     5.00000000E+03   # mtauL(Q)            
        34     5.00000000E+03   # meR(Q)              
        35     5.00000000E+03   # mmuR(Q)             
        36     5.00000000E+03   # mtauR(Q)            
        41     5.00000000E+03   # mqL1(Q)             
        42     5.00000000E+03   # mqL2(Q)             
        43     5.00000000E+03   # mqL3(Q)             
        44     5.00000000E+03   # muR(Q)              
        45     5.00000000E+03   # mcR(Q)              
        46     4.99999999E+03   # mtR(Q)              
        47     5.00000000E+03   # mdR(Q)              
        48     5.00000000E+03   # msR(Q)              
        49     5.00000000E+03   # mbR(Q)              
#
#
#
#                             =================
#                             |The decay table|
#                             =================
#
# - The QCD corrections to the decays gluino -> squark  + quark
#                                     squark -> gaugino + quark_prime
#                                     squark -> squark_prime + Higgs
#                                     squark -> gluino  + quark
#   are included.
#
# - The multi-body decays for the inos, stops and sbottoms are included.
#
# - The loop induced decays for the gluino, neutralinos and stops
#   are included.
#
# - The SUSY decays of the top quark are included.
#
#
#         PDG            Width
DECAY         6     1.40125493E+00   # top decays
#          BR         NDA      ID1       ID2
     1.00000000E+00    2           5        24   # BR(t ->  b    W+)
#
#         PDG            Width
DECAY   1000021     3.03778330E-04   # gluino decays
#          BR         NDA      ID1       ID2
     6.86700594E-06    2     1000022        21   # BR(~g -> ~chi_10 g)
     1.00761710E-02    2     1000023        21   # BR(~g -> ~chi_20 g)
     9.94275519E-03    2     1000025        21   # BR(~g -> ~chi_30 g)
#           BR         NDA      ID1       ID2       ID3
     5.89995876E-02    3     1000022         1        -1   # BR(~g -> ~chi_10 d  db)
     1.16901849E-05    3     1000023         1        -1   # BR(~g -> ~chi_20 d  db)
     3.81498308E-06    3     1000025         1        -1   # BR(~g -> ~chi_30 d  db)
     2.01155258E-01    3     1000022         2        -2   # BR(~g -> ~chi_10 u  ub)
     2.87689444E-05    3     1000023         2        -2   # BR(~g -> ~chi_20 u  ub)
     4.18781852E-06    3     1000025         2        -2   # BR(~g -> ~chi_30 u  ub)
     5.89995876E-02    3     1000022         3        -3   # BR(~g -> ~chi_10 s  sb)
     1.16901849E-05    3     1000023         3        -3   # BR(~g -> ~chi_20 s  sb)
     3.81498308E-06    3     1000025         3        -3   # BR(~g -> ~chi_30 s  sb)
     2.01155258E-01    3     1000022         4        -4   # BR(~g -> ~chi_10 c  cb)
     2.87689444E-05    3     1000023         4        -4   # BR(~g -> ~chi_20 c  cb)
     4.18781852E-06    3     1000025         4        -4   # BR(~g -> ~chi_30 c  cb)
     5.97807765E-02    3     1000022         5        -5   # BR(~g -> ~chi_10 b  bb)
     1.95205256E-03    3     1000023         5        -5   # BR(~g -> ~chi_20 b  bb)
     1.90674790E-03    3     1000025         5        -5   # BR(~g -> ~chi_30 b  bb)
     1.92520277E-01    3     1000022         6        -6   # BR(~g -> ~chi_10 t  tb)
     4.94490084E-02    3     1000023         6        -6   # BR(~g -> ~chi_20 t  tb)
     3.39587640E-02    3     1000025         6        -6   # BR(~g -> ~chi_30 t  tb)
     3.21880102E-05    3     1000024         1        -2   # BR(~g -> ~chi_1+ d  ub)
     3.21880102E-05    3    -1000024         2        -1   # BR(~g -> ~chi_1- u  db)
     3.21880102E-05    3     1000024         3        -4   # BR(~g -> ~chi_1+ s  cb)
     3.21880102E-05    3    -1000024         4        -3   # BR(~g -> ~chi_1- c  sb)
     5.99356071E-02    3     1000024         5        -6   # BR(~g -> ~chi_1+ b  tb)
     5.99356071E-02    3    -1000024         6        -5   # BR(~g -> ~chi_1- t  bb)
#
#         PDG            Width
DECAY   1000006     3.46110543E+02   # stop1 decays
#          BR         NDA      ID1       ID2
     2.55197090E-02    2     1000022         6   # BR(~t_1 -> ~chi_10 t )
     8.44732140E-02    2     1000023         6   # BR(~t_1 -> ~chi_20 t )
     8.12222142E-02    2     1000025         6   # BR(~t_1 -> ~chi_30 t )
     6.08213182E-03    2     1000035         6   # BR(~t_1 -> ~chi_40 t )
     1.22545974E-01    2     1000024         5   # BR(~t_1 -> ~chi_1+ b )
     1.21112517E-02    2     1000037         5   # BR(~t_1 -> ~chi_2+ b )
     6.68045505E-01    2     1000021         6   # BR(~t_1 -> ~g      t )
#
#         PDG            Width
DECAY   2000006     3.54118697E+02   # stop2 decays
#          BR         NDA      ID1       ID2
     9.91602769E-03    2     1000022         6   # BR(~t_2 -> ~chi_10 t )
     8.49376848E-02    2     1000023         6   # BR(~t_2 -> ~chi_20 t )
     8.84023449E-02    2     1000025         6   # BR(~t_2 -> ~chi_30 t )
     1.55809882E-02    2     1000035         6   # BR(~t_2 -> ~chi_40 t )
     5.09813925E-02    2     1000024         5   # BR(~t_2 -> ~chi_1+ b )
     3.09808211E-02    2     1000037         5   # BR(~t_2 -> ~chi_2+ b )
     7.15593430E-01    2     1000021         6   # BR(~t_2 -> ~g      t )
     8.11915439E-04    2     1000006        25   # BR(~t_2 -> ~t_1    h )
     2.79539561E-03    2     1000006        23   # BR(~t_2 -> ~t_1    Z )
#
#         PDG            Width
DECAY   1000005     3.30055799E+02   # sbottom1 decays
#          BR         NDA      ID1       ID2
     2.34994115E-03    2     1000022         5   # BR(~b_1 -> ~chi_10 b )
     2.35631552E-03    2     1000023         5   # BR(~b_1 -> ~chi_20 b )
     2.27060550E-03    2     1000025         5   # BR(~b_1 -> ~chi_30 b )
     2.27643137E-02    2     1000035         5   # BR(~b_1 -> ~chi_40 b )
     1.79772377E-01    2    -1000024         6   # BR(~b_1 -> ~chi_1- t )
     4.57652219E-02    2    -1000037         6   # BR(~b_1 -> ~chi_2- t )
     7.43027540E-01    2     1000021         5   # BR(~b_1 -> ~g      b )
     1.69368494E-03    2     1000006       -24   # BR(~b_1 -> ~t_1    W-)
#
#         PDG            Width
DECAY   2000005     2.54512545E+02   # sbottom2 decays
#          BR         NDA      ID1       ID2
     1.15283537E-02    2     1000022         5   # BR(~b_2 -> ~chi_10 b )
     3.00289402E-03    2     1000023         5   # BR(~b_2 -> ~chi_20 b )
     3.10112673E-03    2     1000025         5   # BR(~b_2 -> ~chi_30 b )
     2.34068085E-04    2     1000035         5   # BR(~b_2 -> ~chi_40 b )
     7.75859758E-03    2    -1000024         6   # BR(~b_2 -> ~chi_1- t )
     4.70459400E-04    2    -1000037         6   # BR(~b_2 -> ~chi_2- t )
     9.73833554E-01    2     1000021         5   # BR(~b_2 -> ~g      b )
     7.09464266E-05    2     1000006       -24   # BR(~b_2 -> ~t_1    W-)
#
#         PDG            Width
DECAY   1000002     2.73606166E+02   # sup_L decays
#          BR         NDA      ID1       ID2
     2.72787794E-03    2     1000022         2   # BR(~u_L -> ~chi_10 u)
     6.05781062E-05    2     1000023         2   # BR(~u_L -> ~chi_20 u)
     4.93473311E-06    2     1000025         2   # BR(~u_L -> ~chi_30 u)
     2.86690997E-02    2     1000035         2   # BR(~u_L -> ~chi_40 u)
     2.06079659E-04    2     1000024         1   # BR(~u_L -> ~chi_1+ d)
     5.72978466E-02    2     1000037         1   # BR(~u_L -> ~chi_2+ d)
     9.11033583E-01    2     1000021         2   # BR(~u_L -> ~g      u)
#
#         PDG            Width
DECAY   2000002     2.59727400E+02   # sup_R decays
#          BR         NDA      ID1       ID2
     4.57399986E-02    2     1000022         2   # BR(~u_R -> ~chi_10 u)
     2.51865733E-05    2     1000023         2   # BR(~u_R -> ~chi_20 u)
     3.12577626E-05    2     1000025         2   # BR(~u_R -> ~chi_30 u)
     3.16279003E-09    2     1000035         2   # BR(~u_R -> ~chi_40 u)
     9.54203554E-01    2     1000021         2   # BR(~u_R -> ~g      u)
#
#         PDG            Width
DECAY   1000001     2.73620342E+02   # sdown_L decays
#          BR         NDA      ID1       ID2
     2.71883492E-03    2     1000022         1   # BR(~d_L -> ~chi_10 d)
     2.84433529E-05    2     1000023         1   # BR(~d_L -> ~chi_20 d)
     2.45133718E-05    2     1000025         1   # BR(~d_L -> ~chi_30 d)
     2.86858224E-02    2     1000035         1   # BR(~d_L -> ~chi_40 d)
     1.77053019E-05    2    -1000024         2   # BR(~d_L -> ~chi_1- u)
     5.73974436E-02    2    -1000037         2   # BR(~d_L -> ~chi_2- u)
     9.11127237E-01    2     1000021         1   # BR(~d_L -> ~g      d)
#
#         PDG            Width
DECAY   2000001     2.50829490E+02   # sdown_R decays
#          BR         NDA      ID1       ID2
     1.18413099E-02    2     1000022         1   # BR(~d_R -> ~chi_10 d)
     6.52046153E-06    2     1000023         1   # BR(~d_R -> ~chi_20 d)
     8.09221035E-06    2     1000025         1   # BR(~d_R -> ~chi_30 d)
     8.18898567E-10    2     1000035         1   # BR(~d_R -> ~chi_40 d)
     9.88144077E-01    2     1000021         1   # BR(~d_R -> ~g      d)
#
#         PDG            Width
DECAY   1000004     2.73606166E+02   # scharm_L decays
#          BR         NDA      ID1       ID2
     2.72787794E-03    2     1000022         4   # BR(~c_L -> ~chi_10 c)
     6.05781062E-05    2     1000023         4   # BR(~c_L -> ~chi_20 c)
     4.93473311E-06    2     1000025         4   # BR(~c_L -> ~chi_30 c)
     2.86690997E-02    2     1000035         4   # BR(~c_L -> ~chi_40 c)
     2.06079659E-04    2     1000024         3   # BR(~c_L -> ~chi_1+ s)
     5.72978466E-02    2     1000037         3   # BR(~c_L -> ~chi_2+ s)
     9.11033583E-01    2     1000021         4   # BR(~c_L -> ~g      c)
#
#         PDG            Width
DECAY   2000004     2.59727400E+02   # scharm_R decays
#          BR         NDA      ID1       ID2
     4.57399986E-02    2     1000022         4   # BR(~c_R -> ~chi_10 c)
     2.51865733E-05    2     1000023         4   # BR(~c_R -> ~chi_20 c)
     3.12577626E-05    2     1000025         4   # BR(~c_R -> ~chi_30 c)
     3.16279003E-09    2     1000035         4   # BR(~c_R -> ~chi_40 c)
     9.54203554E-01    2     1000021         4   # BR(~c_R -> ~g      c)
#
#         PDG            Width
DECAY   1000003     2.73620342E+02   # sstrange_L decays
#          BR         NDA      ID1       ID2
     2.71883492E-03    2     1000022         3   # BR(~s_L -> ~chi_10 s)
     2.84433529E-05    2     1000023         3   # BR(~s_L -> ~chi_20 s)
     2.45133718E-05    2     1000025         3   # BR(~s_L -> ~chi_30 s)
     2.86858224E-02    2     1000035         3   # BR(~s_L -> ~chi_40 s)
     1.77053019E-05    2    -1000024         4   # BR(~s_L -> ~chi_1- c)
     5.73974436E-02    2    -1000037         4   # BR(~s_L -> ~chi_2- c)
     9.11127237E-01    2     1000021         3   # BR(~s_L -> ~g      s)
#
#         PDG            Width
DECAY   2000003     2.50829490E+02   # sstrange_R decays
#          BR         NDA      ID1       ID2
     1.18413099E-02    2     1000022         3   # BR(~s_R -> ~chi_10 s)
     6.52046153E-06    2     1000023         3   # BR(~s_R -> ~chi_20 s)
     8.09221035E-06    2     1000025         3   # BR(~s_R -> ~chi_30 s)
     8.18898567E-10    2     1000035         3   # BR(~s_R -> ~chi_40 s)
     9.88144077E-01    2     1000021         3   # BR(~s_R -> ~g      s)
#
#         PDG            Width
DECAY   1000011     3.02556713E+01   # selectron_L decays
#          BR         NDA      ID1       ID2
     2.26574995E-01    2     1000022        11   # BR(~e_L -> ~chi_10 e-)
     9.63693671E-04    2     1000023        11   # BR(~e_L -> ~chi_20 e-)
     2.37561174E-06    2     1000025        11   # BR(~e_L -> ~chi_30 e-)
     2.57244029E-01    2     1000035        11   # BR(~e_L -> ~chi_40 e-)
     1.62921923E-04    2    -1000024        12   # BR(~e_L -> ~chi_1- nu_e)
     5.15051985E-01    2    -1000037        12   # BR(~e_L -> ~chi_2- nu_e)
#
#         PDG            Width
DECAY   2000011     2.73671475E+01   # selectron_R decays
#          BR         NDA      ID1       ID2
     9.98772103E-01    2     1000022        11   # BR(~e_R -> ~chi_10 e-)
     5.47884949E-04    2     1000023        11   # BR(~e_R -> ~chi_20 e-)
     6.79944494E-04    2     1000025        11   # BR(~e_R -> ~chi_30 e-)
     6.72090836E-08    2     1000035        11   # BR(~e_R -> ~chi_40 e-)
#
#         PDG            Width
DECAY   1000013     3.02556713E+01   # smuon_L decays
#          BR         NDA      ID1       ID2
     2.26574995E-01    2     1000022        13   # BR(~mu_L -> ~chi_10 mu-)
     9.63693671E-04    2     1000023        13   # BR(~mu_L -> ~chi_20 mu-)
     2.37561174E-06    2     1000025        13   # BR(~mu_L -> ~chi_30 mu-)
     2.57244029E-01    2     1000035        13   # BR(~mu_L -> ~chi_40 mu-)
     1.62921923E-04    2    -1000024        14   # BR(~mu_L -> ~chi_1- nu_mu)
     5.15051985E-01    2    -1000037        14   # BR(~mu_L -> ~chi_2- nu_mu)
#
#         PDG            Width
DECAY   2000013     2.73671475E+01   # smuon_R decays
#          BR         NDA      ID1       ID2
     9.98772103E-01    2     1000022        13   # BR(~mu_R -> ~chi_10 mu-)
     5.47884949E-04    2     1000023        13   # BR(~mu_R -> ~chi_20 mu-)
     6.79944494E-04    2     1000025        13   # BR(~mu_R -> ~chi_30 mu-)
     6.72090836E-08    2     1000035        13   # BR(~mu_R -> ~chi_40 mu-)
#
#         PDG            Width
DECAY   1000015     2.90664717E+01   # stau_1 decays
#          BR         NDA      ID1       ID2
     9.27986122E-01    2     1000022        15   # BR(~tau_1 -> ~chi_10  tau-)
     1.50451526E-02    2     1000023        15   # BR(~tau_1 -> ~chi_20  tau-)
     1.40742440E-02    2     1000025        15   # BR(~tau_1 -> ~chi_30  tau-)
     4.77772482E-03    2     1000035        15   # BR(~tau_1 -> ~chi_40  tau-)
     2.85510576E-02    2    -1000024        16   # BR(~tau_1 -> ~chi_1-  nu_tau)
     9.56569873E-03    2    -1000037        16   # BR(~tau_1 -> ~chi_2-  nu_tau)
#
#         PDG            Width
DECAY   2000015     3.10290272E+01   # stau_2 decays
#          BR         NDA      ID1       ID2
     2.32399007E-01    2     1000022        15   # BR(~tau_2 -> ~chi_10  tau-)
     1.40441398E-02    2     1000023        15   # BR(~tau_2 -> ~chi_20  tau-)
     1.40873720E-02    2     1000025        15   # BR(~tau_2 -> ~chi_30  tau-)
     2.46278026E-01    2     1000035        15   # BR(~tau_2 -> ~chi_40  tau-)
     9.54944339E-05    2    -1000024        16   # BR(~tau_2 -> ~chi_1-  nu_tau)
     4.93095962E-01    2    -1000037        16   # BR(~tau_2 -> ~chi_2-  nu_tau)
#
#         PDG            Width
DECAY   1000012     3.02581974E+01   # snu_eL decays
#          BR         NDA      ID1       ID2
     2.26259449E-01    2     1000022        12   # BR(~nu_eL -> ~chi_10 nu_e)
     7.64598651E-05    2     1000023        12   # BR(~nu_eL -> ~chi_20 nu_e)
     5.42669315E-04    2     1000025        12   # BR(~nu_eL -> ~chi_30 nu_e)
     2.57308326E-01    2     1000035        12   # BR(~nu_eL -> ~chi_40 nu_e)
     1.89583733E-03    2     1000024        11   # BR(~nu_eL -> ~chi_1+ e-)
     5.13917258E-01    2     1000037        11   # BR(~nu_eL -> ~chi_2+ e-)
#
#         PDG            Width
DECAY   1000014     3.02581974E+01   # snu_muL decays
#          BR         NDA      ID1       ID2
     2.26259449E-01    2     1000022        14   # BR(~nu_muL -> ~chi_10 nu_mu)
     7.64598651E-05    2     1000023        14   # BR(~nu_muL -> ~chi_20 nu_mu)
     5.42669315E-04    2     1000025        14   # BR(~nu_muL -> ~chi_30 nu_mu)
     2.57308326E-01    2     1000035        14   # BR(~nu_muL -> ~chi_40 nu_mu)
     1.89583733E-03    2     1000024        13   # BR(~nu_muL -> ~chi_1+ mu-)
     5.13917258E-01    2     1000037        13   # BR(~nu_muL -> ~chi_2+ mu-)
#
#         PDG            Width
DECAY   1000016     3.10795253E+01   # snu_tauL decays
#          BR         NDA      ID1       ID2
     2.20256294E-01    2     1000022        16   # BR(~nu_tauL -> ~chi_10 nu_tau)
     7.44292687E-05    2     1000023        16   # BR(~nu_tauL -> ~chi_20 nu_tau)
     5.28257223E-04    2     1000025        16   # BR(~nu_tauL -> ~chi_30 nu_tau)
     2.50416181E-01    2     1000035        16   # BR(~nu_tauL -> ~chi_40 nu_tau)
     2.85731084E-02    2     1000024        15   # BR(~nu_tauL -> ~chi_1+ tau-)
     5.00151730E-01    2     1000037        15   # BR(~nu_tauL -> ~chi_2+ tau-)
#
#         PDG            Width
DECAY   1000024     7.34533897E-01   # chargino1+ decays
#          BR         NDA      ID1       ID2
     1.00000000E+00    2     1000022        24   # BR(~chi_1+ -> ~chi_10  W+)
#
#         PDG            Width
DECAY   1000037     1.96741458E+01   # chargino2+ decays
#          BR         NDA      ID1       ID2
     2.53016145E-01    2     1000024        23   # BR(~chi_2+ -> ~chi_1+  Z )
     2.15538878E-04    2     1000022        24   # BR(~chi_2+ -> ~chi_10  W+)
     2.43999621E-01    2     1000023        24   # BR(~chi_2+ -> ~chi_20  W+)
     2.43962621E-01    2     1000025        24   # BR(~chi_2+ -> ~chi_30  W+)
     2.58805329E-01    2     1000024        25   # BR(~chi_2+ -> ~chi_1+  h )
     7.45709106E-07    2     1000022        37   # BR(~chi_2+ -> ~chi_10  H+)
#
#         PDG            Width
DECAY   1000022     0.00000000E+00   # neutralino1 decays
#
#         PDG            Width
DECAY   1000023     7.69762051E-01   # neutralino2 decays
#          BR         NDA      ID1       ID2
     5.48081359E-01    2     1000022        23   # BR(~chi_20 -> ~chi_10   Z )
     4.51918641E-01    2     1000022        25   # BR(~chi_20 -> ~chi_10   h )
#
#         PDG            Width
DECAY   1000025     7.75580032E-01   # neutralino3 decays
#          BR         NDA      ID1       ID2
     4.38124018E-01    2     1000022        23   # BR(~chi_30 -> ~chi_10   Z )
     5.61875982E-01    2     1000022        25   # BR(~chi_30 -> ~chi_10   h )
#
#         PDG            Width
DECAY   1000035     1.96857728E+01   # neutralino4 decays
#          BR         NDA      ID1       ID2
     6.35271604E-05    2     1000022        23   # BR(~chi_40 -> ~chi_10   Z )
     5.83465447E-02    2     1000023        23   # BR(~chi_40 -> ~chi_20   Z )
     1.93964691E-01    2     1000025        23   # BR(~chi_40 -> ~chi_30   Z )
     2.44613775E-01    2     1000024       -24   # BR(~chi_40 -> ~chi_1+   W-)
     2.44613775E-01    2    -1000024        24   # BR(~chi_40 -> ~chi_1-   W+)
     1.54930824E-04    2     1000022        25   # BR(~chi_40 -> ~chi_10   h )
     6.82668199E-07    2     1000022        35   # BR(~chi_40 -> ~chi_10   H )
     8.92086971E-08    2     1000022        36   # BR(~chi_40 -> ~chi_10   A )
     1.99787031E-01    2     1000023        25   # BR(~chi_40 -> ~chi_20   h )
     5.84549536E-02    2     1000025        25   # BR(~chi_40 -> ~chi_30   h )
#
#         PDG            Width
DECAY        25     4.05167345E-03   # h decays
#          BR         NDA      ID1       ID2
     6.08324261E-01    2           5        -5   # BR(h -> b       bb     )
     6.40012333E-02    2         -15        15   # BR(h -> tau+    tau-   )
     2.26587745E-04    2         -13        13   # BR(h -> mu+     mu-    )
     4.80371388E-04    2           3        -3   # BR(h -> s       sb     )
     2.08160485E-02    2           4        -4   # BR(h -> c       cb     )
     6.73061292E-02    2          21        21   # BR(h -> g       g      )
     2.31363447E-03    2          22        22   # BR(h -> gam     gam    )
     1.48969525E-03    2          22        23   # BR(h -> Z       gam    )
     2.09983921E-01    2          24       -24   # BR(h -> W+      W-     )
     2.50134405E-02    2          23        23   # BR(h -> Z       Z      )
     4.46780944E-05    2     1000022   1000022   # BR(h -> ~chi_10 ~chi_10)
#
#         PDG            Width
DECAY        35     7.79270542E+00   # H decays
#          BR         NDA      ID1       ID2
     4.16202203E-01    2           5        -5   # BR(H -> b       bb     )
     7.14977349E-02    2         -15        15   # BR(H -> tau+    tau-   )
     2.52821670E-04    2         -13        13   # BR(H -> mu+     mu-    )
     3.09920652E-04    2           3        -3   # BR(H -> s       sb     )
     1.73323482E-06    2           4        -4   # BR(H -> c       cb     )
     1.73163884E-01    2           6        -6   # BR(H -> t       tb     )
     5.75158519E-05    2          21        21   # BR(H -> g       g      )
     3.33375702E-07    2          22        22   # BR(H -> gam     gam    )
     1.02246550E-07    2          23        22   # BR(H -> Z       gam    )
     7.87263986E-05    2          24       -24   # BR(H -> W+      W-     )
     3.93133769E-05    2          23        23   # BR(H -> Z       Z      )
     2.94420276E-04    2          25        25   # BR(H -> h       h      )
    -1.69390584E-23    2          36        36   # BR(H -> A       A      )
     8.59578000E-19    2          23        36   # BR(H -> Z       A      )
     1.18930136E-03    2     1000024  -1000024   # BR(H -> ~chi_1+ ~chi_1-)
     1.28674845E-03    2     1000022   1000022   # BR(H -> ~chi_10 ~chi_10)
     6.58333573E-05    2     1000023   1000023   # BR(H -> ~chi_20 ~chi_20)
     2.34422549E-04    2     1000025   1000025   # BR(H -> ~chi_30 ~chi_30)
     2.00479919E-01    2     1000022   1000023   # BR(H -> ~chi_10 ~chi_20)
     1.34628968E-01    2     1000022   1000025   # BR(H -> ~chi_10 ~chi_30)
     2.16098560E-04    2     1000023   1000025   # BR(H -> ~chi_20 ~chi_30)
#
#         PDG            Width
DECAY        36     7.81299926E+00   # A decays
#          BR         NDA      ID1       ID2
     4.15261350E-01    2           5        -5   # BR(A -> b       bb     )
     7.13141943E-02    2         -15        15   # BR(A -> tau+    tau-   )
     2.52172303E-04    2         -13        13   # BR(A -> mu+     mu-    )
     3.09350490E-04    2           3        -3   # BR(A -> s       sb     )
     1.73587043E-06    2           4        -4   # BR(A -> c       cb     )
     1.73331516E-01    2           6        -6   # BR(A -> t       tb     )
     1.71533926E-04    2          21        21   # BR(A -> g       g      )
     5.27352521E-07    2          22        22   # BR(A -> gam     gam    )
     2.07758960E-07    2          23        22   # BR(A -> Z       gam    )
     7.82254296E-05    2          23        25   # BR(A -> Z       h      )
     2.91073312E-03    2     1000024  -1000024   # BR(A -> ~chi_1+ ~chi_1-)
     1.31535839E-03    2     1000022   1000022   # BR(A -> ~chi_10 ~chi_10)
     1.19163802E-04    2     1000023   1000023   # BR(A -> ~chi_20 ~chi_20)
     9.98843863E-04    2     1000025   1000025   # BR(A -> ~chi_30 ~chi_30)
     1.36012263E-01    2     1000022   1000023   # BR(A -> ~chi_10 ~chi_20)
     1.97896383E-01    2     1000022   1000025   # BR(A -> ~chi_10 ~chi_30)
     2.64407537E-05    2     1000023   1000025   # BR(A -> ~chi_20 ~chi_30)
#
#         PDG            Width
DECAY        37     7.78016056E+00   # H+ decays
#          BR         NDA      ID1       ID2
     6.68980245E-04    2           4        -5   # BR(H+ -> c       bb     )
     7.16358324E-02    2         -15        16   # BR(H+ -> tau+    nu_tau )
     2.53309639E-04    2         -13        14   # BR(H+ -> mu+     nu_mu  )
     4.28145151E-06    2           2        -5   # BR(H+ -> u       bb     )
     1.48636878E-05    2           2        -3   # BR(H+ -> u       sb     )
     3.07381681E-04    2           4        -3   # BR(H+ -> c       sb     )
     5.88534604E-01    2           6        -5   # BR(H+ -> t       bb     )
     7.86739655E-05    2          24        25   # BR(H+ -> W+      h      )
     8.14940754E-14    2          24        36   # BR(H+ -> W+      A      )
     3.37936354E-01    2     1000024   1000022   # BR(H+ -> ~chi_1+ ~chi_10)
     5.04563611E-04    2     1000024   1000023   # BR(H+ -> ~chi_1+ ~chi_20)
     6.11552284E-05    2     1000024   1000025   # BR(H+ -> ~chi_1+ ~chi_30)
