#
#                              ======================
#                              | THE SUSYHIT OUTPUT |
#                              ======================
#
#
#              ------------------------------------------------------
#              |     This is the output of the SUSY-HIT package     |
#              |  created by A.Djouadi, M.Muehlleitner and M.Spira. |
#              |  In case of problems with SUSY-HIT email to        |
#              |           margarete.muehlleitner@cern.ch           |
#              |           michael.spira@psi.ch                     |
#              |           abdelhak.djouadi@cern.ch                 |
#              ------------------------------------------------------
#
#              ------------------------------------------------------
#              |  SUSY Les Houches Accord - MSSM Spectrum + Decays  |
#              |              based on the decay programs           |
#              |                                                    |
#              |                     SDECAY 1.3b                    |
#              |                                                    |
#              |  Authors: M.Muhlleitner, A.Djouadi and Y.Mambrini  |
#              |  Ref.:    Comput.Phys.Commun.168(2005)46           |
#              |           [hep-ph/0311167]                         |
#              |                                                    |
#              |                     HDECAY 3.4                     |
#              |                                                    |
#              |  By: A.Djouadi,J.Kalinowski,M.Muhlleitner,M.Spira  |
#              |  Ref.:    Comput.Phys.Commun.108(1998)56           |
#              |           [hep-ph/9704448]                         |
#              |                                                    |
#              |                                                    |
#              |  If not stated otherwise all DRbar couplings and   |
#              |  soft SUSY breaking masses are given at the scale  |
#              |  Q=  0.91187600E+02
#              |                                                    |
#              ------------------------------------------------------
#
#
BLOCK DCINFO  # Decay Program information
     1   SDECAY/HDECAY # decay calculator
     2   1.3b  /3.4    # version number
#
BLOCK SPINFO  # Spectrum calculator information
     1   SuSpect     # RGE +Spectrum calculator            
     2   2.41         # version number                     
#
BLOCK MODSEL  # Model selection
     1     0   # #general MSSM low scale                           
#
BLOCK SMINPUTS  # Standard Model inputs
         1     1.27934000E+02   # alpha_em^-1(M_Z)^MSbar
         2     1.16639000E-05   # G_F [GeV^-2]
         3     1.17200000E-01   # alpha_S(M_Z)^MSbar
         4     9.11870000E+01   # M_Z pole mass
         5     4.25000000E+00   # mb(mb)^MSbar
         6     1.72500000E+02   # mt pole mass
         7     1.77700000E+00   # mtau pole mass
#
BLOCK MINPAR  # Input parameters - minimal models
#
BLOCK EXTPAR  # Input parameters - non-minimal models
         0     9.11876000E+01   # EWSB                
         1     1.49000000E+03   # M_1                 
         2     1.50000000E+03   # M_2                 
         3     1.00000000E+05   # M_3                 
        11     0.00000000E+00   # A_t                 
        12     0.00000000E+00   # A_b                 
        13     0.00000000E+00   # A_tau               
        14     0.00000000E+00   # A_u                 
        15     0.00000000E+00   # A_d                 
        16     0.00000000E+00   # A_e                 
        23     1.00000000E+05   # mu(EWSB)            
        25     1.50000000E+00   # tanbeta(in)         
        26     2.00000000E+03   # MA_pole             
        31     1.00000000E+05   # M_eL                
        32     1.00000000E+05   # M_muL               
        33     1.00000000E+05   # M_tauL              
        34     1.00000000E+05   # M_eR                
        35     1.00000000E+05   # M_muR               
        36     1.00000000E+05   # M_tauR              
        41     1.00000000E+05   # M_q1L               
        42     1.00000000E+05   # M_q2L               
        43     1.00000000E+05   # M_q3L               
        44     1.00000000E+05   # M_uR                
        45     1.00000000E+05   # M_cR                
        46     1.00000000E+05   # M_tR                
        47     1.00000000E+05   # M_dR                
        48     1.00000000E+05   # M_sR                
        49     1.00000000E+05   # M_bR                
#
BLOCK MASS  # Mass Spectrum
# PDG code           mass       particle
        24     8.06612400E+01   # W+
        25     1.25000000E+02   # h
        35     2.00922721E+03   # H
        36     2.00000000E+03   # A
        37     2.02349671E+03   # H+
         5     4.87877839E+00   # b-quark pole mass calculated from mb(mb)_Msbar
   1000001     1.00000007E+05   # ~d_L
   2000001     1.00000001E+05   # ~d_R
   1000002     9.99999947E+04   # ~u_L
   2000002     9.99999975E+04   # ~u_R
   1000003     1.00000007E+05   # ~s_L
   2000003     1.00000001E+05   # ~s_R
   1000004     9.99999947E+04   # ~c_L
   2000004     9.99999975E+04   # ~c_R
   1000005     9.99980812E+04   # ~b_1
   2000005     1.00001927E+05   # ~b_2
   1000006     9.99522635E+04   # ~t_1
   2000006     1.00047912E+05   # ~t_2
   1000011     1.00000004E+05   # ~e_L
   2000011     1.00000004E+05   # ~e_R
   1000012     9.99999922E+04   # ~nu_eL
   1000013     1.00000004E+05   # ~mu_L
   2000013     1.00000004E+05   # ~mu_R
   1000014     9.99999922E+04   # ~nu_muL
   1000015     9.99986763E+04   # ~tau_1
   2000015     1.00001332E+05   # ~tau_2
   1000016     9.99999922E+04   # ~nu_tauL
   1000021     1.00000000E+05   # ~g
   1000022     1.48998138E+03   # ~chi_10
   1000023     1.49994228E+03   # ~chi_20
   1000025    -1.00000003E+05   # ~chi_30
   1000035     1.00000079E+05   # ~chi_40
   1000024     1.49994217E+03   # ~chi_1+
   1000037     1.00000063E+05   # ~chi_2+
   1000039     1.17187500E-02   # ~gravitino
#
BLOCK NMIX  # Neutralino Mixing Matrix
  1  1     9.99994503E-01   # N_11
  1  2    -3.28468619E-03   # N_12
  1  3     3.75527405E-04   # N_13
  1  4    -2.53429678E-04   # N_14
  2  1     3.28504664E-03   # N_21
  2  2     9.99994288E-01   # N_22
  2  3    -6.58670578E-04   # N_23
  2  4     4.44548064E-04   # N_24
  3  1     8.58384460E-05   # N_31
  3  2    -1.51690192E-04   # N_32
  3  3    -7.07106716E-01   # N_33
  3  4    -7.07106825E-01   # N_34
  4  1     4.42175055E-04   # N_41
  4  2    -7.81550007E-04   # N_42
  4  3    -7.07106440E-01   # N_43
  4  4     7.07106552E-01   # N_44
#
BLOCK UMIX  # Chargino Mixing Matrix U
  1  1    -9.99999565E-01   # U_11
  1  2     9.33240304E-04   # U_12
  2  1     9.33240304E-04   # U_21
  2  2     9.99999565E-01   # U_22
#
BLOCK VMIX  # Chargino Mixing Matrix V
  1  1    -9.99999802E-01   # V_11
  1  2     6.29860126E-04   # V_12
  2  1     6.29860126E-04   # V_21
  2  2     9.99999802E-01   # V_22
#
BLOCK STOPMIX  # Stop Mixing Matrix
  1  1     7.07116998E-01   # cos(theta_t)
  1  2     7.07096564E-01   # sin(theta_t)
  2  1    -7.07096564E-01   # -sin(theta_t)
  2  2     7.07116998E-01   # cos(theta_t)
#
BLOCK SBOTMIX  # Sbottom Mixing Matrix
  1  1     7.06619895E-01   # cos(theta_b)
  1  2     7.07593332E-01   # sin(theta_b)
  2  1    -7.07593332E-01   # -sin(theta_b)
  2  2     7.06619895E-01   # cos(theta_b)
#
BLOCK STAUMIX  # Stau Mixing Matrix
  1  1     7.07075588E-01   # cos(theta_tau)
  1  2     7.07137973E-01   # sin(theta_tau)
  2  1    -7.07137973E-01   # -sin(theta_tau)
  2  2     7.07075588E-01   # cos(theta_tau)
#
BLOCK ALPHA  # Higgs mixing
          -6.32501980E-01   # Mixing angle in the neutral Higgs boson sector
#
BLOCK HMIX Q=  9.11876000E+01  # DRbar Higgs Parameters
         1     1.00000000E+05   # mu(Q)               
         2     1.49999983E+00   # tanbeta(Q)          
         3     2.54409198E+02   # vev(Q)              
         4    -2.98809335E+07   # MA^2(Q)             
#
BLOCK GAUGE Q=  9.11876000E+01  # The gauge couplings
     1     3.49163425E-01   # gprime(Q) DRbar
     2     6.17088126E-01   # g(Q) DRbar
     3     9.84784037E-01   # g3(Q) DRbar
#
BLOCK AU Q=  9.11876000E+01  # The trilinear couplings
  1  1     0.00000000E+00   # A_u(Q) DRbar
  2  2     0.00000000E+00   # A_c(Q) DRbar
  3  3     0.00000000E+00   # A_t(Q) DRbar
#
BLOCK AD Q=  9.11876000E+01  # The trilinear couplings
  1  1     0.00000000E+00   # A_d(Q) DRbar
  2  2     0.00000000E+00   # A_s(Q) DRbar
  3  3     0.00000000E+00   # A_b(Q) DRbar
#
BLOCK AE Q=  9.11876000E+01  # The trilinear couplings
  1  1     0.00000000E+00   # A_e(Q) DRbar
  2  2     0.00000000E+00   # A_mu(Q) DRbar
  3  3     0.00000000E+00   # A_tau(Q) DRbar
#
BLOCK Yu Q=  9.11876000E+01  # The Yukawa couplings
  1  1     0.00000000E+00   # y_u(Q) DRbar
  2  2     0.00000000E+00   # y_c(Q) DRbar
  3  3     9.58386242E-01   # y_t(Q) DRbar
#
BLOCK Yd Q=  9.11876000E+01  # The Yukawa couplings
  1  1     0.00000000E+00   # y_d(Q) DRbar
  2  2     0.00000000E+00   # y_s(Q) DRbar
  3  3     2.56876394E-02   # y_b(Q) DRbar
#
BLOCK Ye Q=  9.11876000E+01  # The Yukawa couplings
  1  1     0.00000000E+00   # y_e(Q) DRbar
  2  2     0.00000000E+00   # y_mu(Q) DRbar
  3  3     1.77371096E-02   # y_tau(Q) DRbar
#
BLOCK MSOFT Q=  9.11876000E+01  # The soft SUSY breaking masses at the scale Q
         1     1.49000000E+03   # M_1                 
         2     1.50000000E+03   # M_2                 
         3     1.00000000E+05   # M_3                 
        14     0.00000000E+00   # A_u                 
        15     0.00000000E+00   # A_d                 
        16     0.00000000E+00   # A_e                 
        21    -1.14006950E+10   # M^2_Hd              
        22    -1.34984180E+10   # M^2_Hu              
        31     1.00000000E+05   # M_eL                
        32     1.00000000E+05   # M_muL               
        33     1.00000000E+05   # M_tauL              
        34     1.00000000E+05   # M_eR                
        35     1.00000000E+05   # M_muR               
        36     1.00000000E+05   # M_tauR              
        41     1.00000000E+05   # M_q1L               
        42     1.00000000E+05   # M_q2L               
        43     1.00000000E+05   # M_q3L               
        44     1.00000000E+05   # M_uR                
        45     1.00000000E+05   # M_cR                
        46     1.00000000E+05   # M_tR                
        47     1.00000000E+05   # M_dR                
        48     1.00000000E+05   # M_sR                
        49     1.00000000E+05   # M_bR                
#
#
#
#                             =================
#                             |The decay table|
#                             =================
#
# - The QCD corrections to the decays gluino -> squark  + quark
#                                     squark -> gaugino + quark_prime
#                                     squark -> squark_prime + Higgs
#                                     squark -> gluino  + quark
#   are included.
#
# - The multi-body decays for the inos, stops and sbottoms are included.
#
# - The loop induced decays for the gluino, neutralinos and stops
#   are included.
#
# - The SUSY decays of the top quark are included.
#
# - Possible decays of the NLSP in GMSB models are included.
#
#
#         PDG            Width
DECAY         6     1.31111312E+00   # top decays
#          BR         NDA      ID1       ID2
     1.00000000E+00    2           5        24   # BR(t ->  b    W+)
#
#         PDG            Width
DECAY   1000021     1.E-04   # gluino decays (OJ Mods)
#          BR         NDA      ID1       ID2
     8.95001058E-02    2     1000002        -2   # BR(~g -> ~u_L  ub)
     8.95001058E-02    2    -1000002         2   # BR(~g -> ~u_L* u )
     1.99136945E-02    2     2000002        -2   # BR(~g -> ~u_R  ub)
     1.99136945E-02    2    -2000002         2   # BR(~g -> ~u_R* u )
     8.95001058E-02    2     1000004        -4   # BR(~g -> ~c_L  cb)
     8.95001058E-02    2    -1000004         4   # BR(~g -> ~c_L* c )
     1.99136945E-02    2     2000004        -4   # BR(~g -> ~c_R  cb)
     1.99136945E-02    2    -2000004         4   # BR(~g -> ~c_R* c )
     5.62344799E-01    2     1000039        21   # BR(~g -> ~G g)
#
#         PDG            Width
DECAY   1000006     6.57196619E+02   # stop1 decays
#          BR         NDA      ID1       ID2
     1.67311338E-01    2     1000022         6   # BR(~t_1 -> ~chi_10 t )
     2.77789562E-01    2     1000023         6   # BR(~t_1 -> ~chi_20 t )
     5.54899100E-01    2     1000024         5   # BR(~t_1 -> ~chi_1+ b )
#
#         PDG            Width
DECAY   2000006     6.55660372E+02   # stop2 decays
#          BR         NDA      ID1       ID2
     1.67644596E-01    2     1000022         6   # BR(~t_2 -> ~chi_10 t )
     2.77909316E-01    2     1000023         6   # BR(~t_2 -> ~chi_20 t )
     0.00000000E+00    2     1000025         6   # BR(~t_2 -> ~chi_30 t )
     5.55130271E-01    2     1000024         5   # BR(~t_2 -> ~chi_1+ b )
     1.02131809E-06    2     1000037         5   # BR(~t_2 -> ~chi_2+ b )
    -6.85203439E-04    2     1000006        23   # BR(~t_2 -> ~t_1    Z )
#
#         PDG            Width
DECAY   1000005     5.77579610E+02   # sbottom1 decays
#          BR         NDA      ID1       ID2
     5.65703036E-02    2     1000022         5   # BR(~b_1 -> ~chi_10 b )
     3.14215258E-01    2     1000023         5   # BR(~b_1 -> ~chi_20 b )
     6.29214439E-01    2    -1000024         6   # BR(~b_1 -> ~chi_1- t )
#
#         PDG            Width
DECAY   2000005     5.80081079E+02   # sbottom2 decays
#          BR         NDA      ID1       ID2
     5.61565315E-02    2     1000022         5   # BR(~b_2 -> ~chi_10 b )
     3.14353117E-01    2     1000023         5   # BR(~b_2 -> ~chi_20 b )
     6.29490352E-01    2    -1000024         6   # BR(~b_2 -> ~chi_1- t )
#
#         PDG            Width
DECAY   1000002     1.10596578E+03   # sup_L decays
#          BR         NDA      ID1       ID2
     1.13139994E-02    2     1000022         2   # BR(~u_L -> ~chi_10 u)
     3.29831806E-01    2     1000023         2   # BR(~u_L -> ~chi_20 u)
     6.58854195E-01    2     1000024         1   # BR(~u_L -> ~chi_1+ d)
#
#         PDG            Width
DECAY   2000002     2.07368456E+02   # sup_R decays
#          BR         NDA      ID1       ID2
     9.99989208E-01    2     1000022         2   # BR(~u_R -> ~chi_10 u)
     1.07915083E-05    2     1000023         2   # BR(~u_R -> ~chi_20 u)
#
#         PDG            Width
DECAY   1000001     1.10596533E+03   # sdown_L decays
#          BR         NDA      ID1       ID2
     1.21303466E-02    2     1000022         1   # BR(~d_L -> ~chi_10 d)
     3.29015508E-01    2     1000023         1   # BR(~d_L -> ~chi_20 d)
     5.05861972E-17    2     1000025         1   # BR(~d_L -> ~chi_30 d)
     6.58854146E-01    2    -1000024         2   # BR(~d_L -> ~chi_1- u)
     1.49083572E-13    2     1000021         1   # BR(~d_L -> ~g      d)
#
#         PDG            Width
DECAY   2000001     5.18421138E+01   # sdown_R decays
#          BR         NDA      ID1       ID2
     9.99989208E-01    2     1000022         1   # BR(~d_R -> ~chi_10 d)
     1.07915083E-05    2     1000023         1   # BR(~d_R -> ~chi_20 d)
     6.49071554E-14    2     1000021         1   # BR(~d_R -> ~g      d)
#
#         PDG            Width
DECAY   1000004     1.10596578E+03   # scharm_L decays
#          BR         NDA      ID1       ID2
     1.13139994E-02    2     1000022         4   # BR(~c_L -> ~chi_10 c)
     3.29831806E-01    2     1000023         4   # BR(~c_L -> ~chi_20 c)
     6.58854195E-01    2     1000024         3   # BR(~c_L -> ~chi_1+ s)
#
#         PDG            Width
DECAY   2000004     2.07368456E+02   # scharm_R decays
#          BR         NDA      ID1       ID2
     9.99989208E-01    2     1000022         4   # BR(~c_R -> ~chi_10 c)
     1.07915083E-05    2     1000023         4   # BR(~c_R -> ~chi_20 c)
#
#         PDG            Width
DECAY   1000003     1.10596533E+03   # sstrange_L decays
#          BR         NDA      ID1       ID2
     1.21303466E-02    2     1000022         3   # BR(~s_L -> ~chi_10 s)
     3.29015508E-01    2     1000023         3   # BR(~s_L -> ~chi_20 s)
     5.05861972E-17    2     1000025         3   # BR(~s_L -> ~chi_30 s)
     6.58854146E-01    2    -1000024         4   # BR(~s_L -> ~chi_1- c)
     1.49083572E-13    2     1000021         3   # BR(~s_L -> ~g      s)
#
#         PDG            Width
DECAY   2000003     5.18421138E+01   # sstrange_R decays
#          BR         NDA      ID1       ID2
     9.99989208E-01    2     1000022         3   # BR(~s_R -> ~chi_10 s)
     1.07915083E-05    2     1000023         3   # BR(~s_R -> ~chi_20 s)
     6.49071554E-14    2     1000021         3   # BR(~s_R -> ~g      s)
#
#         PDG            Width
DECAY   1000011     1.25706495E+03   # selectron_L decays
#          BR         NDA      ID1       ID2
     9.53115022E-02    2     1000022        11   # BR(~e_L -> ~chi_10 e-)
     3.02307857E-01    2     1000023        11   # BR(~e_L -> ~chi_20 e-)
     1.28170665E-24    2     1000025        11   # BR(~e_L -> ~chi_30 e-)
     6.02380641E-01    2    -1000024        12   # BR(~e_L -> ~chi_1- nu_e)
#
#         PDG            Width
DECAY   2000011     4.84869323E+02   # selectron_R decays
#          BR         NDA      ID1       ID2
     9.99989209E-01    2     1000022        11   # BR(~e_R -> ~chi_10 e-)
     1.07914693E-05    2     1000023        11   # BR(~e_R -> ~chi_20 e-)
     2.94860493E-24    2     1000025        11   # BR(~e_R -> ~chi_30 e-)
#
#         PDG            Width
DECAY   1000013     1.25706495E+03   # smuon_L decays
#          BR         NDA      ID1       ID2
     9.53115022E-02    2     1000022        13   # BR(~mu_L -> ~chi_10 mu-)
     3.02307857E-01    2     1000023        13   # BR(~mu_L -> ~chi_20 mu-)
     1.28170665E-24    2     1000025        13   # BR(~mu_L -> ~chi_30 mu-)
     6.02380641E-01    2    -1000024        14   # BR(~mu_L -> ~chi_1- nu_mu)
#
#         PDG            Width
DECAY   2000013     4.84869323E+02   # smuon_R decays
#          BR         NDA      ID1       ID2
     9.99989209E-01    2     1000022        13   # BR(~mu_R -> ~chi_10 mu-)
     1.07914693E-05    2     1000023        13   # BR(~mu_R -> ~chi_20 mu-)
     2.94860493E-24    2     1000025        13   # BR(~mu_R -> ~chi_30 mu-)
#
#         PDG            Width
DECAY   1000015     8.70955348E+02   # stau_1 decays
#          BR         NDA      ID1       ID2
     3.47152035E-01    2     1000022        15   # BR(~tau_1 -> ~chi_10  tau-)
     2.18155561E-01    2     1000023        15   # BR(~tau_1 -> ~chi_20  tau-)
     4.34692403E-01    2    -1000024        16   # BR(~tau_1 -> ~chi_1-  nu_tau)
     9.62496576E-14    2     1000039        15   # BR(~tau_1 -> ~G       tau-)
#
#         PDG            Width
DECAY   2000015     8.70978931E+02   # stau_2 decays
#          BR         NDA      ID1       ID2
     3.47107039E-01    2     1000022        15   # BR(~tau_2 -> ~chi_10  tau-)
     2.18170711E-01    2     1000023        15   # BR(~tau_2 -> ~chi_20  tau-)
     4.34722250E-01    2    -1000024        16   # BR(~tau_2 -> ~chi_1-  nu_tau)
     2.46687537E-13    2    -1000037        16   # BR(~tau_2 -> ~chi_2-  nu_tau)
#
#         PDG            Width
DECAY   1000012     1.25706487E+03   # snu_eL decays
#          BR         NDA      ID1       ID2
     9.75506152E-02    2     1000022        12   # BR(~nu_eL -> ~chi_10 nu_e)
     3.00068491E-01    2     1000023        12   # BR(~nu_eL -> ~chi_20 nu_e)
     6.02380894E-01    2     1000024        11   # BR(~nu_eL -> ~chi_1+ e-)
#
#         PDG            Width
DECAY   1000014     1.25706487E+03   # snu_muL decays
#          BR         NDA      ID1       ID2
     9.75506152E-02    2     1000022        14   # BR(~nu_muL -> ~chi_10 nu_mu)
     3.00068491E-01    2     1000023        14   # BR(~nu_muL -> ~chi_20 nu_mu)
     6.02380894E-01    2     1000024        13   # BR(~nu_muL -> ~chi_1+ mu-)
#
#         PDG            Width
DECAY   1000016     1.25706487E+03   # snu_tauL decays
#          BR         NDA      ID1       ID2
     9.75506152E-02    2     1000022        16   # BR(~nu_tauL -> ~chi_10 nu_tau)
     3.00068491E-01    2     1000023        16   # BR(~nu_tauL -> ~chi_20 nu_tau)
     6.02380894E-01    2     1000024        15   # BR(~nu_tauL -> ~chi_1+ tau-)
#
#         PDG            Width
DECAY   1000024     4.30870797E-12   # chargino1+ decays
#          BR         NDA      ID1       ID2
     1.46111695E-08    2     1000039        24   # BR(~chi_1+ -> ~G       W+)
#           BR         NDA      ID1       ID2       ID3
     3.38705566E-01    3     1000022         2        -1   # BR(~chi_1+ -> ~chi_10 u    db)
     3.38705566E-01    3     1000022         4        -3   # BR(~chi_1+ -> ~chi_10 c    sb)
     1.12901855E-01    3     1000022       -11        12   # BR(~chi_1+ -> ~chi_10 e+   nu_e)
     1.12901855E-01    3     1000022       -13        14   # BR(~chi_1+ -> ~chi_10 mu+  nu_mu)
     9.67851420E-02    3     1000022       -15        16   # BR(~chi_1+ -> ~chi_10 tau+ nu_tau)
#
#         PDG            Width
DECAY   1000037     1.23941382E+03   # chargino2+ decays
#          BR         NDA      ID1       ID2
     3.25494181E-14    2     1000002        -1   # BR(~chi_2+ -> ~u_L     db)
     5.85877570E-14    2    -1000001         2   # BR(~chi_2+ -> ~d_L*    u )
     3.25494181E-14    2     1000004        -3   # BR(~chi_2+ -> ~c_L     sb)
     5.85877570E-14    2    -1000003         4   # BR(~chi_2+ -> ~s_L*    c )
     1.13497199E-06    2     1000006        -5   # BR(~chi_2+ -> ~t_1     bb)
     2.43104138E-19    2     1000012       -11   # BR(~chi_2+ -> ~nu_eL   e+  )
     2.43104138E-19    2     1000014       -13   # BR(~chi_2+ -> ~nu_muL  mu+ )
     3.70619829E-19    2    -1000011        12   # BR(~chi_2+ -> ~e_L+    nu_e)
     3.70619829E-19    2    -1000013        14   # BR(~chi_2+ -> ~mu_L+   nu_mu)
     9.09094983E-14    2    -1000015        16   # BR(~chi_2+ -> ~tau_1+  nu_tau)
     1.53669786E-01    2     1000024        23   # BR(~chi_2+ -> ~chi_1+  Z )
     4.70675589E-02    2     1000022        24   # BR(~chi_2+ -> ~chi_10  W+)
     1.49316297E-01    2     1000023        24   # BR(~chi_2+ -> ~chi_20  W+)
     1.57178410E-01    2     1000024        25   # BR(~chi_2+ -> ~chi_1+  h )
     1.48316753E-01    2     1000024        35   # BR(~chi_2+ -> ~chi_1+  H )
     1.48457413E-01    2     1000024        36   # BR(~chi_2+ -> ~chi_1+  A )
     4.69869298E-02    2     1000022        37   # BR(~chi_2+ -> ~chi_10  H+)
     1.49005718E-01    2     1000023        37   # BR(~chi_2+ -> ~chi_20  H+)
     3.38203510E-14    2     1000039        24   # BR(~chi_2+ -> ~G       W+)
     3.37650278E-14    2     1000039        37   # BR(~chi_2+ -> ~G       H+)
#
#         PDG            Width
DECAY   1000022     1.E-08   # neutralino1 decays (OJ Mods)
#          BR         NDA      ID1       ID2
     7.57432748E-01    2     1000039        22   # BR(~chi_10 -> ~G        gam)
     2.42567252E-01    2     1000039        23   # BR(~chi_10 -> ~G        Z)
     1.51024364E-10    2     1000039        25   # BR(~chi_10 -> ~G        h)
#
#         PDG            Width
DECAY   1000023     1.E-08   # neutralino2 decays (OJ Mods)
#          BR         NDA      ID1       ID2
     1.96935673E-02    2     1000022        22   # BR(~chi_20 -> ~chi_10 gam)
#          BR         NDA      ID1       ID2
     2.59665472E-02    2     1000039        22   # BR(~chi_20 -> ~G        gam)
     7.86999918E-02    2     1000039        23   # BR(~chi_20 -> ~G        Z)
     4.89239470E-11    2     1000039        25   # BR(~chi_20 -> ~G        h)
#           BR         NDA      ID1       ID2       ID3
     4.05794847E-03    3     1000022        -2         2   # BR(~chi_20 -> ~chi_10 ub      u)
     4.94202227E-03    3     1000022        -1         1   # BR(~chi_20 -> ~chi_10 db      d)
     4.05794847E-03    3     1000022        -4         4   # BR(~chi_20 -> ~chi_10 cb      c)
     4.94202227E-03    3     1000022        -3         3   # BR(~chi_20 -> ~chi_10 sb      s)
     4.27139164E-04    3     1000022        -5         5   # BR(~chi_20 -> ~chi_10 bb      b)
     2.53857645E-03    3     1000022       -11        11   # BR(~chi_20 -> ~chi_10 e+      e-)
     2.53857645E-03    3     1000022       -13        13   # BR(~chi_20 -> ~chi_10 mu+     mu-)
     8.47722875E-01    3     1000022       -15        15   # BR(~chi_20 -> ~chi_10 tau+    tau-)
     1.47092849E-03    3     1000022       -12        12   # BR(~chi_20 -> ~chi_10 nu_eb   nu_e)
     1.47092849E-03    3     1000022       -14        14   # BR(~chi_20 -> ~chi_10 nu_mub  nu_mu)
     1.47092849E-03    3     1000022       -16        16   # BR(~chi_20 -> ~chi_10 nu_taub nu_tau)
     3.70196422E-14    3     1000024        -2         1   # BR(~chi_20 -> ~chi_1+ ub      d)
     3.70196422E-14    3    -1000024        -1         2   # BR(~chi_20 -> ~chi_1- db      u)
     3.70196422E-14    3     1000024        -4         3   # BR(~chi_20 -> ~chi_1+ cb      s)
     3.70196422E-14    3    -1000024        -3         4   # BR(~chi_20 -> ~chi_1- sb      c)
     1.23398807E-14    3     1000024       -12        11   # BR(~chi_20 -> ~chi_1+ nu_eb   e-)
     1.23398807E-14    3    -1000024        12       -11   # BR(~chi_20 -> ~chi_1- nu_e    e+)
     1.23398807E-14    3     1000024       -14        13   # BR(~chi_20 -> ~chi_1+ nu_mub  mu-)
     1.23398807E-14    3    -1000024        14       -13   # BR(~chi_20 -> ~chi_1- nu_mu   mu+)
#
#         PDG            Width
DECAY   1000025     1.23129684E+03   # neutralino3 decays
#          BR         NDA      ID1       ID2
     4.82707731E-02    2     1000022        23   # BR(~chi_30 -> ~chi_10   Z )
     1.48511995E-01    2     1000023        23   # BR(~chi_30 -> ~chi_20   Z )
     1.49744922E-01    2     1000024       -24   # BR(~chi_30 -> ~chi_1+   W-)
     1.49744922E-01    2    -1000024        24   # BR(~chi_30 -> ~chi_1-   W+)
     1.12113669E-03    2     1000022        25   # BR(~chi_30 -> ~chi_10   h )
     4.71740924E-02    2     1000022        35   # BR(~chi_30 -> ~chi_10   H )
     1.97160802E-03    2     1000022        36   # BR(~chi_30 -> ~chi_10   A )
     3.44796149E-03    2     1000023        25   # BR(~chi_30 -> ~chi_20   h )
     1.45079937E-01    2     1000023        35   # BR(~chi_30 -> ~chi_20   H )
     6.06593188E-03    2     1000023        36   # BR(~chi_30 -> ~chi_20   A )
     1.49433360E-01    2     1000024       -37   # BR(~chi_30 -> ~chi_1+   H-)
     1.49433360E-01    2    -1000024        37   # BR(~chi_30 -> ~chi_1-   H+)
     1.84261270E-16    2     1000002        -2   # BR(~chi_30 -> ~u_L      ub)
     1.84261270E-16    2    -1000002         2   # BR(~chi_30 -> ~u_L*     u )
     2.78895550E-17    2     2000002        -2   # BR(~chi_30 -> ~u_R      ub)
     2.78895550E-17    2    -2000002         2   # BR(~chi_30 -> ~u_R*     u )
     2.53541002E-18    2     2000001        -1   # BR(~chi_30 -> ~d_R      db)
     2.53541002E-18    2    -2000001         1   # BR(~chi_30 -> ~d_R*     d )
     1.84261270E-16    2     1000004        -4   # BR(~chi_30 -> ~c_L      cb)
     1.84261270E-16    2    -1000004         4   # BR(~chi_30 -> ~c_L*     c )
     2.78895550E-17    2     2000004        -4   # BR(~chi_30 -> ~c_R      cb)
     2.78895550E-17    2    -2000004         4   # BR(~chi_30 -> ~c_R*     c )
     2.53541002E-18    2     2000003        -3   # BR(~chi_30 -> ~s_R      sb)
     2.53541002E-18    2    -2000003         3   # BR(~chi_30 -> ~s_R*     s )
     2.87803577E-22    2     1000012       -12   # BR(~chi_30 -> ~nu_eL    nu_eb)
     2.87803577E-22    2    -1000012        12   # BR(~chi_30 -> ~nu_eL*   nu_e )
     2.87803577E-22    2     1000014       -14   # BR(~chi_30 -> ~nu_muL   nu_mub)
     2.87803577E-22    2    -1000014        14   # BR(~chi_30 -> ~nu_muL*  nu_mu )
     2.87803577E-22    2     1000016       -16   # BR(~chi_30 -> ~nu_tau1  nu_taub)
     2.87803577E-22    2    -1000016        16   # BR(~chi_30 -> ~nu_tau1* nu_tau )
     3.68878201E-30    2     1000039        22   # BR(~chi_30 -> ~G        gam)
     1.30935413E-15    2     1000039        23   # BR(~chi_30 -> ~G        Z)
     3.32533960E-14    2     1000039        25   # BR(~chi_30 -> ~G        h)
     7.88380171E-16    2     1000039        35   # BR(~chi_30 -> ~G        H)
     3.26815591E-14    2     1000039        36   # BR(~chi_30 -> ~G        A)
#
#         PDG            Width
DECAY   1000035     1.23641645E+03   # neutralino4 decays
#          BR         NDA      ID1       ID2
     1.81157265E-03    2     1000022        23   # BR(~chi_40 -> ~chi_10   Z )
     5.57136207E-03    2     1000023        23   # BR(~chi_40 -> ~chi_20   Z )
     1.49124989E-01    2     1000024       -24   # BR(~chi_40 -> ~chi_1+   W-)
     1.49124989E-01    2    -1000024        24   # BR(~chi_40 -> ~chi_1-   W+)
     4.99046833E-02    2     1000022        25   # BR(~chi_40 -> ~chi_10   h )
     1.18411645E-03    2     1000022        35   # BR(~chi_40 -> ~chi_10   H )
     4.62448325E-02    2     1000022        36   # BR(~chi_40 -> ~chi_10   A )
     1.53538829E-01    2     1000023        25   # BR(~chi_40 -> ~chi_20   h )
     3.64310231E-03    2     1000023        35   # BR(~chi_40 -> ~chi_20   H )
     1.42222077E-01    2     1000023        36   # BR(~chi_40 -> ~chi_20   A )
     1.48814724E-01    2     1000024       -37   # BR(~chi_40 -> ~chi_1+   H-)
     1.48814724E-01    2    -1000024        37   # BR(~chi_40 -> ~chi_1-   H+)
     4.94778951E-14    2     1000002        -2   # BR(~chi_40 -> ~u_L      ub)
     4.94778951E-14    2    -1000002         2   # BR(~chi_40 -> ~u_L*     u )
     1.09211835E-14    2     2000002        -2   # BR(~chi_40 -> ~u_R      ub)
     1.09211835E-14    2    -2000002         2   # BR(~chi_40 -> ~u_R*     u )
     6.48625619E-14    2     1000001        -1   # BR(~chi_40 -> ~d_L      db)
     6.48625619E-14    2    -1000001         1   # BR(~chi_40 -> ~d_L*     d )
     2.61304120E-15    2     2000001        -1   # BR(~chi_40 -> ~d_R      db)
     2.61304120E-15    2    -2000001         1   # BR(~chi_40 -> ~d_R*     d )
     4.94778951E-14    2     1000004        -4   # BR(~chi_40 -> ~c_L      cb)
     4.94778951E-14    2    -1000004         4   # BR(~chi_40 -> ~c_L*     c )
     1.09211835E-14    2     2000004        -4   # BR(~chi_40 -> ~c_R      cb)
     1.09211835E-14    2    -2000004         4   # BR(~chi_40 -> ~c_R*     c )
     6.48625619E-14    2     1000003        -3   # BR(~chi_40 -> ~s_L      sb)
     6.48625619E-14    2    -1000003         3   # BR(~chi_40 -> ~s_L*     s )
     2.61304120E-15    2     2000003        -3   # BR(~chi_40 -> ~s_R      sb)
     2.61304120E-15    2    -2000003         3   # BR(~chi_40 -> ~s_R*     s )
     9.73091842E-20    2     1000011       -11   # BR(~chi_40 -> ~e_L-     e+)
     9.73091842E-20    2    -1000011        11   # BR(~chi_40 -> ~e_L+     e-)
     8.62965011E-20    2     2000011       -11   # BR(~chi_40 -> ~e_R-     e+)
     8.62965011E-20    2    -2000011        11   # BR(~chi_40 -> ~e_R+     e-)
     9.73091842E-20    2     1000013       -13   # BR(~chi_40 -> ~mu_L-    mu+)
     9.73091842E-20    2    -1000013        13   # BR(~chi_40 -> ~mu_L+    mu-)
     8.62965011E-20    2     2000013       -13   # BR(~chi_40 -> ~mu_R-    mu+)
     8.62965011E-20    2    -2000013        13   # BR(~chi_40 -> ~mu_R+    mu-)
     4.91407589E-19    2     1000012       -12   # BR(~chi_40 -> ~nu_eL    nu_eb)
     4.91407589E-19    2    -1000012        12   # BR(~chi_40 -> ~nu_eL*   nu_e )
     4.91407589E-19    2     1000014       -14   # BR(~chi_40 -> ~nu_muL   nu_mub)
     4.91407589E-19    2    -1000014        14   # BR(~chi_40 -> ~nu_muL*  nu_mu )
     4.91407589E-19    2     1000016       -16   # BR(~chi_40 -> ~nu_tau1  nu_taub)
     4.91407589E-19    2    -1000016        16   # BR(~chi_40 -> ~nu_tau1* nu_tau )
     1.03499420E-28    2     1000039        22   # BR(~chi_40 -> ~G        gam)
     3.25984080E-14    2     1000039        23   # BR(~chi_40 -> ~G        Z)
     7.86383879E-16    2     1000039        25   # BR(~chi_40 -> ~G        h)
     3.30625665E-14    2     1000039        35   # BR(~chi_40 -> ~G        H)
     1.30185164E-15    2     1000039        36   # BR(~chi_40 -> ~G        A)
#
#
#
#
