#
#                              ======================
#                              | THE SUSYHIT OUTPUT |
#                              ======================
#
#
#              ------------------------------------------------------
#              |     This is the output of the SUSY-HIT package     |
#              |  created by A.Djouadi, M.Muehlleitner and M.Spira. |
#              |  In case of problems with SUSY-HIT email to        |
#              |           margarete.muehlleitner@cern.ch           |
#              |           michael.spira@psi.ch                     |
#              |           abdelhak.djouadi@cern.ch                 |
#              ------------------------------------------------------
#
#              ------------------------------------------------------
#              |  SUSY Les Houches Accord - MSSM Spectrum + Decays  |
#              |              based on the decay programs           |
#              |                                                    |
#              |                     SDECAY 1.3b                    |
#              |                                                    |
#              |  Authors: M.Muhlleitner, A.Djouadi and Y.Mambrini  |
#              |  Ref.:    Comput.Phys.Commun.168(2005)46           |
#              |           [hep-ph/0311167]                         |
#              |                                                    |
#              |                     HDECAY 3.4                     |
#              |                                                    |
#              |  By: A.Djouadi,J.Kalinowski,M.Muhlleitner,M.Spira  |
#              |  Ref.:    Comput.Phys.Commun.108(1998)56           |
#              |           [hep-ph/9704448]                         |
#              |                                                    |
#              |                                                    |
#              |  If not stated otherwise all DRbar couplings and   |
#              |  soft SUSY breaking masses are given at the scale  |
#              |  Q=  0.50007192E+04
#              |                                                    |
#              ------------------------------------------------------
#
#
BLOCK DCINFO  # Decay Program information
     1   SDECAY/HDECAY # decay calculator
     2   1.3b  /3.4    # version number
#
BLOCK SPINFO  # Spectrum calculator information
     1    SOFTSUSY    # spectrum calculator                
     2    3.4.0       # version number                     
#
BLOCK MODSEL  # Model selection
     1     0   #  nonUniversal                                     
#
BLOCK SMINPUTS  # Standard Model inputs
         1     1.25778332E+02   # alpha_em^-1(M_Z)^MSbar
         2     1.16570000E-05   # G_F [GeV^-2]
         3     1.17200002E-01   # alpha_S(M_Z)^MSbar
         4     9.11876000E+01   # M_Z pole mass
         5     4.25000000E+00   # mb(mb)^MSbar
         6     1.72500000E+02   # mt pole mass
         7     1.77682000E+00   # mtau pole mass
#
BLOCK MINPAR  # Input parameters - minimal models
         3     1.00000000E+01   # tanb                
#
BLOCK EXTPAR  # Input parameters - non-minimal models
         0    -1.00000000E+00   # Set                 
         1     6.00000000E+01   # M_1(MX)             
         2     3.00000000E+03   # M_2(MX)             
         3     1.66797400E+03   # M_3(MX)             
        11     5.00000000E+03   # At(MX)              
        12     5.00000000E+03   # Ab(MX)              
        13     0.00000000E+00   # Atau(MX)            
        23    -1.44662900E+03   # mu(MX)              
        26     3.00000000E+03   # mA(pole)            
        31     5.00000000E+03   # meL(MX)             
        32     5.00000000E+03   # mmuL(MX)            
        33     5.00000000E+03   # mtauL(MX)           
        34     5.00000000E+03   # meR(MX)             
        35     5.00000000E+03   # mmuR(MX)            
        36     5.00000000E+03   # mtauR(MX)           
        41     5.00000000E+03   # mqL1(MX)            
        42     5.00000000E+03   # mqL2(MX)            
        43     5.00000000E+03   # mqL3(MX)            
        44     5.00000000E+03   # muR(MX)             
        45     5.00000000E+03   # mcR(MX)             
        46     5.00000000E+03   # mtR(MX)             
        47     5.00000000E+03   # mdR(MX)             
        48     5.00000000E+03   # msR(MX)             
        49     5.00000000E+03   # mbR(MX)             
#
BLOCK MASS  # Mass Spectrum
# PDG code           mass       particle
        24     8.00964272E+01   # W+
        25     1.24772240E+02   # h
        35     3.00008791E+03   # H
        36     2.99999994E+03   # A
        37     3.00087769E+03   # H+
         5     4.87878001E+00   # b-quark pole mass calculated from mb(mb)_Msbar
   1000001     5.07188447E+03   # ~d_L
   2000001     5.05410686E+03   # ~d_R
   1000002     5.07141081E+03   # ~u_L
   2000002     5.05383170E+03   # ~u_R
   1000003     5.07188447E+03   # ~s_L
   2000003     5.05410686E+03   # ~s_R
   1000004     5.07141081E+03   # ~c_L
   2000004     5.05383170E+03   # ~c_R
   1000005     5.01789075E+03   # ~b_1
   2000005     5.05295848E+03   # ~b_2
   1000006     4.90927508E+03   # ~t_1
   2000006     5.06392393E+03   # ~t_2
   1000011     5.01904908E+03   # ~e_L
   2000011     5.00591078E+03   # ~e_R
   1000012     5.01810107E+03   # ~nu_eL
   1000013     5.01904908E+03   # ~mu_L
   2000013     5.00591078E+03   # ~mu_R
   1000014     5.01810107E+03   # ~nu_muL
   1000015     5.00437072E+03   # ~tau_1
   2000015     5.01900343E+03   # ~tau_2
   1000016     5.01756215E+03   # ~nu_tauL
   1000021     2.00000005E+03   # ~g
   1000022     6.03030021E+01   # ~chi_10
   1000023     1.49944793E+03   # ~chi_20
   1000025    -1.50189567E+03   # ~chi_30
   1000035     3.07432967E+03   # ~chi_40
   1000024     1.49999999E+03   # ~chi_1+
   1000037     3.07449715E+03   # ~chi_2+
#
BLOCK NMIX  # Neutralino Mixing Matrix
  1  1     9.99556252E-01   # N_11
  1  2     1.39909217E-04   # N_12
  1  3    -2.97253928E-02   # N_13
  1  4     1.91862340E-03   # N_14
  2  1     1.96619559E-02   # N_21
  2  2     3.08967583E-02   # N_22
  2  3     7.06897519E-01   # N_23
  2  4     7.06367252E-01   # N_24
  3  1    -2.23719448E-02   # N_31
  3  2     1.32651487E-02   # N_32
  3  3    -7.06581047E-01   # N_33
  3  4     7.07153983E-01   # N_34
  4  1    -4.50825580E-04   # N_41
  4  2     9.99434543E-01   # N_42
  4  3    -1.24708320E-02   # N_43
  4  4    -3.12228846E-02   # N_44
#
BLOCK UMIX  # Chargino Mixing Matrix U
  1  1     1.76458283E-02   # U_11
  1  2     9.99844300E-01   # U_12
  2  1    -9.99844300E-01   # U_21
  2  2     1.76458283E-02   # U_22
#
BLOCK VMIX  # Chargino Mixing Matrix V
  1  1     4.41748389E-02   # V_11
  1  2    -9.99023815E-01   # V_12
  2  1    -9.99023815E-01   # V_21
  2  2    -4.41748389E-02   # V_22
#
BLOCK STOPMIX  # Stop Mixing Matrix
  1  1    -5.10963429E-01   # cos(theta_t)
  1  2     8.59602451E-01   # sin(theta_t)
  2  1    -8.59602451E-01   # -sin(theta_t)
  2  2    -5.10963429E-01   # cos(theta_t)
#
BLOCK SBOTMIX  # Sbottom Mixing Matrix
  1  1     9.94513750E-01   # cos(theta_b)
  1  2    -1.04605932E-01   # sin(theta_b)
  2  1     1.04605932E-01   # -sin(theta_b)
  2  2     9.94513750E-01   # cos(theta_b)
#
BLOCK STAUMIX  # Stau Mixing Matrix
  1  1    -1.68196440E-01   # cos(theta_tau)
  1  2     9.85753497E-01   # sin(theta_tau)
  2  1    -9.85753497E-01   # -sin(theta_tau)
  2  2    -1.68196440E-01   # cos(theta_tau)
#
BLOCK ALPHA  # Higgs mixing
          -1.05464429E-01   # Mixing angle in the neutral Higgs boson sector
#
BLOCK HMIX Q=  5.00071916E+03  # DRbar Higgs Parameters
         1    -1.47314747E+03   # mu(Q)MSSM           
         2     9.47033506E+00   # tan                 
         3     2.41957395E+02   # higgs               
         4     8.40120439E+06   # mA^2(Q)MSSM         
#
BLOCK GAUGE Q=  5.00071916E+03  # The gauge couplings
     1     3.70702761E-01   # gprime(Q) DRbar
     2     6.32093576E-01   # g(Q) DRbar
     3     9.98498264E-01   # g3(Q) DRbar
#
BLOCK AU Q=  5.00071916E+03  # The trilinear couplings
  1  1     5.00000001E+03   # A_u(Q) DRbar
  2  2     5.00000001E+03   # A_c(Q) DRbar
  3  3     5.00000002E+03   # A_t(Q) DRbar
#
BLOCK AD Q=  5.00071916E+03  # The trilinear couplings
  1  1     5.00000001E+03   # A_d(Q) DRbar
  2  2     5.00000001E+03   # A_s(Q) DRbar
  3  3     5.00000001E+03   # A_b(Q) DRbar
#
BLOCK AE Q=  5.00071916E+03  # The trilinear couplings
  1  1     0.00000000E+00   # A_e(Q) DRbar
  2  2     1.76595307E-07   # A_mu(Q) DRbar
  3  3     1.76237072E-07   # A_tau(Q) DRbar
#
BLOCK Yu Q=  5.00071916E+03  # The Yukawa couplings
  1  1     0.00000000E+00   # y_u(Q) DRbar
  2  2     0.00000000E+00   # y_c(Q) DRbar
  3  3     8.19586447E-01   # y_t(Q) DRbar
#
BLOCK Yd Q=  5.00071916E+03  # The Yukawa couplings
  1  1     0.00000000E+00   # y_d(Q) DRbar
  2  2     0.00000000E+00   # y_s(Q) DRbar
  3  3     1.31271644E-01   # y_b(Q) DRbar
#
BLOCK Ye Q=  5.00071916E+03  # The Yukawa couplings
  1  1     0.00000000E+00   # y_e(Q) DRbar
  2  2     0.00000000E+00   # y_mu(Q) DRbar
  3  3     9.66306650E-02   # y_tau(Q) DRbar
#
BLOCK MSOFT Q=  5.00071916E+03  # The soft SUSY breaking masses at the scale Q
         1     6.00000000E+01   # M_1(Q)              
         2     3.00000000E+03   # M_2(Q)              
         3     1.66797400E+03   # M_3(Q)              
        21     6.49979884E+06   # mH1^2(Q)            
        22    -1.62163200E+06   # mH2^2(Q)            
        31     5.00000000E+03   # meL(Q)              
        32     5.00000000E+03   # mmuL(Q)             
        33     5.00000000E+03   # mtauL(Q)            
        34     5.00000000E+03   # meR(Q)              
        35     5.00000000E+03   # mmuR(Q)             
        36     5.00000000E+03   # mtauR(Q)            
        41     5.00000000E+03   # mqL1(Q)             
        42     5.00000000E+03   # mqL2(Q)             
        43     5.00000000E+03   # mqL3(Q)             
        44     5.00000000E+03   # muR(Q)              
        45     5.00000000E+03   # mcR(Q)              
        46     4.99999999E+03   # mtR(Q)              
        47     5.00000000E+03   # mdR(Q)              
        48     5.00000000E+03   # msR(Q)              
        49     5.00000000E+03   # mbR(Q)              
#
#
#
#                             =================
#                             |The decay table|
#                             =================
#
# - The QCD corrections to the decays gluino -> squark  + quark
#                                     squark -> gaugino + quark_prime
#                                     squark -> squark_prime + Higgs
#                                     squark -> gluino  + quark
#   are included.
#
# - The multi-body decays for the inos, stops and sbottoms are included.
#
# - The loop induced decays for the gluino, neutralinos and stops
#   are included.
#
# - The SUSY decays of the top quark are included.
#
#
#         PDG            Width
DECAY         6     1.40006945E+00   # top decays
#          BR         NDA      ID1       ID2
     1.00000000E+00    2           5        24   # BR(t ->  b    W+)
#
#         PDG            Width
DECAY   1000021     3.19767790E-04   # gluino decays
#          BR         NDA      ID1       ID2
     8.02556517E-06    2     1000022        21   # BR(~g -> ~chi_10 g)
     4.45281740E-03    2     1000023        21   # BR(~g -> ~chi_20 g)
     4.41309075E-03    2     1000025        21   # BR(~g -> ~chi_30 g)
#           BR         NDA      ID1       ID2       ID3
     7.31016925E-02    3     1000022         1        -1   # BR(~g -> ~chi_10 d  db)
     4.02143939E-06    3     1000023         1        -1   # BR(~g -> ~chi_20 d  db)
     6.62063772E-07    3     1000025         1        -1   # BR(~g -> ~chi_30 d  db)
     2.49221805E-01    3     1000022         2        -2   # BR(~g -> ~chi_10 u  ub)
     7.35139765E-06    3     1000023         2        -2   # BR(~g -> ~chi_20 u  ub)
     6.64250403E-07    3     1000025         2        -2   # BR(~g -> ~chi_30 u  ub)
     7.31016925E-02    3     1000022         3        -3   # BR(~g -> ~chi_10 s  sb)
     4.02143939E-06    3     1000023         3        -3   # BR(~g -> ~chi_20 s  sb)
     6.62063772E-07    3     1000025         3        -3   # BR(~g -> ~chi_30 s  sb)
     2.49221805E-01    3     1000022         4        -4   # BR(~g -> ~chi_10 c  cb)
     7.35139765E-06    3     1000023         4        -4   # BR(~g -> ~chi_20 c  cb)
     6.64250403E-07    3     1000025         4        -4   # BR(~g -> ~chi_30 c  cb)
     7.40033269E-02    3     1000022         5        -5   # BR(~g -> ~chi_10 b  bb)
     4.61313543E-04    3     1000023         5        -5   # BR(~g -> ~chi_20 b  bb)
     4.44431315E-04    3     1000025         5        -5   # BR(~g -> ~chi_30 b  bb)
     2.41738516E-01    3     1000022         6        -6   # BR(~g -> ~chi_10 t  tb)
     5.88026756E-03    3     1000023         6        -6   # BR(~g -> ~chi_20 t  tb)
     2.85172840E-03    3     1000025         6        -6   # BR(~g -> ~chi_30 t  tb)
     1.02689531E-05    3     1000024         1        -2   # BR(~g -> ~chi_1+ d  ub)
     1.02689531E-05    3    -1000024         2        -1   # BR(~g -> ~chi_1- u  db)
     1.02689531E-05    3     1000024         3        -4   # BR(~g -> ~chi_1+ s  cb)
     1.02689531E-05    3    -1000024         4        -3   # BR(~g -> ~chi_1- c  sb)
     1.05165067E-02    3     1000024         5        -6   # BR(~g -> ~chi_1+ b  tb)
     1.05165067E-02    3    -1000024         6        -5   # BR(~g -> ~chi_1- t  bb)
#
#         PDG            Width
DECAY   1000006     3.30039408E+02   # stop1 decays
#          BR         NDA      ID1       ID2
     2.66954794E-02    2     1000022         6   # BR(~t_1 -> ~chi_10 t )
     8.22316586E-02    2     1000023         6   # BR(~t_1 -> ~chi_20 t )
     7.90256789E-02    2     1000025         6   # BR(~t_1 -> ~chi_30 t )
     6.53528172E-03    2     1000035         6   # BR(~t_1 -> ~chi_40 t )
     1.18710951E-01    2     1000024         5   # BR(~t_1 -> ~chi_1+ b )
     1.29990046E-02    2     1000037         5   # BR(~t_1 -> ~chi_2+ b )
     6.73801946E-01    2     1000021         6   # BR(~t_1 -> ~g      t )
#
#         PDG            Width
DECAY   2000006     3.40953932E+02   # stop2 decays
#          BR         NDA      ID1       ID2
     1.03662438E-02    2     1000022         6   # BR(~t_2 -> ~chi_10 t )
     8.24920973E-02    2     1000023         6   # BR(~t_2 -> ~chi_20 t )
     8.58619272E-02    2     1000025         6   # BR(~t_2 -> ~chi_30 t )
     1.60587530E-02    2     1000035         6   # BR(~t_2 -> ~chi_40 t )
     5.02547650E-02    2     1000024         5   # BR(~t_2 -> ~chi_1+ b )
     3.18877866E-02    2     1000037         5   # BR(~t_2 -> ~chi_2+ b )
     7.19300759E-01    2     1000021         6   # BR(~t_2 -> ~g      t )
     8.37953769E-04    2     1000006        25   # BR(~t_2 -> ~t_1    h )
     2.93971397E-03    2     1000006        23   # BR(~t_2 -> ~t_1    Z )
#
#         PDG            Width
DECAY   1000005     3.17212906E+02   # sbottom1 decays
#          BR         NDA      ID1       ID2
     2.46285787E-03    2     1000022         5   # BR(~b_1 -> ~chi_10 b )
     2.33918361E-03    2     1000023         5   # BR(~b_1 -> ~chi_20 b )
     2.21465004E-03    2     1000025         5   # BR(~b_1 -> ~chi_30 b )
     2.35984906E-02    2     1000035         5   # BR(~b_1 -> ~chi_40 b )
     1.73817053E-01    2    -1000024         6   # BR(~b_1 -> ~chi_1- t )
     4.75029669E-02    2    -1000037         6   # BR(~b_1 -> ~chi_2- t )
     7.46328405E-01    2     1000021         5   # BR(~b_1 -> ~g      b )
     1.73639328E-03    2     1000006       -24   # BR(~b_1 -> ~t_1    W-)
#
#         PDG            Width
DECAY   2000005     2.46117806E+02   # sbottom2 decays
#          BR         NDA      ID1       ID2
     1.18919671E-02    2     1000022         5   # BR(~b_2 -> ~chi_10 b )
     2.89085934E-03    2     1000023         5   # BR(~b_2 -> ~chi_20 b )
     3.01721990E-03    2     1000025         5   # BR(~b_2 -> ~chi_30 b )
     3.54001609E-04    2     1000035         5   # BR(~b_2 -> ~chi_40 b )
     8.25353380E-03    2    -1000024         6   # BR(~b_2 -> ~chi_1- t )
     7.12277718E-04    2    -1000037         6   # BR(~b_2 -> ~chi_2- t )
     9.72774829E-01    2     1000021         5   # BR(~b_2 -> ~g      b )
     1.05311557E-04    2     1000006       -24   # BR(~b_2 -> ~t_1    W-)
#
#         PDG            Width
DECAY   1000002     2.65172398E+02   # sup_L decays
#          BR         NDA      ID1       ID2
     2.81374561E-03    2     1000022         2   # BR(~u_L -> ~chi_10 u)
     7.41323409E-05    2     1000023         2   # BR(~u_L -> ~chi_20 u)
     4.85324583E-06    2     1000025         2   # BR(~u_L -> ~chi_30 u)
     2.95720016E-02    2     1000035         2   # BR(~u_L -> ~chi_40 u)
     2.39693028E-04    2     1000024         1   # BR(~u_L -> ~chi_1+ d)
     5.90983953E-02    2     1000037         1   # BR(~u_L -> ~chi_2+ d)
     9.08197179E-01    2     1000021         2   # BR(~u_L -> ~g      u)
#
#         PDG            Width
DECAY   2000002     2.51266326E+02   # sup_R decays
#          BR         NDA      ID1       ID2
     4.72770990E-02    2     1000022         2   # BR(~u_R -> ~chi_10 u)
     1.52494436E-05    2     1000023         2   # BR(~u_R -> ~chi_20 u)
     1.97303586E-05    2     1000025         2   # BR(~u_R -> ~chi_30 u)
     3.83899788E-09    2     1000035         2   # BR(~u_R -> ~chi_40 u)
     9.52687917E-01    2     1000021         2   # BR(~u_R -> ~g      u)
#
#         PDG            Width
DECAY   1000001     2.65187816E+02   # sdown_L decays
#          BR         NDA      ID1       ID2
     2.80580059E-03    2     1000022         1   # BR(~d_L -> ~chi_10 d)
     4.49573003E-05    2     1000023         1   # BR(~d_L -> ~chi_20 d)
     1.90996843E-05    2     1000025         1   # BR(~d_L -> ~chi_30 d)
     2.95898548E-02    2     1000035         1   # BR(~d_L -> ~chi_40 d)
     3.82490487E-05    2    -1000024         2   # BR(~d_L -> ~chi_1- u)
     5.92103597E-02    2    -1000037         2   # BR(~d_L -> ~chi_2- u)
     9.08291679E-01    2     1000021         1   # BR(~d_L -> ~g      d)
#
#         PDG            Width
DECAY   2000001     2.42373254E+02   # sdown_R decays
#          BR         NDA      ID1       ID2
     1.22536186E-02    2     1000022         1   # BR(~d_R -> ~chi_10 d)
     3.95254214E-06    2     1000023         1   # BR(~d_R -> ~chi_20 d)
     5.11396229E-06    2     1000025         1   # BR(~d_R -> ~chi_30 d)
     9.95144850E-10    2     1000035         1   # BR(~d_R -> ~chi_40 d)
     9.87737314E-01    2     1000021         1   # BR(~d_R -> ~g      d)
#
#         PDG            Width
DECAY   1000004     2.65172398E+02   # scharm_L decays
#          BR         NDA      ID1       ID2
     2.81374561E-03    2     1000022         4   # BR(~c_L -> ~chi_10 c)
     7.41323409E-05    2     1000023         4   # BR(~c_L -> ~chi_20 c)
     4.85324583E-06    2     1000025         4   # BR(~c_L -> ~chi_30 c)
     2.95720016E-02    2     1000035         4   # BR(~c_L -> ~chi_40 c)
     2.39693028E-04    2     1000024         3   # BR(~c_L -> ~chi_1+ s)
     5.90983953E-02    2     1000037         3   # BR(~c_L -> ~chi_2+ s)
     9.08197179E-01    2     1000021         4   # BR(~c_L -> ~g      c)
#
#         PDG            Width
DECAY   2000004     2.51266326E+02   # scharm_R decays
#          BR         NDA      ID1       ID2
     4.72770990E-02    2     1000022         4   # BR(~c_R -> ~chi_10 c)
     1.52494436E-05    2     1000023         4   # BR(~c_R -> ~chi_20 c)
     1.97303586E-05    2     1000025         4   # BR(~c_R -> ~chi_30 c)
     3.83899788E-09    2     1000035         4   # BR(~c_R -> ~chi_40 c)
     9.52687917E-01    2     1000021         4   # BR(~c_R -> ~g      c)
#
#         PDG            Width
DECAY   1000003     2.65187816E+02   # sstrange_L decays
#          BR         NDA      ID1       ID2
     2.80580059E-03    2     1000022         3   # BR(~s_L -> ~chi_10 s)
     4.49573003E-05    2     1000023         3   # BR(~s_L -> ~chi_20 s)
     1.90996843E-05    2     1000025         3   # BR(~s_L -> ~chi_30 s)
     2.95898548E-02    2     1000035         3   # BR(~s_L -> ~chi_40 s)
     3.82490487E-05    2    -1000024         4   # BR(~s_L -> ~chi_1- c)
     5.92103597E-02    2    -1000037         4   # BR(~s_L -> ~chi_2- c)
     9.08291679E-01    2     1000021         3   # BR(~s_L -> ~g      s)
#
#         PDG            Width
DECAY   2000003     2.42373254E+02   # sstrange_R decays
#          BR         NDA      ID1       ID2
     1.22536186E-02    2     1000022         3   # BR(~s_R -> ~chi_10 s)
     3.95254214E-06    2     1000023         3   # BR(~s_R -> ~chi_20 s)
     5.11396229E-06    2     1000025         3   # BR(~s_R -> ~chi_30 s)
     9.95144850E-10    2     1000035         3   # BR(~s_R -> ~chi_40 s)
     9.87737314E-01    2     1000021         3   # BR(~s_R -> ~g      s)
#
#         PDG            Width
DECAY   1000011     3.02373710E+01   # selectron_L decays
#          BR         NDA      ID1       ID2
     2.26738656E-01    2     1000022        11   # BR(~e_L -> ~chi_10 e-)
     9.85005915E-04    2     1000023        11   # BR(~e_L -> ~chi_20 e-)
     1.14521422E-08    2     1000025        11   # BR(~e_L -> ~chi_30 e-)
     2.57102958E-01    2     1000035        11   # BR(~e_L -> ~chi_40 e-)
     3.40712283E-04    2    -1000024        12   # BR(~e_L -> ~chi_1- nu_e)
     5.14832656E-01    2    -1000037        12   # BR(~e_L -> ~chi_2- nu_e)
#
#         PDG            Width
DECAY   2000011     2.73591575E+01   # selectron_R decays
#          BR         NDA      ID1       ID2
     9.99264809E-01    2     1000022        11   # BR(~e_R -> ~chi_10 e-)
     3.20475006E-04    2     1000023        11   # BR(~e_R -> ~chi_20 e-)
     4.14637352E-04    2     1000025        11   # BR(~e_R -> ~chi_30 e-)
     7.88771692E-08    2     1000035        11   # BR(~e_R -> ~chi_40 e-)
#
#         PDG            Width
DECAY   1000013     3.02373710E+01   # smuon_L decays
#          BR         NDA      ID1       ID2
     2.26738656E-01    2     1000022        13   # BR(~mu_L -> ~chi_10 mu-)
     9.85005915E-04    2     1000023        13   # BR(~mu_L -> ~chi_20 mu-)
     1.14521422E-08    2     1000025        13   # BR(~mu_L -> ~chi_30 mu-)
     2.57102958E-01    2     1000035        13   # BR(~mu_L -> ~chi_40 mu-)
     3.40712283E-04    2    -1000024        14   # BR(~mu_L -> ~chi_1- nu_mu)
     5.14832656E-01    2    -1000037        14   # BR(~mu_L -> ~chi_2- nu_mu)
#
#         PDG            Width
DECAY   2000013     2.73591575E+01   # smuon_R decays
#          BR         NDA      ID1       ID2
     9.99264809E-01    2     1000022        13   # BR(~mu_R -> ~chi_10 mu-)
     3.20475006E-04    2     1000023        13   # BR(~mu_R -> ~chi_20 mu-)
     4.14637352E-04    2     1000025        13   # BR(~mu_R -> ~chi_30 mu-)
     7.88771692E-08    2     1000035        13   # BR(~mu_R -> ~chi_40 mu-)
#
#         PDG            Width
DECAY   1000015     2.89712161E+01   # stau_1 decays
#          BR         NDA      ID1       ID2
     9.24242951E-01    2     1000022        15   # BR(~tau_1 -> ~chi_10  tau-)
     1.41659408E-02    2     1000023        15   # BR(~tau_1 -> ~chi_20  tau-)
     1.28848570E-02    2     1000025        15   # BR(~tau_1 -> ~chi_30  tau-)
     7.27998179E-03    2     1000035        15   # BR(~tau_1 -> ~chi_40  tau-)
     2.68485122E-02    2    -1000024        16   # BR(~tau_1 -> ~chi_1-  nu_tau)
     1.45777568E-02    2    -1000037        16   # BR(~tau_1 -> ~chi_2-  nu_tau)
#
#         PDG            Width
DECAY   2000015     3.09245557E+01   # stau_2 decays
#          BR         NDA      ID1       ID2
     2.39724212E-01    2     1000022        15   # BR(~tau_2 -> ~chi_10  tau-)
     1.29157497E-02    2     1000023        15   # BR(~tau_2 -> ~chi_20  tau-)
     1.32031780E-02    2     1000025        15   # BR(~tau_2 -> ~chi_30  tau-)
     2.44496184E-01    2     1000035        15   # BR(~tau_2 -> ~chi_40  tau-)
     7.39609803E-05    2    -1000024        16   # BR(~tau_2 -> ~chi_1-  nu_tau)
     4.89586716E-01    2    -1000037        16   # BR(~tau_2 -> ~chi_2-  nu_tau)
#
#         PDG            Width
DECAY   1000012     3.02394114E+01   # snu_eL decays
#          BR         NDA      ID1       ID2
     2.26464206E-01    2     1000022        12   # BR(~nu_eL -> ~chi_10 nu_e)
     2.05143096E-04    2     1000023        12   # BR(~nu_eL -> ~chi_20 nu_e)
     3.80581741E-04    2     1000025        12   # BR(~nu_eL -> ~chi_30 nu_e)
     2.57192426E-01    2     1000035        12   # BR(~nu_eL -> ~chi_40 nu_e)
     2.13456855E-03    2     1000024        11   # BR(~nu_eL -> ~chi_1+ e-)
     5.13623074E-01    2     1000037        11   # BR(~nu_eL -> ~chi_2+ e-)
#
#         PDG            Width
DECAY   1000014     3.02394114E+01   # snu_muL decays
#          BR         NDA      ID1       ID2
     2.26464206E-01    2     1000022        14   # BR(~nu_muL -> ~chi_10 nu_mu)
     2.05143096E-04    2     1000023        14   # BR(~nu_muL -> ~chi_20 nu_mu)
     3.80581741E-04    2     1000025        14   # BR(~nu_muL -> ~chi_30 nu_mu)
     2.57192426E-01    2     1000035        14   # BR(~nu_muL -> ~chi_40 nu_mu)
     2.13456855E-03    2     1000024        13   # BR(~nu_muL -> ~chi_1+ mu-)
     5.13623074E-01    2     1000037        13   # BR(~nu_muL -> ~chi_2+ mu-)
#
#         PDG            Width
DECAY   1000016     3.10029727E+01   # snu_tauL decays
#          BR         NDA      ID1       ID2
     2.20862963E-01    2     1000022        16   # BR(~nu_tauL -> ~chi_10 nu_tau)
     2.00060783E-04    2     1000023        16   # BR(~nu_tauL -> ~chi_20 nu_tau)
     3.71152970E-04    2     1000025        16   # BR(~nu_tauL -> ~chi_30 nu_tau)
     2.50766433E-01    2     1000035        16   # BR(~nu_tauL -> ~chi_40 nu_tau)
     2.70078443E-02    2     1000024        15   # BR(~nu_tauL -> ~chi_1+ tau-)
     5.00791547E-01    2     1000037        15   # BR(~nu_tauL -> ~chi_2+ tau-)
#
#         PDG            Width
DECAY   1000024     9.22652658E-01   # chargino1+ decays
#          BR         NDA      ID1       ID2
     1.00000000E+00    2     1000022        24   # BR(~chi_1+ -> ~chi_10  W+)
#
#         PDG            Width
DECAY   1000037     1.83992237E+01   # chargino2+ decays
#          BR         NDA      ID1       ID2
     2.52703115E-01    2     1000024        23   # BR(~chi_2+ -> ~chi_1+  Z )
     2.61220869E-04    2     1000022        24   # BR(~chi_2+ -> ~chi_10  W+)
     2.44014926E-01    2     1000023        24   # BR(~chi_2+ -> ~chi_20  W+)
     2.43675374E-01    2     1000025        24   # BR(~chi_2+ -> ~chi_30  W+)
     2.59345001E-01    2     1000024        25   # BR(~chi_2+ -> ~chi_1+  h )
     3.63771983E-07    2     1000022        37   # BR(~chi_2+ -> ~chi_10  H+)
#
#         PDG            Width
DECAY   1000022     0.00000000E+00   # neutralino1 decays
#
#         PDG            Width
DECAY   1000023     9.69621241E-01   # neutralino2 decays
#          BR         NDA      ID1       ID2
     5.56482882E-01    2     1000022        23   # BR(~chi_20 -> ~chi_10   Z )
     4.43517118E-01    2     1000022        25   # BR(~chi_20 -> ~chi_10   h )
#
#         PDG            Width
DECAY   1000025     9.79204902E-01   # neutralino3 decays
#          BR         NDA      ID1       ID2
     4.26441440E-01    2     1000022        23   # BR(~chi_30 -> ~chi_10   Z )
     5.73558560E-01    2     1000022        25   # BR(~chi_30 -> ~chi_10   h )
#
#         PDG            Width
DECAY   1000035     1.83995651E+01   # neutralino4 decays
#          BR         NDA      ID1       ID2
     9.39480869E-05    2     1000022        23   # BR(~chi_40 -> ~chi_10   Z )
     3.95268278E-02    2     1000023        23   # BR(~chi_40 -> ~chi_20   Z )
     2.12643697E-01    2     1000025        23   # BR(~chi_40 -> ~chi_30   Z )
     2.44320479E-01    2     1000024       -24   # BR(~chi_40 -> ~chi_1+   W-)
     2.44320479E-01    2    -1000024        24   # BR(~chi_40 -> ~chi_1-   W+)
     1.73549065E-04    2     1000022        25   # BR(~chi_40 -> ~chi_10   h )
     3.27815330E-07    2     1000022        35   # BR(~chi_40 -> ~chi_10   H )
     4.92998993E-08    2     1000022        36   # BR(~chi_40 -> ~chi_10   A )
     2.19429195E-01    2     1000023        25   # BR(~chi_40 -> ~chi_20   h )
     3.94914477E-02    2     1000025        25   # BR(~chi_40 -> ~chi_30   h )
#
#         PDG            Width
DECAY        25     4.04526672E-03   # h decays
#          BR         NDA      ID1       ID2
     6.07072437E-01    2           5        -5   # BR(h -> b       bb     )
     6.41118658E-02    2         -15        15   # BR(h -> tau+    tau-   )
     2.26979321E-04    2         -13        13   # BR(h -> mu+     mu-    )
     4.81184099E-04    2           3        -3   # BR(h -> s       sb     )
     2.08521981E-02    2           4        -4   # BR(h -> c       cb     )
     6.74499775E-02    2          21        21   # BR(h -> g       g      )
     2.31924503E-03    2          22        22   # BR(h -> gam     gam    )
     1.49527778E-03    2          22        23   # BR(h -> Z       gam    )
     2.10830617E-01    2          24       -24   # BR(h -> W+      W-     )
     2.51274444E-02    2          23        23   # BR(h -> Z       Z      )
     3.27740214E-05    2     1000022   1000022   # BR(h -> ~chi_10 ~chi_10)
#
#         PDG            Width
DECAY        35     7.26857449E+00   # H decays
#          BR         NDA      ID1       ID2
     4.49295253E-01    2           5        -5   # BR(H -> b       bb     )
     7.66547919E-02    2         -15        15   # BR(H -> tau+    tau-   )
     2.71057433E-04    2         -13        13   # BR(H -> mu+     mu-    )
     3.32274793E-04    2           3        -3   # BR(H -> s       sb     )
     1.85810929E-06    2           4        -4   # BR(H -> c       cb     )
     1.85639843E-01    2           6        -6   # BR(H -> t       tb     )
     6.16264630E-05    2          21        21   # BR(H -> g       g      )
     3.88328294E-07    2          22        22   # BR(H -> gam     gam    )
     1.09635447E-07    2          23        22   # BR(H -> Z       gam    )
     8.28892630E-05    2          24       -24   # BR(H -> W+      W-     )
     4.13921787E-05    2          23        23   # BR(H -> Z       Z      )
     3.13168007E-04    2          25        25   # BR(H -> h       h      )
     5.56576273E-24    2          36        36   # BR(H -> A       A      )
     1.40001840E-18    2          23        36   # BR(H -> Z       A      )
     3.26709948E-09    2     1000024  -1000024   # BR(H -> ~chi_1+ ~chi_1-)
     8.83220253E-04    2     1000022   1000022   # BR(H -> ~chi_10 ~chi_10)
     1.91759153E-08    2     1000023   1000023   # BR(H -> ~chi_20 ~chi_20)
     1.70212206E-01    2     1000022   1000023   # BR(H -> ~chi_10 ~chi_20)
     1.16209899E-01    2     1000022   1000025   # BR(H -> ~chi_10 ~chi_30)
#
#         PDG            Width
DECAY        36     7.27124804E+00   # A decays
#          BR         NDA      ID1       ID2
     4.49279679E-01    2           5        -5   # BR(A -> b       bb     )
     7.66287027E-02    2         -15        15   # BR(A -> tau+    tau-   )
     2.70964801E-04    2         -13        13   # BR(A -> mu+     mu-    )
     3.32404044E-04    2           3        -3   # BR(A -> s       sb     )
     1.86517454E-06    2           4        -4   # BR(A -> c       cb     )
     1.86242894E-01    2           6        -6   # BR(A -> t       tb     )
     1.84312571E-04    2          21        21   # BR(A -> g       g      )
     2.67774286E-07    2          22        22   # BR(A -> gam     gam    )
     2.23281152E-07    2          23        22   # BR(A -> Z       gam    )
     8.25451317E-05    2          23        25   # BR(A -> Z       h      )
     9.08819844E-04    2     1000022   1000022   # BR(A -> ~chi_10 ~chi_10)
     1.51941963E-05    2     1000023   1000023   # BR(A -> ~chi_20 ~chi_20)
     1.17551234E-01    2     1000022   1000023   # BR(A -> ~chi_10 ~chi_20)
     1.68500894E-01    2     1000022   1000025   # BR(A -> ~chi_10 ~chi_30)
#
#         PDG            Width
DECAY        37     7.27456676E+00   # H+ decays
#          BR         NDA      ID1       ID2
     7.23008899E-04    2           4        -5   # BR(H+ -> c       bb     )
     7.66161541E-02    2         -15        16   # BR(H+ -> tau+    nu_tau )
     2.70920428E-04    2         -13        14   # BR(H+ -> mu+     nu_mu  )
     4.62723331E-06    2           2        -5   # BR(H+ -> u       bb     )
     1.58970433E-05    2           2        -3   # BR(H+ -> u       sb     )
     3.28751462E-04    2           4        -3   # BR(H+ -> c       sb     )
     6.34138083E-01    2           6        -5   # BR(H+ -> t       bb     )
     8.26328978E-05    2          24        25   # BR(H+ -> W+      h      )
     9.41310707E-14    2          24        36   # BR(H+ -> W+      A      )
     2.87804368E-01    2     1000024   1000022   # BR(H+ -> ~chi_1+ ~chi_10)
     1.55570902E-05    2     1000024   1000023   # BR(H+ -> ~chi_1+ ~chi_20)
