#
#                              ======================
#                              | THE SUSYHIT OUTPUT |
#                              ======================
#
#
#              ------------------------------------------------------
#              |     This is the output of the SUSY-HIT package     |
#              |  created by A.Djouadi, M.Muehlleitner and M.Spira. |
#              |  In case of problems with SUSY-HIT email to        |
#              |           margarete.muehlleitner@cern.ch           |
#              |           michael.spira@psi.ch                     |
#              |           abdelhak.djouadi@cern.ch                 |
#              ------------------------------------------------------
#
#              ------------------------------------------------------
#              |  SUSY Les Houches Accord - MSSM Spectrum + Decays  |
#              |              based on the decay programs           |
#              |                                                    |
#              |                     SDECAY 1.3b                    |
#              |                                                    |
#              |  Authors: M.Muhlleitner, A.Djouadi and Y.Mambrini  |
#              |  Ref.:    Comput.Phys.Commun.168(2005)46           |
#              |           [hep-ph/0311167]                         |
#              |                                                    |
#              |                     HDECAY 3.4                     |
#              |                                                    |
#              |  By: A.Djouadi,J.Kalinowski,M.Muhlleitner,M.Spira  |
#              |  Ref.:    Comput.Phys.Commun.108(1998)56           |
#              |           [hep-ph/9704448]                         |
#              |                                                    |
#              |                                                    |
#              |  If not stated otherwise all DRbar couplings and   |
#              |  soft SUSY breaking masses are given at the scale  |
#              |  Q=  0.50007520E+04
#              |                                                    |
#              ------------------------------------------------------
#
#
BLOCK DCINFO  # Decay Program information
     1   SDECAY/HDECAY # decay calculator
     2   1.3b  /3.4    # version number
#
BLOCK SPINFO  # Spectrum calculator information
     1    SOFTSUSY    # spectrum calculator                
     2    3.4.0       # version number                     
#
BLOCK MODSEL  # Model selection
     1     0   #  nonUniversal                                     
#
BLOCK SMINPUTS  # Standard Model inputs
         1     1.25778332E+02   # alpha_em^-1(M_Z)^MSbar
         2     1.16570000E-05   # G_F [GeV^-2]
         3     1.17200002E-01   # alpha_S(M_Z)^MSbar
         4     9.11876000E+01   # M_Z pole mass
         5     4.25000000E+00   # mb(mb)^MSbar
         6     1.72500000E+02   # mt pole mass
         7     1.77682000E+00   # mtau pole mass
#
BLOCK MINPAR  # Input parameters - minimal models
         3     1.00000000E+01   # tanb                
#
BLOCK EXTPAR  # Input parameters - non-minimal models
         0    -1.00000000E+00   # Set                 
         1     6.00000000E+01   # M_1(MX)             
         2     3.00000000E+03   # M_2(MX)             
         3     2.62338800E+03   # M_3(MX)             
        11     5.00000000E+03   # At(MX)              
        12     5.00000000E+03   # Ab(MX)              
        13     0.00000000E+00   # Atau(MX)            
        23    -7.64795000E+02   # mu(MX)              
        26     3.00000000E+03   # mA(pole)            
        31     5.00000000E+03   # meL(MX)             
        32     5.00000000E+03   # mmuL(MX)            
        33     5.00000000E+03   # mtauL(MX)           
        34     5.00000000E+03   # meR(MX)             
        35     5.00000000E+03   # mmuR(MX)            
        36     5.00000000E+03   # mtauR(MX)           
        41     5.00000000E+03   # mqL1(MX)            
        42     5.00000000E+03   # mqL2(MX)            
        43     5.00000000E+03   # mqL3(MX)            
        44     5.00000000E+03   # muR(MX)             
        45     5.00000000E+03   # mcR(MX)             
        46     5.00000000E+03   # mtR(MX)             
        47     5.00000000E+03   # mdR(MX)             
        48     5.00000000E+03   # msR(MX)             
        49     5.00000000E+03   # mbR(MX)             
#
BLOCK MASS  # Mass Spectrum
# PDG code           mass       particle
        24     8.00947684E+01   # W+
        25     1.24805757E+02   # h
        35     3.00008301E+03   # H
        36     2.99999764E+03   # A
        37     3.00136072E+03   # H+
         5     4.87878001E+00   # b-quark pole mass calculated from mb(mb)_Msbar
   1000001     5.09120694E+03   # ~d_L
   2000001     5.07346521E+03   # ~d_R
   1000002     5.09073887E+03   # ~u_L
   2000002     5.07317639E+03   # ~u_R
   1000003     5.09120694E+03   # ~s_L
   2000003     5.07346521E+03   # ~s_R
   1000004     5.09073887E+03   # ~c_L
   2000004     5.07317639E+03   # ~c_R
   1000005     5.03696764E+03   # ~b_1
   2000005     5.07182223E+03   # ~b_2
   1000006     4.92980846E+03   # ~t_1
   2000006     5.07976795E+03   # ~t_2
   1000011     5.01907862E+03   # ~e_L
   2000011     5.00593090E+03   # ~e_R
   1000012     5.01812971E+03   # ~nu_eL
   1000013     5.01907862E+03   # ~mu_L
   2000013     5.00593090E+03   # ~mu_R
   1000014     5.01812971E+03   # ~nu_muL
   1000015     5.00468682E+03   # ~tau_1
   2000015     5.01869440E+03   # ~tau_2
   1000016     5.01758138E+03   # ~nu_tauL
   1000021     3.00000091E+03   # ~g
   1000022     6.02875617E+01   # ~chi_10
   1000023     7.99842268E+02   # ~chi_20
   1000025    -8.02072366E+02   # ~chi_30
   1000035     3.07419922E+03   # ~chi_40
   1000024     8.00000098E+02   # ~chi_1+
   1000037     3.07436671E+03   # ~chi_2+
#
BLOCK NMIX  # Neutralino Mixing Matrix
  1  1     9.98451951E-01   # N_11
  1  2     2.07832673E-04   # N_12
  1  3    -5.55977122E-02   # N_13
  1  4     1.59789393E-03   # N_14
  2  1     3.81991810E-02   # N_21
  2  2     2.14524549E-02   # N_22
  2  3     7.06384661E-01   # N_23
  2  4     7.06471036E-01   # N_24
  3  1    -4.04273454E-02   # N_31
  3  2     1.56877914E-02   # N_32
  3  3    -7.05629512E-01   # N_33
  3  4     7.07252794E-01   # N_34
  4  1    -3.92900175E-04   # N_41
  4  2     9.99646759E-01   # N_42
  4  3    -4.07380057E-03   # N_43
  4  4    -2.62603807E-02   # N_44
#
BLOCK UMIX  # Chargino Mixing Matrix U
  1  1     5.77200939E-03   # U_11
  1  2     9.99983342E-01   # U_12
  2  1    -9.99983342E-01   # U_21
  2  2     5.77200939E-03   # U_22
#
BLOCK VMIX  # Chargino Mixing Matrix V
  1  1     3.71660248E-02   # V_11
  1  2    -9.99309105E-01   # V_12
  2  1    -9.99309105E-01   # V_21
  2  2    -3.71660248E-02   # V_22
#
BLOCK STOPMIX  # Stop Mixing Matrix
  1  1    -5.01491925E-01   # cos(theta_t)
  1  2     8.65162325E-01   # sin(theta_t)
  2  1    -8.65162325E-01   # -sin(theta_t)
  2  2    -5.01491925E-01   # cos(theta_t)
#
BLOCK SBOTMIX  # Sbottom Mixing Matrix
  1  1     9.97890203E-01   # cos(theta_b)
  1  2    -6.49241308E-02   # sin(theta_b)
  2  1     6.49241308E-02   # -sin(theta_b)
  2  2     9.97890203E-01   # cos(theta_b)
#
BLOCK STAUMIX  # Stau Mixing Matrix
  1  1    -9.13739042E-02   # cos(theta_tau)
  1  2     9.95816655E-01   # sin(theta_tau)
  2  1    -9.95816655E-01   # -sin(theta_tau)
  2  2    -9.13739042E-02   # cos(theta_tau)
#
BLOCK ALPHA  # Higgs mixing
          -1.05486552E-01   # Mixing angle in the neutral Higgs boson sector
#
BLOCK HMIX Q=  5.00075201E+03  # DRbar Higgs Parameters
         1    -7.78866399E+02   # mu(Q)MSSM           
         2     9.46889869E+00   # tan                 
         3     2.41822054E+02   # higgs               
         4     8.57871264E+06   # mA^2(Q)MSSM         
#
BLOCK GAUGE Q=  5.00075201E+03  # The gauge couplings
     1     3.70828202E-01   # gprime(Q) DRbar
     2     6.32736117E-01   # g(Q) DRbar
     3     9.92480321E-01   # g3(Q) DRbar
#
BLOCK AU Q=  5.00075201E+03  # The trilinear couplings
  1  1     5.00000002E+03   # A_u(Q) DRbar
  2  2     5.00000002E+03   # A_c(Q) DRbar
  3  3     5.00000003E+03   # A_t(Q) DRbar
#
BLOCK AD Q=  5.00075201E+03  # The trilinear couplings
  1  1     5.00000001E+03   # A_d(Q) DRbar
  2  2     5.00000001E+03   # A_s(Q) DRbar
  3  3     5.00000001E+03   # A_b(Q) DRbar
#
BLOCK AE Q=  5.00075201E+03  # The trilinear couplings
  1  1     0.00000000E+00   # A_e(Q) DRbar
  2  2     3.22183191E-07   # A_mu(Q) DRbar
  3  3     3.22404091E-07   # A_tau(Q) DRbar
#
BLOCK Yu Q=  5.00075201E+03  # The Yukawa couplings
  1  1     0.00000000E+00   # y_u(Q) DRbar
  2  2     0.00000000E+00   # y_c(Q) DRbar
  3  3     8.21694697E-01   # y_t(Q) DRbar
#
BLOCK Yd Q=  5.00075201E+03  # The Yukawa couplings
  1  1     0.00000000E+00   # y_d(Q) DRbar
  2  2     0.00000000E+00   # y_s(Q) DRbar
  3  3     1.30905639E-01   # y_b(Q) DRbar
#
BLOCK Ye Q=  5.00075201E+03  # The Yukawa couplings
  1  1     0.00000000E+00   # y_e(Q) DRbar
  2  2     0.00000000E+00   # y_mu(Q) DRbar
  3  3     9.69504307E-02   # y_tau(Q) DRbar
#
BLOCK MSOFT Q=  5.00075201E+03  # The soft SUSY breaking masses at the scale Q
         1     6.00000000E+01   # M_1(Q)              
         2     3.00000000E+03   # M_2(Q)              
         3     2.62338800E+03   # M_3(Q)              
        21     8.10298743E+06   # mH1^2(Q)            
        22    -3.34169095E+04   # mH2^2(Q)            
        31     5.00000000E+03   # meL(Q)              
        32     5.00000000E+03   # mmuL(Q)             
        33     5.00000000E+03   # mtauL(Q)            
        34     5.00000000E+03   # meR(Q)              
        35     5.00000000E+03   # mmuR(Q)             
        36     5.00000000E+03   # mtauR(Q)            
        41     4.99999999E+03   # mqL1(Q)             
        42     4.99999999E+03   # mqL2(Q)             
        43     4.99999999E+03   # mqL3(Q)             
        44     4.99999999E+03   # muR(Q)              
        45     4.99999999E+03   # mcR(Q)              
        46     4.99999999E+03   # mtR(Q)              
        47     4.99999999E+03   # mdR(Q)              
        48     4.99999999E+03   # msR(Q)              
        49     4.99999999E+03   # mbR(Q)              
#
#
#
#                             =================
#                             |The decay table|
#                             =================
#
# - The QCD corrections to the decays gluino -> squark  + quark
#                                     squark -> gaugino + quark_prime
#                                     squark -> squark_prime + Higgs
#                                     squark -> gluino  + quark
#   are included.
#
# - The multi-body decays for the inos, stops and sbottoms are included.
#
# - The loop induced decays for the gluino, neutralinos and stops
#   are included.
#
# - The SUSY decays of the top quark are included.
#
#
#         PDG            Width
DECAY         6     1.40298986E+00   # top decays
#          BR         NDA      ID1       ID2
     1.00000000E+00    2           5        24   # BR(t ->  b    W+)
#
#         PDG            Width
DECAY   1000021     1.66400190E-02   # gluino decays
#          BR         NDA      ID1       ID2
     9.36452730E-07    2     1000022        21   # BR(~g -> ~chi_10 g)
     3.14065611E-03    2     1000023        21   # BR(~g -> ~chi_20 g)
     3.07660960E-03    2     1000025        21   # BR(~g -> ~chi_30 g)
#           BR         NDA      ID1       ID2       ID3
     1.23192695E-02    3     1000022         1        -1   # BR(~g -> ~chi_10 d  db)
     2.15968408E-05    3     1000023         1        -1   # BR(~g -> ~chi_20 d  db)
     2.12339566E-05    3     1000025         1        -1   # BR(~g -> ~chi_30 d  db)
     4.20173951E-02    3     1000022         2        -2   # BR(~g -> ~chi_10 u  ub)
     8.91397690E-05    3     1000023         2        -2   # BR(~g -> ~chi_20 u  ub)
     2.82135079E-05    3     1000025         2        -2   # BR(~g -> ~chi_30 u  ub)
     1.23192695E-02    3     1000022         3        -3   # BR(~g -> ~chi_10 s  sb)
     2.15968408E-05    3     1000023         3        -3   # BR(~g -> ~chi_20 s  sb)
     2.12339566E-05    3     1000025         3        -3   # BR(~g -> ~chi_30 s  sb)
     4.20173951E-02    3     1000022         4        -4   # BR(~g -> ~chi_10 c  cb)
     8.91397690E-05    3     1000023         4        -4   # BR(~g -> ~chi_20 c  cb)
     2.82135079E-05    3     1000025         4        -4   # BR(~g -> ~chi_30 c  cb)
     1.25278553E-02    3     1000022         5        -5   # BR(~g -> ~chi_10 b  bb)
     5.14414725E-03    3     1000023         5        -5   # BR(~g -> ~chi_20 b  bb)
     5.11243721E-03    3     1000025         5        -5   # BR(~g -> ~chi_30 b  bb)
     4.40938019E-02    3     1000022         6        -6   # BR(~g -> ~chi_10 t  tb)
     2.03475775E-01    3     1000023         6        -6   # BR(~g -> ~chi_20 t  tb)
     1.95088600E-01    3     1000025         6        -6   # BR(~g -> ~chi_30 t  tb)
     6.01241149E-05    3     1000024         1        -2   # BR(~g -> ~chi_1+ d  ub)
     6.01241149E-05    3    -1000024         2        -1   # BR(~g -> ~chi_1- u  db)
     6.01241149E-05    3     1000024         3        -4   # BR(~g -> ~chi_1+ s  cb)
     6.01241149E-05    3    -1000024         4        -3   # BR(~g -> ~chi_1- c  sb)
     2.09552494E-01    3     1000024         5        -6   # BR(~g -> ~chi_1+ b  tb)
     2.09552494E-01    3    -1000024         6        -5   # BR(~g -> ~chi_1- t  bb)
#
#         PDG            Width
DECAY   1000006     2.47909535E+02   # stop1 decays
#          BR         NDA      ID1       ID2
     3.60027729E-02    2     1000022         6   # BR(~t_1 -> ~chi_10 t )
     1.26457489E-01    2     1000023         6   # BR(~t_1 -> ~chi_20 t )
     1.21253000E-01    2     1000025         6   # BR(~t_1 -> ~chi_30 t )
     8.09246729E-03    2     1000035         6   # BR(~t_1 -> ~chi_40 t )
     1.86787240E-01    2     1000024         5   # BR(~t_1 -> ~chi_1+ b )
     1.61276686E-02    2     1000037         5   # BR(~t_1 -> ~chi_2+ b )
     5.05279363E-01    2     1000021         6   # BR(~t_1 -> ~g      t )
#
#         PDG            Width
DECAY   2000006     2.56507860E+02   # stop2 decays
#          BR         NDA      ID1       ID2
     1.30789017E-02    2     1000022         6   # BR(~t_2 -> ~chi_10 t )
     1.24571526E-01    2     1000023         6   # BR(~t_2 -> ~chi_20 t )
     1.30163006E-01    2     1000025         6   # BR(~t_2 -> ~chi_30 t )
     2.22843280E-02    2     1000035         6   # BR(~t_2 -> ~chi_40 t )
     7.11489482E-02    2     1000024         5   # BR(~t_2 -> ~chi_1+ b )
     4.43556111E-02    2     1000037         5   # BR(~t_2 -> ~chi_2+ b )
     5.89853061E-01    2     1000021         6   # BR(~t_2 -> ~g      t )
     1.03889322E-03    2     1000006        25   # BR(~t_2 -> ~t_1    h )
     3.50572514E-03    2     1000006        23   # BR(~t_2 -> ~t_1    Z )
#
#         PDG            Width
DECAY   1000005     2.30951103E+02   # sbottom1 decays
#          BR         NDA      ID1       ID2
     3.32674924E-03    2     1000022         5   # BR(~b_1 -> ~chi_10 b )
     3.51897466E-03    2     1000023         5   # BR(~b_1 -> ~chi_20 b )
     3.46053275E-03    2     1000025         5   # BR(~b_1 -> ~chi_30 b )
     3.31003286E-02    2     1000035         5   # BR(~b_1 -> ~chi_40 b )
     2.75097941E-01    2    -1000024         6   # BR(~b_1 -> ~chi_1- t )
     6.64808578E-02    2    -1000037         6   # BR(~b_1 -> ~chi_2- t )
     6.12733427E-01    2     1000021         5   # BR(~b_1 -> ~g      b )
     2.28118829E-03    2     1000006       -24   # BR(~b_1 -> ~t_1    W-)
#
#         PDG            Width
DECAY   2000005     1.51038437E+02   # sbottom2 decays
#          BR         NDA      ID1       ID2
     1.93939517E-02    2     1000022         5   # BR(~b_2 -> ~chi_10 b )
     5.43305298E-03    2     1000023         5   # BR(~b_2 -> ~chi_20 b )
     5.54418932E-03    2     1000025         5   # BR(~b_2 -> ~chi_30 b )
     2.01931499E-04    2     1000035         5   # BR(~b_2 -> ~chi_40 b )
     1.24059143E-02    2    -1000024         6   # BR(~b_2 -> ~chi_1- t )
     4.05572408E-04    2    -1000037         6   # BR(~b_2 -> ~chi_2- t )
     9.56550198E-01    2     1000021         5   # BR(~b_2 -> ~g      b )
     6.51900442E-05    2     1000006       -24   # BR(~b_2 -> ~t_1    W-)
#
#         PDG            Width
DECAY   1000002     1.70731808E+02   # sup_L decays
#          BR         NDA      ID1       ID2
     4.35302601E-03    2     1000022         2   # BR(~u_L -> ~chi_10 u)
     9.10510697E-05    2     1000023         2   # BR(~u_L -> ~chi_20 u)
     6.60691587E-06    2     1000025         2   # BR(~u_L -> ~chi_30 u)
     4.65499675E-02    2     1000035         2   # BR(~u_L -> ~chi_40 u)
     3.00853094E-04    2     1000024         1   # BR(~u_L -> ~chi_1+ d)
     9.30398158E-02    2     1000037         1   # BR(~u_L -> ~chi_2+ d)
     8.55658680E-01    2     1000021         2   # BR(~u_L -> ~g      u)
#
#         PDG            Width
DECAY   2000002     1.56370570E+02   # sup_R decays
#          BR         NDA      ID1       ID2
     7.56145426E-02    2     1000022         2   # BR(~u_R -> ~chi_10 u)
     1.05536279E-04    2     1000023         2   # BR(~u_R -> ~chi_20 u)
     1.18174352E-04    2     1000025         2   # BR(~u_R -> ~chi_30 u)
     4.74074422E-09    2     1000035         2   # BR(~u_R -> ~chi_40 u)
     9.24161742E-01    2     1000021         2   # BR(~u_R -> ~g      u)
#
#         PDG            Width
DECAY   1000001     1.70749006E+02   # sdown_L decays
#          BR         NDA      ID1       ID2
     4.33448509E-03    2     1000022         1   # BR(~d_L -> ~chi_10 d)
     2.13145385E-05    2     1000023         1   # BR(~d_L -> ~chi_20 d)
     6.05639167E-05    2     1000025         1   # BR(~d_L -> ~chi_30 d)
     4.65736373E-02    2     1000035         1   # BR(~d_L -> ~chi_40 d)
     7.25633566E-06    2    -1000024         2   # BR(~d_L -> ~chi_1- u)
     9.31841587E-02    2    -1000037         2   # BR(~d_L -> ~chi_2- u)
     8.55818584E-01    2     1000021         1   # BR(~d_L -> ~g      d)
#
#         PDG            Width
DECAY   2000001     1.47502513E+02   # sdown_R decays
#          BR         NDA      ID1       ID2
     2.00413197E-02    2     1000022         1   # BR(~d_R -> ~chi_10 d)
     2.79721045E-05    2     1000023         1   # BR(~d_R -> ~chi_20 d)
     3.13217924E-05    2     1000025         1   # BR(~d_R -> ~chi_30 d)
     1.25667781E-09    2     1000035         1   # BR(~d_R -> ~chi_40 d)
     9.79899385E-01    2     1000021         1   # BR(~d_R -> ~g      d)
#
#         PDG            Width
DECAY   1000004     1.70731808E+02   # scharm_L decays
#          BR         NDA      ID1       ID2
     4.35302601E-03    2     1000022         4   # BR(~c_L -> ~chi_10 c)
     9.10510697E-05    2     1000023         4   # BR(~c_L -> ~chi_20 c)
     6.60691587E-06    2     1000025         4   # BR(~c_L -> ~chi_30 c)
     4.65499675E-02    2     1000035         4   # BR(~c_L -> ~chi_40 c)
     3.00853094E-04    2     1000024         3   # BR(~c_L -> ~chi_1+ s)
     9.30398158E-02    2     1000037         3   # BR(~c_L -> ~chi_2+ s)
     8.55658680E-01    2     1000021         4   # BR(~c_L -> ~g      c)
#
#         PDG            Width
DECAY   2000004     1.56370570E+02   # scharm_R decays
#          BR         NDA      ID1       ID2
     7.56145426E-02    2     1000022         4   # BR(~c_R -> ~chi_10 c)
     1.05536279E-04    2     1000023         4   # BR(~c_R -> ~chi_20 c)
     1.18174352E-04    2     1000025         4   # BR(~c_R -> ~chi_30 c)
     4.74074422E-09    2     1000035         4   # BR(~c_R -> ~chi_40 c)
     9.24161742E-01    2     1000021         4   # BR(~c_R -> ~g      c)
#
#         PDG            Width
DECAY   1000003     1.70749006E+02   # sstrange_L decays
#          BR         NDA      ID1       ID2
     4.33448509E-03    2     1000022         3   # BR(~s_L -> ~chi_10 s)
     2.13145385E-05    2     1000023         3   # BR(~s_L -> ~chi_20 s)
     6.05639167E-05    2     1000025         3   # BR(~s_L -> ~chi_30 s)
     4.65736373E-02    2     1000035         3   # BR(~s_L -> ~chi_40 s)
     7.25633566E-06    2    -1000024         4   # BR(~s_L -> ~chi_1- c)
     9.31841587E-02    2    -1000037         4   # BR(~s_L -> ~chi_2- c)
     8.55818584E-01    2     1000021         3   # BR(~s_L -> ~g      s)
#
#         PDG            Width
DECAY   2000003     1.47502513E+02   # sstrange_R decays
#          BR         NDA      ID1       ID2
     2.00413197E-02    2     1000022         3   # BR(~s_R -> ~chi_10 s)
     2.79721045E-05    2     1000023         3   # BR(~s_R -> ~chi_20 s)
     3.13217924E-05    2     1000025         3   # BR(~s_R -> ~chi_30 s)
     1.25667781E-09    2     1000035         3   # BR(~s_R -> ~chi_40 s)
     9.79899385E-01    2     1000021         3   # BR(~s_R -> ~g      s)
#
#         PDG            Width
DECAY   1000011     3.02858932E+01   # selectron_L decays
#          BR         NDA      ID1       ID2
     2.26082385E-01    2     1000022        11   # BR(~e_L -> ~chi_10 e-)
     1.20482614E-03    2     1000023        11   # BR(~e_L -> ~chi_20 e-)
     4.01639040E-05    2     1000025        11   # BR(~e_L -> ~chi_30 e-)
     2.57371405E-01    2     1000035        11   # BR(~e_L -> ~chi_40 e-)
     4.17696418E-05    2    -1000024        12   # BR(~e_L -> ~chi_1- nu_e)
     5.15259451E-01    2    -1000037        12   # BR(~e_L -> ~chi_2- nu_e)
#
#         PDG            Width
DECAY   2000011     2.73776973E+01   # selectron_R decays
#          BR         NDA      ID1       ID2
     9.97061473E-01    2     1000022        11   # BR(~e_R -> ~chi_10 e-)
     1.38624264E-03    2     1000023        11   # BR(~e_R -> ~chi_20 e-)
     1.55222446E-03    2     1000025        11   # BR(~e_R -> ~chi_30 e-)
     5.99168454E-08    2     1000035        11   # BR(~e_R -> ~chi_40 e-)
#
#         PDG            Width
DECAY   1000013     3.02858932E+01   # smuon_L decays
#          BR         NDA      ID1       ID2
     2.26082385E-01    2     1000022        13   # BR(~mu_L -> ~chi_10 mu-)
     1.20482614E-03    2     1000023        13   # BR(~mu_L -> ~chi_20 mu-)
     4.01639040E-05    2     1000025        13   # BR(~mu_L -> ~chi_30 mu-)
     2.57371405E-01    2     1000035        13   # BR(~mu_L -> ~chi_40 mu-)
     4.17696418E-05    2    -1000024        14   # BR(~mu_L -> ~chi_1- nu_mu)
     5.15259451E-01    2    -1000037        14   # BR(~mu_L -> ~chi_2- nu_mu)
#
#         PDG            Width
DECAY   2000013     2.73776973E+01   # smuon_R decays
#          BR         NDA      ID1       ID2
     9.97061473E-01    2     1000022        13   # BR(~mu_R -> ~chi_10 mu-)
     1.38624264E-03    2     1000023        13   # BR(~mu_R -> ~chi_20 mu-)
     1.55222446E-03    2     1000025        13   # BR(~mu_R -> ~chi_30 mu-)
     5.99168454E-08    2     1000035        13   # BR(~mu_R -> ~chi_40 mu-)
#
#         PDG            Width
DECAY   1000015     2.91696840E+01   # stau_1 decays
#          BR         NDA      ID1       ID2
     9.30693385E-01    2     1000022        15   # BR(~tau_1 -> ~chi_10  tau-)
     1.64840495E-02    2     1000023        15   # BR(~tau_1 -> ~chi_20  tau-)
     1.58991263E-02    2     1000025        15   # BR(~tau_1 -> ~chi_30  tau-)
     2.16703295E-03    2     1000035        15   # BR(~tau_1 -> ~chi_40  tau-)
     3.04182042E-02    2    -1000024        16   # BR(~tau_1 -> ~chi_1-  nu_tau)
     4.33820239E-03    2    -1000037        16   # BR(~tau_1 -> ~chi_2-  nu_tau)
#
#         PDG            Width
DECAY   2000015     3.11478263E+01   # stau_2 decays
#          BR         NDA      ID1       ID2
     2.24580761E-01    2     1000022        15   # BR(~tau_2 -> ~chi_10  tau-)
     1.54683367E-02    2     1000023        15   # BR(~tau_2 -> ~chi_20  tau-)
     1.49633037E-02    2     1000025        15   # BR(~tau_2 -> ~chi_30  tau-)
     2.48135287E-01    2     1000035        15   # BR(~tau_2 -> ~chi_40  tau-)
     8.30162425E-05    2    -1000024        16   # BR(~tau_2 -> ~chi_1-  nu_tau)
     4.96769296E-01    2    -1000037        16   # BR(~tau_2 -> ~chi_2-  nu_tau)
#
#         PDG            Width
DECAY   1000012     3.02889010E+01   # snu_eL decays
#          BR         NDA      ID1       ID2
     2.25696299E-01    2     1000022        12   # BR(~nu_eL -> ~chi_10 nu_e)
     5.47834144E-07    2     1000023        12   # BR(~nu_eL -> ~chi_20 nu_e)
     9.71629378E-04    2     1000025        12   # BR(~nu_eL -> ~chi_30 nu_e)
     2.57417419E-01    2     1000035        12   # BR(~nu_eL -> ~chi_40 nu_e)
     1.73127122E-03    2     1000024        11   # BR(~nu_eL -> ~chi_1+ e-)
     5.14182833E-01    2     1000037        11   # BR(~nu_eL -> ~chi_2+ e-)
#
#         PDG            Width
DECAY   1000014     3.02889010E+01   # snu_muL decays
#          BR         NDA      ID1       ID2
     2.25696299E-01    2     1000022        14   # BR(~nu_muL -> ~chi_10 nu_mu)
     5.47834144E-07    2     1000023        14   # BR(~nu_muL -> ~chi_20 nu_mu)
     9.71629378E-04    2     1000025        14   # BR(~nu_muL -> ~chi_30 nu_mu)
     2.57417419E-01    2     1000035        14   # BR(~nu_muL -> ~chi_40 nu_mu)
     1.73127122E-03    2     1000024        13   # BR(~nu_muL -> ~chi_1+ mu-)
     5.14182833E-01    2     1000037        13   # BR(~nu_muL -> ~chi_2+ mu-)
#
#         PDG            Width
DECAY   1000016     3.11706209E+01   # snu_tauL decays
#          BR         NDA      ID1       ID2
     2.19288075E-01    2     1000022        16   # BR(~nu_tauL -> ~chi_10 nu_tau)
     5.32273387E-07    2     1000023        16   # BR(~nu_tauL -> ~chi_20 nu_tau)
     9.44031020E-04    2     1000025        16   # BR(~nu_tauL -> ~chi_30 nu_tau)
     2.50042868E-01    2     1000035        16   # BR(~nu_tauL -> ~chi_40 nu_tau)
     3.02726515E-02    2     1000024        15   # BR(~nu_tauL -> ~chi_1+ tau-)
     4.99451842E-01    2     1000037        15   # BR(~nu_tauL -> ~chi_2+ tau-)
#
#         PDG            Width
DECAY   1000024     4.83252090E-01   # chargino1+ decays
#          BR         NDA      ID1       ID2
     1.00000000E+00    2     1000022        24   # BR(~chi_1+ -> ~chi_10  W+)
#
#         PDG            Width
DECAY   1000037     2.11091252E+01   # chargino2+ decays
#          BR         NDA      ID1       ID2
     2.53359890E-01    2     1000024        23   # BR(~chi_2+ -> ~chi_1+  Z )
     1.84751194E-04    2     1000022        24   # BR(~chi_2+ -> ~chi_10  W+)
     2.44399939E-01    2     1000023        24   # BR(~chi_2+ -> ~chi_20  W+)
     2.44216088E-01    2     1000025        24   # BR(~chi_2+ -> ~chi_30  W+)
     2.57837409E-01    2     1000024        25   # BR(~chi_2+ -> ~chi_1+  h )
     1.92216078E-06    2     1000022        37   # BR(~chi_2+ -> ~chi_10  H+)
#
#         PDG            Width
DECAY   1000022     0.00000000E+00   # neutralino1 decays
#
#         PDG            Width
DECAY   1000023     5.01650263E-01   # neutralino2 decays
#          BR         NDA      ID1       ID2
     5.29410920E-01    2     1000022        23   # BR(~chi_20 -> ~chi_10   Z )
     4.70589080E-01    2     1000022        25   # BR(~chi_20 -> ~chi_10   h )
#
#         PDG            Width
DECAY   1000025     5.01445590E-01   # neutralino3 decays
#          BR         NDA      ID1       ID2
     4.69496578E-01    2     1000022        23   # BR(~chi_30 -> ~chi_10   Z )
     5.30503422E-01    2     1000022        25   # BR(~chi_30 -> ~chi_10   h )
#
#         PDG            Width
DECAY   1000035     2.11248782E+01   # neutralino4 decays
#          BR         NDA      ID1       ID2
     3.18539482E-05    2     1000022        23   # BR(~chi_40 -> ~chi_10   Z )
     8.82319303E-02    2     1000023        23   # BR(~chi_40 -> ~chi_20   Z )
     1.64467861E-01    2     1000025        23   # BR(~chi_40 -> ~chi_30   Z )
     2.44936857E-01    2     1000024       -24   # BR(~chi_40 -> ~chi_1+   W-)
     2.44936857E-01    2    -1000024        24   # BR(~chi_40 -> ~chi_1-   W+)
     1.51507873E-04    2     1000022        25   # BR(~chi_40 -> ~chi_10   h )
     1.83097392E-06    2     1000022        35   # BR(~chi_40 -> ~chi_10   H )
     2.13384477E-07    2     1000022        36   # BR(~chi_40 -> ~chi_10   A )
     1.68742089E-01    2     1000023        25   # BR(~chi_40 -> ~chi_20   h )
     8.84989999E-02    2     1000025        25   # BR(~chi_40 -> ~chi_30   h )
#
#         PDG            Width
DECAY        25     4.05820618E-03   # h decays
#          BR         NDA      ID1       ID2
     6.07270502E-01    2           5        -5   # BR(h -> b       bb     )
     6.39321943E-02    2         -15        15   # BR(h -> tau+    tau-   )
     2.26343071E-04    2         -13        13   # BR(h -> mu+     mu-    )
     4.79809432E-04    2           3        -3   # BR(h -> s       sb     )
     2.07901768E-02    2           4        -4   # BR(h -> c       cb     )
     6.72892965E-02    2          21        21   # BR(h -> g       g      )
     2.31403542E-03    2          22        22   # BR(h -> gam     gam    )
     1.49493142E-03    2          22        23   # BR(h -> Z       gam    )
     2.10976891E-01    2          24       -24   # BR(h -> W+      W-     )
     2.51530387E-02    2          23        23   # BR(h -> Z       Z      )
     7.27822353E-05    2     1000022   1000022   # BR(h -> ~chi_10 ~chi_10)
#
#         PDG            Width
DECAY        35     8.36881136E+00   # H decays
#          BR         NDA      ID1       ID2
     3.84198864E-01    2           5        -5   # BR(H -> b       bb     )
     6.65566932E-02    2         -15        15   # BR(H -> tau+    tau-   )
     2.35349754E-04    2         -13        13   # BR(H -> mu+     mu-    )
     2.88502693E-04    2           3        -3   # BR(H -> s       sb     )
     1.61450378E-06    2           4        -4   # BR(H -> c       cb     )
     1.61301716E-01    2           6        -6   # BR(H -> t       tb     )
     5.36237270E-05    2          21        21   # BR(H -> g       g      )
     2.09650913E-07    2          22        22   # BR(H -> gam     gam    )
     9.52347333E-08    2          23        22   # BR(H -> Z       gam    )
     7.54934870E-05    2          24       -24   # BR(H -> W+      W-     )
     3.76989639E-05    2          23        23   # BR(H -> Z       Z      )
     2.77142560E-04    2          25        25   # BR(H -> h       h      )
     1.08884551E-23    2          36        36   # BR(H -> A       A      )
     8.20941429E-19    2          23        36   # BR(H -> Z       A      )
     2.57716481E-03    2     1000024  -1000024   # BR(H -> ~chi_1+ ~chi_1-)
     2.69780509E-03    2     1000022   1000022   # BR(H -> ~chi_10 ~chi_10)
     4.85653581E-07    2     1000023   1000023   # BR(H -> ~chi_20 ~chi_20)
     1.01742729E-03    2     1000025   1000025   # BR(H -> ~chi_30 ~chi_30)
     2.28907805E-01    2     1000022   1000023   # BR(H -> ~chi_10 ~chi_20)
     1.50709836E-01    2     1000022   1000025   # BR(H -> ~chi_10 ~chi_30)
     1.06247273E-03    2     1000023   1000025   # BR(H -> ~chi_20 ~chi_30)
#
#         PDG            Width
DECAY        36     8.38072884E+00   # A decays
#          BR         NDA      ID1       ID2
     3.83782418E-01    2           5        -5   # BR(A -> b       bb     )
     6.64640133E-02    2         -15        15   # BR(A -> tau+    tau-   )
     2.35021702E-04    2         -13        13   # BR(A -> mu+     mu-    )
     2.88311184E-04    2           3        -3   # BR(A -> s       sb     )
     1.61874377E-06    2           4        -4   # BR(A -> c       cb     )
     1.61636092E-01    2           6        -6   # BR(A -> t       tb     )
     1.59940766E-04    2          21        21   # BR(A -> g       g      )
     5.96123401E-07    2          22        22   # BR(A -> gam     gam    )
     1.93688207E-07    2          23        22   # BR(A -> Z       gam    )
     7.51007393E-05    2          23        25   # BR(A -> Z       h      )
     3.36796218E-03    2     1000024  -1000024   # BR(A -> ~chi_1+ ~chi_1-)
     2.73140669E-03    2     1000022   1000022   # BR(A -> ~chi_10 ~chi_10)
     4.43211980E-07    2     1000023   1000023   # BR(A -> ~chi_20 ~chi_20)
     2.17758286E-03    2     1000025   1000025   # BR(A -> ~chi_30 ~chi_30)
     1.53006614E-01    2     1000022   1000023   # BR(A -> ~chi_10 ~chi_20)
     2.25584155E-01    2     1000022   1000025   # BR(A -> ~chi_10 ~chi_30)
     4.88529666E-04    2     1000023   1000025   # BR(A -> ~chi_20 ~chi_30)
#
#         PDG            Width
DECAY        37     8.34867265E+00   # H+ decays
#          BR         NDA      ID1       ID2
     6.18556385E-04    2           4        -5   # BR(H+ -> c       bb     )
     6.67495281E-02    2         -15        16   # BR(H+ -> tau+    nu_tau )
     2.36031303E-04    2         -13        14   # BR(H+ -> mu+     nu_mu  )
     3.95874034E-06    2           2        -5   # BR(H+ -> u       bb     )
     1.38495338E-05    2           2        -3   # BR(H+ -> u       sb     )
     2.86409831E-04    2           4        -3   # BR(H+ -> c       sb     )
     5.45488433E-01    2           6        -5   # BR(H+ -> t       bb     )
     7.55405308E-05    2          24        25   # BR(H+ -> W+      h      )
     7.40644419E-13    2          24        36   # BR(H+ -> W+      A      )
     3.85065516E-01    2     1000024   1000022   # BR(H+ -> ~chi_1+ ~chi_10)
     1.43805005E-03    2     1000024   1000023   # BR(H+ -> ~chi_1+ ~chi_20)
     2.41266309E-05    2     1000024   1000025   # BR(H+ -> ~chi_1+ ~chi_30)
