#
#                              ======================
#                              | THE SUSYHIT OUTPUT |
#                              ======================
#
#
#              ------------------------------------------------------
#              |     This is the output of the SUSY-HIT package     |
#              |  created by A.Djouadi, M.Muehlleitner and M.Spira. |
#              |  In case of problems with SUSY-HIT email to        |
#              |           margarete.muehlleitner@kit.edu           |
#              |           michael.spira@psi.ch                     |
#              |           abdelhak.djouadi@cern.ch                 |
#              ------------------------------------------------------
#
#              ------------------------------------------------------
#              |  SUSY Les Houches Accord - MSSM Spectrum + Decays  |
#              |              based on the decay programs           |
#              |                                                    |
#              |                     SDECAY 1.5                     |
#              |                                                    |
#              |  Authors: M.Muhlleitner, A.Djouadi and Y.Mambrini  |
#              |  Ref.:    Comput.Phys.Commun.168(2005)46           |
#              |           [hep-ph/0311167]                         |
#              |                                                    |
#              |                     HDECAY 3.4                     |
#              |                                                    |
#              |  By: A.Djouadi,J.Kalinowski,M.Muhlleitner,M.Spira  |
#              |  Ref.:    Comput.Phys.Commun.108(1998)56           |
#              |           [hep-ph/9704448]                         |
#              |                                                    |
#              |                                                    |
#              |  If not stated otherwise all DRbar couplings and   |
#              |  soft SUSY breaking masses are given at the scale  |
#              |  Q=  0.91187600E+02
#              |                                                    |
#              ------------------------------------------------------
#
#
BLOCK DCINFO  # Decay Program information
     1   SDECAY/HDECAY # decay calculator
     2   1.5  /3.4    # version number
#
BLOCK SPINFO  # Spectrum calculator information
     1   SuSpect     # RGE +Spectrum calculator            
     2   2.43         # version number                     
#
BLOCK MODSEL  # Model selection
     1     2   # GMSB                                              
#
BLOCK SMINPUTS  # Standard Model inputs
         1     1.27932904E+02   # alpha_em^-1(M_Z)^MSbar
         2     1.16639000E-05   # G_F [GeV^-2]
         3     1.17200000E-01   # alpha_S(M_Z)^MSbar
         4     9.11870000E+01   # M_Z pole mass
         5     4.25000000E+00   # mb(mb)^MSbar
         6     1.72900000E+02   # mt pole mass
         7     1.77700000E+00   # mtau pole mass
#
BLOCK MINPAR  # Input parameters - minimal models
#
BLOCK EXTPAR  # Input parameters - non-minimal models
         0     9.11876000E+01   # EWSB                
         1     2.04100000E+03   # M_1                 
         2     3.00000000E+03   # M_2                 
         3     2.20000000E+03   # M_3                 
        11     0.00000000E+00   # A_t                 
        12     0.00000000E+00   # A_b                 
        13     0.00000000E+00   # A_tau               
        14     0.00000000E+00   # A_u                 
        15     0.00000000E+00   # A_d                 
        16     0.00000000E+00   # A_e                 
        23     2.06000000E+03   # mu(EWSB)            
        25     1.50000000E+00   # tanbeta(in)         
        26     2.00000000E+03   # MA_pole             
        31     5.00000000E+03   # M_eL                
        32     5.00000000E+03   # M_muL               
        33     5.00000000E+03   # M_tauL              
        34     5.00000000E+03   # M_eR                
        35     5.00000000E+03   # M_muR               
        36     5.00000000E+03   # M_tauR              
        41     5.00000000E+03   # M_q1L               
        42     5.00000000E+03   # M_q2L               
        43     5.00000000E+03   # M_q3L               
        44     5.00000000E+03   # M_uR                
        45     5.00000000E+03   # M_cR                
        46     5.00000000E+03   # M_tR                
        47     5.00000000E+03   # M_dR                
        48     5.00000000E+03   # M_sR                
        49     5.00000000E+03   # M_bR                
#
BLOCK MASS  # Mass Spectrum
# PDG code           mass       particle
        24     8.05422245E+01   # W+
        25     1.26000000E+02   # h
        35     2.00399013E+03   # H
        36     2.00000000E+03   # A
        37     2.00152081E+03   # H+
         5     4.87877839E+00   # b-quark pole mass calculated from mb(mb)_Msbar
   1000001     4.92095256E+03   # ~d_L
   2000001     4.92084214E+03   # ~d_R
   1000002     4.92070566E+03   # ~u_L
   2000002     4.92076393E+03   # ~u_R
   1000003     4.92095256E+03   # ~s_L
   2000003     4.92084214E+03   # ~s_R
   1000004     4.92070566E+03   # ~c_L
   2000004     4.92076393E+03   # ~c_R
   1000005     4.92004430E+03   # ~b_1
   2000005     4.92175174E+03   # ~b_2
   1000006     5.02874860E+03   # ~t_1
   2000006     5.31680640E+03   # ~t_2
   1000011     5.00008214E+03   # ~e_L
   2000011     5.00007617E+03   # ~e_R
   1000012     4.99984169E+03   # ~nu_eL
   1000013     5.00008214E+03   # ~mu_L
   2000013     5.00007617E+03   # ~mu_R
   1000014     4.99984169E+03   # ~nu_muL
   1000015     4.99952978E+03   # ~tau_1
   2000015     5.00062911E+03   # ~tau_2
   1000016     4.99984169E+03   # ~nu_tauL
   1000021     2.23870479E+03   # ~g
   1000022     2.12688022E+03   # ~chi_10
   1000023    -2.18159000E+03   # ~chi_20
   1000025     2.21433147E+03   # ~chi_30
   1000035     3.12477233E+03   # ~chi_40
   1000024     2.17519903E+03   # ~chi_1+
   1000037     3.12475914E+03   # ~chi_2+
   1000039     1.00000000E-09   # ~gravitino
#
BLOCK NMIX  # Neutralino Mixing Matrix
  1  1     7.42966028E-01   # N_11
  1  2    -5.21561334E-02   # N_12
  1  3     4.73043520E-01   # N_13
  1  4    -4.70649602E-01   # N_14
  2  1     2.00814528E-03   # N_21
  2  2    -2.92683825E-03   # N_22
  2  3    -7.07051346E-01   # N_23
  2  4    -7.07153304E-01   # N_24
  3  1     6.69315536E-01   # N_31
  3  2     6.35075596E-02   # N_32
  3  3    -5.22660388E-01   # N_33
  3  4     5.24222874E-01   # N_34
  4  1     3.76322869E-03   # N_41
  4  2    -9.96613246E-01   # N_42
  4  3    -5.59851898E-02   # N_43
  4  4     6.01126891E-02   # N_44
#
BLOCK UMIX  # Chargino Mixing Matrix U
  1  1    -7.90103328E-02   # U_11
  1  2     9.96873797E-01   # U_12
  2  1     9.96873797E-01   # U_21
  2  2     7.90103328E-02   # U_22
#
BLOCK VMIX  # Chargino Mixing Matrix V
  1  1    -8.48422602E-02   # V_11
  1  2     9.96394395E-01   # V_12
  2  1     9.96394395E-01   # V_21
  2  2     8.48422602E-02   # V_22
#
BLOCK STOPMIX  # Stop Mixing Matrix
  1  1     9.99762217E-01   # cos(theta_t)
  1  2     2.18061794E-02   # sin(theta_t)
  2  1    -2.18061794E-02   # -sin(theta_t)
  2  2     9.99762217E-01   # cos(theta_t)
#
BLOCK SBOTMIX  # Sbottom Mixing Matrix
  1  1     6.83861386E-01   # cos(theta_b)
  1  2     7.29611955E-01   # sin(theta_b)
  2  1    -7.29611955E-01   # -sin(theta_b)
  2  2     6.83861386E-01   # cos(theta_b)
#
BLOCK STAUMIX  # Stau Mixing Matrix
  1  1     7.05184272E-01   # cos(theta_tau)
  1  2     7.09024078E-01   # sin(theta_tau)
  2  1    -7.09024078E-01   # -sin(theta_tau)
  2  2     7.05184272E-01   # cos(theta_tau)
#
BLOCK ALPHA  # Higgs mixing
          -5.90196962E-01   # Mixing angle in the neutral Higgs boson sector
#
BLOCK HMIX Q=  9.11876000E+01  # DRbar Higgs Parameters
         1     2.06000000E+03   # mu(Q)               
         2     1.49999979E+00   # tanbeta(Q)          
         3     2.52351918E+02   # vev(Q)              
         4     2.98871261E+06   # MA^2(Q)             
#
BLOCK GAUGE Q=  9.11876000E+01  # The gauge couplings
     1     3.52700019E-01   # gprime(Q) DRbar
     2     6.26650361E-01   # g(Q) DRbar
     3     1.07892798E+00   # g3(Q) DRbar
#
BLOCK AU Q=  9.11876000E+01  # The trilinear couplings
  1  1     0.00000000E+00   # A_u(Q) DRbar
  2  2     0.00000000E+00   # A_c(Q) DRbar
  3  3     0.00000000E+00   # A_t(Q) DRbar
#
BLOCK AD Q=  9.11876000E+01  # The trilinear couplings
  1  1     0.00000000E+00   # A_d(Q) DRbar
  2  2     0.00000000E+00   # A_s(Q) DRbar
  3  3     0.00000000E+00   # A_b(Q) DRbar
#
BLOCK AE Q=  9.11876000E+01  # The trilinear couplings
  1  1     0.00000000E+00   # A_e(Q) DRbar
  2  2     0.00000000E+00   # A_mu(Q) DRbar
  3  3     0.00000000E+00   # A_tau(Q) DRbar
#
BLOCK Yu Q=  9.11876000E+01  # The Yukawa couplings
  1  1     0.00000000E+00   # y_u(Q) DRbar
  2  2     0.00000000E+00   # y_c(Q) DRbar
  3  3     1.02466554E+00   # y_t(Q) DRbar
#
BLOCK Yd Q=  9.11876000E+01  # The Yukawa couplings
  1  1     0.00000000E+00   # y_d(Q) DRbar
  2  2     0.00000000E+00   # y_s(Q) DRbar
  3  3     2.71270503E-02   # y_b(Q) DRbar
#
BLOCK Ye Q=  9.11876000E+01  # The Yukawa couplings
  1  1     0.00000000E+00   # y_e(Q) DRbar
  2  2     0.00000000E+00   # y_mu(Q) DRbar
  3  3     1.79717121E-02   # y_tau(Q) DRbar
#
BLOCK MSOFT Q=  9.11876000E+01  # The soft SUSY breaking masses at the scale Q
         1     2.04100000E+03   # M_1                 
         2     3.00000000E+03   # M_2                 
         3     2.20000000E+03   # M_3                 
        14     0.00000000E+00   # A_u                 
        15     0.00000000E+00   # A_d                 
        16     0.00000000E+00   # A_e                 
        21    -1.70297911E+06   # M^2_Hd              
        22    -9.30275891E+06   # M^2_Hu              
        31     5.00000000E+03   # M_eL                
        32     5.00000000E+03   # M_muL               
        33     5.00000000E+03   # M_tauL              
        34     5.00000000E+03   # M_eR                
        35     5.00000000E+03   # M_muR               
        36     5.00000000E+03   # M_tauR              
        41     5.00000000E+03   # M_q1L               
        42     5.00000000E+03   # M_q2L               
        43     5.00000000E+03   # M_q3L               
        44     5.00000000E+03   # M_uR                
        45     5.00000000E+03   # M_cR                
        46     5.00000000E+03   # M_tR                
        47     5.00000000E+03   # M_dR                
        48     5.00000000E+03   # M_sR                
        49     5.00000000E+03   # M_bR                
#
#
#
#                             =================
#                             |The decay table|
#                             =================
#
# - The QCD corrections to the decays gluino -> squark  + quark
#                                     squark -> gaugino + quark_prime
#                                     squark -> squark_prime + Higgs
#                                     squark -> gluino  + quark
#   are included.
#
# - The multi-body decays for the inos, stops and sbottoms are included.
#
# - The loop induced decays for the gluino, neutralinos and stops
#   are included.
#
# - The SUSY decays of the top quark are included.
#
# - Possible decays of the NLSP in GMSB models are included.
#
#
#         PDG            Width
DECAY         6     1.36814391E+00   # top decays
#          BR         NDA      ID1       ID2
     1.00000000E+00    2           5        24   # BR(t ->  b    W+)
#
#         PDG            Width
DECAY   1000021     6.47678181E-05   # gluino decays
#          BR         NDA      ID1       ID2
     3.04698994E-04    2     1000022        21   # BR(~g -> ~chi_10 g)
     9.57156833E-05    2     1000023        21   # BR(~g -> ~chi_20 g)
     4.18583904E-06    2     1000025        21   # BR(~g -> ~chi_30 g)
#          BR         NDA      ID1       ID2
0.0E+00    2     1000039    21 # BR(~g -> ~G      g)
#           BR         NDA      ID1       ID2       ID3
     3.48540429E-06    3     1000022         1        -1   # BR(~g -> ~chi_10 d  db)
     4.26130388E-12    3     1000023         1        -1   # BR(~g -> ~chi_20 d  db)
     1.08623054E-09    3     1000025         1        -1   # BR(~g -> ~chi_30 d  db)
     9.70357772E-06    3     1000022         2        -2   # BR(~g -> ~chi_10 u  ub)
     3.25719052E-12    3     1000023         2        -2   # BR(~g -> ~chi_20 u  ub)
     4.67554579E-09    3     1000025         2        -2   # BR(~g -> ~chi_30 u  ub)
     3.48540429E-06    3     1000022         3        -3   # BR(~g -> ~chi_10 s  sb)
     4.26130388E-12    3     1000023         3        -3   # BR(~g -> ~chi_20 s  sb)
     1.08623054E-09    3     1000025         3        -3   # BR(~g -> ~chi_30 s  sb)
     9.70357772E-06    3     1000022         4        -4   # BR(~g -> ~chi_10 c  cb)
     3.25719052E-12    3     1000023         4        -4   # BR(~g -> ~chi_20 c  cb)
     4.67554579E-09    3     1000025         4        -4   # BR(~g -> ~chi_30 c  cb)
     3.34823608E-06    3     1000022         5        -5   # BR(~g -> ~chi_10 b  bb)
     3.83030783E-09    3     1000023         5        -5   # BR(~g -> ~chi_20 b  bb)
     8.80310721E-10    3     1000025         5        -5   # BR(~g -> ~chi_30 b  bb)
     2.52614387E-08    3     1000024         1        -2   # BR(~g -> ~chi_1+ d  ub)
     2.52614387E-08    3    -1000024         2        -1   # BR(~g -> ~chi_1- u  db)
     2.52614387E-08    3     1000024         3        -4   # BR(~g -> ~chi_1+ s  cb)
     2.52614387E-08    3    -1000024         4        -3   # BR(~g -> ~chi_1- c  sb)
#
#         PDG            Width
DECAY   1000006     2.42454438E+02   # stop1 decays
#          BR         NDA      ID1       ID2
     4.43193576E-02    2     1000022         6   # BR(~t_1 -> ~chi_10 t )
     9.76552748E-02    2     1000023         6   # BR(~t_1 -> ~chi_20 t )
     5.48470467E-02    2     1000025         6   # BR(~t_1 -> ~chi_30 t )
     3.01919409E-02    2     1000035         6   # BR(~t_1 -> ~chi_40 t )
     2.02691338E-04    2     1000024         5   # BR(~t_1 -> ~chi_1+ b )
     5.90513359E-02    2     1000037         5   # BR(~t_1 -> ~chi_2+ b )
     7.05753738E-01    2     1000021         6   # BR(~t_1 -> ~g      t )
     3.94402479E-03    2     1000005        24   # BR(~t_1 -> ~b_1    W+)
     4.03458992E-03    2     2000005        24   # BR(~t_1 -> ~b_2    W+)
#
#         PDG            Width
DECAY   2000006     3.01803034E+02   # stop2 decays
#          BR         NDA      ID1       ID2
     5.35407764E-02    2     1000022         6   # BR(~t_2 -> ~chi_10 t )
     8.77817084E-02    2     1000023         6   # BR(~t_2 -> ~chi_20 t )
     5.96698773E-02    2     1000025         6   # BR(~t_2 -> ~chi_30 t )
     2.48968577E-04    2     1000035         6   # BR(~t_2 -> ~chi_40 t )
     1.75546729E-01    2     1000024         5   # BR(~t_2 -> ~chi_1+ b )
     5.00532413E-04    2     1000037         5   # BR(~t_2 -> ~chi_2+ b )
     6.22152762E-01    2     1000021         6   # BR(~t_2 -> ~g      t )
    -1.69818535E-06    2     1000006        25   # BR(~t_2 -> ~t_1    h )
     8.37059223E-05    2     1000006        23   # BR(~t_2 -> ~t_1    Z )
     2.24513151E-04    2     1000005        24   # BR(~t_2 -> ~b_1    W+)
     2.52124763E-04    2     2000005        24   # BR(~t_2 -> ~b_2    W+)
#
#         PDG            Width
DECAY   1000005     1.96023717E+02   # sbottom1 decays
#          BR         NDA      ID1       ID2
     4.46298760E-03    2     1000022         5   # BR(~b_1 -> ~chi_10 b )
     7.32232152E-05    2     1000023         5   # BR(~b_1 -> ~chi_20 b )
     1.71005884E-03    2     1000025         5   # BR(~b_1 -> ~chi_30 b )
     1.51629039E-02    2     1000035         5   # BR(~b_1 -> ~chi_40 b )
     1.03464171E-01    2    -1000024         6   # BR(~b_1 -> ~chi_1- t )
     3.10241800E-02    2    -1000037         6   # BR(~b_1 -> ~chi_2- t )
     8.44102475E-01    2     1000021         5   # BR(~b_1 -> ~g      b )
#
#         PDG            Width
DECAY   2000005     2.02475175E+02   # sbottom2 decays
#          BR         NDA      ID1       ID2
     2.68383087E-03    2     1000022         5   # BR(~b_2 -> ~chi_10 b )
     8.84845536E-05    2     1000023         5   # BR(~b_2 -> ~chi_20 b )
     2.33248697E-03    2     1000025         5   # BR(~b_2 -> ~chi_30 b )
     1.79472407E-02    2     1000035         5   # BR(~b_2 -> ~chi_40 b )
     1.23472307E-01    2    -1000024         6   # BR(~b_2 -> ~chi_1- t )
     3.67284077E-02    2    -1000037         6   # BR(~b_2 -> ~chi_2- t )
     8.16747242E-01    2     1000021         5   # BR(~b_2 -> ~g      b )
#
#         PDG            Width
DECAY   1000002     1.85864474E+02   # sup_L decays
#          BR         NDA      ID1       ID2
     5.02324880E-04    2     1000022         2   # BR(~u_L -> ~chi_10 u)
     4.19120749E-07    2     1000023         2   # BR(~u_L -> ~chi_20 u)
     2.27040859E-03    2     1000025         2   # BR(~u_L -> ~chi_30 u)
     3.54341033E-02    2     1000035         2   # BR(~u_L -> ~chi_40 u)
     9.30503711E-04    2     1000024         1   # BR(~u_L -> ~chi_1+ d)
     7.09383588E-02    2     1000037         1   # BR(~u_L -> ~chi_2+ d)
     8.89923882E-01    2     1000021         2   # BR(~u_L -> ~g      u)
#
#         PDG            Width
DECAY   2000002     1.72201565E+02   # sup_R decays
#          BR         NDA      ID1       ID2
     2.21498759E-02    2     1000022         2   # BR(~u_R -> ~chi_10 u)
     1.57988897E-07    2     1000023         2   # BR(~u_R -> ~chi_20 u)
     1.72937085E-02    2     1000025         2   # BR(~u_R -> ~chi_30 u)
     3.07553709E-07    2     1000035         2   # BR(~u_R -> ~chi_40 u)
     9.60555950E-01    2     1000021         2   # BR(~u_R -> ~g      u)
#
#         PDG            Width
DECAY   1000001     1.85873900E+02   # sdown_L decays
#          BR         NDA      ID1       ID2
     2.42207489E-03    2     1000022         1   # BR(~d_L -> ~chi_10 d)
     7.03432007E-07    2     1000023         1   # BR(~d_L -> ~chi_20 d)
     2.44632642E-04    2     1000025         1   # BR(~d_L -> ~chi_30 d)
     3.55394118E-02    2     1000035         1   # BR(~d_L -> ~chi_40 d)
     8.07016508E-04    2    -1000024         2   # BR(~d_L -> ~chi_1- u)
     7.10161422E-02    2    -1000037         2   # BR(~d_L -> ~chi_2- u)
     8.89970019E-01    2     1000021         1   # BR(~d_L -> ~g      d)
#
#         PDG            Width
DECAY   2000001     1.67112746E+02   # sdown_R decays
#          BR         NDA      ID1       ID2
     5.70626703E-03    2     1000022         1   # BR(~d_R -> ~chi_10 d)
     4.07012518E-08    2     1000023         1   # BR(~d_R -> ~chi_20 d)
     4.45522444E-03    2     1000025         1   # BR(~d_R -> ~chi_30 d)
     7.92344205E-08    2     1000035         1   # BR(~d_R -> ~chi_40 d)
     9.89838389E-01    2     1000021         1   # BR(~d_R -> ~g      d)
#
#         PDG            Width
DECAY   1000004     1.85864474E+02   # scharm_L decays
#          BR         NDA      ID1       ID2
     5.02324880E-04    2     1000022         4   # BR(~c_L -> ~chi_10 c)
     4.19120749E-07    2     1000023         4   # BR(~c_L -> ~chi_20 c)
     2.27040859E-03    2     1000025         4   # BR(~c_L -> ~chi_30 c)
     3.54341033E-02    2     1000035         4   # BR(~c_L -> ~chi_40 c)
     9.30503711E-04    2     1000024         3   # BR(~c_L -> ~chi_1+ s)
     7.09383588E-02    2     1000037         3   # BR(~c_L -> ~chi_2+ s)
     8.89923882E-01    2     1000021         4   # BR(~c_L -> ~g      c)
#
#         PDG            Width
DECAY   2000004     1.72201565E+02   # scharm_R decays
#          BR         NDA      ID1       ID2
     2.21498759E-02    2     1000022         4   # BR(~c_R -> ~chi_10 c)
     1.57988897E-07    2     1000023         4   # BR(~c_R -> ~chi_20 c)
     1.72937085E-02    2     1000025         4   # BR(~c_R -> ~chi_30 c)
     3.07553709E-07    2     1000035         4   # BR(~c_R -> ~chi_40 c)
     9.60555950E-01    2     1000021         4   # BR(~c_R -> ~g      c)
#
#         PDG            Width
DECAY   1000003     1.85873900E+02   # sstrange_L decays
#          BR         NDA      ID1       ID2
     2.42207489E-03    2     1000022         3   # BR(~s_L -> ~chi_10 s)
     7.03432007E-07    2     1000023         3   # BR(~s_L -> ~chi_20 s)
     2.44632642E-04    2     1000025         3   # BR(~s_L -> ~chi_30 s)
     3.55394118E-02    2     1000035         3   # BR(~s_L -> ~chi_40 s)
     8.07016508E-04    2    -1000024         4   # BR(~s_L -> ~chi_1- c)
     7.10161422E-02    2    -1000037         4   # BR(~s_L -> ~chi_2- c)
     8.89970019E-01    2     1000021         3   # BR(~s_L -> ~g      s)
#
#         PDG            Width
DECAY   2000003     1.67112746E+02   # sstrange_R decays
#          BR         NDA      ID1       ID2
     5.70626703E-03    2     1000022         3   # BR(~s_R -> ~chi_10 s)
     4.07012518E-08    2     1000023         3   # BR(~s_R -> ~chi_20 s)
     4.45522444E-03    2     1000025         3   # BR(~s_R -> ~chi_30 s)
     7.92344205E-08    2     1000035         3   # BR(~s_R -> ~chi_40 s)
     9.89838389E-01    2     1000021         3   # BR(~s_R -> ~g      s)
#
#         PDG            Width
DECAY   1000011     2.59544475E+01   # selectron_L decays
#          BR         NDA      ID1       ID2
     6.76293665E-02    2     1000022        11   # BR(~e_L -> ~chi_10 e-)
     1.59216634E-06    2     1000023        11   # BR(~e_L -> ~chi_20 e-)
     9.42400637E-02    2     1000025        11   # BR(~e_L -> ~chi_30 e-)
     2.76433151E-01    2     1000035        11   # BR(~e_L -> ~chi_40 e-)
     6.17567058E-03    2    -1000024        12   # BR(~e_L -> ~chi_1- nu_e)
     5.55520156E-01    2    -1000037        12   # BR(~e_L -> ~chi_2- nu_e)
#
#         PDG            Width
DECAY   2000011     1.63294061E+01   # selectron_R decays
#          BR         NDA      ID1       ID2
     5.61238508E-01    2     1000022        11   # BR(~e_R -> ~chi_10 e-)
     4.00629898E-06    2     1000023        11   # BR(~e_R -> ~chi_20 e-)
     4.38749514E-01    2     1000025        11   # BR(~e_R -> ~chi_30 e-)
     7.97197460E-06    2     1000035        11   # BR(~e_R -> ~chi_40 e-)
#
#         PDG            Width
DECAY   1000013     2.59544475E+01   # smuon_L decays
#          BR         NDA      ID1       ID2
     6.76293665E-02    2     1000022        13   # BR(~mu_L -> ~chi_10 mu-)
     1.59216634E-06    2     1000023        13   # BR(~mu_L -> ~chi_20 mu-)
     9.42400637E-02    2     1000025        13   # BR(~mu_L -> ~chi_30 mu-)
     2.76433151E-01    2     1000035        13   # BR(~mu_L -> ~chi_40 mu-)
     6.17567058E-03    2    -1000024        14   # BR(~mu_L -> ~chi_1- nu_mu)
     5.55520156E-01    2    -1000037        14   # BR(~mu_L -> ~chi_2- nu_mu)
#
#         PDG            Width
DECAY   2000013     1.63294061E+01   # smuon_R decays
#          BR         NDA      ID1       ID2
     5.61238508E-01    2     1000022        13   # BR(~mu_R -> ~chi_10 mu-)
     4.00629898E-06    2     1000023        13   # BR(~mu_R -> ~chi_20 mu-)
     4.38749514E-01    2     1000025        13   # BR(~mu_R -> ~chi_30 mu-)
     7.97197460E-06    2     1000035        13   # BR(~mu_R -> ~chi_40 mu-)
#
#         PDG            Width
DECAY   1000015     2.11894248E+01   # stau_1 decays
#          BR         NDA      ID1       ID2
     2.64444903E-01    2     1000022        15   # BR(~tau_1 -> ~chi_10  tau-)
     4.29172003E-04    2     1000023        15   # BR(~tau_1 -> ~chi_20  tau-)
     2.23723048E-01    2     1000025        15   # BR(~tau_1 -> ~chi_30  tau-)
     1.67540919E-01    2     1000035        15   # BR(~tau_1 -> ~chi_40  tau-)
     6.99518438E-03    2    -1000024        16   # BR(~tau_1 -> ~chi_1-  nu_tau)
     3.36697062E-01    2    -1000037        16   # BR(~tau_1 -> ~chi_2-  nu_tau)
     1.69712190E-04    2     1000039        15   # BR(~tau_1 -> ~G       tau-)
#
#         PDG            Width
DECAY   2000015     2.11612042E+01   # stau_2 decays
#          BR         NDA      ID1       ID2
     2.51689175E-01    2     1000022        15   # BR(~tau_2 -> ~chi_10  tau-)
     5.70345449E-04    2     1000023        15   # BR(~tau_2 -> ~chi_20  tau-)
     2.30674384E-01    2     1000025        15   # BR(~tau_2 -> ~chi_30  tau-)
     1.71295191E-01    2     1000035        15   # BR(~tau_2 -> ~chi_40  tau-)
     1.56058431E-03    2    -1000024        16   # BR(~tau_2 -> ~chi_1-  nu_tau)
     3.44210320E-01    2    -1000037        16   # BR(~tau_2 -> ~chi_2-  nu_tau)
#
#         PDG            Width
DECAY   1000012     2.59576904E+01   # snu_eL decays
#          BR         NDA      ID1       ID2
     1.11646921E-01    2     1000022        12   # BR(~nu_eL -> ~chi_10 nu_e)
     8.11758611E-06    2     1000023        12   # BR(~nu_eL -> ~chi_20 nu_e)
     4.76934053E-02    2     1000025        12   # BR(~nu_eL -> ~chi_30 nu_e)
     2.78710555E-01    2     1000035        12   # BR(~nu_eL -> ~chi_40 nu_e)
     7.11944520E-03    2     1000024        11   # BR(~nu_eL -> ~chi_1+ e-)
     5.54821556E-01    2     1000037        11   # BR(~nu_eL -> ~chi_2+ e-)
#
#         PDG            Width
DECAY   1000014     2.59576904E+01   # snu_muL decays
#          BR         NDA      ID1       ID2
     1.11646921E-01    2     1000022        14   # BR(~nu_muL -> ~chi_10 nu_mu)
     8.11758611E-06    2     1000023        14   # BR(~nu_muL -> ~chi_20 nu_mu)
     4.76934053E-02    2     1000025        14   # BR(~nu_muL -> ~chi_30 nu_mu)
     2.78710555E-01    2     1000035        14   # BR(~nu_muL -> ~chi_40 nu_mu)
     7.11944520E-03    2     1000024        13   # BR(~nu_muL -> ~chi_1+ mu-)
     5.54821556E-01    2     1000037        13   # BR(~nu_muL -> ~chi_2+ mu-)
#
#         PDG            Width
DECAY   1000016     2.59787396E+01   # snu_tauL decays
#          BR         NDA      ID1       ID2
     1.11556459E-01    2     1000022        16   # BR(~nu_tauL -> ~chi_10 nu_tau)
     8.11100885E-06    2     1000023        16   # BR(~nu_tauL -> ~chi_20 nu_tau)
     4.76547618E-02    2     1000025        16   # BR(~nu_tauL -> ~chi_30 nu_tau)
     2.78484730E-01    2     1000035        16   # BR(~nu_tauL -> ~chi_40 nu_tau)
     7.91959748E-03    2     1000024        15   # BR(~nu_tauL -> ~chi_1+ tau-)
     5.54376340E-01    2     1000037        15   # BR(~nu_tauL -> ~chi_2+ tau-)
#
#         PDG            Width
DECAY   1000024     1.90967579E-04   # chargino1+ decays
#          BR         NDA      ID1       ID2
     1.46968578E-01    2     1000039        24   # BR(~chi_1+ -> ~G       W+)
     8.05701980E-05    2     1000039        37   # BR(~chi_1+ -> ~G       H+)
#           BR         NDA      ID1       ID2       ID3
     2.84526896E-01    3     1000022         2        -1   # BR(~chi_1+ -> ~chi_10 u    db)
     2.84526896E-01    3     1000022         4        -3   # BR(~chi_1+ -> ~chi_10 c    sb)
     9.48423879E-02    3     1000022       -11        12   # BR(~chi_1+ -> ~chi_10 e+   nu_e)
     9.48423879E-02    3     1000022       -13        14   # BR(~chi_1+ -> ~chi_10 mu+  nu_mu)
     9.42122845E-02    3     1000022       -15        16   # BR(~chi_1+ -> ~chi_10 tau+ nu_tau)
#
#         PDG            Width
DECAY   1000037     3.34420394E+01   # chargino2+ decays
#          BR         NDA      ID1       ID2
     2.54467159E-01    2     1000024        23   # BR(~chi_2+ -> ~chi_1+  Z )
     1.02376020E-01    2     1000022        24   # BR(~chi_2+ -> ~chi_10  W+)
     2.45970656E-01    2     1000023        24   # BR(~chi_2+ -> ~chi_20  W+)
     1.45845716E-01    2     1000025        24   # BR(~chi_2+ -> ~chi_30  W+)
     2.51330249E-01    2     1000024        25   # BR(~chi_2+ -> ~chi_1+  h )
     1.01961820E-05    2     1000039        24   # BR(~chi_2+ -> ~G       W+)
     4.05379864E-09    2     1000039        37   # BR(~chi_2+ -> ~G       H+)
#
#         PDG            Width
DECAY   1000022    1.0E-05    # neutralino1 decays
#          BR         NDA      ID1       ID2
     4.99741465E-01    2     1000039        22   # BR(~chi_10 -> ~G        gam)
     4.89811994E-01    2     1000039        23   # BR(~chi_10 -> ~G        Z)
     1.04005480E-02    2     1000039        25   # BR(~chi_10 -> ~G        h)
     4.39550407E-05    2     1000039        35   # BR(~chi_10 -> ~G        H)
     2.03718737E-06    2     1000039        36   # BR(~chi_10 -> ~G        A)
#
#         PDG            Width
DECAY   1000023     2.76792359E-04   # neutralino2 decays
#          BR         NDA      ID1       ID2
     1.89162141E-04    2     1000022        22   # BR(~chi_20 -> ~chi_10 gam)
#          BR         NDA      ID1       ID2
     2.03221411E-08    2     1000039        22   # BR(~chi_20 -> ~G        gam)
     3.93048594E-03    2     1000039        23   # BR(~chi_20 -> ~G        Z)
     9.75924190E-02    2     1000039        25   # BR(~chi_20 -> ~G        h)
     2.29930074E-06    2     1000039        35   # BR(~chi_20 -> ~G        H)
     6.40272861E-05    2     1000039        36   # BR(~chi_20 -> ~G        A)
#           BR         NDA      ID1       ID2       ID3
     1.06284468E-01    3     1000022        -2         2   # BR(~chi_20 -> ~chi_10 ub      u)
     1.37633665E-01    3     1000022        -1         1   # BR(~chi_20 -> ~chi_10 db      d)
     1.06284468E-01    3     1000022        -4         4   # BR(~chi_20 -> ~chi_10 cb      c)
     1.37633665E-01    3     1000022        -3         3   # BR(~chi_20 -> ~chi_10 sb      s)
     1.27888353E-01    3     1000022        -5         5   # BR(~chi_20 -> ~chi_10 bb      b)
     3.14385587E-02    3     1000022       -11        11   # BR(~chi_20 -> ~chi_10 e+      e-)
     3.14385587E-02    3     1000022       -13        13   # BR(~chi_20 -> ~chi_10 mu+     mu-)
     3.11740636E-02    3     1000022       -15        15   # BR(~chi_20 -> ~chi_10 tau+    tau-)
     6.27879928E-02    3     1000022       -12        12   # BR(~chi_20 -> ~chi_10 nu_eb   nu_e)
     6.27879928E-02    3     1000022       -14        14   # BR(~chi_20 -> ~chi_10 nu_mub  nu_mu)
     6.27879928E-02    3     1000022       -16        16   # BR(~chi_20 -> ~chi_10 nu_taub nu_tau)
     1.41196781E-05    3     1000024        -2         1   # BR(~chi_20 -> ~chi_1+ ub      d)
     1.41196781E-05    3    -1000024        -1         2   # BR(~chi_20 -> ~chi_1- db      u)
     1.41196781E-05    3     1000024        -4         3   # BR(~chi_20 -> ~chi_1+ cb      s)
     1.41196781E-05    3    -1000024        -3         4   # BR(~chi_20 -> ~chi_1- sb      c)
     4.70655975E-06    3     1000024       -12        11   # BR(~chi_20 -> ~chi_1+ nu_eb   e-)
     4.70655975E-06    3    -1000024        12       -11   # BR(~chi_20 -> ~chi_1- nu_e    e+)
     4.70655975E-06    3     1000024       -14        13   # BR(~chi_20 -> ~chi_1+ nu_mub  mu-)
     4.70655975E-06    3    -1000024        14       -13   # BR(~chi_20 -> ~chi_1- nu_mu   mu+)
     3.25165047E-06    3     1000024       -16        15   # BR(~chi_20 -> ~chi_1+ nu_taub tau-)
     3.25165047E-06    3    -1000024        16       -15   # BR(~chi_20 -> ~chi_1- nu_tau  tau+)
#
#         PDG            Width
DECAY   1000025     1.92905831E-04   # neutralino3 decays
#          BR         NDA      ID1       ID2
     4.36108452E-04    2     1000022        22   # BR(~chi_30 -> ~chi_10 gam)
     4.51566051E-06    2     1000023        22   # BR(~chi_30 -> ~chi_20 gam)
#          BR         NDA      ID1       ID2
     1.19947774E-01    2     1000039        22   # BR(~chi_30 -> ~G        gam)
     1.06699388E-01    2     1000039        23   # BR(~chi_30 -> ~G        Z)
     3.28194167E-03    2     1000039        25   # BR(~chi_30 -> ~G        h)
     8.97834516E-05    2     1000039        35   # BR(~chi_30 -> ~G        H)
     3.79864209E-06    2     1000039        36   # BR(~chi_30 -> ~G        A)
#           BR         NDA      ID1       ID2       ID3
     1.93957424E-05    3     1000022        -2         2   # BR(~chi_30 -> ~chi_10 ub      u)
     2.32164936E-05    3     1000022        -1         1   # BR(~chi_30 -> ~chi_10 db      d)
     1.93957424E-05    3     1000022        -4         4   # BR(~chi_30 -> ~chi_10 cb      c)
     2.32164936E-05    3     1000022        -3         3   # BR(~chi_30 -> ~chi_10 sb      s)
     8.87401027E-05    3     1000022        -5         5   # BR(~chi_30 -> ~chi_10 bb      b)
     4.12868651E-06    3     1000022       -11        11   # BR(~chi_30 -> ~chi_10 e+      e-)
     4.12868651E-06    3     1000022       -13        13   # BR(~chi_30 -> ~chi_10 mu+     mu-)
     1.40883447E-05    3     1000022       -15        15   # BR(~chi_30 -> ~chi_10 tau+    tau-)
     1.12533488E-05    3     1000022       -12        12   # BR(~chi_30 -> ~chi_10 nu_eb   nu_e)
     1.12533488E-05    3     1000022       -14        14   # BR(~chi_30 -> ~chi_10 nu_mub  nu_mu)
     1.12533488E-05    3     1000022       -16        16   # BR(~chi_30 -> ~chi_10 nu_taub nu_tau)
     1.24216474E-02    3     1000023        -2         2   # BR(~chi_30 -> ~chi_20 ub      u)
     1.60854969E-02    3     1000023        -1         1   # BR(~chi_30 -> ~chi_20 db      d)
     1.24216474E-02    3     1000023        -4         4   # BR(~chi_30 -> ~chi_20 cb      c)
     1.60854969E-02    3     1000023        -3         3   # BR(~chi_30 -> ~chi_20 sb      s)
     1.32155336E-02    3     1000023        -5         5   # BR(~chi_30 -> ~chi_20 bb      b)
     3.67428414E-03    3     1000023       -11        11   # BR(~chi_30 -> ~chi_20 e+      e-)
     3.67428414E-03    3     1000023       -13        13   # BR(~chi_30 -> ~chi_20 mu+     mu-)
     3.60731004E-03    3     1000023       -15        15   # BR(~chi_30 -> ~chi_20 tau+    tau-)
     7.33812134E-03    3     1000023       -12        12   # BR(~chi_30 -> ~chi_20 nu_eb   nu_e)
     7.33812134E-03    3     1000023       -14        14   # BR(~chi_30 -> ~chi_20 nu_mub  nu_mu)
     7.33812134E-03    3     1000023       -16        16   # BR(~chi_30 -> ~chi_20 nu_taub nu_tau)
     1.11143628E-01    3     1000024        -2         1   # BR(~chi_30 -> ~chi_1+ ub      d)
     1.11143628E-01    3    -1000024        -1         2   # BR(~chi_30 -> ~chi_1- db      u)
     1.11143628E-01    3     1000024        -4         3   # BR(~chi_30 -> ~chi_1+ cb      s)
     1.11143628E-01    3    -1000024        -3         4   # BR(~chi_30 -> ~chi_1- sb      c)
     3.70478195E-02    3     1000024       -12        11   # BR(~chi_30 -> ~chi_1+ nu_eb   e-)
     3.70478195E-02    3    -1000024        12       -11   # BR(~chi_30 -> ~chi_1- nu_e    e+)
     3.70478195E-02    3     1000024       -14        13   # BR(~chi_30 -> ~chi_1+ nu_mub  mu-)
     3.70478195E-02    3    -1000024        14       -13   # BR(~chi_30 -> ~chi_1- nu_mu   mu+)
     3.66703824E-02    3     1000024       -16        15   # BR(~chi_30 -> ~chi_1+ nu_taub tau-)
     3.66703824E-02    3    -1000024        16       -15   # BR(~chi_30 -> ~chi_1- nu_tau  tau+)
#
#         PDG            Width
DECAY   1000035     3.34401535E+01   # neutralino4 decays
#          BR         NDA      ID1       ID2
     1.44421469E-04    2     1000022        23   # BR(~chi_40 -> ~chi_10   Z )
     2.52643715E-01    2     1000023        23   # BR(~chi_40 -> ~chi_20   Z )
     1.79010757E-04    2     1000025        23   # BR(~chi_40 -> ~chi_30   Z )
     2.47447125E-01    2     1000024       -24   # BR(~chi_40 -> ~chi_1+   W-)
     2.47447125E-01    2    -1000024        24   # BR(~chi_40 -> ~chi_1-   W+)
     1.03823941E-01    2     1000022        25   # BR(~chi_40 -> ~chi_10   h )
     3.10382940E-04    2     1000023        25   # BR(~chi_40 -> ~chi_20   h )
     1.47994078E-01    2     1000025        25   # BR(~chi_40 -> ~chi_30   h )
     2.41801230E-06    2     1000039        22   # BR(~chi_40 -> ~G        gam)
     7.77658930E-06    2     1000039        23   # BR(~chi_40 -> ~G        Z)
     1.79818195E-09    2     1000039        25   # BR(~chi_40 -> ~G        h)
     3.93913589E-09    2     1000039        35   # BR(~chi_40 -> ~G        H)
     1.09151078E-10    2     1000039        36   # BR(~chi_40 -> ~G        A)
#
#         PDG            Width
DECAY        25     4.22290378E-03   # h decays
#          BR         NDA      ID1       ID2
     6.02342070E-01    2           5        -5   # BR(h -> b       bb     )
     6.21708458E-02    2         -15        15   # BR(h -> tau+    tau-   )
     2.20057690E-04    2         -13        13   # BR(h -> mu+     mu-    )
     4.65599662E-04    2           3        -3   # BR(h -> s       sb     )
     2.00873344E-02    2           4        -4   # BR(h -> c       cb     )
     6.63392495E-02    2          21        21   # BR(h -> g       g      )
     2.30372376E-03    2          22        22   # BR(h -> gam     gam    )
     1.62495032E-03    2          22        23   # BR(h -> Z       gam    )
     2.16395440E-01    2          24       -24   # BR(h -> W+      W-     )
     2.80507288E-02    2          23        23   # BR(h -> Z       Z      )
#
#         PDG            Width
DECAY        35     3.78088121E+01   # H decays
#          BR         NDA      ID1       ID2
     1.46476421E-03    2           5        -5   # BR(H -> b       bb     )
     2.46435361E-04    2         -15        15   # BR(H -> tau+    tau-   )
     8.71240749E-07    2         -13        13   # BR(H -> mu+     mu-    )
     1.11550817E-06    2           3        -3   # BR(H -> s       sb     )
     1.00669261E-05    2           4        -4   # BR(H -> c       cb     )
     9.96075226E-01    2           6        -6   # BR(H -> t       tb     )
     7.97743903E-04    2          21        21   # BR(H -> g       g      )
     2.71835902E-06    2          22        22   # BR(H -> gam     gam    )
     1.16039955E-06    2          23        22   # BR(H -> Z       gam    )
     3.33090624E-04    2          24       -24   # BR(H -> W+      W-     )
     1.66091090E-04    2          23        23   # BR(H -> Z       Z      )
     9.00716129E-04    2          25        25   # BR(H -> h       h      )
     7.04008523E-24    2          36        36   # BR(H -> A       A      )
     2.88664780E-11    2          23        36   # BR(H -> Z       A      )
     6.38426955E-12    2          24       -37   # BR(H -> W+      H-     )
     6.38426955E-12    2         -24        37   # BR(H -> W-      H+     )
#
#         PDG            Width
DECAY        36     3.82379314E+01   # A decays
#          BR         NDA      ID1       ID2
     1.46767785E-03    2           5        -5   # BR(A -> b       bb     )
     2.43899605E-04    2         -15        15   # BR(A -> tau+    tau-   )
     8.62273213E-07    2         -13        13   # BR(A -> mu+     mu-    )
     1.13678274E-06    2           3        -3   # BR(A -> s       sb     )
     9.96184183E-06    2           4        -4   # BR(A -> c       cb     )
     9.97003698E-01    2           6        -6   # BR(A -> t       tb     )
     9.43682941E-04    2          21        21   # BR(A -> g       g      )
     3.12803911E-06    2          22        22   # BR(A -> gam     gam    )
     1.35299155E-06    2          23        22   # BR(A -> Z       gam    )
     3.24599746E-04    2          23        25   # BR(A -> Z       h      )
#
#         PDG            Width
DECAY        37     3.74470837E+01   # H+ decays
#          BR         NDA      ID1       ID2
     2.35030622E-06    2           4        -5   # BR(H+ -> c       bb     )
     2.49239919E-04    2         -15        16   # BR(H+ -> tau+    nu_tau )
     8.81153148E-07    2         -13        14   # BR(H+ -> mu+     nu_mu  )
     1.49420729E-08    2           2        -5   # BR(H+ -> u       bb     )
     5.45698982E-08    2           2        -3   # BR(H+ -> u       sb     )
     1.08732591E-05    2           4        -3   # BR(H+ -> c       sb     )
     9.99403903E-01    2           6        -5   # BR(H+ -> t       bb     )
     3.32682376E-04    2          24        25   # BR(H+ -> W+      h      )
     2.85699829E-13    2          24        36   # BR(H+ -> W+      A      )
