#
#                              ======================
#                              | THE SUSYHIT OUTPUT |
#                              ======================
#
#
#              ------------------------------------------------------
#              |     This is the output of the SUSY-HIT package     |
#              |  created by A.Djouadi, M.Muehlleitner and M.Spira. |
#              |  In case of problems with SUSY-HIT email to        |
#              |           margarete.muehlleitner@cern.ch           |
#              |           michael.spira@psi.ch                     |
#              |           abdelhak.djouadi@cern.ch                 |
#              ------------------------------------------------------
#
#              ------------------------------------------------------
#              |  SUSY Les Houches Accord - MSSM Spectrum + Decays  |
#              |              based on the decay programs           |
#              |                                                    |
#              |                     SDECAY 1.3b                    |
#              |                                                    |
#              |  Authors: M.Muhlleitner, A.Djouadi and Y.Mambrini  |
#              |  Ref.:    Comput.Phys.Commun.168(2005)46           |
#              |           [hep-ph/0311167]                         |
#              |                                                    |
#              |                     HDECAY 3.4                     |
#              |                                                    |
#              |  By: A.Djouadi,J.Kalinowski,M.Muhlleitner,M.Spira  |
#              |  Ref.:    Comput.Phys.Commun.108(1998)56           |
#              |           [hep-ph/9704448]                         |
#              |                                                    |
#              |                                                    |
#              |  If not stated otherwise all DRbar couplings and   |
#              |  soft SUSY breaking masses are given at the scale  |
#              |  Q=  0.91187600E+02
#              |                                                    |
#              ------------------------------------------------------
#
#
BLOCK DCINFO  # Decay Program information
     1   SDECAY/HDECAY # decay calculator
     2   1.3b  /3.4    # version number
#
BLOCK SPINFO  # Spectrum calculator information
     1   SuSpect     # RGE +Spectrum calculator            
     2   2.41         # version number                     
#
BLOCK MODSEL  # Model selection
     1     0   # #general MSSM low scale                           
#
BLOCK SMINPUTS  # Standard Model inputs
         1     1.27934000E+02   # alpha_em^-1(M_Z)^MSbar
         2     1.16639000E-05   # G_F [GeV^-2]
         3     1.17200000E-01   # alpha_S(M_Z)^MSbar
         4     9.11870000E+01   # M_Z pole mass
         5     4.25000000E+00   # mb(mb)^MSbar
         6     1.72500000E+02   # mt pole mass
         7     1.77700000E+00   # mtau pole mass
#
BLOCK MINPAR  # Input parameters - minimal models
#
BLOCK EXTPAR  # Input parameters - non-minimal models
         0     9.11876000E+01   # EWSB                
         1     1.00000000E+02   # M_1                 
         2     1.50000000E+03   # M_2                 
         3     1.00000000E+05   # M_3                 
        11     0.00000000E+00   # A_t                 
        12     0.00000000E+00   # A_b                 
        13     0.00000000E+00   # A_tau               
        14     0.00000000E+00   # A_u                 
        15     0.00000000E+00   # A_d                 
        16     0.00000000E+00   # A_e                 
        23     1.00000000E+05   # mu(EWSB)            
        25     1.50000000E+00   # tanbeta(in)         
        26     2.00000000E+03   # MA_pole             
        31     1.00000000E+05   # M_eL                
        32     1.00000000E+05   # M_muL               
        33     1.00000000E+05   # M_tauL              
        34     1.00000000E+05   # M_eR                
        35     1.00000000E+05   # M_muR               
        36     1.00000000E+05   # M_tauR              
        41     1.00000000E+05   # M_q1L               
        42     1.00000000E+05   # M_q2L               
        43     1.00000000E+05   # M_q3L               
        44     1.00000000E+05   # M_uR                
        45     1.00000000E+05   # M_cR                
        46     1.00000000E+05   # M_tR                
        47     1.00000000E+05   # M_dR                
        48     1.00000000E+05   # M_sR                
        49     1.00000000E+05   # M_bR                
#
BLOCK MASS  # Mass Spectrum
# PDG code           mass       particle
        24     8.05550885E+01   # W+
        25     1.25000000E+02   # h
        35     2.00303841E+03   # H
        36     2.00000000E+03   # A
        37     2.02351433E+03   # H+
         5     4.87877839E+00   # b-quark pole mass calculated from mb(mb)_Msbar
   1000001     1.00000007E+05   # ~d_L
   2000001     1.00000001E+05   # ~d_R
   1000002     9.99999947E+04   # ~u_L
   2000002     9.99999974E+04   # ~u_R
   1000003     1.00000007E+05   # ~s_L
   2000003     1.00000001E+05   # ~s_R
   1000004     9.99999947E+04   # ~c_L
   2000004     9.99999974E+04   # ~c_R
   1000005     9.99980742E+04   # ~b_1
   2000005     1.00001934E+05   # ~b_2
   1000006     9.99520908E+04   # ~t_1
   2000006     1.00048086E+05   # ~t_2
   1000011     1.00000004E+05   # ~e_L
   2000011     1.00000004E+05   # ~e_R
   1000012     9.99999922E+04   # ~nu_eL
   1000013     1.00000004E+05   # ~mu_L
   2000013     1.00000004E+05   # ~mu_R
   1000014     9.99999922E+04   # ~nu_muL
   1000015     9.99986714E+04   # ~tau_1
   2000015     1.00001336E+05   # ~tau_2
   1000016     9.99999922E+04   # ~nu_tauL
   1000021     1.00000000E+05   # ~g
   1000022     9.99816064E+01   # ~chi_10
   1000023     1.49994234E+03   # ~chi_20
   1000025    -1.00000003E+05   # ~chi_30
   1000035     1.00000079E+05   # ~chi_40
   1000024     1.49994234E+03   # ~chi_1+
   1000037     1.00000062E+05   # ~chi_2+
   1000039     2.50000000E-08   # ~gravitino
#
BLOCK NMIX  # Neutralino Mixing Matrix
  1  1     9.99999900E-01   # N_11
  1  2    -2.30856132E-05   # N_12
  1  3     3.71472268E-04   # N_13
  1  4    -2.47854903E-04   # N_14
  2  1     2.34406426E-05   # N_21
  2  2     9.99999684E-01   # N_22
  2  3    -6.58934192E-04   # N_23
  2  4     4.44725779E-04   # N_24
  3  1     8.74076816E-05   # N_31
  3  2    -1.51469965E-04   # N_32
  3  3    -7.07106716E-01   # N_33
  3  4    -7.07106825E-01   # N_34
  4  1     4.37912816E-04   # N_41
  4  2    -7.80415338E-04   # N_42
  4  3    -7.07106442E-01   # N_43
  4  4     7.07106554E-01   # N_44
#
BLOCK UMIX  # Chargino Mixing Matrix U
  1  1    -9.99999566E-01   # U_11
  1  2     9.31885405E-04   # U_12
  2  1     9.31885405E-04   # U_21
  2  2     9.99999566E-01   # U_22
#
BLOCK VMIX  # Chargino Mixing Matrix V
  1  1    -9.99999802E-01   # V_11
  1  2     6.28945682E-04   # V_12
  2  1     6.28945682E-04   # V_21
  2  2     9.99999802E-01   # V_22
#
BLOCK STOPMIX  # Stop Mixing Matrix
  1  1     7.07116797E-01   # cos(theta_t)
  1  2     7.07096765E-01   # sin(theta_t)
  2  1    -7.07096765E-01   # -sin(theta_t)
  2  2     7.07116797E-01   # cos(theta_t)
#
BLOCK SBOTMIX  # Sbottom Mixing Matrix
  1  1     7.06623745E-01   # cos(theta_b)
  1  2     7.07589488E-01   # sin(theta_b)
  2  1    -7.07589488E-01   # -sin(theta_b)
  2  2     7.06623745E-01   # cos(theta_b)
#
BLOCK STAUMIX  # Stau Mixing Matrix
  1  1     7.07084545E-01   # cos(theta_tau)
  1  2     7.07129017E-01   # sin(theta_tau)
  2  1    -7.07129017E-01   # -sin(theta_tau)
  2  2     7.07084545E-01   # cos(theta_tau)
#
BLOCK ALPHA  # Higgs mixing
          -5.52184970E-01   # Mixing angle in the neutral Higgs boson sector
#
BLOCK HMIX Q=  9.11876000E+01  # DRbar Higgs Parameters
         1     1.00000000E+05   # mu(Q)               
         2     1.49999983E+00   # tanbeta(Q)          
         3     2.55221401E+02   # vev(Q)              
         4    -2.67635137E+07   # MA^2(Q)             
#
BLOCK GAUGE Q=  9.11876000E+01  # The gauge couplings
     1     3.49655202E-01   # gprime(Q) DRbar
     2     6.14396711E-01   # g(Q) DRbar
     3     9.84784113E-01   # g3(Q) DRbar
#
BLOCK AU Q=  9.11876000E+01  # The trilinear couplings
  1  1     0.00000000E+00   # A_u(Q) DRbar
  2  2     0.00000000E+00   # A_c(Q) DRbar
  3  3     0.00000000E+00   # A_t(Q) DRbar
#
BLOCK AD Q=  9.11876000E+01  # The trilinear couplings
  1  1     0.00000000E+00   # A_d(Q) DRbar
  2  2     0.00000000E+00   # A_s(Q) DRbar
  3  3     0.00000000E+00   # A_b(Q) DRbar
#
BLOCK AE Q=  9.11876000E+01  # The trilinear couplings
  1  1     0.00000000E+00   # A_e(Q) DRbar
  2  2     0.00000000E+00   # A_mu(Q) DRbar
  3  3     0.00000000E+00   # A_tau(Q) DRbar
#
BLOCK Yu Q=  9.11876000E+01  # The Yukawa couplings
  1  1     0.00000000E+00   # y_u(Q) DRbar
  2  2     0.00000000E+00   # y_c(Q) DRbar
  3  3     9.59058754E-01   # y_t(Q) DRbar
#
BLOCK Yd Q=  9.11876000E+01  # The Yukawa couplings
  1  1     0.00000000E+00   # y_d(Q) DRbar
  2  2     0.00000000E+00   # y_s(Q) DRbar
  3  3     2.57062044E-02   # y_b(Q) DRbar
#
BLOCK Ye Q=  9.11876000E+01  # The Yukawa couplings
  1  1     0.00000000E+00   # y_e(Q) DRbar
  2  2     0.00000000E+00   # y_mu(Q) DRbar
  3  3     1.77498914E-02   # y_tau(Q) DRbar
#
BLOCK MSOFT Q=  9.11876000E+01  # The soft SUSY breaking masses at the scale Q
         1     1.00000000E+02   # M_1                 
         2     1.50000000E+03   # M_2                 
         3     1.00000000E+05   # M_3                 
        14     0.00000000E+00   # A_u                 
        15     0.00000000E+00   # A_d                 
        16     0.00000000E+00   # A_e                 
        21    -1.14118157E+10   # M^2_Hd              
        22    -1.35130064E+10   # M^2_Hu              
        31     1.00000000E+05   # M_eL                
        32     1.00000000E+05   # M_muL               
        33     1.00000000E+05   # M_tauL              
        34     1.00000000E+05   # M_eR                
        35     1.00000000E+05   # M_muR               
        36     1.00000000E+05   # M_tauR              
        41     1.00000000E+05   # M_q1L               
        42     1.00000000E+05   # M_q2L               
        43     1.00000000E+05   # M_q3L               
        44     1.00000000E+05   # M_uR                
        45     1.00000000E+05   # M_cR                
        46     1.00000000E+05   # M_tR                
        47     1.00000000E+05   # M_dR                
        48     1.00000000E+05   # M_sR                
        49     1.00000000E+05   # M_bR                
#
#
#
#                             =================
#                             |The decay table|
#                             =================
#
# - The QCD corrections to the decays gluino -> squark  + quark
#                                     squark -> gaugino + quark_prime
#                                     squark -> squark_prime + Higgs
#                                     squark -> gluino  + quark
#   are included.
#
# - The multi-body decays for the inos, stops and sbottoms are included.
#
# - The loop induced decays for the gluino, neutralinos and stops
#   are included.
#
# - The SUSY decays of the top quark are included.
#
# - Possible decays of the NLSP in GMSB models are included.
#
#
#         PDG            Width
DECAY         6     1.30400357E+00   # top decays
#          BR         NDA      ID1       ID2
     1.00000000E+00    2           5        24   # BR(t ->  b    W+)
#
#         PDG            Width
DECAY   1000021     1.E-04   # gluino decays (OJ Mods)
#          BR         NDA      ID1       ID2
     7.44371725E-13    2     1000002        -2   # BR(~g -> ~u_L  ub)
     7.44371725E-13    2    -1000002         2   # BR(~g -> ~u_L* u )
     1.79136810E-13    2     2000002        -2   # BR(~g -> ~u_R  ub)
     1.79136810E-13    2    -2000002         2   # BR(~g -> ~u_R* u )
     7.44371725E-13    2     1000004        -4   # BR(~g -> ~c_L  cb)
     7.44371725E-13    2    -1000004         4   # BR(~g -> ~c_L* c )
     1.79136810E-13    2     2000004        -4   # BR(~g -> ~c_R  cb)
     1.79136810E-13    2    -2000004         4   # BR(~g -> ~c_R* c )
     1.00000000E+00    2     1000039        21   # BR(~g -> ~G g)
#
#         PDG            Width
DECAY   1000006     6.52760220E+02   # stop1 decays
#          BR         NDA      ID1       ID2
     1.69283798E-01    2     1000022         6   # BR(~t_1 -> ~chi_10 t )
     2.76906635E-01    2     1000023         6   # BR(~t_1 -> ~chi_20 t )
     5.53809566E-01    2     1000024         5   # BR(~t_1 -> ~chi_1+ b )
#
#         PDG            Width
DECAY   2000006     6.51184175E+02   # stop2 decays
#          BR         NDA      ID1       ID2
     1.69647689E-01    2     1000022         6   # BR(~t_2 -> ~chi_10 t )
     2.77041577E-01    2     1000023         6   # BR(~t_2 -> ~chi_20 t )
     0.00000000E+00    2     1000025         6   # BR(~t_2 -> ~chi_30 t )
     5.54079401E-01    2     1000024         5   # BR(~t_2 -> ~chi_1+ b )
     1.03746621E-06    2     1000037         5   # BR(~t_2 -> ~chi_2+ b )
    -7.69704429E-04    2     1000006        23   # BR(~t_2 -> ~t_1    Z )
#
#         PDG            Width
DECAY   1000005     5.72942358E+02   # sbottom1 decays
#          BR         NDA      ID1       ID2
     5.68020897E-02    2     1000022         5   # BR(~b_1 -> ~chi_10 b )
     3.14397899E-01    2     1000023         5   # BR(~b_1 -> ~chi_20 b )
     6.28800011E-01    2    -1000024         6   # BR(~b_1 -> ~chi_1- t )
#
#         PDG            Width
DECAY   2000005     5.75398035E+02   # sbottom2 decays
#          BR         NDA      ID1       ID2
     5.63876277E-02    2     1000022         5   # BR(~b_2 -> ~chi_10 b )
     3.14536044E-01    2     1000023         5   # BR(~b_2 -> ~chi_20 b )
     6.29076328E-01    2    -1000024         6   # BR(~b_2 -> ~chi_1- t )
#
#         PDG            Width
DECAY   1000002     1.09648908E+03   # sup_L decays
#          BR         NDA      ID1       ID2
     1.18506513E-02    2     1000022         2   # BR(~u_L -> ~chi_10 u)
     3.29385017E-01    2     1000023         2   # BR(~u_L -> ~chi_20 u)
     6.58764331E-01    2     1000024         1   # BR(~u_L -> ~chi_1+ d)
#
#         PDG            Width
DECAY   2000002     2.07956367E+02   # sup_R decays
#          BR         NDA      ID1       ID2
     9.99999999E-01    2     1000022         2   # BR(~u_R -> ~chi_10 u)
     5.49453652E-10    2     1000023         2   # BR(~u_R -> ~chi_20 u)
#
#         PDG            Width
DECAY   1000001     1.09648863E+03   # sdown_L decays
#          BR         NDA      ID1       ID2
     1.18564261E-02    2     1000022         1   # BR(~d_L -> ~chi_10 d)
     3.29379290E-01    2     1000023         1   # BR(~d_L -> ~chi_20 d)
     5.06825668E-17    2     1000025         1   # BR(~d_L -> ~chi_30 d)
     6.58764284E-01    2    -1000024         2   # BR(~d_L -> ~chi_1- u)
     1.53504023E-13    2     1000021         1   # BR(~d_L -> ~g      d)
#
#         PDG            Width
DECAY   2000001     5.19890916E+01   # sdown_R decays
#          BR         NDA      ID1       ID2
     9.99999999E-01    2     1000022         1   # BR(~d_R -> ~chi_10 d)
     5.49453652E-10    2     1000023         1   # BR(~d_R -> ~chi_20 d)
     6.60717247E-14    2     1000021         1   # BR(~d_R -> ~g      d)
#
#         PDG            Width
DECAY   1000004     1.09648908E+03   # scharm_L decays
#          BR         NDA      ID1       ID2
     1.18506513E-02    2     1000022         4   # BR(~c_L -> ~chi_10 c)
     3.29385017E-01    2     1000023         4   # BR(~c_L -> ~chi_20 c)
     6.58764331E-01    2     1000024         3   # BR(~c_L -> ~chi_1+ s)
#
#         PDG            Width
DECAY   2000004     2.07956367E+02   # scharm_R decays
#          BR         NDA      ID1       ID2
     9.99999999E-01    2     1000022         4   # BR(~c_R -> ~chi_10 c)
     5.49453652E-10    2     1000023         4   # BR(~c_R -> ~chi_20 c)
#
#         PDG            Width
DECAY   1000003     1.09648863E+03   # sstrange_L decays
#          BR         NDA      ID1       ID2
     1.18564261E-02    2     1000022         3   # BR(~s_L -> ~chi_10 s)
     3.29379290E-01    2     1000023         3   # BR(~s_L -> ~chi_20 s)
     5.06825668E-17    2     1000025         3   # BR(~s_L -> ~chi_30 s)
     6.58764284E-01    2    -1000024         4   # BR(~s_L -> ~chi_1- c)
     1.53504023E-13    2     1000021         3   # BR(~s_L -> ~g      s)
#
#         PDG            Width
DECAY   2000003     5.19890916E+01   # sstrange_R decays
#          BR         NDA      ID1       ID2
     9.99999999E-01    2     1000022         3   # BR(~s_R -> ~chi_10 s)
     5.49453652E-10    2     1000023         3   # BR(~s_R -> ~chi_20 s)
     6.60717247E-14    2     1000021         3   # BR(~s_R -> ~g      s)
#
#         PDG            Width
DECAY   1000011     1.24757407E+03   # selectron_L decays
#          BR         NDA      ID1       ID2
     9.74714947E-02    2     1000022        11   # BR(~e_L -> ~chi_10 e-)
     3.00848233E-01    2     1000023        11   # BR(~e_L -> ~chi_20 e-)
     1.24581965E-24    2     1000025        11   # BR(~e_L -> ~chi_30 e-)
     6.01680272E-01    2    -1000024        12   # BR(~e_L -> ~chi_1- nu_e)
#
#         PDG            Width
DECAY   2000011     4.86451101E+02   # selectron_R decays
#          BR         NDA      ID1       ID2
     9.99999999E-01    2     1000022        11   # BR(~e_R -> ~chi_10 e-)
     5.49217721E-10    2     1000023        11   # BR(~e_R -> ~chi_20 e-)
     3.05604758E-24    2     1000025        11   # BR(~e_R -> ~chi_30 e-)
#
#         PDG            Width
DECAY   1000013     1.24757407E+03   # smuon_L decays
#          BR         NDA      ID1       ID2
     9.74714947E-02    2     1000022        13   # BR(~mu_L -> ~chi_10 mu-)
     3.00848233E-01    2     1000023        13   # BR(~mu_L -> ~chi_20 mu-)
     1.24581965E-24    2     1000025        13   # BR(~mu_L -> ~chi_30 mu-)
     6.01680272E-01    2    -1000024        14   # BR(~mu_L -> ~chi_1- nu_mu)
#
#         PDG            Width
DECAY   2000013     4.86451101E+02   # smuon_R decays
#          BR         NDA      ID1       ID2
     9.99999999E-01    2     1000022        13   # BR(~mu_R -> ~chi_10 mu-)
     5.49217721E-10    2     1000023        13   # BR(~mu_R -> ~chi_20 mu-)
     3.05604758E-24    2     1000025        13   # BR(~mu_R -> ~chi_30 mu-)
#
#         PDG            Width
DECAY   1000015     8.85430141E+02   # stau_1 decays
#          BR         NDA      ID1       ID2
     3.43378505E-01    2     1000022        15   # BR(~tau_1 -> ~chi_10  tau-)
     2.11943345E-01    2     1000023        15   # BR(~tau_1 -> ~chi_20  tau-)
     4.23875281E-01    2    -1000024        16   # BR(~tau_1 -> ~chi_1-  nu_tau)
     2.08028691E-02    2     1000039        15   # BR(~tau_1 -> ~G       tau-)
#
#         PDG            Width
DECAY   2000015     8.67014508E+02   # stau_2 decays
#          BR         NDA      ID1       ID2
     3.50647338E-01    2     1000022        15   # BR(~tau_2 -> ~chi_10  tau-)
     2.16454772E-01    2     1000023        15   # BR(~tau_2 -> ~chi_20  tau-)
     4.32897890E-01    2    -1000024        16   # BR(~tau_2 -> ~chi_1-  nu_tau)
     2.50035618E-13    2    -1000037        16   # BR(~tau_2 -> ~chi_2-  nu_tau)
#
#         PDG            Width
DECAY   1000012     1.24757398E+03   # snu_eL decays
#          BR         NDA      ID1       ID2
     9.74873070E-02    2     1000022        12   # BR(~nu_eL -> ~chi_10 nu_e)
     3.00832166E-01    2     1000023        12   # BR(~nu_eL -> ~chi_20 nu_e)
     6.01680527E-01    2     1000024        11   # BR(~nu_eL -> ~chi_1+ e-)
#
#         PDG            Width
DECAY   1000014     1.24757398E+03   # snu_muL decays
#          BR         NDA      ID1       ID2
     9.74873070E-02    2     1000022        14   # BR(~nu_muL -> ~chi_10 nu_mu)
     3.00832166E-01    2     1000023        14   # BR(~nu_muL -> ~chi_20 nu_mu)
     6.01680527E-01    2     1000024        13   # BR(~nu_muL -> ~chi_1+ mu-)
#
#         PDG            Width
DECAY   1000016     1.24757398E+03   # snu_tauL decays
#          BR         NDA      ID1       ID2
     9.74873070E-02    2     1000022        16   # BR(~nu_tauL -> ~chi_10 nu_tau)
     3.00832166E-01    2     1000023        16   # BR(~nu_tauL -> ~chi_20 nu_tau)
     6.01680527E-01    2     1000024        15   # BR(~nu_tauL -> ~chi_1+ tau-)
#
#         PDG            Width
DECAY   1000024     2.08299256E-06   # chargino1+ decays
#          BR         NDA      ID1       ID2
     9.93402738E-01    2     1000022        24   # BR(~chi_1+ -> ~chi_10  W+)
     6.59726245E-03    2     1000039        24   # BR(~chi_1+ -> ~G       W+)
#
#         PDG            Width
DECAY   1000037     1.22998464E+03   # chargino2+ decays
#          BR         NDA      ID1       ID2
     3.14734854E-14    2     1000002        -1   # BR(~chi_2+ -> ~u_L     db)
     5.64662285E-14    2    -1000001         2   # BR(~chi_2+ -> ~d_L*    u )
     3.14734854E-14    2     1000004        -3   # BR(~chi_2+ -> ~c_L     sb)
     5.64662285E-14    2    -1000003         4   # BR(~chi_2+ -> ~s_L*    c )
     1.13663353E-06    2     1000006        -5   # BR(~chi_2+ -> ~t_1     bb)
     2.31869736E-19    2     1000012       -11   # BR(~chi_2+ -> ~nu_eL   e+  )
     2.31869736E-19    2     1000014       -13   # BR(~chi_2+ -> ~nu_muL  mu+ )
     3.51469790E-19    2    -1000011        12   # BR(~chi_2+ -> ~e_L+    nu_e)
     3.51469790E-19    2    -1000013        14   # BR(~chi_2+ -> ~mu_L+   nu_mu)
     9.09324036E-14    2    -1000015        16   # BR(~chi_2+ -> ~tau_1+  nu_tau)
     1.51223191E-01    2     1000024        23   # BR(~chi_2+ -> ~chi_1+  Z )
     4.62100175E-02    2     1000022        24   # BR(~chi_2+ -> ~chi_10  W+)
     1.46373141E-01    2     1000023        24   # BR(~chi_2+ -> ~chi_20  W+)
     1.54417446E-01    2     1000024        25   # BR(~chi_2+ -> ~chi_1+  h )
     1.46241804E-01    2     1000024        35   # BR(~chi_2+ -> ~chi_1+  H )
     1.46107065E-01    2     1000024        36   # BR(~chi_2+ -> ~chi_1+  A )
     4.85741649E-02    2     1000022        37   # BR(~chi_2+ -> ~chi_10  H+)
     1.46108513E-01    2     1000023        37   # BR(~chi_2+ -> ~chi_20  H+)
     7.37779522E-03    2     1000039        24   # BR(~chi_2+ -> ~G       W+)
     7.36572644E-03    2     1000039        37   # BR(~chi_2+ -> ~G       H+)
#
#         PDG            Width
DECAY   1000022     1.E-08   # neutralino1 decays (OJ Mods)
#          BR         NDA      ID1       ID2
     9.99740888E-01    2     1000039        22   # BR(~chi_10 -> ~G        gam)
     2.59111995E-04    2     1000039        23   # BR(~chi_10 -> ~G        Z)
#
#         PDG            Width
DECAY   1000023     1.E-08   # neutralino2 decays (OJ Mods)
#          BR         NDA      ID1       ID2
     8.50933562E-06    2     1000022        23   # BR(~chi_20 -> ~chi_10   Z )
     9.93469658E-01    2     1000022        25   # BR(~chi_20 -> ~chi_10   h )
     1.61357469E-03    2     1000039        22   # BR(~chi_20 -> ~G        gam)
     4.90825780E-03    2     1000039        23   # BR(~chi_20 -> ~G        Z)
     3.48969803E-12    2     1000039        25   # BR(~chi_20 -> ~G        h)
#
#         PDG            Width
DECAY   1000025     1.22188193E+03   # neutralino3 decays
#          BR         NDA      ID1       ID2
     4.62207278E-02    2     1000022        23   # BR(~chi_30 -> ~chi_10   Z )
     1.46681455E-01    2     1000023        23   # BR(~chi_30 -> ~chi_20   Z )
     1.47325428E-01    2     1000024       -24   # BR(~chi_30 -> ~chi_1+   W-)
     1.47325428E-01    2    -1000024        24   # BR(~chi_30 -> ~chi_1-   W+)
     2.61343328E-03    2     1000022        25   # BR(~chi_30 -> ~chi_10   h )
     4.62814264E-02    2     1000022        35   # BR(~chi_30 -> ~chi_10   H )
     1.88802902E-03    2     1000022        36   # BR(~chi_30 -> ~chi_10   A )
     7.84199790E-03    2     1000023        25   # BR(~chi_30 -> ~chi_20   h )
     1.38872718E-01    2     1000023        35   # BR(~chi_30 -> ~chi_20   H )
     5.99170424E-03    2     1000023        36   # BR(~chi_30 -> ~chi_20   A )
     1.47058891E-01    2     1000024       -37   # BR(~chi_30 -> ~chi_1+   H-)
     1.47058891E-01    2    -1000024        37   # BR(~chi_30 -> ~chi_1-   H+)
     1.79699807E-16    2     1000002        -2   # BR(~chi_30 -> ~u_L      ub)
     1.79699807E-16    2    -1000002         2   # BR(~chi_30 -> ~u_L*     u )
     2.93133433E-17    2     2000002        -2   # BR(~chi_30 -> ~u_R      ub)
     2.93133433E-17    2    -2000002         2   # BR(~chi_30 -> ~u_R*     u )
     2.61725853E-18    2     2000001        -1   # BR(~chi_30 -> ~d_R      db)
     2.61725853E-18    2    -2000001         1   # BR(~chi_30 -> ~d_R*     d )
     1.79699807E-16    2     1000004        -4   # BR(~chi_30 -> ~c_L      cb)
     1.79699807E-16    2    -1000004         4   # BR(~chi_30 -> ~c_L*     c )
     2.93133433E-17    2     2000004        -4   # BR(~chi_30 -> ~c_R      cb)
     2.93133433E-17    2    -2000004         4   # BR(~chi_30 -> ~c_R*     c )
     2.61725853E-18    2     2000003        -3   # BR(~chi_30 -> ~s_R      sb)
     2.61725853E-18    2    -2000003         3   # BR(~chi_30 -> ~s_R*     s )
     2.85936229E-22    2     1000012       -12   # BR(~chi_30 -> ~nu_eL    nu_eb)
     2.85936229E-22    2    -1000012        12   # BR(~chi_30 -> ~nu_eL*   nu_e )
     2.85936229E-22    2     1000014       -14   # BR(~chi_30 -> ~nu_muL   nu_mub)
     2.85936229E-22    2    -1000014        14   # BR(~chi_30 -> ~nu_muL*  nu_mu )
     2.85936229E-22    2     1000016       -16   # BR(~chi_30 -> ~nu_tau1  nu_taub)
     2.85936229E-22    2    -1000016        16   # BR(~chi_30 -> ~nu_tau1* nu_tau )
     1.63064349E-14    2     1000039        22   # BR(~chi_30 -> ~G        gam)
     2.85614357E-04    2     1000039        23   # BR(~chi_30 -> ~G        Z)
     7.02932267E-03    2     1000039        25   # BR(~chi_30 -> ~G        h)
     3.95981598E-04    2     1000039        35   # BR(~chi_30 -> ~G        H)
     7.12895174E-03    2     1000039        36   # BR(~chi_30 -> ~G        A)
#
#         PDG            Width
DECAY   1000035     1.22694275E+03   # neutralino4 decays
#          BR         NDA      ID1       ID2
     1.83394860E-03    2     1000022        23   # BR(~chi_40 -> ~chi_10   Z )
     5.50312538E-03    2     1000023        23   # BR(~chi_40 -> ~chi_20   Z )
     1.46726785E-01    2     1000024       -24   # BR(~chi_40 -> ~chi_1+   W-)
     1.46726785E-01    2    -1000024        24   # BR(~chi_40 -> ~chi_1-   W+)
     4.63150286E-02    2     1000022        25   # BR(~chi_40 -> ~chi_10   h )
     2.61114142E-03    2     1000022        35   # BR(~chi_40 -> ~chi_10   H )
     4.68212509E-02    2     1000022        36   # BR(~chi_40 -> ~chi_10   A )
     1.46980261E-01    2     1000023        25   # BR(~chi_40 -> ~chi_20   h )
     8.28651861E-03    2     1000023        35   # BR(~chi_40 -> ~chi_20   H )
     1.40492528E-01    2     1000023        36   # BR(~chi_40 -> ~chi_20   A )
     1.46461337E-01    2     1000024       -37   # BR(~chi_40 -> ~chi_1+   H-)
     1.46461337E-01    2    -1000024        37   # BR(~chi_40 -> ~chi_1-   H+)
     4.85826019E-14    2     1000002        -2   # BR(~chi_40 -> ~u_L      ub)
     4.85826019E-14    2    -1000002         2   # BR(~chi_40 -> ~u_L*     u )
     1.06778885E-14    2     2000002        -2   # BR(~chi_40 -> ~u_R      ub)
     1.06778885E-14    2    -2000002         2   # BR(~chi_40 -> ~u_R*     u )
     6.36215087E-14    2     1000001        -1   # BR(~chi_40 -> ~d_L      db)
     6.36215087E-14    2    -1000001         1   # BR(~chi_40 -> ~d_L*     d )
     2.55169856E-15    2     2000001        -1   # BR(~chi_40 -> ~d_R      db)
     2.55169856E-15    2    -2000001         1   # BR(~chi_40 -> ~d_R*     d )
     4.85826019E-14    2     1000004        -4   # BR(~chi_40 -> ~c_L      cb)
     4.85826019E-14    2    -1000004         4   # BR(~chi_40 -> ~c_L*     c )
     1.06778885E-14    2     2000004        -4   # BR(~chi_40 -> ~c_R      cb)
     1.06778885E-14    2    -2000004         4   # BR(~chi_40 -> ~c_R*     c )
     6.36215087E-14    2     1000003        -3   # BR(~chi_40 -> ~s_L      sb)
     6.36215087E-14    2    -1000003         3   # BR(~chi_40 -> ~s_L*     s )
     2.55169856E-15    2     2000003        -3   # BR(~chi_40 -> ~s_R      sb)
     2.55169856E-15    2    -2000003         3   # BR(~chi_40 -> ~s_R*     s )
     9.57130346E-20    2     1000011       -11   # BR(~chi_40 -> ~e_L-     e+)
     9.57130346E-20    2    -1000011        11   # BR(~chi_40 -> ~e_L+     e-)
     8.42706282E-20    2     2000011       -11   # BR(~chi_40 -> ~e_R-     e+)
     8.42706282E-20    2    -2000011        11   # BR(~chi_40 -> ~e_R+     e-)
     9.57130346E-20    2     1000013       -13   # BR(~chi_40 -> ~mu_L-    mu+)
     9.57130346E-20    2    -1000013        13   # BR(~chi_40 -> ~mu_L+    mu-)
     8.42706282E-20    2     2000013       -13   # BR(~chi_40 -> ~mu_R-    mu+)
     8.42706282E-20    2    -2000013        13   # BR(~chi_40 -> ~mu_R+    mu-)
     4.81659866E-19    2     1000012       -12   # BR(~chi_40 -> ~nu_eL    nu_eb)
     4.81659866E-19    2    -1000012        12   # BR(~chi_40 -> ~nu_eL*   nu_e )
     4.81659866E-19    2     1000014       -14   # BR(~chi_40 -> ~nu_muL   nu_mub)
     4.81659866E-19    2    -1000014        14   # BR(~chi_40 -> ~nu_muL*  nu_mu )
     4.81659866E-19    2     1000016       -16   # BR(~chi_40 -> ~nu_tau1  nu_taub)
     4.81659866E-19    2    -1000016        16   # BR(~chi_40 -> ~nu_tau1* nu_tau )
     4.32839674E-13    2     1000039        22   # BR(~chi_40 -> ~G        gam)
     7.11135997E-03    2     1000039        23   # BR(~chi_40 -> ~G        Z)
     3.95005058E-04    2     1000039        25   # BR(~chi_40 -> ~G        h)
     6.98959014E-03    2     1000039        35   # BR(~chi_40 -> ~G        H)
     2.83999629E-04    2     1000039        36   # BR(~chi_40 -> ~G        A)
#
#
#
#
