#
#                              ======================
#                              | THE SUSYHIT OUTPUT |
#                              ======================
#
#
#              ------------------------------------------------------
#              |     This is the output of the SUSY-HIT package     |
#              |  created by A.Djouadi, M.Muehlleitner and M.Spira. |
#              |  In case of problems with SUSY-HIT email to        |
#              |           margarete.muehlleitner@cern.ch           |
#              |           michael.spira@psi.ch                     |
#              |           abdelhak.djouadi@cern.ch                 |
#              ------------------------------------------------------
#
#              ------------------------------------------------------
#              |  SUSY Les Houches Accord - MSSM Spectrum + Decays  |
#              |              based on the decay programs           |
#              |                                                    |
#              |                     SDECAY 1.3b                    |
#              |                                                    |
#              |  Authors: M.Muhlleitner, A.Djouadi and Y.Mambrini  |
#              |  Ref.:    Comput.Phys.Commun.168(2005)46           |
#              |           [hep-ph/0311167]                         |
#              |                                                    |
#              |                     HDECAY 3.4                     |
#              |                                                    |
#              |  By: A.Djouadi,J.Kalinowski,M.Muhlleitner,M.Spira  |
#              |  Ref.:    Comput.Phys.Commun.108(1998)56           |
#              |           [hep-ph/9704448]                         |
#              |                                                    |
#              |                                                    |
#              |  If not stated otherwise all DRbar couplings and   |
#              |  soft SUSY breaking masses are given at the scale  |
#              |  Q=  0.50007058E+04
#              |                                                    |
#              ------------------------------------------------------
#
#
BLOCK DCINFO  # Decay Program information
     1   SDECAY/HDECAY # decay calculator
     2   1.3b  /3.4    # version number
#
BLOCK SPINFO  # Spectrum calculator information
     1    SOFTSUSY    # spectrum calculator                
     2    3.4.0       # version number                     
#
BLOCK MODSEL  # Model selection
     1     0   #  nonUniversal                                     
#
BLOCK SMINPUTS  # Standard Model inputs
         1     1.25778332E+02   # alpha_em^-1(M_Z)^MSbar
         2     1.16570000E-05   # G_F [GeV^-2]
         3     1.17200002E-01   # alpha_S(M_Z)^MSbar
         4     9.11876000E+01   # M_Z pole mass
         5     4.25000000E+00   # mb(mb)^MSbar
         6     1.72500000E+02   # mt pole mass
         7     1.77682000E+00   # mtau pole mass
#
BLOCK MINPAR  # Input parameters - minimal models
         3     1.00000000E+01   # tanb                
#
BLOCK EXTPAR  # Input parameters - non-minimal models
         0    -1.00000000E+00   # Set                 
         1     6.00000000E+01   # M_1(MX)             
         2     3.00000000E+03   # M_2(MX)             
         3     2.42818900E+03   # M_3(MX)             
        11     5.00000000E+03   # At(MX)              
        12     5.00000000E+03   # Ab(MX)              
        13     0.00000000E+00   # Atau(MX)            
        23    -1.83858600E+03   # mu(MX)              
        26     3.00000000E+03   # mA(pole)            
        31     5.00000000E+03   # meL(MX)             
        32     5.00000000E+03   # mmuL(MX)            
        33     5.00000000E+03   # mtauL(MX)           
        34     5.00000000E+03   # meR(MX)             
        35     5.00000000E+03   # mmuR(MX)            
        36     5.00000000E+03   # mtauR(MX)           
        41     5.00000000E+03   # mqL1(MX)            
        42     5.00000000E+03   # mqL2(MX)            
        43     5.00000000E+03   # mqL3(MX)            
        44     5.00000000E+03   # muR(MX)             
        45     5.00000000E+03   # mcR(MX)             
        46     5.00000000E+03   # mtR(MX)             
        47     5.00000000E+03   # mdR(MX)             
        48     5.00000000E+03   # msR(MX)             
        49     5.00000000E+03   # mbR(MX)             
#
BLOCK MASS  # Mass Spectrum
# PDG code           mass       particle
        24     8.00976337E+01   # W+
        25     1.24829883E+02   # h
        35     3.00007742E+03   # H
        36     2.99999995E+03   # A
        37     3.00087231E+03   # H+
         5     4.87878001E+00   # b-quark pole mass calculated from mb(mb)_Msbar
   1000001     5.08623168E+03   # ~d_L
   2000001     5.06852299E+03   # ~d_R
   1000002     5.08576235E+03   # ~u_L
   2000002     5.06825498E+03   # ~u_R
   1000003     5.08623168E+03   # ~s_L
   2000003     5.06852299E+03   # ~s_R
   1000004     5.08576235E+03   # ~c_L
   2000004     5.06825498E+03   # ~c_R
   1000005     5.03277792E+03   # ~b_1
   2000005     5.06763806E+03   # ~b_2
   1000006     4.92621360E+03   # ~t_1
   2000006     5.07842375E+03   # ~t_2
   1000011     5.01903288E+03   # ~e_L
   2000011     5.00590320E+03   # ~e_R
   1000012     5.01808523E+03   # ~nu_eL
   1000013     5.01903288E+03   # ~mu_L
   2000013     5.00590320E+03   # ~mu_R
   1000014     5.01808523E+03   # ~nu_muL
   1000015     5.00412550E+03   # ~tau_1
   2000015     5.01925665E+03   # ~tau_2
   1000016     5.01755457E+03   # ~nu_tauL
   1000021     2.80000009E+03   # ~g
   1000022     6.03003894E+01   # ~chi_10
   1000023     1.89939113E+03   # ~chi_20
   1000025    -1.90224219E+03   # ~chi_30
   1000035     3.07442080E+03   # ~chi_40
   1000024     1.90000066E+03   # ~chi_1+
   1000037     3.07458853E+03   # ~chi_2+
#
BLOCK NMIX  # Neutralino Mixing Matrix
  1  1     9.99722539E-01   # N_11
  1  2     1.16377346E-04   # N_12
  1  3    -2.34918036E-02   # N_13
  1  4     1.72252362E-03   # N_14
  2  1     1.53865830E-02   # N_21
  2  2     4.14151346E-02   # N_22
  2  3     7.06771621E-01   # N_23
  2  4     7.06060844E-01   # N_24
  3  1    -1.78272350E-02   # N_31
  3  2     1.21847314E-02   # N_32
  3  3    -7.06749257E-01   # N_33
  3  4     7.07134506E-01   # N_34
  4  1    -5.36862901E-04   # N_41
  4  2     9.99067718E-01   # N_42
  4  3    -2.06760339E-02   # N_43
  4  4    -3.78933767E-02   # N_44
#
BLOCK UMIX  # Chargino Mixing Matrix U
  1  1     2.92015025E-02   # U_11
  1  2     9.99573545E-01   # U_12
  2  1    -9.99573545E-01   # U_21
  2  2     2.92015025E-02   # U_22
#
BLOCK VMIX  # Chargino Mixing Matrix V
  1  1     5.35534684E-02   # V_11
  1  2    -9.98564983E-01   # V_12
  2  1    -9.98564983E-01   # V_21
  2  2    -5.35534684E-02   # V_22
#
BLOCK STOPMIX  # Stop Mixing Matrix
  1  1    -5.12279469E-01   # cos(theta_t)
  1  2     8.58818808E-01   # sin(theta_t)
  2  1    -8.58818808E-01   # -sin(theta_t)
  2  2    -5.12279469E-01   # cos(theta_t)
#
BLOCK SBOTMIX  # Sbottom Mixing Matrix
  1  1     9.91605890E-01   # cos(theta_b)
  1  2    -1.29297173E-01   # sin(theta_b)
  2  1     1.29297173E-01   # -sin(theta_b)
  2  2     9.91605890E-01   # cos(theta_b)
#
BLOCK STAUMIX  # Stau Mixing Matrix
  1  1    -2.08939006E-01   # cos(theta_tau)
  1  2     9.77928674E-01   # sin(theta_tau)
  2  1    -9.77928674E-01   # -sin(theta_tau)
  2  2    -2.08939006E-01   # cos(theta_tau)
#
BLOCK ALPHA  # Higgs mixing
          -1.05465628E-01   # Mixing angle in the neutral Higgs boson sector
#
BLOCK HMIX Q=  5.00070579E+03  # DRbar Higgs Parameters
         1    -1.87251383E+03   # mu(Q)MSSM           
         2     9.47000058E+00   # tan                 
         3     2.42041877E+02   # higgs               
         4     8.34324363E+06   # mA^2(Q)MSSM         
#
BLOCK GAUGE Q=  5.00070579E+03  # The gauge couplings
     1     3.70630595E-01   # gprime(Q) DRbar
     2     6.31771475E-01   # g(Q) DRbar
     3     9.93510375E-01   # g3(Q) DRbar
#
BLOCK AU Q=  5.00070579E+03  # The trilinear couplings
  1  1     5.00000002E+03   # A_u(Q) DRbar
  2  2     5.00000002E+03   # A_c(Q) DRbar
  3  3     5.00000003E+03   # A_t(Q) DRbar
#
BLOCK AD Q=  5.00070579E+03  # The trilinear couplings
  1  1     5.00000001E+03   # A_d(Q) DRbar
  2  2     5.00000001E+03   # A_s(Q) DRbar
  3  3     5.00000001E+03   # A_b(Q) DRbar
#
BLOCK AE Q=  5.00070579E+03  # The trilinear couplings
  1  1     0.00000000E+00   # A_e(Q) DRbar
  2  2     3.01435413E-07   # A_mu(Q) DRbar
  3  3     3.01553757E-07   # A_tau(Q) DRbar
#
BLOCK Yu Q=  5.00070579E+03  # The Yukawa couplings
  1  1     0.00000000E+00   # y_u(Q) DRbar
  2  2     0.00000000E+00   # y_c(Q) DRbar
  3  3     8.20936032E-01   # y_t(Q) DRbar
#
BLOCK Yd Q=  5.00070579E+03  # The Yukawa couplings
  1  1     0.00000000E+00   # y_d(Q) DRbar
  2  2     0.00000000E+00   # y_s(Q) DRbar
  3  3     1.32556999E-01   # y_b(Q) DRbar
#
BLOCK Ye Q=  5.00070579E+03  # The Yukawa couplings
  1  1     0.00000000E+00   # y_e(Q) DRbar
  2  2     0.00000000E+00   # y_mu(Q) DRbar
  3  3     9.64794210E-02   # y_tau(Q) DRbar
#
BLOCK MSOFT Q=  5.00070579E+03  # The soft SUSY breaking masses at the scale Q
         1     6.00000000E+01   # M_1(Q)              
         2     3.00000000E+03   # M_2(Q)              
         3     2.42818900E+03   # M_3(Q)              
        21     5.14254690E+06   # mH1^2(Q)            
        22    -2.96899547E+06   # mH2^2(Q)            
        31     5.00000000E+03   # meL(Q)              
        32     5.00000000E+03   # mmuL(Q)             
        33     5.00000000E+03   # mtauL(Q)            
        34     5.00000000E+03   # meR(Q)              
        35     5.00000000E+03   # mmuR(Q)             
        36     5.00000000E+03   # mtauR(Q)            
        41     4.99999999E+03   # mqL1(Q)             
        42     4.99999999E+03   # mqL2(Q)             
        43     4.99999999E+03   # mqL3(Q)             
        44     4.99999999E+03   # muR(Q)              
        45     4.99999999E+03   # mcR(Q)              
        46     4.99999999E+03   # mtR(Q)              
        47     4.99999999E+03   # mdR(Q)              
        48     4.99999999E+03   # msR(Q)              
        49     4.99999999E+03   # mbR(Q)              
#
#
#
#                             =================
#                             |The decay table|
#                             =================
#
# - The QCD corrections to the decays gluino -> squark  + quark
#                                     squark -> gaugino + quark_prime
#                                     squark -> squark_prime + Higgs
#                                     squark -> gluino  + quark
#   are included.
#
# - The multi-body decays for the inos, stops and sbottoms are included.
#
# - The loop induced decays for the gluino, neutralinos and stops
#   are included.
#
# - The SUSY decays of the top quark are included.
#
#
#         PDG            Width
DECAY         6     1.39859032E+00   # top decays
#          BR         NDA      ID1       ID2
     1.00000000E+00    2           5        24   # BR(t ->  b    W+)
#
#         PDG            Width
DECAY   1000021     2.27187601E-03   # gluino decays
#          BR         NDA      ID1       ID2
     5.06558737E-06    2     1000022        21   # BR(~g -> ~chi_10 g)
     3.80918423E-03    2     1000023        21   # BR(~g -> ~chi_20 g)
     3.83989677E-03    2     1000025        21   # BR(~g -> ~chi_30 g)
#           BR         NDA      ID1       ID2       ID3
     6.16243177E-02    3     1000022         1        -1   # BR(~g -> ~chi_10 d  db)
     2.19513524E-05    3     1000023         1        -1   # BR(~g -> ~chi_20 d  db)
     1.49601288E-06    3     1000025         1        -1   # BR(~g -> ~chi_30 d  db)
     2.10113873E-01    3     1000022         2        -2   # BR(~g -> ~chi_10 u  ub)
     3.08082040E-05    3     1000023         2        -2   # BR(~g -> ~chi_20 u  ub)
     1.38790265E-06    3     1000025         2        -2   # BR(~g -> ~chi_30 u  ub)
     6.16243177E-02    3     1000022         3        -3   # BR(~g -> ~chi_10 s  sb)
     2.19513524E-05    3     1000023         3        -3   # BR(~g -> ~chi_20 s  sb)
     1.49601288E-06    3     1000025         3        -3   # BR(~g -> ~chi_30 s  sb)
     2.10113873E-01    3     1000022         4        -4   # BR(~g -> ~chi_10 c  cb)
     3.08082040E-05    3     1000023         4        -4   # BR(~g -> ~chi_20 c  cb)
     1.38790265E-06    3     1000025         4        -4   # BR(~g -> ~chi_30 c  cb)
     6.23784264E-02    3     1000022         5        -5   # BR(~g -> ~chi_10 b  bb)
     1.37233750E-03    3     1000023         5        -5   # BR(~g -> ~chi_20 b  bb)
     1.32537520E-03    3     1000025         5        -5   # BR(~g -> ~chi_30 b  bb)
     2.17614599E-01    3     1000022         6        -6   # BR(~g -> ~chi_10 t  tb)
     4.16666414E-02    3     1000023         6        -6   # BR(~g -> ~chi_20 t  tb)
     3.29846021E-02    3     1000025         6        -6   # BR(~g -> ~chi_30 t  tb)
     5.11118820E-05    3     1000024         1        -2   # BR(~g -> ~chi_1+ d  ub)
     5.11118820E-05    3    -1000024         2        -1   # BR(~g -> ~chi_1- u  db)
     5.11118820E-05    3     1000024         3        -4   # BR(~g -> ~chi_1+ s  cb)
     5.11118820E-05    3    -1000024         4        -3   # BR(~g -> ~chi_1- c  sb)
     4.56058779E-02    3     1000024         5        -6   # BR(~g -> ~chi_1+ b  tb)
     4.56058779E-02    3    -1000024         6        -5   # BR(~g -> ~chi_1- t  bb)
#
#         PDG            Width
DECAY   1000006     2.41654282E+02   # stop1 decays
#          BR         NDA      ID1       ID2
     3.64758728E-02    2     1000022         6   # BR(~t_1 -> ~chi_10 t )
     9.83848277E-02    2     1000023         6   # BR(~t_1 -> ~chi_20 t )
     9.44652619E-02    2     1000025         6   # BR(~t_1 -> ~chi_30 t )
     9.29109973E-03    2     1000035         6   # BR(~t_1 -> ~chi_40 t )
     1.41778102E-01    2     1000024         5   # BR(~t_1 -> ~chi_1+ b )
     1.84286969E-02    2     1000037         5   # BR(~t_1 -> ~chi_2+ b )
     6.01176139E-01    2     1000021         6   # BR(~t_1 -> ~g      t )
#
#         PDG            Width
DECAY   2000006     2.58968846E+02   # stop2 decays
#          BR         NDA      ID1       ID2
     1.35168053E-02    2     1000022         6   # BR(~t_2 -> ~chi_10 t )
     9.65362594E-02    2     1000023         6   # BR(~t_2 -> ~chi_20 t )
     1.00578861E-01    2     1000025         6   # BR(~t_2 -> ~chi_30 t )
     2.11257669E-02    2     1000035         6   # BR(~t_2 -> ~chi_40 t )
     5.95201253E-02    2     1000024         5   # BR(~t_2 -> ~chi_1+ b )
     4.18085867E-02    2     1000037         5   # BR(~t_2 -> ~chi_2+ b )
     6.62121306E-01    2     1000021         6   # BR(~t_2 -> ~g      t )
     1.03695481E-03    2     1000006        25   # BR(~t_2 -> ~t_1    h )
     3.75533486E-03    2     1000006        23   # BR(~t_2 -> ~t_1    Z )
#
#         PDG            Width
DECAY   1000005     2.35131844E+02   # sbottom1 decays
#          BR         NDA      ID1       ID2
     3.36118767E-03    2     1000022         5   # BR(~b_1 -> ~chi_10 b )
     2.93374082E-03    2     1000023         5   # BR(~b_1 -> ~chi_20 b )
     2.67973006E-03    2     1000025         5   # BR(~b_1 -> ~chi_30 b )
     3.18631182E-02    2     1000035         5   # BR(~b_1 -> ~chi_40 b )
     2.06070700E-01    2    -1000024         6   # BR(~b_1 -> ~chi_1- t )
     6.43447768E-02    2    -1000037         6   # BR(~b_1 -> ~chi_2- t )
     6.86577605E-01    2     1000021         5   # BR(~b_1 -> ~g      b )
     2.16914213E-03    2     1000006       -24   # BR(~b_1 -> ~t_1    W-)
#
#         PDG            Width
DECAY   2000005     1.71150780E+02   # sbottom2 decays
#          BR         NDA      ID1       ID2
     1.69875230E-02    2     1000022         5   # BR(~b_2 -> ~chi_10 b )
     3.66960321E-03    2     1000023         5   # BR(~b_2 -> ~chi_20 b )
     3.91168933E-03    2     1000025         5   # BR(~b_2 -> ~chi_30 b )
     7.95606673E-04    2     1000035         5   # BR(~b_2 -> ~chi_40 b )
     1.21494115E-02    2    -1000024         6   # BR(~b_2 -> ~chi_1- t )
     1.60500301E-03    2    -1000037         6   # BR(~b_2 -> ~chi_2- t )
     9.60652760E-01    2     1000021         5   # BR(~b_2 -> ~g      b )
     2.28403397E-04    2     1000006       -24   # BR(~b_2 -> ~t_1    W-)
#
#         PDG            Width
DECAY   1000002     1.90445584E+02   # sup_L decays
#          BR         NDA      ID1       ID2
     3.90690990E-03    2     1000022         2   # BR(~u_L -> ~chi_10 u)
     1.49970089E-04    2     1000023         2   # BR(~u_L -> ~chi_20 u)
     5.74444375E-06    2     1000025         2   # BR(~u_L -> ~chi_30 u)
     4.14387561E-02    2     1000035         2   # BR(~u_L -> ~chi_40 u)
     4.35797662E-04    2     1000024         1   # BR(~u_L -> ~chi_1+ d)
     8.28012168E-02    2     1000037         1   # BR(~u_L -> ~chi_2+ d)
     8.71261605E-01    2     1000021         2   # BR(~u_L -> ~g      u)
#
#         PDG            Width
DECAY   2000002     1.76216426E+02   # sup_R decays
#          BR         NDA      ID1       ID2
     6.72400577E-02    2     1000022         2   # BR(~u_R -> ~chi_10 u)
     1.18285238E-05    2     1000023         2   # BR(~u_R -> ~chi_20 u)
     1.58632013E-05    2     1000025         2   # BR(~u_R -> ~chi_30 u)
     7.82442950E-09    2     1000035         2   # BR(~u_R -> ~chi_40 u)
     9.32732243E-01    2     1000021         2   # BR(~u_R -> ~g      u)
#
#         PDG            Width
DECAY   1000001     1.90465153E+02   # sdown_L decays
#          BR         NDA      ID1       ID2
     3.89758561E-03    2     1000022         1   # BR(~d_L -> ~chi_10 d)
     1.12097411E-04    2     1000023         1   # BR(~d_L -> ~chi_20 d)
     1.86447816E-05    2     1000025         1   # BR(~d_L -> ~chi_30 d)
     4.14645062E-02    2     1000035         1   # BR(~d_L -> ~chi_40 d)
     1.29581184E-04    2    -1000024         2   # BR(~d_L -> ~chi_1- u)
     8.29852329E-02    2    -1000037         2   # BR(~d_L -> ~chi_2- u)
     8.71392352E-01    2     1000021         1   # BR(~d_L -> ~g      d)
#
#         PDG            Width
DECAY   2000001     1.67350288E+02   # sdown_R decays
#          BR         NDA      ID1       ID2
     1.77015591E-02    2     1000022         1   # BR(~d_R -> ~chi_10 d)
     3.11407229E-06    2     1000023         1   # BR(~d_R -> ~chi_20 d)
     4.17627444E-06    2     1000025         1   # BR(~d_R -> ~chi_30 d)
     2.06010215E-09    2     1000035         1   # BR(~d_R -> ~chi_40 d)
     9.82291148E-01    2     1000021         1   # BR(~d_R -> ~g      d)
#
#         PDG            Width
DECAY   1000004     1.90445584E+02   # scharm_L decays
#          BR         NDA      ID1       ID2
     3.90690990E-03    2     1000022         4   # BR(~c_L -> ~chi_10 c)
     1.49970089E-04    2     1000023         4   # BR(~c_L -> ~chi_20 c)
     5.74444375E-06    2     1000025         4   # BR(~c_L -> ~chi_30 c)
     4.14387561E-02    2     1000035         4   # BR(~c_L -> ~chi_40 c)
     4.35797662E-04    2     1000024         3   # BR(~c_L -> ~chi_1+ s)
     8.28012168E-02    2     1000037         3   # BR(~c_L -> ~chi_2+ s)
     8.71261605E-01    2     1000021         4   # BR(~c_L -> ~g      c)
#
#         PDG            Width
DECAY   2000004     1.76216426E+02   # scharm_R decays
#          BR         NDA      ID1       ID2
     6.72400577E-02    2     1000022         4   # BR(~c_R -> ~chi_10 c)
     1.18285238E-05    2     1000023         4   # BR(~c_R -> ~chi_20 c)
     1.58632013E-05    2     1000025         4   # BR(~c_R -> ~chi_30 c)
     7.82442950E-09    2     1000035         4   # BR(~c_R -> ~chi_40 c)
     9.32732243E-01    2     1000021         4   # BR(~c_R -> ~g      c)
#
#         PDG            Width
DECAY   1000003     1.90465153E+02   # sstrange_L decays
#          BR         NDA      ID1       ID2
     3.89758561E-03    2     1000022         3   # BR(~s_L -> ~chi_10 s)
     1.12097411E-04    2     1000023         3   # BR(~s_L -> ~chi_20 s)
     1.86447816E-05    2     1000025         3   # BR(~s_L -> ~chi_30 s)
     4.14645062E-02    2     1000035         3   # BR(~s_L -> ~chi_40 s)
     1.29581184E-04    2    -1000024         4   # BR(~s_L -> ~chi_1- c)
     8.29852329E-02    2    -1000037         4   # BR(~s_L -> ~chi_2- c)
     8.71392352E-01    2     1000021         3   # BR(~s_L -> ~g      s)
#
#         PDG            Width
DECAY   2000003     1.67350288E+02   # sstrange_R decays
#          BR         NDA      ID1       ID2
     1.77015591E-02    2     1000022         3   # BR(~s_R -> ~chi_10 s)
     3.11407229E-06    2     1000023         3   # BR(~s_R -> ~chi_20 s)
     4.17627444E-06    2     1000025         3   # BR(~s_R -> ~chi_30 s)
     2.06010215E-09    2     1000035         3   # BR(~s_R -> ~chi_40 s)
     9.82291148E-01    2     1000021         3   # BR(~s_R -> ~g      s)
#
#         PDG            Width
DECAY   1000011     3.02179177E+01   # selectron_L decays
#          BR         NDA      ID1       ID2
     2.26852781E-01    2     1000022        11   # BR(~e_L -> ~chi_10 e-)
     1.23168335E-03    2     1000023        11   # BR(~e_L -> ~chi_20 e-)
     1.44122377E-06    2     1000025        11   # BR(~e_L -> ~chi_30 e-)
     2.56770566E-01    2     1000035        11   # BR(~e_L -> ~chi_40 e-)
     8.25403875E-04    2    -1000024        12   # BR(~e_L -> ~chi_1- nu_e)
     5.14318125E-01    2    -1000037        12   # BR(~e_L -> ~chi_2- nu_e)
#
#         PDG            Width
DECAY   2000011     2.73485680E+01   # selectron_R decays
#          BR         NDA      ID1       ID2
     9.99593570E-01    2     1000022        11   # BR(~e_R -> ~chi_10 e-)
     1.73562377E-04    2     1000023        11   # BR(~e_R -> ~chi_20 e-)
     2.32755643E-04    2     1000025        11   # BR(~e_R -> ~chi_30 e-)
     1.11847579E-07    2     1000035        11   # BR(~e_R -> ~chi_40 e-)
#
#         PDG            Width
DECAY   1000013     3.02179177E+01   # smuon_L decays
#          BR         NDA      ID1       ID2
     2.26852781E-01    2     1000022        13   # BR(~mu_L -> ~chi_10 mu-)
     1.23168335E-03    2     1000023        13   # BR(~mu_L -> ~chi_20 mu-)
     1.44122377E-06    2     1000025        13   # BR(~mu_L -> ~chi_30 mu-)
     2.56770566E-01    2     1000035        13   # BR(~mu_L -> ~chi_40 mu-)
     8.25403875E-04    2    -1000024        14   # BR(~mu_L -> ~chi_1- nu_mu)
     5.14318125E-01    2    -1000037        14   # BR(~mu_L -> ~chi_2- nu_mu)
#
#         PDG            Width
DECAY   2000013     2.73485680E+01   # smuon_R decays
#          BR         NDA      ID1       ID2
     9.99593570E-01    2     1000022        13   # BR(~mu_R -> ~chi_10 mu-)
     1.73562377E-04    2     1000023        13   # BR(~mu_R -> ~chi_20 mu-)
     2.32755643E-04    2     1000025        13   # BR(~mu_R -> ~chi_30 mu-)
     1.11847579E-07    2     1000035        13   # BR(~mu_R -> ~chi_40 mu-)
#
#         PDG            Width
DECAY   1000015     2.88246631E+01   # stau_1 decays
#          BR         NDA      ID1       ID2
     9.17884382E-01    2     1000022        15   # BR(~tau_1 -> ~chi_10  tau-)
     1.29995626E-02    2     1000023        15   # BR(~tau_1 -> ~chi_20  tau-)
     1.12506539E-02    2     1000025        15   # BR(~tau_1 -> ~chi_30  tau-)
     1.11507834E-02    2     1000035        15   # BR(~tau_1 -> ~chi_40  tau-)
     2.43772770E-02    2    -1000024        16   # BR(~tau_1 -> ~chi_1-  nu_tau)
     2.23373413E-02    2    -1000037        16   # BR(~tau_1 -> ~chi_2-  nu_tau)
#
#         PDG            Width
DECAY   2000015     3.07674494E+01   # stau_2 decays
#          BR         NDA      ID1       ID2
     2.51207217E-01    2     1000022        15   # BR(~tau_2 -> ~chi_10  tau-)
     1.12819397E-02    2     1000023        15   # BR(~tau_2 -> ~chi_20  tau-)
     1.17490240E-02    2     1000025        15   # BR(~tau_2 -> ~chi_30  tau-)
     2.41676245E-01    2     1000035        15   # BR(~tau_2 -> ~chi_40  tau-)
     1.05870912E-05    2    -1000024        16   # BR(~tau_2 -> ~chi_1-  nu_tau)
     4.84074986E-01    2    -1000037        16   # BR(~tau_2 -> ~chi_2-  nu_tau)
#
#         PDG            Width
DECAY   1000012     3.02191596E+01   # snu_eL decays
#          BR         NDA      ID1       ID2
     2.26620659E-01    2     1000022        12   # BR(~nu_eL -> ~chi_10 nu_e)
     5.07630421E-04    2     1000023        12   # BR(~nu_eL -> ~chi_20 nu_e)
     2.47856945E-04    2     1000025        12   # BR(~nu_eL -> ~chi_30 nu_e)
     2.56918844E-01    2     1000035        12   # BR(~nu_eL -> ~chi_40 nu_e)
     2.77508682E-03    2     1000024        11   # BR(~nu_eL -> ~chi_1+ e-)
     5.12929923E-01    2     1000037        11   # BR(~nu_eL -> ~chi_2+ e-)
#
#         PDG            Width
DECAY   1000014     3.02191596E+01   # snu_muL decays
#          BR         NDA      ID1       ID2
     2.26620659E-01    2     1000022        14   # BR(~nu_muL -> ~chi_10 nu_mu)
     5.07630421E-04    2     1000023        14   # BR(~nu_muL -> ~chi_20 nu_mu)
     2.47856945E-04    2     1000025        14   # BR(~nu_muL -> ~chi_30 nu_mu)
     2.56918844E-01    2     1000035        14   # BR(~nu_muL -> ~chi_40 nu_mu)
     2.77508682E-03    2     1000024        13   # BR(~nu_muL -> ~chi_1+ mu-)
     5.12929923E-01    2     1000037        13   # BR(~nu_muL -> ~chi_2+ mu-)
#
#         PDG            Width
DECAY   1000016     3.08916117E+01   # snu_tauL decays
#          BR         NDA      ID1       ID2
     2.21664097E-01    2     1000022        16   # BR(~nu_tauL -> ~chi_10 nu_tau)
     4.96492622E-04    2     1000023        16   # BR(~nu_tauL -> ~chi_20 nu_tau)
     2.42418714E-04    2     1000025        16   # BR(~nu_tauL -> ~chi_30 nu_tau)
     2.51235743E-01    2     1000035        16   # BR(~nu_tauL -> ~chi_40 nu_tau)
     2.47709019E-02    2     1000024        15   # BR(~nu_tauL -> ~chi_1+ tau-)
     5.01590346E-01    2     1000037        15   # BR(~nu_tauL -> ~chi_2+ tau-)
#
#         PDG            Width
DECAY   1000024     1.17259959E+00   # chargino1+ decays
#          BR         NDA      ID1       ID2
     1.00000000E+00    2     1000022        24   # BR(~chi_1+ -> ~chi_10  W+)
#
#         PDG            Width
DECAY   1000037     1.60983278E+01   # chargino2+ decays
#          BR         NDA      ID1       ID2
     2.52102881E-01    2     1000024        23   # BR(~chi_2+ -> ~chi_1+  Z )
     4.06527713E-04    2     1000022        24   # BR(~chi_2+ -> ~chi_10  W+)
     2.44881590E-01    2     1000023        24   # BR(~chi_2+ -> ~chi_20  W+)
     2.43022806E-01    2     1000025        24   # BR(~chi_2+ -> ~chi_30  W+)
     2.59586109E-01    2     1000024        25   # BR(~chi_2+ -> ~chi_1+  h )
     8.63299179E-08    2     1000022        37   # BR(~chi_2+ -> ~chi_10  H+)
#
#         PDG            Width
DECAY   1000022     0.00000000E+00   # neutralino1 decays
#
#         PDG            Width
DECAY   1000023     1.23475356E+00   # neutralino2 decays
#          BR         NDA      ID1       ID2
     5.64022155E-01    2     1000022        23   # BR(~chi_20 -> ~chi_10   Z )
     4.35977845E-01    2     1000022        25   # BR(~chi_20 -> ~chi_10   h )
#
#         PDG            Width
DECAY   1000025     1.24953491E+00   # neutralino3 decays
#          BR         NDA      ID1       ID2
     4.16959581E-01    2     1000022        23   # BR(~chi_30 -> ~chi_10   Z )
     5.83040419E-01    2     1000022        25   # BR(~chi_30 -> ~chi_10   h )
#
#         PDG            Width
DECAY   1000035     1.60651407E+01   # neutralino4 decays
#          BR         NDA      ID1       ID2
     1.76037381E-04    2     1000022        23   # BR(~chi_40 -> ~chi_10   Z )
     2.04007033E-02    2     1000023        23   # BR(~chi_40 -> ~chi_20   Z )
     2.31971517E-01    2     1000025        23   # BR(~chi_40 -> ~chi_30   Z )
     2.43766516E-01    2     1000024       -24   # BR(~chi_40 -> ~chi_1+   W-)
     2.43766516E-01    2    -1000024        24   # BR(~chi_40 -> ~chi_1-   W+)
     2.46014626E-04    2     1000022        25   # BR(~chi_40 -> ~chi_10   h )
     7.13539111E-08    2     1000022        35   # BR(~chi_40 -> ~chi_10   H )
     1.82314353E-08    2     1000022        36   # BR(~chi_40 -> ~chi_10   A )
     2.39486563E-01    2     1000023        25   # BR(~chi_40 -> ~chi_20   h )
     2.01860441E-02    2     1000025        25   # BR(~chi_40 -> ~chi_30   h )
#
#         PDG            Width
DECAY        25     4.02802498E-03   # h decays
#          BR         NDA      ID1       ID2
     6.03782870E-01    2           5        -5   # BR(h -> b       bb     )
     6.44130701E-02    2         -15        15   # BR(h -> tau+    tau-   )
     2.28045438E-04    2         -13        13   # BR(h -> mu+     mu-    )
     4.83401012E-04    2           3        -3   # BR(h -> s       sb     )
     2.09492508E-02    2           4        -4   # BR(h -> c       cb     )
     6.78308780E-02    2          21        21   # BR(h -> g       g      )
     2.33376493E-03    2          22        22   # BR(h -> gam     gam    )
     1.50956353E-03    2          22        23   # BR(h -> Z       gam    )
     2.13027511E-01    2          24       -24   # BR(h -> W+      W-     )
     2.54184045E-02    2          23        23   # BR(h -> Z       Z      )
     2.32400863E-05    2     1000022   1000022   # BR(h -> ~chi_10 ~chi_10)
#
#         PDG            Width
DECAY        35     6.54772153E+00   # H decays
#          BR         NDA      ID1       ID2
     5.04906355E-01    2           5        -5   # BR(H -> b       bb     )
     8.50876219E-02    2         -15        15   # BR(H -> tau+    tau-   )
     3.00876590E-04    2         -13        13   # BR(H -> mu+     mu-    )
     3.68828666E-04    2           3        -3   # BR(H -> s       sb     )
     2.06271468E-06    2           4        -4   # BR(H -> c       cb     )
     2.06081526E-01    2           6        -6   # BR(H -> t       tb     )
     6.83719643E-05    2          21        21   # BR(H -> g       g      )
     3.91217779E-07    2          22        22   # BR(H -> gam     gam    )
     1.21748419E-07    2          23        22   # BR(H -> Z       gam    )
     9.02694460E-05    2          24       -24   # BR(H -> W+      W-     )
     4.50776054E-05    2          23        23   # BR(H -> Z       Z      )
     3.43726845E-04    2          25        25   # BR(H -> h       h      )
    -1.59187492E-23    2          36        36   # BR(H -> A       A      )
     1.07688342E-18    2          23        36   # BR(H -> Z       A      )
     6.11404579E-04    2     1000022   1000022   # BR(H -> ~chi_10 ~chi_10)
     1.18573321E-01    2     1000022   1000023   # BR(H -> ~chi_10 ~chi_20)
     8.35200443E-02    2     1000022   1000025   # BR(H -> ~chi_10 ~chi_30)
#
#         PDG            Width
DECAY        36     6.55094349E+00   # A decays
#          BR         NDA      ID1       ID2
     5.04825477E-01    2           5        -5   # BR(A -> b       bb     )
     8.50483522E-02    2         -15        15   # BR(A -> tau+    tau-   )
     3.00737308E-04    2         -13        13   # BR(A -> mu+     mu-    )
     3.68927257E-04    2           3        -3   # BR(A -> s       sb     )
     2.07040480E-06    2           4        -4   # BR(A -> c       cb     )
     2.06735709E-01    2           6        -6   # BR(A -> t       tb     )
     2.04586978E-04    2          21        21   # BR(A -> g       g      )
     3.91969838E-07    2          22        22   # BR(A -> gam     gam    )
     2.47914835E-07    2          23        22   # BR(A -> Z       gam    )
     8.98840354E-05    2          23        25   # BR(A -> Z       h      )
     6.31389961E-04    2     1000022   1000022   # BR(A -> ~chi_10 ~chi_10)
     8.45191627E-02    2     1000022   1000023   # BR(A -> ~chi_10 ~chi_20)
     1.17273063E-01    2     1000022   1000025   # BR(A -> ~chi_10 ~chi_30)
#
#         PDG            Width
DECAY        37     6.58385497E+00   # H+ decays
#          BR         NDA      ID1       ID2
     8.16457701E-04    2           4        -5   # BR(H+ -> c       bb     )
     8.46478184E-02    2         -15        16   # BR(H+ -> tau+    nu_tau )
     2.99320991E-04    2         -13        14   # BR(H+ -> mu+     nu_mu  )
     5.22530303E-06    2           2        -5   # BR(H+ -> u       bb     )
     1.75635329E-05    2           2        -3   # BR(H+ -> u       sb     )
     3.63214810E-04    2           4        -3   # BR(H+ -> c       sb     )
     7.11661941E-01    2           6        -5   # BR(H+ -> t       bb     )
     8.95701856E-05    2          24        25   # BR(H+ -> W+      h      )
     1.00854695E-13    2          24        36   # BR(H+ -> W+      A      )
     2.02098888E-01    2     1000024   1000022   # BR(H+ -> ~chi_1+ ~chi_10)
