#
#                              ======================
#                              | THE SUSYHIT OUTPUT |
#                              ======================
#
#
#              ------------------------------------------------------
#              |     This is the output of the SUSY-HIT package     |
#              |  created by A.Djouadi, M.Muehlleitner and M.Spira. |
#              |  In case of problems with SUSY-HIT email to        |
#              |           margarete.muehlleitner@cern.ch           |
#              |           michael.spira@psi.ch                     |
#              |           abdelhak.djouadi@cern.ch                 |
#              ------------------------------------------------------
#
#              ------------------------------------------------------
#              |  SUSY Les Houches Accord - MSSM Spectrum + Decays  |
#              |              based on the decay programs           |
#              |                                                    |
#              |                     SDECAY 1.3b                    |
#              |                                                    |
#              |  Authors: M.Muhlleitner, A.Djouadi and Y.Mambrini  |
#              |  Ref.:    Comput.Phys.Commun.168(2005)46           |
#              |           [hep-ph/0311167]                         |
#              |                                                    |
#              |                     HDECAY 3.4                     |
#              |                                                    |
#              |  By: A.Djouadi,J.Kalinowski,M.Muhlleitner,M.Spira  |
#              |  Ref.:    Comput.Phys.Commun.108(1998)56           |
#              |           [hep-ph/9704448]                         |
#              |                                                    |
#              |                                                    |
#              |  If not stated otherwise all DRbar couplings and   |
#              |  soft SUSY breaking masses are given at the scale  |
#              |  Q=  0.50007147E+04
#              |                                                    |
#              ------------------------------------------------------
#
#
BLOCK DCINFO  # Decay Program information
     1   SDECAY/HDECAY # decay calculator
     2   1.3b  /3.4    # version number
#
BLOCK SPINFO  # Spectrum calculator information
     1    SOFTSUSY    # spectrum calculator                
     2    3.4.0       # version number                     
#
BLOCK MODSEL  # Model selection
     1     0   #  nonUniversal                                     
#
BLOCK SMINPUTS  # Standard Model inputs
         1     1.25778332E+02   # alpha_em^-1(M_Z)^MSbar
         2     1.16570000E-05   # G_F [GeV^-2]
         3     1.17200002E-01   # alpha_S(M_Z)^MSbar
         4     9.11876000E+01   # M_Z pole mass
         5     4.25000000E+00   # mb(mb)^MSbar
         6     1.72500000E+02   # mt pole mass
         7     1.77682000E+00   # mtau pole mass
#
BLOCK MINPAR  # Input parameters - minimal models
         3     1.00000000E+01   # tanb                
#
BLOCK EXTPAR  # Input parameters - non-minimal models
         0    -1.00000000E+00   # Set                 
         1     6.00000000E+01   # M_1(MX)             
         2     3.00000000E+03   # M_2(MX)             
         3     2.62339600E+03   # M_3(MX)             
        11     5.00000000E+03   # At(MX)              
        12     5.00000000E+03   # Ab(MX)              
        13     0.00000000E+00   # Atau(MX)            
        23    -1.64232300E+03   # mu(MX)              
        26     3.00000000E+03   # mA(pole)            
        31     5.00000000E+03   # meL(MX)             
        32     5.00000000E+03   # mmuL(MX)            
        33     5.00000000E+03   # mtauL(MX)           
        34     5.00000000E+03   # meR(MX)             
        35     5.00000000E+03   # mmuR(MX)            
        36     5.00000000E+03   # mtauR(MX)           
        41     5.00000000E+03   # mqL1(MX)            
        42     5.00000000E+03   # mqL2(MX)            
        43     5.00000000E+03   # mqL3(MX)            
        44     5.00000000E+03   # muR(MX)             
        45     5.00000000E+03   # mcR(MX)             
        46     5.00000000E+03   # mtR(MX)             
        47     5.00000000E+03   # mdR(MX)             
        48     5.00000000E+03   # msR(MX)             
        49     5.00000000E+03   # mbR(MX)             
#
BLOCK MASS  # Mass Spectrum
# PDG code           mass       particle
        24     8.00972304E+01   # W+
        25     1.24820631E+02   # h
        35     3.00008040E+03   # H
        36     2.99999995E+03   # A
        37     3.00087236E+03   # H+
         5     4.87878001E+00   # b-quark pole mass calculated from mb(mb)_Msbar
   1000001     5.09115371E+03   # ~d_L
   2000001     5.07345674E+03   # ~d_R
   1000002     5.09068585E+03   # ~u_L
   2000002     5.07318681E+03   # ~u_R
   1000003     5.09115371E+03   # ~s_L
   2000003     5.07345674E+03   # ~s_R
   1000004     5.09068585E+03   # ~c_L
   2000004     5.07318681E+03   # ~c_R
   1000005     5.03741526E+03   # ~b_1
   2000005     5.07239502E+03   # ~b_2
   1000006     4.93093394E+03   # ~t_1
   2000006     5.08216817E+03   # ~t_2
   1000011     5.01903817E+03   # ~e_L
   2000011     5.00590640E+03   # ~e_R
   1000012     5.01809046E+03   # ~nu_eL
   1000013     5.01903817E+03   # ~mu_L
   2000013     5.00590640E+03   # ~mu_R
   1000014     5.01809046E+03   # ~nu_muL
   1000015     5.00425334E+03   # ~tau_1
   2000015     5.01912067E+03   # ~tau_2
   1000016     5.01755538E+03   # ~nu_tauL
   1000021     3.00000077E+03   # ~g
   1000022     6.03020811E+01   # ~chi_10
   1000023     1.69941352E+03   # ~chi_20
   1000025    -1.70202295E+03   # ~chi_30
   1000035     3.07434689E+03   # ~chi_40
   1000024     1.70000031E+03   # ~chi_1+
   1000037     3.07451443E+03   # ~chi_2+
#
BLOCK NMIX  # Neutralino Mixing Matrix
  1  1     9.99653907E-01   # N_11
  1  2     1.27116350E-04   # N_12
  1  3    -2.62436438E-02   # N_13
  1  4     1.82226743E-03   # N_14
  2  1     1.72652445E-02   # N_21
  2  2     3.53833020E-02   # N_22
  2  3     7.06866195E-01   # N_23
  2  4     7.06250746E-01   # N_24
  3  1    -1.98428963E-02   # N_31
  3  2     1.27022157E-02   # N_32
  3  3    -7.06678201E-01   # N_33
  3  4     7.07142725E-01   # N_34
  4  1    -4.86268718E-04   # N_41
  4  2     9.99293080E-01   # N_42
  4  3    -1.60428861E-02   # N_43
  4  4    -3.39960270E-02   # N_44
#
BLOCK UMIX  # Chargino Mixing Matrix U
  1  1     2.26831728E-02   # U_11
  1  2     9.99742704E-01   # U_12
  2  1    -9.99742704E-01   # U_21
  2  2     2.26831728E-02   # U_22
#
BLOCK VMIX  # Chargino Mixing Matrix V
  1  1     4.80791786E-02   # V_11
  1  2    -9.98843528E-01   # V_12
  2  1    -9.98843528E-01   # V_21
  2  2    -4.80791786E-02   # V_22
#
BLOCK STOPMIX  # Stop Mixing Matrix
  1  1    -5.09142093E-01   # cos(theta_t)
  1  2     8.60682479E-01   # sin(theta_t)
  2  1    -8.60682479E-01   # -sin(theta_t)
  2  2    -5.09142093E-01   # cos(theta_t)
#
BLOCK SBOTMIX  # Sbottom Mixing Matrix
  1  1     9.93200714E-01   # cos(theta_b)
  1  2    -1.16414525E-01   # sin(theta_b)
  2  1     1.16414525E-01   # -sin(theta_b)
  2  2     9.93200714E-01   # cos(theta_b)
#
BLOCK STAUMIX  # Stau Mixing Matrix
  1  1    -1.88922313E-01   # cos(theta_tau)
  1  2     9.81992036E-01   # sin(theta_tau)
  2  1    -9.81992036E-01   # -sin(theta_tau)
  2  2    -1.88922313E-01   # cos(theta_tau)
#
BLOCK ALPHA  # Higgs mixing
          -1.05468983E-01   # Mixing angle in the neutral Higgs boson sector
#
BLOCK HMIX Q=  5.00071465E+03  # DRbar Higgs Parameters
         1    -1.67262116E+03   # mu(Q)MSSM           
         2     9.46983403E+00   # tan                 
         3     2.42006417E+02   # higgs               
         4     8.37066639E+06   # mA^2(Q)MSSM         
#
BLOCK GAUGE Q=  5.00071465E+03  # The gauge couplings
     1     3.70652633E-01   # gprime(Q) DRbar
     2     6.31883366E-01   # g(Q) DRbar
     3     9.92472211E-01   # g3(Q) DRbar
#
BLOCK AU Q=  5.00071465E+03  # The trilinear couplings
  1  1     5.00000002E+03   # A_u(Q) DRbar
  2  2     5.00000002E+03   # A_c(Q) DRbar
  3  3     5.00000003E+03   # A_t(Q) DRbar
#
BLOCK AD Q=  5.00071465E+03  # The trilinear couplings
  1  1     5.00000001E+03   # A_d(Q) DRbar
  2  2     5.00000001E+03   # A_s(Q) DRbar
  3  3     5.00000001E+03   # A_b(Q) DRbar
#
BLOCK AE Q=  5.00071465E+03  # The trilinear couplings
  1  1     0.00000000E+00   # A_e(Q) DRbar
  2  2     3.29843567E-07   # A_mu(Q) DRbar
  3  3     3.30076803E-07   # A_tau(Q) DRbar
#
BLOCK Yu Q=  5.00071465E+03  # The Yukawa couplings
  1  1     0.00000000E+00   # y_u(Q) DRbar
  2  2     0.00000000E+00   # y_c(Q) DRbar
  3  3     8.21196767E-01   # y_t(Q) DRbar
#
BLOCK Yd Q=  5.00071465E+03  # The Yukawa couplings
  1  1     0.00000000E+00   # y_d(Q) DRbar
  2  2     0.00000000E+00   # y_s(Q) DRbar
  3  3     1.32335179E-01   # y_b(Q) DRbar
#
BLOCK Ye Q=  5.00071465E+03  # The Yukawa couplings
  1  1     0.00000000E+00   # y_e(Q) DRbar
  2  2     0.00000000E+00   # y_mu(Q) DRbar
  3  3     9.65455660E-02   # y_tau(Q) DRbar
#
BLOCK MSOFT Q=  5.00071465E+03  # The soft SUSY breaking masses at the scale Q
         1     6.00000000E+01   # M_1(Q)              
         2     3.00000000E+03   # M_2(Q)              
         3     2.62339600E+03   # M_3(Q)              
        21     5.86214546E+06   # mH1^2(Q)            
        22    -2.25245595E+06   # mH2^2(Q)            
        31     5.00000000E+03   # meL(Q)              
        32     5.00000000E+03   # mmuL(Q)             
        33     5.00000000E+03   # mtauL(Q)            
        34     5.00000000E+03   # meR(Q)              
        35     5.00000000E+03   # mmuR(Q)             
        36     5.00000000E+03   # mtauR(Q)            
        41     4.99999999E+03   # mqL1(Q)             
        42     4.99999999E+03   # mqL2(Q)             
        43     4.99999999E+03   # mqL3(Q)             
        44     4.99999999E+03   # muR(Q)              
        45     4.99999999E+03   # mcR(Q)              
        46     4.99999999E+03   # mtR(Q)              
        47     4.99999999E+03   # mdR(Q)              
        48     4.99999999E+03   # msR(Q)              
        49     4.99999999E+03   # mbR(Q)              
#
#
#
#                             =================
#                             |The decay table|
#                             =================
#
# - The QCD corrections to the decays gluino -> squark  + quark
#                                     squark -> gaugino + quark_prime
#                                     squark -> squark_prime + Higgs
#                                     squark -> gluino  + quark
#   are included.
#
# - The multi-body decays for the inos, stops and sbottoms are included.
#
# - The loop induced decays for the gluino, neutralinos and stops
#   are included.
#
# - The SUSY decays of the top quark are included.
#
#
#         PDG            Width
DECAY         6     1.39910336E+00   # top decays
#          BR         NDA      ID1       ID2
     1.00000000E+00    2           5        24   # BR(t ->  b    W+)
#
#         PDG            Width
DECAY   1000021     5.03655973E-03   # gluino decays
#          BR         NDA      ID1       ID2
     3.33200668E-06    2     1000022        21   # BR(~g -> ~chi_10 g)
     4.30475778E-03    2     1000023        21   # BR(~g -> ~chi_20 g)
     4.32009793E-03    2     1000025        21   # BR(~g -> ~chi_30 g)
#           BR         NDA      ID1       ID2       ID3
     4.07673279E-02    3     1000022         1        -1   # BR(~g -> ~chi_10 d  db)
     3.49061552E-05    3     1000023         1        -1   # BR(~g -> ~chi_20 d  db)
     4.09798156E-06    3     1000025         1        -1   # BR(~g -> ~chi_30 d  db)
     1.39012750E-01    3     1000022         2        -2   # BR(~g -> ~chi_10 u  ub)
     5.50433023E-05    3     1000023         2        -2   # BR(~g -> ~chi_20 u  ub)
     3.93906317E-06    3     1000025         2        -2   # BR(~g -> ~chi_30 u  ub)
     4.07673279E-02    3     1000022         3        -3   # BR(~g -> ~chi_10 s  sb)
     3.49061552E-05    3     1000023         3        -3   # BR(~g -> ~chi_20 s  sb)
     4.09798156E-06    3     1000025         3        -3   # BR(~g -> ~chi_30 s  sb)
     1.39012750E-01    3     1000022         4        -4   # BR(~g -> ~chi_10 c  cb)
     5.50433023E-05    3     1000023         4        -4   # BR(~g -> ~chi_20 c  cb)
     3.93906317E-06    3     1000025         4        -4   # BR(~g -> ~chi_30 c  cb)
     4.12915688E-02    3     1000022         5        -5   # BR(~g -> ~chi_10 b  bb)
     3.09953812E-03    3     1000023         5        -5   # BR(~g -> ~chi_20 b  bb)
     3.03090760E-03    3     1000025         5        -5   # BR(~g -> ~chi_30 b  bb)
     1.45619695E-01    3     1000022         6        -6   # BR(~g -> ~chi_10 t  tb)
     1.10204066E-01    3     1000023         6        -6   # BR(~g -> ~chi_20 t  tb)
     9.80144474E-02    3     1000025         6        -6   # BR(~g -> ~chi_30 t  tb)
     8.54538086E-05    3     1000024         1        -2   # BR(~g -> ~chi_1+ d  ub)
     8.54538086E-05    3    -1000024         2        -1   # BR(~g -> ~chi_1- u  db)
     8.54538086E-05    3     1000024         3        -4   # BR(~g -> ~chi_1+ s  cb)
     8.54538086E-05    3    -1000024         4        -3   # BR(~g -> ~chi_1- c  sb)
     1.15006822E-01    3     1000024         5        -6   # BR(~g -> ~chi_1+ b  tb)
     1.15006822E-01    3    -1000024         6        -5   # BR(~g -> ~chi_1- t  bb)
#
#         PDG            Width
DECAY   1000006     2.27665063E+02   # stop1 decays
#          BR         NDA      ID1       ID2
     3.89036186E-02    2     1000022         6   # BR(~t_1 -> ~chi_10 t )
     1.11943912E-01    2     1000023         6   # BR(~t_1 -> ~chi_20 t )
     1.07585806E-01    2     1000025         6   # BR(~t_1 -> ~chi_30 t )
     9.51137989E-03    2     1000035         6   # BR(~t_1 -> ~chi_40 t )
     1.62868193E-01    2     1000024         5   # BR(~t_1 -> ~chi_1+ b )
     1.88976652E-02    2     1000037         5   # BR(~t_1 -> ~chi_2+ b )
     5.50289426E-01    2     1000021         6   # BR(~t_1 -> ~g      t )
#
#         PDG            Width
DECAY   2000006     2.43097905E+02   # stop2 decays
#          BR         NDA      ID1       ID2
     1.41797872E-02    2     1000022         6   # BR(~t_2 -> ~chi_10 t )
     1.09430409E-01    2     1000023         6   # BR(~t_2 -> ~chi_20 t )
     1.13901376E-01    2     1000025         6   # BR(~t_2 -> ~chi_30 t )
     2.28749106E-02    2     1000035         6   # BR(~t_2 -> ~chi_40 t )
     6.57267582E-02    2     1000024         5   # BR(~t_2 -> ~chi_1+ b )
     4.53625506E-02    2     1000037         5   # BR(~t_2 -> ~chi_2+ b )
     6.23510487E-01    2     1000021         6   # BR(~t_2 -> ~g      t )
     1.09660892E-03    2     1000006        25   # BR(~t_2 -> ~t_1    h )
     3.91711206E-03    2     1000006        23   # BR(~t_2 -> ~t_1    Z )
#
#         PDG            Width
DECAY   1000005     2.18846925E+02   # sbottom1 decays
#          BR         NDA      ID1       ID2
     3.57767134E-03    2     1000022         5   # BR(~b_1 -> ~chi_10 b )
     3.28308781E-03    2     1000023         5   # BR(~b_1 -> ~chi_20 b )
     3.06321576E-03    2     1000025         5   # BR(~b_1 -> ~chi_30 b )
     3.44741609E-02    2     1000035         5   # BR(~b_1 -> ~chi_40 b )
     2.37073250E-01    2    -1000024         6   # BR(~b_1 -> ~chi_1- t )
     6.94837880E-02    2    -1000037         6   # BR(~b_1 -> ~chi_2- t )
     6.46697949E-01    2     1000021         5   # BR(~b_1 -> ~g      b )
     2.34687697E-03    2     1000006       -24   # BR(~b_1 -> ~t_1    W-)
#
#         PDG            Width
DECAY   2000005     1.51245806E+02   # sbottom2 decays
#          BR         NDA      ID1       ID2
     1.92579832E-02    2     1000022         5   # BR(~b_2 -> ~chi_10 b )
     4.45998391E-03    2     1000023         5   # BR(~b_2 -> ~chi_20 b )
     4.69440209E-03    2     1000025         5   # BR(~b_2 -> ~chi_30 b )
     7.15017241E-04    2     1000035         5   # BR(~b_2 -> ~chi_40 b )
     1.35565612E-02    2    -1000024         6   # BR(~b_2 -> ~chi_1- t )
     1.44019763E-03    2    -1000037         6   # BR(~b_2 -> ~chi_2- t )
     9.55664268E-01    2     1000021         5   # BR(~b_2 -> ~g      b )
     2.11586300E-04    2     1000006       -24   # BR(~b_2 -> ~t_1    W-)
#
#         PDG            Width
DECAY   1000002     1.70664767E+02   # sup_L decays
#          BR         NDA      ID1       ID2
     4.35743383E-03    2     1000022         2   # BR(~u_L -> ~chi_10 u)
     1.35793750E-04    2     1000023         2   # BR(~u_L -> ~chi_20 u)
     7.03024719E-06    2     1000025         2   # BR(~u_L -> ~chi_30 u)
     4.64016205E-02    2     1000035         2   # BR(~u_L -> ~chi_40 u)
     4.17831340E-04    2     1000024         1   # BR(~u_L -> ~chi_1+ d)
     9.27259158E-02    2     1000037         1   # BR(~u_L -> ~chi_2+ d)
     8.55954375E-01    2     1000021         2   # BR(~u_L -> ~g      u)
#
#         PDG            Width
DECAY   2000002     1.56358195E+02   # sup_R decays
#          BR         NDA      ID1       ID2
     7.57311464E-02    2     1000022         2   # BR(~u_R -> ~chi_10 u)
     1.78965003E-05    2     1000023         2   # BR(~u_R -> ~chi_20 u)
     2.36210026E-05    2     1000025         2   # BR(~u_R -> ~chi_30 u)
     7.25459204E-09    2     1000035         2   # BR(~u_R -> ~chi_40 u)
     9.24227329E-01    2     1000021         2   # BR(~u_R -> ~g      u)
#
#         PDG            Width
DECAY   1000001     1.70683837E+02   # sdown_L decays
#          BR         NDA      ID1       ID2
     4.34603751E-03    2     1000022         1   # BR(~d_L -> ~chi_10 d)
     9.26074668E-05    2     1000023         1   # BR(~d_L -> ~chi_20 d)
     2.48363913E-05    2     1000025         1   # BR(~d_L -> ~chi_30 d)
     4.64281093E-02    2     1000035         1   # BR(~d_L -> ~chi_40 d)
     9.30050485E-05    2    -1000024         2   # BR(~d_L -> ~chi_1- u)
     9.29106028E-02    2    -1000037         2   # BR(~d_L -> ~chi_2- u)
     8.56104801E-01    2     1000021         1   # BR(~d_L -> ~g      d)
#
#         PDG            Width
DECAY   2000001     1.47496825E+02   # sdown_R decays
#          BR         NDA      ID1       ID2
     2.00713337E-02    2     1000022         1   # BR(~d_R -> ~chi_10 d)
     4.74330679E-06    2     1000023         1   # BR(~d_R -> ~chi_20 d)
     6.26053531E-06    2     1000025         1   # BR(~d_R -> ~chi_30 d)
     1.92294759E-09    2     1000035         1   # BR(~d_R -> ~chi_40 d)
     9.79917661E-01    2     1000021         1   # BR(~d_R -> ~g      d)
#
#         PDG            Width
DECAY   1000004     1.70664767E+02   # scharm_L decays
#          BR         NDA      ID1       ID2
     4.35743383E-03    2     1000022         4   # BR(~c_L -> ~chi_10 c)
     1.35793750E-04    2     1000023         4   # BR(~c_L -> ~chi_20 c)
     7.03024719E-06    2     1000025         4   # BR(~c_L -> ~chi_30 c)
     4.64016205E-02    2     1000035         4   # BR(~c_L -> ~chi_40 c)
     4.17831340E-04    2     1000024         3   # BR(~c_L -> ~chi_1+ s)
     9.27259158E-02    2     1000037         3   # BR(~c_L -> ~chi_2+ s)
     8.55954375E-01    2     1000021         4   # BR(~c_L -> ~g      c)
#
#         PDG            Width
DECAY   2000004     1.56358195E+02   # scharm_R decays
#          BR         NDA      ID1       ID2
     7.57311464E-02    2     1000022         4   # BR(~c_R -> ~chi_10 c)
     1.78965003E-05    2     1000023         4   # BR(~c_R -> ~chi_20 c)
     2.36210026E-05    2     1000025         4   # BR(~c_R -> ~chi_30 c)
     7.25459204E-09    2     1000035         4   # BR(~c_R -> ~chi_40 c)
     9.24227329E-01    2     1000021         4   # BR(~c_R -> ~g      c)
#
#         PDG            Width
DECAY   1000003     1.70683837E+02   # sstrange_L decays
#          BR         NDA      ID1       ID2
     4.34603751E-03    2     1000022         3   # BR(~s_L -> ~chi_10 s)
     9.26074668E-05    2     1000023         3   # BR(~s_L -> ~chi_20 s)
     2.48363913E-05    2     1000025         3   # BR(~s_L -> ~chi_30 s)
     4.64281093E-02    2     1000035         3   # BR(~s_L -> ~chi_40 s)
     9.30050485E-05    2    -1000024         4   # BR(~s_L -> ~chi_1- c)
     9.29106028E-02    2    -1000037         4   # BR(~s_L -> ~chi_2- c)
     8.56104801E-01    2     1000021         3   # BR(~s_L -> ~g      s)
#
#         PDG            Width
DECAY   2000003     1.47496825E+02   # sstrange_R decays
#          BR         NDA      ID1       ID2
     2.00713337E-02    2     1000022         3   # BR(~s_R -> ~chi_10 s)
     4.74330679E-06    2     1000023         3   # BR(~s_R -> ~chi_20 s)
     6.26053531E-06    2     1000025         3   # BR(~s_R -> ~chi_30 s)
     1.92294759E-09    2     1000035         3   # BR(~s_R -> ~chi_40 s)
     9.79917661E-01    2     1000021         3   # BR(~s_R -> ~g      s)
#
#         PDG            Width
DECAY   1000011     3.02232182E+01   # selectron_L decays
#          BR         NDA      ID1       ID2
     2.26817384E-01    2     1000022        11   # BR(~e_L -> ~chi_10 e-)
     1.07082233E-03    2     1000023        11   # BR(~e_L -> ~chi_20 e-)
     5.83387052E-07    2     1000025        11   # BR(~e_L -> ~chi_30 e-)
     2.56963434E-01    2     1000035        11   # BR(~e_L -> ~chi_40 e-)
     5.31922131E-04    2    -1000024        12   # BR(~e_L -> ~chi_1- nu_e)
     5.14615854E-01    2    -1000037        12   # BR(~e_L -> ~chi_2- nu_e)
#
#         PDG            Width
DECAY   2000011     2.73517818E+01   # selectron_R decays
#          BR         NDA      ID1       ID2
     9.99458362E-01    2     1000022        11   # BR(~e_R -> ~chi_10 e-)
     2.33442636E-04    2     1000023        11   # BR(~e_R -> ~chi_20 e-)
     3.08103792E-04    2     1000025        11   # BR(~e_R -> ~chi_30 e-)
     9.17654758E-08    2     1000035        11   # BR(~e_R -> ~chi_40 e-)
#
#         PDG            Width
DECAY   1000013     3.02232182E+01   # smuon_L decays
#          BR         NDA      ID1       ID2
     2.26817384E-01    2     1000022        13   # BR(~mu_L -> ~chi_10 mu-)
     1.07082233E-03    2     1000023        13   # BR(~mu_L -> ~chi_20 mu-)
     5.83387052E-07    2     1000025        13   # BR(~mu_L -> ~chi_30 mu-)
     2.56963434E-01    2     1000035        13   # BR(~mu_L -> ~chi_40 mu-)
     5.31922131E-04    2    -1000024        14   # BR(~mu_L -> ~chi_1- nu_mu)
     5.14615854E-01    2    -1000037        14   # BR(~mu_L -> ~chi_2- nu_mu)
#
#         PDG            Width
DECAY   2000013     2.73517818E+01   # smuon_R decays
#          BR         NDA      ID1       ID2
     9.99458362E-01    2     1000022        13   # BR(~mu_R -> ~chi_10 mu-)
     2.33442636E-04    2     1000023        13   # BR(~mu_R -> ~chi_20 mu-)
     3.08103792E-04    2     1000025        13   # BR(~mu_R -> ~chi_30 mu-)
     9.17654758E-08    2     1000035        13   # BR(~mu_R -> ~chi_40 mu-)
#
#         PDG            Width
DECAY   1000015     2.88981338E+01   # stau_1 decays
#          BR         NDA      ID1       ID2
     9.21222334E-01    2     1000022        15   # BR(~tau_1 -> ~chi_10  tau-)
     1.35812266E-02    2     1000023        15   # BR(~tau_1 -> ~chi_20  tau-)
     1.20799366E-02    2     1000025        15   # BR(~tau_1 -> ~chi_30  tau-)
     9.15642048E-03    2     1000035        15   # BR(~tau_1 -> ~chi_40  tau-)
     2.56220527E-02    2    -1000024        16   # BR(~tau_1 -> ~chi_1-  nu_tau)
     1.83380295E-02    2    -1000037        16   # BR(~tau_1 -> ~chi_2-  nu_tau)
#
#         PDG            Width
DECAY   2000015     3.08445055E+01   # stau_2 decays
#          BR         NDA      ID1       ID2
     2.45261376E-01    2     1000022        15   # BR(~tau_2 -> ~chi_10  tau-)
     1.21131794E-02    2     1000023        15   # BR(~tau_2 -> ~chi_20  tau-)
     1.25123832E-02    2     1000025        15   # BR(~tau_2 -> ~chi_30  tau-)
     2.43140450E-01    2     1000035        15   # BR(~tau_2 -> ~chi_40  tau-)
     4.39044038E-05    2    -1000024        16   # BR(~tau_2 -> ~chi_1-  nu_tau)
     4.86928707E-01    2    -1000037        16   # BR(~tau_2 -> ~chi_2-  nu_tau)
#
#         PDG            Width
DECAY   1000012     3.02248807E+01   # snu_eL decays
#          BR         NDA      ID1       ID2
     2.26565512E-01    2     1000022        12   # BR(~nu_eL -> ~chi_10 nu_e)
     3.29656445E-04    2     1000023        12   # BR(~nu_eL -> ~chi_20 nu_e)
     3.05982868E-04    2     1000025        12   # BR(~nu_eL -> ~chi_30 nu_e)
     2.57077594E-01    2     1000035        12   # BR(~nu_eL -> ~chi_40 nu_e)
     2.38894480E-03    2     1000024        11   # BR(~nu_eL -> ~chi_1+ e-)
     5.13332310E-01    2     1000037        11   # BR(~nu_eL -> ~chi_2+ e-)
#
#         PDG            Width
DECAY   1000014     3.02248807E+01   # snu_muL decays
#          BR         NDA      ID1       ID2
     2.26565512E-01    2     1000022        14   # BR(~nu_muL -> ~chi_10 nu_mu)
     3.29656445E-04    2     1000023        14   # BR(~nu_muL -> ~chi_20 nu_mu)
     3.05982868E-04    2     1000025        14   # BR(~nu_muL -> ~chi_30 nu_mu)
     2.57077594E-01    2     1000035        14   # BR(~nu_muL -> ~chi_40 nu_mu)
     2.38894480E-03    2     1000024        13   # BR(~nu_muL -> ~chi_1+ mu-)
     5.13332310E-01    2     1000037        13   # BR(~nu_muL -> ~chi_2+ mu-)
#
#         PDG            Width
DECAY   1000016     3.09446181E+01   # snu_tauL decays
#          BR         NDA      ID1       ID2
     2.21272240E-01    2     1000022        16   # BR(~nu_tauL -> ~chi_10 nu_tau)
     3.21936877E-04    2     1000023        16   # BR(~nu_tauL -> ~chi_20 nu_tau)
     2.98817607E-04    2     1000025        16   # BR(~nu_tauL -> ~chi_30 nu_tau)
     2.51007128E-01    2     1000035        16   # BR(~nu_tauL -> ~chi_40 nu_tau)
     2.58857966E-02    2     1000024        15   # BR(~nu_tauL -> ~chi_1+ tau-)
     5.01214081E-01    2     1000037        15   # BR(~nu_tauL -> ~chi_2+ tau-)
#
#         PDG            Width
DECAY   1000024     1.04769048E+00   # chargino1+ decays
#          BR         NDA      ID1       ID2
     1.00000000E+00    2     1000022        24   # BR(~chi_1+ -> ~chi_10  W+)
#
#         PDG            Width
DECAY   1000037     1.73581019E+01   # chargino2+ decays
#          BR         NDA      ID1       ID2
     2.52444577E-01    2     1000024        23   # BR(~chi_2+ -> ~chi_1+  Z )
     3.15292913E-04    2     1000022        24   # BR(~chi_2+ -> ~chi_10  W+)
     2.44274154E-01    2     1000023        24   # BR(~chi_2+ -> ~chi_20  W+)
     2.43400432E-01    2     1000025        24   # BR(~chi_2+ -> ~chi_30  W+)
     2.59565341E-01    2     1000024        25   # BR(~chi_2+ -> ~chi_1+  h )
     2.02856311E-07    2     1000022        37   # BR(~chi_2+ -> ~chi_10  H+)
#
#         PDG            Width
DECAY   1000022     0.00000000E+00   # neutralino1 decays
#
#         PDG            Width
DECAY   1000023     1.10232291E+00   # neutralino2 decays
#          BR         NDA      ID1       ID2
     5.60639200E-01    2     1000022        23   # BR(~chi_20 -> ~chi_10   Z )
     4.39360800E-01    2     1000022        25   # BR(~chi_20 -> ~chi_10   h )
#
#         PDG            Width
DECAY   1000025     1.11439443E+00   # neutralino3 decays
#          BR         NDA      ID1       ID2
     4.21098699E-01    2     1000022        23   # BR(~chi_30 -> ~chi_10   Z )
     5.78901301E-01    2     1000022        25   # BR(~chi_30 -> ~chi_10   h )
#
#         PDG            Width
DECAY   1000035     1.73450889E+01   # neutralino4 decays
#          BR         NDA      ID1       ID2
     1.25305261E-04    2     1000022        23   # BR(~chi_40 -> ~chi_10   Z )
     2.90817385E-02    2     1000023        23   # BR(~chi_40 -> ~chi_20   Z )
     2.23114597E-01    2     1000025        23   # BR(~chi_40 -> ~chi_30   Z )
     2.44074472E-01    2     1000024       -24   # BR(~chi_40 -> ~chi_1+   W-)
     2.44074472E-01    2    -1000024        24   # BR(~chi_40 -> ~chi_1-   W+)
     1.99682471E-04    2     1000022        25   # BR(~chi_40 -> ~chi_10   h )
     1.78685257E-07    2     1000022        35   # BR(~chi_40 -> ~chi_10   H )
     3.17971243E-08    2     1000022        36   # BR(~chi_40 -> ~chi_10   A )
     2.30376262E-01    2     1000023        25   # BR(~chi_40 -> ~chi_20   h )
     2.89532612E-02    2     1000025        25   # BR(~chi_40 -> ~chi_30   h )
#
#         PDG            Width
DECAY        25     4.03025392E-03   # h decays
#          BR         NDA      ID1       ID2
     6.04249430E-01    2           5        -5   # BR(h -> b       bb     )
     6.43745044E-02    2         -15        15   # BR(h -> tau+    tau-   )
     2.27908942E-04    2         -13        13   # BR(h -> mu+     mu-    )
     4.83118468E-04    2           3        -3   # BR(h -> s       sb     )
     2.09364093E-02    2           4        -4   # BR(h -> c       cb     )
     6.77789467E-02    2          21        21   # BR(h -> g       g      )
     2.33170828E-03    2          22        22   # BR(h -> gam     gam    )
     1.50745047E-03    2          22        23   # BR(h -> Z       gam    )
     2.12708054E-01    2          24       -24   # BR(h -> W+      W-     )
     2.53748501E-02    2          23        23   # BR(h -> Z       Z      )
     2.76193128E-05    2     1000022   1000022   # BR(h -> ~chi_10 ~chi_10)
#
#         PDG            Width
DECAY        35     6.91555695E+00   # H decays
#          BR         NDA      ID1       ID2
     4.76035266E-01    2           5        -5   # BR(H -> b       bb     )
     8.05590692E-02    2         -15        15   # BR(H -> tau+    tau-   )
     2.84863267E-04    2         -13        13   # BR(H -> mu+     mu-    )
     3.49198733E-04    2           3        -3   # BR(H -> s       sb     )
     1.95312603E-06    2           4        -4   # BR(H -> c       cb     )
     1.95132757E-01    2           6        -6   # BR(H -> t       tb     )
     6.47646690E-05    2          21        21   # BR(H -> g       g      )
     3.82627913E-07    2          22        22   # BR(H -> gam     gam    )
     1.15270718E-07    2          23        22   # BR(H -> Z       gam    )
     8.64737089E-05    2          24       -24   # BR(H -> W+      W-     )
     4.31821368E-05    2          23        23   # BR(H -> Z       Z      )
     3.27226866E-04    2          25        25   # BR(H -> h       h      )
     7.06858416E-24    2          36        36   # BR(H -> A       A      )
     7.54607793E-19    2          23        36   # BR(H -> Z       A      )
     7.22945097E-04    2     1000022   1000022   # BR(H -> ~chi_10 ~chi_10)
     1.45611401E-01    2     1000022   1000023   # BR(H -> ~chi_10 ~chi_20)
     1.00780401E-01    2     1000022   1000025   # BR(H -> ~chi_10 ~chi_30)
#
#         PDG            Width
DECAY        36     6.91847701E+00   # A decays
#          BR         NDA      ID1       ID2
     4.75992432E-01    2           5        -5   # BR(A -> b       bb     )
     8.05274559E-02    2         -15        15   # BR(A -> tau+    tau-   )
     2.84751082E-04    2         -13        13   # BR(A -> mu+     mu-    )
     3.49316278E-04    2           3        -3   # BR(A -> s       sb     )
     1.96048666E-06    2           4        -4   # BR(A -> c       cb     )
     1.95760076E-01    2           6        -6   # BR(A -> t       tb     )
     1.93722588E-04    2          21        21   # BR(A -> g       g      )
     3.49484344E-07    2          22        22   # BR(A -> gam     gam    )
     2.34728304E-07    2          23        22   # BR(A -> Z       gam    )
     8.61103201E-05    2          23        25   # BR(A -> Z       h      )
     7.45401975E-04    2     1000022   1000022   # BR(A -> ~chi_10 ~chi_10)
     1.01937170E-01    2     1000022   1000023   # BR(A -> ~chi_10 ~chi_20)
     1.44121019E-01    2     1000022   1000025   # BR(A -> ~chi_10 ~chi_30)
#
#         PDG            Width
DECAY        37     6.94820985E+00   # H+ decays
#          BR         NDA      ID1       ID2
     7.69440059E-04    2           4        -5   # BR(H+ -> c       bb     )
     8.02061795E-02    2         -15        16   # BR(H+ -> tau+    nu_tau )
     2.83615025E-04    2         -13        14   # BR(H+ -> mu+     nu_mu  )
     4.92439152E-06    2           2        -5   # BR(H+ -> u       bb     )
     1.66419395E-05    2           2        -3   # BR(H+ -> u       sb     )
     3.44156340E-04    2           4        -3   # BR(H+ -> c       sb     )
     6.71726649E-01    2           6        -5   # BR(H+ -> t       bb     )
     8.58717126E-05    2          24        25   # BR(H+ -> W+      h      )
     9.55903072E-14    2          24        36   # BR(H+ -> W+      A      )
     2.46562522E-01    2     1000024   1000022   # BR(H+ -> ~chi_1+ ~chi_10)
