#
#                              ======================
#                              | THE SUSYHIT OUTPUT |
#                              ======================
#
#
#              ------------------------------------------------------
#              |     This is the output of the SUSY-HIT package     |
#              |  created by A.Djouadi, M.Muehlleitner and M.Spira. |
#              |  In case of problems with SUSY-HIT email to        |
#              |           margarete.muehlleitner@cern.ch           |
#              |           michael.spira@psi.ch                     |
#              |           abdelhak.djouadi@cern.ch                 |
#              ------------------------------------------------------
#
#              ------------------------------------------------------
#              |  SUSY Les Houches Accord - MSSM Spectrum + Decays  |
#              |              based on the decay programs           |
#              |                                                    |
#              |                     SDECAY 1.3b                    |
#              |                                                    |
#              |  Authors: M.Muhlleitner, A.Djouadi and Y.Mambrini  |
#              |  Ref.:    Comput.Phys.Commun.168(2005)46           |
#              |           [hep-ph/0311167]                         |
#              |                                                    |
#              |                     HDECAY 3.4                     |
#              |                                                    |
#              |  By: A.Djouadi,J.Kalinowski,M.Muhlleitner,M.Spira  |
#              |  Ref.:    Comput.Phys.Commun.108(1998)56           |
#              |           [hep-ph/9704448]                         |
#              |                                                    |
#              |                                                    |
#              |  If not stated otherwise all DRbar couplings and   |
#              |  soft SUSY breaking masses are given at the scale  |
#              |  Q=  0.50007114E+04
#              |                                                    |
#              ------------------------------------------------------
#
#
BLOCK DCINFO  # Decay Program information
     1   SDECAY/HDECAY # decay calculator
     2   1.3b  /3.4    # version number
#
BLOCK SPINFO  # Spectrum calculator information
     1    SOFTSUSY    # spectrum calculator                
     2    3.4.0       # version number                     
#
BLOCK MODSEL  # Model selection
     1     0   #  nonUniversal                                     
#
BLOCK SMINPUTS  # Standard Model inputs
         1     1.25778332E+02   # alpha_em^-1(M_Z)^MSbar
         2     1.16570000E-05   # G_F [GeV^-2]
         3     1.17200002E-01   # alpha_S(M_Z)^MSbar
         4     9.11876000E+01   # M_Z pole mass
         5     4.25000000E+00   # mb(mb)^MSbar
         6     1.72500000E+02   # mt pole mass
         7     1.77682000E+00   # mtau pole mass
#
BLOCK MINPAR  # Input parameters - minimal models
         3     1.00000000E+01   # tanb                
#
BLOCK EXTPAR  # Input parameters - non-minimal models
         0    -1.00000000E+00   # Set                 
         1     6.00000000E+01   # M_1(MX)             
         2     3.00000000E+03   # M_2(MX)             
         3     1.76109800E+03   # M_3(MX)             
        11     5.00000000E+03   # At(MX)              
        12     5.00000000E+03   # Ab(MX)              
        13     0.00000000E+00   # Atau(MX)            
        23    -1.64243700E+03   # mu(MX)              
        26     3.00000000E+03   # mA(pole)            
        31     5.00000000E+03   # meL(MX)             
        32     5.00000000E+03   # mmuL(MX)            
        33     5.00000000E+03   # mtauL(MX)           
        34     5.00000000E+03   # meR(MX)             
        35     5.00000000E+03   # mmuR(MX)            
        36     5.00000000E+03   # mtauR(MX)           
        41     5.00000000E+03   # mqL1(MX)            
        42     5.00000000E+03   # mqL2(MX)            
        43     5.00000000E+03   # mqL3(MX)            
        44     5.00000000E+03   # muR(MX)             
        45     5.00000000E+03   # mcR(MX)             
        46     5.00000000E+03   # mtR(MX)             
        47     5.00000000E+03   # mdR(MX)             
        48     5.00000000E+03   # msR(MX)             
        49     5.00000000E+03   # mbR(MX)             
#
BLOCK MASS  # Mass Spectrum
# PDG code           mass       particle
        24     8.00969487E+01   # W+
        25     1.24790152E+02   # h
        35     3.00008023E+03   # H
        36     2.99999995E+03   # A
        37     3.00087271E+03   # H+
         5     4.87878001E+00   # b-quark pole mass calculated from mb(mb)_Msbar
   1000001     5.07324154E+03   # ~d_L
   2000001     5.05547673E+03   # ~d_R
   1000002     5.07276829E+03   # ~u_L
   2000002     5.05520481E+03   # ~u_R
   1000003     5.07324154E+03   # ~s_L
   2000003     5.05547673E+03   # ~s_R
   1000004     5.07276829E+03   # ~c_L
   2000004     5.05520481E+03   # ~c_R
   1000005     5.01946446E+03   # ~b_1
   2000005     5.05447538E+03   # ~b_2
   1000006     4.91126298E+03   # ~t_1
   2000006     5.06582247E+03   # ~t_2
   1000011     5.01904191E+03   # ~e_L
   2000011     5.00590674E+03   # ~e_R
   1000012     5.01809406E+03   # ~nu_eL
   1000013     5.01904191E+03   # ~mu_L
   2000013     5.00590674E+03   # ~mu_R
   1000014     5.01809406E+03   # ~nu_muL
   1000015     5.00425359E+03   # ~tau_1
   2000015     5.01912426E+03   # ~tau_2
   1000016     5.01755890E+03   # ~nu_tauL
   1000021     2.10000020E+03   # ~g
   1000022     6.03019893E+01   # ~chi_10
   1000023     1.69941327E+03   # ~chi_20
   1000025    -1.70202356E+03   # ~chi_30
   1000035     3.07435918E+03   # ~chi_40
   1000024     1.70000059E+03   # ~chi_1+
   1000037     3.07452675E+03   # ~chi_2+
#
BLOCK NMIX  # Neutralino Mixing Matrix
  1  1     9.99653923E-01   # N_11
  1  2     1.27101876E-04   # N_12
  1  3    -2.62430520E-02   # N_13
  1  4     1.82205514E-03   # N_14
  2  1     1.72649784E-02   # N_21
  2  2     3.53843353E-02   # N_22
  2  3     7.06866274E-01   # N_23
  2  4     7.06250621E-01   # N_24
  3  1    -1.98423257E-02   # N_31
  3  2     1.27025400E-02   # N_32
  3  3    -7.06678132E-01   # N_33
  3  4     7.07142804E-01   # N_34
  4  1    -4.86263509E-04   # N_41
  4  2     9.99293039E-01   # N_42
  4  3    -1.60433925E-02   # N_43
  4  4    -3.39969847E-02   # N_44
#
BLOCK UMIX  # Chargino Mixing Matrix U
  1  1     2.26839053E-02   # U_11
  1  2     9.99742687E-01   # U_12
  2  1    -9.99742687E-01   # U_21
  2  2     2.26839053E-02   # U_22
#
BLOCK VMIX  # Chargino Mixing Matrix V
  1  1     4.80805144E-02   # V_11
  1  2    -9.98843463E-01   # V_12
  2  1    -9.98843463E-01   # V_21
  2  2    -4.80805144E-02   # V_22
#
BLOCK STOPMIX  # Stop Mixing Matrix
  1  1    -5.12634161E-01   # cos(theta_t)
  1  2     8.58607138E-01   # sin(theta_t)
  2  1    -8.58607138E-01   # -sin(theta_t)
  2  2    -5.12634161E-01   # cos(theta_t)
#
BLOCK SBOTMIX  # Sbottom Mixing Matrix
  1  1     9.93166640E-01   # cos(theta_b)
  1  2    -1.16704864E-01   # sin(theta_b)
  2  1     1.16704864E-01   # -sin(theta_b)
  2  2     9.93166640E-01   # cos(theta_b)
#
BLOCK STAUMIX  # Stau Mixing Matrix
  1  1    -1.88884971E-01   # cos(theta_tau)
  1  2     9.81999220E-01   # sin(theta_tau)
  2  1    -9.81999220E-01   # -sin(theta_tau)
  2  2    -1.88884971E-01   # cos(theta_tau)
#
BLOCK ALPHA  # Higgs mixing
          -1.05462851E-01   # Mixing angle in the neutral Higgs boson sector
#
BLOCK HMIX Q=  5.00071142E+03  # DRbar Higgs Parameters
         1    -1.67259444E+03   # mu(Q)MSSM           
         2     9.47034587E+00   # tan                 
         3     2.41996600E+02   # higgs               
         4     8.36791630E+06   # mA^2(Q)MSSM         
#
BLOCK GAUGE Q=  5.00071142E+03  # The gauge couplings
     1     3.70671260E-01   # gprime(Q) DRbar
     2     6.31945012E-01   # g(Q) DRbar
     3     9.97779807E-01   # g3(Q) DRbar
#
BLOCK AU Q=  5.00071142E+03  # The trilinear couplings
  1  1     5.00000001E+03   # A_u(Q) DRbar
  2  2     5.00000001E+03   # A_c(Q) DRbar
  3  3     5.00000002E+03   # A_t(Q) DRbar
#
BLOCK AD Q=  5.00071142E+03  # The trilinear couplings
  1  1     5.00000001E+03   # A_d(Q) DRbar
  2  2     5.00000001E+03   # A_s(Q) DRbar
  3  3     5.00000001E+03   # A_b(Q) DRbar
#
BLOCK AE Q=  5.00071142E+03  # The trilinear couplings
  1  1     0.00000000E+00   # A_e(Q) DRbar
  2  2     1.92966393E-07   # A_mu(Q) DRbar
  3  3     1.92668930E-07   # A_tau(Q) DRbar
#
BLOCK Yu Q=  5.00071142E+03  # The Yukawa couplings
  1  1     0.00000000E+00   # y_u(Q) DRbar
  2  2     0.00000000E+00   # y_c(Q) DRbar
  3  3     8.19771477E-01   # y_t(Q) DRbar
#
BLOCK Yd Q=  5.00071142E+03  # The Yukawa couplings
  1  1     0.00000000E+00   # y_d(Q) DRbar
  2  2     0.00000000E+00   # y_s(Q) DRbar
  3  3     1.31650167E-01   # y_b(Q) DRbar
#
BLOCK Ye Q=  5.00071142E+03  # The Yukawa couplings
  1  1     0.00000000E+00   # y_e(Q) DRbar
  2  2     0.00000000E+00   # y_mu(Q) DRbar
  3  3     9.65543446E-02   # y_tau(Q) DRbar
#
BLOCK MSOFT Q=  5.00071142E+03  # The soft SUSY breaking masses at the scale Q
         1     6.00000000E+01   # M_1(Q)              
         2     3.00000000E+03   # M_2(Q)              
         3     1.76109800E+03   # M_3(Q)              
        21     5.86176905E+06   # mH1^2(Q)            
        22    -2.25564722E+06   # mH2^2(Q)            
        31     5.00000000E+03   # meL(Q)              
        32     5.00000000E+03   # mmuL(Q)             
        33     5.00000000E+03   # mtauL(Q)            
        34     5.00000000E+03   # meR(Q)              
        35     5.00000000E+03   # mmuR(Q)             
        36     5.00000000E+03   # mtauR(Q)            
        41     5.00000000E+03   # mqL1(Q)             
        42     5.00000000E+03   # mqL2(Q)             
        43     4.99999999E+03   # mqL3(Q)             
        44     5.00000000E+03   # muR(Q)              
        45     5.00000000E+03   # mcR(Q)              
        46     4.99999999E+03   # mtR(Q)              
        47     5.00000000E+03   # mdR(Q)              
        48     5.00000000E+03   # msR(Q)              
        49     5.00000000E+03   # mbR(Q)              
#
#
#
#                             =================
#                             |The decay table|
#                             =================
#
# - The QCD corrections to the decays gluino -> squark  + quark
#                                     squark -> gaugino + quark_prime
#                                     squark -> squark_prime + Higgs
#                                     squark -> gluino  + quark
#   are included.
#
# - The multi-body decays for the inos, stops and sbottoms are included.
#
# - The loop induced decays for the gluino, neutralinos and stops
#   are included.
#
# - The SUSY decays of the top quark are included.
#
#
#         PDG            Width
DECAY         6     1.39938865E+00   # top decays
#          BR         NDA      ID1       ID2
     1.00000000E+00    2           5        24   # BR(t ->  b    W+)
#
#         PDG            Width
DECAY   1000021     4.00842183E-04   # gluino decays
#          BR         NDA      ID1       ID2
     7.74616045E-06    2     1000022        21   # BR(~g -> ~chi_10 g)
     2.07410874E-03    2     1000023        21   # BR(~g -> ~chi_20 g)
     2.05903647E-03    2     1000025        21   # BR(~g -> ~chi_30 g)
#           BR         NDA      ID1       ID2       ID3
     7.51705354E-02    3     1000022         1        -1   # BR(~g -> ~chi_10 d  db)
     1.65829082E-06    3     1000023         1        -1   # BR(~g -> ~chi_20 d  db)
     1.71029819E-07    3     1000025         1        -1   # BR(~g -> ~chi_30 d  db)
     2.56269692E-01    3     1000022         2        -2   # BR(~g -> ~chi_10 u  ub)
     2.61445165E-06    3     1000023         2        -2   # BR(~g -> ~chi_20 u  ub)
     1.64195757E-07    3     1000025         2        -2   # BR(~g -> ~chi_30 u  ub)
     7.51705354E-02    3     1000022         3        -3   # BR(~g -> ~chi_10 s  sb)
     1.65829082E-06    3     1000023         3        -3   # BR(~g -> ~chi_20 s  sb)
     1.71029819E-07    3     1000025         3        -3   # BR(~g -> ~chi_30 s  sb)
     2.56269692E-01    3     1000022         4        -4   # BR(~g -> ~chi_10 c  cb)
     2.61445165E-06    3     1000023         4        -4   # BR(~g -> ~chi_20 c  cb)
     1.64195757E-07    3     1000025         4        -4   # BR(~g -> ~chi_30 c  cb)
     7.60691151E-02    3     1000022         5        -5   # BR(~g -> ~chi_10 b  bb)
     1.41924935E-04    3     1000023         5        -5   # BR(~g -> ~chi_20 b  bb)
     1.34819399E-04    3     1000025         5        -5   # BR(~g -> ~chi_30 b  bb)
     2.51450859E-01    3     1000022         6        -6   # BR(~g -> ~chi_10 t  tb)
     4.56632428E-04    3     1000023         6        -6   # BR(~g -> ~chi_20 t  tb)
     1.36904390E-04    3     1000025         6        -6   # BR(~g -> ~chi_30 t  tb)
     4.02035794E-06    3     1000024         1        -2   # BR(~g -> ~chi_1+ d  ub)
     4.02035794E-06    3    -1000024         2        -1   # BR(~g -> ~chi_1- u  db)
     4.02035794E-06    3     1000024         3        -4   # BR(~g -> ~chi_1+ s  cb)
     4.02035794E-06    3    -1000024         4        -3   # BR(~g -> ~chi_1- c  sb)
     2.28155033E-03    3     1000024         5        -6   # BR(~g -> ~chi_1+ b  tb)
     2.28155033E-03    3    -1000024         6        -5   # BR(~g -> ~chi_1- t  bb)
#
#         PDG            Width
DECAY   1000006     3.15482657E+02   # stop1 decays
#          BR         NDA      ID1       ID2
     2.78730291E-02    2     1000022         6   # BR(~t_1 -> ~chi_10 t )
     8.09650050E-02    2     1000023         6   # BR(~t_1 -> ~chi_20 t )
     7.77436691E-02    2     1000025         6   # BR(~t_1 -> ~chi_30 t )
     6.98955498E-03    2     1000035         6   # BR(~t_1 -> ~chi_40 t )
     1.16381956E-01    2     1000024         5   # BR(~t_1 -> ~chi_1+ b )
     1.38865524E-02    2     1000037         5   # BR(~t_1 -> ~chi_2+ b )
     6.76160234E-01    2     1000021         6   # BR(~t_1 -> ~g      t )
#
#         PDG            Width
DECAY   2000006     3.28672552E+02   # stop2 decays
#          BR         NDA      ID1       ID2
     1.08007350E-02    2     1000022         6   # BR(~t_2 -> ~chi_10 t )
     8.10229222E-02    2     1000023         6   # BR(~t_2 -> ~chi_20 t )
     8.43907215E-02    2     1000025         6   # BR(~t_2 -> ~chi_30 t )
     1.65518946E-02    2     1000035         6   # BR(~t_2 -> ~chi_40 t )
     4.99927262E-02    2     1000024         5   # BR(~t_2 -> ~chi_1+ b )
     3.28217047E-02    2     1000037         5   # BR(~t_2 -> ~chi_2+ b )
     7.20495336E-01    2     1000021         6   # BR(~t_2 -> ~g      t )
     8.60548048E-04    2     1000006        25   # BR(~t_2 -> ~t_1    h )
     3.06341147E-03    2     1000006        23   # BR(~t_2 -> ~t_1    Z )
#
#         PDG            Width
DECAY   1000005     3.05162126E+02   # sbottom1 decays
#          BR         NDA      ID1       ID2
     2.57673780E-03    2     1000022         5   # BR(~b_1 -> ~chi_10 b )
     2.34304612E-03    2     1000023         5   # BR(~b_1 -> ~chi_20 b )
     2.18412870E-03    2     1000025         5   # BR(~b_1 -> ~chi_30 b )
     2.44646708E-02    2     1000035         5   # BR(~b_1 -> ~chi_40 b )
     1.70207472E-01    2    -1000024         6   # BR(~b_1 -> ~chi_1- t )
     4.93110465E-02    2    -1000037         6   # BR(~b_1 -> ~chi_2- t )
     7.47138918E-01    2     1000021         5   # BR(~b_1 -> ~g      b )
     1.77398004E-03    2     1000006       -24   # BR(~b_1 -> ~t_1    W-)
#
#         PDG            Width
DECAY   2000005     2.37443589E+02   # sbottom2 decays
#          BR         NDA      ID1       ID2
     1.22989067E-02    2     1000022         5   # BR(~b_2 -> ~chi_10 b )
     2.82418405E-03    2     1000023         5   # BR(~b_2 -> ~chi_20 b )
     2.97523531E-03    2     1000025         5   # BR(~b_2 -> ~chi_30 b )
     4.62892878E-04    2     1000035         5   # BR(~b_2 -> ~chi_40 b )
     8.68616775E-03    2    -1000024         6   # BR(~b_2 -> ~chi_1- t )
     9.32383017E-04    2    -1000037         6   # BR(~b_2 -> ~chi_2- t )
     9.71684860E-01    2     1000021         5   # BR(~b_2 -> ~g      b )
     1.35370034E-04    2     1000006       -24   # BR(~b_2 -> ~t_1    W-)
#
#         PDG            Width
DECAY   1000002     2.56492737E+02   # sup_L decays
#          BR         NDA      ID1       ID2
     2.90783123E-03    2     1000022         2   # BR(~u_L -> ~chi_10 u)
     9.02577309E-05    2     1000023         2   # BR(~u_L -> ~chi_20 u)
     4.67318826E-06    2     1000025         2   # BR(~u_L -> ~chi_30 u)
     3.05749390E-02    2     1000035         2   # BR(~u_L -> ~chi_40 u)
     2.77722012E-04    2     1000024         1   # BR(~u_L -> ~chi_1+ d)
     6.10988183E-02    2     1000037         1   # BR(~u_L -> ~chi_2+ d)
     9.05045758E-01    2     1000021         2   # BR(~u_L -> ~g      u)
#
#         PDG            Width
DECAY   2000002     2.42550910E+02   # sup_R decays
#          BR         NDA      ID1       ID2
     4.89632398E-02    2     1000022         2   # BR(~u_R -> ~chi_10 u)
     1.15223196E-05    2     1000023         2   # BR(~u_R -> ~chi_20 u)
     1.52073652E-05    2     1000025         2   # BR(~u_R -> ~chi_30 u)
     4.62993735E-09    2     1000035         2   # BR(~u_R -> ~chi_40 u)
     9.51010026E-01    2     1000021         2   # BR(~u_R -> ~g      u)
#
#         PDG            Width
DECAY   1000001     2.56509220E+02   # sdown_L decays
#          BR         NDA      ID1       ID2
     2.90036502E-03    2     1000022         1   # BR(~d_L -> ~chi_10 d)
     6.15584016E-05    2     1000023         1   # BR(~d_L -> ~chi_20 d)
     1.65079467E-05    2     1000025         1   # BR(~d_L -> ~chi_30 d)
     3.05940463E-02    2     1000035         1   # BR(~d_L -> ~chi_40 d)
     6.18217166E-05    2    -1000024         2   # BR(~d_L -> ~chi_1- u)
     6.12238278E-02    2    -1000037         2   # BR(~d_L -> ~chi_2- u)
     9.05141873E-01    2     1000021         1   # BR(~d_L -> ~g      d)
#
#         PDG            Width
DECAY   2000001     2.33661909E+02   # sdown_R decays
#          BR         NDA      ID1       ID2
     1.27071694E-02    2     1000022         1   # BR(~d_R -> ~chi_10 d)
     2.99040701E-06    2     1000023         1   # BR(~d_R -> ~chi_20 d)
     3.94679347E-06    2     1000025         1   # BR(~d_R -> ~chi_30 d)
     1.20173287E-09    2     1000035         1   # BR(~d_R -> ~chi_40 d)
     9.87285892E-01    2     1000021         1   # BR(~d_R -> ~g      d)
#
#         PDG            Width
DECAY   1000004     2.56492737E+02   # scharm_L decays
#          BR         NDA      ID1       ID2
     2.90783123E-03    2     1000022         4   # BR(~c_L -> ~chi_10 c)
     9.02577309E-05    2     1000023         4   # BR(~c_L -> ~chi_20 c)
     4.67318826E-06    2     1000025         4   # BR(~c_L -> ~chi_30 c)
     3.05749390E-02    2     1000035         4   # BR(~c_L -> ~chi_40 c)
     2.77722012E-04    2     1000024         3   # BR(~c_L -> ~chi_1+ s)
     6.10988183E-02    2     1000037         3   # BR(~c_L -> ~chi_2+ s)
     9.05045758E-01    2     1000021         4   # BR(~c_L -> ~g      c)
#
#         PDG            Width
DECAY   2000004     2.42550910E+02   # scharm_R decays
#          BR         NDA      ID1       ID2
     4.89632398E-02    2     1000022         4   # BR(~c_R -> ~chi_10 c)
     1.15223196E-05    2     1000023         4   # BR(~c_R -> ~chi_20 c)
     1.52073652E-05    2     1000025         4   # BR(~c_R -> ~chi_30 c)
     4.62993735E-09    2     1000035         4   # BR(~c_R -> ~chi_40 c)
     9.51010026E-01    2     1000021         4   # BR(~c_R -> ~g      c)
#
#         PDG            Width
DECAY   1000003     2.56509220E+02   # sstrange_L decays
#          BR         NDA      ID1       ID2
     2.90036502E-03    2     1000022         3   # BR(~s_L -> ~chi_10 s)
     6.15584016E-05    2     1000023         3   # BR(~s_L -> ~chi_20 s)
     1.65079467E-05    2     1000025         3   # BR(~s_L -> ~chi_30 s)
     3.05940463E-02    2     1000035         3   # BR(~s_L -> ~chi_40 s)
     6.18217166E-05    2    -1000024         4   # BR(~s_L -> ~chi_1- c)
     6.12238278E-02    2    -1000037         4   # BR(~s_L -> ~chi_2- c)
     9.05141873E-01    2     1000021         3   # BR(~s_L -> ~g      s)
#
#         PDG            Width
DECAY   2000003     2.33661909E+02   # sstrange_R decays
#          BR         NDA      ID1       ID2
     1.27071694E-02    2     1000022         3   # BR(~s_R -> ~chi_10 s)
     2.99040701E-06    2     1000023         3   # BR(~s_R -> ~chi_20 s)
     3.94679347E-06    2     1000025         3   # BR(~s_R -> ~chi_30 s)
     1.20173287E-09    2     1000035         3   # BR(~s_R -> ~chi_40 s)
     9.87285892E-01    2     1000021         3   # BR(~s_R -> ~g      s)
#
#         PDG            Width
DECAY   1000011     3.02283077E+01   # selectron_L decays
#          BR         NDA      ID1       ID2
     2.26802159E-01    2     1000022        11   # BR(~e_L -> ~chi_10 e-)
     1.07087098E-03    2     1000023        11   # BR(~e_L -> ~chi_20 e-)
     5.84731991E-07    2     1000025        11   # BR(~e_L -> ~chi_30 e-)
     2.56968473E-01    2     1000035        11   # BR(~e_L -> ~chi_40 e-)
     5.31971260E-04    2    -1000024        12   # BR(~e_L -> ~chi_1- nu_e)
     5.14625941E-01    2    -1000037        12   # BR(~e_L -> ~chi_2- nu_e)
#
#         PDG            Width
DECAY   2000011     2.73545331E+01   # selectron_R decays
#          BR         NDA      ID1       ID2
     9.99458387E-01    2     1000022        11   # BR(~e_R -> ~chi_10 e-)
     2.33435464E-04    2     1000023        11   # BR(~e_R -> ~chi_20 e-)
     3.08086023E-04    2     1000025        11   # BR(~e_R -> ~chi_30 e-)
     9.17626356E-08    2     1000035        11   # BR(~e_R -> ~chi_40 e-)
#
#         PDG            Width
DECAY   1000013     3.02283077E+01   # smuon_L decays
#          BR         NDA      ID1       ID2
     2.26802159E-01    2     1000022        13   # BR(~mu_L -> ~chi_10 mu-)
     1.07087098E-03    2     1000023        13   # BR(~mu_L -> ~chi_20 mu-)
     5.84731991E-07    2     1000025        13   # BR(~mu_L -> ~chi_30 mu-)
     2.56968473E-01    2     1000035        13   # BR(~mu_L -> ~chi_40 mu-)
     5.31971260E-04    2    -1000024        14   # BR(~mu_L -> ~chi_1- nu_mu)
     5.14625941E-01    2    -1000037        14   # BR(~mu_L -> ~chi_2- nu_mu)
#
#         PDG            Width
DECAY   2000013     2.73545331E+01   # smuon_R decays
#          BR         NDA      ID1       ID2
     9.99458387E-01    2     1000022        13   # BR(~mu_R -> ~chi_10 mu-)
     2.33435464E-04    2     1000023        13   # BR(~mu_R -> ~chi_20 mu-)
     3.08086023E-04    2     1000025        13   # BR(~mu_R -> ~chi_30 mu-)
     9.17626356E-08    2     1000035        13   # BR(~mu_R -> ~chi_40 mu-)
#
#         PDG            Width
DECAY   1000015     2.89011967E+01   # stau_1 decays
#          BR         NDA      ID1       ID2
     9.21227226E-01    2     1000022        15   # BR(~tau_1 -> ~chi_10  tau-)
     1.35821358E-02    2     1000023        15   # BR(~tau_1 -> ~chi_20  tau-)
     1.20809681E-02    2     1000025        15   # BR(~tau_1 -> ~chi_30  tau-)
     9.15345201E-03    2     1000035        15   # BR(~tau_1 -> ~chi_40  tau-)
     2.56241340E-02    2    -1000024        16   # BR(~tau_1 -> ~chi_1-  nu_tau)
     1.83320839E-02    2    -1000037        16   # BR(~tau_1 -> ~chi_2-  nu_tau)
#
#         PDG            Width
DECAY   2000015     3.08496768E+01   # stau_2 decays
#          BR         NDA      ID1       ID2
     2.45235825E-01    2     1000022        15   # BR(~tau_2 -> ~chi_10  tau-)
     1.21134958E-02    2     1000023        15   # BR(~tau_2 -> ~chi_20  tau-)
     1.25124213E-02    2     1000025        15   # BR(~tau_2 -> ~chi_30  tau-)
     2.43148872E-01    2     1000035        15   # BR(~tau_2 -> ~chi_40  tau-)
     4.38152912E-05    2    -1000024        16   # BR(~tau_2 -> ~chi_1-  nu_tau)
     4.86945570E-01    2    -1000037        16   # BR(~tau_2 -> ~chi_2-  nu_tau)
#
#         PDG            Width
DECAY   1000012     3.02299706E+01   # snu_eL decays
#          BR         NDA      ID1       ID2
     2.26550309E-01    2     1000022        12   # BR(~nu_eL -> ~chi_10 nu_e)
     3.29709195E-04    2     1000023        12   # BR(~nu_eL -> ~chi_20 nu_e)
     3.05977218E-04    2     1000025        12   # BR(~nu_eL -> ~chi_30 nu_e)
     2.57082592E-01    2     1000035        12   # BR(~nu_eL -> ~chi_40 nu_e)
     2.38914378E-03    2     1000024        11   # BR(~nu_eL -> ~chi_1+ e-)
     5.13342269E-01    2     1000037        11   # BR(~nu_eL -> ~chi_2+ e-)
#
#         PDG            Width
DECAY   1000014     3.02299706E+01   # snu_muL decays
#          BR         NDA      ID1       ID2
     2.26550309E-01    2     1000022        14   # BR(~nu_muL -> ~chi_10 nu_mu)
     3.29709195E-04    2     1000023        14   # BR(~nu_muL -> ~chi_20 nu_mu)
     3.05977218E-04    2     1000025        14   # BR(~nu_muL -> ~chi_30 nu_mu)
     2.57082592E-01    2     1000035        14   # BR(~nu_muL -> ~chi_40 nu_mu)
     2.38914378E-03    2     1000024        13   # BR(~nu_muL -> ~chi_1+ mu-)
     5.13342269E-01    2     1000037        13   # BR(~nu_muL -> ~chi_2+ mu-)
#
#         PDG            Width
DECAY   1000016     3.09498381E+01   # snu_tauL decays
#          BR         NDA      ID1       ID2
     2.21257325E-01    2     1000022        16   # BR(~nu_tauL -> ~chi_10 nu_tau)
     3.21988291E-04    2     1000023        16   # BR(~nu_tauL -> ~chi_20 nu_tau)
     2.98811996E-04    2     1000025        16   # BR(~nu_tauL -> ~chi_30 nu_tau)
     2.51011921E-01    2     1000035        16   # BR(~nu_tauL -> ~chi_40 nu_tau)
     2.58863228E-02    2     1000024        15   # BR(~nu_tauL -> ~chi_1+ tau-)
     5.01223632E-01    2     1000037        15   # BR(~nu_tauL -> ~chi_2+ tau-)
#
#         PDG            Width
DECAY   1000024     1.04785458E+00   # chargino1+ decays
#          BR         NDA      ID1       ID2
     1.00000000E+00    2     1000022        24   # BR(~chi_1+ -> ~chi_10  W+)
#
#         PDG            Width
DECAY   1000037     1.73625625E+01   # chargino2+ decays
#          BR         NDA      ID1       ID2
     2.52442885E-01    2     1000024        23   # BR(~chi_2+ -> ~chi_1+  Z )
     3.15266455E-04    2     1000022        24   # BR(~chi_2+ -> ~chi_10  W+)
     2.44280340E-01    2     1000023        24   # BR(~chi_2+ -> ~chi_20  W+)
     2.43406522E-01    2     1000025        24   # BR(~chi_2+ -> ~chi_30  W+)
     2.59554784E-01    2     1000024        25   # BR(~chi_2+ -> ~chi_1+  h )
     2.02976783E-07    2     1000022        37   # BR(~chi_2+ -> ~chi_10  H+)
#
#         PDG            Width
DECAY   1000022     0.00000000E+00   # neutralino1 decays
#
#         PDG            Width
DECAY   1000023     1.10245119E+00   # neutralino2 decays
#          BR         NDA      ID1       ID2
     5.60637513E-01    2     1000022        23   # BR(~chi_20 -> ~chi_10   Z )
     4.39362487E-01    2     1000022        25   # BR(~chi_20 -> ~chi_10   h )
#
#         PDG            Width
DECAY   1000025     1.11452295E+00   # neutralino3 decays
#          BR         NDA      ID1       ID2
     4.21109380E-01    2     1000022        23   # BR(~chi_30 -> ~chi_10   Z )
     5.78890620E-01    2     1000022        25   # BR(~chi_30 -> ~chi_10   h )
#
#         PDG            Width
DECAY   1000035     1.73495365E+01   # neutralino4 decays
#          BR         NDA      ID1       ID2
     1.25295183E-04    2     1000022        23   # BR(~chi_40 -> ~chi_10   Z )
     2.90813524E-02    2     1000023        23   # BR(~chi_40 -> ~chi_20   Z )
     2.23113452E-01    2     1000025        23   # BR(~chi_40 -> ~chi_30   Z )
     2.44080511E-01    2     1000024       -24   # BR(~chi_40 -> ~chi_1+   W-)
     2.44080511E-01    2    -1000024        24   # BR(~chi_40 -> ~chi_1-   W+)
     1.99658940E-04    2     1000022        25   # BR(~chi_40 -> ~chi_10   h )
     1.78771933E-07    2     1000022        35   # BR(~chi_40 -> ~chi_10   H )
     3.18363543E-08    2     1000022        36   # BR(~chi_40 -> ~chi_10   A )
     2.30367149E-01    2     1000023        25   # BR(~chi_40 -> ~chi_20   h )
     2.89518596E-02    2     1000025        25   # BR(~chi_40 -> ~chi_30   h )
#
#         PDG            Width
DECAY        25     4.04051886E-03   # h decays
#          BR         NDA      ID1       ID2
     6.06121602E-01    2           5        -5   # BR(h -> b       bb     )
     6.41946691E-02    2         -15        15   # BR(h -> tau+    tau-   )
     2.27272395E-04    2         -13        13   # BR(h -> mu+     mu-    )
     4.81792103E-04    2           3        -3   # BR(h -> s       sb     )
     2.08791189E-02    2           4        -4   # BR(h -> c       cb     )
     6.75576035E-02    2          21        21   # BR(h -> g       g      )
     2.32341692E-03    2          22        22   # BR(h -> gam     gam    )
     1.49948217E-03    2          22        23   # BR(h -> Z       gam    )
     2.11474121E-01    2          24       -24   # BR(h -> W+      W-     )
     2.52136652E-02    2          23        23   # BR(h -> Z       Z      )
     2.72564715E-05    2     1000022   1000022   # BR(h -> ~chi_10 ~chi_10)
#
#         PDG            Width
DECAY        35     6.90471362E+00   # H decays
#          BR         NDA      ID1       ID2
     4.75220936E-01    2           5        -5   # BR(H -> b       bb     )
     8.06943073E-02    2         -15        15   # BR(H -> tau+    tau-   )
     2.85341480E-04    2         -13        13   # BR(H -> mu+     mu-    )
     3.49784963E-04    2           3        -3   # BR(H -> s       sb     )
     1.95596422E-06    2           4        -4   # BR(H -> c       cb     )
     1.95416315E-01    2           6        -6   # BR(H -> t       tb     )
     6.48493328E-05    2          21        21   # BR(H -> g       g      )
     3.83087781E-07    2          22        22   # BR(H -> gam     gam    )
     1.15424045E-07    2          23        22   # BR(H -> Z       gam    )
     8.62854034E-05    2          24       -24   # BR(H -> W+      W-     )
     4.30881019E-05    2          23        23   # BR(H -> Z       Z      )
     3.27900715E-04    2          25        25   # BR(H -> h       h      )
    -1.65906112E-23    2          36        36   # BR(H -> A       A      )
     3.49312263E-19    2          23        36   # BR(H -> Z       A      )
     7.24067579E-04    2     1000022   1000022   # BR(H -> ~chi_10 ~chi_10)
     1.45842160E-01    2     1000022   1000023   # BR(H -> ~chi_10 ~chi_20)
     1.00942509E-01    2     1000022   1000025   # BR(H -> ~chi_10 ~chi_30)
#
#         PDG            Width
DECAY        36     6.90764670E+00   # A decays
#          BR         NDA      ID1       ID2
     4.75177686E-01    2           5        -5   # BR(A -> b       bb     )
     8.06624314E-02    2         -15        15   # BR(A -> tau+    tau-   )
     2.85228366E-04    2         -13        13   # BR(A -> mu+     mu-    )
     3.49901766E-04    2           3        -3   # BR(A -> s       sb     )
     1.96334821E-06    2           4        -4   # BR(A -> c       cb     )
     1.96045810E-01    2           6        -6   # BR(A -> t       tb     )
     1.94014068E-04    2          21        21   # BR(A -> g       g      )
     3.49992156E-07    2          22        22   # BR(A -> gam     gam    )
     2.35062627E-07    2          23        22   # BR(A -> Z       gam    )
     8.59228179E-05    2          23        25   # BR(A -> Z       h      )
     7.46554086E-04    2     1000022   1000022   # BR(A -> ~chi_10 ~chi_10)
     1.02100903E-01    2     1000022   1000023   # BR(A -> ~chi_10 ~chi_20)
     1.44349001E-01    2     1000022   1000025   # BR(A -> ~chi_10 ~chi_30)
#
#         PDG            Width
DECAY        37     6.91853718E+00   # H+ decays
#          BR         NDA      ID1       ID2
     7.65888977E-04    2           4        -5   # BR(H+ -> c       bb     )
     8.05588900E-02    2         -15        16   # BR(H+ -> tau+    nu_tau )
     2.84862236E-04    2         -13        14   # BR(H+ -> mu+     nu_mu  )
     4.90166455E-06    2           2        -5   # BR(H+ -> u       bb     )
     1.67151230E-05    2           2        -3   # BR(H+ -> u       sb     )
     3.45669372E-04    2           4        -3   # BR(H+ -> c       sb     )
     6.70311193E-01    2           6        -5   # BR(H+ -> t       bb     )
     8.59175438E-05    2          24        25   # BR(H+ -> W+      h      )
     9.61912997E-14    2          24        36   # BR(H+ -> W+      A      )
     2.47625962E-01    2     1000024   1000022   # BR(H+ -> ~chi_1+ ~chi_10)
