#
#                              ======================
#                              | THE SUSYHIT OUTPUT |
#                              ======================
#
#
#              ------------------------------------------------------
#              |     This is the output of the SUSY-HIT package     |
#              |  created by A.Djouadi, M.Muehlleitner and M.Spira. |
#              |  In case of problems with SUSY-HIT email to        |
#              |           margarete.muehlleitner@cern.ch           |
#              |           michael.spira@psi.ch                     |
#              |           abdelhak.djouadi@cern.ch                 |
#              ------------------------------------------------------
#
#              ------------------------------------------------------
#              |  SUSY Les Houches Accord - MSSM Spectrum + Decays  |
#              |              based on the decay programs           |
#              |                                                    |
#              |                     SDECAY 1.3b                    |
#              |                                                    |
#              |  Authors: M.Muhlleitner, A.Djouadi and Y.Mambrini  |
#              |  Ref.:    Comput.Phys.Commun.168(2005)46           |
#              |           [hep-ph/0311167]                         |
#              |                                                    |
#              |                     HDECAY 3.4                     |
#              |                                                    |
#              |  By: A.Djouadi,J.Kalinowski,M.Muhlleitner,M.Spira  |
#              |  Ref.:    Comput.Phys.Commun.108(1998)56           |
#              |           [hep-ph/9704448]                         |
#              |                                                    |
#              |                                                    |
#              |  If not stated otherwise all DRbar couplings and   |
#              |  soft SUSY breaking masses are given at the scale  |
#              |  Q=  0.50007301E+04
#              |                                                    |
#              ------------------------------------------------------
#
#
BLOCK DCINFO  # Decay Program information
     1   SDECAY/HDECAY # decay calculator
     2   1.3b  /3.4    # version number
#
BLOCK SPINFO  # Spectrum calculator information
     1    SOFTSUSY    # spectrum calculator                
     2    3.4.0       # version number                     
#
BLOCK MODSEL  # Model selection
     1     0   #  nonUniversal                                     
#
BLOCK SMINPUTS  # Standard Model inputs
         1     1.25778332E+02   # alpha_em^-1(M_Z)^MSbar
         2     1.16570000E-05   # G_F [GeV^-2]
         3     1.17200002E-01   # alpha_S(M_Z)^MSbar
         4     9.11876000E+01   # M_Z pole mass
         5     4.25000000E+00   # mb(mb)^MSbar
         6     1.72500000E+02   # mt pole mass
         7     1.77682000E+00   # mtau pole mass
#
BLOCK MINPAR  # Input parameters - minimal models
         3     1.00000000E+01   # tanb                
#
BLOCK EXTPAR  # Input parameters - non-minimal models
         0    -1.00000000E+00   # Set                 
         1     6.00000000E+01   # M_1(MX)             
         2     3.00000000E+03   # M_2(MX)             
         3     1.48350400E+03   # M_3(MX)             
        11     5.00000000E+03   # At(MX)              
        12     5.00000000E+03   # Ab(MX)              
        13     0.00000000E+00   # Atau(MX)            
        23    -1.15376000E+03   # mu(MX)              
        26     3.00000000E+03   # mA(pole)            
        31     5.00000000E+03   # meL(MX)             
        32     5.00000000E+03   # mmuL(MX)            
        33     5.00000000E+03   # mtauL(MX)           
        34     5.00000000E+03   # meR(MX)             
        35     5.00000000E+03   # mmuR(MX)            
        36     5.00000000E+03   # mtauR(MX)           
        41     5.00000000E+03   # mqL1(MX)            
        42     5.00000000E+03   # mqL2(MX)            
        43     5.00000000E+03   # mqL3(MX)            
        44     5.00000000E+03   # muR(MX)             
        45     5.00000000E+03   # mcR(MX)             
        46     5.00000000E+03   # mtR(MX)             
        47     5.00000000E+03   # mdR(MX)             
        48     5.00000000E+03   # msR(MX)             
        49     5.00000000E+03   # mbR(MX)             
#
BLOCK MASS  # Mass Spectrum
# PDG code           mass       particle
        24     8.00953998E+01   # W+
        25     1.24723824E+02   # h
        35     3.00008004E+03   # H
        36     2.99999986E+03   # A
        37     3.00086431E+03   # H+
         5     4.87878001E+00   # b-quark pole mass calculated from mb(mb)_Msbar
   1000001     5.06949968E+03   # ~d_L
   2000001     5.05169942E+03   # ~d_R
   1000002     5.06902517E+03   # ~u_L
   2000002     5.05141827E+03   # ~u_R
   1000003     5.06949968E+03   # ~s_L
   2000003     5.05169942E+03   # ~s_R
   1000004     5.06902517E+03   # ~c_L
   2000004     5.05141827E+03   # ~c_R
   1000005     5.01535912E+03   # ~b_1
   2000005     5.05035412E+03   # ~b_2
   1000006     4.90624481E+03   # ~t_1
   2000006     5.06097921E+03   # ~t_2
   1000011     5.01906172E+03   # ~e_L
   2000011     5.00591820E+03   # ~e_R
   1000012     5.01811333E+03   # ~nu_eL
   1000013     5.01906172E+03   # ~mu_L
   2000013     5.00591820E+03   # ~mu_R
   1000014     5.01811333E+03   # ~nu_muL
   1000015     5.00452471E+03   # ~tau_1
   2000015     5.01884976E+03   # ~tau_2
   1000016     5.01756978E+03   # ~nu_tauL
   1000021     1.80000048E+03   # ~g
   1000022     6.03022634E+01   # ~chi_10
   1000023     1.19954197E+03   # ~chi_20
   1000025    -1.20184475E+03   # ~chi_30
   1000035     3.07429137E+03   # ~chi_40
   1000024     1.20000088E+03   # ~chi_1+
   1000037     3.07445881E+03   # ~chi_2+
#
BLOCK NMIX  # Neutralino Mixing Matrix
  1  1     9.99308799E-01   # N_11
  1  2     1.64210227E-04   # N_12
  1  3    -3.71192809E-02   # N_13
  1  4     2.01379165E-03   # N_14
  2  1     2.48276416E-02   # N_21
  2  2     2.59756518E-02   # N_22
  2  3     7.06840444E-01   # N_23
  2  4     7.06459794E-01   # N_24
  3  1    -2.76647496E-02   # N_31
  3  2     1.42074156E-02   # N_32
  3  3    -7.06349401E-01   # N_33
  3  4     7.07179846E-01   # N_34
  4  1    -4.16148745E-04   # N_41
  4  2     9.99561598E-01   # N_42
  4  3    -8.32279517E-03   # N_43
  4  4    -2.84107376E-02   # N_44
#
BLOCK UMIX  # Chargino Mixing Matrix U
  1  1     1.17850673E-02   # U_11
  1  2     9.99930554E-01   # U_12
  2  1    -9.99930554E-01   # U_21
  2  2     1.17850673E-02   # U_22
#
BLOCK VMIX  # Chargino Mixing Matrix V
  1  1     4.02075787E-02   # V_11
  1  2    -9.99191348E-01   # V_12
  2  1    -9.99191348E-01   # V_21
  2  2    -4.02075787E-02   # V_22
#
BLOCK STOPMIX  # Stop Mixing Matrix
  1  1    -5.09074125E-01   # cos(theta_t)
  1  2     8.60722682E-01   # sin(theta_t)
  2  1    -8.60722682E-01   # -sin(theta_t)
  2  2    -5.09074125E-01   # cos(theta_t)
#
BLOCK SBOTMIX  # Sbottom Mixing Matrix
  1  1     9.96169049E-01   # cos(theta_b)
  1  2    -8.74484180E-02   # sin(theta_b)
  2  1     8.74484180E-02   # -sin(theta_b)
  2  2     9.96169049E-01   # cos(theta_b)
#
BLOCK STAUMIX  # Stau Mixing Matrix
  1  1    -1.36024767E-01   # cos(theta_tau)
  1  2     9.90705437E-01   # sin(theta_tau)
  2  1    -9.90705437E-01   # -sin(theta_tau)
  2  2    -1.36024767E-01   # cos(theta_tau)
#
BLOCK ALPHA  # Higgs mixing
          -1.05464579E-01   # Mixing angle in the neutral Higgs boson sector
#
BLOCK HMIX Q=  5.00073007E+03  # DRbar Higgs Parameters
         1    -1.17482686E+03   # mu(Q)MSSM           
         2     9.47052769E+00   # tan                 
         3     2.41901804E+02   # higgs               
         4     8.46291151E+06   # mA^2(Q)MSSM         
#
BLOCK GAUGE Q=  5.00073007E+03  # The gauge couplings
     1     3.70758857E-01   # gprime(Q) DRbar
     2     6.32357873E-01   # g(Q) DRbar
     3     1.00004391E+00   # g3(Q) DRbar
#
BLOCK AU Q=  5.00073007E+03  # The trilinear couplings
  1  1     5.00000001E+03   # A_u(Q) DRbar
  2  2     5.00000001E+03   # A_c(Q) DRbar
  3  3     5.00000002E+03   # A_t(Q) DRbar
#
BLOCK AD Q=  5.00073007E+03  # The trilinear couplings
  1  1     5.00000000E+03   # A_d(Q) DRbar
  2  2     5.00000000E+03   # A_s(Q) DRbar
  3  3     5.00000001E+03   # A_b(Q) DRbar
#
BLOCK AE Q=  5.00073007E+03  # The trilinear couplings
  1  1     0.00000000E+00   # A_e(Q) DRbar
  2  2     1.44503649E-07   # A_mu(Q) DRbar
  3  3     1.44023609E-07   # A_tau(Q) DRbar
#
BLOCK Yu Q=  5.00073007E+03  # The Yukawa couplings
  1  1     0.00000000E+00   # y_u(Q) DRbar
  2  2     0.00000000E+00   # y_c(Q) DRbar
  3  3     8.19047883E-01   # y_t(Q) DRbar
#
BLOCK Yd Q=  5.00073007E+03  # The Yukawa couplings
  1  1     0.00000000E+00   # y_d(Q) DRbar
  2  2     0.00000000E+00   # y_s(Q) DRbar
  3  3     1.30680802E-01   # y_b(Q) DRbar
#
BLOCK Ye Q=  5.00073007E+03  # The Yukawa couplings
  1  1     0.00000000E+00   # y_e(Q) DRbar
  2  2     0.00000000E+00   # y_mu(Q) DRbar
  3  3     9.67610435E-02   # y_tau(Q) DRbar
#
BLOCK MSOFT Q=  5.00073007E+03  # The soft SUSY breaking masses at the scale Q
         1     6.00000000E+01   # M_1(Q)              
         2     3.00000000E+03   # M_2(Q)              
         3     1.48350400E+03   # M_3(Q)              
        21     7.30478920E+06   # mH1^2(Q)            
        22    -8.22612444E+05   # mH2^2(Q)            
        31     5.00000000E+03   # meL(Q)              
        32     5.00000000E+03   # mmuL(Q)             
        33     5.00000000E+03   # mtauL(Q)            
        34     5.00000000E+03   # meR(Q)              
        35     5.00000000E+03   # mmuR(Q)             
        36     5.00000000E+03   # mtauR(Q)            
        41     5.00000000E+03   # mqL1(Q)             
        42     5.00000000E+03   # mqL2(Q)             
        43     5.00000000E+03   # mqL3(Q)             
        44     5.00000000E+03   # muR(Q)              
        45     5.00000000E+03   # mcR(Q)              
        46     4.99999999E+03   # mtR(Q)              
        47     5.00000000E+03   # mdR(Q)              
        48     5.00000000E+03   # msR(Q)              
        49     5.00000000E+03   # mbR(Q)              
#
#
#
#                             =================
#                             |The decay table|
#                             =================
#
# - The QCD corrections to the decays gluino -> squark  + quark
#                                     squark -> gaugino + quark_prime
#                                     squark -> squark_prime + Higgs
#                                     squark -> gluino  + quark
#   are included.
#
# - The multi-body decays for the inos, stops and sbottoms are included.
#
# - The loop induced decays for the gluino, neutralinos and stops
#   are included.
#
# - The SUSY decays of the top quark are included.
#
#
#         PDG            Width
DECAY         6     1.40128539E+00   # top decays
#          BR         NDA      ID1       ID2
     1.00000000E+00    2           5        24   # BR(t ->  b    W+)
#
#         PDG            Width
DECAY   1000021     2.07046966E-04   # gluino decays
#          BR         NDA      ID1       ID2
     8.05671047E-06    2     1000022        21   # BR(~g -> ~chi_10 g)
     9.81744400E-03    2     1000023        21   # BR(~g -> ~chi_20 g)
     9.67366603E-03    2     1000025        21   # BR(~g -> ~chi_30 g)
#           BR         NDA      ID1       ID2       ID3
     6.55380155E-02    3     1000022         1        -1   # BR(~g -> ~chi_10 d  db)
     8.43427679E-06    3     1000023         1        -1   # BR(~g -> ~chi_20 d  db)
     2.70513096E-06    3     1000025         1        -1   # BR(~g -> ~chi_30 d  db)
     2.23444461E-01    3     1000022         2        -2   # BR(~g -> ~chi_10 u  ub)
     2.07558903E-05    3     1000023         2        -2   # BR(~g -> ~chi_20 u  ub)
     2.96925292E-06    3     1000025         2        -2   # BR(~g -> ~chi_30 u  ub)
     6.55380155E-02    3     1000022         3        -3   # BR(~g -> ~chi_10 s  sb)
     8.43427679E-06    3     1000023         3        -3   # BR(~g -> ~chi_20 s  sb)
     2.70513096E-06    3     1000025         3        -3   # BR(~g -> ~chi_30 s  sb)
     2.23444461E-01    3     1000022         4        -4   # BR(~g -> ~chi_10 c  cb)
     2.07558903E-05    3     1000023         4        -4   # BR(~g -> ~chi_20 c  cb)
     2.96925292E-06    3     1000025         4        -4   # BR(~g -> ~chi_30 c  cb)
     6.64035207E-02    3     1000022         5        -5   # BR(~g -> ~chi_10 b  bb)
     1.40067242E-03    3     1000023         5        -5   # BR(~g -> ~chi_20 b  bb)
     1.36358907E-03    3     1000025         5        -5   # BR(~g -> ~chi_30 b  bb)
     2.10318473E-01    3     1000022         6        -6   # BR(~g -> ~chi_10 t  tb)
     2.83879586E-02    3     1000023         6        -6   # BR(~g -> ~chi_20 t  tb)
     1.71452120E-02    3     1000025         6        -6   # BR(~g -> ~chi_30 t  tb)
     2.31784717E-05    3     1000024         1        -2   # BR(~g -> ~chi_1+ d  ub)
     2.31784717E-05    3    -1000024         2        -1   # BR(~g -> ~chi_1- u  db)
     2.31784717E-05    3     1000024         3        -4   # BR(~g -> ~chi_1+ s  cb)
     2.31784717E-05    3    -1000024         4        -3   # BR(~g -> ~chi_1- c  sb)
     3.86770060E-02    3     1000024         5        -6   # BR(~g -> ~chi_1+ b  tb)
     3.86770060E-02    3    -1000024         6        -5   # BR(~g -> ~chi_1- t  bb)
#
#         PDG            Width
DECAY   1000006     3.54622556E+02   # stop1 decays
#          BR         NDA      ID1       ID2
     2.48888089E-02    2     1000022         6   # BR(~t_1 -> ~chi_10 t )
     8.24151004E-02    2     1000023         6   # BR(~t_1 -> ~chi_20 t )
     7.92383664E-02    2     1000025         6   # BR(~t_1 -> ~chi_30 t )
     5.94909611E-03    2     1000035         6   # BR(~t_1 -> ~chi_40 t )
     1.19415907E-01    2     1000024         5   # BR(~t_1 -> ~chi_1+ b )
     1.18464053E-02    2     1000037         5   # BR(~t_1 -> ~chi_2+ b )
     6.76246316E-01    2     1000021         6   # BR(~t_1 -> ~g      t )
#
#         PDG            Width
DECAY   2000006     3.62065724E+02   # stop2 decays
#          BR         NDA      ID1       ID2
     9.72686443E-03    2     1000022         6   # BR(~t_2 -> ~chi_10 t )
     8.30303404E-02    2     1000023         6   # BR(~t_2 -> ~chi_20 t )
     8.64216600E-02    2     1000025         6   # BR(~t_2 -> ~chi_30 t )
     1.52090214E-02    2     1000035         6   # BR(~t_2 -> ~chi_40 t )
     4.99755124E-02    2     1000024         5   # BR(~t_2 -> ~chi_1+ b )
     3.02413488E-02    2     1000037         5   # BR(~t_2 -> ~chi_2+ b )
     7.21850261E-01    2     1000021         6   # BR(~t_2 -> ~g      t )
     7.96556769E-04    2     1000006        25   # BR(~t_2 -> ~t_1    h )
     2.74843500E-03    2     1000006        23   # BR(~t_2 -> ~t_1    Z )
#
#         PDG            Width
DECAY   1000005     3.38241615E+02   # sbottom1 decays
#          BR         NDA      ID1       ID2
     2.29405189E-03    2     1000022         5   # BR(~b_1 -> ~chi_10 b )
     2.29674787E-03    2     1000023         5   # BR(~b_1 -> ~chi_20 b )
     2.21297166E-03    2     1000025         5   # BR(~b_1 -> ~chi_30 b )
     2.21955512E-02    2     1000035         5   # BR(~b_1 -> ~chi_40 b )
     1.75333972E-01    2    -1000024         6   # BR(~b_1 -> ~chi_1- t )
     4.46215101E-02    2    -1000037         6   # BR(~b_1 -> ~chi_2- t )
     7.49385568E-01    2     1000021         5   # BR(~b_1 -> ~g      b )
     1.65962723E-03    2     1000006       -24   # BR(~b_1 -> ~t_1    W-)
#
#         PDG            Width
DECAY   2000005     2.62695440E+02   # sbottom2 decays
#          BR         NDA      ID1       ID2
     1.11717926E-02    2     1000022         5   # BR(~b_2 -> ~chi_10 b )
     2.90588727E-03    2     1000023         5   # BR(~b_2 -> ~chi_20 b )
     3.00126119E-03    2     1000025         5   # BR(~b_2 -> ~chi_30 b )
     2.27663473E-04    2     1000035         5   # BR(~b_2 -> ~chi_40 b )
     7.51714121E-03    2    -1000024         6   # BR(~b_2 -> ~chi_1- t )
     4.57582532E-04    2    -1000037         6   # BR(~b_2 -> ~chi_2- t )
     9.74649812E-01    2     1000021         5   # BR(~b_2 -> ~g      b )
     6.88593909E-05    2     1000006       -24   # BR(~b_2 -> ~t_1    W-)
#
#         PDG            Width
DECAY   1000002     2.81748897E+02   # sup_L decays
#          BR         NDA      ID1       ID2
     2.64973446E-03    2     1000022         2   # BR(~u_L -> ~chi_10 u)
     5.88309970E-05    2     1000023         2   # BR(~u_L -> ~chi_20 u)
     4.79241755E-06    2     1000025         2   # BR(~u_L -> ~chi_30 u)
     2.78191592E-02    2     1000035         2   # BR(~u_L -> ~chi_40 u)
     2.00135856E-04    2     1000024         1   # BR(~u_L -> ~chi_1+ d)
     5.55991546E-02    2     1000037         1   # BR(~u_L -> ~chi_2+ d)
     9.13668193E-01    2     1000021         2   # BR(~u_L -> ~g      u)
#
#         PDG            Width
DECAY   2000002     2.67911893E+02   # sup_R decays
#          BR         NDA      ID1       ID2
     4.43544067E-02    2     1000022         2   # BR(~u_R -> ~chi_10 u)
     2.44182997E-05    2     1000023         2   # BR(~u_R -> ~chi_20 u)
     3.03039363E-05    2     1000025         2   # BR(~u_R -> ~chi_30 u)
     3.06389521E-09    2     1000035         2   # BR(~u_R -> ~chi_40 u)
     9.55590868E-01    2     1000021         2   # BR(~u_R -> ~g      u)
#
#         PDG            Width
DECAY   1000001     2.81762521E+02   # sdown_L decays
#          BR         NDA      ID1       ID2
     2.64095972E-03    2     1000022         1   # BR(~d_L -> ~chi_10 d)
     2.76233136E-05    2     1000023         1   # BR(~d_L -> ~chi_20 d)
     2.38061368E-05    2     1000025         1   # BR(~d_L -> ~chi_30 d)
     2.78354962E-02    2     1000035         1   # BR(~d_L -> ~chi_40 d)
     1.71950210E-05    2    -1000024         2   # BR(~d_L -> ~chi_1- u)
     5.56960213E-02    2    -1000037         2   # BR(~d_L -> ~chi_2- u)
     9.13758898E-01    2     1000021         1   # BR(~d_L -> ~g      d)
#
#         PDG            Width
DECAY   2000001     2.59011298E+02   # sdown_R decays
#          BR         NDA      ID1       ID2
     1.14702920E-02    2     1000022         1   # BR(~d_R -> ~chi_10 d)
     6.31478817E-06    2     1000023         1   # BR(~d_R -> ~chi_20 d)
     7.83686627E-06    2     1000025         1   # BR(~d_R -> ~chi_30 d)
     7.92442687E-10    2     1000035         1   # BR(~d_R -> ~chi_40 d)
     9.88515556E-01    2     1000021         1   # BR(~d_R -> ~g      d)
#
#         PDG            Width
DECAY   1000004     2.81748897E+02   # scharm_L decays
#          BR         NDA      ID1       ID2
     2.64973446E-03    2     1000022         4   # BR(~c_L -> ~chi_10 c)
     5.88309970E-05    2     1000023         4   # BR(~c_L -> ~chi_20 c)
     4.79241755E-06    2     1000025         4   # BR(~c_L -> ~chi_30 c)
     2.78191592E-02    2     1000035         4   # BR(~c_L -> ~chi_40 c)
     2.00135856E-04    2     1000024         3   # BR(~c_L -> ~chi_1+ s)
     5.55991546E-02    2     1000037         3   # BR(~c_L -> ~chi_2+ s)
     9.13668193E-01    2     1000021         4   # BR(~c_L -> ~g      c)
#
#         PDG            Width
DECAY   2000004     2.67911893E+02   # scharm_R decays
#          BR         NDA      ID1       ID2
     4.43544067E-02    2     1000022         4   # BR(~c_R -> ~chi_10 c)
     2.44182997E-05    2     1000023         4   # BR(~c_R -> ~chi_20 c)
     3.03039363E-05    2     1000025         4   # BR(~c_R -> ~chi_30 c)
     3.06389521E-09    2     1000035         4   # BR(~c_R -> ~chi_40 c)
     9.55590868E-01    2     1000021         4   # BR(~c_R -> ~g      c)
#
#         PDG            Width
DECAY   1000003     2.81762521E+02   # sstrange_L decays
#          BR         NDA      ID1       ID2
     2.64095972E-03    2     1000022         3   # BR(~s_L -> ~chi_10 s)
     2.76233136E-05    2     1000023         3   # BR(~s_L -> ~chi_20 s)
     2.38061368E-05    2     1000025         3   # BR(~s_L -> ~chi_30 s)
     2.78354962E-02    2     1000035         3   # BR(~s_L -> ~chi_40 s)
     1.71950210E-05    2    -1000024         4   # BR(~s_L -> ~chi_1- c)
     5.56960213E-02    2    -1000037         4   # BR(~s_L -> ~chi_2- c)
     9.13758898E-01    2     1000021         3   # BR(~s_L -> ~g      s)
#
#         PDG            Width
DECAY   2000003     2.59011298E+02   # sstrange_R decays
#          BR         NDA      ID1       ID2
     1.14702920E-02    2     1000022         3   # BR(~s_R -> ~chi_10 s)
     6.31478817E-06    2     1000023         3   # BR(~s_R -> ~chi_20 s)
     7.83686627E-06    2     1000025         3   # BR(~s_R -> ~chi_30 s)
     7.92442687E-10    2     1000035         3   # BR(~s_R -> ~chi_40 s)
     9.88515556E-01    2     1000021         3   # BR(~s_R -> ~g      s)
#
#         PDG            Width
DECAY   1000011     3.02561203E+01   # selectron_L decays
#          BR         NDA      ID1       ID2
     2.26573937E-01    2     1000022        11   # BR(~e_L -> ~chi_10 e-)
     9.63724431E-04    2     1000023        11   # BR(~e_L -> ~chi_20 e-)
     2.37534615E-06    2     1000025        11   # BR(~e_L -> ~chi_30 e-)
     2.57244362E-01    2     1000035        11   # BR(~e_L -> ~chi_40 e-)
     1.62930467E-04    2    -1000024        12   # BR(~e_L -> ~chi_1- nu_e)
     5.15052671E-01    2    -1000037        12   # BR(~e_L -> ~chi_2- nu_e)
#
#         PDG            Width
DECAY   2000011     2.73674250E+01   # selectron_R decays
#          BR         NDA      ID1       ID2
     9.98772080E-01    2     1000022        11   # BR(~e_R -> ~chi_10 e-)
     5.47898828E-04    2     1000023        11   # BR(~e_R -> ~chi_20 e-)
     6.79954028E-04    2     1000025        11   # BR(~e_R -> ~chi_30 e-)
     6.72120146E-08    2     1000035        11   # BR(~e_R -> ~chi_40 e-)
#
#         PDG            Width
DECAY   1000013     3.02561203E+01   # smuon_L decays
#          BR         NDA      ID1       ID2
     2.26573937E-01    2     1000022        13   # BR(~mu_L -> ~chi_10 mu-)
     9.63724431E-04    2     1000023        13   # BR(~mu_L -> ~chi_20 mu-)
     2.37534615E-06    2     1000025        13   # BR(~mu_L -> ~chi_30 mu-)
     2.57244362E-01    2     1000035        13   # BR(~mu_L -> ~chi_40 mu-)
     1.62930467E-04    2    -1000024        14   # BR(~mu_L -> ~chi_1- nu_mu)
     5.15052671E-01    2    -1000037        14   # BR(~mu_L -> ~chi_2- nu_mu)
#
#         PDG            Width
DECAY   2000013     2.73674250E+01   # smuon_R decays
#          BR         NDA      ID1       ID2
     9.98772080E-01    2     1000022        13   # BR(~mu_R -> ~chi_10 mu-)
     5.47898828E-04    2     1000023        13   # BR(~mu_R -> ~chi_20 mu-)
     6.79954028E-04    2     1000025        13   # BR(~mu_R -> ~chi_30 mu-)
     6.72120146E-08    2     1000035        13   # BR(~mu_R -> ~chi_40 mu-)
#
#         PDG            Width
DECAY   1000015     2.90667983E+01   # stau_1 decays
#          BR         NDA      ID1       ID2
     9.27985069E-01    2     1000022        15   # BR(~tau_1 -> ~chi_10  tau-)
     1.50454135E-02    2     1000023        15   # BR(~tau_1 -> ~chi_20  tau-)
     1.40744697E-02    2     1000025        15   # BR(~tau_1 -> ~chi_30  tau-)
     4.77775285E-03    2     1000035        15   # BR(~tau_1 -> ~chi_40  tau-)
     2.85515401E-02    2    -1000024        16   # BR(~tau_1 -> ~chi_1-  nu_tau)
     9.56575525E-03    2    -1000037        16   # BR(~tau_1 -> ~chi_2-  nu_tau)
#
#         PDG            Width
DECAY   2000015     3.10294955E+01   # stau_2 decays
#          BR         NDA      ID1       ID2
     2.32397873E-01    2     1000022        15   # BR(~tau_2 -> ~chi_10  tau-)
     1.40443306E-02    2     1000023        15   # BR(~tau_2 -> ~chi_20  tau-)
     1.40875514E-02    2     1000025        15   # BR(~tau_2 -> ~chi_30  tau-)
     2.46278274E-01    2     1000035        15   # BR(~tau_2 -> ~chi_40  tau-)
     9.54912784E-05    2    -1000024        16   # BR(~tau_2 -> ~chi_1-  nu_tau)
     4.93096480E-01    2    -1000037        16   # BR(~tau_2 -> ~chi_2-  nu_tau)
#
#         PDG            Width
DECAY   1000012     3.02586463E+01   # snu_eL decays
#          BR         NDA      ID1       ID2
     2.26258395E-01    2     1000022        12   # BR(~nu_eL -> ~chi_10 nu_e)
     7.64644899E-05    2     1000023        12   # BR(~nu_eL -> ~chi_20 nu_e)
     5.42678763E-04    2     1000025        12   # BR(~nu_eL -> ~chi_30 nu_e)
     2.57308656E-01    2     1000035        12   # BR(~nu_eL -> ~chi_40 nu_e)
     1.89590152E-03    2     1000024        11   # BR(~nu_eL -> ~chi_1+ e-)
     5.13917904E-01    2     1000037        11   # BR(~nu_eL -> ~chi_2+ e-)
#
#         PDG            Width
DECAY   1000014     3.02586463E+01   # snu_muL decays
#          BR         NDA      ID1       ID2
     2.26258395E-01    2     1000022        14   # BR(~nu_muL -> ~chi_10 nu_mu)
     7.64644899E-05    2     1000023        14   # BR(~nu_muL -> ~chi_20 nu_mu)
     5.42678763E-04    2     1000025        14   # BR(~nu_muL -> ~chi_30 nu_mu)
     2.57308656E-01    2     1000035        14   # BR(~nu_muL -> ~chi_40 nu_mu)
     1.89590152E-03    2     1000024        13   # BR(~nu_muL -> ~chi_1+ mu-)
     5.13917904E-01    2     1000037        13   # BR(~nu_muL -> ~chi_2+ mu-)
#
#         PDG            Width
DECAY   1000016     3.10799972E+01   # snu_tauL decays
#          BR         NDA      ID1       ID2
     2.20255192E-01    2     1000022        16   # BR(~nu_tauL -> ~chi_10 nu_tau)
     7.44337449E-05    2     1000023        16   # BR(~nu_tauL -> ~chi_20 nu_tau)
     5.28266236E-04    2     1000025        16   # BR(~nu_tauL -> ~chi_30 nu_tau)
     2.50416414E-01    2     1000035        16   # BR(~nu_tauL -> ~chi_40 nu_tau)
     2.85735079E-02    2     1000024        15   # BR(~nu_tauL -> ~chi_1+ tau-)
     5.00152186E-01    2     1000037        15   # BR(~nu_tauL -> ~chi_2+ tau-)
#
#         PDG            Width
DECAY   1000024     7.34564429E-01   # chargino1+ decays
#          BR         NDA      ID1       ID2
     1.00000000E+00    2     1000022        24   # BR(~chi_1+ -> ~chi_10  W+)
#
#         PDG            Width
DECAY   1000037     1.96750351E+01   # chargino2+ decays
#          BR         NDA      ID1       ID2
     2.53017099E-01    2     1000024        23   # BR(~chi_2+ -> ~chi_1+  Z )
     2.15540169E-04    2     1000022        24   # BR(~chi_2+ -> ~chi_10  W+)
     2.44002026E-01    2     1000023        24   # BR(~chi_2+ -> ~chi_20  W+)
     2.43964985E-01    2     1000025        24   # BR(~chi_2+ -> ~chi_30  W+)
     2.58799604E-01    2     1000024        25   # BR(~chi_2+ -> ~chi_1+  h )
     7.45730986E-07    2     1000022        37   # BR(~chi_2+ -> ~chi_10  H+)
#
#         PDG            Width
DECAY   1000022     0.00000000E+00   # neutralino1 decays
#
#         PDG            Width
DECAY   1000023     7.69784083E-01   # neutralino2 decays
#          BR         NDA      ID1       ID2
     5.48082460E-01    2     1000022        23   # BR(~chi_20 -> ~chi_10   Z )
     4.51917540E-01    2     1000022        25   # BR(~chi_20 -> ~chi_10   h )
#
#         PDG            Width
DECAY   1000025     7.75601015E-01   # neutralino3 decays
#          BR         NDA      ID1       ID2
     4.38130627E-01    2     1000022        23   # BR(~chi_30 -> ~chi_10   Z )
     5.61869373E-01    2     1000022        25   # BR(~chi_30 -> ~chi_10   h )
#
#         PDG            Width
DECAY   1000035     1.96866598E+01   # neutralino4 decays
#          BR         NDA      ID1       ID2
     6.35285702E-05    2     1000022        23   # BR(~chi_40 -> ~chi_10   Z )
     5.83462491E-02    2     1000023        23   # BR(~chi_40 -> ~chi_20   Z )
     1.93966011E-01    2     1000025        23   # BR(~chi_40 -> ~chi_30   Z )
     2.44616118E-01    2     1000024       -24   # BR(~chi_40 -> ~chi_1+   W-)
     2.44616118E-01    2    -1000024        24   # BR(~chi_40 -> ~chi_1-   W+)
     1.54927602E-04    2     1000022        25   # BR(~chi_40 -> ~chi_10   h )
     6.82689279E-07    2     1000022        35   # BR(~chi_40 -> ~chi_10   H )
     8.92154035E-08    2     1000022        36   # BR(~chi_40 -> ~chi_10   A )
     1.99783132E-01    2     1000023        25   # BR(~chi_40 -> ~chi_20   h )
     5.84531443E-02    2     1000025        25   # BR(~chi_40 -> ~chi_30   h )
#
#         PDG            Width
DECAY        25     4.05010064E-03   # h decays
#          BR         NDA      ID1       ID2
     6.08873900E-01    2           5        -5   # BR(h -> b       bb     )
     6.40131944E-02    2         -15        15   # BR(h -> tau+    tau-   )
     2.26630202E-04    2         -13        13   # BR(h -> mu+     mu-    )
     4.80480045E-04    2           3        -3   # BR(h -> s       sb     )
     2.08207967E-02    2           4        -4   # BR(h -> c       cb     )
     6.72928186E-02    2          21        21   # BR(h -> g       g      )
     2.31260559E-03    2          22        22   # BR(h -> gam     gam    )
     1.48692834E-03    2          22        23   # BR(h -> Z       gam    )
     2.09503230E-01    2          24       -24   # BR(h -> W+      W-     )
     2.49451113E-02    2          23        23   # BR(h -> Z       Z      )
     4.43042163E-05    2     1000022   1000022   # BR(h -> ~chi_10 ~chi_10)
#
#         PDG            Width
DECAY        35     7.79211215E+00   # H decays
#          BR         NDA      ID1       ID2
     4.16159206E-01    2           5        -5   # BR(H -> b       bb     )
     7.15071847E-02    2         -15        15   # BR(H -> tau+    tau-   )
     2.52855085E-04    2         -13        13   # BR(H -> mu+     mu-    )
     3.09961619E-04    2           3        -3   # BR(H -> s       sb     )
     1.73326654E-06    2           4        -4   # BR(H -> c       cb     )
     1.73167053E-01    2           6        -6   # BR(H -> t       tb     )
     5.75149792E-05    2          21        21   # BR(H -> g       g      )
     3.33375587E-07    2          22        22   # BR(H -> gam     gam    )
     1.02241598E-07    2          23        22   # BR(H -> Z       gam    )
     7.86706933E-05    2          24       -24   # BR(H -> W+      W-     )
     3.92855588E-05    2          23        23   # BR(H -> Z       Z      )
     2.94431650E-04    2          25        25   # BR(H -> h       h      )
    -7.38135564E-24    2          36        36   # BR(H -> A       A      )
     3.84052357E-19    2          23        36   # BR(H -> Z       A      )
     1.18942105E-03    2     1000024  -1000024   # BR(H -> ~chi_1+ ~chi_1-)
     1.28689149E-03    2     1000022   1000022   # BR(H -> ~chi_10 ~chi_10)
     6.58395123E-05    2     1000023   1000023   # BR(H -> ~chi_20 ~chi_20)
     2.34447039E-04    2     1000025   1000025   # BR(H -> ~chi_30 ~chi_30)
     2.00496942E-01    2     1000022   1000023   # BR(H -> ~chi_10 ~chi_20)
     1.34642009E-01    2     1000022   1000025   # BR(H -> ~chi_10 ~chi_30)
     2.16117651E-04    2     1000023   1000025   # BR(H -> ~chi_20 ~chi_30)
#
#         PDG            Width
DECAY        36     7.81240924E+00   # A decays
#          BR         NDA      ID1       ID2
     4.15218250E-01    2           5        -5   # BR(A -> b       bb     )
     7.13235751E-02    2         -15        15   # BR(A -> tau+    tau-   )
     2.52205474E-04    2         -13        13   # BR(A -> mu+     mu-    )
     3.09391175E-04    2           3        -3   # BR(A -> s       sb     )
     1.73590429E-06    2           4        -4   # BR(A -> c       cb     )
     1.73334898E-01    2           6        -6   # BR(A -> t       tb     )
     1.71541267E-04    2          21        21   # BR(A -> g       g      )
     5.27373044E-07    2          22        22   # BR(A -> gam     gam    )
     2.07758250E-07    2          23        22   # BR(A -> Z       gam    )
     7.81701939E-05    2          23        25   # BR(A -> Z       h      )
     2.91103700E-03    2     1000024  -1000024   # BR(A -> ~chi_1+ ~chi_1-)
     1.31550139E-03    2     1000022   1000022   # BR(A -> ~chi_10 ~chi_10)
     1.19176520E-04    2     1000023   1000023   # BR(A -> ~chi_20 ~chi_20)
     9.98937834E-04    2     1000025   1000025   # BR(A -> ~chi_30 ~chi_30)
     1.36025385E-01    2     1000022   1000023   # BR(A -> ~chi_10 ~chi_20)
     1.97913016E-01    2     1000022   1000025   # BR(A -> ~chi_10 ~chi_30)
     2.64438669E-05    2     1000023   1000025   # BR(A -> ~chi_20 ~chi_30)
#
#         PDG            Width
DECAY        37     7.77739312E+00   # H+ decays
#          BR         NDA      ID1       ID2
     6.68650528E-04    2           4        -5   # BR(H+ -> c       bb     )
     7.16653393E-02    2         -15        16   # BR(H+ -> tau+    nu_tau )
     2.53413978E-04    2         -13        14   # BR(H+ -> mu+     nu_mu  )
     4.27934132E-06    2           2        -5   # BR(H+ -> u       bb     )
     1.48698101E-05    2           2        -3   # BR(H+ -> u       sb     )
     3.07508103E-04    2           4        -3   # BR(H+ -> c       sb     )
     5.88380116E-01    2           6        -5   # BR(H+ -> t       bb     )
     7.86404579E-05    2          24        25   # BR(H+ -> W+      h      )
     8.15738144E-14    2          24        36   # BR(H+ -> W+      A      )
     3.38061246E-01    2     1000024   1000022   # BR(H+ -> ~chi_1+ ~chi_10)
     5.04757552E-04    2     1000024   1000023   # BR(H+ -> ~chi_1+ ~chi_20)
     6.11793788E-05    2     1000024   1000025   # BR(H+ -> ~chi_1+ ~chi_30)
