#
#                              ======================
#                              | THE SUSYHIT OUTPUT |
#                              ======================
#
#
#              ------------------------------------------------------
#              |     This is the output of the SUSY-HIT package     |
#              |  created by A.Djouadi, M.Muehlleitner and M.Spira. |
#              |  In case of problems with SUSY-HIT email to        |
#              |           margarete.muehlleitner@cern.ch           |
#              |           michael.spira@psi.ch                     |
#              |           abdelhak.djouadi@cern.ch                 |
#              ------------------------------------------------------
#
#              ------------------------------------------------------
#              |  SUSY Les Houches Accord - MSSM Spectrum + Decays  |
#              |              based on the decay programs           |
#              |                                                    |
#              |                     SDECAY 1.3b                    |
#              |                                                    |
#              |  Authors: M.Muhlleitner, A.Djouadi and Y.Mambrini  |
#              |  Ref.:    Comput.Phys.Commun.168(2005)46           |
#              |           [hep-ph/0311167]                         |
#              |                                                    |
#              |                     HDECAY 3.4                     |
#              |                                                    |
#              |  By: A.Djouadi,J.Kalinowski,M.Muhlleitner,M.Spira  |
#              |  Ref.:    Comput.Phys.Commun.108(1998)56           |
#              |           [hep-ph/9704448]                         |
#              |                                                    |
#              |                                                    |
#              |  If not stated otherwise all DRbar couplings and   |
#              |  soft SUSY breaking masses are given at the scale  |
#              |  Q=  0.50007145E+04
#              |                                                    |
#              ------------------------------------------------------
#
#
BLOCK DCINFO  # Decay Program information
     1   SDECAY/HDECAY # decay calculator
     2   1.3b  /3.4    # version number
#
BLOCK SPINFO  # Spectrum calculator information
     1    SOFTSUSY    # spectrum calculator                
     2    3.4.0       # version number                     
#
BLOCK MODSEL  # Model selection
     1     0   #  nonUniversal                                     
#
BLOCK SMINPUTS  # Standard Model inputs
         1     1.25778332E+02   # alpha_em^-1(M_Z)^MSbar
         2     1.16570000E-05   # G_F [GeV^-2]
         3     1.17200002E-01   # alpha_S(M_Z)^MSbar
         4     9.11876000E+01   # M_Z pole mass
         5     4.25000000E+00   # mb(mb)^MSbar
         6     1.72500000E+02   # mt pole mass
         7     1.77682000E+00   # mtau pole mass
#
BLOCK MINPAR  # Input parameters - minimal models
         3     1.00000000E+01   # tanb                
#
BLOCK EXTPAR  # Input parameters - non-minimal models
         0    -1.00000000E+00   # Set                 
         1     6.00000000E+01   # M_1(MX)             
         2     3.00000000E+03   # M_2(MX)             
         3     2.52554400E+03   # M_3(MX)             
        11     5.00000000E+03   # At(MX)              
        12     5.00000000E+03   # Ab(MX)              
        13     0.00000000E+00   # Atau(MX)            
        23    -1.64232000E+03   # mu(MX)              
        26     3.00000000E+03   # mA(pole)            
        31     5.00000000E+03   # meL(MX)             
        32     5.00000000E+03   # mmuL(MX)            
        33     5.00000000E+03   # mtauL(MX)           
        34     5.00000000E+03   # meR(MX)             
        35     5.00000000E+03   # mmuR(MX)            
        36     5.00000000E+03   # mtauR(MX)           
        41     5.00000000E+03   # mqL1(MX)            
        42     5.00000000E+03   # mqL2(MX)            
        43     5.00000000E+03   # mqL3(MX)            
        44     5.00000000E+03   # muR(MX)             
        45     5.00000000E+03   # mcR(MX)             
        46     5.00000000E+03   # mtR(MX)             
        47     5.00000000E+03   # mdR(MX)             
        48     5.00000000E+03   # msR(MX)             
        49     5.00000000E+03   # mbR(MX)             
#
BLOCK MASS  # Mass Spectrum
# PDG code           mass       particle
        24     8.00972584E+01   # W+
        25     1.24825793E+02   # h
        35     3.00008039E+03   # H
        36     2.99999995E+03   # A
        37     3.00087236E+03   # H+
         5     4.87878001E+00   # b-quark pole mass calculated from mb(mb)_Msbar
   1000001     5.08862653E+03   # ~d_L
   2000001     5.07092008E+03   # ~d_R
   1000002     5.08815796E+03   # ~u_L
   2000002     5.07064985E+03   # ~u_R
   1000003     5.08862653E+03   # ~s_L
   2000003     5.07092008E+03   # ~s_R
   1000004     5.08815796E+03   # ~c_L
   2000004     5.07064985E+03   # ~c_R
   1000005     5.03486518E+03   # ~b_1
   2000005     5.06986476E+03   # ~b_2
   1000006     4.92815303E+03   # ~t_1
   2000006     5.07981949E+03   # ~t_2
   1000011     5.01903863E+03   # ~e_L
   2000011     5.00590647E+03   # ~e_R
   1000012     5.01809092E+03   # ~nu_eL
   1000013     5.01903863E+03   # ~mu_L
   2000013     5.00590647E+03   # ~mu_R
   1000014     5.01809092E+03   # ~nu_muL
   1000015     5.00425341E+03   # ~tau_1
   2000015     5.01912110E+03   # ~tau_2
   1000016     5.01755583E+03   # ~nu_tauL
   1000021     2.90000069E+03   # ~g
   1000022     6.03020833E+01   # ~chi_10
   1000023     1.69941342E+03   # ~chi_20
   1000025    -1.70202288E+03   # ~chi_30
   1000035     3.07434868E+03   # ~chi_40
   1000024     1.70000025E+03   # ~chi_1+
   1000037     3.07451622E+03   # ~chi_2+
#
BLOCK NMIX  # Neutralino Mixing Matrix
  1  1     9.99653912E-01   # N_11
  1  2     1.27115607E-04   # N_12
  1  3    -2.62434461E-02   # N_13
  1  4     1.82226071E-03   # N_14
  2  1     1.72651096E-02   # N_21
  2  2     3.53832157E-02   # N_22
  2  3     7.06866203E-01   # N_23
  2  4     7.06250746E-01   # N_24
  3  1    -1.98427517E-02   # N_31
  3  2     1.27022088E-02   # N_32
  3  3    -7.06678202E-01   # N_33
  3  4     7.07142728E-01   # N_34
  4  1    -4.86263683E-04   # N_41
  4  2     9.99293083E-01   # N_42
  4  3    -1.60428303E-02   # N_43
  4  4    -3.39959610E-02   # N_44
#
BLOCK UMIX  # Chargino Mixing Matrix U
  1  1     2.26830941E-02   # U_11
  1  2     9.99742706E-01   # U_12
  2  1    -9.99742706E-01   # U_21
  2  2     2.26830941E-02   # U_22
#
BLOCK VMIX  # Chargino Mixing Matrix V
  1  1     4.80790839E-02   # V_11
  1  2    -9.98843532E-01   # V_12
  2  1    -9.98843532E-01   # V_21
  2  2    -4.80790839E-02   # V_22
#
BLOCK STOPMIX  # Stop Mixing Matrix
  1  1    -5.09546593E-01   # cos(theta_t)
  1  2     8.60443066E-01   # sin(theta_t)
  2  1    -8.60443066E-01   # -sin(theta_t)
  2  2    -5.09546593E-01   # cos(theta_t)
#
BLOCK SBOTMIX  # Sbottom Mixing Matrix
  1  1     9.93198177E-01   # cos(theta_b)
  1  2    -1.16436168E-01   # sin(theta_b)
  2  1     1.16436168E-01   # -sin(theta_b)
  2  2     9.93198177E-01   # cos(theta_b)
#
BLOCK STAUMIX  # Stau Mixing Matrix
  1  1    -1.88916552E-01   # cos(theta_tau)
  1  2     9.81993145E-01   # sin(theta_tau)
  2  1    -9.81993145E-01   # -sin(theta_tau)
  2  2    -1.88916552E-01   # cos(theta_tau)
#
BLOCK ALPHA  # Higgs mixing
          -1.05469290E-01   # Mixing angle in the neutral Higgs boson sector
#
BLOCK HMIX Q=  5.00071448E+03  # DRbar Higgs Parameters
         1    -1.67261925E+03   # mu(Q)MSSM           
         2     9.46980360E+00   # tan                 
         3     2.42003521E+02   # higgs               
         4     8.37069109E+06   # mA^2(Q)MSSM         
#
BLOCK GAUGE Q=  5.00071448E+03  # The gauge couplings
     1     3.70654855E-01   # gprime(Q) DRbar
     2     6.31891203E-01   # g(Q) DRbar
     3     9.92984602E-01   # g3(Q) DRbar
#
BLOCK AU Q=  5.00071448E+03  # The trilinear couplings
  1  1     5.00000002E+03   # A_u(Q) DRbar
  2  2     5.00000002E+03   # A_c(Q) DRbar
  3  3     5.00000003E+03   # A_t(Q) DRbar
#
BLOCK AD Q=  5.00071448E+03  # The trilinear couplings
  1  1     5.00000001E+03   # A_d(Q) DRbar
  2  2     5.00000001E+03   # A_s(Q) DRbar
  3  3     5.00000001E+03   # A_b(Q) DRbar
#
BLOCK AE Q=  5.00071448E+03  # The trilinear couplings
  1  1     0.00000000E+00   # A_e(Q) DRbar
  2  2     3.14863114E-07   # A_mu(Q) DRbar
  3  3     3.15037914E-07   # A_tau(Q) DRbar
#
BLOCK Yu Q=  5.00071448E+03  # The Yukawa couplings
  1  1     0.00000000E+00   # y_u(Q) DRbar
  2  2     0.00000000E+00   # y_c(Q) DRbar
  3  3     8.21131538E-01   # y_t(Q) DRbar
#
BLOCK Yd Q=  5.00071448E+03  # The Yukawa couplings
  1  1     0.00000000E+00   # y_d(Q) DRbar
  2  2     0.00000000E+00   # y_s(Q) DRbar
  3  3     1.32284143E-01   # y_b(Q) DRbar
#
BLOCK Ye Q=  5.00071448E+03  # The Yukawa couplings
  1  1     0.00000000E+00   # y_e(Q) DRbar
  2  2     0.00000000E+00   # y_mu(Q) DRbar
  3  3     9.65463833E-02   # y_tau(Q) DRbar
#
BLOCK MSOFT Q=  5.00071448E+03  # The soft SUSY breaking masses at the scale Q
         1     6.00000000E+01   # M_1(Q)              
         2     3.00000000E+03   # M_2(Q)              
         3     2.52554400E+03   # M_3(Q)              
        21     5.86210394E+06   # mH1^2(Q)            
        22    -2.25283023E+06   # mH2^2(Q)            
        31     5.00000000E+03   # meL(Q)              
        32     5.00000000E+03   # mmuL(Q)             
        33     5.00000000E+03   # mtauL(Q)            
        34     5.00000000E+03   # meR(Q)              
        35     5.00000000E+03   # mmuR(Q)             
        36     5.00000000E+03   # mtauR(Q)            
        41     4.99999999E+03   # mqL1(Q)             
        42     4.99999999E+03   # mqL2(Q)             
        43     4.99999999E+03   # mqL3(Q)             
        44     4.99999999E+03   # muR(Q)              
        45     4.99999999E+03   # mcR(Q)              
        46     4.99999999E+03   # mtR(Q)              
        47     4.99999999E+03   # mdR(Q)              
        48     4.99999999E+03   # msR(Q)              
        49     4.99999999E+03   # mbR(Q)              
#
#
#
#                             =================
#                             |The decay table|
#                             =================
#
# - The QCD corrections to the decays gluino -> squark  + quark
#                                     squark -> gaugino + quark_prime
#                                     squark -> squark_prime + Higgs
#                                     squark -> gluino  + quark
#   are included.
#
# - The multi-body decays for the inos, stops and sbottoms are included.
#
# - The loop induced decays for the gluino, neutralinos and stops
#   are included.
#
# - The SUSY decays of the top quark are included.
#
#
#         PDG            Width
DECAY         6     1.39913684E+00   # top decays
#          BR         NDA      ID1       ID2
     1.00000000E+00    2           5        24   # BR(t ->  b    W+)
#
#         PDG            Width
DECAY   1000021     3.80167869E-03   # gluino decays
#          BR         NDA      ID1       ID2
     3.69946339E-06    2     1000022        21   # BR(~g -> ~chi_10 g)
     4.55311584E-03    2     1000023        21   # BR(~g -> ~chi_20 g)
     4.56860480E-03    2     1000025        21   # BR(~g -> ~chi_30 g)
#           BR         NDA      ID1       ID2       ID3
     4.47029355E-02    3     1000022         1        -1   # BR(~g -> ~chi_10 d  db)
     3.16506018E-05    3     1000023         1        -1   # BR(~g -> ~chi_20 d  db)
     3.65699473E-06    3     1000025         1        -1   # BR(~g -> ~chi_30 d  db)
     1.52428012E-01    3     1000022         2        -2   # BR(~g -> ~chi_10 u  ub)
     4.99083348E-05    3     1000023         2        -2   # BR(~g -> ~chi_20 u  ub)
     3.51454281E-06    3     1000025         2        -2   # BR(~g -> ~chi_30 u  ub)
     4.47029355E-02    3     1000022         3        -3   # BR(~g -> ~chi_10 s  sb)
     3.16506018E-05    3     1000023         3        -3   # BR(~g -> ~chi_20 s  sb)
     3.65699473E-06    3     1000025         3        -3   # BR(~g -> ~chi_30 s  sb)
     1.52428012E-01    3     1000022         4        -4   # BR(~g -> ~chi_10 c  cb)
     4.99083348E-05    3     1000023         4        -4   # BR(~g -> ~chi_20 c  cb)
     3.51454281E-06    3     1000025         4        -4   # BR(~g -> ~chi_30 c  cb)
     4.52715191E-02    3     1000022         5        -5   # BR(~g -> ~chi_10 b  bb)
     2.79708324E-03    3     1000023         5        -5   # BR(~g -> ~chi_20 b  bb)
     2.73218383E-03    3     1000025         5        -5   # BR(~g -> ~chi_30 b  bb)
     1.58879820E-01    3     1000022         6        -6   # BR(~g -> ~chi_10 t  tb)
     9.72659217E-02    3     1000023         6        -6   # BR(~g -> ~chi_20 t  tb)
     8.48550233E-02    3     1000025         6        -6   # BR(~g -> ~chi_30 t  tb)
     7.74160858E-05    3     1000024         1        -2   # BR(~g -> ~chi_1+ d  ub)
     7.74160858E-05    3    -1000024         2        -1   # BR(~g -> ~chi_1- u  db)
     7.74160858E-05    3     1000024         3        -4   # BR(~g -> ~chi_1+ s  cb)
     7.74160858E-05    3    -1000024         4        -3   # BR(~g -> ~chi_1- c  sb)
     1.02162004E-01    3     1000024         5        -6   # BR(~g -> ~chi_1+ b  tb)
     1.02162004E-01    3    -1000024         6        -5   # BR(~g -> ~chi_1- t  bb)
#
#         PDG            Width
DECAY   1000006     2.37625272E+02   # stop1 decays
#          BR         NDA      ID1       ID2
     3.72405413E-02    2     1000022         6   # BR(~t_1 -> ~chi_10 t )
     1.07310676E-01    2     1000023         6   # BR(~t_1 -> ~chi_20 t )
     1.03120854E-01    2     1000025         6   # BR(~t_1 -> ~chi_30 t )
     9.13026791E-03    2     1000035         6   # BR(~t_1 -> ~chi_40 t )
     1.55910990E-01    2     1000024         5   # BR(~t_1 -> ~chi_1+ b )
     1.81403205E-02    2     1000037         5   # BR(~t_1 -> ~chi_2+ b )
     5.69146350E-01    2     1000021         6   # BR(~t_1 -> ~g      t )
#
#         PDG            Width
DECAY   2000006     2.53081353E+02   # stop2 decays
#          BR         NDA      ID1       ID2
     1.36670134E-02    2     1000022         6   # BR(~t_2 -> ~chi_10 t )
     1.05158365E-01    2     1000023         6   # BR(~t_2 -> ~chi_20 t )
     1.09464736E-01    2     1000025         6   # BR(~t_2 -> ~chi_30 t )
     2.19136047E-02    2     1000035         6   # BR(~t_2 -> ~chi_40 t )
     6.33601155E-02    2     1000024         5   # BR(~t_2 -> ~chi_1+ b )
     4.34558110E-02    2     1000037         5   # BR(~t_2 -> ~chi_2+ b )
     6.38133865E-01    2     1000021         6   # BR(~t_2 -> ~g      t )
     1.06237974E-03    2     1000006        25   # BR(~t_2 -> ~t_1    h )
     3.78410974E-03    2     1000006        23   # BR(~t_2 -> ~t_1    Z )
#
#         PDG            Width
DECAY   1000005     2.28790597E+02   # sbottom1 decays
#          BR         NDA      ID1       ID2
     3.42376255E-03    2     1000022         5   # BR(~b_1 -> ~chi_10 b )
     3.14009640E-03    2     1000023         5   # BR(~b_1 -> ~chi_20 b )
     2.92957686E-03    2     1000025         5   # BR(~b_1 -> ~chi_30 b )
     3.29300274E-02    2     1000035         5   # BR(~b_1 -> ~chi_40 b )
     2.26868147E-01    2    -1000024         6   # BR(~b_1 -> ~chi_1- t )
     6.63719692E-02    2    -1000037         6   # BR(~b_1 -> ~chi_2- t )
     6.62079239E-01    2     1000021         5   # BR(~b_1 -> ~g      b )
     2.25718167E-03    2     1000006       -24   # BR(~b_1 -> ~t_1    W-)
#
#         PDG            Width
DECAY   2000005     1.61188266E+02   # sbottom2 decays
#          BR         NDA      ID1       ID2
     1.80752428E-02    2     1000022         5   # BR(~b_2 -> ~chi_10 b )
     4.18413188E-03    2     1000023         5   # BR(~b_2 -> ~chi_20 b )
     4.40440009E-03    2     1000025         5   # BR(~b_2 -> ~chi_30 b )
     6.71902475E-04    2     1000035         5   # BR(~b_2 -> ~chi_40 b )
     1.27334431E-02    2    -1000024         6   # BR(~b_2 -> ~chi_1- t )
     1.35336114E-03    2    -1000037         6   # BR(~b_2 -> ~chi_2- t )
     9.58379195E-01    2     1000021         5   # BR(~b_2 -> ~g      b )
     1.98323319E-04    2     1000006       -24   # BR(~b_2 -> ~t_1    W-)
#
#         PDG            Width
DECAY   1000002     1.80569692E+02   # sup_L decays
#          BR         NDA      ID1       ID2
     4.11972172E-03    2     1000022         2   # BR(~u_L -> ~chi_10 u)
     1.28324404E-04    2     1000023         2   # BR(~u_L -> ~chi_20 u)
     6.64365505E-06    2     1000025         2   # BR(~u_L -> ~chi_30 u)
     4.37998690E-02    2     1000035         2   # BR(~u_L -> ~chi_40 u)
     3.94849557E-04    2     1000024         1   # BR(~u_L -> ~chi_1+ d)
     8.75267282E-02    2     1000037         1   # BR(~u_L -> ~chi_2+ d)
     8.64023863E-01    2     1000021         2   # BR(~u_L -> ~g      u)
#
#         PDG            Width
DECAY   2000002     1.66297879E+02   # sup_R decays
#          BR         NDA      ID1       ID2
     7.12273786E-02    2     1000022         2   # BR(~u_R -> ~chi_10 u)
     1.68237072E-05    2     1000023         2   # BR(~u_R -> ~chi_20 u)
     2.22050529E-05    2     1000025         2   # BR(~u_R -> ~chi_30 u)
     6.81182665E-09    2     1000035         2   # BR(~u_R -> ~chi_40 u)
     9.28733586E-01    2     1000021         2   # BR(~u_R -> ~g      u)
#
#         PDG            Width
DECAY   1000001     1.80588762E+02   # sdown_L decays
#          BR         NDA      ID1       ID2
     4.10897257E-03    2     1000022         1   # BR(~d_L -> ~chi_10 d)
     8.75145393E-05    2     1000023         1   # BR(~d_L -> ~chi_20 d)
     2.34703755E-05    2     1000025         1   # BR(~d_L -> ~chi_30 d)
     4.38251794E-02    2     1000035         1   # BR(~d_L -> ~chi_40 d)
     8.78898304E-05    2    -1000024         2   # BR(~d_L -> ~chi_1- u)
     8.77016740E-02    2    -1000037         2   # BR(~d_L -> ~chi_2- u)
     8.64165299E-01    2     1000021         1   # BR(~d_L -> ~g      d)
#
#         PDG            Width
DECAY   2000001     1.57433685E+02   # sdown_R decays
#          BR         NDA      ID1       ID2
     1.88104741E-02    2     1000022         1   # BR(~d_R -> ~chi_10 d)
     4.44309829E-06    2     1000023         1   # BR(~d_R -> ~chi_20 d)
     5.86429854E-06    2     1000025         1   # BR(~d_R -> ~chi_30 d)
     1.79915801E-09    2     1000035         1   # BR(~d_R -> ~chi_40 d)
     9.81179217E-01    2     1000021         1   # BR(~d_R -> ~g      d)
#
#         PDG            Width
DECAY   1000004     1.80569692E+02   # scharm_L decays
#          BR         NDA      ID1       ID2
     4.11972172E-03    2     1000022         4   # BR(~c_L -> ~chi_10 c)
     1.28324404E-04    2     1000023         4   # BR(~c_L -> ~chi_20 c)
     6.64365505E-06    2     1000025         4   # BR(~c_L -> ~chi_30 c)
     4.37998690E-02    2     1000035         4   # BR(~c_L -> ~chi_40 c)
     3.94849557E-04    2     1000024         3   # BR(~c_L -> ~chi_1+ s)
     8.75267282E-02    2     1000037         3   # BR(~c_L -> ~chi_2+ s)
     8.64023863E-01    2     1000021         4   # BR(~c_L -> ~g      c)
#
#         PDG            Width
DECAY   2000004     1.66297879E+02   # scharm_R decays
#          BR         NDA      ID1       ID2
     7.12273786E-02    2     1000022         4   # BR(~c_R -> ~chi_10 c)
     1.68237072E-05    2     1000023         4   # BR(~c_R -> ~chi_20 c)
     2.22050529E-05    2     1000025         4   # BR(~c_R -> ~chi_30 c)
     6.81182665E-09    2     1000035         4   # BR(~c_R -> ~chi_40 c)
     9.28733586E-01    2     1000021         4   # BR(~c_R -> ~g      c)
#
#         PDG            Width
DECAY   1000003     1.80588762E+02   # sstrange_L decays
#          BR         NDA      ID1       ID2
     4.10897257E-03    2     1000022         3   # BR(~s_L -> ~chi_10 s)
     8.75145393E-05    2     1000023         3   # BR(~s_L -> ~chi_20 s)
     2.34703755E-05    2     1000025         3   # BR(~s_L -> ~chi_30 s)
     4.38251794E-02    2     1000035         3   # BR(~s_L -> ~chi_40 s)
     8.78898304E-05    2    -1000024         4   # BR(~s_L -> ~chi_1- c)
     8.77016740E-02    2    -1000037         4   # BR(~s_L -> ~chi_2- c)
     8.64165299E-01    2     1000021         3   # BR(~s_L -> ~g      s)
#
#         PDG            Width
DECAY   2000003     1.57433685E+02   # sstrange_R decays
#          BR         NDA      ID1       ID2
     1.88104741E-02    2     1000022         3   # BR(~s_R -> ~chi_10 s)
     4.44309829E-06    2     1000023         3   # BR(~s_R -> ~chi_20 s)
     5.86429854E-06    2     1000025         3   # BR(~s_R -> ~chi_30 s)
     1.79915801E-09    2     1000035         3   # BR(~s_R -> ~chi_40 s)
     9.81179217E-01    2     1000021         3   # BR(~s_R -> ~g      s)
#
#         PDG            Width
DECAY   1000011     3.02238552E+01   # selectron_L decays
#          BR         NDA      ID1       ID2
     2.26815346E-01    2     1000022        11   # BR(~e_L -> ~chi_10 e-)
     1.07081566E-03    2     1000023        11   # BR(~e_L -> ~chi_20 e-)
     5.83556773E-07    2     1000025        11   # BR(~e_L -> ~chi_30 e-)
     2.56964118E-01    2     1000035        11   # BR(~e_L -> ~chi_40 e-)
     5.31920508E-04    2    -1000024        12   # BR(~e_L -> ~chi_1- nu_e)
     5.14617216E-01    2    -1000037        12   # BR(~e_L -> ~chi_2- nu_e)
#
#         PDG            Width
DECAY   2000011     2.73521102E+01   # selectron_R decays
#          BR         NDA      ID1       ID2
     9.99458370E-01    2     1000022        11   # BR(~e_R -> ~chi_10 e-)
     2.33438996E-04    2     1000023        11   # BR(~e_R -> ~chi_20 e-)
     3.08099310E-04    2     1000025        11   # BR(~e_R -> ~chi_30 e-)
     9.17634490E-08    2     1000035        11   # BR(~e_R -> ~chi_40 e-)
#
#         PDG            Width
DECAY   1000013     3.02238552E+01   # smuon_L decays
#          BR         NDA      ID1       ID2
     2.26815346E-01    2     1000022        13   # BR(~mu_L -> ~chi_10 mu-)
     1.07081566E-03    2     1000023        13   # BR(~mu_L -> ~chi_20 mu-)
     5.83556773E-07    2     1000025        13   # BR(~mu_L -> ~chi_30 mu-)
     2.56964118E-01    2     1000035        13   # BR(~mu_L -> ~chi_40 mu-)
     5.31920508E-04    2    -1000024        14   # BR(~mu_L -> ~chi_1- nu_mu)
     5.14617216E-01    2    -1000037        14   # BR(~mu_L -> ~chi_2- nu_mu)
#
#         PDG            Width
DECAY   2000013     2.73521102E+01   # smuon_R decays
#          BR         NDA      ID1       ID2
     9.99458370E-01    2     1000022        13   # BR(~mu_R -> ~chi_10 mu-)
     2.33438996E-04    2     1000023        13   # BR(~mu_R -> ~chi_20 mu-)
     3.08099310E-04    2     1000025        13   # BR(~mu_R -> ~chi_30 mu-)
     9.17634490E-08    2     1000035        13   # BR(~mu_R -> ~chi_40 mu-)
#
#         PDG            Width
DECAY   1000015     2.88984923E+01   # stau_1 decays
#          BR         NDA      ID1       ID2
     9.21223489E-01    2     1000022        15   # BR(~tau_1 -> ~chi_10  tau-)
     1.35812648E-02    2     1000023        15   # BR(~tau_1 -> ~chi_20  tau-)
     1.20800110E-02    2     1000025        15   # BR(~tau_1 -> ~chi_30  tau-)
     9.15595511E-03    2     1000035        15   # BR(~tau_1 -> ~chi_40  tau-)
     2.56221833E-02    2    -1000024        16   # BR(~tau_1 -> ~chi_1-  nu_tau)
     1.83370973E-02    2    -1000037        16   # BR(~tau_1 -> ~chi_2-  nu_tau)
#
#         PDG            Width
DECAY   2000015     3.08451489E+01   # stau_2 decays
#          BR         NDA      ID1       ID2
     2.45257801E-01    2     1000022        15   # BR(~tau_2 -> ~chi_10  tau-)
     1.21131502E-02    2     1000023        15   # BR(~tau_2 -> ~chi_20  tau-)
     1.25123128E-02    2     1000025        15   # BR(~tau_2 -> ~chi_30  tau-)
     2.43141680E-01    2     1000035        15   # BR(~tau_2 -> ~chi_40  tau-)
     4.38920278E-05    2    -1000024        16   # BR(~tau_2 -> ~chi_1-  nu_tau)
     4.86931164E-01    2    -1000037        16   # BR(~tau_2 -> ~chi_2-  nu_tau)
#
#         PDG            Width
DECAY   1000012     3.02255178E+01   # snu_eL decays
#          BR         NDA      ID1       ID2
     2.26563475E-01    2     1000022        12   # BR(~nu_eL -> ~chi_10 nu_e)
     3.29659236E-04    2     1000023        12   # BR(~nu_eL -> ~chi_20 nu_e)
     3.05979876E-04    2     1000025        12   # BR(~nu_eL -> ~chi_30 nu_e)
     2.57078272E-01    2     1000035        12   # BR(~nu_eL -> ~chi_40 nu_e)
     2.38894466E-03    2     1000024        11   # BR(~nu_eL -> ~chi_1+ e-)
     5.13333669E-01    2     1000037        11   # BR(~nu_eL -> ~chi_2+ e-)
#
#         PDG            Width
DECAY   1000014     3.02255178E+01   # snu_muL decays
#          BR         NDA      ID1       ID2
     2.26563475E-01    2     1000022        14   # BR(~nu_muL -> ~chi_10 nu_mu)
     3.29659236E-04    2     1000023        14   # BR(~nu_muL -> ~chi_20 nu_mu)
     3.05979876E-04    2     1000025        14   # BR(~nu_muL -> ~chi_30 nu_mu)
     2.57078272E-01    2     1000035        14   # BR(~nu_muL -> ~chi_40 nu_mu)
     2.38894466E-03    2     1000024        13   # BR(~nu_muL -> ~chi_1+ mu-)
     5.13333669E-01    2     1000037        13   # BR(~nu_muL -> ~chi_2+ mu-)
#
#         PDG            Width
DECAY   1000016     3.09452672E+01   # snu_tauL decays
#          BR         NDA      ID1       ID2
     2.21270273E-01    2     1000022        16   # BR(~nu_tauL -> ~chi_10 nu_tau)
     3.21939635E-04    2     1000023        16   # BR(~nu_tauL -> ~chi_20 nu_tau)
     2.98814715E-04    2     1000025        16   # BR(~nu_tauL -> ~chi_30 nu_tau)
     2.51007813E-01    2     1000035        16   # BR(~nu_tauL -> ~chi_40 nu_tau)
     2.58857051E-02    2     1000024        15   # BR(~nu_tauL -> ~chi_1+ tau-)
     5.01215455E-01    2     1000037        15   # BR(~nu_tauL -> ~chi_2+ tau-)
#
#         PDG            Width
DECAY   1000024     1.04769989E+00   # chargino1+ decays
#          BR         NDA      ID1       ID2
     1.00000000E+00    2     1000022        24   # BR(~chi_1+ -> ~chi_10  W+)
#
#         PDG            Width
DECAY   1000037     1.73584980E+01   # chargino2+ decays
#          BR         NDA      ID1       ID2
     2.52443977E-01    2     1000024        23   # BR(~chi_2+ -> ~chi_1+  Z )
     3.15287720E-04    2     1000022        24   # BR(~chi_2+ -> ~chi_10  W+)
     2.44274226E-01    2     1000023        24   # BR(~chi_2+ -> ~chi_20  W+)
     2.43400495E-01    2     1000025        24   # BR(~chi_2+ -> ~chi_30  W+)
     2.59565811E-01    2     1000024        25   # BR(~chi_2+ -> ~chi_1+  h )
     2.02875075E-07    2     1000022        37   # BR(~chi_2+ -> ~chi_10  H+)
#
#         PDG            Width
DECAY   1000022     0.00000000E+00   # neutralino1 decays
#
#         PDG            Width
DECAY   1000023     1.10233211E+00   # neutralino2 decays
#          BR         NDA      ID1       ID2
     5.60638336E-01    2     1000022        23   # BR(~chi_20 -> ~chi_10   Z )
     4.39361664E-01    2     1000022        25   # BR(~chi_20 -> ~chi_10   h )
#
#         PDG            Width
DECAY   1000025     1.11440457E+00   # neutralino3 decays
#          BR         NDA      ID1       ID2
     4.21097294E-01    2     1000022        23   # BR(~chi_30 -> ~chi_10   Z )
     5.78902706E-01    2     1000022        25   # BR(~chi_30 -> ~chi_10   h )
#
#         PDG            Width
DECAY   1000035     1.73454839E+01   # neutralino4 decays
#          BR         NDA      ID1       ID2
     1.25302737E-04    2     1000022        23   # BR(~chi_40 -> ~chi_10   Z )
     2.90817683E-02    2     1000023        23   # BR(~chi_40 -> ~chi_20   Z )
     2.23113996E-01    2     1000025        23   # BR(~chi_40 -> ~chi_30   Z )
     2.44074521E-01    2     1000024       -24   # BR(~chi_40 -> ~chi_1+   W-)
     2.44074521E-01    2    -1000024        24   # BR(~chi_40 -> ~chi_1-   W+)
     1.99679888E-04    2     1000022        25   # BR(~chi_40 -> ~chi_10   h )
     1.78698200E-07    2     1000022        35   # BR(~chi_40 -> ~chi_10   H )
     3.18030486E-08    2     1000022        36   # BR(~chi_40 -> ~chi_10   A )
     2.30376617E-01    2     1000023        25   # BR(~chi_40 -> ~chi_20   h )
     2.89533829E-02    2     1000025        25   # BR(~chi_40 -> ~chi_30   h )
#
#         PDG            Width
DECAY        25     4.03226144E-03   # h decays
#          BR         NDA      ID1       ID2
     6.04298838E-01    2           5        -5   # BR(h -> b       bb     )
     6.43450861E-02    2         -15        15   # BR(h -> tau+    tau-   )
     2.27804768E-04    2         -13        13   # BR(h -> mu+     mu-    )
     4.82893755E-04    2           3        -3   # BR(h -> s       sb     )
     2.09266823E-02    2           4        -4   # BR(h -> c       cb     )
     6.77533628E-02    2          21        21   # BR(h -> g       g      )
     2.33095226E-03    2          22        22   # BR(h -> gam     gam    )
     1.50740207E-03    2          22        23   # BR(h -> Z       gam    )
     2.12720661E-01    2          24       -24   # BR(h -> W+      W-     )
     2.53786623E-02    2          23        23   # BR(h -> Z       Z      )
     2.76545130E-05    2     1000022   1000022   # BR(h -> ~chi_10 ~chi_10)
#
#         PDG            Width
DECAY        35     6.91444629E+00   # H decays
#          BR         NDA      ID1       ID2
     4.75951057E-01    2           5        -5   # BR(H -> b       bb     )
     8.05714917E-02    2         -15        15   # BR(H -> tau+    tau-   )
     2.84907195E-04    2         -13        13   # BR(H -> mu+     mu-    )
     3.49252580E-04    2           3        -3   # BR(H -> s       sb     )
     1.95345122E-06    2           4        -4   # BR(H -> c       cb     )
     1.95165247E-01    2           6        -6   # BR(H -> t       tb     )
     6.47749063E-05    2          21        21   # BR(H -> g       g      )
     3.82679949E-07    2          22        22   # BR(H -> gam     gam    )
     1.15291011E-07    2          23        22   # BR(H -> Z       gam    )
     8.64686121E-05    2          24       -24   # BR(H -> W+      W-     )
     4.31795918E-05    2          23        23   # BR(H -> Z       Z      )
     3.27299846E-04    2          25        25   # BR(H -> h       h      )
     2.55178931E-23    2          36        36   # BR(H -> A       A      )
     8.44432558E-19    2          23        36   # BR(H -> Z       A      )
     7.23048509E-04    2     1000022   1000022   # BR(H -> ~chi_10 ~chi_10)
     1.45634536E-01    2     1000022   1000023   # BR(H -> ~chi_10 ~chi_20)
     1.00796286E-01    2     1000022   1000025   # BR(H -> ~chi_10 ~chi_30)
#
#         PDG            Width
DECAY        36     6.91736719E+00   # A decays
#          BR         NDA      ID1       ID2
     4.75908212E-01    2           5        -5   # BR(A -> b       bb     )
     8.05398581E-02    2         -15        15   # BR(A -> tau+    tau-   )
     2.84794937E-04    2         -13        13   # BR(A -> mu+     mu-    )
     3.49370078E-04    2           3        -3   # BR(A -> s       sb     )
     1.96081380E-06    2           4        -4   # BR(A -> c       cb     )
     1.95792742E-01    2           6        -6   # BR(A -> t       tb     )
     1.93754397E-04    2          21        21   # BR(A -> g       g      )
     3.49542755E-07    2          22        22   # BR(A -> gam     gam    )
     2.34768588E-07    2          23        22   # BR(A -> Z       gam    )
     8.61051924E-05    2          23        25   # BR(A -> Z       h      )
     7.45508606E-04    2     1000022   1000022   # BR(A -> ~chi_10 ~chi_10)
     1.01953212E-01    2     1000022   1000023   # BR(A -> ~chi_10 ~chi_20)
     1.44143898E-01    2     1000022   1000025   # BR(A -> ~chi_10 ~chi_30)
#
#         PDG            Width
DECAY        37     6.94533492E+00   # H+ decays
#          BR         NDA      ID1       ID2
     7.69096160E-04    2           4        -5   # BR(H+ -> c       bb     )
     8.02388642E-02    2         -15        16   # BR(H+ -> tau+    nu_tau )
     2.83730600E-04    2         -13        14   # BR(H+ -> mu+     nu_mu  )
     4.92219057E-06    2           2        -5   # BR(H+ -> u       bb     )
     1.66487212E-05    2           2        -3   # BR(H+ -> u       sb     )
     3.44296610E-04    2           4        -3   # BR(H+ -> c       sb     )
     6.71592546E-01    2           6        -5   # BR(H+ -> t       bb     )
     8.58883625E-05    2          24        25   # BR(H+ -> W+      h      )
     9.56301924E-14    2          24        36   # BR(H+ -> W+      A      )
     2.46664007E-01    2     1000024   1000022   # BR(H+ -> ~chi_1+ ~chi_10)
