#
#                              ======================
#                              | THE SUSYHIT OUTPUT |
#                              ======================
#
#
#              ------------------------------------------------------
#              |     This is the output of the SUSY-HIT package     |
#              |  created by A.Djouadi, M.Muehlleitner and M.Spira. |
#              |  In case of problems with SUSY-HIT email to        |
#              |           margarete.muehlleitner@kit.edu           |
#              |           michael.spira@psi.ch                     |
#              |           abdelhak.djouadi@cern.ch                 |
#              ------------------------------------------------------
#
#              ------------------------------------------------------
#              |  SUSY Les Houches Accord - MSSM Spectrum + Decays  |
#              |              based on the decay programs           |
#              |                                                    |
#              |                     SDECAY 1.5                     |
#              |                                                    |
#              |  Authors: M.Muhlleitner, A.Djouadi and Y.Mambrini  |
#              |  Ref.:    Comput.Phys.Commun.168(2005)46           |
#              |           [hep-ph/0311167]                         |
#              |                                                    |
#              |                     HDECAY 3.4                     |
#              |                                                    |
#              |  By: A.Djouadi,J.Kalinowski,M.Muhlleitner,M.Spira  |
#              |  Ref.:    Comput.Phys.Commun.108(1998)56           |
#              |           [hep-ph/9704448]                         |
#              |                                                    |
#              |                                                    |
#              |  If not stated otherwise all DRbar couplings and   |
#              |  soft SUSY breaking masses are given at the scale  |
#              |  Q=  0.91187600E+02
#              |                                                    |
#              ------------------------------------------------------
#
#
BLOCK DCINFO  # Decay Program information
     1   SDECAY/HDECAY # decay calculator
     2   1.5  /3.4    # version number
#
BLOCK SPINFO  # Spectrum calculator information
     1   SuSpect     # RGE +Spectrum calculator            
     2   2.43         # version number                     
#
BLOCK MODSEL  # Model selection
     1     2   # GMSB                                              
#
BLOCK SMINPUTS  # Standard Model inputs
         1     1.27932904E+02   # alpha_em^-1(M_Z)^MSbar
         2     1.16639000E-05   # G_F [GeV^-2]
         3     1.17200000E-01   # alpha_S(M_Z)^MSbar
         4     9.11870000E+01   # M_Z pole mass
         5     4.25000000E+00   # mb(mb)^MSbar
         6     1.72900000E+02   # mt pole mass
         7     1.77700000E+00   # mtau pole mass
#
BLOCK MINPAR  # Input parameters - minimal models
#
BLOCK EXTPAR  # Input parameters - non-minimal models
         0     9.11876000E+01   # EWSB                
         1     1.24900000E+03   # M_1                 
         2     3.00000000E+03   # M_2                 
         3     1.90000000E+03   # M_3                 
        11     0.00000000E+00   # A_t                 
        12     0.00000000E+00   # A_b                 
        13     0.00000000E+00   # A_tau               
        14     0.00000000E+00   # A_u                 
        15     0.00000000E+00   # A_d                 
        16     0.00000000E+00   # A_e                 
        23     1.25000000E+03   # mu(EWSB)            
        25     1.50000000E+00   # tanbeta(in)         
        26     2.00000000E+03   # MA_pole             
        31     5.00000000E+03   # M_eL                
        32     5.00000000E+03   # M_muL               
        33     5.00000000E+03   # M_tauL              
        34     5.00000000E+03   # M_eR                
        35     5.00000000E+03   # M_muR               
        36     5.00000000E+03   # M_tauR              
        41     5.00000000E+03   # M_q1L               
        42     5.00000000E+03   # M_q2L               
        43     5.00000000E+03   # M_q3L               
        44     5.00000000E+03   # M_uR                
        45     5.00000000E+03   # M_cR                
        46     5.00000000E+03   # M_tR                
        47     5.00000000E+03   # M_dR                
        48     5.00000000E+03   # M_sR                
        49     5.00000000E+03   # M_bR                
#
BLOCK MASS  # Mass Spectrum
# PDG code           mass       particle
        24     8.05410155E+01   # W+
        25     1.26000000E+02   # h
        35     2.00402536E+03   # H
        36     2.00000000E+03   # A
        37     2.00151027E+03   # H+
         5     4.87877839E+00   # b-quark pole mass calculated from mb(mb)_Msbar
   1000001     4.95285064E+03   # ~d_L
   2000001     4.95274063E+03   # ~d_R
   1000002     4.95260468E+03   # ~u_L
   2000002     4.95266281E+03   # ~u_R
   1000003     4.95285064E+03   # ~s_L
   2000003     4.95274063E+03   # ~s_R
   1000004     4.95260468E+03   # ~c_L
   2000004     4.95266281E+03   # ~c_R
   1000005     4.95227805E+03   # ~b_1
   2000005     4.95331464E+03   # ~b_2
   1000006     5.07444409E+03   # ~t_1
   2000006     5.37092802E+03   # ~t_2
   1000011     5.00008220E+03   # ~e_L
   2000011     5.00007609E+03   # ~e_R
   1000012     4.99984171E+03   # ~nu_eL
   1000013     5.00008220E+03   # ~mu_L
   2000013     5.00007609E+03   # ~mu_R
   1000014     4.99984171E+03   # ~nu_muL
   1000015     4.99974600E+03   # ~tau_1
   2000015     5.00041289E+03   # ~tau_2
   1000016     4.99984171E+03   # ~nu_tauL
   1000021     1.97443923E+03   # ~g
   1000022     1.28284284E+03   # ~chi_10
   1000023    -1.33143905E+03   # ~chi_20
   1000025     1.37004271E+03   # ~chi_30
   1000035     3.12827837E+03   # ~chi_40
   1000024     1.32806437E+03   # ~chi_1+
   1000037     3.12827649E+03   # ~chi_2+
   1000039     1.00000000E-09   # ~gravitino
#
BLOCK NMIX  # Neutralino Mixing Matrix
  1  1     7.19703448E-01   # N_11
  1  2    -2.91774844E-02   # N_12
  1  3     4.92314623E-01   # N_13
  1  4    -4.88673647E-01   # N_14
  2  1     3.28639713E-03   # N_21
  2  2    -3.48261128E-03   # N_22
  2  3    -7.06988895E-01   # N_23
  2  4    -7.07208437E-01   # N_24
  3  1     6.94273017E-01   # N_31
  3  2     3.17881011E-02   # N_32
  3  3    -5.06958141E-01   # N_33
  3  4     5.09870511E-01   # N_34
  4  1     1.06003316E-03   # N_41
  4  2    -9.99062592E-01   # N_42
  4  3    -2.80438599E-02   # N_43
  4  4     3.29599120E-02   # N_44
#
BLOCK UMIX  # Chargino Mixing Matrix U
  1  1    -3.96351448E-02   # U_11
  1  2     9.99214219E-01   # U_12
  2  1     9.99214219E-01   # U_21
  2  2     3.96351448E-02   # U_22
#
BLOCK VMIX  # Chargino Mixing Matrix V
  1  1    -4.65885766E-02   # V_11
  1  2     9.98914163E-01   # V_12
  2  1     9.98914163E-01   # V_21
  2  2     4.65885766E-02   # V_22
#
BLOCK STOPMIX  # Stop Mixing Matrix
  1  1     9.99997705E-01   # cos(theta_t)
  1  2     2.14242730E-03   # sin(theta_t)
  2  1    -2.14242730E-03   # -sin(theta_t)
  2  2     9.99997705E-01   # cos(theta_t)
#
BLOCK SBOTMIX  # Sbottom Mixing Matrix
  1  1     6.68533379E-01   # cos(theta_b)
  1  2     7.43682137E-01   # sin(theta_b)
  2  1    -7.43682137E-01   # -sin(theta_b)
  2  2     6.68533379E-01   # cos(theta_b)
#
BLOCK STAUMIX  # Stau Mixing Matrix
  1  1     7.03859827E-01   # cos(theta_tau)
  1  2     7.10338894E-01   # sin(theta_tau)
  2  1    -7.10338894E-01   # -sin(theta_tau)
  2  2     7.03859827E-01   # cos(theta_tau)
#
BLOCK ALPHA  # Higgs mixing
          -5.90206079E-01   # Mixing angle in the neutral Higgs boson sector
#
BLOCK HMIX Q=  9.11876000E+01  # DRbar Higgs Parameters
         1     1.25000000E+03   # mu(Q)               
         2     1.49999979E+00   # tanbeta(Q)          
         3     2.52156829E+02   # vev(Q)              
         4     3.40660861E+06   # MA^2(Q)             
#
BLOCK GAUGE Q=  9.11876000E+01  # The gauge couplings
     1     3.52784249E-01   # gprime(Q) DRbar
     2     6.27184083E-01   # g(Q) DRbar
     3     1.08126691E+00   # g3(Q) DRbar
#
BLOCK AU Q=  9.11876000E+01  # The trilinear couplings
  1  1     0.00000000E+00   # A_u(Q) DRbar
  2  2     0.00000000E+00   # A_c(Q) DRbar
  3  3     0.00000000E+00   # A_t(Q) DRbar
#
BLOCK AD Q=  9.11876000E+01  # The trilinear couplings
  1  1     0.00000000E+00   # A_d(Q) DRbar
  2  2     0.00000000E+00   # A_s(Q) DRbar
  3  3     0.00000000E+00   # A_b(Q) DRbar
#
BLOCK AE Q=  9.11876000E+01  # The trilinear couplings
  1  1     0.00000000E+00   # A_e(Q) DRbar
  2  2     0.00000000E+00   # A_mu(Q) DRbar
  3  3     0.00000000E+00   # A_tau(Q) DRbar
#
BLOCK Yu Q=  9.11876000E+01  # The Yukawa couplings
  1  1     0.00000000E+00   # y_u(Q) DRbar
  2  2     0.00000000E+00   # y_c(Q) DRbar
  3  3     1.02558067E+00   # y_t(Q) DRbar
#
BLOCK Yd Q=  9.11876000E+01  # The Yukawa couplings
  1  1     0.00000000E+00   # y_d(Q) DRbar
  2  2     0.00000000E+00   # y_s(Q) DRbar
  3  3     2.71730190E-02   # y_b(Q) DRbar
#
BLOCK Ye Q=  9.11876000E+01  # The Yukawa couplings
  1  1     0.00000000E+00   # y_e(Q) DRbar
  2  2     0.00000000E+00   # y_mu(Q) DRbar
  3  3     1.79803336E-02   # y_tau(Q) DRbar
#
BLOCK MSOFT Q=  9.11876000E+01  # The soft SUSY breaking masses at the scale Q
         1     1.24900000E+03   # M_1                 
         2     3.00000000E+03   # M_2                 
         3     1.90000000E+03   # M_3                 
        14     0.00000000E+00   # A_u                 
        15     0.00000000E+00   # A_d                 
        16     0.00000000E+00   # A_e                 
        21     1.29757054E+06   # M^2_Hd              
        22    -6.86996056E+06   # M^2_Hu              
        31     5.00000000E+03   # M_eL                
        32     5.00000000E+03   # M_muL               
        33     5.00000000E+03   # M_tauL              
        34     5.00000000E+03   # M_eR                
        35     5.00000000E+03   # M_muR               
        36     5.00000000E+03   # M_tauR              
        41     5.00000000E+03   # M_q1L               
        42     5.00000000E+03   # M_q2L               
        43     5.00000000E+03   # M_q3L               
        44     5.00000000E+03   # M_uR                
        45     5.00000000E+03   # M_cR                
        46     5.00000000E+03   # M_tR                
        47     5.00000000E+03   # M_dR                
        48     5.00000000E+03   # M_sR                
        49     5.00000000E+03   # M_bR                
#
#
#
#                             =================
#                             |The decay table|
#                             =================
#
# - The QCD corrections to the decays gluino -> squark  + quark
#                                     squark -> gaugino + quark_prime
#                                     squark -> squark_prime + Higgs
#                                     squark -> gluino  + quark
#   are included.
#
# - The multi-body decays for the inos, stops and sbottoms are included.
#
# - The loop induced decays for the gluino, neutralinos and stops
#   are included.
#
# - The SUSY decays of the top quark are included.
#
# - Possible decays of the NLSP in GMSB models are included.
#
#
#         PDG            Width
DECAY         6     1.37052691E+00   # top decays
#          BR         NDA      ID1       ID2
     1.00000000E+00    2           5        24   # BR(t ->  b    W+)
#
#         PDG            Width
DECAY   1000021     1.19217956E-04   # gluino decays
#          BR         NDA      ID1       ID2
     2.22298013E-02    2     1000022        21   # BR(~g -> ~chi_10 g)
     3.89403925E-02    2     1000023        21   # BR(~g -> ~chi_20 g)
     1.71162418E-02    2     1000025        21   # BR(~g -> ~chi_30 g)
#          BR         NDA      ID1       ID2
0.0E+00    2     1000039    21 # BR(~g -> ~G      g)
#           BR         NDA      ID1       ID2       ID3
     6.99201943E-03    3     1000022         1        -1   # BR(~g -> ~chi_10 d  db)
     3.30942362E-07    3     1000023         1        -1   # BR(~g -> ~chi_20 d  db)
     3.06009122E-03    3     1000025         1        -1   # BR(~g -> ~chi_30 d  db)
     2.12036734E-02    3     1000022         2        -2   # BR(~g -> ~chi_10 u  ub)
     2.58232766E-07    3     1000023         2        -2   # BR(~g -> ~chi_20 u  ub)
     1.17480901E-02    3     1000025         2        -2   # BR(~g -> ~chi_30 u  ub)
     6.99201943E-03    3     1000022         3        -3   # BR(~g -> ~chi_10 s  sb)
     3.30942362E-07    3     1000023         3        -3   # BR(~g -> ~chi_20 s  sb)
     3.06009122E-03    3     1000025         3        -3   # BR(~g -> ~chi_30 s  sb)
     2.12036734E-02    3     1000022         4        -4   # BR(~g -> ~chi_10 c  cb)
     2.58232766E-07    3     1000023         4        -4   # BR(~g -> ~chi_20 c  cb)
     1.17480901E-02    3     1000025         4        -4   # BR(~g -> ~chi_30 c  cb)
     7.06785593E-03    3     1000022         5        -5   # BR(~g -> ~chi_10 b  bb)
     1.96287846E-04    3     1000023         5        -5   # BR(~g -> ~chi_20 b  bb)
     3.16265480E-03    3     1000025         5        -5   # BR(~g -> ~chi_30 b  bb)
     7.06677668E-02    3     1000022         6        -6   # BR(~g -> ~chi_10 t  tb)
     7.92833116E-02    3     1000023         6        -6   # BR(~g -> ~chi_20 t  tb)
     5.37906746E-02    3     1000025         6        -6   # BR(~g -> ~chi_30 t  tb)
     1.96266088E-04    3     1000024         1        -2   # BR(~g -> ~chi_1+ d  ub)
     1.96266088E-04    3    -1000024         2        -1   # BR(~g -> ~chi_1- u  db)
     1.96266088E-04    3     1000024         3        -4   # BR(~g -> ~chi_1+ s  cb)
     1.96266088E-04    3    -1000024         4        -3   # BR(~g -> ~chi_1- c  sb)
     1.65487118E-01    3     1000024         5        -6   # BR(~g -> ~chi_1+ b  tb)
     1.65487118E-01    3    -1000024         6        -5   # BR(~g -> ~chi_1- t  bb)
#
#         PDG            Width
DECAY   1000006     2.81176305E+02   # stop1 decays
#          BR         NDA      ID1       ID2
     5.37459359E-02    2     1000022         6   # BR(~t_1 -> ~chi_10 t )
     1.12196346E-01    2     1000023         6   # BR(~t_1 -> ~chi_20 t )
     6.03628417E-02    2     1000025         6   # BR(~t_1 -> ~chi_30 t )
     2.65435427E-02    2     1000035         6   # BR(~t_1 -> ~chi_40 t )
    -3.94545362E-05    2     1000024         5   # BR(~t_1 -> ~chi_1+ b )
     5.26938281E-02    2     1000037         5   # BR(~t_1 -> ~chi_2+ b )
     6.80554751E-01    2     1000021         6   # BR(~t_1 -> ~g      t )
     6.38715835E-03    2     1000005        24   # BR(~t_1 -> ~b_1    W+)
     7.55505094E-03    2     2000005        24   # BR(~t_1 -> ~b_2    W+)
#
#         PDG            Width
DECAY   2000006     3.54212160E+02   # stop2 decays
#          BR         NDA      ID1       ID2
     6.16794267E-02    2     1000022         6   # BR(~t_2 -> ~chi_10 t )
     9.64002626E-02    2     1000023         6   # BR(~t_2 -> ~chi_20 t )
     6.28590689E-02    2     1000025         6   # BR(~t_2 -> ~chi_30 t )
     7.98059221E-06    2     1000035         6   # BR(~t_2 -> ~chi_40 t )
     1.93136111E-01    2     1000024         5   # BR(~t_2 -> ~chi_1+ b )
     1.67995359E-05    2     1000037         5   # BR(~t_2 -> ~chi_2+ b )
     5.85982627E-01    2     1000021         6   # BR(~t_2 -> ~g      t )
    -9.00554372E-05    2     1000006        25   # BR(~t_2 -> ~t_1    h )
     9.13781420E-07    2     1000006        23   # BR(~t_2 -> ~t_1    Z )
     3.08754844E-06    2     1000005        24   # BR(~t_2 -> ~b_1    W+)
     3.77800232E-06    2     2000005        24   # BR(~t_2 -> ~b_2    W+)
#
#         PDG            Width
DECAY   1000005     2.20227426E+02   # sbottom1 decays
#          BR         NDA      ID1       ID2
     4.83776682E-03    2     1000022         5   # BR(~b_1 -> ~chi_10 b )
     8.46538185E-05    2     1000023         5   # BR(~b_1 -> ~chi_20 b )
     2.52488640E-03    2     1000025         5   # BR(~b_1 -> ~chi_30 b )
     1.27621846E-02    2     1000035         5   # BR(~b_1 -> ~chi_40 b )
     1.12148723E-01    2    -1000024         6   # BR(~b_1 -> ~chi_1- t )
     2.57138932E-02    2    -1000037         6   # BR(~b_1 -> ~chi_2- t )
     8.41927892E-01    2     1000021         5   # BR(~b_1 -> ~g      b )
#
#         PDG            Width
DECAY   2000005     2.35052282E+02   # sbottom2 decays
#          BR         NDA      ID1       ID2
     2.46537063E-03    2     1000022         5   # BR(~b_2 -> ~chi_10 b )
     1.06105821E-04    2     1000023         5   # BR(~b_2 -> ~chi_20 b )
     2.98477401E-03    2     1000025         5   # BR(~b_2 -> ~chi_30 b )
     1.68967440E-02    2     1000035         5   # BR(~b_2 -> ~chi_40 b )
     1.55122951E-01    2    -1000024         6   # BR(~b_2 -> ~chi_1- t )
     3.40529512E-02    2    -1000037         6   # BR(~b_2 -> ~chi_2- t )
     7.88371104E-01    2     1000021         5   # BR(~b_2 -> ~g      b )
#
#         PDG            Width
DECAY   1000002     2.06347745E+02   # sup_L decays
#          BR         NDA      ID1       ID2
     8.82243691E-04    2     1000022         2   # BR(~u_L -> ~chi_10 u)
     6.40882086E-07    2     1000023         2   # BR(~u_L -> ~chi_20 u)
     2.02745270E-03    2     1000025         2   # BR(~u_L -> ~chi_30 u)
     3.28346480E-02    2     1000035         2   # BR(~u_L -> ~chi_40 u)
     3.38865353E-04    2     1000024         1   # BR(~u_L -> ~chi_1+ d)
     6.56760170E-02    2     1000037         1   # BR(~u_L -> ~chi_2+ d)
     8.98240132E-01    2     1000021         2   # BR(~u_L -> ~g      u)
#
#         PDG            Width
DECAY   2000002     1.94419526E+02   # sup_R decays
#          BR         NDA      ID1       ID2
     2.43887572E-02    2     1000022         2   # BR(~u_R -> ~chi_10 u)
     5.02932624E-07    2     1000023         2   # BR(~u_R -> ~chi_20 u)
     2.22412229E-02    2     1000025         2   # BR(~u_R -> ~chi_30 u)
     2.20771411E-08    2     1000035         2   # BR(~u_R -> ~chi_40 u)
     9.53369495E-01    2     1000021         2   # BR(~u_R -> ~g      u)
#
#         PDG            Width
DECAY   1000001     2.06354305E+02   # sdown_L decays
#          BR         NDA      ID1       ID2
     2.12443576E-03    2     1000022         1   # BR(~d_L -> ~chi_10 d)
     1.31046437E-06    2     1000023         1   # BR(~d_L -> ~chi_20 d)
     7.48175711E-04    2     1000025         1   # BR(~d_L -> ~chi_30 d)
     3.28656683E-02    2     1000035         1   # BR(~d_L -> ~chi_40 d)
     2.45269635E-04    2    -1000024         2   # BR(~d_L -> ~chi_1- u)
     6.57252409E-02    2    -1000037         2   # BR(~d_L -> ~chi_2- u)
     8.98289899E-01    2     1000021         1   # BR(~d_L -> ~g      d)
#
#         PDG            Width
DECAY   2000001     1.87625276E+02   # sdown_R decays
#          BR         NDA      ID1       ID2
     6.31810812E-03    2     1000022         1   # BR(~d_R -> ~chi_10 d)
     1.30288881E-07    2     1000023         1   # BR(~d_R -> ~chi_20 d)
     5.76177563E-03    2     1000025         1   # BR(~d_R -> ~chi_30 d)
     5.71947488E-09    2     1000035         1   # BR(~d_R -> ~chi_40 d)
     9.87919980E-01    2     1000021         1   # BR(~d_R -> ~g      d)
#
#         PDG            Width
DECAY   1000004     2.06347745E+02   # scharm_L decays
#          BR         NDA      ID1       ID2
     8.82243691E-04    2     1000022         4   # BR(~c_L -> ~chi_10 c)
     6.40882086E-07    2     1000023         4   # BR(~c_L -> ~chi_20 c)
     2.02745270E-03    2     1000025         4   # BR(~c_L -> ~chi_30 c)
     3.28346480E-02    2     1000035         4   # BR(~c_L -> ~chi_40 c)
     3.38865353E-04    2     1000024         3   # BR(~c_L -> ~chi_1+ s)
     6.56760170E-02    2     1000037         3   # BR(~c_L -> ~chi_2+ s)
     8.98240132E-01    2     1000021         4   # BR(~c_L -> ~g      c)
#
#         PDG            Width
DECAY   2000004     1.94419526E+02   # scharm_R decays
#          BR         NDA      ID1       ID2
     2.43887572E-02    2     1000022         4   # BR(~c_R -> ~chi_10 c)
     5.02932624E-07    2     1000023         4   # BR(~c_R -> ~chi_20 c)
     2.22412229E-02    2     1000025         4   # BR(~c_R -> ~chi_30 c)
     2.20771411E-08    2     1000035         4   # BR(~c_R -> ~chi_40 c)
     9.53369495E-01    2     1000021         4   # BR(~c_R -> ~g      c)
#
#         PDG            Width
DECAY   1000003     2.06354305E+02   # sstrange_L decays
#          BR         NDA      ID1       ID2
     2.12443576E-03    2     1000022         3   # BR(~s_L -> ~chi_10 s)
     1.31046437E-06    2     1000023         3   # BR(~s_L -> ~chi_20 s)
     7.48175711E-04    2     1000025         3   # BR(~s_L -> ~chi_30 s)
     3.28656683E-02    2     1000035         3   # BR(~s_L -> ~chi_40 s)
     2.45269635E-04    2    -1000024         4   # BR(~s_L -> ~chi_1- c)
     6.57252409E-02    2    -1000037         4   # BR(~s_L -> ~chi_2- c)
     8.98289899E-01    2     1000021         3   # BR(~s_L -> ~g      s)
#
#         PDG            Width
DECAY   2000003     1.87625276E+02   # sstrange_R decays
#          BR         NDA      ID1       ID2
     6.31810812E-03    2     1000022         3   # BR(~s_R -> ~chi_10 s)
     1.30288881E-07    2     1000023         3   # BR(~s_R -> ~chi_20 s)
     5.76177563E-03    2     1000025         3   # BR(~s_R -> ~chi_30 s)
     5.71947488E-09    2     1000035         3   # BR(~s_R -> ~chi_40 s)
     9.87919980E-01    2     1000021         3   # BR(~s_R -> ~g      s)
#
#         PDG            Width
DECAY   1000011     2.71397758E+01   # selectron_L decays
#          BR         NDA      ID1       ID2
     8.87726672E-02    2     1000022        11   # BR(~e_L -> ~chi_10 e-)
     1.66153497E-06    2     1000023        11   # BR(~e_L -> ~chi_20 e-)
     1.09984654E-01    2     1000025        11   # BR(~e_L -> ~chi_30 e-)
     2.66161940E-01    2     1000035        11   # BR(~e_L -> ~chi_40 e-)
     1.95661795E-03    2    -1000024        12   # BR(~e_L -> ~chi_1- nu_e)
     5.33122459E-01    2    -1000037        12   # BR(~e_L -> ~chi_2- nu_e)
#
#         PDG            Width
DECAY   2000011     2.14025117E+01   # selectron_R decays
#          BR         NDA      ID1       ID2
     5.22942134E-01    2     1000022        11   # BR(~e_R -> ~chi_10 e-)
     1.07857117E-05    2     1000023        11   # BR(~e_R -> ~chi_20 e-)
     4.77046599E-01    2     1000025        11   # BR(~e_R -> ~chi_30 e-)
     4.81444165E-07    2     1000035        11   # BR(~e_R -> ~chi_40 e-)
#
#         PDG            Width
DECAY   1000013     2.71397758E+01   # smuon_L decays
#          BR         NDA      ID1       ID2
     8.87726672E-02    2     1000022        13   # BR(~mu_L -> ~chi_10 mu-)
     1.66153497E-06    2     1000023        13   # BR(~mu_L -> ~chi_20 mu-)
     1.09984654E-01    2     1000025        13   # BR(~mu_L -> ~chi_30 mu-)
     2.66161940E-01    2     1000035        13   # BR(~mu_L -> ~chi_40 mu-)
     1.95661795E-03    2    -1000024        14   # BR(~mu_L -> ~chi_1- nu_mu)
     5.33122459E-01    2    -1000037        14   # BR(~mu_L -> ~chi_2- nu_mu)
#
#         PDG            Width
DECAY   2000013     2.14025117E+01   # smuon_R decays
#          BR         NDA      ID1       ID2
     5.22942134E-01    2     1000022        13   # BR(~mu_R -> ~chi_10 mu-)
     1.07857117E-05    2     1000023        13   # BR(~mu_R -> ~chi_20 mu-)
     4.77046599E-01    2     1000025        13   # BR(~mu_R -> ~chi_30 mu-)
     4.81444165E-07    2     1000035        13   # BR(~mu_R -> ~chi_40 mu-)
#
#         PDG            Width
DECAY   1000015     2.43242397E+01   # stau_1 decays
#          BR         NDA      ID1       ID2
     2.87618286E-01    2     1000022        15   # BR(~tau_1 -> ~chi_10  tau-)
     4.70105610E-04    2     1000023        15   # BR(~tau_1 -> ~chi_20  tau-)
     2.67834091E-01    2     1000025        15   # BR(~tau_1 -> ~chi_30  tau-)
     1.46751261E-01    2     1000035        15   # BR(~tau_1 -> ~chi_40  tau-)
     3.23439902E-03    2    -1000024        16   # BR(~tau_1 -> ~chi_1-  nu_tau)
     2.93943985E-01    2    -1000037        16   # BR(~tau_1 -> ~chi_2-  nu_tau)
     1.47872304E-04    2     1000039        15   # BR(~tau_1 -> ~G       tau-)
#
#         PDG            Width
DECAY   2000015     2.43049178E+01   # stau_2 decays
#          BR         NDA      ID1       ID2
     2.72330389E-01    2     1000022        15   # BR(~tau_2 -> ~chi_10  tau-)
     6.82627458E-04    2     1000023        15   # BR(~tau_2 -> ~chi_20  tau-)
     2.75430098E-01    2     1000025        15   # BR(~tau_2 -> ~chi_30  tau-)
     1.50340116E-01    2     1000035        15   # BR(~tau_2 -> ~chi_40  tau-)
     8.88336221E-05    2    -1000024        16   # BR(~tau_2 -> ~chi_1-  nu_tau)
     3.01127936E-01    2    -1000037        16   # BR(~tau_2 -> ~chi_2-  nu_tau)
#
#         PDG            Width
DECAY   1000012     2.71405739E+01   # snu_eL decays
#          BR         NDA      ID1       ID2
     1.18484895E-01    2     1000022        12   # BR(~nu_eL -> ~chi_10 nu_e)
     1.76841944E-05    2     1000023        12   # BR(~nu_eL -> ~chi_20 nu_e)
     7.93547995E-02    2     1000025        12   # BR(~nu_eL -> ~chi_30 nu_e)
     2.66744408E-01    2     1000035        12   # BR(~nu_eL -> ~chi_40 nu_e)
     2.70311185E-03    2     1000024        11   # BR(~nu_eL -> ~chi_1+ e-)
     5.32695101E-01    2     1000037        11   # BR(~nu_eL -> ~chi_2+ e-)
#
#         PDG            Width
DECAY   1000014     2.71405739E+01   # snu_muL decays
#          BR         NDA      ID1       ID2
     1.18484895E-01    2     1000022        14   # BR(~nu_muL -> ~chi_10 nu_mu)
     1.76841944E-05    2     1000023        14   # BR(~nu_muL -> ~chi_20 nu_mu)
     7.93547995E-02    2     1000025        14   # BR(~nu_muL -> ~chi_30 nu_mu)
     2.66744408E-01    2     1000035        14   # BR(~nu_muL -> ~chi_40 nu_mu)
     2.70311185E-03    2     1000024        13   # BR(~nu_muL -> ~chi_1+ mu-)
     5.32695101E-01    2     1000037        13   # BR(~nu_muL -> ~chi_2+ mu-)
#
#         PDG            Width
DECAY   1000016     2.71683246E+01   # snu_tauL decays
#          BR         NDA      ID1       ID2
     1.18363871E-01    2     1000022        16   # BR(~nu_tauL -> ~chi_10 nu_tau)
     1.76661311E-05    2     1000023        16   # BR(~nu_tauL -> ~chi_20 nu_tau)
     7.92737437E-02    2     1000025        16   # BR(~nu_tauL -> ~chi_30 nu_tau)
     2.66471945E-01    2     1000035        16   # BR(~nu_tauL -> ~chi_40 nu_tau)
     3.72057687E-03    2     1000024        15   # BR(~nu_tauL -> ~chi_1+ tau-)
     5.32152197E-01    2     1000037        15   # BR(~nu_tauL -> ~chi_2+ tau-)
#
#         PDG            Width
DECAY   1000024     1.21052689E-04   # chargino1+ decays
#          BR         NDA      ID1       ID2
     1.94030419E-02    2     1000039        24   # BR(~chi_1+ -> ~G       W+)
#           BR         NDA      ID1       ID2       ID3
     3.27142133E-01    3     1000022         2        -1   # BR(~chi_1+ -> ~chi_10 u    db)
     3.27142133E-01    3     1000022         4        -3   # BR(~chi_1+ -> ~chi_10 c    sb)
     1.09047503E-01    3     1000022       -11        12   # BR(~chi_1+ -> ~chi_10 e+   nu_e)
     1.09047503E-01    3     1000022       -13        14   # BR(~chi_1+ -> ~chi_10 mu+  nu_mu)
     1.08217686E-01    3     1000022       -15        16   # BR(~chi_1+ -> ~chi_10 tau+ nu_tau)
#
#         PDG            Width
DECAY   1000037     3.84117165E+01   # chargino2+ decays
#          BR         NDA      ID1       ID2
     2.53101813E-01    2     1000024        23   # BR(~chi_2+ -> ~chi_1+  Z )
     1.12098435E-01    2     1000022        24   # BR(~chi_2+ -> ~chi_10  W+)
     2.46283672E-01    2     1000023        24   # BR(~chi_2+ -> ~chi_20  W+)
     1.34625236E-01    2     1000025        24   # BR(~chi_2+ -> ~chi_30  W+)
     2.53881895E-01    2     1000024        25   # BR(~chi_2+ -> ~chi_1+  h )
     8.94855263E-06    2     1000039        24   # BR(~chi_2+ -> ~G       W+)
     9.59152034E-10    2     1000039        37   # BR(~chi_2+ -> ~G       H+)
#
#         PDG            Width
DECAY   1000022    1.0E-05    # neutralino1 decays
#          BR         NDA      ID1       ID2
     5.00522034E-01    2     1000039        22   # BR(~chi_10 -> ~G        gam)
     4.88311720E-01    2     1000039        23   # BR(~chi_10 -> ~G        Z)
     1.11662465E-02    2     1000039        25   # BR(~chi_10 -> ~G        h)
#
#         PDG            Width
DECAY   1000023     1.40252020E-04   # neutralino2 decays
#          BR         NDA      ID1       ID2
     8.36802017E-04    2     1000022        22   # BR(~chi_20 -> ~chi_10 gam)
#          BR         NDA      ID1       ID2
     4.59774260E-08    2     1000039        22   # BR(~chi_20 -> ~G        gam)
     6.49924889E-04    2     1000039        23   # BR(~chi_20 -> ~G        Z)
     1.59437321E-02    2     1000039        25   # BR(~chi_20 -> ~G        h)
#           BR         NDA      ID1       ID2       ID3
     1.16599459E-01    3     1000022        -2         2   # BR(~chi_20 -> ~chi_10 ub      u)
     1.50975716E-01    3     1000022        -1         1   # BR(~chi_20 -> ~chi_10 db      d)
     1.16599459E-01    3     1000022        -4         4   # BR(~chi_20 -> ~chi_10 cb      c)
     1.50975716E-01    3     1000022        -3         3   # BR(~chi_20 -> ~chi_10 sb      s)
     1.37751259E-01    3     1000022        -5         5   # BR(~chi_20 -> ~chi_10 bb      b)
     3.44789404E-02    3     1000022       -11        11   # BR(~chi_20 -> ~chi_10 e+      e-)
     3.44789404E-02    3     1000022       -13        13   # BR(~chi_20 -> ~chi_10 mu+     mu-)
     3.41371962E-02    3     1000022       -15        15   # BR(~chi_20 -> ~chi_10 tau+    tau-)
     6.88554920E-02    3     1000022       -12        12   # BR(~chi_20 -> ~chi_10 nu_eb   nu_e)
     6.88554920E-02    3     1000022       -14        14   # BR(~chi_20 -> ~chi_10 nu_mub  nu_mu)
     6.88554920E-02    3     1000022       -16        16   # BR(~chi_20 -> ~chi_10 nu_taub nu_tau)
     1.15119270E-06    3     1000024        -2         1   # BR(~chi_20 -> ~chi_1+ ub      d)
     1.15119270E-06    3    -1000024        -1         2   # BR(~chi_20 -> ~chi_1- db      u)
     1.15119270E-06    3     1000024        -4         3   # BR(~chi_20 -> ~chi_1+ cb      s)
     1.15119270E-06    3    -1000024        -3         4   # BR(~chi_20 -> ~chi_1- sb      c)
     3.83730923E-07    3     1000024       -12        11   # BR(~chi_20 -> ~chi_1+ nu_eb   e-)
     3.83730923E-07    3    -1000024        12       -11   # BR(~chi_20 -> ~chi_1- nu_e    e+)
     3.83730923E-07    3     1000024       -14        13   # BR(~chi_20 -> ~chi_1+ nu_mub  mu-)
     3.83730923E-07    3    -1000024        14       -13   # BR(~chi_20 -> ~chi_1- nu_mu   mu+)
     9.68877822E-08    3     1000024       -16        15   # BR(~chi_20 -> ~chi_1+ nu_taub tau-)
     9.68877822E-08    3    -1000024        16       -15   # BR(~chi_20 -> ~chi_1- nu_tau  tau+)
#
#         PDG            Width
DECAY   1000025     2.19111835E-04   # neutralino3 decays
#          BR         NDA      ID1       ID2
     3.82995031E-04    2     1000022        22   # BR(~chi_30 -> ~chi_10 gam)
     8.75565796E-06    2     1000023        22   # BR(~chi_30 -> ~chi_20 gam)
#          BR         NDA      ID1       ID2
     9.77130094E-03    2     1000039        22   # BR(~chi_30 -> ~G        gam)
     8.63556843E-03    2     1000039        23   # BR(~chi_30 -> ~G        Z)
     2.45338420E-04    2     1000039        25   # BR(~chi_30 -> ~G        h)
#           BR         NDA      ID1       ID2       ID3
     1.04841099E-05    3     1000022        -2         2   # BR(~chi_30 -> ~chi_10 ub      u)
     1.24373386E-05    3     1000022        -1         1   # BR(~chi_30 -> ~chi_10 db      d)
     1.04841099E-05    3     1000022        -4         4   # BR(~chi_30 -> ~chi_10 cb      c)
     1.24373386E-05    3     1000022        -3         3   # BR(~chi_30 -> ~chi_10 sb      s)
     2.36559202E-05    3     1000022        -5         5   # BR(~chi_30 -> ~chi_10 bb      b)
     2.16194491E-06    3     1000022       -11        11   # BR(~chi_30 -> ~chi_10 e+      e-)
     2.16194491E-06    3     1000022       -13        13   # BR(~chi_30 -> ~chi_10 mu+     mu-)
     3.88332918E-06    3     1000022       -15        15   # BR(~chi_30 -> ~chi_10 tau+    tau-)
     6.09282073E-06    3     1000022       -12        12   # BR(~chi_30 -> ~chi_10 nu_eb   nu_e)
     6.09282073E-06    3     1000022       -14        14   # BR(~chi_30 -> ~chi_10 nu_mub  nu_mu)
     6.09282073E-06    3     1000022       -16        16   # BR(~chi_30 -> ~chi_10 nu_taub nu_tau)
     2.38766628E-02    3     1000023        -2         2   # BR(~chi_30 -> ~chi_20 ub      u)
     3.09161071E-02    3     1000023        -1         1   # BR(~chi_30 -> ~chi_20 db      d)
     2.38766628E-02    3     1000023        -4         4   # BR(~chi_30 -> ~chi_20 cb      c)
     3.09161071E-02    3     1000023        -3         3   # BR(~chi_30 -> ~chi_20 sb      s)
     2.68182504E-02    3     1000023        -5         5   # BR(~chi_30 -> ~chi_20 bb      b)
     7.06045209E-03    3     1000023       -11        11   # BR(~chi_30 -> ~chi_20 e+      e-)
     7.06045209E-03    3     1000023       -13        13   # BR(~chi_30 -> ~chi_20 mu+     mu-)
     6.96184656E-03    3     1000023       -15        15   # BR(~chi_30 -> ~chi_20 tau+    tau-)
     1.40998516E-02    3     1000023       -12        12   # BR(~chi_30 -> ~chi_20 nu_eb   nu_e)
     1.40998516E-02    3     1000023       -14        14   # BR(~chi_30 -> ~chi_20 nu_mub  nu_mu)
     1.40998516E-02    3     1000023       -16        16   # BR(~chi_30 -> ~chi_20 nu_taub nu_tau)
     1.30307163E-01    3     1000024        -2         1   # BR(~chi_30 -> ~chi_1+ ub      d)
     1.30307163E-01    3    -1000024        -1         2   # BR(~chi_30 -> ~chi_1- db      u)
     1.30307163E-01    3     1000024        -4         3   # BR(~chi_30 -> ~chi_1+ cb      s)
     1.30307163E-01    3    -1000024        -3         4   # BR(~chi_30 -> ~chi_1- sb      c)
     4.34356574E-02    3     1000024       -12        11   # BR(~chi_30 -> ~chi_1+ nu_eb   e-)
     4.34356574E-02    3    -1000024        12       -11   # BR(~chi_30 -> ~chi_1- nu_e    e+)
     4.34356574E-02    3     1000024       -14        13   # BR(~chi_30 -> ~chi_1+ nu_mub  mu-)
     4.34356574E-02    3    -1000024        14       -13   # BR(~chi_30 -> ~chi_1- nu_mu   mu+)
     4.30513395E-02    3     1000024       -16        15   # BR(~chi_30 -> ~chi_1+ nu_taub tau-)
     4.30513395E-02    3    -1000024        16       -15   # BR(~chi_30 -> ~chi_1- nu_tau  tau+)
#
#         PDG            Width
DECAY   1000035     3.84119718E+01   # neutralino4 decays
#          BR         NDA      ID1       ID2
     7.54030784E-04    2     1000022        23   # BR(~chi_40 -> ~chi_10   Z )
     2.51373746E-01    2     1000023        23   # BR(~chi_40 -> ~chi_20   Z )
     8.75905747E-04    2     1000025        23   # BR(~chi_40 -> ~chi_30   Z )
     2.46375089E-01    2     1000024       -24   # BR(~chi_40 -> ~chi_1+   W-)
     2.46375089E-01    2    -1000024        24   # BR(~chi_40 -> ~chi_1-   W+)
     1.14764935E-01    2     1000022        25   # BR(~chi_40 -> ~chi_10   h )
     1.60425981E-03    2     1000023        25   # BR(~chi_40 -> ~chi_20   h )
     1.37867996E-01    2     1000025        25   # BR(~chi_40 -> ~chi_30   h )
     2.14600488E-06    2     1000039        22   # BR(~chi_40 -> ~G        gam)
     6.80161453E-06    2     1000039        23   # BR(~chi_40 -> ~G        Z)
     6.18635939E-10    2     1000039        25   # BR(~chi_40 -> ~G        h)
     9.40926483E-10    2     1000039        35   # BR(~chi_40 -> ~G        H)
     1.39984827E-11    2     1000039        36   # BR(~chi_40 -> ~G        A)
#
#         PDG            Width
DECAY        25     4.21984098E-03   # h decays
#          BR         NDA      ID1       ID2
     6.02014834E-01    2           5        -5   # BR(h -> b       bb     )
     6.22176636E-02    2         -15        15   # BR(h -> tau+    tau-   )
     2.20223404E-04    2         -13        13   # BR(h -> mu+     mu-    )
     4.65950044E-04    2           3        -3   # BR(h -> s       sb     )
     2.01016684E-02    2           4        -4   # BR(h -> c       cb     )
     6.63856832E-02    2          21        21   # BR(h -> g       g      )
     2.30647822E-03    2          22        22   # BR(h -> gam     gam    )
     1.62606157E-03    2          22        23   # BR(h -> Z       gam    )
     2.16590350E-01    2          24       -24   # BR(h -> W+      W-     )
     2.80710871E-02    2          23        23   # BR(h -> Z       Z      )
#
#         PDG            Width
DECAY        35     3.78108981E+01   # H decays
#          BR         NDA      ID1       ID2
     1.46968670E-03    2           5        -5   # BR(H -> b       bb     )
     2.46423088E-04    2         -15        15   # BR(H -> tau+    tau-   )
     8.71197359E-07    2         -13        13   # BR(H -> mu+     mu-    )
     1.11544963E-06    2           3        -3   # BR(H -> s       sb     )
     1.00667972E-05    2           4        -4   # BR(H -> c       cb     )
     9.96063445E-01    2           6        -6   # BR(H -> t       tb     )
     7.97753966E-04    2          21        21   # BR(H -> g       g      )
     2.71238030E-06    2          22        22   # BR(H -> gam     gam    )
     1.15998617E-06    2          23        22   # BR(H -> Z       gam    )
     3.35863660E-04    2          24       -24   # BR(H -> W+      W-     )
     1.67473794E-04    2          23        23   # BR(H -> Z       Z      )
     9.03428147E-04    2          25        25   # BR(H -> h       h      )
     7.49060675E-24    2          36        36   # BR(H -> A       A      )
     3.01608663E-11    2          23        36   # BR(H -> Z       A      )
     6.99780690E-12    2          24       -37   # BR(H -> W+      H-     )
     6.99780690E-12    2         -24        37   # BR(H -> W-      H+     )
#
#         PDG            Width
DECAY        36     3.82382260E+01   # A decays
#          BR         NDA      ID1       ID2
     1.47262429E-03    2           5        -5   # BR(A -> b       bb     )
     2.43897727E-04    2         -15        15   # BR(A -> tau+    tau-   )
     8.62266571E-07    2         -13        13   # BR(A -> mu+     mu-    )
     1.13677399E-06    2           3        -3   # BR(A -> s       sb     )
     9.96176509E-06    2           4        -4   # BR(A -> c       cb     )
     9.96996018E-01    2           6        -6   # BR(A -> t       tb     )
     9.43675672E-04    2          21        21   # BR(A -> g       g      )
     3.17091353E-06    2          22        22   # BR(A -> gam     gam    )
     1.35257371E-06    2          23        22   # BR(A -> Z       gam    )
     3.27300162E-04    2          23        25   # BR(A -> Z       h      )
#
#         PDG            Width
DECAY        37     3.74472697E+01   # H+ decays
#          BR         NDA      ID1       ID2
     2.36126109E-06    2           4        -5   # BR(H+ -> c       bb     )
     2.49237369E-04    2         -15        16   # BR(H+ -> tau+    nu_tau )
     8.81144132E-07    2         -13        14   # BR(H+ -> mu+     nu_mu  )
     1.50121849E-08    2           2        -5   # BR(H+ -> u       bb     )
     5.45693788E-08    2           2        -3   # BR(H+ -> u       sb     )
     1.08731557E-05    2           4        -3   # BR(H+ -> c       sb     )
     9.99401132E-01    2           6        -5   # BR(H+ -> t       bb     )
     3.35445642E-04    2          24        25   # BR(H+ -> W+      h      )
     2.75935900E-13    2          24        36   # BR(H+ -> W+      A      )
