#
#                              ======================
#                              | THE SUSYHIT OUTPUT |
#                              ======================
#
#
#              ------------------------------------------------------
#              |     This is the output of the SUSY-HIT package     |
#              |  created by A.Djouadi, M.Muehlleitner and M.Spira. |
#              |  In case of problems with SUSY-HIT email to        |
#              |           margarete.muehlleitner@kit.edu           |
#              |           michael.spira@psi.ch                     |
#              |           abdelhak.djouadi@cern.ch                 |
#              ------------------------------------------------------
#
#              ------------------------------------------------------
#              |  SUSY Les Houches Accord - MSSM Spectrum + Decays  |
#              |              based on the decay programs           |
#              |                                                    |
#              |                     SDECAY 1.5                     |
#              |                                                    |
#              |  Authors: M.Muhlleitner, A.Djouadi and Y.Mambrini  |
#              |  Ref.:    Comput.Phys.Commun.168(2005)46           |
#              |           [hep-ph/0311167]                         |
#              |                                                    |
#              |                     HDECAY 3.4                     |
#              |                                                    |
#              |  By: A.Djouadi,J.Kalinowski,M.Muhlleitner,M.Spira  |
#              |  Ref.:    Comput.Phys.Commun.108(1998)56           |
#              |           [hep-ph/9704448]                         |
#              |                                                    |
#              |                                                    |
#              |  If not stated otherwise all DRbar couplings and   |
#              |  soft SUSY breaking masses are given at the scale  |
#              |  Q=  0.91187600E+02
#              |                                                    |
#              ------------------------------------------------------
#
#
BLOCK DCINFO  # Decay Program information
     1   SDECAY/HDECAY # decay calculator
     2   1.5  /3.4    # version number
#
BLOCK SPINFO  # Spectrum calculator information
     1   SuSpect     # RGE +Spectrum calculator            
     2   2.43         # version number                     
#
BLOCK MODSEL  # Model selection
     1     2   # GMSB                                              
#
BLOCK SMINPUTS  # Standard Model inputs
         1     1.27932904E+02   # alpha_em^-1(M_Z)^MSbar
         2     1.16639000E-05   # G_F [GeV^-2]
         3     1.17200000E-01   # alpha_S(M_Z)^MSbar
         4     9.11870000E+01   # M_Z pole mass
         5     4.25000000E+00   # mb(mb)^MSbar
         6     1.72900000E+02   # mt pole mass
         7     1.77700000E+00   # mtau pole mass
#
BLOCK MINPAR  # Input parameters - minimal models
#
BLOCK EXTPAR  # Input parameters - non-minimal models
         0     9.11876000E+01   # EWSB                
         1     2.03200000E+03   # M_1                 
         2     3.00000000E+03   # M_2                 
         3     2.40000000E+03   # M_3                 
        11     0.00000000E+00   # A_t                 
        12     0.00000000E+00   # A_b                 
        13     0.00000000E+00   # A_tau               
        14     0.00000000E+00   # A_u                 
        15     0.00000000E+00   # A_d                 
        16     0.00000000E+00   # A_e                 
        23     2.05000000E+03   # mu(EWSB)            
        25     1.50000000E+00   # tanbeta(in)         
        26     2.00000000E+03   # MA_pole             
        31     5.00000000E+03   # M_eL                
        32     5.00000000E+03   # M_muL               
        33     5.00000000E+03   # M_tauL              
        34     5.00000000E+03   # M_eR                
        35     5.00000000E+03   # M_muR               
        36     5.00000000E+03   # M_tauR              
        41     5.00000000E+03   # M_q1L               
        42     5.00000000E+03   # M_q2L               
        43     5.00000000E+03   # M_q3L               
        44     5.00000000E+03   # M_uR                
        45     5.00000000E+03   # M_cR                
        46     5.00000000E+03   # M_tR                
        47     5.00000000E+03   # M_dR                
        48     5.00000000E+03   # M_sR                
        49     5.00000000E+03   # M_bR                
#
BLOCK MASS  # Mass Spectrum
# PDG code           mass       particle
        24     8.05422133E+01   # W+
        25     1.26000000E+02   # h
        35     2.00398917E+03   # H
        36     2.00000000E+03   # A
        37     2.00152156E+03   # H+
         5     4.87877839E+00   # b-quark pole mass calculated from mb(mb)_Msbar
   1000001     4.89730074E+03   # ~d_L
   2000001     4.89719000E+03   # ~d_R
   1000002     4.89705310E+03   # ~u_L
   2000002     4.89711155E+03   # ~u_R
   1000003     4.89730074E+03   # ~s_L
   2000003     4.89719000E+03   # ~s_R
   1000004     4.89705310E+03   # ~c_L
   2000004     4.89711155E+03   # ~c_R
   1000005     4.89639412E+03   # ~b_1
   2000005     4.89809797E+03   # ~b_2
   1000006     5.00585318E+03   # ~t_1
   2000006     5.29514466E+03   # ~t_2
   1000011     5.00008214E+03   # ~e_L
   2000011     5.00007617E+03   # ~e_R
   1000012     4.99984169E+03   # ~nu_eL
   1000013     5.00008214E+03   # ~mu_L
   2000013     5.00007617E+03   # ~mu_R
   1000014     4.99984169E+03   # ~nu_muL
   1000015     4.99953245E+03   # ~tau_1
   2000015     5.00062644E+03   # ~tau_2
   1000016     4.99984169E+03   # ~nu_tauL
   1000021     2.41235790E+03   # ~g
   1000022     2.11693821E+03   # ~chi_10
   1000023    -2.17112064E+03   # ~chi_20
   1000025     2.20431212E+03   # ~chi_30
   1000035     3.12479297E+03   # ~chi_40
   1000024     2.16479970E+03   # ~chi_1+
   1000037     3.12478020E+03   # ~chi_2+
   1000039     1.00000000E-09   # ~gravitino
#
BLOCK NMIX  # Neutralino Mixing Matrix
  1  1     7.39765027E-01   # N_11
  1  2    -5.19096811E-02   # N_12
  1  3     4.75565529E-01   # N_13
  1  4    -4.73170706E-01   # N_14
  2  1     2.01743185E-03   # N_21
  2  2    -2.93258830E-03   # N_22
  2  3    -7.07050937E-01   # N_23
  2  4    -7.07153663E-01   # N_24
  3  1     6.72852177E-01   # N_31
  3  2     6.25398930E-02   # N_32
  3  3    -5.20435787E-01   # N_33
  3  4     5.22020403E-01   # N_34
  4  1     3.68542897E-03   # N_41
  4  2    -9.96687286E-01   # N_42
  4  3    -5.53443039E-02   # N_43
  4  4     5.94800717E-02   # N_44
#
BLOCK UMIX  # Chargino Mixing Matrix U
  1  1    -7.81091420E-02   # U_11
  1  2     9.96944814E-01   # U_12
  2  1     9.96944814E-01   # U_21
  2  2     7.81091420E-02   # U_22
#
BLOCK VMIX  # Chargino Mixing Matrix V
  1  1    -8.39529403E-02   # V_11
  1  2     9.96469720E-01   # V_12
  2  1     9.96469720E-01   # V_21
  2  2     8.39529403E-02   # V_22
#
BLOCK STOPMIX  # Stop Mixing Matrix
  1  1     9.99807919E-01   # cos(theta_t)
  1  2     1.95991098E-02   # sin(theta_t)
  2  1    -1.95991098E-02   # -sin(theta_t)
  2  2     9.99807919E-01   # cos(theta_t)
#
BLOCK SBOTMIX  # Sbottom Mixing Matrix
  1  1     6.83741303E-01   # cos(theta_b)
  1  2     7.29724489E-01   # sin(theta_b)
  2  1    -7.29724489E-01   # -sin(theta_b)
  2  2     6.83741303E-01   # cos(theta_b)
#
BLOCK STAUMIX  # Stau Mixing Matrix
  1  1     7.05174364E-01   # cos(theta_tau)
  1  2     7.09033932E-01   # sin(theta_tau)
  2  1    -7.09033932E-01   # -sin(theta_tau)
  2  2     7.05174364E-01   # cos(theta_tau)
#
BLOCK ALPHA  # Higgs mixing
          -5.90196177E-01   # Mixing angle in the neutral Higgs boson sector
#
BLOCK HMIX Q=  9.11876000E+01  # DRbar Higgs Parameters
         1     2.05000000E+03   # mu(Q)               
         2     1.49999979E+00   # tanbeta(Q)          
         3     2.52349479E+02   # vev(Q)              
         4     2.97681006E+06   # MA^2(Q)             
#
BLOCK GAUGE Q=  9.11876000E+01  # The gauge couplings
     1     3.52700942E-01   # gprime(Q) DRbar
     2     6.26656337E-01   # g(Q) DRbar
     3     1.07754676E+00   # g3(Q) DRbar
#
BLOCK AU Q=  9.11876000E+01  # The trilinear couplings
  1  1     0.00000000E+00   # A_u(Q) DRbar
  2  2     0.00000000E+00   # A_c(Q) DRbar
  3  3     0.00000000E+00   # A_t(Q) DRbar
#
BLOCK AD Q=  9.11876000E+01  # The trilinear couplings
  1  1     0.00000000E+00   # A_d(Q) DRbar
  2  2     0.00000000E+00   # A_s(Q) DRbar
  3  3     0.00000000E+00   # A_b(Q) DRbar
#
BLOCK AE Q=  9.11876000E+01  # The trilinear couplings
  1  1     0.00000000E+00   # A_e(Q) DRbar
  2  2     0.00000000E+00   # A_mu(Q) DRbar
  3  3     0.00000000E+00   # A_tau(Q) DRbar
#
BLOCK Yu Q=  9.11876000E+01  # The Yukawa couplings
  1  1     0.00000000E+00   # y_u(Q) DRbar
  2  2     0.00000000E+00   # y_c(Q) DRbar
  3  3     1.02463389E+00   # y_t(Q) DRbar
#
BLOCK Yd Q=  9.11876000E+01  # The Yukawa couplings
  1  1     0.00000000E+00   # y_d(Q) DRbar
  2  2     0.00000000E+00   # y_s(Q) DRbar
  3  3     2.71213435E-02   # y_b(Q) DRbar
#
BLOCK Ye Q=  9.11876000E+01  # The Yukawa couplings
  1  1     0.00000000E+00   # y_e(Q) DRbar
  2  2     0.00000000E+00   # y_mu(Q) DRbar
  3  3     1.79718309E-02   # y_tau(Q) DRbar
#
BLOCK MSOFT Q=  9.11876000E+01  # The soft SUSY breaking masses at the scale Q
         1     2.03200000E+03   # M_1                 
         2     3.00000000E+03   # M_2                 
         3     2.40000000E+03   # M_3                 
        14     0.00000000E+00   # A_u                 
        15     0.00000000E+00   # A_d                 
        16     0.00000000E+00   # A_e                 
        21    -1.65612377E+06   # M^2_Hd              
        22    -9.23022451E+06   # M^2_Hu              
        31     5.00000000E+03   # M_eL                
        32     5.00000000E+03   # M_muL               
        33     5.00000000E+03   # M_tauL              
        34     5.00000000E+03   # M_eR                
        35     5.00000000E+03   # M_muR               
        36     5.00000000E+03   # M_tauR              
        41     5.00000000E+03   # M_q1L               
        42     5.00000000E+03   # M_q2L               
        43     5.00000000E+03   # M_q3L               
        44     5.00000000E+03   # M_uR                
        45     5.00000000E+03   # M_cR                
        46     5.00000000E+03   # M_tR                
        47     5.00000000E+03   # M_dR                
        48     5.00000000E+03   # M_sR                
        49     5.00000000E+03   # M_bR                
#
#
#
#                             =================
#                             |The decay table|
#                             =================
#
# - The QCD corrections to the decays gluino -> squark  + quark
#                                     squark -> gaugino + quark_prime
#                                     squark -> squark_prime + Higgs
#                                     squark -> gluino  + quark
#   are included.
#
# - The multi-body decays for the inos, stops and sbottoms are included.
#
# - The loop induced decays for the gluino, neutralinos and stops
#   are included.
#
# - The SUSY decays of the top quark are included.
#
# - Possible decays of the NLSP in GMSB models are included.
#
#
#         PDG            Width
DECAY         6     1.36817048E+00   # top decays
#          BR         NDA      ID1       ID2
     1.00000000E+00    2           5        24   # BR(t ->  b    W+)
#
#         PDG            Width
DECAY   1000021     9.53181149E-05   # gluino decays
#          BR         NDA      ID1       ID2
     3.59526028E-03    2     1000022        21   # BR(~g -> ~chi_10 g)
     4.53789916E-03    2     1000023        21   # BR(~g -> ~chi_20 g)
     1.61615295E-03    2     1000025        21   # BR(~g -> ~chi_30 g)
#          BR         NDA      ID1       ID2
0.0E+00    2     1000039    21 # BR(~g -> ~G      g)
#           BR         NDA      ID1       ID2       ID3
     2.85745902E-04    3     1000022         1        -1   # BR(~g -> ~chi_10 d  db)
     3.71371043E-09    3     1000023         1        -1   # BR(~g -> ~chi_20 d  db)
     3.20455268E-05    3     1000025         1        -1   # BR(~g -> ~chi_30 d  db)
     7.95603364E-04    3     1000022         2        -2   # BR(~g -> ~chi_10 u  ub)
     2.83852608E-09    3     1000023         2        -2   # BR(~g -> ~chi_20 u  ub)
     1.37368935E-04    3     1000025         2        -2   # BR(~g -> ~chi_30 u  ub)
     2.85745902E-04    3     1000022         3        -3   # BR(~g -> ~chi_10 s  sb)
     3.71371043E-09    3     1000023         3        -3   # BR(~g -> ~chi_20 s  sb)
     3.20455268E-05    3     1000025         3        -3   # BR(~g -> ~chi_30 s  sb)
     7.95603364E-04    3     1000022         4        -4   # BR(~g -> ~chi_10 c  cb)
     2.83852608E-09    3     1000023         4        -4   # BR(~g -> ~chi_20 c  cb)
     1.37368935E-04    3     1000025         4        -4   # BR(~g -> ~chi_30 c  cb)
     2.85089076E-04    3     1000022         5        -5   # BR(~g -> ~chi_10 b  bb)
     3.59784355E-06    3     1000023         5        -5   # BR(~g -> ~chi_20 b  bb)
     3.36510597E-05    3     1000025         5        -5   # BR(~g -> ~chi_30 b  bb)
     1.42913967E-05    3     1000024         1        -2   # BR(~g -> ~chi_1+ d  ub)
     1.42913967E-05    3    -1000024         2        -1   # BR(~g -> ~chi_1- u  db)
     1.42913967E-05    3     1000024         3        -4   # BR(~g -> ~chi_1+ s  cb)
     1.42913967E-05    3    -1000024         4        -3   # BR(~g -> ~chi_1- c  sb)
     2.95587010E-04    3     1000024         5        -6   # BR(~g -> ~chi_1+ b  tb)
     2.95587010E-04    3    -1000024         6        -5   # BR(~g -> ~chi_1- t  bb)
#
#         PDG            Width
DECAY   1000006     2.27970113E+02   # stop1 decays
#          BR         NDA      ID1       ID2
     4.71692612E-02    2     1000022         6   # BR(~t_1 -> ~chi_10 t )
     1.03210654E-01    2     1000023         6   # BR(~t_1 -> ~chi_20 t )
     5.76546106E-02    2     1000025         6   # BR(~t_1 -> ~chi_30 t )
     3.16160800E-02    2     1000035         6   # BR(~t_1 -> ~chi_40 t )
     1.06969828E-04    2     1000024         5   # BR(~t_1 -> ~chi_1+ b )
     6.18591928E-02    2     1000037         5   # BR(~t_1 -> ~chi_2+ b )
     6.89397979E-01    2     1000021         6   # BR(~t_1 -> ~g      t )
     4.43382648E-03    2     1000005        24   # BR(~t_1 -> ~b_1    W+)
     4.55142585E-03    2     2000005        24   # BR(~t_1 -> ~b_2    W+)
#
#         PDG            Width
DECAY   2000006     2.88120943E+02   # stop2 decays
#          BR         NDA      ID1       ID2
     5.63011705E-02    2     1000022         6   # BR(~t_2 -> ~chi_10 t )
     9.15616048E-02    2     1000023         6   # BR(~t_2 -> ~chi_20 t )
     6.17904550E-02    2     1000025         6   # BR(~t_2 -> ~chi_30 t )
     2.21314720E-04    2     1000035         6   # BR(~t_2 -> ~chi_40 t )
     1.83171258E-01    2     1000024         5   # BR(~t_2 -> ~chi_1+ b )
     4.45836676E-04    2     1000037         5   # BR(~t_2 -> ~chi_2+ b )
     6.06061260E-01    2     1000021         6   # BR(~t_2 -> ~g      t )
    -4.60243091E-05    2     1000006        25   # BR(~t_2 -> ~t_1    h )
     7.29125583E-05    2     1000006        23   # BR(~t_2 -> ~t_1    Z )
     1.97862693E-04    2     1000005        24   # BR(~t_2 -> ~b_1    W+)
     2.22349372E-04    2     2000005        24   # BR(~t_2 -> ~b_2    W+)
#
#         PDG            Width
DECAY   1000005     1.81466857E+02   # sbottom1 decays
#          BR         NDA      ID1       ID2
     4.76254447E-03    2     1000022         5   # BR(~b_1 -> ~chi_10 b )
     7.85383409E-05    2     1000023         5   # BR(~b_1 -> ~chi_20 b )
     1.86682693E-03    2     1000025         5   # BR(~b_1 -> ~chi_30 b )
     1.60578672E-02    2     1000035         5   # BR(~b_1 -> ~chi_40 b )
     1.10726589E-01    2    -1000024         6   # BR(~b_1 -> ~chi_1- t )
     3.28432349E-02    2    -1000037         6   # BR(~b_1 -> ~chi_2- t )
     8.33664399E-01    2     1000021         5   # BR(~b_1 -> ~g      b )
#
#         PDG            Width
DECAY   2000005     1.87984952E+02   # sbottom2 decays
#          BR         NDA      ID1       ID2
     2.84114452E-03    2     1000022         5   # BR(~b_2 -> ~chi_10 b )
     9.46799323E-05    2     1000023         5   # BR(~b_2 -> ~chi_20 b )
     2.52235863E-03    2     1000025         5   # BR(~b_2 -> ~chi_30 b )
     1.90169401E-02    2     1000035         5   # BR(~b_2 -> ~chi_40 b )
     1.32416199E-01    2    -1000024         6   # BR(~b_2 -> ~chi_1- t )
     3.89043026E-02    2    -1000037         6   # BR(~b_2 -> ~chi_2- t )
     8.04204375E-01    2     1000021         5   # BR(~b_2 -> ~g      b )
#
#         PDG            Width
DECAY   1000002     1.71316855E+02   # sup_L decays
#          BR         NDA      ID1       ID2
     5.37526674E-04    2     1000022         2   # BR(~u_L -> ~chi_10 u)
     4.53650805E-07    2     1000023         2   # BR(~u_L -> ~chi_20 u)
     2.44120755E-03    2     1000025         2   # BR(~u_L -> ~chi_30 u)
     3.77625312E-02    2     1000035         2   # BR(~u_L -> ~chi_40 u)
     9.83046978E-04    2     1000024         1   # BR(~u_L -> ~chi_1+ d)
     7.55977830E-02    2     1000037         1   # BR(~u_L -> ~chi_2+ d)
     8.82677451E-01    2     1000021         2   # BR(~u_L -> ~g      u)
#
#         PDG            Width
DECAY   2000002     1.57974233E+02   # sup_R decays
#          BR         NDA      ID1       ID2
     2.38027673E-02    2     1000022         2   # BR(~u_R -> ~chi_10 u)
     1.72862300E-07    2     1000023         2   # BR(~u_R -> ~chi_20 u)
     1.89416286E-02    2     1000025         2   # BR(~u_R -> ~chi_30 u)
     3.15781797E-07    2     1000035         2   # BR(~u_R -> ~chi_40 u)
     9.57255115E-01    2     1000021         2   # BR(~u_R -> ~g      u)
#
#         PDG            Width
DECAY   1000001     1.71326766E+02   # sdown_L decays
#          BR         NDA      ID1       ID2
     2.58993563E-03    2     1000022         1   # BR(~d_L -> ~chi_10 d)
     7.62437048E-07    2     1000023         1   # BR(~d_L -> ~chi_20 d)
     2.77930750E-04    2     1000025         1   # BR(~d_L -> ~chi_30 d)
     3.78724008E-02    2     1000035         1   # BR(~d_L -> ~chi_40 d)
     8.50989977E-04    2    -1000024         2   # BR(~d_L -> ~chi_1- u)
     7.56797530E-02    2    -1000037         2   # BR(~d_L -> ~chi_2- u)
     8.82728227E-01    2     1000021         1   # BR(~d_L -> ~g      d)
#
#         PDG            Width
DECAY   2000001     1.52915371E+02   # sdown_R decays
#          BR         NDA      ID1       ID2
     6.14774660E-03    2     1000022         1   # BR(~d_R -> ~chi_10 d)
     4.46466832E-08    2     1000023         1   # BR(~d_R -> ~chi_20 d)
     4.89222578E-03    2     1000025         1   # BR(~d_R -> ~chi_30 d)
     8.15620459E-08    2     1000035         1   # BR(~d_R -> ~chi_40 d)
     9.88959901E-01    2     1000021         1   # BR(~d_R -> ~g      d)
#
#         PDG            Width
DECAY   1000004     1.71316855E+02   # scharm_L decays
#          BR         NDA      ID1       ID2
     5.37526674E-04    2     1000022         4   # BR(~c_L -> ~chi_10 c)
     4.53650805E-07    2     1000023         4   # BR(~c_L -> ~chi_20 c)
     2.44120755E-03    2     1000025         4   # BR(~c_L -> ~chi_30 c)
     3.77625312E-02    2     1000035         4   # BR(~c_L -> ~chi_40 c)
     9.83046978E-04    2     1000024         3   # BR(~c_L -> ~chi_1+ s)
     7.55977830E-02    2     1000037         3   # BR(~c_L -> ~chi_2+ s)
     8.82677451E-01    2     1000021         4   # BR(~c_L -> ~g      c)
#
#         PDG            Width
DECAY   2000004     1.57974233E+02   # scharm_R decays
#          BR         NDA      ID1       ID2
     2.38027673E-02    2     1000022         4   # BR(~c_R -> ~chi_10 c)
     1.72862300E-07    2     1000023         4   # BR(~c_R -> ~chi_20 c)
     1.89416286E-02    2     1000025         4   # BR(~c_R -> ~chi_30 c)
     3.15781797E-07    2     1000035         4   # BR(~c_R -> ~chi_40 c)
     9.57255115E-01    2     1000021         4   # BR(~c_R -> ~g      c)
#
#         PDG            Width
DECAY   1000003     1.71326766E+02   # sstrange_L decays
#          BR         NDA      ID1       ID2
     2.58993563E-03    2     1000022         3   # BR(~s_L -> ~chi_10 s)
     7.62437048E-07    2     1000023         3   # BR(~s_L -> ~chi_20 s)
     2.77930750E-04    2     1000025         3   # BR(~s_L -> ~chi_30 s)
     3.78724008E-02    2     1000035         3   # BR(~s_L -> ~chi_40 s)
     8.50989977E-04    2    -1000024         4   # BR(~s_L -> ~chi_1- c)
     7.56797530E-02    2    -1000037         4   # BR(~s_L -> ~chi_2- c)
     8.82728227E-01    2     1000021         3   # BR(~s_L -> ~g      s)
#
#         PDG            Width
DECAY   2000003     1.52915371E+02   # sstrange_R decays
#          BR         NDA      ID1       ID2
     6.14774660E-03    2     1000022         3   # BR(~s_R -> ~chi_10 s)
     4.46466832E-08    2     1000023         3   # BR(~s_R -> ~chi_20 s)
     4.89222578E-03    2     1000025         3   # BR(~s_R -> ~chi_30 s)
     8.15620459E-08    2     1000035         3   # BR(~s_R -> ~chi_40 s)
     9.88959901E-01    2     1000021         3   # BR(~s_R -> ~g      s)
#
#         PDG            Width
DECAY   1000011     2.59698456E+01   # selectron_L decays
#          BR         NDA      ID1       ID2
     6.72927831E-02    2     1000022        11   # BR(~e_L -> ~chi_10 e-)
     1.59937077E-06    2     1000023        11   # BR(~e_L -> ~chi_20 e-)
     9.50403991E-02    2     1000025        11   # BR(~e_L -> ~chi_30 e-)
     2.76335316E-01    2     1000035        11   # BR(~e_L -> ~chi_40 e-)
     6.05902420E-03    2    -1000024        12   # BR(~e_L -> ~chi_1- nu_e)
     5.55270878E-01    2    -1000037        12   # BR(~e_L -> ~chi_2- nu_e)
#
#         PDG            Width
DECAY   2000011     1.63960164E+01   # selectron_R decays
#          BR         NDA      ID1       ID2
     5.56441230E-01    2     1000022        11   # BR(~e_R -> ~chi_10 e-)
     4.04518553E-06    2     1000023        11   # BR(~e_R -> ~chi_20 e-)
     4.43547111E-01    2     1000025        11   # BR(~e_R -> ~chi_30 e-)
     7.61461134E-06    2     1000035        11   # BR(~e_R -> ~chi_40 e-)
#
#         PDG            Width
DECAY   1000013     2.59698456E+01   # smuon_L decays
#          BR         NDA      ID1       ID2
     6.72927831E-02    2     1000022        13   # BR(~mu_L -> ~chi_10 mu-)
     1.59937077E-06    2     1000023        13   # BR(~mu_L -> ~chi_20 mu-)
     9.50403991E-02    2     1000025        13   # BR(~mu_L -> ~chi_30 mu-)
     2.76335316E-01    2     1000035        13   # BR(~mu_L -> ~chi_40 mu-)
     6.05902420E-03    2    -1000024        14   # BR(~mu_L -> ~chi_1- nu_mu)
     5.55270878E-01    2    -1000037        14   # BR(~mu_L -> ~chi_2- nu_mu)
#
#         PDG            Width
DECAY   2000013     1.63960164E+01   # smuon_R decays
#          BR         NDA      ID1       ID2
     5.56441230E-01    2     1000022        13   # BR(~mu_R -> ~chi_10 mu-)
     4.04518553E-06    2     1000023        13   # BR(~mu_R -> ~chi_20 mu-)
     4.43547111E-01    2     1000025        13   # BR(~mu_R -> ~chi_30 mu-)
     7.61461134E-06    2     1000035        13   # BR(~mu_R -> ~chi_40 mu-)
#
#         PDG            Width
DECAY   1000015     2.12305501E+01   # stau_1 decays
#          BR         NDA      ID1       ID2
     2.62811632E-01    2     1000022        15   # BR(~tau_1 -> ~chi_10  tau-)
     4.30100703E-04    2     1000023        15   # BR(~tau_1 -> ~chi_20  tau-)
     2.26329618E-01    2     1000025        15   # BR(~tau_1 -> ~chi_30  tau-)
     1.67260840E-01    2     1000035        15   # BR(~tau_1 -> ~chi_40  tau-)
     6.89626148E-03    2    -1000024        16   # BR(~tau_1 -> ~chi_1-  nu_tau)
     3.36102163E-01    2    -1000037        16   # BR(~tau_1 -> ~chi_2-  nu_tau)
     1.69383896E-04    2     1000039        15   # BR(~tau_1 -> ~G       tau-)
#
#         PDG            Width
DECAY   2000015     2.12023729E+01   # stau_2 decays
#          BR         NDA      ID1       ID2
     2.50020041E-01    2     1000022        15   # BR(~tau_2 -> ~chi_10  tau-)
     5.72016975E-04    2     1000023        15   # BR(~tau_2 -> ~chi_20  tau-)
     2.33317473E-01    2     1000025        15   # BR(~tau_2 -> ~chi_30  tau-)
     1.70998635E-01    2     1000035        15   # BR(~tau_2 -> ~chi_40  tau-)
     1.50923815E-03    2    -1000024        16   # BR(~tau_2 -> ~chi_1-  nu_tau)
     3.43582596E-01    2    -1000037        16   # BR(~tau_2 -> ~chi_2-  nu_tau)
#
#         PDG            Width
DECAY   1000012     2.59730566E+01   # snu_eL decays
#          BR         NDA      ID1       ID2
     1.11068287E-01    2     1000022        12   # BR(~nu_eL -> ~chi_10 nu_e)
     8.19364004E-06    2     1000023        12   # BR(~nu_eL -> ~chi_20 nu_e)
     4.87841972E-02    2     1000025        12   # BR(~nu_eL -> ~chi_30 nu_e)
     2.78563127E-01    2     1000035        12   # BR(~nu_eL -> ~chi_40 nu_e)
     6.99804810E-03    2     1000024        11   # BR(~nu_eL -> ~chi_1+ e-)
     5.54578148E-01    2     1000037        11   # BR(~nu_eL -> ~chi_2+ e-)
#
#         PDG            Width
DECAY   1000014     2.59730566E+01   # snu_muL decays
#          BR         NDA      ID1       ID2
     1.11068287E-01    2     1000022        14   # BR(~nu_muL -> ~chi_10 nu_mu)
     8.19364004E-06    2     1000023        14   # BR(~nu_muL -> ~chi_20 nu_mu)
     4.87841972E-02    2     1000025        14   # BR(~nu_muL -> ~chi_30 nu_mu)
     2.78563127E-01    2     1000035        14   # BR(~nu_muL -> ~chi_40 nu_mu)
     6.99804810E-03    2     1000024        13   # BR(~nu_muL -> ~chi_1+ mu-)
     5.54578148E-01    2     1000037        13   # BR(~nu_muL -> ~chi_2+ mu-)
#
#         PDG            Width
DECAY   1000016     2.59942010E+01   # snu_tauL decays
#          BR         NDA      ID1       ID2
     1.10977940E-01    2     1000022        16   # BR(~nu_tauL -> ~chi_10 nu_tau)
     8.18697509E-06    2     1000023        16   # BR(~nu_tauL -> ~chi_20 nu_tau)
     4.87445147E-02    2     1000025        16   # BR(~nu_tauL -> ~chi_30 nu_tau)
     2.78336535E-01    2     1000035        16   # BR(~nu_tauL -> ~chi_40 nu_tau)
     7.80154655E-03    2     1000024        15   # BR(~nu_tauL -> ~chi_1+ tau-)
     5.54131276E-01    2     1000037        15   # BR(~nu_tauL -> ~chi_2+ tau-)
#
#         PDG            Width
DECAY   1000024     1.83520300E-04   # chargino1+ decays
#          BR         NDA      ID1       ID2
     1.49282622E-01    2     1000039        24   # BR(~chi_1+ -> ~G       W+)
     6.57895972E-05    2     1000039        37   # BR(~chi_1+ -> ~G       H+)
#           BR         NDA      ID1       ID2       ID3
     2.83764056E-01    3     1000022         2        -1   # BR(~chi_1+ -> ~chi_10 u    db)
     2.83764056E-01    3     1000022         4        -3   # BR(~chi_1+ -> ~chi_10 c    sb)
     9.45881043E-02    3     1000022       -11        12   # BR(~chi_1+ -> ~chi_10 e+   nu_e)
     9.45881043E-02    3     1000022       -13        14   # BR(~chi_1+ -> ~chi_10 mu+  nu_mu)
     9.39472675E-02    3     1000022       -15        16   # BR(~chi_1+ -> ~chi_10 tau+ nu_tau)
#
#         PDG            Width
DECAY   1000037     3.36275019E+01   # chargino2+ decays
#          BR         NDA      ID1       ID2
     2.54425214E-01    2     1000024        23   # BR(~chi_2+ -> ~chi_1+  Z )
     1.03581692E-01    2     1000022        24   # BR(~chi_2+ -> ~chi_10  W+)
     2.45980444E-01    2     1000023        24   # BR(~chi_2+ -> ~chi_20  W+)
     1.44592757E-01    2     1000025        24   # BR(~chi_2+ -> ~chi_30  W+)
     2.51409748E-01    2     1000024        25   # BR(~chi_2+ -> ~chi_1+  h )
     1.01410242E-05    2     1000039        24   # BR(~chi_2+ -> ~G       W+)
     3.94276978E-09    2     1000039        37   # BR(~chi_2+ -> ~G       H+)
#
#         PDG            Width
DECAY   1000022    1.0E-05    # neutralino1 decays
#          BR         NDA      ID1       ID2
     4.97027024E-01    2     1000039        22   # BR(~chi_10 -> ~G        gam)
     4.92393525E-01    2     1000039        23   # BR(~chi_10 -> ~G        Z)
     1.05452179E-02    2     1000039        25   # BR(~chi_10 -> ~G        h)
     3.27008621E-05    2     1000039        35   # BR(~chi_10 -> ~G        H)
     1.53219392E-06    2     1000039        36   # BR(~chi_10 -> ~G        A)
#
#         PDG            Width
DECAY   1000023     2.65597786E-04   # neutralino2 decays
#          BR         NDA      ID1       ID2
     1.97612137E-04    2     1000022        22   # BR(~chi_20 -> ~chi_10 gam)
#          BR         NDA      ID1       ID2
     2.13759495E-08    2     1000039        22   # BR(~chi_20 -> ~G        gam)
     3.99856778E-03    2     1000039        23   # BR(~chi_20 -> ~G        Z)
     9.92758368E-02    2     1000039        25   # BR(~chi_20 -> ~G        h)
     1.88757978E-06    2     1000039        35   # BR(~chi_20 -> ~G        H)
     5.28505156E-05    2     1000039        36   # BR(~chi_20 -> ~G        A)
#           BR         NDA      ID1       ID2       ID3
     1.06098485E-01    3     1000022        -2         2   # BR(~chi_20 -> ~chi_10 ub      u)
     1.37392666E-01    3     1000022        -1         1   # BR(~chi_20 -> ~chi_10 db      d)
     1.06098485E-01    3     1000022        -4         4   # BR(~chi_20 -> ~chi_10 cb      c)
     1.37392666E-01    3     1000022        -3         3   # BR(~chi_20 -> ~chi_10 sb      s)
     1.27493915E-01    3     1000022        -5         5   # BR(~chi_20 -> ~chi_10 bb      b)
     3.13834350E-02    3     1000022       -11        11   # BR(~chi_20 -> ~chi_10 e+      e-)
     3.13834350E-02    3     1000022       -13        13   # BR(~chi_20 -> ~chi_10 mu+     mu-)
     3.11159323E-02    3     1000022       -15        15   # BR(~chi_20 -> ~chi_10 tau+    tau-)
     6.26778532E-02    3     1000022       -12        12   # BR(~chi_20 -> ~chi_10 nu_eb   nu_e)
     6.26778532E-02    3     1000022       -14        14   # BR(~chi_20 -> ~chi_10 nu_mub  nu_mu)
     6.26778532E-02    3     1000022       -16        16   # BR(~chi_20 -> ~chi_10 nu_taub nu_tau)
     1.39279466E-05    3     1000024        -2         1   # BR(~chi_20 -> ~chi_1+ ub      d)
     1.39279466E-05    3    -1000024        -1         2   # BR(~chi_20 -> ~chi_1- db      u)
     1.39279466E-05    3     1000024        -4         3   # BR(~chi_20 -> ~chi_1+ cb      s)
     1.39279466E-05    3    -1000024        -3         4   # BR(~chi_20 -> ~chi_1- sb      c)
     4.64264925E-06    3     1000024       -12        11   # BR(~chi_20 -> ~chi_1+ nu_eb   e-)
     4.64264925E-06    3    -1000024        12       -11   # BR(~chi_20 -> ~chi_1- nu_e    e+)
     4.64264925E-06    3     1000024       -14        13   # BR(~chi_20 -> ~chi_1+ nu_mub  mu-)
     4.64264925E-06    3    -1000024        14       -13   # BR(~chi_20 -> ~chi_1- nu_mu   mu+)
     3.18136533E-06    3     1000024       -16        15   # BR(~chi_20 -> ~chi_1+ nu_taub tau-)
     3.18136533E-06    3    -1000024        16       -15   # BR(~chi_20 -> ~chi_1- nu_tau  tau+)
#
#         PDG            Width
DECAY   1000025     1.98873271E-04   # neutralino3 decays
#          BR         NDA      ID1       ID2
     4.22100416E-04    2     1000022        22   # BR(~chi_30 -> ~chi_10 gam)
     4.52860408E-06    2     1000023        22   # BR(~chi_30 -> ~chi_20 gam)
#          BR         NDA      ID1       ID2
     1.14707739E-01    2     1000039        22   # BR(~chi_30 -> ~G        gam)
     1.00928970E-01    2     1000039        23   # BR(~chi_30 -> ~G        Z)
     3.08633728E-03    2     1000039        25   # BR(~chi_30 -> ~G        h)
     7.13314324E-05    2     1000039        35   # BR(~chi_30 -> ~G        H)
     3.02832312E-06    2     1000039        36   # BR(~chi_30 -> ~G        A)
#           BR         NDA      ID1       ID2       ID3
     1.71783330E-05    3     1000022        -2         2   # BR(~chi_30 -> ~chi_10 ub      u)
     2.04591608E-05    3     1000022        -1         1   # BR(~chi_30 -> ~chi_10 db      d)
     1.71783330E-05    3     1000022        -4         4   # BR(~chi_30 -> ~chi_10 cb      c)
     2.04591608E-05    3     1000022        -3         3   # BR(~chi_30 -> ~chi_10 sb      s)
     7.81931924E-05    3     1000022        -5         5   # BR(~chi_30 -> ~chi_10 bb      b)
     3.59728943E-06    3     1000022       -11        11   # BR(~chi_30 -> ~chi_10 e+      e-)
     3.59728943E-06    3     1000022       -13        13   # BR(~chi_30 -> ~chi_10 mu+     mu-)
     1.23776565E-05    3     1000022       -15        15   # BR(~chi_30 -> ~chi_10 tau+    tau-)
     9.94987792E-06    3     1000022       -12        12   # BR(~chi_30 -> ~chi_10 nu_eb   nu_e)
     9.94987792E-06    3     1000022       -14        14   # BR(~chi_30 -> ~chi_10 nu_mub  nu_mu)
     9.94987792E-06    3     1000022       -16        16   # BR(~chi_30 -> ~chi_10 nu_taub nu_tau)
     1.28153928E-02    3     1000023        -2         2   # BR(~chi_30 -> ~chi_20 ub      u)
     1.65953612E-02    3     1000023        -1         1   # BR(~chi_30 -> ~chi_20 db      d)
     1.28153928E-02    3     1000023        -4         4   # BR(~chi_30 -> ~chi_20 cb      c)
     1.65953612E-02    3     1000023        -3         3   # BR(~chi_30 -> ~chi_20 sb      s)
     1.37064856E-02    3     1000023        -5         5   # BR(~chi_30 -> ~chi_20 bb      b)
     3.79073947E-03    3     1000023       -11        11   # BR(~chi_30 -> ~chi_20 e+      e-)
     3.79073947E-03    3     1000023       -13        13   # BR(~chi_30 -> ~chi_20 mu+     mu-)
     3.72319681E-03    3     1000023       -15        15   # BR(~chi_30 -> ~chi_20 tau+    tau-)
     7.57069493E-03    3     1000023       -12        12   # BR(~chi_30 -> ~chi_20 nu_eb   nu_e)
     7.57069493E-03    3     1000023       -14        14   # BR(~chi_30 -> ~chi_20 nu_mub  nu_mu)
     7.57069493E-03    3     1000023       -16        16   # BR(~chi_30 -> ~chi_20 nu_taub nu_tau)
     1.12462977E-01    3     1000024        -2         1   # BR(~chi_30 -> ~chi_1+ ub      d)
     1.12462977E-01    3    -1000024        -1         2   # BR(~chi_30 -> ~chi_1- db      u)
     1.12462977E-01    3     1000024        -4         3   # BR(~chi_30 -> ~chi_1+ cb      s)
     1.12462977E-01    3    -1000024        -3         4   # BR(~chi_30 -> ~chi_1- sb      c)
     3.74875994E-02    3     1000024       -12        11   # BR(~chi_30 -> ~chi_1+ nu_eb   e-)
     3.74875994E-02    3    -1000024        12       -11   # BR(~chi_30 -> ~chi_1- nu_e    e+)
     3.74875994E-02    3     1000024       -14        13   # BR(~chi_30 -> ~chi_1+ nu_mub  mu-)
     3.74875994E-02    3    -1000024        14       -13   # BR(~chi_30 -> ~chi_1- nu_mu   mu+)
     3.71130073E-02    3     1000024       -16        15   # BR(~chi_30 -> ~chi_1+ nu_taub tau-)
     3.71130073E-02    3    -1000024        16       -15   # BR(~chi_30 -> ~chi_1- nu_tau  tau+)
#
#         PDG            Width
DECAY   1000035     3.36256932E+01   # neutralino4 decays
#          BR         NDA      ID1       ID2
     1.49677856E-04    2     1000022        23   # BR(~chi_40 -> ~chi_10   Z )
     2.52639453E-01    2     1000023        23   # BR(~chi_40 -> ~chi_20   Z )
     1.82148324E-04    2     1000025        23   # BR(~chi_40 -> ~chi_30   Z )
     2.47411440E-01    2     1000024       -24   # BR(~chi_40 -> ~chi_1+   W-)
     2.47411440E-01    2    -1000024        24   # BR(~chi_40 -> ~chi_1-   W+)
     1.05092383E-01    2     1000022        25   # BR(~chi_40 -> ~chi_10   h )
     3.18677823E-04    2     1000023        25   # BR(~chi_40 -> ~chi_20   h )
     1.46784635E-01    2     1000025        25   # BR(~chi_40 -> ~chi_30   h )
     2.40575566E-06    2     1000039        22   # BR(~chi_40 -> ~G        gam)
     7.73370495E-06    2     1000039        23   # BR(~chi_40 -> ~G        Z)
     1.75631396E-09    2     1000039        25   # BR(~chi_40 -> ~G        h)
     3.83149570E-09    2     1000039        35   # BR(~chi_40 -> ~G        H)
     1.05586518E-10    2     1000039        36   # BR(~chi_40 -> ~G        A)
#
#         PDG            Width
DECAY        25     4.22330087E-03   # h decays
#          BR         NDA      ID1       ID2
     6.02378391E-01    2           5        -5   # BR(h -> b       bb     )
     6.21648546E-02    2         -15        15   # BR(h -> tau+    tau-   )
     2.20036483E-04    2         -13        13   # BR(h -> mu+     mu-    )
     4.65554814E-04    2           3        -3   # BR(h -> s       sb     )
     2.00854668E-02    2           4        -4   # BR(h -> c       cb     )
     6.63338554E-02    2          21        21   # BR(h -> g       g      )
     2.30350773E-03    2          22        22   # BR(h -> gam     gam    )
     1.62479679E-03    2          22        23   # BR(h -> Z       gam    )
     2.16375445E-01    2          24       -24   # BR(h -> W+      W-     )
     2.80480914E-02    2          23        23   # BR(h -> Z       Z      )
#
#         PDG            Width
DECAY        35     3.78086726E+01   # H decays
#          BR         NDA      ID1       ID2
     1.46416711E-03    2           5        -5   # BR(H -> b       bb     )
     2.46436411E-04    2         -15        15   # BR(H -> tau+    tau-   )
     8.71244462E-07    2         -13        13   # BR(H -> mu+     mu-    )
     1.11551302E-06    2           3        -3   # BR(H -> s       sb     )
     1.00669355E-05    2           4        -4   # BR(H -> c       cb     )
     9.96076129E-01    2           6        -6   # BR(H -> t       tb     )
     7.97739265E-04    2          21        21   # BR(H -> g       g      )
     2.71829284E-06    2          22        22   # BR(H -> gam     gam    )
     1.16040077E-06    2          23        22   # BR(H -> Z       gam    )
     3.32853090E-04    2          24       -24   # BR(H -> W+      W-     )
     1.65972646E-04    2          23        23   # BR(H -> Z       Z      )
     9.00770460E-04    2          25        25   # BR(H -> h       h      )
     7.15718581E-24    2          36        36   # BR(H -> A       A      )
     2.88318736E-11    2          23        36   # BR(H -> Z       A      )
     6.36222172E-12    2          24       -37   # BR(H -> W+      H-     )
     6.36222172E-12    2         -24        37   # BR(H -> W-      H+     )
#
#         PDG            Width
DECAY        36     3.82378997E+01   # A decays
#          BR         NDA      ID1       ID2
     1.46708063E-03    2           5        -5   # BR(A -> b       bb     )
     2.43899808E-04    2         -15        15   # BR(A -> tau+    tau-   )
     8.62273929E-07    2         -13        13   # BR(A -> mu+     mu-    )
     1.13678369E-06    2           3        -3   # BR(A -> s       sb     )
     9.96185010E-06    2           4        -4   # BR(A -> c       cb     )
     9.97004526E-01    2           6        -6   # BR(A -> t       tb     )
     9.43683725E-04    2          21        21   # BR(A -> g       g      )
     3.12828489E-06    2          22        22   # BR(A -> gam     gam    )
     1.35298889E-06    2          23        22   # BR(A -> Z       gam    )
     3.24367809E-04    2          23        25   # BR(A -> Z       h      )
#
#         PDG            Width
DECAY        37     3.74470563E+01   # H+ decays
#          BR         NDA      ID1       ID2
     2.34898438E-06    2           4        -5   # BR(H+ -> c       bb     )
     2.49240195E-04    2         -15        16   # BR(H+ -> tau+    nu_tau )
     8.81154124E-07    2         -13        14   # BR(H+ -> mu+     nu_mu  )
     1.49336130E-08    2           2        -5   # BR(H+ -> u       bb     )
     5.45699559E-08    2           2        -3   # BR(H+ -> u       sb     )
     1.08732706E-05    2           4        -3   # BR(H+ -> c       sb     )
     9.99404142E-01    2           6        -5   # BR(H+ -> t       bb     )
     3.32445009E-04    2          24        25   # BR(H+ -> W+      h      )
     2.86404821E-13    2          24        36   # BR(H+ -> W+      A      )
