#
#                              ======================
#                              | THE SUSYHIT OUTPUT |
#                              ======================
#
#
#              ------------------------------------------------------
#              |     This is the output of the SUSY-HIT package     |
#              |  created by A.Djouadi, M.Muehlleitner and M.Spira. |
#              |  In case of problems with SUSY-HIT email to        |
#              |           margarete.muehlleitner@cern.ch           |
#              |           michael.spira@psi.ch                     |
#              |           abdelhak.djouadi@cern.ch                 |
#              ------------------------------------------------------
#
#              ------------------------------------------------------
#              |  SUSY Les Houches Accord - MSSM Spectrum + Decays  |
#              |              based on the decay programs           |
#              |                                                    |
#              |                     SDECAY 1.3b                    |
#              |                                                    |
#              |  Authors: M.Muhlleitner, A.Djouadi and Y.Mambrini  |
#              |  Ref.:    Comput.Phys.Commun.168(2005)46           |
#              |           [hep-ph/0311167]                         |
#              |                                                    |
#              |                     HDECAY 3.4                     |
#              |                                                    |
#              |  By: A.Djouadi,J.Kalinowski,M.Muhlleitner,M.Spira  |
#              |  Ref.:    Comput.Phys.Commun.108(1998)56           |
#              |           [hep-ph/9704448]                         |
#              |                                                    |
#              |                                                    |
#              |  If not stated otherwise all DRbar couplings and   |
#              |  soft SUSY breaking masses are given at the scale  |
#              |  Q=  0.50007554E+04
#              |                                                    |
#              ------------------------------------------------------
#
#
BLOCK DCINFO  # Decay Program information
     1   SDECAY/HDECAY # decay calculator
     2   1.3b  /3.4    # version number
#
BLOCK SPINFO  # Spectrum calculator information
     1    SOFTSUSY    # spectrum calculator                
     2    3.4.0       # version number                     
#
BLOCK MODSEL  # Model selection
     1     0   #  nonUniversal                                     
#
BLOCK SMINPUTS  # Standard Model inputs
         1     1.25778332E+02   # alpha_em^-1(M_Z)^MSbar
         2     1.16570000E-05   # G_F [GeV^-2]
         3     1.17200002E-01   # alpha_S(M_Z)^MSbar
         4     9.11876000E+01   # M_Z pole mass
         5     4.25000000E+00   # mb(mb)^MSbar
         6     1.72500000E+02   # mt pole mass
         7     1.77682000E+00   # mtau pole mass
#
BLOCK MINPAR  # Input parameters - minimal models
         3     1.00000000E+01   # tanb                
#
BLOCK EXTPAR  # Input parameters - non-minimal models
         0    -1.00000000E+00   # Set                 
         1     6.00000000E+01   # M_1(MX)             
         2     3.00000000E+03   # M_2(MX)             
         3     2.33132200E+03   # M_3(MX)             
        11     5.00000000E+03   # At(MX)              
        12     5.00000000E+03   # Ab(MX)              
        13     0.00000000E+00   # Atau(MX)            
        23    -6.67963000E+02   # mu(MX)              
        26     3.00000000E+03   # mA(pole)            
        31     5.00000000E+03   # meL(MX)             
        32     5.00000000E+03   # mmuL(MX)            
        33     5.00000000E+03   # mtauL(MX)           
        34     5.00000000E+03   # meR(MX)             
        35     5.00000000E+03   # mmuR(MX)            
        36     5.00000000E+03   # mtauR(MX)           
        41     5.00000000E+03   # mqL1(MX)            
        42     5.00000000E+03   # mqL2(MX)            
        43     5.00000000E+03   # mqL3(MX)            
        44     5.00000000E+03   # muR(MX)             
        45     5.00000000E+03   # mcR(MX)             
        46     5.00000000E+03   # mtR(MX)             
        47     5.00000000E+03   # mdR(MX)             
        48     5.00000000E+03   # msR(MX)             
        49     5.00000000E+03   # mbR(MX)             
#
BLOCK MASS  # Mass Spectrum
# PDG code           mass       particle
        24     8.00943905E+01   # W+
        25     1.24813093E+02   # h
        35     3.00008378E+03   # H
        36     2.99999874E+03   # A
        37     3.00137866E+03   # H+
         5     4.87878001E+00   # b-quark pole mass calculated from mb(mb)_Msbar
   1000001     5.08405349E+03   # ~d_L
   2000001     5.06627680E+03   # ~d_R
   1000002     5.08358323E+03   # ~u_L
   2000002     5.06598421E+03   # ~u_R
   1000003     5.08405349E+03   # ~s_L
   2000003     5.06627680E+03   # ~s_R
   1000004     5.08358323E+03   # ~c_L
   2000004     5.06598421E+03   # ~c_R
   1000005     5.02978494E+03   # ~b_1
   2000005     5.06459095E+03   # ~b_2
   1000006     4.92196616E+03   # ~t_1
   2000006     5.07296693E+03   # ~t_2
   1000011     5.01908731E+03   # ~e_L
   2000011     5.00593496E+03   # ~e_R
   1000012     5.01813807E+03   # ~nu_eL
   1000013     5.01908731E+03   # ~mu_L
   2000013     5.00593496E+03   # ~mu_R
   1000014     5.01813807E+03   # ~nu_muL
   1000015     5.00471941E+03   # ~tau_1
   2000015     5.01866896E+03   # ~tau_2
   1000016     5.01758861E+03   # ~nu_tauL
   1000021     2.70000049E+03   # ~g
   1000022     6.02749197E+01   # ~chi_10
   1000023     6.99990177E+02   # ~chi_20
   1000025    -7.02215114E+02   # ~chi_30
   1000035     3.07418671E+03   # ~chi_40
   1000024     7.00000585E+02   # ~chi_1+
   1000037     3.07435425E+03   # ~chi_2+
#
BLOCK NMIX  # Neutralino Mixing Matrix
  1  1     9.97979488E-01   # N_11
  1  2     2.19053067E-04   # N_12
  1  3    -6.35264619E-02   # N_13
  1  4     1.13241829E-03   # N_14
  2  1     4.41398507E-02   # N_21
  2  2     2.05650098E-02   # N_22
  2  3     7.06086336E-01   # N_23
  2  4     7.06449461E-01   # N_24
  3  1    -4.56997033E-02   # N_31
  3  2     1.61067257E-02   # N_32
  3  3    -7.05263471E-01   # N_33
  3  4     7.07287458E-01   # N_34
  4  1    -3.90407575E-04   # N_41
  4  2     9.99658745E-01   # N_42
  4  3    -3.14834589E-03   # N_43
  4  4    -2.59293217E-02   # N_44
#
BLOCK UMIX  # Chargino Mixing Matrix U
  1  1     4.46143572E-03   # U_11
  1  2     9.99990048E-01   # U_12
  2  1    -9.99990048E-01   # U_21
  2  2     4.46143572E-03   # U_22
#
BLOCK VMIX  # Chargino Mixing Matrix V
  1  1     3.66960722E-02   # V_11
  1  2    -9.99326472E-01   # V_12
  2  1    -9.99326472E-01   # V_21
  2  2    -3.66960722E-02   # V_22
#
BLOCK STOPMIX  # Stop Mixing Matrix
  1  1    -5.02147054E-01   # cos(theta_t)
  1  2     8.64782248E-01   # sin(theta_t)
  2  1    -8.64782248E-01   # -sin(theta_t)
  2  2    -5.02147054E-01   # cos(theta_t)
#
BLOCK SBOTMIX  # Sbottom Mixing Matrix
  1  1     9.98211044E-01   # cos(theta_b)
  1  2    -5.97888922E-02   # sin(theta_b)
  2  1     5.97888922E-02   # -sin(theta_b)
  2  2     9.98211044E-01   # cos(theta_b)
#
BLOCK STAUMIX  # Stau Mixing Matrix
  1  1    -7.99504281E-02   # cos(theta_tau)
  1  2     9.96798841E-01   # sin(theta_tau)
  2  1    -9.96798841E-01   # -sin(theta_tau)
  2  2    -7.99504281E-02   # cos(theta_tau)
#
BLOCK ALPHA  # Higgs mixing
          -1.05488974E-01   # Mixing angle in the neutral Higgs boson sector
#
BLOCK HMIX Q=  5.00075544E+03  # DRbar Higgs Parameters
         1    -6.80245093E+02   # mu(Q)MSSM           
         2     9.46876192E+00   # tan                 
         3     2.41793893E+02   # higgs               
         4     8.61066039E+06   # mA^2(Q)MSSM         
#
BLOCK GAUGE Q=  5.00075544E+03  # The gauge couplings
     1     3.70865374E-01   # gprime(Q) DRbar
     2     6.32908967E-01   # g(Q) DRbar
     3     9.94066802E-01   # g3(Q) DRbar
#
BLOCK AU Q=  5.00075544E+03  # The trilinear couplings
  1  1     5.00000002E+03   # A_u(Q) DRbar
  2  2     5.00000002E+03   # A_c(Q) DRbar
  3  3     5.00000002E+03   # A_t(Q) DRbar
#
BLOCK AD Q=  5.00075544E+03  # The trilinear couplings
  1  1     5.00000001E+03   # A_d(Q) DRbar
  2  2     5.00000001E+03   # A_s(Q) DRbar
  3  3     5.00000001E+03   # A_b(Q) DRbar
#
BLOCK AE Q=  5.00075544E+03  # The trilinear couplings
  1  1     0.00000000E+00   # A_e(Q) DRbar
  2  2     2.77581596E-07   # A_mu(Q) DRbar
  3  3     2.77627463E-07   # A_tau(Q) DRbar
#
BLOCK Yu Q=  5.00075544E+03  # The Yukawa couplings
  1  1     0.00000000E+00   # y_u(Q) DRbar
  2  2     0.00000000E+00   # y_c(Q) DRbar
  3  3     8.21507304E-01   # y_t(Q) DRbar
#
BLOCK Yd Q=  5.00075544E+03  # The Yukawa couplings
  1  1     0.00000000E+00   # y_d(Q) DRbar
  2  2     0.00000000E+00   # y_s(Q) DRbar
  3  3     1.30659759E-01   # y_b(Q) DRbar
#
BLOCK Ye Q=  5.00075544E+03  # The Yukawa couplings
  1  1     0.00000000E+00   # y_e(Q) DRbar
  2  2     0.00000000E+00   # y_mu(Q) DRbar
  3  3     9.70101148E-02   # y_tau(Q) DRbar
#
BLOCK MSOFT Q=  5.00075544E+03  # The soft SUSY breaking masses at the scale Q
         1     6.00000000E+01   # M_1(Q)              
         2     3.00000000E+03   # M_2(Q)              
         3     2.33132200E+03   # M_3(Q)              
        21     8.25216851E+06   # mH1^2(Q)            
        22     1.11703131E+05   # mH2^2(Q)            
        31     5.00000000E+03   # meL(Q)              
        32     5.00000000E+03   # mmuL(Q)             
        33     5.00000000E+03   # mtauL(Q)            
        34     5.00000000E+03   # meR(Q)              
        35     5.00000000E+03   # mmuR(Q)             
        36     5.00000000E+03   # mtauR(Q)            
        41     4.99999999E+03   # mqL1(Q)             
        42     4.99999999E+03   # mqL2(Q)             
        43     4.99999999E+03   # mqL3(Q)             
        44     4.99999999E+03   # muR(Q)              
        45     4.99999999E+03   # mcR(Q)              
        46     4.99999999E+03   # mtR(Q)              
        47     4.99999999E+03   # mdR(Q)              
        48     4.99999999E+03   # msR(Q)              
        49     4.99999999E+03   # mbR(Q)              
#
#
#
#                             =================
#                             |The decay table|
#                             =================
#
# - The QCD corrections to the decays gluino -> squark  + quark
#                                     squark -> gaugino + quark_prime
#                                     squark -> squark_prime + Higgs
#                                     squark -> gluino  + quark
#   are included.
#
# - The multi-body decays for the inos, stops and sbottoms are included.
#
# - The loop induced decays for the gluino, neutralinos and stops
#   are included.
#
# - The SUSY decays of the top quark are included.
#
#
#         PDG            Width
DECAY         6     1.40377304E+00   # top decays
#          BR         NDA      ID1       ID2
     1.00000000E+00    2           5        24   # BR(t ->  b    W+)
#
#         PDG            Width
DECAY   1000021     9.29520670E-03   # gluino decays
#          BR         NDA      ID1       ID2
     8.70335972E-07    2     1000022        21   # BR(~g -> ~chi_10 g)
     3.88747824E-03    2     1000023        21   # BR(~g -> ~chi_20 g)
     3.79971582E-03    2     1000025        21   # BR(~g -> ~chi_30 g)
#           BR         NDA      ID1       ID2       ID3
     1.23133149E-02    3     1000022         1        -1   # BR(~g -> ~chi_10 d  db)
     2.30484379E-05    3     1000023         1        -1   # BR(~g -> ~chi_20 d  db)
     2.51994524E-05    3     1000025         1        -1   # BR(~g -> ~chi_30 d  db)
     4.19947792E-02    3     1000022         2        -2   # BR(~g -> ~chi_10 u  ub)
     1.06803390E-04    3     1000023         2        -2   # BR(~g -> ~chi_20 u  ub)
     3.57325247E-05    3     1000025         2        -2   # BR(~g -> ~chi_30 u  ub)
     1.23133149E-02    3     1000022         3        -3   # BR(~g -> ~chi_10 s  sb)
     2.30484379E-05    3     1000023         3        -3   # BR(~g -> ~chi_20 s  sb)
     2.51994524E-05    3     1000025         3        -3   # BR(~g -> ~chi_30 s  sb)
     4.19947792E-02    3     1000022         4        -4   # BR(~g -> ~chi_10 c  cb)
     1.06803390E-04    3     1000023         4        -4   # BR(~g -> ~chi_20 c  cb)
     3.57325247E-05    3     1000025         4        -4   # BR(~g -> ~chi_30 c  cb)
     1.25349673E-02    3     1000022         5        -5   # BR(~g -> ~chi_10 b  bb)
     5.18193715E-03    3     1000023         5        -5   # BR(~g -> ~chi_20 b  bb)
     5.15058620E-03    3     1000025         5        -5   # BR(~g -> ~chi_30 b  bb)
     4.33375907E-02    3     1000022         6        -6   # BR(~g -> ~chi_10 t  tb)
     2.03370187E-01    3     1000023         6        -6   # BR(~g -> ~chi_20 t  tb)
     1.93381639E-01    3     1000025         6        -6   # BR(~g -> ~chi_30 t  tb)
     5.77317019E-05    3     1000024         1        -2   # BR(~g -> ~chi_1+ d  ub)
     5.77317019E-05    3    -1000024         2        -1   # BR(~g -> ~chi_1- u  db)
     5.77317019E-05    3     1000024         3        -4   # BR(~g -> ~chi_1+ s  cb)
     5.77317019E-05    3    -1000024         4        -3   # BR(~g -> ~chi_1- c  sb)
     2.10063173E-01    3     1000024         5        -6   # BR(~g -> ~chi_1+ b  tb)
     2.10063173E-01    3    -1000024         6        -5   # BR(~g -> ~chi_1- t  bb)
#
#         PDG            Width
DECAY   1000006     2.79382172E+02   # stop1 decays
#          BR         NDA      ID1       ID2
     3.18339913E-02    2     1000022         6   # BR(~t_1 -> ~chi_10 t )
     1.14112194E-01    2     1000023         6   # BR(~t_1 -> ~chi_20 t )
     1.09103457E-01    2     1000025         6   # BR(~t_1 -> ~chi_30 t )
     7.20100571E-03    2     1000035         6   # BR(~t_1 -> ~chi_40 t )
     1.67784904E-01    2     1000024         5   # BR(~t_1 -> ~chi_1+ b )
     1.43526938E-02    2     1000037         5   # BR(~t_1 -> ~chi_2+ b )
     5.55611755E-01    2     1000021         6   # BR(~t_1 -> ~g      t )
#
#         PDG            Width
DECAY   2000006     2.87337101E+02   # stop2 decays
#          BR         NDA      ID1       ID2
     1.17961966E-02    2     1000022         6   # BR(~t_2 -> ~chi_10 t )
     1.12552533E-01    2     1000023         6   # BR(~t_2 -> ~chi_20 t )
     1.17982872E-01    2     1000025         6   # BR(~t_2 -> ~chi_30 t )
     1.97762777E-02    2     1000035         6   # BR(~t_2 -> ~chi_40 t )
     6.48269797E-02    2     1000024         5   # BR(~t_2 -> ~chi_1+ b )
     3.93691280E-02    2     1000037         5   # BR(~t_2 -> ~chi_2+ b )
     6.29583375E-01    2     1000021         6   # BR(~t_2 -> ~g      t )
     9.48147854E-04    2     1000006        25   # BR(~t_2 -> ~t_1    h )
     3.16449011E-03    2     1000006        23   # BR(~t_2 -> ~t_1    Z )
#
#         PDG            Width
DECAY   1000005     2.61644353E+02   # sbottom1 decays
#          BR         NDA      ID1       ID2
     2.94302809E-03    2     1000022         5   # BR(~b_1 -> ~chi_10 b )
     3.12658396E-03    2     1000023         5   # BR(~b_1 -> ~chi_20 b )
     3.08958469E-03    2     1000025         5   # BR(~b_1 -> ~chi_30 b )
     2.91372603E-02    2     1000035         5   # BR(~b_1 -> ~chi_40 b )
     2.46455848E-01    2    -1000024         6   # BR(~b_1 -> ~chi_1- t )
     5.85129917E-02    2    -1000037         6   # BR(~b_1 -> ~chi_2- t )
     6.54690791E-01    2     1000021         5   # BR(~b_1 -> ~g      b )
     2.04391239E-03    2     1000006       -24   # BR(~b_1 -> ~t_1    W-)
#
#         PDG            Width
DECAY   2000005     1.80752843E+02   # sbottom2 decays
#          BR         NDA      ID1       ID2
     1.62177299E-02    2     1000022         5   # BR(~b_2 -> ~chi_10 b )
     4.60296970E-03    2     1000023         5   # BR(~b_2 -> ~chi_20 b )
     4.68572314E-03    2     1000025         5   # BR(~b_2 -> ~chi_30 b )
     1.42353716E-04    2     1000035         5   # BR(~b_2 -> ~chi_40 b )
     1.02834027E-02    2    -1000024         6   # BR(~b_2 -> ~chi_1- t )
     2.85881218E-04    2    -1000037         6   # BR(~b_2 -> ~chi_2- t )
     9.63736096E-01    2     1000021         5   # BR(~b_2 -> ~g      b )
     4.58437634E-05    2     1000006       -24   # BR(~b_2 -> ~t_1    W-)
#
#         PDG            Width
DECAY   1000002     2.00363243E+02   # sup_L decays
#          BR         NDA      ID1       ID2
     3.71043484E-03    2     1000022         2   # BR(~u_L -> ~chi_10 u)
     8.00553728E-05    2     1000023         2   # BR(~u_L -> ~chi_20 u)
     4.84430767E-06    2     1000025         2   # BR(~u_L -> ~chi_30 u)
     3.95397255E-02    2     1000035         2   # BR(~u_L -> ~chi_40 u)
     2.53100939E-04    2     1000024         1   # BR(~u_L -> ~chi_1+ d)
     7.90291032E-02    2     1000037         1   # BR(~u_L -> ~chi_2+ d)
     8.77382736E-01    2     1000021         2   # BR(~u_L -> ~g      u)
#
#         PDG            Width
DECAY   2000002     1.86102258E+02   # sup_R decays
#          BR         NDA      ID1       ID2
     6.35471740E-02    2     1000022         2   # BR(~u_R -> ~chi_10 u)
     1.19875874E-04    2     1000023         2   # BR(~u_R -> ~chi_20 u)
     1.28467008E-04    2     1000025         2   # BR(~u_R -> ~chi_30 u)
     3.91876175E-09    2     1000035         2   # BR(~u_R -> ~chi_40 u)
     9.36204479E-01    2     1000021         2   # BR(~u_R -> ~g      u)
#
#         PDG            Width
DECAY   1000001     2.00380009E+02   # sdown_L decays
#          BR         NDA      ID1       ID2
     3.69383384E-03    2     1000022         1   # BR(~d_L -> ~chi_10 d)
     1.34058404E-05    2     1000023         1   # BR(~d_L -> ~chi_20 d)
     5.88778401E-05    2     1000025         1   # BR(~d_L -> ~chi_30 d)
     3.95605289E-02    2     1000035         1   # BR(~d_L -> ~chi_40 d)
     3.74120500E-06    2    -1000024         2   # BR(~d_L -> ~chi_1- u)
     7.91515758E-02    2    -1000037         2   # BR(~d_L -> ~chi_2- u)
     8.77518037E-01    2     1000021         1   # BR(~d_L -> ~g      d)
#
#         PDG            Width
DECAY   2000001     1.77224097E+02   # sdown_R decays
#          BR         NDA      ID1       ID2
     1.66836380E-02    2     1000022         1   # BR(~d_R -> ~chi_10 d)
     3.14722748E-05    2     1000023         1   # BR(~d_R -> ~chi_20 d)
     3.37277965E-05    2     1000025         1   # BR(~d_R -> ~chi_30 d)
     1.02896582E-09    2     1000035         1   # BR(~d_R -> ~chi_40 d)
     9.83251161E-01    2     1000021         1   # BR(~d_R -> ~g      d)
#
#         PDG            Width
DECAY   1000004     2.00363243E+02   # scharm_L decays
#          BR         NDA      ID1       ID2
     3.71043484E-03    2     1000022         4   # BR(~c_L -> ~chi_10 c)
     8.00553728E-05    2     1000023         4   # BR(~c_L -> ~chi_20 c)
     4.84430767E-06    2     1000025         4   # BR(~c_L -> ~chi_30 c)
     3.95397255E-02    2     1000035         4   # BR(~c_L -> ~chi_40 c)
     2.53100939E-04    2     1000024         3   # BR(~c_L -> ~chi_1+ s)
     7.90291032E-02    2     1000037         3   # BR(~c_L -> ~chi_2+ s)
     8.77382736E-01    2     1000021         4   # BR(~c_L -> ~g      c)
#
#         PDG            Width
DECAY   2000004     1.86102258E+02   # scharm_R decays
#          BR         NDA      ID1       ID2
     6.35471740E-02    2     1000022         4   # BR(~c_R -> ~chi_10 c)
     1.19875874E-04    2     1000023         4   # BR(~c_R -> ~chi_20 c)
     1.28467008E-04    2     1000025         4   # BR(~c_R -> ~chi_30 c)
     3.91876175E-09    2     1000035         4   # BR(~c_R -> ~chi_40 c)
     9.36204479E-01    2     1000021         4   # BR(~c_R -> ~g      c)
#
#         PDG            Width
DECAY   1000003     2.00380009E+02   # sstrange_L decays
#          BR         NDA      ID1       ID2
     3.69383384E-03    2     1000022         3   # BR(~s_L -> ~chi_10 s)
     1.34058404E-05    2     1000023         3   # BR(~s_L -> ~chi_20 s)
     5.88778401E-05    2     1000025         3   # BR(~s_L -> ~chi_30 s)
     3.95605289E-02    2     1000035         3   # BR(~s_L -> ~chi_40 s)
     3.74120500E-06    2    -1000024         4   # BR(~s_L -> ~chi_1- c)
     7.91515758E-02    2    -1000037         4   # BR(~s_L -> ~chi_2- c)
     8.77518037E-01    2     1000021         3   # BR(~s_L -> ~g      s)
#
#         PDG            Width
DECAY   2000003     1.77224097E+02   # sstrange_R decays
#          BR         NDA      ID1       ID2
     1.66836380E-02    2     1000022         3   # BR(~s_R -> ~chi_10 s)
     3.14722748E-05    2     1000023         3   # BR(~s_R -> ~chi_20 s)
     3.37277965E-05    2     1000025         3   # BR(~s_R -> ~chi_30 s)
     1.02896582E-09    2     1000035         3   # BR(~s_R -> ~chi_40 s)
     9.83251161E-01    2     1000021         3   # BR(~s_R -> ~g      s)
#
#         PDG            Width
DECAY   1000011     3.03000722E+01   # selectron_L decays
#          BR         NDA      ID1       ID2
     2.25817225E-01    2     1000022        11   # BR(~e_L -> ~chi_10 e-)
     1.36802127E-03    2     1000023        11   # BR(~e_L -> ~chi_20 e-)
     7.22565281E-05    2     1000025        11   # BR(~e_L -> ~chi_30 e-)
     2.57402515E-01    2     1000035        11   # BR(~e_L -> ~chi_40 e-)
     2.52627951E-05    2    -1000024        12   # BR(~e_L -> ~chi_1- nu_e)
     5.15314720E-01    2    -1000037        12   # BR(~e_L -> ~chi_2- nu_e)
#
#         PDG            Width
DECAY   2000011     2.73832073E+01   # selectron_R decays
#          BR         NDA      ID1       ID2
     9.96118251E-01    2     1000022        11   # BR(~e_R -> ~chi_10 e-)
     1.87371513E-03    2     1000023        11   # BR(~e_R -> ~chi_20 e-)
     2.00797501E-03    2     1000025        11   # BR(~e_R -> ~chi_30 e-)
     5.91597212E-08    2     1000035        11   # BR(~e_R -> ~chi_40 e-)
#
#         PDG            Width
DECAY   1000013     3.03000722E+01   # smuon_L decays
#          BR         NDA      ID1       ID2
     2.25817225E-01    2     1000022        13   # BR(~mu_L -> ~chi_10 mu-)
     1.36802127E-03    2     1000023        13   # BR(~mu_L -> ~chi_20 mu-)
     7.22565281E-05    2     1000025        13   # BR(~mu_L -> ~chi_30 mu-)
     2.57402515E-01    2     1000035        13   # BR(~mu_L -> ~chi_40 mu-)
     2.52627951E-05    2    -1000024        14   # BR(~mu_L -> ~chi_1- nu_mu)
     5.15314720E-01    2    -1000037        14   # BR(~mu_L -> ~chi_2- nu_mu)
#
#         PDG            Width
DECAY   2000013     2.73832073E+01   # smuon_R decays
#          BR         NDA      ID1       ID2
     9.96118251E-01    2     1000022        13   # BR(~mu_R -> ~chi_10 mu-)
     1.87371513E-03    2     1000023        13   # BR(~mu_R -> ~chi_20 mu-)
     2.00797501E-03    2     1000025        13   # BR(~mu_R -> ~chi_30 mu-)
     5.91597212E-08    2     1000035        13   # BR(~mu_R -> ~chi_40 mu-)
#
#         PDG            Width
DECAY   1000015     2.91940352E+01   # stau_1 decays
#          BR         NDA      ID1       ID2
     9.30632622E-01    2     1000022        15   # BR(~tau_1 -> ~chi_10  tau-)
     1.70508687E-02    2     1000023        15   # BR(~tau_1 -> ~chi_20  tau-)
     1.65282398E-02    2     1000025        15   # BR(~tau_1 -> ~chi_30  tau-)
     1.66242734E-03    2     1000035        15   # BR(~tau_1 -> ~chi_40  tau-)
     3.07978901E-02    2    -1000024        16   # BR(~tau_1 -> ~chi_1-  nu_tau)
     3.32795205E-03    2    -1000037        16   # BR(~tau_1 -> ~chi_2-  nu_tau)
#
#         PDG            Width
DECAY   2000015     3.11792290E+01   # stau_2 decays
#          BR         NDA      ID1       ID2
     2.22934628E-01    2     1000022        15   # BR(~tau_2 -> ~chi_10  tau-)
     1.58574749E-02    2     1000023        15   # BR(~tau_2 -> ~chi_20  tau-)
     1.51337481E-02    2     1000025        15   # BR(~tau_2 -> ~chi_30  tau-)
     2.48502096E-01    2     1000035        15   # BR(~tau_2 -> ~chi_40  tau-)
     7.51740005E-05    2    -1000024        16   # BR(~tau_2 -> ~chi_1-  nu_tau)
     4.97496879E-01    2    -1000037        16   # BR(~tau_2 -> ~chi_2-  nu_tau)
#
#         PDG            Width
DECAY   1000012     3.03031649E+01   # snu_eL decays
#          BR         NDA      ID1       ID2
     2.25413449E-01    2     1000022        12   # BR(~nu_eL -> ~chi_10 nu_e)
     1.78178587E-05    2     1000023        12   # BR(~nu_eL -> ~chi_20 nu_e)
     1.16648190E-03    2     1000025        12   # BR(~nu_eL -> ~chi_30 nu_e)
     2.57446223E-01    2     1000035        12   # BR(~nu_eL -> ~chi_40 nu_e)
     1.70859170E-03    2     1000024        11   # BR(~nu_eL -> ~chi_1+ e-)
     5.14247437E-01    2     1000037        11   # BR(~nu_eL -> ~chi_2+ e-)
#
#         PDG            Width
DECAY   1000014     3.03031649E+01   # snu_muL decays
#          BR         NDA      ID1       ID2
     2.25413449E-01    2     1000022        14   # BR(~nu_muL -> ~chi_10 nu_mu)
     1.78178587E-05    2     1000023        14   # BR(~nu_muL -> ~chi_20 nu_mu)
     1.16648190E-03    2     1000025        14   # BR(~nu_muL -> ~chi_30 nu_mu)
     2.57446223E-01    2     1000035        14   # BR(~nu_muL -> ~chi_40 nu_mu)
     1.70859170E-03    2     1000024        13   # BR(~nu_muL -> ~chi_1+ mu-)
     5.14247437E-01    2     1000037        13   # BR(~nu_muL -> ~chi_2+ mu-)
#
#         PDG            Width
DECAY   1000016     3.11969069E+01   # snu_tauL decays
#          BR         NDA      ID1       ID2
     2.18931722E-01    2     1000022        16   # BR(~nu_tauL -> ~chi_10 nu_tau)
     1.73053597E-05    2     1000023        16   # BR(~nu_tauL -> ~chi_20 nu_tau)
     1.13293007E-03    2     1000025        16   # BR(~nu_tauL -> ~chi_30 nu_tau)
     2.49977617E-01    2     1000035        16   # BR(~nu_tauL -> ~chi_40 nu_tau)
     3.06120745E-02    2     1000024        15   # BR(~nu_tauL -> ~chi_1+ tau-)
     4.99328351E-01    2     1000037        15   # BR(~nu_tauL -> ~chi_2+ tau-)
#
#         PDG            Width
DECAY   1000024     4.20385438E-01   # chargino1+ decays
#          BR         NDA      ID1       ID2
     1.00000000E+00    2     1000022        24   # BR(~chi_1+ -> ~chi_10  W+)
#
#         PDG            Width
DECAY   1000037     2.14574139E+01   # chargino2+ decays
#          BR         NDA      ID1       ID2
     2.53433092E-01    2     1000024        23   # BR(~chi_2+ -> ~chi_1+  Z )
     1.77988587E-04    2     1000022        24   # BR(~chi_2+ -> ~chi_10  W+)
     2.44562294E-01    2     1000023        24   # BR(~chi_2+ -> ~chi_20  W+)
     2.44270000E-01    2     1000025        24   # BR(~chi_2+ -> ~chi_30  W+)
     2.57554062E-01    2     1000024        25   # BR(~chi_2+ -> ~chi_1+  h )
     2.56405274E-06    2     1000022        37   # BR(~chi_2+ -> ~chi_10  H+)
#
#         PDG            Width
DECAY   1000022     0.00000000E+00   # neutralino1 decays
#
#         PDG            Width
DECAY   1000023     4.34125413E-01   # neutralino2 decays
#          BR         NDA      ID1       ID2
     5.22419996E-01    2     1000022        23   # BR(~chi_20 -> ~chi_10   Z )
     4.77580004E-01    2     1000022        25   # BR(~chi_20 -> ~chi_10   h )
#
#         PDG            Width
DECAY   1000025     4.31996016E-01   # neutralino3 decays
#          BR         NDA      ID1       ID2
     4.83898504E-01    2     1000022        23   # BR(~chi_30 -> ~chi_10   Z )
     5.16101496E-01    2     1000022        25   # BR(~chi_30 -> ~chi_10   h )
#
#         PDG            Width
DECAY   1000035     2.14725024E+01   # neutralino4 decays
#          BR         NDA      ID1       ID2
     2.28866980E-05    2     1000022        23   # BR(~chi_40 -> ~chi_10   Z )
     9.62861819E-02    2     1000023        23   # BR(~chi_40 -> ~chi_20   Z )
     1.56538492E-01    2     1000025        23   # BR(~chi_40 -> ~chi_30   Z )
     2.45013149E-01    2     1000024       -24   # BR(~chi_40 -> ~chi_1+   W-)
     2.45013149E-01    2    -1000024        24   # BR(~chi_40 -> ~chi_1-   W+)
     1.52158621E-04    2     1000022        25   # BR(~chi_40 -> ~chi_10   h )
     2.45020226E-06    2     1000022        35   # BR(~chi_40 -> ~chi_10   H )
     2.79054431E-07    2     1000022        36   # BR(~chi_40 -> ~chi_10   A )
     1.60398628E-01    2     1000023        25   # BR(~chi_40 -> ~chi_20   h )
     9.65726257E-02    2     1000025        25   # BR(~chi_40 -> ~chi_30   h )
#
#         PDG            Width
DECAY        25     4.06505075E-03   # h decays
#          BR         NDA      ID1       ID2
     6.07701909E-01    2           5        -5   # BR(h -> b       bb     )
     6.38294050E-02    2         -15        15   # BR(h -> tau+    tau-   )
     2.25979127E-04    2         -13        13   # BR(h -> mu+     mu-    )
     4.79032340E-04    2           3        -3   # BR(h -> s       sb     )
     2.07561488E-02    2           4        -4   # BR(h -> c       cb     )
     6.71874603E-02    2          21        21   # BR(h -> g       g      )
     2.31058156E-03    2          22        22   # BR(h -> gam     gam    )
     1.49338082E-03    2          22        23   # BR(h -> Z       gam    )
     2.10801329E-01    2          24       -24   # BR(h -> W+      W-     )
     2.51338360E-02    2          23        23   # BR(h -> Z       Z      )
     8.09385360E-05    2     1000022   1000022   # BR(h -> ~chi_10 ~chi_10)
#
#         PDG            Width
DECAY        35     8.47995183E+00   # H decays
#          BR         NDA      ID1       ID2
     3.78101813E-01    2           5        -5   # BR(H -> b       bb     )
     6.56824904E-02    2         -15        15   # BR(H -> tau+    tau-   )
     2.32258503E-04    2         -13        13   # BR(H -> mu+     mu-    )
     2.84713282E-04    2           3        -3   # BR(H -> s       sb     )
     1.59341743E-06    2           4        -4   # BR(H -> c       cb     )
     1.59195024E-01    2           6        -6   # BR(H -> t       tb     )
     5.29324876E-05    2          21        21   # BR(H -> g       g      )
     1.84893979E-07    2          22        22   # BR(H -> gam     gam    )
     9.39828301E-08    2          23        22   # BR(H -> Z       gam    )
     7.50134416E-05    2          24       -24   # BR(H -> W+      W-     )
     3.74592436E-05    2          23        23   # BR(H -> Z       Z      )
     2.74213646E-04    2          25        25   # BR(H -> h       h      )
    -2.46680965E-24    2          36        36   # BR(H -> A       A      )
     8.61705315E-19    2          23        36   # BR(H -> Z       A      )
     2.81405456E-03    2     1000024  -1000024   # BR(H -> ~chi_1+ ~chi_1-)
     3.48070810E-03    2     1000022   1000022   # BR(H -> ~chi_10 ~chi_10)
     1.48468186E-05    2     1000023   1000023   # BR(H -> ~chi_20 ~chi_20)
     1.35564202E-03    2     1000025   1000025   # BR(H -> ~chi_30 ~chi_30)
     2.33778856E-01    2     1000022   1000023   # BR(H -> ~chi_10 ~chi_20)
     1.53097746E-01    2     1000022   1000025   # BR(H -> ~chi_10 ~chi_30)
     1.52035654E-03    2     1000023   1000025   # BR(H -> ~chi_20 ~chi_30)
#
#         PDG            Width
DECAY        36     8.48995826E+00   # A decays
#          BR         NDA      ID1       ID2
     3.77784491E-01    2           5        -5   # BR(A -> b       bb     )
     6.56070347E-02    2         -15        15   # BR(A -> tau+    tau-   )
     2.31991362E-04    2         -13        13   # BR(A -> mu+     mu-    )
     2.84593726E-04    2           3        -3   # BR(A -> s       sb     )
     1.59796414E-06    2           4        -4   # BR(A -> c       cb     )
     1.59561188E-01    2           6        -6   # BR(A -> t       tb     )
     1.57885666E-04    2          21        21   # BR(A -> g       g      )
     5.99935653E-07    2          22        22   # BR(A -> gam     gam    )
     1.91183173E-07    2          23        22   # BR(A -> Z       gam    )
     7.46413559E-05    2          23        25   # BR(A -> Z       h      )
     3.41328579E-03    2     1000024  -1000024   # BR(A -> ~chi_1+ ~chi_1-)
     3.50868345E-03    2     1000022   1000022   # BR(A -> ~chi_10 ~chi_10)
     1.23973887E-05    2     1000023   1000023   # BR(A -> ~chi_20 ~chi_20)
     2.65472676E-03    2     1000025   1000025   # BR(A -> ~chi_30 ~chi_30)
     1.55722353E-01    2     1000022   1000023   # BR(A -> ~chi_10 ~chi_20)
     2.30154865E-01    2     1000022   1000025   # BR(A -> ~chi_10 ~chi_30)
     8.29473274E-04    2     1000023   1000025   # BR(A -> ~chi_20 ~chi_30)
#
#         PDG            Width
DECAY        37     8.45043830E+00   # H+ decays
#          BR         NDA      ID1       ID2
     6.08011119E-04    2           4        -5   # BR(H+ -> c       bb     )
     6.59441762E-02    2         -15        16   # BR(H+ -> tau+    nu_tau )
     2.33183519E-04    2         -13        14   # BR(H+ -> mu+     nu_mu  )
     3.89125091E-06    2           2        -5   # BR(H+ -> u       bb     )
     1.36824246E-05    2           2        -3   # BR(H+ -> u       sb     )
     2.82954086E-04    2           4        -3   # BR(H+ -> c       sb     )
     5.36992418E-01    2           6        -5   # BR(H+ -> t       bb     )
     7.51423301E-05    2          24        25   # BR(H+ -> W+      h      )
     7.78052573E-13    2          24        36   # BR(H+ -> W+      A      )
     3.93924234E-01    2     1000024   1000022   # BR(H+ -> ~chi_1+ ~chi_10)
     1.86788561E-03    2     1000024   1000023   # BR(H+ -> ~chi_1+ ~chi_20)
     5.44208123E-05    2     1000024   1000025   # BR(H+ -> ~chi_1+ ~chi_30)
