#
#                              ======================
#                              | THE SUSYHIT OUTPUT |
#                              ======================
#
#
#              ------------------------------------------------------
#              |     This is the output of the SUSY-HIT package     |
#              |  created by A.Djouadi, M.Muehlleitner and M.Spira. |
#              |  In case of problems with SUSY-HIT email to        |
#              |           margarete.muehlleitner@kit.edu           |
#              |           michael.spira@psi.ch                     |
#              |           abdelhak.djouadi@cern.ch                 |
#              ------------------------------------------------------
#
#              ------------------------------------------------------
#              |  SUSY Les Houches Accord - MSSM Spectrum + Decays  |
#              |              based on the decay programs           |
#              |                                                    |
#              |                     SDECAY 1.5                     |
#              |                                                    |
#              |  Authors: M.Muhlleitner, A.Djouadi and Y.Mambrini  |
#              |  Ref.:    Comput.Phys.Commun.168(2005)46           |
#              |           [hep-ph/0311167]                         |
#              |                                                    |
#              |                     HDECAY 3.4                     |
#              |                                                    |
#              |  By: A.Djouadi,J.Kalinowski,M.Muhlleitner,M.Spira  |
#              |  Ref.:    Comput.Phys.Commun.108(1998)56           |
#              |           [hep-ph/9704448]                         |
#              |                                                    |
#              |                                                    |
#              |  If not stated otherwise all DRbar couplings and   |
#              |  soft SUSY breaking masses are given at the scale  |
#              |  Q=  0.91187600E+02
#              |                                                    |
#              ------------------------------------------------------
#
#
BLOCK DCINFO  # Decay Program information
     1   SDECAY/HDECAY # decay calculator
     2   1.5  /3.4    # version number
#
BLOCK SPINFO  # Spectrum calculator information
     1   SuSpect     # RGE +Spectrum calculator            
     2   2.43         # version number                     
#
BLOCK MODSEL  # Model selection
     1     2   # GMSB                                              
#
BLOCK SMINPUTS  # Standard Model inputs
         1     1.27932904E+02   # alpha_em^-1(M_Z)^MSbar
         2     1.16639000E-05   # G_F [GeV^-2]
         3     1.17200000E-01   # alpha_S(M_Z)^MSbar
         4     9.11870000E+01   # M_Z pole mass
         5     4.25000000E+00   # mb(mb)^MSbar
         6     1.72900000E+02   # mt pole mass
         7     1.77700000E+00   # mtau pole mass
#
BLOCK MINPAR  # Input parameters - minimal models
#
BLOCK EXTPAR  # Input parameters - non-minimal models
         0     9.11876000E+01   # EWSB                
         1     6.57000000E+02   # M_1                 
         2     3.00000000E+03   # M_2                 
         3     1.60000000E+03   # M_3                 
        11     0.00000000E+00   # A_t                 
        12     0.00000000E+00   # A_b                 
        13     0.00000000E+00   # A_tau               
        14     0.00000000E+00   # A_u                 
        15     0.00000000E+00   # A_d                 
        16     0.00000000E+00   # A_e                 
        23     6.50000000E+02   # mu(EWSB)            
        25     1.50000000E+00   # tanbeta(in)         
        26     2.00000000E+03   # MA_pole             
        31     5.00000000E+03   # M_eL                
        32     5.00000000E+03   # M_muL               
        33     5.00000000E+03   # M_tauL              
        34     5.00000000E+03   # M_eR                
        35     5.00000000E+03   # M_muR               
        36     5.00000000E+03   # M_tauR              
        41     5.00000000E+03   # M_q1L               
        42     5.00000000E+03   # M_q2L               
        43     5.00000000E+03   # M_q3L               
        44     5.00000000E+03   # M_uR                
        45     5.00000000E+03   # M_cR                
        46     5.00000000E+03   # M_tR                
        47     5.00000000E+03   # M_dR                
        48     5.00000000E+03   # M_sR                
        49     5.00000000E+03   # M_bR                
#
BLOCK MASS  # Mass Spectrum
# PDG code           mass       particle
        24     8.05394402E+01   # W+
        25     1.26000000E+02   # h
        35     2.00419517E+03   # H
        36     2.00000000E+03   # A
        37     2.00179592E+03   # H+
         5     4.87877839E+00   # b-quark pole mass calculated from mb(mb)_Msbar
   1000001     4.98044648E+03   # ~d_L
   2000001     4.98033675E+03   # ~d_R
   1000002     4.98020118E+03   # ~u_L
   2000002     4.98025926E+03   # ~u_R
   1000003     4.98044648E+03   # ~s_L
   2000003     4.98033675E+03   # ~s_R
   1000004     4.98020118E+03   # ~c_L
   2000004     4.98025926E+03   # ~c_R
   1000005     4.98011957E+03   # ~b_1
   2000005     4.98066512E+03   # ~b_2
   1000006     5.10843747E+03   # ~t_1
   2000006     5.40703430E+03   # ~t_2
   1000011     5.00008233E+03   # ~e_L
   2000011     5.00007602E+03   # ~e_R
   1000012     4.99984164E+03   # ~nu_eL
   1000013     5.00008233E+03   # ~mu_L
   2000013     5.00007602E+03   # ~mu_R
   1000014     4.99984164E+03   # ~nu_muL
   1000015     4.99990613E+03   # ~tau_1
   2000015     5.00025285E+03   # ~tau_2
   1000016     4.99984164E+03   # ~nu_tauL
   1000021     1.70499841E+03   # ~g
   1000022     6.51770961E+02   # ~chi_10
   1000023    -6.96950262E+02   # ~chi_20
   1000025     7.38933773E+02   # ~chi_30
   1000035     3.12900876E+03   # ~chi_40
   1000024     6.94421464E+02   # ~chi_1+
   1000037     3.12900803E+03   # ~chi_2+
   1000039     1.00000000E-09   # ~gravitino
#
BLOCK NMIX  # Neutralino Mixing Matrix
  1  1     6.98984810E-01   # N_11
  1  2    -2.23745056E-02   # N_12
  1  3     5.08796596E-01   # N_13
  1  4    -5.02041474E-01   # N_14
  2  1     6.27127725E-03   # N_21
  2  2    -4.06604515E-03   # N_22
  2  3    -7.06788250E-01   # N_23
  2  4    -7.07385685E-01   # N_24
  3  1     7.15108777E-01   # N_31
  3  2     2.27246649E-02   # N_32
  3  3    -4.91110031E-01   # N_33
  3  4     4.96904380E-01   # N_34
  4  1     5.85971369E-04   # N_41
  4  2    -9.99483086E-01   # N_42
  4  3    -1.96807235E-02   # N_43
  4  4     2.54143145E-02   # N_44
#
BLOCK UMIX  # Chargino Mixing Matrix U
  1  1    -2.78218024E-02   # U_11
  1  2     9.99612899E-01   # U_12
  2  1     9.99612899E-01   # U_21
  2  2     2.78218024E-02   # U_22
#
BLOCK VMIX  # Chargino Mixing Matrix V
  1  1    -3.59329040E-02   # V_11
  1  2     9.99354205E-01   # V_12
  2  1     9.99354205E-01   # V_21
  2  2     3.59329040E-02   # V_22
#
BLOCK STOPMIX  # Stop Mixing Matrix
  1  1     9.99950201E-01   # cos(theta_t)
  1  2    -9.97975551E-03   # sin(theta_t)
  2  1     9.97975551E-03   # -sin(theta_t)
  2  2     9.99950201E-01   # cos(theta_t)
#
BLOCK SBOTMIX  # Sbottom Mixing Matrix
  1  1     6.32000228E-01   # cos(theta_b)
  1  2     7.74968201E-01   # sin(theta_b)
  2  1    -7.74968201E-01   # -sin(theta_b)
  2  2     6.32000228E-01   # cos(theta_b)
#
BLOCK STAUMIX  # Stau Mixing Matrix
  1  1     7.00650690E-01   # cos(theta_tau)
  1  2     7.13504457E-01   # sin(theta_tau)
  2  1    -7.13504457E-01   # -sin(theta_tau)
  2  2     7.00650690E-01   # cos(theta_tau)
#
BLOCK ALPHA  # Higgs mixing
          -5.90207552E-01   # Mixing angle in the neutral Higgs boson sector
#
BLOCK HMIX Q=  9.11876000E+01  # DRbar Higgs Parameters
         1     6.50000000E+02   # mu(Q)               
         2     1.49999979E+00   # tanbeta(Q)          
         3     2.51969269E+02   # vev(Q)              
         4     3.68039092E+06   # MA^2(Q)             
#
BLOCK GAUGE Q=  9.11876000E+01  # The gauge couplings
     1     3.52896773E-01   # gprime(Q) DRbar
     2     6.27898380E-01   # g(Q) DRbar
     3     1.08402976E+00   # g3(Q) DRbar
#
BLOCK AU Q=  9.11876000E+01  # The trilinear couplings
  1  1     0.00000000E+00   # A_u(Q) DRbar
  2  2     0.00000000E+00   # A_c(Q) DRbar
  3  3     0.00000000E+00   # A_t(Q) DRbar
#
BLOCK AD Q=  9.11876000E+01  # The trilinear couplings
  1  1     0.00000000E+00   # A_d(Q) DRbar
  2  2     0.00000000E+00   # A_s(Q) DRbar
  3  3     0.00000000E+00   # A_b(Q) DRbar
#
BLOCK AE Q=  9.11876000E+01  # The trilinear couplings
  1  1     0.00000000E+00   # A_e(Q) DRbar
  2  2     0.00000000E+00   # A_mu(Q) DRbar
  3  3     0.00000000E+00   # A_tau(Q) DRbar
#
BLOCK Yu Q=  9.11876000E+01  # The Yukawa couplings
  1  1     0.00000000E+00   # y_u(Q) DRbar
  2  2     0.00000000E+00   # y_c(Q) DRbar
  3  3     1.02616749E+00   # y_t(Q) DRbar
#
BLOCK Yd Q=  9.11876000E+01  # The Yukawa couplings
  1  1     0.00000000E+00   # y_d(Q) DRbar
  2  2     0.00000000E+00   # y_s(Q) DRbar
  3  3     2.72065978E-02   # y_b(Q) DRbar
#
BLOCK Ye Q=  9.11876000E+01  # The Yukawa couplings
  1  1     0.00000000E+00   # y_e(Q) DRbar
  2  2     0.00000000E+00   # y_mu(Q) DRbar
  3  3     1.79880657E-02   # y_tau(Q) DRbar
#
BLOCK MSOFT Q=  9.11876000E+01  # The soft SUSY breaking masses at the scale Q
         1     6.57000000E+02   # M_1                 
         2     3.00000000E+03   # M_2                 
         3     1.60000000E+03   # M_3                 
        14     0.00000000E+00   # A_u                 
        15     0.00000000E+00   # A_d                 
        16     0.00000000E+00   # A_e                 
        21     2.58289959E+06   # M^2_Hd              
        22    -5.85103478E+06   # M^2_Hu              
        31     5.00000000E+03   # M_eL                
        32     5.00000000E+03   # M_muL               
        33     5.00000000E+03   # M_tauL              
        34     5.00000000E+03   # M_eR                
        35     5.00000000E+03   # M_muR               
        36     5.00000000E+03   # M_tauR              
        41     5.00000000E+03   # M_q1L               
        42     5.00000000E+03   # M_q2L               
        43     5.00000000E+03   # M_q3L               
        44     5.00000000E+03   # M_uR                
        45     5.00000000E+03   # M_cR                
        46     5.00000000E+03   # M_tR                
        47     5.00000000E+03   # M_dR                
        48     5.00000000E+03   # M_sR                
        49     5.00000000E+03   # M_bR                
#
#
#
#                             =================
#                             |The decay table|
#                             =================
#
# - The QCD corrections to the decays gluino -> squark  + quark
#                                     squark -> gaugino + quark_prime
#                                     squark -> squark_prime + Higgs
#                                     squark -> gluino  + quark
#   are included.
#
# - The multi-body decays for the inos, stops and sbottoms are included.
#
# - The loop induced decays for the gluino, neutralinos and stops
#   are included.
#
# - The SUSY decays of the top quark are included.
#
# - Possible decays of the NLSP in GMSB models are included.
#
#
#         PDG            Width
DECAY         6     1.37371772E+00   # top decays
#          BR         NDA      ID1       ID2
     1.00000000E+00    2           5        24   # BR(t ->  b    W+)
#
#         PDG            Width
DECAY   1000021     4.95708779E-04   # gluino decays
#          BR         NDA      ID1       ID2
     1.09091257E-02    2     1000022        21   # BR(~g -> ~chi_10 g)
     1.98938252E-02    2     1000023        21   # BR(~g -> ~chi_20 g)
     8.86650382E-03    2     1000025        21   # BR(~g -> ~chi_30 g)
#          BR         NDA      ID1       ID2
0.0E+00    2     1000039    21 # BR(~g -> ~G      g)
#           BR         NDA      ID1       ID2       ID3
     5.88099228E-03    3     1000022         1        -1   # BR(~g -> ~chi_10 d  db)
     7.54913999E-07    3     1000023         1        -1   # BR(~g -> ~chi_20 d  db)
     4.05382206E-03    3     1000025         1        -1   # BR(~g -> ~chi_30 d  db)
     1.82739465E-02    3     1000022         2        -2   # BR(~g -> ~chi_10 u  ub)
     6.96799793E-07    3     1000023         2        -2   # BR(~g -> ~chi_20 u  ub)
     1.50149149E-02    3     1000025         2        -2   # BR(~g -> ~chi_30 u  ub)
     5.88099228E-03    3     1000022         3        -3   # BR(~g -> ~chi_10 s  sb)
     7.54913999E-07    3     1000023         3        -3   # BR(~g -> ~chi_20 s  sb)
     4.05382206E-03    3     1000025         3        -3   # BR(~g -> ~chi_30 s  sb)
     1.82739465E-02    3     1000022         4        -4   # BR(~g -> ~chi_10 c  cb)
     6.96799793E-07    3     1000023         4        -4   # BR(~g -> ~chi_20 c  cb)
     1.50149149E-02    3     1000025         4        -4   # BR(~g -> ~chi_30 c  cb)
     5.97998483E-03    3     1000022         5        -5   # BR(~g -> ~chi_10 b  bb)
     2.21587555E-04    3     1000023         5        -5   # BR(~g -> ~chi_20 b  bb)
     4.16752820E-03    3     1000025         5        -5   # BR(~g -> ~chi_30 b  bb)
     1.04610675E-01    3     1000022         6        -6   # BR(~g -> ~chi_10 t  tb)
     1.67659348E-01    3     1000023         6        -6   # BR(~g -> ~chi_20 t  tb)
     1.02379422E-01    3     1000025         6        -6   # BR(~g -> ~chi_30 t  tb)
     1.14488950E-04    3     1000024         1        -2   # BR(~g -> ~chi_1+ d  ub)
     1.14488950E-04    3    -1000024         2        -1   # BR(~g -> ~chi_1- u  db)
     1.14488950E-04    3     1000024         3        -4   # BR(~g -> ~chi_1+ s  cb)
     1.14488950E-04    3    -1000024         4        -3   # BR(~g -> ~chi_1- c  sb)
     2.27469824E-01    3     1000024         5        -6   # BR(~g -> ~chi_1+ b  tb)
     2.27469824E-01    3    -1000024         6        -5   # BR(~g -> ~chi_1- t  bb)
#
#         PDG            Width
DECAY   1000006     3.08572825E+02   # stop1 decays
#          BR         NDA      ID1       ID2
     5.72647695E-02    2     1000022         6   # BR(~t_1 -> ~chi_10 t )
     1.14673377E-01    2     1000023         6   # BR(~t_1 -> ~chi_20 t )
     5.92485902E-02    2     1000025         6   # BR(~t_1 -> ~chi_30 t )
     2.47028404E-02    2     1000035         6   # BR(~t_1 -> ~chi_40 t )
     6.46817168E-05    2     1000024         5   # BR(~t_1 -> ~chi_1+ b )
     4.91942030E-02    2     1000037         5   # BR(~t_1 -> ~chi_2+ b )
     6.78443391E-01    2     1000021         6   # BR(~t_1 -> ~g      t )
     6.63630942E-03    2     1000005        24   # BR(~t_1 -> ~b_1    W+)
     9.77183776E-03    2     2000005        24   # BR(~t_1 -> ~b_2    W+)
#
#         PDG            Width
DECAY   2000006     3.86949562E+02   # stop2 decays
#          BR         NDA      ID1       ID2
     6.45255485E-02    2     1000022         6   # BR(~t_2 -> ~chi_10 t )
     9.76746319E-02    2     1000023         6   # BR(~t_2 -> ~chi_20 t )
     6.16038906E-02    2     1000025         6   # BR(~t_2 -> ~chi_30 t )
    -1.10859950E-05    2     1000035         6   # BR(~t_2 -> ~chi_40 t )
     1.95545976E-01    2     1000024         5   # BR(~t_2 -> ~chi_1+ b )
    -2.19418515E-05    2     1000037         5   # BR(~t_2 -> ~chi_2+ b )
     5.80657727E-01    2     1000021         6   # BR(~t_2 -> ~g      t )
    -6.89585322E-05    2     1000006        25   # BR(~t_2 -> ~t_1    h )
     1.40810186E-05    2     1000006        23   # BR(~t_2 -> ~t_1    Z )
     3.20509680E-05    2     1000005        24   # BR(~t_2 -> ~b_1    W+)
     4.80809388E-05    2     2000005        24   # BR(~t_2 -> ~b_2    W+)
#
#         PDG            Width
DECAY   1000005     2.31311234E+02   # sbottom1 decays
#          BR         NDA      ID1       ID2
     5.16357875E-03    2     1000022         5   # BR(~b_1 -> ~chi_10 b )
     8.56653938E-05    2     1000023         5   # BR(~b_1 -> ~chi_20 b )
     3.47823561E-03    2     1000025         5   # BR(~b_1 -> ~chi_30 b )
     9.38242864E-03    2     1000035         5   # BR(~b_1 -> ~chi_40 b )
     8.33462819E-02    2    -1000024         6   # BR(~b_1 -> ~chi_1- t )
     1.88399724E-02    2    -1000037         6   # BR(~b_1 -> ~chi_2- t )
     8.79703837E-01    2     1000021         5   # BR(~b_1 -> ~g      b )
#
#         PDG            Width
DECAY   2000005     2.68617088E+02   # sbottom2 decays
#          BR         NDA      ID1       ID2
     1.89324702E-03    2     1000022         5   # BR(~b_2 -> ~chi_10 b )
     1.09968898E-04    2     1000023         5   # BR(~b_2 -> ~chi_20 b )
     2.74373483E-03    2     1000025         5   # BR(~b_2 -> ~chi_30 b )
     1.77360197E-02    2     1000035         5   # BR(~b_2 -> ~chi_40 b )
     1.84714581E-01    2    -1000024         6   # BR(~b_2 -> ~chi_1- t )
     3.56276476E-02    2    -1000037         6   # BR(~b_2 -> ~chi_2- t )
     7.57174801E-01    2     1000021         5   # BR(~b_2 -> ~g      b )
#
#         PDG            Width
DECAY   1000002     2.24920183E+02   # sup_L decays
#          BR         NDA      ID1       ID2
     9.54677698E-04    2     1000022         2   # BR(~u_L -> ~chi_10 u)
     6.73580082E-07    2     1000023         2   # BR(~u_L -> ~chi_20 u)
     1.96887228E-03    2     1000025         2   # BR(~u_L -> ~chi_30 u)
     3.08105703E-02    2     1000035         2   # BR(~u_L -> ~chi_40 u)
     2.08152763E-04    2     1000024         1   # BR(~u_L -> ~chi_1+ d)
     6.16188220E-02    2     1000037         1   # BR(~u_L -> ~chi_2+ d)
     9.04438231E-01    2     1000021         2   # BR(~u_L -> ~g      u)
#
#         PDG            Width
DECAY   2000002     2.13607400E+02   # sup_R decays
#          BR         NDA      ID1       ID2
     2.33960213E-02    2     1000022         2   # BR(~u_R -> ~chi_10 u)
     1.87398815E-06    2     1000023         2   # BR(~u_R -> ~chi_20 u)
     2.42472440E-02    2     1000025         2   # BR(~u_R -> ~chi_30 u)
     6.26356310E-09    2     1000035         2   # BR(~u_R -> ~chi_40 u)
     9.52354854E-01    2     1000021         2   # BR(~u_R -> ~g      u)
#
#         PDG            Width
DECAY   1000001     2.24924889E+02   # sdown_L decays
#          BR         NDA      ID1       ID2
     1.90384125E-03    2     1000022         1   # BR(~d_L -> ~chi_10 d)
     2.21346654E-06    2     1000023         1   # BR(~d_L -> ~chi_20 d)
     9.92403426E-04    2     1000025         1   # BR(~d_L -> ~chi_30 d)
     3.08289092E-02    2     1000035         1   # BR(~d_L -> ~chi_40 d)
     1.24790701E-04    2    -1000024         2   # BR(~d_L -> ~chi_1- u)
     6.16603274E-02    2    -1000037         2   # BR(~d_L -> ~chi_2- u)
     9.04487515E-01    2     1000021         1   # BR(~d_L -> ~g      d)
#
#         PDG            Width
DECAY   2000001     2.05979273E+02   # sdown_R decays
#          BR         NDA      ID1       ID2
     6.06571594E-03    2     1000022         1   # BR(~d_R -> ~chi_10 d)
     4.85855327E-07    2     1000023         1   # BR(~d_R -> ~chi_20 d)
     6.28640820E-03    2     1000025         1   # BR(~d_R -> ~chi_30 d)
     1.62397175E-09    2     1000035         1   # BR(~d_R -> ~chi_40 d)
     9.87647388E-01    2     1000021         1   # BR(~d_R -> ~g      d)
#
#         PDG            Width
DECAY   1000004     2.24920183E+02   # scharm_L decays
#          BR         NDA      ID1       ID2
     9.54677698E-04    2     1000022         4   # BR(~c_L -> ~chi_10 c)
     6.73580082E-07    2     1000023         4   # BR(~c_L -> ~chi_20 c)
     1.96887228E-03    2     1000025         4   # BR(~c_L -> ~chi_30 c)
     3.08105703E-02    2     1000035         4   # BR(~c_L -> ~chi_40 c)
     2.08152763E-04    2     1000024         3   # BR(~c_L -> ~chi_1+ s)
     6.16188220E-02    2     1000037         3   # BR(~c_L -> ~chi_2+ s)
     9.04438231E-01    2     1000021         4   # BR(~c_L -> ~g      c)
#
#         PDG            Width
DECAY   2000004     2.13607400E+02   # scharm_R decays
#          BR         NDA      ID1       ID2
     2.33960213E-02    2     1000022         4   # BR(~c_R -> ~chi_10 c)
     1.87398815E-06    2     1000023         4   # BR(~c_R -> ~chi_20 c)
     2.42472440E-02    2     1000025         4   # BR(~c_R -> ~chi_30 c)
     6.26356310E-09    2     1000035         4   # BR(~c_R -> ~chi_40 c)
     9.52354854E-01    2     1000021         4   # BR(~c_R -> ~g      c)
#
#         PDG            Width
DECAY   1000003     2.24924889E+02   # sstrange_L decays
#          BR         NDA      ID1       ID2
     1.90384125E-03    2     1000022         3   # BR(~s_L -> ~chi_10 s)
     2.21346654E-06    2     1000023         3   # BR(~s_L -> ~chi_20 s)
     9.92403426E-04    2     1000025         3   # BR(~s_L -> ~chi_30 s)
     3.08289092E-02    2     1000035         3   # BR(~s_L -> ~chi_40 s)
     1.24790701E-04    2    -1000024         4   # BR(~s_L -> ~chi_1- c)
     6.16603274E-02    2    -1000037         4   # BR(~s_L -> ~chi_2- c)
     9.04487515E-01    2     1000021         3   # BR(~s_L -> ~g      s)
#
#         PDG            Width
DECAY   2000003     2.05979273E+02   # sstrange_R decays
#          BR         NDA      ID1       ID2
     6.06571594E-03    2     1000022         3   # BR(~s_R -> ~chi_10 s)
     4.85855327E-07    2     1000023         3   # BR(~s_R -> ~chi_20 s)
     6.28640820E-03    2     1000025         3   # BR(~s_R -> ~chi_30 s)
     1.62397175E-09    2     1000035         3   # BR(~s_R -> ~chi_40 s)
     9.87647388E-01    2     1000021         3   # BR(~s_R -> ~g      s)
#
#         PDG            Width
DECAY   1000011     2.77632489E+01   # selectron_L decays
#          BR         NDA      ID1       ID2
     9.36736947E-02    2     1000022        11   # BR(~e_L -> ~chi_10 e-)
     1.99064755E-07    2     1000023        11   # BR(~e_L -> ~chi_20 e-)
     1.21853867E-01    2     1000025        11   # BR(~e_L -> ~chi_30 e-)
     2.60980151E-01    2     1000035        11   # BR(~e_L -> ~chi_40 e-)
     1.05164474E-03    2    -1000024        12   # BR(~e_L -> ~chi_1- nu_e)
     5.22440443E-01    2    -1000037        12   # BR(~e_L -> ~chi_2- nu_e)
#
#         PDG            Width
DECAY   2000011     2.38207451E+01   # selectron_R decays
#          BR         NDA      ID1       ID2
     4.91051030E-01    2     1000022        11   # BR(~e_R -> ~chi_10 e-)
     3.93320765E-05    2     1000023        11   # BR(~e_R -> ~chi_20 e-)
     5.08909506E-01    2     1000025        11   # BR(~e_R -> ~chi_30 e-)
     1.32185935E-07    2     1000035        11   # BR(~e_R -> ~chi_40 e-)
#
#         PDG            Width
DECAY   1000013     2.77632489E+01   # smuon_L decays
#          BR         NDA      ID1       ID2
     9.36736947E-02    2     1000022        13   # BR(~mu_L -> ~chi_10 mu-)
     1.99064755E-07    2     1000023        13   # BR(~mu_L -> ~chi_20 mu-)
     1.21853867E-01    2     1000025        13   # BR(~mu_L -> ~chi_30 mu-)
     2.60980151E-01    2     1000035        13   # BR(~mu_L -> ~chi_40 mu-)
     1.05164474E-03    2    -1000024        14   # BR(~mu_L -> ~chi_1- nu_mu)
     5.22440443E-01    2    -1000037        14   # BR(~mu_L -> ~chi_2- nu_mu)
#
#         PDG            Width
DECAY   2000013     2.38207451E+01   # smuon_R decays
#          BR         NDA      ID1       ID2
     4.91051030E-01    2     1000022        13   # BR(~mu_R -> ~chi_10 mu-)
     3.93320765E-05    2     1000023        13   # BR(~mu_R -> ~chi_20 mu-)
     5.08909506E-01    2     1000025        13   # BR(~mu_R -> ~chi_30 mu-)
     1.32185935E-07    2     1000035        13   # BR(~mu_R -> ~chi_40 mu-)
#
#         PDG            Width
DECAY   1000015     2.58349860E+01   # stau_1 decays
#          BR         NDA      ID1       ID2
     2.86512911E-01    2     1000022        15   # BR(~tau_1 -> ~chi_10  tau-)
     4.58408408E-04    2     1000023        15   # BR(~tau_1 -> ~chi_20  tau-)
     2.97990257E-01    2     1000025        15   # BR(~tau_1 -> ~chi_30  tau-)
     1.37439497E-01    2     1000035        15   # BR(~tau_1 -> ~chi_40  tau-)
     2.32731374E-03    2    -1000024        16   # BR(~tau_1 -> ~chi_1-  nu_tau)
     2.75132365E-01    2    -1000037        16   # BR(~tau_1 -> ~chi_2-  nu_tau)
     1.39247508E-04    2     1000039        15   # BR(~tau_1 -> ~G       tau-)
#
#         PDG            Width
DECAY   2000015     2.58454383E+01   # stau_2 decays
#          BR         NDA      ID1       ID2
     2.67431651E-01    2     1000022        15   # BR(~tau_2 -> ~chi_10  tau-)
     7.74572788E-04    2     1000023        15   # BR(~tau_2 -> ~chi_20  tau-)
     3.02644596E-01    2     1000025        15   # BR(~tau_2 -> ~chi_30  tau-)
     1.42962495E-01    2     1000035        15   # BR(~tau_2 -> ~chi_40  tau-)
     6.65440465E-08    2    -1000024        16   # BR(~tau_2 -> ~chi_1-  nu_tau)
     2.86186619E-01    2    -1000037        16   # BR(~tau_2 -> ~chi_2-  nu_tau)
#
#         PDG            Width
DECAY   1000012     2.77626073E+01   # snu_eL decays
#          BR         NDA      ID1       ID2
     1.17666402E-01    2     1000022        12   # BR(~nu_eL -> ~chi_10 nu_e)
     3.91284731E-05    2     1000023        12   # BR(~nu_eL -> ~chi_20 nu_e)
     9.71625992E-02    2     1000025        12   # BR(~nu_eL -> ~chi_30 nu_e)
     2.61285423E-01    2     1000035        12   # BR(~nu_eL -> ~chi_40 nu_e)
     1.75416584E-03    2     1000024        11   # BR(~nu_eL -> ~chi_1+ e-)
     5.22092281E-01    2     1000037        11   # BR(~nu_eL -> ~chi_2+ e-)
#
#         PDG            Width
DECAY   1000014     2.77626073E+01   # snu_muL decays
#          BR         NDA      ID1       ID2
     1.17666402E-01    2     1000022        14   # BR(~nu_muL -> ~chi_10 nu_mu)
     3.91284731E-05    2     1000023        14   # BR(~nu_muL -> ~chi_20 nu_mu)
     9.71625992E-02    2     1000025        14   # BR(~nu_muL -> ~chi_30 nu_mu)
     2.61285423E-01    2     1000035        14   # BR(~nu_muL -> ~chi_40 nu_mu)
     1.75416584E-03    2     1000024        13   # BR(~nu_muL -> ~chi_1+ mu-)
     5.22092281E-01    2     1000037        13   # BR(~nu_muL -> ~chi_2+ mu-)
#
#         PDG            Width
DECAY   1000016     2.77935471E+01   # snu_tauL decays
#          BR         NDA      ID1       ID2
     1.17535416E-01    2     1000022        16   # BR(~nu_tauL -> ~chi_10 nu_tau)
     3.90849152E-05    2     1000023        16   # BR(~nu_tauL -> ~chi_20 nu_tau)
     9.70544375E-02    2     1000025        16   # BR(~nu_tauL -> ~chi_30 nu_tau)
     2.60994559E-01    2     1000035        16   # BR(~nu_tauL -> ~chi_40 nu_tau)
     2.86483134E-03    2     1000024        15   # BR(~nu_tauL -> ~chi_1+ tau-)
     5.21511671E-01    2     1000037        15   # BR(~nu_tauL -> ~chi_2+ tau-)
#
#         PDG            Width
DECAY   1000024     8.81862795E-05   # chargino1+ decays
#          BR         NDA      ID1       ID2
     1.00134929E-03    2     1000039        24   # BR(~chi_1+ -> ~G       W+)
#           BR         NDA      ID1       ID2       ID3
     3.33316897E-01    3     1000022         2        -1   # BR(~chi_1+ -> ~chi_10 u    db)
     3.33316897E-01    3     1000022         4        -3   # BR(~chi_1+ -> ~chi_10 c    sb)
     1.11105765E-01    3     1000022       -11        12   # BR(~chi_1+ -> ~chi_10 e+   nu_e)
     1.11105765E-01    3     1000022       -13        14   # BR(~chi_1+ -> ~chi_10 mu+  nu_mu)
     1.10153327E-01    3     1000022       -15        16   # BR(~chi_1+ -> ~chi_10 tau+ nu_tau)
#
#         PDG            Width
DECAY   1000037     3.58743912E+01   # chargino2+ decays
#          BR         NDA      ID1       ID2
     2.34616181E-01    2     1000024        23   # BR(~chi_2+ -> ~chi_1+  Z )
     1.10594316E-01    2     1000022        24   # BR(~chi_2+ -> ~chi_10  W+)
     2.28639948E-01    2     1000023        24   # BR(~chi_2+ -> ~chi_20  W+)
     1.18148501E-01    2     1000025        24   # BR(~chi_2+ -> ~chi_30  W+)
     2.35700284E-01    2     1000024        25   # BR(~chi_2+ -> ~chi_1+  h )
     1.79511820E-02    2     1000024        35   # BR(~chi_2+ -> ~chi_1+  H )
     1.81920651E-02    2     1000024        36   # BR(~chi_2+ -> ~chi_1+  A )
     1.02535928E-02    2     1000022        37   # BR(~chi_2+ -> ~chi_10  H+)
     1.79924635E-02    2     1000023        37   # BR(~chi_2+ -> ~chi_20  H+)
     7.90186818E-03    2     1000025        37   # BR(~chi_2+ -> ~chi_30  H+)
     9.59660764E-06    2     1000039        24   # BR(~chi_2+ -> ~G       W+)
     5.46853800E-10    2     1000039        37   # BR(~chi_2+ -> ~G       H+)
#
#         PDG            Width
DECAY   1000022    1.0E-05    # neutralino1 decays
#          BR         NDA      ID1       ID2
     5.02066770E-01    2     1000039        22   # BR(~chi_10 -> ~G        gam)
     4.87131963E-01    2     1000039        23   # BR(~chi_10 -> ~G        Z)
     1.08012673E-02    2     1000039        25   # BR(~chi_10 -> ~G        h)
#
#         PDG            Width
DECAY   1000023     9.49842369E-05   # neutralino2 decays
#          BR         NDA      ID1       ID2
     4.64261114E-04    2     1000022        22   # BR(~chi_20 -> ~chi_10 gam)
#          BR         NDA      ID1       ID2
     2.40665046E-08    2     1000039        22   # BR(~chi_20 -> ~G        gam)
     3.60028720E-05    2     1000039        23   # BR(~chi_20 -> ~G        Z)
     8.39813176E-04    2     1000039        25   # BR(~chi_20 -> ~G        h)
#           BR         NDA      ID1       ID2       ID3
     1.18764538E-01    3     1000022        -2         2   # BR(~chi_20 -> ~chi_10 ub      u)
     1.53757974E-01    3     1000022        -1         1   # BR(~chi_20 -> ~chi_10 db      d)
     1.18764538E-01    3     1000022        -4         4   # BR(~chi_20 -> ~chi_10 cb      c)
     1.53757974E-01    3     1000022        -3         3   # BR(~chi_20 -> ~chi_10 sb      s)
     1.38390963E-01    3     1000022        -5         5   # BR(~chi_20 -> ~chi_10 bb      b)
     3.51045462E-02    3     1000022       -11        11   # BR(~chi_20 -> ~chi_10 e+      e-)
     3.51045462E-02    3     1000022       -13        13   # BR(~chi_20 -> ~chi_10 mu+     mu-)
     3.47173368E-02    3     1000022       -15        15   # BR(~chi_20 -> ~chi_10 tau+    tau-)
     7.00984387E-02    3     1000022       -12        12   # BR(~chi_20 -> ~chi_10 nu_eb   nu_e)
     7.00984387E-02    3     1000022       -14        14   # BR(~chi_20 -> ~chi_10 nu_mub  nu_mu)
     7.00984387E-02    3     1000022       -16        16   # BR(~chi_20 -> ~chi_10 nu_taub nu_tau)
     4.02974995E-07    3     1000024        -2         1   # BR(~chi_20 -> ~chi_1+ ub      d)
     4.02974995E-07    3    -1000024        -1         2   # BR(~chi_20 -> ~chi_1- db      u)
     4.02974995E-07    3     1000024        -4         3   # BR(~chi_20 -> ~chi_1+ cb      s)
     4.02974995E-07    3    -1000024        -3         4   # BR(~chi_20 -> ~chi_1- sb      c)
     1.34325009E-07    3     1000024       -12        11   # BR(~chi_20 -> ~chi_1+ nu_eb   e-)
     1.34325009E-07    3    -1000024        12       -11   # BR(~chi_20 -> ~chi_1- nu_e    e+)
     1.34325009E-07    3     1000024       -14        13   # BR(~chi_20 -> ~chi_1+ nu_mub  mu-)
     1.34325009E-07    3    -1000024        14       -13   # BR(~chi_20 -> ~chi_1- nu_mu   mu+)
     8.66129937E-09    3     1000024       -16        15   # BR(~chi_20 -> ~chi_1+ nu_taub tau-)
     8.66129937E-09    3    -1000024        16       -15   # BR(~chi_20 -> ~chi_1- nu_tau  tau+)
#
#         PDG            Width
DECAY   1000025     2.75138237E-04   # neutralino3 decays
#          BR         NDA      ID1       ID2
     3.03041768E-04    2     1000022        22   # BR(~chi_30 -> ~chi_10 gam)
     4.79018905E-04    2     1000023        22   # BR(~chi_30 -> ~chi_20 gam)
#          BR         NDA      ID1       ID2
     3.71166233E-04    2     1000039        22   # BR(~chi_30 -> ~G        gam)
     2.98650416E-04    2     1000039        23   # BR(~chi_30 -> ~G        Z)
     7.97364380E-06    2     1000039        25   # BR(~chi_30 -> ~G        h)
#           BR         NDA      ID1       ID2       ID3
     7.09098595E-06    3     1000022        -2         2   # BR(~chi_30 -> ~chi_10 ub      u)
     8.42985921E-06    3     1000022        -1         1   # BR(~chi_30 -> ~chi_10 db      d)
     7.09098595E-06    3     1000022        -4         4   # BR(~chi_30 -> ~chi_10 cb      c)
     8.42985921E-06    3     1000022        -3         3   # BR(~chi_30 -> ~chi_10 sb      s)
     9.07496483E-06    3     1000022        -5         5   # BR(~chi_30 -> ~chi_10 bb      b)
     1.47204148E-06    3     1000022       -11        11   # BR(~chi_30 -> ~chi_10 e+      e-)
     1.47204148E-06    3     1000022       -13        13   # BR(~chi_30 -> ~chi_10 mu+     mu-)
     1.58879824E-06    3     1000022       -15        15   # BR(~chi_30 -> ~chi_10 tau+    tau-)
     4.12767775E-06    3     1000022       -12        12   # BR(~chi_30 -> ~chi_10 nu_eb   nu_e)
     4.12767775E-06    3     1000022       -14        14   # BR(~chi_30 -> ~chi_10 nu_mub  nu_mu)
     4.12767775E-06    3     1000022       -16        16   # BR(~chi_30 -> ~chi_10 nu_taub nu_tau)
     2.68450240E-02    3     1000023        -2         2   # BR(~chi_30 -> ~chi_20 ub      u)
     3.47548787E-02    3     1000023        -1         1   # BR(~chi_30 -> ~chi_20 db      d)
     2.68450240E-02    3     1000023        -4         4   # BR(~chi_30 -> ~chi_20 cb      c)
     3.47548787E-02    3     1000023        -3         3   # BR(~chi_30 -> ~chi_20 sb      s)
     3.07920202E-02    3     1000023        -5         5   # BR(~chi_30 -> ~chi_20 bb      b)
     7.93494592E-03    3     1000023       -11        11   # BR(~chi_30 -> ~chi_20 e+      e-)
     7.93494592E-03    3     1000023       -13        13   # BR(~chi_30 -> ~chi_20 mu+     mu-)
     7.83738325E-03    3     1000023       -15        15   # BR(~chi_30 -> ~chi_20 tau+    tau-)
     1.58447046E-02    3     1000023       -12        12   # BR(~chi_30 -> ~chi_20 nu_eb   nu_e)
     1.58447046E-02    3     1000023       -14        14   # BR(~chi_30 -> ~chi_20 nu_mub  nu_mu)
     1.58447046E-02    3     1000023       -16        16   # BR(~chi_30 -> ~chi_20 nu_taub nu_tau)
     1.28987727E-01    3     1000024        -2         1   # BR(~chi_30 -> ~chi_1+ ub      d)
     1.28987727E-01    3    -1000024        -1         2   # BR(~chi_30 -> ~chi_1- db      u)
     1.28987727E-01    3     1000024        -4         3   # BR(~chi_30 -> ~chi_1+ cb      s)
     1.28987727E-01    3    -1000024        -3         4   # BR(~chi_30 -> ~chi_1- sb      c)
     4.29958352E-02    3     1000024       -12        11   # BR(~chi_30 -> ~chi_1+ nu_eb   e-)
     4.29958352E-02    3    -1000024        12       -11   # BR(~chi_30 -> ~chi_1- nu_e    e+)
     4.29958352E-02    3     1000024       -14        13   # BR(~chi_30 -> ~chi_1+ nu_mub  mu-)
     4.29958352E-02    3    -1000024        14       -13   # BR(~chi_30 -> ~chi_1- nu_mu   mu+)
     4.26578266E-02    3     1000024       -16        15   # BR(~chi_30 -> ~chi_1+ nu_taub tau-)
     4.26578266E-02    3    -1000024        16       -15   # BR(~chi_30 -> ~chi_1- nu_tau  tau+)
#
#         PDG            Width
DECAY   1000035     3.58747952E+01   # neutralino4 decays
#          BR         NDA      ID1       ID2
     1.75062587E-03    2     1000022        23   # BR(~chi_40 -> ~chi_10   Z )
     2.31009686E-01    2     1000023        23   # BR(~chi_40 -> ~chi_20   Z )
     1.96123872E-03    2     1000025        23   # BR(~chi_40 -> ~chi_30   Z )
     2.28509472E-01    2     1000024       -24   # BR(~chi_40 -> ~chi_1+   W-)
     2.28509472E-01    2    -1000024        24   # BR(~chi_40 -> ~chi_1-   W+)
     1.12344472E-01    2     1000022        25   # BR(~chi_40 -> ~chi_10   h )
     1.73496359E-03    2     1000022        35   # BR(~chi_40 -> ~chi_10   H )
     8.48872445E-03    2     1000022        36   # BR(~chi_40 -> ~chi_10   A )
     3.68200372E-03    2     1000023        25   # BR(~chi_40 -> ~chi_20   h )
     1.46253297E-02    2     1000023        35   # BR(~chi_40 -> ~chi_20   H )
     3.28719367E-03    2     1000023        36   # BR(~chi_40 -> ~chi_20   A )
     1.19933032E-01    2     1000025        25   # BR(~chi_40 -> ~chi_30   h )
     1.47219737E-03    2     1000025        35   # BR(~chi_40 -> ~chi_30   H )
     6.40646312E-03    2     1000025        36   # BR(~chi_40 -> ~chi_30   A )
     1.81377642E-02    2     1000024       -37   # BR(~chi_40 -> ~chi_1+   H-)
     1.81377642E-02    2    -1000024        37   # BR(~chi_40 -> ~chi_1-   H+)
     2.30341795E-06    2     1000039        22   # BR(~chi_40 -> ~G        gam)
     7.29233418E-06    2     1000039        23   # BR(~chi_40 -> ~G        Z)
     4.93770214E-10    2     1000039        25   # BR(~chi_40 -> ~G        h)
     5.41352977E-10    2     1000039        35   # BR(~chi_40 -> ~G        H)
     3.05620340E-12    2     1000039        36   # BR(~chi_40 -> ~G        A)
#
#         PDG            Width
DECAY        25     4.21789049E-03   # h decays
#          BR         NDA      ID1       ID2
     6.01779836E-01    2           5        -5   # BR(h -> b       bb     )
     6.22467088E-02    2         -15        15   # BR(h -> tau+    tau-   )
     2.20326212E-04    2         -13        13   # BR(h -> mu+     mu-    )
     4.66167526E-04    2           3        -3   # BR(h -> s       sb     )
     2.01109244E-02    2           4        -4   # BR(h -> c       cb     )
     6.64153556E-02    2          21        21   # BR(h -> g       g      )
     2.31002256E-03    2          22        22   # BR(h -> gam     gam    )
     1.62672331E-03    2          22        23   # BR(h -> Z       gam    )
     2.16739867E-01    2          24       -24   # BR(h -> W+      W-     )
     2.80840679E-02    2          23        23   # BR(h -> Z       Z      )
#
#         PDG            Width
DECAY        35     3.95188914E+01   # H decays
#          BR         NDA      ID1       ID2
     1.40941629E-03    2           5        -5   # BR(H -> b       bb     )
     2.35792277E-04    2         -15        15   # BR(H -> tau+    tau-   )
     8.33613484E-07    2         -13        13   # BR(H -> mu+     mu-    )
     1.06731598E-06    2           3        -3   # BR(H -> s       sb     )
     9.63245911E-06    2           4        -4   # BR(H -> c       cb     )
     9.53092158E-01    2           6        -6   # BR(H -> t       tb     )
     7.63293580E-04    2          21        21   # BR(H -> g       g      )
     2.62697091E-06    2          22        22   # BR(H -> gam     gam    )
     1.10944042E-06    2          23        22   # BR(H -> Z       gam    )
     3.21859989E-04    2          24       -24   # BR(H -> W+      W-     )
     1.60491069E-04    2          23        23   # BR(H -> Z       Z      )
     8.65497130E-04    2          25        25   # BR(H -> h       h      )
     8.90306563E-24    2          36        36   # BR(H -> A       A      )
     3.54774163E-11    2          23        36   # BR(H -> Z       A      )
     5.28932313E-12    2          24       -37   # BR(H -> W+      H-     )
     5.28932313E-12    2         -24        37   # BR(H -> W-      H+     )
     3.34103852E-05    2     1000024  -1000024   # BR(H -> ~chi_1+ ~chi_1-)
     6.01852878E-04    2     1000022   1000022   # BR(H -> ~chi_10 ~chi_10)
     8.43035598E-06    2     1000023   1000023   # BR(H -> ~chi_20 ~chi_20)
     2.93131636E-04    2     1000025   1000025   # BR(H -> ~chi_30 ~chi_30)
     2.36432334E-02    2     1000022   1000023   # BR(H -> ~chi_10 ~chi_20)
     2.70507835E-08    2     1000022   1000025   # BR(H -> ~chi_10 ~chi_30)
     1.85561364E-02    2     1000023   1000025   # BR(H -> ~chi_20 ~chi_30)
#
#         PDG            Width
DECAY        36     3.99689107E+01   # A decays
#          BR         NDA      ID1       ID2
     1.41198105E-03    2           5        -5   # BR(A -> b       bb     )
     2.33336766E-04    2         -15        15   # BR(A -> tau+    tau-   )
     8.24929761E-07    2         -13        13   # BR(A -> mu+     mu-    )
     1.08755080E-06    2           3        -3   # BR(A -> s       sb     )
     9.53041296E-06    2           4        -4   # BR(A -> c       cb     )
     9.53825319E-01    2           6        -6   # BR(A -> t       tb     )
     9.02813785E-04    2          21        21   # BR(A -> g       g      )
     2.76236631E-06    2          22        22   # BR(A -> gam     gam    )
     1.29349845E-06    2          23        22   # BR(A -> Z       gam    )
     3.13546608E-04    2          23        25   # BR(A -> Z       h      )
     6.29388504E-04    2     1000024  -1000024   # BR(A -> ~chi_1+ ~chi_1-)
     2.46431755E-02    2     1000022   1000022   # BR(A -> ~chi_10 ~chi_10)
     6.40002817E-07    2     1000023   1000023   # BR(A -> ~chi_20 ~chi_20)
     1.71253617E-02    2     1000025   1000025   # BR(A -> ~chi_30 ~chi_30)
     4.42199683E-04    2     1000022   1000023   # BR(A -> ~chi_10 ~chi_20)
     5.35670532E-05    2     1000022   1000025   # BR(A -> ~chi_10 ~chi_30)
     4.03171307E-04    2     1000023   1000025   # BR(A -> ~chi_20 ~chi_30)
#
#         PDG            Width
DECAY        37     3.91531373E+01   # H+ decays
#          BR         NDA      ID1       ID2
     2.26558909E-06    2           4        -5   # BR(H+ -> c       bb     )
     2.38412338E-04    2         -15        16   # BR(H+ -> tau+    nu_tau )
     8.42873736E-07    2         -13        14   # BR(H+ -> mu+     nu_mu  )
     1.44042241E-08    2           2        -5   # BR(H+ -> u       bb     )
     5.21982795E-08    2           2        -3   # BR(H+ -> u       sb     )
     1.04007045E-05    2           4        -3   # BR(H+ -> c       sb     )
     9.55982752E-01    2           6        -5   # BR(H+ -> t       bb     )
     3.21398851E-04    2          24        25   # BR(H+ -> W+      h      )
     6.27431528E-13    2          24        36   # BR(H+ -> W+      A      )
     2.17152012E-02    2     1000024   1000022   # BR(H+ -> ~chi_1+ ~chi_10)
     1.47304822E-04    2     1000024   1000023   # BR(H+ -> ~chi_1+ ~chi_20)
     2.15813547E-02    2     1000024   1000025   # BR(H+ -> ~chi_1+ ~chi_30)
