#
#                              ======================
#                              | THE SUSYHIT OUTPUT |
#                              ======================
#
#
#              ------------------------------------------------------
#              |     This is the output of the SUSY-HIT package     |
#              |  created by A.Djouadi, M.Muehlleitner and M.Spira. |
#              |  In case of problems with SUSY-HIT email to        |
#              |           margarete.muehlleitner@cern.ch           |
#              |           michael.spira@psi.ch                     |
#              |           abdelhak.djouadi@cern.ch                 |
#              ------------------------------------------------------
#
#              ------------------------------------------------------
#              |  SUSY Les Houches Accord - MSSM Spectrum + Decays  |
#              |              based on the decay programs           |
#              |                                                    |
#              |                     SDECAY 1.3b                    |
#              |                                                    |
#              |  Authors: M.Muhlleitner, A.Djouadi and Y.Mambrini  |
#              |  Ref.:    Comput.Phys.Commun.168(2005)46           |
#              |           [hep-ph/0311167]                         |
#              |                                                    |
#              |                     HDECAY 3.4                     |
#              |                                                    |
#              |  By: A.Djouadi,J.Kalinowski,M.Muhlleitner,M.Spira  |
#              |  Ref.:    Comput.Phys.Commun.108(1998)56           |
#              |           [hep-ph/9704448]                         |
#              |                                                    |
#              |                                                    |
#              |  If not stated otherwise all DRbar couplings and   |
#              |  soft SUSY breaking masses are given at the scale  |
#              |  Q=  0.50006839E+04
#              |                                                    |
#              ------------------------------------------------------
#
#
BLOCK DCINFO  # Decay Program information
     1   SDECAY/HDECAY # decay calculator
     2   1.3b  /3.4    # version number
#
BLOCK SPINFO  # Spectrum calculator information
     1    SOFTSUSY    # spectrum calculator                
     2    3.4.0       # version number                     
#
BLOCK MODSEL  # Model selection
     1     0   #  nonUniversal                                     
#
BLOCK SMINPUTS  # Standard Model inputs
         1     1.25778332E+02   # alpha_em^-1(M_Z)^MSbar
         2     1.16570000E-05   # G_F [GeV^-2]
         3     1.17200002E-01   # alpha_S(M_Z)^MSbar
         4     9.11876000E+01   # M_Z pole mass
         5     4.25000000E+00   # mb(mb)^MSbar
         6     1.72500000E+02   # mt pole mass
         7     1.77682000E+00   # mtau pole mass
#
BLOCK MINPAR  # Input parameters - minimal models
         3     1.00000000E+01   # tanb                
#
BLOCK EXTPAR  # Input parameters - non-minimal models
         0    -1.00000000E+00   # Set                 
         1     6.00000000E+01   # M_1(MX)             
         2     3.00000000E+03   # M_2(MX)             
         3     6.88112000E+02   # M_3(MX)             
        11     5.00000000E+03   # At(MX)              
        12     5.00000000E+03   # Ab(MX)              
        13     0.00000000E+00   # Atau(MX)            
        23    -1.93818600E+03   # mu(MX)              
        26     3.00000000E+03   # mA(pole)            
        31     5.00000000E+03   # meL(MX)             
        32     5.00000000E+03   # mmuL(MX)            
        33     5.00000000E+03   # mtauL(MX)           
        34     5.00000000E+03   # meR(MX)             
        35     5.00000000E+03   # mmuR(MX)            
        36     5.00000000E+03   # mtauR(MX)           
        41     5.00000000E+03   # mqL1(MX)            
        42     5.00000000E+03   # mqL2(MX)            
        43     5.00000000E+03   # mqL3(MX)            
        44     5.00000000E+03   # muR(MX)             
        45     5.00000000E+03   # mcR(MX)             
        46     5.00000000E+03   # mtR(MX)             
        47     5.00000000E+03   # mdR(MX)             
        48     5.00000000E+03   # msR(MX)             
        49     5.00000000E+03   # mbR(MX)             
#
BLOCK MASS  # Mass Spectrum
# PDG code           mass       particle
        24     8.00940434E+01   # W+
        25     1.24218713E+02   # h
        35     3.00007562E+03   # H
        36     2.99999995E+03   # A
        37     3.00087493E+03   # H+
         5     4.87878001E+00   # b-quark pole mass calculated from mb(mb)_Msbar
   1000001     5.06341298E+03   # ~d_L
   2000001     5.04561924E+03   # ~d_R
   1000002     5.06293558E+03   # ~u_L
   2000002     5.04535057E+03   # ~u_R
   1000003     5.06341298E+03   # ~s_L
   2000003     5.04561924E+03   # ~s_R
   1000004     5.06293558E+03   # ~c_L
   2000004     5.04535057E+03   # ~c_R
   1000005     5.01093651E+03   # ~b_1
   2000005     5.04498749E+03   # ~b_2
   1000006     4.90266728E+03   # ~t_1
   2000006     5.05931727E+03   # ~t_2
   1000011     5.01903657E+03   # ~e_L
   2000011     5.00590148E+03   # ~e_R
   1000012     5.01808799E+03   # ~nu_eL
   1000013     5.01903657E+03   # ~mu_L
   2000013     5.00590148E+03   # ~mu_R
   1000014     5.01808799E+03   # ~nu_muL
   1000015     5.00405657E+03   # ~tau_1
   2000015     5.01933618E+03   # ~tau_2
   1000016     5.01755966E+03   # ~nu_tauL
   1000021     9.00000883E+02   # ~g
   1000022     6.02986523E+01   # ~chi_10
   1000023     1.99937965E+03   # ~chi_20
   1000025    -2.00240003E+03   # ~chi_30
   1000035     3.07450323E+03   # ~chi_40
   1000024     1.99999993E+03   # ~chi_1+
   1000037     3.07467124E+03   # ~chi_2+
#
BLOCK NMIX  # Neutralino Mixing Matrix
  1  1     9.99749305E-01   # N_11
  1  2     1.11587716E-04   # N_12
  1  3    -2.23274885E-02   # N_13
  1  4     1.67267505E-03   # N_14
  2  1     1.45964365E-02   # N_21
  2  2     4.53004503E-02   # N_22
  2  3     7.06689804E-01   # N_23
  2  4     7.05920912E-01   # N_24
  3  1    -1.69689527E-02   # N_31
  3  2     1.19447064E-02   # N_32
  3  3    -7.06777406E-01   # N_33
  3  4     7.07131584E-01   # N_34
  4  1    -5.70722387E-04   # N_41
  4  2     9.98901988E-01   # N_42
  4  3    -2.35945333E-02   # N_43
  4  4    -4.04696372E-02   # N_44
#
BLOCK UMIX  # Chargino Mixing Matrix U
  1  1     3.32982256E-02   # U_11
  1  2     9.99445460E-01   # U_12
  2  1    -9.99445460E-01   # U_21
  2  2     3.32982256E-02   # U_22
#
BLOCK VMIX  # Chargino Mixing Matrix V
  1  1     5.71640679E-02   # V_11
  1  2    -9.98364798E-01   # V_12
  2  1    -9.98364798E-01   # V_21
  2  2    -5.71640679E-02   # V_22
#
BLOCK STOPMIX  # Stop Mixing Matrix
  1  1    -5.20040185E-01   # cos(theta_t)
  1  2     8.54141795E-01   # sin(theta_t)
  2  1    -8.54141795E-01   # -sin(theta_t)
  2  2    -5.20040185E-01   # cos(theta_t)
#
BLOCK SBOTMIX  # Sbottom Mixing Matrix
  1  1     9.90530927E-01   # cos(theta_b)
  1  2    -1.37289776E-01   # sin(theta_b)
  2  1     1.37289776E-01   # -sin(theta_b)
  2  2     9.90530927E-01   # cos(theta_b)
#
BLOCK STAUMIX  # Stau Mixing Matrix
  1  1    -2.18698408E-01   # cos(theta_tau)
  1  2     9.75792502E-01   # sin(theta_tau)
  2  1    -9.75792502E-01   # -sin(theta_tau)
  2  2    -2.18698408E-01   # cos(theta_tau)
#
BLOCK ALPHA  # Higgs mixing
          -1.05396145E-01   # Mixing angle in the neutral Higgs boson sector
#
BLOCK HMIX Q=  5.00068390E+03  # DRbar Higgs Parameters
         1    -1.97248612E+03   # mu(Q)MSSM           
         2     9.47600438E+00   # tan                 
         3     2.42145680E+02   # higgs               
         4     8.31436628E+06   # mA^2(Q)MSSM         
#
BLOCK GAUGE Q=  5.00068390E+03  # The gauge couplings
     1     3.70655667E-01   # gprime(Q) DRbar
     2     6.31813917E-01   # g(Q) DRbar
     3     1.01018361E+00   # g3(Q) DRbar
#
BLOCK AU Q=  5.00068390E+03  # The trilinear couplings
  1  1     5.00000001E+03   # A_u(Q) DRbar
  2  2     5.00000001E+03   # A_c(Q) DRbar
  3  3     5.00000001E+03   # A_t(Q) DRbar
#
BLOCK AD Q=  5.00068390E+03  # The trilinear couplings
  1  1     5.00000000E+03   # A_d(Q) DRbar
  2  2     5.00000000E+03   # A_s(Q) DRbar
  3  3     5.00000001E+03   # A_b(Q) DRbar
#
BLOCK AE Q=  5.00068390E+03  # The trilinear couplings
  1  1     0.00000000E+00   # A_e(Q) DRbar
  2  2     0.00000000E+00   # A_mu(Q) DRbar
  3  3    -5.31673881E-10   # A_tau(Q) DRbar
#
BLOCK Yu Q=  5.00068390E+03  # The Yukawa couplings
  1  1     0.00000000E+00   # y_u(Q) DRbar
  2  2     0.00000000E+00   # y_c(Q) DRbar
  3  3     8.12526494E-01   # y_t(Q) DRbar
#
BLOCK Yd Q=  5.00068390E+03  # The Yukawa couplings
  1  1     0.00000000E+00   # y_d(Q) DRbar
  2  2     0.00000000E+00   # y_s(Q) DRbar
  3  3     1.29828173E-01   # y_b(Q) DRbar
#
BLOCK Ye Q=  5.00068390E+03  # The Yukawa couplings
  1  1     0.00000000E+00   # y_e(Q) DRbar
  2  2     0.00000000E+00   # y_mu(Q) DRbar
  3  3     9.64732434E-02   # y_tau(Q) DRbar
#
BLOCK MSOFT Q=  5.00068390E+03  # The soft SUSY breaking masses at the scale Q
         1     6.00000000E+01   # M_1(Q)              
         2     3.00000000E+03   # M_2(Q)              
         3     6.88112000E+02   # M_3(Q)              
        21     4.75127292E+06   # mH1^2(Q)            
        22    -3.36605628E+06   # mH2^2(Q)            
        31     5.00000000E+03   # meL(Q)              
        32     5.00000000E+03   # mmuL(Q)             
        33     5.00000000E+03   # mtauL(Q)            
        34     5.00000000E+03   # meR(Q)              
        35     5.00000000E+03   # mmuR(Q)             
        36     5.00000000E+03   # mtauR(Q)            
        41     5.00000000E+03   # mqL1(Q)             
        42     5.00000000E+03   # mqL2(Q)             
        43     5.00000000E+03   # mqL3(Q)             
        44     5.00000000E+03   # muR(Q)              
        45     5.00000000E+03   # mcR(Q)              
        46     5.00000000E+03   # mtR(Q)              
        47     5.00000000E+03   # mdR(Q)              
        48     5.00000000E+03   # msR(Q)              
        49     5.00000000E+03   # mbR(Q)              
#
#
#
#                             =================
#                             |The decay table|
#                             =================
#
# - The QCD corrections to the decays gluino -> squark  + quark
#                                     squark -> gaugino + quark_prime
#                                     squark -> squark_prime + Higgs
#                                     squark -> gluino  + quark
#   are included.
#
# - The multi-body decays for the inos, stops and sbottoms are included.
#
# - The loop induced decays for the gluino, neutralinos and stops
#   are included.
#
# - The SUSY decays of the top quark are included.
#
#
#         PDG            Width
DECAY         6     1.39893480E+00   # top decays
#          BR         NDA      ID1       ID2
     1.00000000E+00    2           5        24   # BR(t ->  b    W+)
#
#         PDG            Width
DECAY   1000021     4.85071602E-06   # gluino decays
#          BR         NDA      ID1       ID2
     2.36446623E-05    2     1000022        21   # BR(~g -> ~chi_10 g)
#           BR         NDA      ID1       ID2       ID3
     8.51460215E-02    3     1000022         1        -1   # BR(~g -> ~chi_10 d  db)
     2.90226869E-01    3     1000022         2        -2   # BR(~g -> ~chi_10 u  ub)
     8.51460215E-02    3     1000022         3        -3   # BR(~g -> ~chi_10 s  sb)
     2.90226869E-01    3     1000022         4        -4   # BR(~g -> ~chi_10 c  cb)
     8.60842010E-02    3     1000022         5        -5   # BR(~g -> ~chi_10 b  bb)
     1.63146373E-01    3     1000022         6        -6   # BR(~g -> ~chi_10 t  tb)
#
#         PDG            Width
DECAY   1000006     3.95757137E+02   # stop1 decays
#          BR         NDA      ID1       ID2
     2.19289161E-02    2     1000022         6   # BR(~t_1 -> ~chi_10 t )
     5.70106720E-02    2     1000023         6   # BR(~t_1 -> ~chi_20 t )
     5.46609791E-02    2     1000025         6   # BR(~t_1 -> ~chi_30 t )
     5.99092126E-03    2     1000035         6   # BR(~t_1 -> ~chi_40 t )
     7.99578556E-02    2     1000024         5   # BR(~t_1 -> ~chi_1+ b )
     1.18689444E-02    2     1000037         5   # BR(~t_1 -> ~chi_2+ b )
     7.68581711E-01    2     1000021         6   # BR(~t_1 -> ~g      t )
#
#         PDG            Width
DECAY   2000006     4.04235234E+02   # stop2 decays
#          BR         NDA      ID1       ID2
     9.16673955E-03    2     1000022         6   # BR(~t_2 -> ~chi_10 t )
     5.88708497E-02    2     1000023         6   # BR(~t_2 -> ~chi_20 t )
     6.14102179E-02    2     1000025         6   # BR(~t_2 -> ~chi_30 t )
     1.29423259E-02    2     1000035         6   # BR(~t_2 -> ~chi_40 t )
     3.85212748E-02    2     1000024         5   # BR(~t_2 -> ~chi_1+ b )
     2.55783178E-02    2     1000037         5   # BR(~t_2 -> ~chi_2+ b )
     7.90174194E-01    2     1000021         6   # BR(~t_2 -> ~g      t )
     6.97432100E-04    2     1000006        25   # BR(~t_2 -> ~t_1    h )
     2.63864789E-03    2     1000006        23   # BR(~t_2 -> ~t_1    Z )
#
#         PDG            Width
DECAY   1000005     3.84988890E+02   # sbottom1 decays
#          BR         NDA      ID1       ID2
     2.07918203E-03    2     1000022         5   # BR(~b_1 -> ~chi_10 b )
     1.69580444E-03    2     1000023         5   # BR(~b_1 -> ~chi_20 b )
     1.52121053E-03    2     1000025         5   # BR(~b_1 -> ~chi_30 b )
     1.91043603E-02    2     1000035         5   # BR(~b_1 -> ~chi_40 b )
     1.19287608E-01    2    -1000024         6   # BR(~b_1 -> ~chi_1- t )
     3.86280930E-02    2    -1000037         6   # BR(~b_1 -> ~chi_2- t )
     8.16281657E-01    2     1000021         5   # BR(~b_1 -> ~g      b )
     1.40208446E-03    2     1000006       -24   # BR(~b_1 -> ~t_1    W-)
#
#         PDG            Width
DECAY   2000005     3.23154652E+02   # sbottom2 decays
#          BR         NDA      ID1       ID2
     9.01955315E-03    2     1000022         5   # BR(~b_2 -> ~chi_10 b )
     1.79249840E-03    2     1000023         5   # BR(~b_2 -> ~chi_20 b )
     1.93275682E-03    2     1000025         5   # BR(~b_2 -> ~chi_30 b )
     4.88073771E-04    2     1000035         5   # BR(~b_2 -> ~chi_40 b )
     6.42176318E-03    2    -1000024         6   # BR(~b_2 -> ~chi_1- t )
     9.85592973E-04    2    -1000037         6   # BR(~b_2 -> ~chi_2- t )
     9.79225948E-01    2     1000021         5   # BR(~b_2 -> ~g      b )
     1.33813683E-04    2     1000006       -24   # BR(~b_2 -> ~t_1    W-)
#
#         PDG            Width
DECAY   1000002     3.41790955E+02   # sup_L decays
#          BR         NDA      ID1       ID2
     2.18688835E-03    2     1000022         2   # BR(~u_L -> ~chi_10 u)
     9.43713242E-05    2     1000023         2   # BR(~u_L -> ~chi_20 u)
     3.02506735E-06    2     1000025         2   # BR(~u_L -> ~chi_30 u)
     2.27339502E-02    2     1000035         2   # BR(~u_L -> ~chi_40 u)
     2.65911685E-04    2     1000024         1   # BR(~u_L -> ~chi_1+ d)
     4.54233886E-02    2     1000037         1   # BR(~u_L -> ~chi_2+ d)
     9.29292465E-01    2     1000021         2   # BR(~u_L -> ~g      u)
#
#         PDG            Width
DECAY   2000002     3.28284677E+02   # sup_R decays
#          BR         NDA      ID1       ID2
     3.62615320E-02    2     1000022         2   # BR(~u_R -> ~chi_10 u)
     5.48998989E-06    2     1000023         2   # BR(~u_R -> ~chi_20 u)
     7.41136055E-06    2     1000025         2   # BR(~u_R -> ~chi_30 u)
     4.67395791E-09    2     1000035         2   # BR(~u_R -> ~chi_40 u)
     9.63725562E-01    2     1000021         2   # BR(~u_R -> ~g      u)
#
#         PDG            Width
DECAY   1000001     3.41802565E+02   # sdown_L decays
#          BR         NDA      ID1       ID2
     2.18203328E-03    2     1000022         1   # BR(~d_L -> ~chi_10 d)
     7.33319103E-05    2     1000023         1   # BR(~d_L -> ~chi_20 d)
     9.47134148E-06    2     1000025         1   # BR(~d_L -> ~chi_30 d)
     2.27504678E-02    2     1000035         1   # BR(~d_L -> ~chi_40 d)
     9.02380826E-05    2    -1000024         2   # BR(~d_L -> ~chi_1- u)
     4.55344988E-02    2    -1000037         2   # BR(~d_L -> ~chi_2- u)
     9.29359959E-01    2     1000021         1   # BR(~d_L -> ~g      d)
#
#         PDG            Width
DECAY   2000001     3.19372641E+02   # sdown_R decays
#          BR         NDA      ID1       ID2
     9.31884831E-03    2     1000022         1   # BR(~d_R -> ~chi_10 d)
     1.41092792E-06    2     1000023         1   # BR(~d_R -> ~chi_20 d)
     1.90472063E-06    2     1000025         1   # BR(~d_R -> ~chi_30 d)
     1.20131019E-09    2     1000035         1   # BR(~d_R -> ~chi_40 d)
     9.90677835E-01    2     1000021         1   # BR(~d_R -> ~g      d)
#
#         PDG            Width
DECAY   1000004     3.41790955E+02   # scharm_L decays
#          BR         NDA      ID1       ID2
     2.18688835E-03    2     1000022         4   # BR(~c_L -> ~chi_10 c)
     9.43713242E-05    2     1000023         4   # BR(~c_L -> ~chi_20 c)
     3.02506735E-06    2     1000025         4   # BR(~c_L -> ~chi_30 c)
     2.27339502E-02    2     1000035         4   # BR(~c_L -> ~chi_40 c)
     2.65911685E-04    2     1000024         3   # BR(~c_L -> ~chi_1+ s)
     4.54233886E-02    2     1000037         3   # BR(~c_L -> ~chi_2+ s)
     9.29292465E-01    2     1000021         4   # BR(~c_L -> ~g      c)
#
#         PDG            Width
DECAY   2000004     3.28284677E+02   # scharm_R decays
#          BR         NDA      ID1       ID2
     3.62615320E-02    2     1000022         4   # BR(~c_R -> ~chi_10 c)
     5.48998989E-06    2     1000023         4   # BR(~c_R -> ~chi_20 c)
     7.41136055E-06    2     1000025         4   # BR(~c_R -> ~chi_30 c)
     4.67395791E-09    2     1000035         4   # BR(~c_R -> ~chi_40 c)
     9.63725562E-01    2     1000021         4   # BR(~c_R -> ~g      c)
#
#         PDG            Width
DECAY   1000003     3.41802565E+02   # sstrange_L decays
#          BR         NDA      ID1       ID2
     2.18203328E-03    2     1000022         3   # BR(~s_L -> ~chi_10 s)
     7.33319103E-05    2     1000023         3   # BR(~s_L -> ~chi_20 s)
     9.47134148E-06    2     1000025         3   # BR(~s_L -> ~chi_30 s)
     2.27504678E-02    2     1000035         3   # BR(~s_L -> ~chi_40 s)
     9.02380826E-05    2    -1000024         4   # BR(~s_L -> ~chi_1- c)
     4.55344988E-02    2    -1000037         4   # BR(~s_L -> ~chi_2- c)
     9.29359959E-01    2     1000021         3   # BR(~s_L -> ~g      s)
#
#         PDG            Width
DECAY   2000003     3.19372641E+02   # sstrange_R decays
#          BR         NDA      ID1       ID2
     9.31884831E-03    2     1000022         3   # BR(~s_R -> ~chi_10 s)
     1.41092792E-06    2     1000023         3   # BR(~s_R -> ~chi_20 s)
     1.90472063E-06    2     1000025         3   # BR(~s_R -> ~chi_30 s)
     1.20131019E-09    2     1000035         3   # BR(~s_R -> ~chi_40 s)
     9.90677835E-01    2     1000021         3   # BR(~s_R -> ~g      s)
#
#         PDG            Width
DECAY   1000011     3.02239746E+01   # selectron_L decays
#          BR         NDA      ID1       ID2
     2.26846617E-01    2     1000022        11   # BR(~e_L -> ~chi_10 e-)
     1.35409272E-03    2     1000023        11   # BR(~e_L -> ~chi_20 e-)
     1.84582069E-06    2     1000025        11   # BR(~e_L -> ~chi_30 e-)
     2.56642300E-01    2     1000035        11   # BR(~e_L -> ~chi_40 e-)
     1.03473661E-03    2    -1000024        12   # BR(~e_L -> ~chi_1- nu_e)
     5.14120409E-01    2    -1000037        12   # BR(~e_L -> ~chi_2- nu_e)
#
#         PDG            Width
DECAY   2000011     2.73522880E+01   # selectron_R decays
#          BR         NDA      ID1       ID2
     9.99646045E-01    2     1000022        11   # BR(~e_R -> ~chi_10 e-)
     1.50568602E-04    2     1000023        11   # BR(~e_R -> ~chi_20 e-)
     2.03260130E-04    2     1000025        11   # BR(~e_R -> ~chi_30 e-)
     1.26392291E-07    2     1000035        11   # BR(~e_R -> ~chi_40 e-)
#
#         PDG            Width
DECAY   1000013     3.02239746E+01   # smuon_L decays
#          BR         NDA      ID1       ID2
     2.26846617E-01    2     1000022        13   # BR(~mu_L -> ~chi_10 mu-)
     1.35409272E-03    2     1000023        13   # BR(~mu_L -> ~chi_20 mu-)
     1.84582069E-06    2     1000025        13   # BR(~mu_L -> ~chi_30 mu-)
     2.56642300E-01    2     1000035        13   # BR(~mu_L -> ~chi_40 mu-)
     1.03473661E-03    2    -1000024        14   # BR(~mu_L -> ~chi_1- nu_mu)
     5.14120409E-01    2    -1000037        14   # BR(~mu_L -> ~chi_2- nu_mu)
#
#         PDG            Width
DECAY   2000013     2.73522880E+01   # smuon_R decays
#          BR         NDA      ID1       ID2
     9.99646045E-01    2     1000022        13   # BR(~mu_R -> ~chi_10 mu-)
     1.50568602E-04    2     1000023        13   # BR(~mu_R -> ~chi_20 mu-)
     2.03260130E-04    2     1000025        13   # BR(~mu_R -> ~chi_30 mu-)
     1.26392291E-07    2     1000035        13   # BR(~mu_R -> ~chi_40 mu-)
#
#         PDG            Width
DECAY   1000015     2.87924442E+01   # stau_1 decays
#          BR         NDA      ID1       ID2
     9.16093110E-01    2     1000022        15   # BR(~tau_1 -> ~chi_10  tau-)
     1.27201997E-02    2     1000023        15   # BR(~tau_1 -> ~chi_20  tau-)
     1.08279143E-02    2     1000025        15   # BR(~tau_1 -> ~chi_30  tau-)
     1.21803166E-02    2     1000035        15   # BR(~tau_1 -> ~chi_40  tau-)
     2.37748494E-02    2    -1000024        16   # BR(~tau_1 -> ~chi_1-  nu_tau)
     2.44036105E-02    2    -1000037        16   # BR(~tau_1 -> ~chi_2-  nu_tau)
#
#         PDG            Width
DECAY   2000015     3.07357617E+01   # stau_2 decays
#          BR         NDA      ID1       ID2
     2.54310236E-01    2     1000022        15   # BR(~tau_2 -> ~chi_10  tau-)
     1.08660014E-02    2     1000023        15   # BR(~tau_2 -> ~chi_20  tau-)
     1.13455396E-02    2     1000025        15   # BR(~tau_2 -> ~chi_30  tau-)
     2.40901890E-01    2     1000035        15   # BR(~tau_2 -> ~chi_40  tau-)
     7.15470823E-07    2    -1000024        16   # BR(~tau_2 -> ~chi_1-  nu_tau)
     4.82575617E-01    2    -1000037        16   # BR(~tau_2 -> ~chi_2-  nu_tau)
#
#         PDG            Width
DECAY   1000012     3.02249890E+01   # snu_eL decays
#          BR         NDA      ID1       ID2
     2.26623574E-01    2     1000022        12   # BR(~nu_eL -> ~chi_10 nu_e)
     6.29676708E-04    2     1000023        12   # BR(~nu_eL -> ~chi_20 nu_e)
     2.23499840E-04    2     1000025        12   # BR(~nu_eL -> ~chi_30 nu_e)
     2.56812748E-01    2     1000035        12   # BR(~nu_eL -> ~chi_40 nu_e)
     3.04842300E-03    2     1000024        11   # BR(~nu_eL -> ~chi_1+ e-)
     5.12662079E-01    2     1000037        11   # BR(~nu_eL -> ~chi_2+ e-)
#
#         PDG            Width
DECAY   1000014     3.02249890E+01   # snu_muL decays
#          BR         NDA      ID1       ID2
     2.26623574E-01    2     1000022        14   # BR(~nu_muL -> ~chi_10 nu_mu)
     6.29676708E-04    2     1000023        14   # BR(~nu_muL -> ~chi_20 nu_mu)
     2.23499840E-04    2     1000025        14   # BR(~nu_muL -> ~chi_30 nu_mu)
     2.56812748E-01    2     1000035        14   # BR(~nu_muL -> ~chi_40 nu_mu)
     3.04842300E-03    2     1000024        13   # BR(~nu_muL -> ~chi_1+ mu-)
     5.12662079E-01    2     1000037        13   # BR(~nu_muL -> ~chi_2+ mu-)
#
#         PDG            Width
DECAY   1000016     3.08729079E+01   # snu_tauL decays
#          BR         NDA      ID1       ID2
     2.21844131E-01    2     1000022        16   # BR(~nu_tauL -> ~chi_10 nu_tau)
     6.16348006E-04    2     1000023        16   # BR(~nu_tauL -> ~chi_20 nu_tau)
     2.18768837E-04    2     1000025        16   # BR(~nu_tauL -> ~chi_30 nu_tau)
     2.51333004E-01    2     1000035        16   # BR(~nu_tauL -> ~chi_40 nu_tau)
     2.42554831E-02    2     1000024        15   # BR(~nu_tauL -> ~chi_1+ tau-)
     5.01732265E-01    2     1000037        15   # BR(~nu_tauL -> ~chi_2+ tau-)
#
#         PDG            Width
DECAY   1000024     1.23598953E+00   # chargino1+ decays
#          BR         NDA      ID1       ID2
     1.00000000E+00    2     1000022        24   # BR(~chi_1+ -> ~chi_10  W+)
#
#         PDG            Width
DECAY   1000037     1.53760745E+01   # chargino2+ decays
#          BR         NDA      ID1       ID2
     2.51906346E-01    2     1000024        23   # BR(~chi_2+ -> ~chi_1+  Z )
     4.76835357E-04    2     1000022        24   # BR(~chi_2+ -> ~chi_10  W+)
     2.45430801E-01    2     1000023        24   # BR(~chi_2+ -> ~chi_20  W+)
     2.42820060E-01    2     1000025        24   # BR(~chi_2+ -> ~chi_30  W+)
     2.59365914E-01    2     1000024        25   # BR(~chi_2+ -> ~chi_1+  h )
     4.32217850E-08    2     1000022        37   # BR(~chi_2+ -> ~chi_10  H+)
#
#         PDG            Width
DECAY   1000022     0.00000000E+00   # neutralino1 decays
#
#         PDG            Width
DECAY   1000023     1.30146725E+00   # neutralino2 decays
#          BR         NDA      ID1       ID2
     5.65553233E-01    2     1000022        23   # BR(~chi_20 -> ~chi_10   Z )
     4.34446767E-01    2     1000022        25   # BR(~chi_20 -> ~chi_10   h )
#
#         PDG            Width
DECAY   1000025     1.31771604E+00   # neutralino3 decays
#          BR         NDA      ID1       ID2
     4.15414411E-01    2     1000022        23   # BR(~chi_30 -> ~chi_10   Z )
     5.84585589E-01    2     1000022        25   # BR(~chi_30 -> ~chi_10   h )
#
#         PDG            Width
DECAY   1000035     1.53294542E+01   # neutralino4 decays
#          BR         NDA      ID1       ID2
     2.14818664E-04    2     1000022        23   # BR(~chi_40 -> ~chi_10   Z )
     1.67140000E-02    2     1000023        23   # BR(~chi_40 -> ~chi_20   Z )
     2.35849134E-01    2     1000025        23   # BR(~chi_40 -> ~chi_30   Z )
     2.43624976E-01    2     1000024       -24   # BR(~chi_40 -> ~chi_1+   W-)
     2.43624976E-01    2    -1000024        24   # BR(~chi_40 -> ~chi_1-   W+)
     2.82134205E-04    2     1000022        25   # BR(~chi_40 -> ~chi_10   h )
     3.23349750E-08    2     1000022        35   # BR(~chi_40 -> ~chi_10   H )
     1.24544115E-08    2     1000022        36   # BR(~chi_40 -> ~chi_10   A )
     2.43236643E-01    2     1000023        25   # BR(~chi_40 -> ~chi_20   h )
     1.64532742E-02    2     1000025        25   # BR(~chi_40 -> ~chi_30   h )
#
#         PDG            Width
DECAY        25     3.99226335E-03   # h decays
#          BR         NDA      ID1       ID2
     6.17470990E-01    2           5        -5   # BR(h -> b       bb     )
     6.46672421E-02    2         -15        15   # BR(h -> tau+    tau-   )
     2.28948036E-04    2         -13        13   # BR(h -> mu+     mu-    )
     4.85779146E-04    2           3        -3   # BR(h -> s       sb     )
     2.10536154E-02    2           4        -4   # BR(h -> c       cb     )
     6.74572687E-02    2          21        21   # BR(h -> g       g      )
     2.30690402E-03    2          22        22   # BR(h -> gam     gam    )
     1.44073054E-03    2          22        23   # BR(h -> Z       gam    )
     2.01130339E-01    2          24       -24   # BR(h -> W+      W-     )
     2.37410025E-02    2          23        23   # BR(h -> Z       Z      )
     1.71806953E-05    2     1000022   1000022   # BR(h -> ~chi_10 ~chi_10)
#
#         PDG            Width
DECAY        35     6.33421963E+00   # H decays
#          BR         NDA      ID1       ID2
     5.17817077E-01    2           5        -5   # BR(H -> b       bb     )
     8.80671662E-02    2         -15        15   # BR(H -> tau+    tau-   )
     3.11412495E-04    2         -13        13   # BR(H -> mu+     mu-    )
     3.81744246E-04    2           3        -3   # BR(H -> s       sb     )
     2.12941171E-06    2           4        -4   # BR(H -> c       cb     )
     2.12745085E-01    2           6        -6   # BR(H -> t       tb     )
     7.05132888E-05    2          21        21   # BR(H -> g       g      )
     3.98911301E-07    2          22        22   # BR(H -> gam     gam    )
     1.25499202E-07    2          23        22   # BR(H -> Z       gam    )
     9.09365943E-05    2          24       -24   # BR(H -> W+      W-     )
     4.54107399E-05    2          23        23   # BR(H -> Z       Z      )
     3.54771786E-04    2          25        25   # BR(H -> h       h      )
     3.17106655E-23    2          36        36   # BR(H -> A       A      )
     4.73100089E-19    2          23        36   # BR(H -> Z       A      )
     5.70950631E-04    2     1000022   1000022   # BR(H -> ~chi_10 ~chi_10)
     1.04850174E-01    2     1000022   1000023   # BR(H -> ~chi_10 ~chi_20)
     7.46921048E-02    2     1000022   1000025   # BR(H -> ~chi_10 ~chi_30)
#
#         PDG            Width
DECAY        36     6.33763725E+00   # A decays
#          BR         NDA      ID1       ID2
     5.17711666E-01    2           5        -5   # BR(A -> b       bb     )
     8.80223326E-02    2         -15        15   # BR(A -> tau+    tau-   )
     3.11253525E-04    2         -13        13   # BR(A -> mu+     mu-    )
     3.81827734E-04    2           3        -3   # BR(A -> s       sb     )
     2.13737756E-06    2           4        -4   # BR(A -> c       cb     )
     2.13423127E-01    2           6        -6   # BR(A -> t       tb     )
     2.11316285E-04    2          21        21   # BR(A -> g       g      )
     4.12837406E-07    2          22        22   # BR(A -> gam     gam    )
     2.55811229E-07    2          23        22   # BR(A -> Z       gam    )
     9.05487824E-05    2          23        25   # BR(A -> Z       h      )
     5.89970311E-04    2     1000022   1000022   # BR(A -> ~chi_10 ~chi_10)
     7.56241532E-02    2     1000022   1000023   # BR(A -> ~chi_10 ~chi_20)
     1.03630999E-01    2     1000022   1000025   # BR(A -> ~chi_10 ~chi_30)
#
#         PDG            Width
DECAY        37     6.31355210E+00   # H+ decays
#          BR         NDA      ID1       ID2
     8.30495031E-04    2           4        -5   # BR(H+ -> c       bb     )
     8.83838937E-02    2         -15        16   # BR(H+ -> tau+    nu_tau )
     3.12532031E-04    2         -13        14   # BR(H+ -> mu+     nu_mu  )
     5.31514100E-06    2           2        -5   # BR(H+ -> u       bb     )
     1.83387272E-05    2           2        -3   # BR(H+ -> u       sb     )
     3.79240646E-04    2           4        -3   # BR(H+ -> c       sb     )
     7.28809183E-01    2           6        -5   # BR(H+ -> t       bb     )
     9.10321371E-05    2          24        25   # BR(H+ -> W+      h      )
     1.06755792E-13    2          24        36   # BR(H+ -> W+      A      )
     1.81169969E-01    2     1000024   1000022   # BR(H+ -> ~chi_1+ ~chi_10)
