#
#                              ======================
#                              | THE SUSYHIT OUTPUT |
#                              ======================
#
#
#              ------------------------------------------------------
#              |     This is the output of the SUSY-HIT package     |
#              |  created by A.Djouadi, M.Muehlleitner and M.Spira. |
#              |  In case of problems with SUSY-HIT email to        |
#              |           margarete.muehlleitner@kit.edu           |
#              |           michael.spira@psi.ch                     |
#              |           abdelhak.djouadi@cern.ch                 |
#              ------------------------------------------------------
#
#              ------------------------------------------------------
#              |  SUSY Les Houches Accord - MSSM Spectrum + Decays  |
#              |              based on the decay programs           |
#              |                                                    |
#              |                     SDECAY 1.5                     |
#              |                                                    |
#              |  Authors: M.Muhlleitner, A.Djouadi and Y.Mambrini  |
#              |  Ref.:    Comput.Phys.Commun.168(2005)46           |
#              |           [hep-ph/0311167]                         |
#              |                                                    |
#              |                     HDECAY 3.4                     |
#              |                                                    |
#              |  By: A.Djouadi,J.Kalinowski,M.Muhlleitner,M.Spira  |
#              |  Ref.:    Comput.Phys.Commun.108(1998)56           |
#              |           [hep-ph/9704448]                         |
#              |                                                    |
#              |                                                    |
#              |  If not stated otherwise all DRbar couplings and   |
#              |  soft SUSY breaking masses are given at the scale  |
#              |  Q=  0.91187600E+02
#              |                                                    |
#              ------------------------------------------------------
#
#
BLOCK DCINFO  # Decay Program information
     1   SDECAY/HDECAY # decay calculator
     2   1.5  /3.4    # version number
#
BLOCK SPINFO  # Spectrum calculator information
     1   SuSpect     # RGE +Spectrum calculator            
     2   2.43         # version number                     
#
BLOCK MODSEL  # Model selection
     1     2   # GMSB                                              
#
BLOCK SMINPUTS  # Standard Model inputs
         1     1.27932904E+02   # alpha_em^-1(M_Z)^MSbar
         2     1.16639000E-05   # G_F [GeV^-2]
         3     1.17200000E-01   # alpha_S(M_Z)^MSbar
         4     9.11870000E+01   # M_Z pole mass
         5     4.25000000E+00   # mb(mb)^MSbar
         6     1.72900000E+02   # mt pole mass
         7     1.77700000E+00   # mtau pole mass
#
BLOCK MINPAR  # Input parameters - minimal models
#
BLOCK EXTPAR  # Input parameters - non-minimal models
         0     9.11876000E+01   # EWSB                
         1     8.54000000E+02   # M_1                 
         2     3.00000000E+03   # M_2                 
         3     1.50000000E+03   # M_3                 
        11     0.00000000E+00   # A_t                 
        12     0.00000000E+00   # A_b                 
        13     0.00000000E+00   # A_tau               
        14     0.00000000E+00   # A_u                 
        15     0.00000000E+00   # A_d                 
        16     0.00000000E+00   # A_e                 
        23     8.50000000E+02   # mu(EWSB)            
        25     1.50000000E+00   # tanbeta(in)         
        26     2.00000000E+03   # MA_pole             
        31     5.00000000E+03   # M_eL                
        32     5.00000000E+03   # M_muL               
        33     5.00000000E+03   # M_tauL              
        34     5.00000000E+03   # M_eR                
        35     5.00000000E+03   # M_muR               
        36     5.00000000E+03   # M_tauR              
        41     5.00000000E+03   # M_q1L               
        42     5.00000000E+03   # M_q2L               
        43     5.00000000E+03   # M_q3L               
        44     5.00000000E+03   # M_uR                
        45     5.00000000E+03   # M_cR                
        46     5.00000000E+03   # M_tR                
        47     5.00000000E+03   # M_dR                
        48     5.00000000E+03   # M_sR                
        49     5.00000000E+03   # M_bR                
#
BLOCK MASS  # Mass Spectrum
# PDG code           mass       particle
        24     8.05400810E+01   # W+
        25     1.26000000E+02   # h
        35     2.00404041E+03   # H
        36     2.00000000E+03   # A
        37     2.00148006E+03   # H+
         5     4.87877839E+00   # b-quark pole mass calculated from mb(mb)_Msbar
   1000001     4.98868332E+03   # ~d_L
   2000001     4.98857375E+03   # ~d_R
   1000002     4.98843837E+03   # ~u_L
   2000002     4.98849632E+03   # ~u_R
   1000003     4.98868332E+03   # ~s_L
   2000003     4.98857375E+03   # ~s_R
   1000004     4.98843837E+03   # ~c_L
   2000004     4.98849632E+03   # ~c_R
   1000005     4.98827597E+03   # ~b_1
   2000005     4.98898255E+03   # ~b_2
   1000006     5.11440724E+03   # ~t_1
   2000006     5.41172918E+03   # ~t_2
   1000011     5.00008227E+03   # ~e_L
   2000011     5.00007605E+03   # ~e_R
   1000012     4.99984168E+03   # ~nu_eL
   1000013     5.00008227E+03   # ~mu_L
   2000013     5.00007605E+03   # ~mu_R
   1000014     4.99984168E+03   # ~nu_muL
   1000015     4.99985276E+03   # ~tau_1
   2000015     5.00030618E+03   # ~tau_2
   1000016     4.99984168E+03   # ~nu_tauL
   1000021     1.61386672E+03   # ~g
   1000022     8.62232251E+02   # ~chi_10
   1000023    -9.08977182E+02   # ~chi_20
   1000025     9.49380107E+02   # ~chi_30
   1000035     3.12892858E+03   # ~chi_40
   1000024     9.06225850E+02   # ~chi_1+
   1000037     3.12892761E+03   # ~chi_2+
   1000039     1.00000000E-09   # ~gravitino
#
BLOCK NMIX  # Neutralino Mixing Matrix
  1  1     7.10014871E-01   # N_11
  1  2    -2.40829751E-02   # N_12
  1  3     5.00258109E-01   # N_13
  1  4    -4.95015876E-01   # N_14
  2  1     4.81290652E-03   # N_21
  2  2    -3.84922069E-03   # N_22
  2  3    -7.06895578E-01   # N_23
  2  4    -7.07291072E-01   # N_24
  3  1     7.04169886E-01   # N_31
  3  2     2.53025527E-02   # N_32
  3  3    -4.99557133E-01   # N_33
  3  4     5.03931764E-01   # N_34
  4  1     6.99931630E-04   # N_41
  4  2    -9.99382297E-01   # N_42
  4  3    -2.19803546E-02   # N_43
  4  4     2.74116668E-02   # N_44
#
BLOCK UMIX  # Chargino Mixing Matrix U
  1  1    -3.10710759E-02   # U_11
  1  2     9.99517178E-01   # U_12
  2  1     9.99517178E-01   # U_21
  2  2     3.10710759E-02   # U_22
#
BLOCK VMIX  # Chargino Mixing Matrix V
  1  1    -3.87542503E-02   # V_11
  1  2     9.99248772E-01   # V_12
  2  1     9.99248772E-01   # V_21
  2  2     3.87542503E-02   # V_22
#
BLOCK STOPMIX  # Stop Mixing Matrix
  1  1     9.99991440E-01   # cos(theta_t)
  1  2    -4.13762332E-03   # sin(theta_t)
  2  1     4.13762332E-03   # -sin(theta_t)
  2  2     9.99991440E-01   # cos(theta_t)
#
BLOCK SBOTMIX  # Sbottom Mixing Matrix
  1  1     6.49971533E-01   # cos(theta_b)
  1  2     7.59958556E-01   # sin(theta_b)
  2  1    -7.59958556E-01   # -sin(theta_b)
  2  2     6.49971533E-01   # cos(theta_b)
#
BLOCK STAUMIX  # Stau Mixing Matrix
  1  1     7.02237907E-01   # cos(theta_tau)
  1  2     7.11942359E-01   # sin(theta_tau)
  2  1    -7.11942359E-01   # -sin(theta_tau)
  2  2     7.02237907E-01   # cos(theta_tau)
#
BLOCK ALPHA  # Higgs mixing
          -5.90205792E-01   # Mixing angle in the neutral Higgs boson sector
#
BLOCK HMIX Q=  9.11876000E+01  # DRbar Higgs Parameters
         1     8.50000000E+02   # mu(Q)               
         2     1.49999979E+00   # tanbeta(Q)          
         3     2.52036735E+02   # vev(Q)              
         4     3.60090920E+06   # MA^2(Q)             
#
BLOCK GAUGE Q=  9.11876000E+01  # The gauge couplings
     1     3.52850377E-01   # gprime(Q) DRbar
     2     6.27603490E-01   # g(Q) DRbar
     3     1.08507298E+00   # g3(Q) DRbar
#
BLOCK AU Q=  9.11876000E+01  # The trilinear couplings
  1  1     0.00000000E+00   # A_u(Q) DRbar
  2  2     0.00000000E+00   # A_c(Q) DRbar
  3  3     0.00000000E+00   # A_t(Q) DRbar
#
BLOCK AD Q=  9.11876000E+01  # The trilinear couplings
  1  1     0.00000000E+00   # A_d(Q) DRbar
  2  2     0.00000000E+00   # A_s(Q) DRbar
  3  3     0.00000000E+00   # A_b(Q) DRbar
#
BLOCK AE Q=  9.11876000E+01  # The trilinear couplings
  1  1     0.00000000E+00   # A_e(Q) DRbar
  2  2     0.00000000E+00   # A_mu(Q) DRbar
  3  3     0.00000000E+00   # A_tau(Q) DRbar
#
BLOCK Yu Q=  9.11876000E+01  # The Yukawa couplings
  1  1     0.00000000E+00   # y_u(Q) DRbar
  2  2     0.00000000E+00   # y_c(Q) DRbar
  3  3     1.02580885E+00   # y_t(Q) DRbar
#
BLOCK Yd Q=  9.11876000E+01  # The Yukawa couplings
  1  1     0.00000000E+00   # y_d(Q) DRbar
  2  2     0.00000000E+00   # y_s(Q) DRbar
  3  3     2.71962819E-02   # y_b(Q) DRbar
#
BLOCK Ye Q=  9.11876000E+01  # The Yukawa couplings
  1  1     0.00000000E+00   # y_e(Q) DRbar
  2  2     0.00000000E+00   # y_mu(Q) DRbar
  3  3     1.79853409E-02   # y_tau(Q) DRbar
#
BLOCK MSOFT Q=  9.11876000E+01  # The soft SUSY breaking masses at the scale Q
         1     8.54000000E+02   # M_1                 
         2     3.00000000E+03   # M_2                 
         3     1.50000000E+03   # M_3                 
        14     0.00000000E+00   # A_u                 
        15     0.00000000E+00   # A_d                 
        16     0.00000000E+00   # A_e                 
        21     2.24371693E+06   # M^2_Hd              
        22    -6.13771314E+06   # M^2_Hu              
        31     5.00000000E+03   # M_eL                
        32     5.00000000E+03   # M_muL               
        33     5.00000000E+03   # M_tauL              
        34     5.00000000E+03   # M_eR                
        35     5.00000000E+03   # M_muR               
        36     5.00000000E+03   # M_tauR              
        41     5.00000000E+03   # M_q1L               
        42     5.00000000E+03   # M_q2L               
        43     5.00000000E+03   # M_q3L               
        44     5.00000000E+03   # M_uR                
        45     5.00000000E+03   # M_cR                
        46     5.00000000E+03   # M_tR                
        47     5.00000000E+03   # M_dR                
        48     5.00000000E+03   # M_sR                
        49     5.00000000E+03   # M_bR                
#
#
#
#                             =================
#                             |The decay table|
#                             =================
#
# - The QCD corrections to the decays gluino -> squark  + quark
#                                     squark -> gaugino + quark_prime
#                                     squark -> squark_prime + Higgs
#                                     squark -> gluino  + quark
#   are included.
#
# - The multi-body decays for the inos, stops and sbottoms are included.
#
# - The loop induced decays for the gluino, neutralinos and stops
#   are included.
#
# - The SUSY decays of the top quark are included.
#
# - Possible decays of the NLSP in GMSB models are included.
#
#
#         PDG            Width
DECAY         6     1.37240036E+00   # top decays
#          BR         NDA      ID1       ID2
     1.00000000E+00    2           5        24   # BR(t ->  b    W+)
#
#         PDG            Width
DECAY   1000021     1.12326458E-04   # gluino decays
#          BR         NDA      ID1       ID2
     2.31186844E-02    2     1000022        21   # BR(~g -> ~chi_10 g)
     4.09777671E-02    2     1000023        21   # BR(~g -> ~chi_20 g)
     1.79346172E-02    2     1000025        21   # BR(~g -> ~chi_30 g)
#          BR         NDA      ID1       ID2
0.0E+00    2     1000039    21 # BR(~g -> ~G      g)
#           BR         NDA      ID1       ID2       ID3
     7.40809303E-03    3     1000022         1        -1   # BR(~g -> ~chi_10 d  db)
     5.72700027E-07    3     1000023         1        -1   # BR(~g -> ~chi_20 d  db)
     3.86823759E-03    3     1000025         1        -1   # BR(~g -> ~chi_30 d  db)
     2.28945318E-02    3     1000022         2        -2   # BR(~g -> ~chi_10 u  ub)
     4.81316696E-07    3     1000023         2        -2   # BR(~g -> ~chi_20 u  ub)
     1.44824926E-02    3     1000025         2        -2   # BR(~g -> ~chi_30 u  ub)
     7.40809303E-03    3     1000022         3        -3   # BR(~g -> ~chi_10 s  sb)
     5.72700027E-07    3     1000023         3        -3   # BR(~g -> ~chi_20 s  sb)
     3.86823759E-03    3     1000025         3        -3   # BR(~g -> ~chi_30 s  sb)
     2.28945318E-02    3     1000022         4        -4   # BR(~g -> ~chi_10 c  cb)
     4.81316696E-07    3     1000023         4        -4   # BR(~g -> ~chi_20 c  cb)
     1.44824926E-02    3     1000025         4        -4   # BR(~g -> ~chi_30 c  cb)
     7.50293337E-03    3     1000022         5        -5   # BR(~g -> ~chi_10 b  bb)
     2.33302843E-04    3     1000023         5        -5   # BR(~g -> ~chi_20 b  bb)
     3.98908041E-03    3     1000025         5        -5   # BR(~g -> ~chi_30 b  bb)
     9.06419822E-02    3     1000022         6        -6   # BR(~g -> ~chi_10 t  tb)
     1.14069614E-01    3     1000023         6        -6   # BR(~g -> ~chi_20 t  tb)
     7.49447477E-02    3     1000025         6        -6   # BR(~g -> ~chi_30 t  tb)
     1.50205252E-04    3     1000024         1        -2   # BR(~g -> ~chi_1+ d  ub)
     1.50205252E-04    3    -1000024         2        -1   # BR(~g -> ~chi_1- u  db)
     1.50205252E-04    3     1000024         3        -4   # BR(~g -> ~chi_1+ s  cb)
     1.50205252E-04    3    -1000024         4        -3   # BR(~g -> ~chi_1- c  sb)
     2.08232381E-01    3     1000024         5        -6   # BR(~g -> ~chi_1+ b  tb)
     2.08232381E-01    3    -1000024         6        -5   # BR(~g -> ~chi_1- t  bb)
#
#         PDG            Width
DECAY   1000006     3.11715771E+02   # stop1 decays
#          BR         NDA      ID1       ID2
     5.40598843E-02    2     1000022         6   # BR(~t_1 -> ~chi_10 t )
     1.10533982E-01    2     1000023         6   # BR(~t_1 -> ~chi_20 t )
     5.83036415E-02    2     1000025         6   # BR(~t_1 -> ~chi_30 t )
     2.45397296E-02    2     1000035         6   # BR(~t_1 -> ~chi_40 t )
     3.87678050E-05    2     1000024         5   # BR(~t_1 -> ~chi_1+ b )
     4.88291491E-02    2     1000037         5   # BR(~t_1 -> ~chi_2+ b )
     6.88883947E-01    2     1000021         6   # BR(~t_1 -> ~g      t )
     6.35951172E-03    2     1000005        24   # BR(~t_1 -> ~b_1    W+)
     8.45138675E-03    2     2000005        24   # BR(~t_1 -> ~b_2    W+)
#
#         PDG            Width
DECAY   2000006     3.88040103E+02   # stop2 decays
#          BR         NDA      ID1       ID2
     6.16882271E-02    2     1000022         6   # BR(~t_2 -> ~chi_10 t )
     9.50660354E-02    2     1000023         6   # BR(~t_2 -> ~chi_20 t )
     6.11607951E-02    2     1000025         6   # BR(~t_2 -> ~chi_30 t )
    -7.38050673E-07    2     1000035         6   # BR(~t_2 -> ~chi_40 t )
     1.90399064E-01    2     1000024         5   # BR(~t_2 -> ~chi_1+ b )
    -1.08559060E-06    2     1000037         5   # BR(~t_2 -> ~chi_2+ b )
     5.91738355E-01    2     1000021         6   # BR(~t_2 -> ~g      t )
    -6.42277069E-05    2     1000006        25   # BR(~t_2 -> ~t_1    h )
     2.23363450E-06    2     1000006        23   # BR(~t_2 -> ~t_1    Z )
     4.79359744E-06    2     1000005        24   # BR(~t_2 -> ~b_1    W+)
     6.54731964E-06    2     2000005        24   # BR(~t_2 -> ~b_2    W+)
#
#         PDG            Width
DECAY   1000005     2.42096237E+02   # sbottom1 decays
#          BR         NDA      ID1       ID2
     4.78510394E-03    2     1000022         5   # BR(~b_1 -> ~chi_10 b )
     8.16205208E-05    2     1000023         5   # BR(~b_1 -> ~chi_20 b )
     2.84854625E-03    2     1000025         5   # BR(~b_1 -> ~chi_30 b )
     1.06208573E-02    2     1000035         5   # BR(~b_1 -> ~chi_40 b )
     9.67810023E-02    2    -1000024         6   # BR(~b_1 -> ~chi_1- t )
     2.13472044E-02    2    -1000037         6   # BR(~b_1 -> ~chi_2- t )
     8.63535665E-01    2     1000021         5   # BR(~b_1 -> ~g      b )
#
#         PDG            Width
DECAY   2000005     2.67159220E+02   # sbottom2 decays
#          BR         NDA      ID1       ID2
     2.10543055E-03    2     1000022         5   # BR(~b_2 -> ~chi_10 b )
     1.05380616E-04    2     1000023         5   # BR(~b_2 -> ~chi_20 b )
     2.82668141E-03    2     1000025         5   # BR(~b_2 -> ~chi_30 b )
     1.64555305E-02    2     1000035         5   # BR(~b_2 -> ~chi_40 b )
     1.63222620E-01    2    -1000024         6   # BR(~b_2 -> ~chi_1- t )
     3.30833417E-02    2    -1000037         6   # BR(~b_2 -> ~chi_2- t )
     7.82201016E-01    2     1000021         5   # BR(~b_2 -> ~g      b )
#
#         PDG            Width
DECAY   1000002     2.30590171E+02   # sup_L decays
#          BR         NDA      ID1       ID2
     9.15081902E-04    2     1000022         2   # BR(~u_L -> ~chi_10 u)
     6.64728062E-07    2     1000023         2   # BR(~u_L -> ~chi_20 u)
     1.88099427E-03    2     1000025         2   # BR(~u_L -> ~chi_30 u)
     3.01939560E-02    2     1000035         2   # BR(~u_L -> ~chi_40 u)
     2.29962845E-04    2     1000024         1   # BR(~u_L -> ~chi_1+ d)
     6.03876758E-02    2     1000037         1   # BR(~u_L -> ~chi_2+ d)
     9.06391664E-01    2     1000021         2   # BR(~u_L -> ~g      u)
#
#         PDG            Width
DECAY   2000002     2.18928528E+02   # sup_R decays
#          BR         NDA      ID1       ID2
     2.29904513E-02    2     1000022         2   # BR(~u_R -> ~chi_10 u)
     1.04919554E-06    2     1000023         2   # BR(~u_R -> ~chi_20 u)
     2.23198795E-02    2     1000025         2   # BR(~u_R -> ~chi_30 u)
     8.76852142E-09    2     1000035         2   # BR(~u_R -> ~chi_40 u)
     9.54688611E-01    2     1000021         2   # BR(~u_R -> ~g      u)
#
#         PDG            Width
DECAY   1000001     2.30594895E+02   # sdown_L decays
#          BR         NDA      ID1       ID2
     1.90279615E-03    2     1000022         1   # BR(~d_L -> ~chi_10 d)
     1.72754582E-06    2     1000023         1   # BR(~d_L -> ~chi_20 d)
     8.65267071E-04    2     1000025         1   # BR(~d_L -> ~chi_30 d)
     3.02144923E-02    2     1000035         1   # BR(~d_L -> ~chi_40 d)
     1.47824709E-04    2    -1000024         2   # BR(~d_L -> ~chi_1- u)
     6.04294814E-02    2    -1000037         2   # BR(~d_L -> ~chi_2- u)
     9.06438411E-01    2     1000021         1   # BR(~d_L -> ~g      d)
#
#         PDG            Width
DECAY   2000001     2.11493366E+02   # sdown_R decays
#          BR         NDA      ID1       ID2
     5.94977745E-03    2     1000022         1   # BR(~d_R -> ~chi_10 d)
     2.71524959E-07    2     1000023         1   # BR(~d_R -> ~chi_20 d)
     5.77624032E-03    2     1000025         1   # BR(~d_R -> ~chi_30 d)
     2.26932168E-09    2     1000035         1   # BR(~d_R -> ~chi_40 d)
     9.88273708E-01    2     1000021         1   # BR(~d_R -> ~g      d)
#
#         PDG            Width
DECAY   1000004     2.30590171E+02   # scharm_L decays
#          BR         NDA      ID1       ID2
     9.15081902E-04    2     1000022         4   # BR(~c_L -> ~chi_10 c)
     6.64728062E-07    2     1000023         4   # BR(~c_L -> ~chi_20 c)
     1.88099427E-03    2     1000025         4   # BR(~c_L -> ~chi_30 c)
     3.01939560E-02    2     1000035         4   # BR(~c_L -> ~chi_40 c)
     2.29962845E-04    2     1000024         3   # BR(~c_L -> ~chi_1+ s)
     6.03876758E-02    2     1000037         3   # BR(~c_L -> ~chi_2+ s)
     9.06391664E-01    2     1000021         4   # BR(~c_L -> ~g      c)
#
#         PDG            Width
DECAY   2000004     2.18928528E+02   # scharm_R decays
#          BR         NDA      ID1       ID2
     2.29904513E-02    2     1000022         4   # BR(~c_R -> ~chi_10 c)
     1.04919554E-06    2     1000023         4   # BR(~c_R -> ~chi_20 c)
     2.23198795E-02    2     1000025         4   # BR(~c_R -> ~chi_30 c)
     8.76852142E-09    2     1000035         4   # BR(~c_R -> ~chi_40 c)
     9.54688611E-01    2     1000021         4   # BR(~c_R -> ~g      c)
#
#         PDG            Width
DECAY   1000003     2.30594895E+02   # sstrange_L decays
#          BR         NDA      ID1       ID2
     1.90279615E-03    2     1000022         3   # BR(~s_L -> ~chi_10 s)
     1.72754582E-06    2     1000023         3   # BR(~s_L -> ~chi_20 s)
     8.65267071E-04    2     1000025         3   # BR(~s_L -> ~chi_30 s)
     3.02144923E-02    2     1000035         3   # BR(~s_L -> ~chi_40 s)
     1.47824709E-04    2    -1000024         4   # BR(~s_L -> ~chi_1- c)
     6.04294814E-02    2    -1000037         4   # BR(~s_L -> ~chi_2- c)
     9.06438411E-01    2     1000021         3   # BR(~s_L -> ~g      s)
#
#         PDG            Width
DECAY   2000003     2.11493366E+02   # sstrange_R decays
#          BR         NDA      ID1       ID2
     5.94977745E-03    2     1000022         3   # BR(~s_R -> ~chi_10 s)
     2.71524959E-07    2     1000023         3   # BR(~s_R -> ~chi_20 s)
     5.77624032E-03    2     1000025         3   # BR(~s_R -> ~chi_30 s)
     2.26932168E-09    2     1000035         3   # BR(~s_R -> ~chi_40 s)
     9.88273708E-01    2     1000021         3   # BR(~s_R -> ~g      s)
#
#         PDG            Width
DECAY   1000011     2.75859405E+01   # selectron_L decays
#          BR         NDA      ID1       ID2
     9.40664770E-02    2     1000022        11   # BR(~e_L -> ~chi_10 e-)
     8.67963306E-07    2     1000023        11   # BR(~e_L -> ~chi_20 e-)
     1.17069662E-01    2     1000025        11   # BR(~e_L -> ~chi_30 e-)
     2.62341595E-01    2     1000035        11   # BR(~e_L -> ~chi_40 e-)
     1.28260106E-03    2    -1000024        12   # BR(~e_L -> ~chi_1- nu_e)
     5.25238797E-01    2    -1000037        12   # BR(~e_L -> ~chi_2- nu_e)
#
#         PDG            Width
DECAY   2000011     2.31682755E+01   # selectron_R decays
#          BR         NDA      ID1       ID2
     5.07385623E-01    2     1000022        11   # BR(~e_R -> ~chi_10 e-)
     2.31551917E-05    2     1000023        11   # BR(~e_R -> ~chi_20 e-)
     4.92591028E-01    2     1000025        11   # BR(~e_R -> ~chi_30 e-)
     1.93874097E-07    2     1000035        11   # BR(~e_R -> ~chi_40 e-)
#
#         PDG            Width
DECAY   1000013     2.75859405E+01   # smuon_L decays
#          BR         NDA      ID1       ID2
     9.40664770E-02    2     1000022        13   # BR(~mu_L -> ~chi_10 mu-)
     8.67963306E-07    2     1000023        13   # BR(~mu_L -> ~chi_20 mu-)
     1.17069662E-01    2     1000025        13   # BR(~mu_L -> ~chi_30 mu-)
     2.62341595E-01    2     1000035        13   # BR(~mu_L -> ~chi_40 mu-)
     1.28260106E-03    2    -1000024        14   # BR(~mu_L -> ~chi_1- nu_mu)
     5.25238797E-01    2    -1000037        14   # BR(~mu_L -> ~chi_2- nu_mu)
#
#         PDG            Width
DECAY   2000013     2.31682755E+01   # smuon_R decays
#          BR         NDA      ID1       ID2
     5.07385623E-01    2     1000022        13   # BR(~mu_R -> ~chi_10 mu-)
     2.31551917E-05    2     1000023        13   # BR(~mu_R -> ~chi_20 mu-)
     4.92591028E-01    2     1000025        13   # BR(~mu_R -> ~chi_30 mu-)
     1.93874097E-07    2     1000035        13   # BR(~mu_R -> ~chi_40 mu-)
#
#         PDG            Width
DECAY   1000015     2.54262466E+01   # stau_1 decays
#          BR         NDA      ID1       ID2
     2.91197904E-01    2     1000022        15   # BR(~tau_1 -> ~chi_10  tau-)
     4.67185253E-04    2     1000023        15   # BR(~tau_1 -> ~chi_20  tau-)
     2.85080160E-01    2     1000025        15   # BR(~tau_1 -> ~chi_30  tau-)
     1.40082586E-01    2     1000035        15   # BR(~tau_1 -> ~chi_40  tau-)
     2.56819153E-03    2    -1000024        16   # BR(~tau_1 -> ~chi_1-  nu_tau)
     2.80462494E-01    2    -1000037        16   # BR(~tau_1 -> ~chi_2-  nu_tau)
     1.41478428E-04    2     1000039        15   # BR(~tau_1 -> ~G       tau-)
#
#         PDG            Width
DECAY   2000015     2.54218123E+01   # stau_2 decays
#          BR         NDA      ID1       ID2
     2.73827645E-01    2     1000022        15   # BR(~tau_2 -> ~chi_10  tau-)
     7.37491038E-04    2     1000023        15   # BR(~tau_2 -> ~chi_20  tau-)
     2.91419640E-01    2     1000025        15   # BR(~tau_2 -> ~chi_30  tau-)
     1.44568350E-01    2     1000035        15   # BR(~tau_2 -> ~chi_40  tau-)
     5.80374663E-06    2    -1000024        16   # BR(~tau_2 -> ~chi_1-  nu_tau)
     2.89441071E-01    2    -1000037        16   # BR(~tau_2 -> ~chi_2-  nu_tau)
#
#         PDG            Width
DECAY   1000012     2.75857422E+01   # snu_eL decays
#          BR         NDA      ID1       ID2
     1.19769688E-01    2     1000022        12   # BR(~nu_eL -> ~chi_10 nu_e)
     2.85306131E-05    2     1000023        12   # BR(~nu_eL -> ~chi_20 nu_e)
     9.06244947E-02    2     1000025        12   # BR(~nu_eL -> ~chi_30 nu_e)
     2.62711812E-01    2     1000035        12   # BR(~nu_eL -> ~chi_40 nu_e)
     1.99524889E-03    2     1000024        11   # BR(~nu_eL -> ~chi_1+ e-)
     5.24870226E-01    2     1000037        11   # BR(~nu_eL -> ~chi_2+ e-)
#
#         PDG            Width
DECAY   1000014     2.75857422E+01   # snu_muL decays
#          BR         NDA      ID1       ID2
     1.19769688E-01    2     1000022        14   # BR(~nu_muL -> ~chi_10 nu_mu)
     2.85306131E-05    2     1000023        14   # BR(~nu_muL -> ~chi_20 nu_mu)
     9.06244947E-02    2     1000025        14   # BR(~nu_muL -> ~chi_30 nu_mu)
     2.62711812E-01    2     1000035        14   # BR(~nu_muL -> ~chi_40 nu_mu)
     1.99524889E-03    2     1000024        13   # BR(~nu_muL -> ~chi_1+ mu-)
     5.24870226E-01    2     1000037        13   # BR(~nu_muL -> ~chi_2+ mu-)
#
#         PDG            Width
DECAY   1000016     2.76158188E+01   # snu_tauL decays
#          BR         NDA      ID1       ID2
     1.19639245E-01    2     1000022        16   # BR(~nu_tauL -> ~chi_10 nu_tau)
     2.84995402E-05    2     1000023        16   # BR(~nu_tauL -> ~chi_20 nu_tau)
     9.05257947E-02    2     1000025        16   # BR(~nu_tauL -> ~chi_30 nu_tau)
     2.62425690E-01    2     1000035        16   # BR(~nu_tauL -> ~chi_40 nu_tau)
     3.08144295E-03    2     1000024        15   # BR(~nu_tauL -> ~chi_1+ tau-)
     5.24299327E-01    2     1000037        15   # BR(~nu_tauL -> ~chi_2+ tau-)
#
#         PDG            Width
DECAY   1000024     1.03270544E-04   # chargino1+ decays
#          BR         NDA      ID1       ID2
     3.30803954E-03    2     1000039        24   # BR(~chi_1+ -> ~G       W+)
#           BR         NDA      ID1       ID2       ID3
     3.32527913E-01    3     1000022         2        -1   # BR(~chi_1+ -> ~chi_10 u    db)
     3.32527913E-01    3     1000022         4        -3   # BR(~chi_1+ -> ~chi_10 c    sb)
     1.10842770E-01    3     1000022       -11        12   # BR(~chi_1+ -> ~chi_10 e+   nu_e)
     1.10842770E-01    3     1000022       -13        14   # BR(~chi_1+ -> ~chi_10 mu+  nu_mu)
     1.09950595E-01    3     1000022       -15        16   # BR(~chi_1+ -> ~chi_10 tau+ nu_tau)
#
#         PDG            Width
DECAY   1000037     3.66894483E+01   # chargino2+ decays
#          BR         NDA      ID1       ID2
     2.44814381E-01    2     1000024        23   # BR(~chi_2+ -> ~chi_1+  Z )
     1.11810183E-01    2     1000022        24   # BR(~chi_2+ -> ~chi_10  W+)
     2.38467181E-01    2     1000023        24   # BR(~chi_2+ -> ~chi_20  W+)
     1.26854480E-01    2     1000025        24   # BR(~chi_2+ -> ~chi_30  W+)
     2.45921715E-01    2     1000024        25   # BR(~chi_2+ -> ~chi_1+  h )
     7.91474846E-03    2     1000024        35   # BR(~chi_2+ -> ~chi_1+  H )
     8.12882375E-03    2     1000024        36   # BR(~chi_2+ -> ~chi_1+  A )
     4.83815325E-03    2     1000022        37   # BR(~chi_2+ -> ~chi_10  H+)
     7.96701474E-03    2     1000023        37   # BR(~chi_2+ -> ~chi_20  H+)
     3.27393702E-03    2     1000025        37   # BR(~chi_2+ -> ~chi_30  H+)
     9.38129739E-06    2     1000039        24   # BR(~chi_2+ -> ~G       W+)
     6.48158748E-10    2     1000039        37   # BR(~chi_2+ -> ~G       H+)
#
#         PDG            Width
DECAY   1000022    1.0E-05    # neutralino1 decays
#          BR         NDA      ID1       ID2
     5.02164814E-01    2     1000039        22   # BR(~chi_10 -> ~G        gam)
     4.86804643E-01    2     1000039        23   # BR(~chi_10 -> ~G        Z)
     1.10305430E-02    2     1000039        25   # BR(~chi_10 -> ~G        h)
#
#         PDG            Width
DECAY   1000023     1.12960642E-04   # neutralino2 decays
#          BR         NDA      ID1       ID2
     3.11518698E-04    2     1000022        22   # BR(~chi_20 -> ~chi_10 gam)
#          BR         NDA      ID1       ID2
     3.37161465E-08    2     1000039        22   # BR(~chi_20 -> ~G        gam)
     1.17322499E-04    2     1000039        23   # BR(~chi_20 -> ~G        Z)
     2.81623269E-03    2     1000039        25   # BR(~chi_20 -> ~G        h)
#           BR         NDA      ID1       ID2       ID3
     1.18416189E-01    3     1000022        -2         2   # BR(~chi_20 -> ~chi_10 ub      u)
     1.53315707E-01    3     1000022        -1         1   # BR(~chi_20 -> ~chi_10 db      d)
     1.18416189E-01    3     1000022        -4         4   # BR(~chi_20 -> ~chi_10 cb      c)
     1.53315707E-01    3     1000022        -3         3   # BR(~chi_20 -> ~chi_10 sb      s)
     1.38910158E-01    3     1000022        -5         5   # BR(~chi_20 -> ~chi_10 bb      b)
     3.50075935E-02    3     1000022       -11        11   # BR(~chi_20 -> ~chi_10 e+      e-)
     3.50075935E-02    3     1000022       -13        13   # BR(~chi_20 -> ~chi_10 mu+     mu-)
     3.46404963E-02    3     1000022       -15        15   # BR(~chi_20 -> ~chi_10 tau+    tau-)
     6.99074893E-02    3     1000022       -12        12   # BR(~chi_20 -> ~chi_10 nu_eb   nu_e)
     6.99074893E-02    3     1000022       -14        14   # BR(~chi_20 -> ~chi_10 nu_mub  nu_mu)
     6.99074893E-02    3     1000022       -16        16   # BR(~chi_20 -> ~chi_10 nu_taub nu_tau)
     5.16025914E-07    3     1000024        -2         1   # BR(~chi_20 -> ~chi_1+ ub      d)
     5.16025914E-07    3    -1000024        -1         2   # BR(~chi_20 -> ~chi_1- db      u)
     5.16025914E-07    3     1000024        -4         3   # BR(~chi_20 -> ~chi_1+ cb      s)
     5.16025914E-07    3    -1000024        -3         4   # BR(~chi_20 -> ~chi_1- sb      c)
     1.72008650E-07    3     1000024       -12        11   # BR(~chi_20 -> ~chi_1+ nu_eb   e-)
     1.72008650E-07    3    -1000024        12       -11   # BR(~chi_20 -> ~chi_1- nu_e    e+)
     1.72008650E-07    3     1000024       -14        13   # BR(~chi_20 -> ~chi_1+ nu_mub  mu-)
     1.72008650E-07    3    -1000024        14       -13   # BR(~chi_20 -> ~chi_1- nu_mu   mu+)
     1.88832776E-08    3     1000024       -16        15   # BR(~chi_20 -> ~chi_1+ nu_taub tau-)
     1.88832776E-08    3    -1000024        16       -15   # BR(~chi_20 -> ~chi_1- nu_tau  tau+)
#
#         PDG            Width
DECAY   1000025     2.43438296E-04   # neutralino3 decays
#          BR         NDA      ID1       ID2
     3.45020618E-04    2     1000022        22   # BR(~chi_30 -> ~chi_10 gam)
     3.76563406E-04    2     1000023        22   # BR(~chi_30 -> ~chi_20 gam)
#          BR         NDA      ID1       ID2
     1.43034161E-03    2     1000039        22   # BR(~chi_30 -> ~G        gam)
     1.21907246E-03    2     1000039        23   # BR(~chi_30 -> ~G        Z)
     3.36077017E-05    2     1000039        25   # BR(~chi_30 -> ~G        h)
#           BR         NDA      ID1       ID2       ID3
     1.01829175E-05    3     1000022        -2         2   # BR(~chi_30 -> ~chi_10 ub      u)
     1.22009939E-05    3     1000022        -1         1   # BR(~chi_30 -> ~chi_10 db      d)
     1.01829175E-05    3     1000022        -4         4   # BR(~chi_30 -> ~chi_10 cb      c)
     1.22009939E-05    3     1000022        -3         3   # BR(~chi_30 -> ~chi_10 sb      s)
     1.58739480E-05    3     1000022        -5         5   # BR(~chi_30 -> ~chi_10 bb      b)
     2.17613837E-06    3     1000022       -11        11   # BR(~chi_30 -> ~chi_10 e+      e-)
     2.17613837E-06    3     1000022       -13        13   # BR(~chi_30 -> ~chi_10 mu+     mu-)
     2.75793007E-06    3     1000022       -15        15   # BR(~chi_30 -> ~chi_10 tau+    tau-)
     5.93725641E-06    3     1000022       -12        12   # BR(~chi_30 -> ~chi_10 nu_eb   nu_e)
     5.93725641E-06    3     1000022       -14        14   # BR(~chi_30 -> ~chi_10 nu_mub  nu_mu)
     5.93725641E-06    3     1000022       -16        16   # BR(~chi_30 -> ~chi_10 nu_taub nu_tau)
     2.60775654E-02    3     1000023        -2         2   # BR(~chi_30 -> ~chi_20 ub      u)
     3.37631901E-02    3     1000023        -1         1   # BR(~chi_30 -> ~chi_20 db      d)
     2.60775654E-02    3     1000023        -4         4   # BR(~chi_30 -> ~chi_20 cb      c)
     3.37631901E-02    3     1000023        -3         3   # BR(~chi_30 -> ~chi_20 sb      s)
     2.96395704E-02    3     1000023        -5         5   # BR(~chi_30 -> ~chi_20 bb      b)
     7.70940332E-03    3     1000023       -11        11   # BR(~chi_30 -> ~chi_20 e+      e-)
     7.70940332E-03    3     1000023       -13        13   # BR(~chi_30 -> ~chi_20 mu+     mu-)
     7.60900677E-03    3     1000023       -15        15   # BR(~chi_30 -> ~chi_20 tau+    tau-)
     1.53949571E-02    3     1000023       -12        12   # BR(~chi_30 -> ~chi_20 nu_eb   nu_e)
     1.53949571E-02    3     1000023       -14        14   # BR(~chi_30 -> ~chi_20 nu_mub  nu_mu)
     1.53949571E-02    3     1000023       -16        16   # BR(~chi_30 -> ~chi_20 nu_taub nu_tau)
     1.29783432E-01    3     1000024        -2         1   # BR(~chi_30 -> ~chi_1+ ub      d)
     1.29783432E-01    3    -1000024        -1         2   # BR(~chi_30 -> ~chi_1- db      u)
     1.29783432E-01    3     1000024        -4         3   # BR(~chi_30 -> ~chi_1+ cb      s)
     1.29783432E-01    3    -1000024        -3         4   # BR(~chi_30 -> ~chi_1- sb      c)
     4.32610756E-02    3     1000024       -12        11   # BR(~chi_30 -> ~chi_1+ nu_eb   e-)
     4.32610756E-02    3    -1000024        12       -11   # BR(~chi_30 -> ~chi_1- nu_e    e+)
     4.32610756E-02    3     1000024       -14        13   # BR(~chi_30 -> ~chi_1+ nu_mub  mu-)
     4.32610756E-02    3    -1000024        14       -13   # BR(~chi_30 -> ~chi_1- nu_mu   mu+)
     4.28990174E-02    3     1000024       -16        15   # BR(~chi_30 -> ~chi_1+ nu_taub tau-)
     4.28990174E-02    3    -1000024        16       -15   # BR(~chi_30 -> ~chi_1- nu_tau  tau+)
#
#         PDG            Width
DECAY   1000035     3.66898418E+01   # neutralino4 decays
#          BR         NDA      ID1       ID2
     1.35492081E-03    2     1000022        23   # BR(~chi_40 -> ~chi_10   Z )
     2.41962617E-01    2     1000023        23   # BR(~chi_40 -> ~chi_20   Z )
     1.55818606E-03    2     1000025        23   # BR(~chi_40 -> ~chi_30   Z )
     2.38392136E-01    2     1000024       -24   # BR(~chi_40 -> ~chi_1+   W-)
     2.38392136E-01    2    -1000024        24   # BR(~chi_40 -> ~chi_1-   W+)
     1.14000697E-01    2     1000022        25   # BR(~chi_40 -> ~chi_10   h )
     1.46307467E-03    2     1000022        35   # BR(~chi_40 -> ~chi_10   H )
     3.34428378E-03    2     1000022        36   # BR(~chi_40 -> ~chi_10   A )
     2.88117449E-03    2     1000023        25   # BR(~chi_40 -> ~chi_20   h )
     5.11865174E-03    2     1000023        35   # BR(~chi_40 -> ~chi_20   H )
     2.78483756E-03    2     1000023        36   # BR(~chi_40 -> ~chi_20   A )
     1.29326274E-01    2     1000025        25   # BR(~chi_40 -> ~chi_30   h )
     1.23205702E-03    2     1000025        35   # BR(~chi_40 -> ~chi_30   H )
     2.01558843E-03    2     1000025        36   # BR(~chi_40 -> ~chi_30   A )
     8.08199218E-03    2     1000024       -37   # BR(~chi_40 -> ~chi_1+   H-)
     8.08199218E-03    2    -1000024        37   # BR(~chi_40 -> ~chi_1-   H+)
     2.25175072E-06    2     1000039        22   # BR(~chi_40 -> ~G        gam)
     7.12867026E-06    2     1000039        23   # BR(~chi_40 -> ~G        Z)
     5.19487509E-10    2     1000039        25   # BR(~chi_40 -> ~G        h)
     6.39543631E-10    2     1000039        35   # BR(~chi_40 -> ~G        H)
     5.47369124E-12    2     1000039        36   # BR(~chi_40 -> ~G        A)
#
#         PDG            Width
DECAY        25     4.21826507E-03   # h decays
#          BR         NDA      ID1       ID2
     6.01836754E-01    2           5        -5   # BR(h -> b       bb     )
     6.22408543E-02    2         -15        15   # BR(h -> tau+    tau-   )
     2.20305489E-04    2         -13        13   # BR(h -> mu+     mu-    )
     4.66123728E-04    2           3        -3   # BR(h -> s       sb     )
     2.01091860E-02    2           4        -4   # BR(h -> c       cb     )
     6.64094309E-02    2          21        21   # BR(h -> g       g      )
     2.30861139E-03    2          22        22   # BR(h -> gam     gam    )
     1.62661538E-03    2          22        23   # BR(h -> Z       gam    )
     2.16700544E-01    2          24       -24   # BR(h -> W+      W-     )
     2.80815743E-02    2          23        23   # BR(h -> Z       Z      )
#
#         PDG            Width
DECAY        35     3.88093405E+01   # H decays
#          BR         NDA      ID1       ID2
     1.43441538E-03    2           5        -5   # BR(H -> b       bb     )
     2.40085291E-04    2         -15        15   # BR(H -> tau+    tau-   )
     8.48790889E-07    2         -13        13   # BR(H -> mu+     mu-    )
     1.08676007E-06    2           3        -3   # BR(H -> s       sb     )
     9.80786523E-06    2           4        -4   # BR(H -> c       cb     )
     9.70443714E-01    2           6        -6   # BR(H -> t       tb     )
     7.77244087E-04    2          21        21   # BR(H -> g       g      )
     2.63848358E-06    2          22        22   # BR(H -> gam     gam    )
     1.12988106E-06    2          23        22   # BR(H -> Z       gam    )
     3.27145197E-04    2          24       -24   # BR(H -> W+      W-     )
     1.63126422E-04    2          23        23   # BR(H -> Z       Z      )
     8.81067456E-04    2          25        25   # BR(H -> h       h      )
     7.54418632E-24    2          36        36   # BR(H -> A       A      )
     2.99376741E-11    2          23        36   # BR(H -> Z       A      )
     7.45359588E-12    2          24       -37   # BR(H -> W+      H-     )
     7.45359588E-12    2         -24        37   # BR(H -> W-      H+     )
     7.58662073E-06    2     1000024  -1000024   # BR(H -> ~chi_1+ ~chi_1-)
     1.83627078E-04    2     1000022   1000022   # BR(H -> ~chi_10 ~chi_10)
     1.29322322E-06    2     1000023   1000023   # BR(H -> ~chi_20 ~chi_20)
     3.16637814E-05    2     1000025   1000025   # BR(H -> ~chi_30 ~chi_30)
     1.58310630E-02    2     1000022   1000023   # BR(H -> ~chi_10 ~chi_20)
     4.52186055E-07    2     1000022   1000025   # BR(H -> ~chi_10 ~chi_30)
     9.66200452E-03    2     1000023   1000025   # BR(H -> ~chi_20 ~chi_30)
#
#         PDG            Width
DECAY        36     3.92442276E+01   # A decays
#          BR         NDA      ID1       ID2
     1.43738304E-03    2           5        -5   # BR(A -> b       bb     )
     2.37645558E-04    2         -15        15   # BR(A -> tau+    tau-   )
     8.40162897E-07    2         -13        13   # BR(A -> mu+     mu-    )
     1.10763349E-06    2           3        -3   # BR(A -> s       sb     )
     9.70640137E-06    2           4        -4   # BR(A -> c       cb     )
     9.71438638E-01    2           6        -6   # BR(A -> t       tb     )
     9.19485126E-04    2          21        21   # BR(A -> g       g      )
     2.99651287E-06    2          22        22   # BR(A -> gam     gam    )
     1.31759452E-06    2          23        22   # BR(A -> Z       gam    )
     3.18826951E-04    2          23        25   # BR(A -> Z       h      )
     4.48668417E-04    2     1000024  -1000024   # BR(A -> ~chi_1+ ~chi_1-)
     1.68702014E-02    2     1000022   1000022   # BR(A -> ~chi_10 ~chi_10)
     2.84549853E-07    2     1000023   1000023   # BR(A -> ~chi_20 ~chi_20)
     8.00318348E-03    2     1000025   1000025   # BR(A -> ~chi_30 ~chi_30)
     1.19361388E-04    2     1000022   1000023   # BR(A -> ~chi_10 ~chi_20)
     1.32435724E-04    2     1000022   1000025   # BR(A -> ~chi_10 ~chi_30)
     5.79181238E-05    2     1000023   1000025   # BR(A -> ~chi_20 ~chi_30)
#
#         PDG            Width
DECAY        37     3.84329603E+01   # H+ decays
#          BR         NDA      ID1       ID2
     2.30621999E-06    2           4        -5   # BR(H+ -> c       bb     )
     2.42841509E-04    2         -15        16   # BR(H+ -> tau+    nu_tau )
     8.58532459E-07    2         -13        14   # BR(H+ -> mu+     nu_mu  )
     1.46624848E-08    2           2        -5   # BR(H+ -> u       bb     )
     5.31691433E-08    2           2        -3   # BR(H+ -> u       sb     )
     1.05941535E-05    2           4        -3   # BR(H+ -> c       sb     )
     9.73759968E-01    2           6        -5   # BR(H+ -> t       bb     )
     3.26742399E-04    2          24        25   # BR(H+ -> W+      h      )
     2.43026384E-13    2          24        36   # BR(H+ -> W+      A      )
     1.42728000E-02    2     1000024   1000022   # BR(H+ -> ~chi_1+ ~chi_10)
     1.06600350E-04    2     1000024   1000023   # BR(H+ -> ~chi_1+ ~chi_20)
     1.12772210E-02    2     1000024   1000025   # BR(H+ -> ~chi_1+ ~chi_30)
