#
#                              ======================
#                              | THE SUSYHIT OUTPUT |
#                              ======================
#
#
#              ------------------------------------------------------
#              |     This is the output of the SUSY-HIT package     |
#              |  created by A.Djouadi, M.Muehlleitner and M.Spira. |
#              |  In case of problems with SUSY-HIT email to        |
#              |           margarete.muehlleitner@cern.ch           |
#              |           michael.spira@psi.ch                     |
#              |           abdelhak.djouadi@cern.ch                 |
#              ------------------------------------------------------
#
#              ------------------------------------------------------
#              |  SUSY Les Houches Accord - MSSM Spectrum + Decays  |
#              |              based on the decay programs           |
#              |                                                    |
#              |                     SDECAY 1.3b                    |
#              |                                                    |
#              |  Authors: M.Muhlleitner, A.Djouadi and Y.Mambrini  |
#              |  Ref.:    Comput.Phys.Commun.168(2005)46           |
#              |           [hep-ph/0311167]                         |
#              |                                                    |
#              |                     HDECAY 3.4                     |
#              |                                                    |
#              |  By: A.Djouadi,J.Kalinowski,M.Muhlleitner,M.Spira  |
#              |  Ref.:    Comput.Phys.Commun.108(1998)56           |
#              |           [hep-ph/9704448]                         |
#              |                                                    |
#              |                                                    |
#              |  If not stated otherwise all DRbar couplings and   |
#              |  soft SUSY breaking masses are given at the scale  |
#              |  Q=  0.50007047E+04
#              |                                                    |
#              ------------------------------------------------------
#
#
BLOCK DCINFO  # Decay Program information
     1   SDECAY/HDECAY # decay calculator
     2   1.3b  /3.4    # version number
#
BLOCK SPINFO  # Spectrum calculator information
     1    SOFTSUSY    # spectrum calculator                
     2    3.4.0       # version number                     
#
BLOCK MODSEL  # Model selection
     1     0   #  nonUniversal                                     
#
BLOCK SMINPUTS  # Standard Model inputs
         1     1.25778332E+02   # alpha_em^-1(M_Z)^MSbar
         2     1.16570000E-05   # G_F [GeV^-2]
         3     1.17200002E-01   # alpha_S(M_Z)^MSbar
         4     9.11876000E+01   # M_Z pole mass
         5     4.25000000E+00   # mb(mb)^MSbar
         6     1.72500000E+02   # mt pole mass
         7     1.77682000E+00   # mtau pole mass
#
BLOCK MINPAR  # Input parameters - minimal models
         3     1.00000000E+01   # tanb                
#
BLOCK EXTPAR  # Input parameters - non-minimal models
         0    -1.00000000E+00   # Set                 
         1     6.00000000E+01   # M_1(MX)             
         2     3.00000000E+03   # M_2(MX)             
         3     6.88109000E+02   # M_3(MX)             
        11     5.00000000E+03   # At(MX)              
        12     5.00000000E+03   # Ab(MX)              
        13     0.00000000E+00   # Atau(MX)            
        23    -1.44744400E+03   # mu(MX)              
        26     3.00000000E+03   # mA(pole)            
        31     5.00000000E+03   # meL(MX)             
        32     5.00000000E+03   # mmuL(MX)            
        33     5.00000000E+03   # mtauL(MX)           
        34     5.00000000E+03   # meR(MX)             
        35     5.00000000E+03   # mmuR(MX)            
        36     5.00000000E+03   # mtauR(MX)           
        41     5.00000000E+03   # mqL1(MX)            
        42     5.00000000E+03   # mqL2(MX)            
        43     5.00000000E+03   # mqL3(MX)            
        44     5.00000000E+03   # muR(MX)             
        45     5.00000000E+03   # mcR(MX)             
        46     5.00000000E+03   # mtR(MX)             
        47     5.00000000E+03   # mdR(MX)             
        48     5.00000000E+03   # msR(MX)             
        49     5.00000000E+03   # mbR(MX)             
#
BLOCK MASS  # Mass Spectrum
# PDG code           mass       particle
        24     8.00931442E+01   # W+
        25     1.24222638E+02   # h
        35     3.00008740E+03   # H
        36     2.99999996E+03   # A
        37     3.00087951E+03   # H+
         5     4.87878001E+00   # b-quark pole mass calculated from mb(mb)_Msbar
   1000001     5.06343366E+03   # ~d_L
   2000001     5.04562248E+03   # ~d_R
   1000002     5.06295641E+03   # ~u_L
   2000002     5.04534676E+03   # ~u_R
   1000003     5.06343366E+03   # ~s_L
   2000003     5.04562248E+03   # ~s_R
   1000004     5.06295641E+03   # ~c_L
   2000004     5.04534676E+03   # ~c_R
   1000005     5.01020495E+03   # ~b_1
   2000005     5.04456576E+03   # ~b_2
   1000006     4.90109321E+03   # ~t_1
   2000006     5.05734966E+03   # ~t_2
   1000011     5.01905234E+03   # ~e_L
   2000011     5.00591066E+03   # ~e_R
   1000012     5.01810355E+03   # ~nu_eL
   1000013     5.01905234E+03   # ~mu_L
   2000013     5.00591066E+03   # ~mu_R
   1000014     5.01810355E+03   # ~nu_muL
   1000015     5.00437002E+03   # ~tau_1
   2000015     5.01900689E+03   # ~tau_2
   1000016     5.01756449E+03   # ~nu_tauL
   1000021     9.00000624E+02   # ~g
   1000022     6.03025643E+01   # ~chi_10
   1000023     1.49944629E+03   # ~chi_20
   1000025    -1.50189878E+03   # ~chi_30
   1000035     3.07433443E+03   # ~chi_40
   1000024     1.50000039E+03   # ~chi_1+
   1000037     3.07450201E+03   # ~chi_2+
#
BLOCK NMIX  # Neutralino Mixing Matrix
  1  1     9.99556018E-01   # N_11
  1  2     1.39866879E-04   # N_12
  1  3    -2.97333457E-02   # N_13
  1  4     1.91740654E-03   # N_14
  2  1     1.96684525E-02   # N_21
  2  2     3.09084268E-02   # N_22
  2  3     7.06897731E-01   # N_23
  2  4     7.06366350E-01   # N_24
  3  1    -2.23766925E-02   # N_31
  3  2     1.32686643E-02   # N_32
  3  3    -7.06580399E-01   # N_33
  3  4     7.07154414E-01   # N_34
  4  1    -4.51072131E-04   # N_41
  4  2     9.99434136E-01   # N_42
  4  3    -1.24766200E-02   # N_43
  4  4    -3.12336093E-02   # N_44
#
BLOCK UMIX  # Chargino Mixing Matrix U
  1  1     1.76540566E-02   # U_11
  1  2     9.99844155E-01   # U_12
  2  1    -9.99844155E-01   # U_21
  2  2     1.76540566E-02   # U_22
#
BLOCK VMIX  # Chargino Mixing Matrix V
  1  1     4.41899311E-02   # V_11
  1  2    -9.99023148E-01   # V_12
  2  1    -9.99023148E-01   # V_21
  2  2    -4.41899311E-02   # V_22
#
BLOCK STOPMIX  # Stop Mixing Matrix
  1  1    -5.14617086E-01   # cos(theta_t)
  1  2     8.57420116E-01   # sin(theta_t)
  2  1    -8.57420116E-01   # -sin(theta_t)
  2  2    -5.14617086E-01   # cos(theta_t)
#
BLOCK SBOTMIX  # Sbottom Mixing Matrix
  1  1     9.94387487E-01   # cos(theta_b)
  1  2    -1.05799460E-01   # sin(theta_b)
  2  1     1.05799460E-01   # -sin(theta_b)
  2  2     9.94387487E-01   # cos(theta_b)
#
BLOCK STAUMIX  # Stau Mixing Matrix
  1  1    -1.68232269E-01   # cos(theta_tau)
  1  2     9.85747383E-01   # sin(theta_tau)
  2  1    -9.85747383E-01   # -sin(theta_tau)
  2  2    -1.68232269E-01   # cos(theta_tau)
#
BLOCK ALPHA  # Higgs mixing
          -1.05405070E-01   # Mixing angle in the neutral Higgs boson sector
#
BLOCK HMIX Q=  5.00070474E+03  # DRbar Higgs Parameters
         1    -1.47306221E+03   # mu(Q)MSSM           
         2     9.47554635E+00   # tan                 
         3     2.42043413E+02   # higgs               
         4     8.39108663E+06   # mA^2(Q)MSSM         
#
BLOCK GAUGE Q=  5.00070474E+03  # The gauge couplings
     1     3.70724026E-01   # gprime(Q) DRbar
     2     6.32143497E-01   # g(Q) DRbar
     3     1.01018986E+00   # g3(Q) DRbar
#
BLOCK AU Q=  5.00070474E+03  # The trilinear couplings
  1  1     5.00000001E+03   # A_u(Q) DRbar
  2  2     5.00000001E+03   # A_c(Q) DRbar
  3  3     5.00000001E+03   # A_t(Q) DRbar
#
BLOCK AD Q=  5.00070474E+03  # The trilinear couplings
  1  1     5.00000000E+03   # A_d(Q) DRbar
  2  2     5.00000000E+03   # A_s(Q) DRbar
  3  3     5.00000001E+03   # A_b(Q) DRbar
#
BLOCK AE Q=  5.00070474E+03  # The trilinear couplings
  1  1     0.00000000E+00   # A_e(Q) DRbar
  2  2     0.00000000E+00   # A_mu(Q) DRbar
  3  3    -8.29010791E-10   # A_tau(Q) DRbar
#
BLOCK Yu Q=  5.00070474E+03  # The Yukawa couplings
  1  1     0.00000000E+00   # y_u(Q) DRbar
  2  2     0.00000000E+00   # y_c(Q) DRbar
  3  3     8.12846306E-01   # y_t(Q) DRbar
#
BLOCK Yd Q=  5.00070474E+03  # The Yukawa couplings
  1  1     0.00000000E+00   # y_d(Q) DRbar
  2  2     0.00000000E+00   # y_s(Q) DRbar
  3  3     1.29488364E-01   # y_b(Q) DRbar
#
BLOCK Ye Q=  5.00070474E+03  # The Yukawa couplings
  1  1     0.00000000E+00   # y_e(Q) DRbar
  2  2     0.00000000E+00   # y_mu(Q) DRbar
  3  3     9.66484105E-02   # y_tau(Q) DRbar
#
BLOCK MSOFT Q=  5.00070474E+03  # The soft SUSY breaking masses at the scale Q
         1     6.00000000E+01   # M_1(Q)              
         2     3.00000000E+03   # M_2(Q)              
         3     6.88109000E+02   # M_3(Q)              
        21     6.49932983E+06   # mH1^2(Q)            
        22    -1.62747572E+06   # mH2^2(Q)            
        31     5.00000000E+03   # meL(Q)              
        32     5.00000000E+03   # mmuL(Q)             
        33     5.00000000E+03   # mtauL(Q)            
        34     5.00000000E+03   # meR(Q)              
        35     5.00000000E+03   # mmuR(Q)             
        36     5.00000000E+03   # mtauR(Q)            
        41     5.00000000E+03   # mqL1(Q)             
        42     5.00000000E+03   # mqL2(Q)             
        43     5.00000000E+03   # mqL3(Q)             
        44     5.00000000E+03   # muR(Q)              
        45     5.00000000E+03   # mcR(Q)              
        46     5.00000000E+03   # mtR(Q)              
        47     5.00000000E+03   # mdR(Q)              
        48     5.00000000E+03   # msR(Q)              
        49     5.00000000E+03   # mbR(Q)              
#
#
#
#                             =================
#                             |The decay table|
#                             =================
#
# - The QCD corrections to the decays gluino -> squark  + quark
#                                     squark -> gaugino + quark_prime
#                                     squark -> squark_prime + Higgs
#                                     squark -> gluino  + quark
#   are included.
#
# - The multi-body decays for the inos, stops and sbottoms are included.
#
# - The loop induced decays for the gluino, neutralinos and stops
#   are included.
#
# - The SUSY decays of the top quark are included.
#
#
#         PDG            Width
DECAY         6     1.40043392E+00   # top decays
#          BR         NDA      ID1       ID2
     1.00000000E+00    2           5        24   # BR(t ->  b    W+)
#
#         PDG            Width
DECAY   1000021     4.85319999E-06   # gluino decays
#          BR         NDA      ID1       ID2
     2.49626634E-05    2     1000022        21   # BR(~g -> ~chi_10 g)
#           BR         NDA      ID1       ID2       ID3
     8.50966753E-02    3     1000022         1        -1   # BR(~g -> ~chi_10 d  db)
     2.90082293E-01    3     1000022         2        -2   # BR(~g -> ~chi_10 u  ub)
     8.50966753E-02    3     1000022         3        -3   # BR(~g -> ~chi_10 s  sb)
     2.90082293E-01    3     1000022         4        -4   # BR(~g -> ~chi_10 c  cb)
     8.61300555E-02    3     1000022         5        -5   # BR(~g -> ~chi_10 b  bb)
     1.63487045E-01    3     1000022         6        -6   # BR(~g -> ~chi_10 t  tb)
#
#         PDG            Width
DECAY   1000006     4.10229361E+02   # stop1 decays
#          BR         NDA      ID1       ID2
     2.13084016E-02    2     1000022         6   # BR(~t_1 -> ~chi_10 t )
     6.53672937E-02    2     1000023         6   # BR(~t_1 -> ~chi_20 t )
     6.27847135E-02    2     1000025         6   # BR(~t_1 -> ~chi_30 t )
     5.37470449E-03    2     1000035         6   # BR(~t_1 -> ~chi_40 t )
     9.32008001E-02    2     1000024         5   # BR(~t_1 -> ~chi_1+ b )
     1.06909355E-02    2     1000037         5   # BR(~t_1 -> ~chi_2+ b )
     7.41273151E-01    2     1000021         6   # BR(~t_1 -> ~g      t )
#
#         PDG            Width
DECAY   2000006     4.14320345E+02   # stop2 decays
#          BR         NDA      ID1       ID2
     8.77695394E-03    2     1000022         6   # BR(~t_2 -> ~chi_10 t )
     6.69878730E-02    2     1000023         6   # BR(~t_2 -> ~chi_20 t )
     6.97538623E-02    2     1000025         6   # BR(~t_2 -> ~chi_30 t )
     1.29691934E-02    2     1000035         6   # BR(~t_2 -> ~chi_40 t )
     4.19369233E-02    2     1000024         5   # BR(~t_2 -> ~chi_1+ b )
     2.57540960E-02    2     1000037         5   # BR(~t_2 -> ~chi_2+ b )
     7.70611418E-01    2     1000021         6   # BR(~t_2 -> ~g      t )
     6.95726038E-04    2     1000006        25   # BR(~t_2 -> ~t_1    h )
     2.51395435E-03    2     1000006        23   # BR(~t_2 -> ~t_1    Z )
#
#         PDG            Width
DECAY   1000005     3.93772420E+02   # sbottom1 decays
#          BR         NDA      ID1       ID2
     1.99207513E-03    2     1000022         5   # BR(~b_1 -> ~chi_10 b )
     1.84219958E-03    2     1000023         5   # BR(~b_1 -> ~chi_20 b )
     1.74091186E-03    2     1000025         5   # BR(~b_1 -> ~chi_30 b )
     1.88759545E-02    2     1000035         5   # BR(~b_1 -> ~chi_40 b )
     1.38155335E-01    2    -1000024         6   # BR(~b_1 -> ~chi_1- t )
     3.79943762E-02    2    -1000037         6   # BR(~b_1 -> ~chi_2- t )
     7.97974453E-01    2     1000021         5   # BR(~b_1 -> ~g      b )
     1.42469532E-03    2     1000006       -24   # BR(~b_1 -> ~t_1    W-)
#
#         PDG            Width
DECAY   2000005     3.23083212E+02   # sbottom2 decays
#          BR         NDA      ID1       ID2
     9.07357502E-03    2     1000022         5   # BR(~b_2 -> ~chi_10 b )
     2.14857248E-03    2     1000023         5   # BR(~b_2 -> ~chi_20 b )
     2.24620574E-03    2     1000025         5   # BR(~b_2 -> ~chi_30 b )
     2.80540581E-04    2     1000035         5   # BR(~b_2 -> ~chi_40 b )
     6.24471530E-03    2    -1000024         6   # BR(~b_2 -> ~chi_1- t )
     5.64430295E-04    2    -1000037         6   # BR(~b_2 -> ~chi_2- t )
     9.79361271E-01    2     1000021         5   # BR(~b_2 -> ~g      b )
     8.06893084E-05    2     1000006       -24   # BR(~b_2 -> ~t_1    W-)
#
#         PDG            Width
DECAY   1000002     3.41813362E+02   # sup_L decays
#          BR         NDA      ID1       ID2
     2.18734799E-03    2     1000022         2   # BR(~u_L -> ~chi_10 u)
     5.74993114E-05    2     1000023         2   # BR(~u_L -> ~chi_20 u)
     3.76378221E-06    2     1000025         2   # BR(~u_L -> ~chi_30 u)
     2.27847174E-02    2     1000035         2   # BR(~u_L -> ~chi_40 u)
     1.85902323E-04    2     1000024         1   # BR(~u_L -> ~chi_1+ d)
     4.55342290E-02    2     1000037         1   # BR(~u_L -> ~chi_2+ d)
     9.29246540E-01    2     1000021         2   # BR(~u_L -> ~g      u)
#
#         PDG            Width
DECAY   2000002     3.28292363E+02   # sup_R decays
#          BR         NDA      ID1       ID2
     3.62599928E-02    2     1000022         2   # BR(~u_R -> ~chi_10 u)
     1.16677386E-05    2     1000023         2   # BR(~u_R -> ~chi_20 u)
     1.50925166E-05    2     1000025         2   # BR(~u_R -> ~chi_30 u)
     2.92100150E-09    2     1000035         2   # BR(~u_R -> ~chi_40 u)
     9.63713244E-01    2     1000021         2   # BR(~u_R -> ~g      u)
#
#         PDG            Width
DECAY   1000001     3.41823451E+02   # sdown_L decays
#          BR         NDA      ID1       ID2
     2.18123582E-03    2     1000022         1   # BR(~d_L -> ~chi_10 d)
     3.48725024E-05    2     1000023         1   # BR(~d_L -> ~chi_20 d)
     1.48109673E-05    2     1000025         1   # BR(~d_L -> ~chi_30 d)
     2.27992270E-02    2     1000035         1   # BR(~d_L -> ~chi_40 d)
     2.96736611E-05    2    -1000024         2   # BR(~d_L -> ~chi_1- u)
     4.56220434E-02    2    -1000037         2   # BR(~d_L -> ~chi_2- u)
     9.29318137E-01    2     1000021         1   # BR(~d_L -> ~g      d)
#
#         PDG            Width
DECAY   2000001     3.19377590E+02   # sdown_R decays
#          BR         NDA      ID1       ID2
     9.31853958E-03    2     1000022         1   # BR(~d_R -> ~chi_10 d)
     2.99858252E-06    2     1000023         1   # BR(~d_R -> ~chi_20 d)
     3.87874305E-06    2     1000025         1   # BR(~d_R -> ~chi_30 d)
     7.50771197E-10    2     1000035         1   # BR(~d_R -> ~chi_40 d)
     9.90674582E-01    2     1000021         1   # BR(~d_R -> ~g      d)
#
#         PDG            Width
DECAY   1000004     3.41813362E+02   # scharm_L decays
#          BR         NDA      ID1       ID2
     2.18734799E-03    2     1000022         4   # BR(~c_L -> ~chi_10 c)
     5.74993114E-05    2     1000023         4   # BR(~c_L -> ~chi_20 c)
     3.76378221E-06    2     1000025         4   # BR(~c_L -> ~chi_30 c)
     2.27847174E-02    2     1000035         4   # BR(~c_L -> ~chi_40 c)
     1.85902323E-04    2     1000024         3   # BR(~c_L -> ~chi_1+ s)
     4.55342290E-02    2     1000037         3   # BR(~c_L -> ~chi_2+ s)
     9.29246540E-01    2     1000021         4   # BR(~c_L -> ~g      c)
#
#         PDG            Width
DECAY   2000004     3.28292363E+02   # scharm_R decays
#          BR         NDA      ID1       ID2
     3.62599928E-02    2     1000022         4   # BR(~c_R -> ~chi_10 c)
     1.16677386E-05    2     1000023         4   # BR(~c_R -> ~chi_20 c)
     1.50925166E-05    2     1000025         4   # BR(~c_R -> ~chi_30 c)
     2.92100150E-09    2     1000035         4   # BR(~c_R -> ~chi_40 c)
     9.63713244E-01    2     1000021         4   # BR(~c_R -> ~g      c)
#
#         PDG            Width
DECAY   1000003     3.41823451E+02   # sstrange_L decays
#          BR         NDA      ID1       ID2
     2.18123582E-03    2     1000022         3   # BR(~s_L -> ~chi_10 s)
     3.48725024E-05    2     1000023         3   # BR(~s_L -> ~chi_20 s)
     1.48109673E-05    2     1000025         3   # BR(~s_L -> ~chi_30 s)
     2.27992270E-02    2     1000035         3   # BR(~s_L -> ~chi_40 s)
     2.96736611E-05    2    -1000024         4   # BR(~s_L -> ~chi_1- c)
     4.56220434E-02    2    -1000037         4   # BR(~s_L -> ~chi_2- c)
     9.29318137E-01    2     1000021         3   # BR(~s_L -> ~g      s)
#
#         PDG            Width
DECAY   2000003     3.19377590E+02   # sstrange_R decays
#          BR         NDA      ID1       ID2
     9.31853958E-03    2     1000022         3   # BR(~s_R -> ~chi_10 s)
     2.99858252E-06    2     1000023         3   # BR(~s_R -> ~chi_20 s)
     3.87874305E-06    2     1000025         3   # BR(~s_R -> ~chi_30 s)
     7.50771197E-10    2     1000035         3   # BR(~s_R -> ~chi_40 s)
     9.90674582E-01    2     1000021         3   # BR(~s_R -> ~g      s)
#
#         PDG            Width
DECAY   1000011     3.02418329E+01   # selectron_L decays
#          BR         NDA      ID1       ID2
     2.26731225E-01    2     1000022        11   # BR(~e_L -> ~chi_10 e-)
     9.85724730E-04    2     1000023        11   # BR(~e_L -> ~chi_20 e-)
     1.16134469E-08    2     1000025        11   # BR(~e_L -> ~chi_30 e-)
     2.57104962E-01    2     1000035        11   # BR(~e_L -> ~chi_40 e-)
     3.41033925E-04    2    -1000024        12   # BR(~e_L -> ~chi_1- nu_e)
     5.14837042E-01    2    -1000037        12   # BR(~e_L -> ~chi_2- nu_e)
#
#         PDG            Width
DECAY   2000011     2.73622937E+01   # selectron_R decays
#          BR         NDA      ID1       ID2
     9.99264421E-01    2     1000022        11   # BR(~e_R -> ~chi_10 e-)
     3.20686980E-04    2     1000023        11   # BR(~e_R -> ~chi_20 e-)
     4.14813044E-04    2     1000025        11   # BR(~e_R -> ~chi_30 e-)
     7.89631720E-08    2     1000035        11   # BR(~e_R -> ~chi_40 e-)
#
#         PDG            Width
DECAY   1000013     3.02418329E+01   # smuon_L decays
#          BR         NDA      ID1       ID2
     2.26731225E-01    2     1000022        13   # BR(~mu_L -> ~chi_10 mu-)
     9.85724730E-04    2     1000023        13   # BR(~mu_L -> ~chi_20 mu-)
     1.16134469E-08    2     1000025        13   # BR(~mu_L -> ~chi_30 mu-)
     2.57104962E-01    2     1000035        13   # BR(~mu_L -> ~chi_40 mu-)
     3.41033925E-04    2    -1000024        14   # BR(~mu_L -> ~chi_1- nu_mu)
     5.14837042E-01    2    -1000037        14   # BR(~mu_L -> ~chi_2- nu_mu)
#
#         PDG            Width
DECAY   2000013     2.73622937E+01   # smuon_R decays
#          BR         NDA      ID1       ID2
     9.99264421E-01    2     1000022        13   # BR(~mu_R -> ~chi_10 mu-)
     3.20686980E-04    2     1000023        13   # BR(~mu_R -> ~chi_20 mu-)
     4.14813044E-04    2     1000025        13   # BR(~mu_R -> ~chi_30 mu-)
     7.89631720E-08    2     1000035        13   # BR(~mu_R -> ~chi_40 mu-)
#
#         PDG            Width
DECAY   1000015     2.89749874E+01   # stau_1 decays
#          BR         NDA      ID1       ID2
     9.24220131E-01    2     1000022        15   # BR(~tau_1 -> ~chi_10  tau-)
     1.41697456E-02    2     1000023        15   # BR(~tau_1 -> ~chi_20  tau-)
     1.28876850E-02    2     1000025        15   # BR(~tau_1 -> ~chi_30  tau-)
     7.28316527E-03    2     1000035        15   # BR(~tau_1 -> ~chi_40  tau-)
     2.68551322E-02    2    -1000024        16   # BR(~tau_1 -> ~chi_1-  nu_tau)
     1.45841413E-02    2    -1000037        16   # BR(~tau_1 -> ~chi_2-  nu_tau)
#
#         PDG            Width
DECAY   2000015     3.09292272E+01   # stau_2 decays
#          BR         NDA      ID1       ID2
     2.39723078E-01    2     1000022        15   # BR(~tau_2 -> ~chi_10  tau-)
     1.29187656E-02    2     1000023        15   # BR(~tau_2 -> ~chi_20  tau-)
     1.32062539E-02    2     1000025        15   # BR(~tau_2 -> ~chi_30  tau-)
     2.44494414E-01    2     1000035        15   # BR(~tau_2 -> ~chi_40  tau-)
     7.39644145E-05    2    -1000024        16   # BR(~tau_2 -> ~chi_1-  nu_tau)
     4.89583524E-01    2    -1000037        16   # BR(~tau_2 -> ~chi_2-  nu_tau)
#
#         PDG            Width
DECAY   1000012     3.02438740E+01   # snu_eL decays
#          BR         NDA      ID1       ID2
     2.26456806E-01    2     1000022        12   # BR(~nu_eL -> ~chi_10 nu_e)
     2.05317266E-04    2     1000023        12   # BR(~nu_eL -> ~chi_20 nu_e)
     3.80759224E-04    2     1000025        12   # BR(~nu_eL -> ~chi_30 nu_e)
     2.57194434E-01    2     1000035        12   # BR(~nu_eL -> ~chi_40 nu_e)
     2.13605076E-03    2     1000024        11   # BR(~nu_eL -> ~chi_1+ e-)
     5.13626632E-01    2     1000037        11   # BR(~nu_eL -> ~chi_2+ e-)
#
#         PDG            Width
DECAY   1000014     3.02438740E+01   # snu_muL decays
#          BR         NDA      ID1       ID2
     2.26456806E-01    2     1000022        14   # BR(~nu_muL -> ~chi_10 nu_mu)
     2.05317266E-04    2     1000023        14   # BR(~nu_muL -> ~chi_20 nu_mu)
     3.80759224E-04    2     1000025        14   # BR(~nu_muL -> ~chi_30 nu_mu)
     2.57194434E-01    2     1000035        14   # BR(~nu_muL -> ~chi_40 nu_mu)
     2.13605076E-03    2     1000024        13   # BR(~nu_muL -> ~chi_1+ mu-)
     5.13626632E-01    2     1000037        13   # BR(~nu_muL -> ~chi_2+ mu-)
#
#         PDG            Width
DECAY   1000016     3.10077157E+01   # snu_tauL decays
#          BR         NDA      ID1       ID2
     2.20854545E-01    2     1000022        16   # BR(~nu_tauL -> ~chi_10 nu_tau)
     2.00229547E-04    2     1000023        16   # BR(~nu_tauL -> ~chi_20 nu_tau)
     3.71324033E-04    2     1000025        16   # BR(~nu_tauL -> ~chi_30 nu_tau)
     2.50767010E-01    2     1000035        16   # BR(~nu_tauL -> ~chi_40 nu_tau)
     2.70146272E-02    2     1000024        15   # BR(~nu_tauL -> ~chi_1+ tau-)
     5.00792264E-01    2     1000037        15   # BR(~nu_tauL -> ~chi_2+ tau-)
#
#         PDG            Width
DECAY   1000024     9.23361487E-01   # chargino1+ decays
#          BR         NDA      ID1       ID2
     1.00000000E+00    2     1000022        24   # BR(~chi_1+ -> ~chi_10  W+)
#
#         PDG            Width
DECAY   1000037     1.84134447E+01   # chargino2+ decays
#          BR         NDA      ID1       ID2
     2.52727768E-01    2     1000024        23   # BR(~chi_2+ -> ~chi_1+  Z )
     2.61308577E-04    2     1000022        24   # BR(~chi_2+ -> ~chi_10  W+)
     2.44062656E-01    2     1000023        24   # BR(~chi_2+ -> ~chi_20  W+)
     2.43722264E-01    2     1000025        24   # BR(~chi_2+ -> ~chi_30  W+)
     2.59225640E-01    2     1000024        25   # BR(~chi_2+ -> ~chi_1+  h )
     3.63804808E-07    2     1000022        37   # BR(~chi_2+ -> ~chi_10  H+)
#
#         PDG            Width
DECAY   1000022     0.00000000E+00   # neutralino1 decays
#
#         PDG            Width
DECAY   1000023     9.70090118E-01   # neutralino2 decays
#          BR         NDA      ID1       ID2
     5.56530960E-01    2     1000022        23   # BR(~chi_20 -> ~chi_10   Z )
     4.43469040E-01    2     1000022        25   # BR(~chi_20 -> ~chi_10   h )
#
#         PDG            Width
DECAY   1000025     9.79627899E-01   # neutralino3 decays
#          BR         NDA      ID1       ID2
     4.26603007E-01    2     1000022        23   # BR(~chi_30 -> ~chi_10   Z )
     5.73396993E-01    2     1000022        25   # BR(~chi_30 -> ~chi_10   h )
#
#         PDG            Width
DECAY   1000035     1.84137361E+01   # neutralino4 decays
#          BR         NDA      ID1       ID2
     9.40007444E-05    2     1000022        23   # BR(~chi_40 -> ~chi_10   Z )
     3.95231978E-02    2     1000023        23   # BR(~chi_40 -> ~chi_20   Z )
     2.12672764E-01    2     1000025        23   # BR(~chi_40 -> ~chi_30   Z )
     2.44367272E-01    2     1000024       -24   # BR(~chi_40 -> ~chi_1+   W-)
     2.44367272E-01    2    -1000024        24   # BR(~chi_40 -> ~chi_1-   W+)
     1.73508942E-04    2     1000022        25   # BR(~chi_40 -> ~chi_10   h )
     3.27878128E-07    2     1000022        35   # BR(~chi_40 -> ~chi_10   H )
     4.93144467E-08    2     1000022        36   # BR(~chi_40 -> ~chi_10   A )
     2.19334705E-01    2     1000023        25   # BR(~chi_40 -> ~chi_20   h )
     3.94669033E-02    2     1000025        25   # BR(~chi_40 -> ~chi_30   h )
#
#         PDG            Width
DECAY        25     3.99987394E-03   # h decays
#          BR         NDA      ID1       ID2
     6.18049139E-01    2           5        -5   # BR(h -> b       bb     )
     6.45509633E-02    2         -15        15   # BR(h -> tau+    tau-   )
     2.28536345E-04    2         -13        13   # BR(h -> mu+     mu-    )
     4.84902171E-04    2           3        -3   # BR(h -> s       sb     )
     2.10140734E-02    2           4        -4   # BR(h -> c       cb     )
     6.73356689E-02    2          21        21   # BR(h -> g       g      )
     2.30271054E-03    2          22        22   # BR(h -> gam     gam    )
     1.43845892E-03    2          22        23   # BR(h -> Z       gam    )
     2.00860951E-01    2          24       -24   # BR(h -> W+      W-     )
     2.37076462E-02    2          23        23   # BR(h -> Z       Z      )
     2.69498184E-05    2     1000022   1000022   # BR(h -> ~chi_10 ~chi_10)
#
#         PDG            Width
DECAY        35     7.25718543E+00   # H decays
#          BR         NDA      ID1       ID2
     4.48478051E-01    2           5        -5   # BR(H -> b       bb     )
     7.68596288E-02    2         -15        15   # BR(H -> tau+    tau-   )
     2.71781753E-04    2         -13        13   # BR(H -> mu+     mu-    )
     3.33162813E-04    2           3        -3   # BR(H -> s       sb     )
     1.85891596E-06    2           4        -4   # BR(H -> c       cb     )
     1.85720434E-01    2           6        -6   # BR(H -> t       tb     )
     6.16151514E-05    2          21        21   # BR(H -> g       g      )
     3.88429679E-07    2          22        22   # BR(H -> gam     gam    )
     1.09538649E-07    2          23        22   # BR(H -> Z       gam    )
     8.18005104E-05    2          24       -24   # BR(H -> W+      W-     )
     4.08484770E-05    2          23        23   # BR(H -> Z       Z      )
     3.13559266E-04    2          25        25   # BR(H -> h       h      )
    -6.04378645E-24    2          36        36   # BR(H -> A       A      )
     7.78459563E-19    2          23        36   # BR(H -> Z       A      )
     3.20122391E-09    2     1000024  -1000024   # BR(H -> ~chi_1+ ~chi_1-)
     8.85353450E-04    2     1000022   1000022   # BR(H -> ~chi_10 ~chi_10)
     1.92814152E-08    2     1000023   1000023   # BR(H -> ~chi_20 ~chi_20)
     1.70510624E-01    2     1000022   1000023   # BR(H -> ~chi_10 ~chi_20)
     1.16440761E-01    2     1000022   1000025   # BR(H -> ~chi_10 ~chi_30)
#
#         PDG            Width
DECAY        36     7.25990655E+00   # A decays
#          BR         NDA      ID1       ID2
     4.48460199E-01    2           5        -5   # BR(A -> b       bb     )
     7.68329020E-02    2         -15        15   # BR(A -> tau+    tau-   )
     2.71686865E-04    2         -13        13   # BR(A -> mu+     mu-    )
     3.33289669E-04    2           3        -3   # BR(A -> s       sb     )
     1.86603412E-06    2           4        -4   # BR(A -> c       cb     )
     1.86328725E-01    2           6        -6   # BR(A -> t       tb     )
     1.84481926E-04    2          21        21   # BR(A -> g       g      )
     2.67918945E-07    2          22        22   # BR(A -> gam     gam    )
     2.23282024E-07    2          23        22   # BR(A -> Z       gam    )
     8.14640660E-05    2          23        25   # BR(A -> Z       h      )
     9.10971818E-04    2     1000022   1000022   # BR(A -> ~chi_10 ~chi_10)
     1.52509606E-05    2     1000023   1000023   # BR(A -> ~chi_20 ~chi_20)
     1.17784544E-01    2     1000022   1000023   # BR(A -> ~chi_10 ~chi_20)
     1.68794127E-01    2     1000022   1000025   # BR(A -> ~chi_10 ~chi_30)
#
#         PDG            Width
DECAY        37     7.23034193E+00   # H+ decays
#          BR         NDA      ID1       ID2
     7.17704305E-04    2           4        -5   # BR(H+ -> c       bb     )
     7.71696874E-02    2         -15        16   # BR(H+ -> tau+    nu_tau )
     2.72877763E-04    2         -13        14   # BR(H+ -> mu+     nu_mu  )
     4.59328385E-06    2           2        -5   # BR(H+ -> u       bb     )
     1.60118943E-05    2           2        -3   # BR(H+ -> u       sb     )
     3.31122627E-04    2           4        -3   # BR(H+ -> c       sb     )
     6.31744142E-01    2           6        -5   # BR(H+ -> t       bb     )
     8.19216719E-05    2          24        25   # BR(H+ -> W+      h      )
     9.56801874E-14    2          24        36   # BR(H+ -> W+      A      )
     2.89646260E-01    2     1000024   1000022   # BR(H+ -> ~chi_1+ ~chi_10)
     1.56789457E-05    2     1000024   1000023   # BR(H+ -> ~chi_1+ ~chi_20)
