#
#                              ======================
#                              | THE SUSYHIT OUTPUT |
#                              ======================
#
#
#              ------------------------------------------------------
#              |     This is the output of the SUSY-HIT package     |
#              |  created by A.Djouadi, M.Muehlleitner and M.Spira. |
#              |  In case of problems with SUSY-HIT email to        |
#              |           margarete.muehlleitner@cern.ch           |
#              |           michael.spira@psi.ch                     |
#              |           abdelhak.djouadi@cern.ch                 |
#              ------------------------------------------------------
#
#              ------------------------------------------------------
#              |  SUSY Les Houches Accord - MSSM Spectrum + Decays  |
#              |              based on the decay programs           |
#              |                                                    |
#              |                     SDECAY 1.3b                    |
#              |                                                    |
#              |  Authors: M.Muhlleitner, A.Djouadi and Y.Mambrini  |
#              |  Ref.:    Comput.Phys.Commun.168(2005)46           |
#              |           [hep-ph/0311167]                         |
#              |                                                    |
#              |                     HDECAY 3.4                     |
#              |                                                    |
#              |  By: A.Djouadi,J.Kalinowski,M.Muhlleitner,M.Spira  |
#              |  Ref.:    Comput.Phys.Commun.108(1998)56           |
#              |           [hep-ph/9704448]                         |
#              |                                                    |
#              |                                                    |
#              |  If not stated otherwise all DRbar couplings and   |
#              |  soft SUSY breaking masses are given at the scale  |
#              |  Q=  0.50006965E+04
#              |                                                    |
#              ------------------------------------------------------
#
#
BLOCK DCINFO  # Decay Program information
     1   SDECAY/HDECAY # decay calculator
     2   1.3b  /3.4    # version number
#
BLOCK SPINFO  # Spectrum calculator information
     1    SOFTSUSY    # spectrum calculator                
     2    3.4.0       # version number                     
#
BLOCK MODSEL  # Model selection
     1     0   #  nonUniversal                                     
#
BLOCK SMINPUTS  # Standard Model inputs
         1     1.25778332E+02   # alpha_em^-1(M_Z)^MSbar
         2     1.16570000E-05   # G_F [GeV^-2]
         3     1.17200002E-01   # alpha_S(M_Z)^MSbar
         4     9.11876000E+01   # M_Z pole mass
         5     4.25000000E+00   # mb(mb)^MSbar
         6     1.72500000E+02   # mt pole mass
         7     1.77682000E+00   # mtau pole mass
#
BLOCK MINPAR  # Input parameters - minimal models
         3     1.00000000E+01   # tanb                
#
BLOCK EXTPAR  # Input parameters - non-minimal models
         0    -1.00000000E+00   # Set                 
         1     6.00000000E+01   # M_1(MX)             
         2     3.00000000E+03   # M_2(MX)             
         3     6.88110000E+02   # M_3(MX)             
        11     5.00000000E+03   # At(MX)              
        12     5.00000000E+03   # Ab(MX)              
        13     0.00000000E+00   # Atau(MX)            
        23    -1.64340400E+03   # mu(MX)              
        26     3.00000000E+03   # mA(pole)            
        31     5.00000000E+03   # meL(MX)             
        32     5.00000000E+03   # mmuL(MX)            
        33     5.00000000E+03   # mtauL(MX)           
        34     5.00000000E+03   # meR(MX)             
        35     5.00000000E+03   # mmuR(MX)            
        36     5.00000000E+03   # mtauR(MX)           
        41     5.00000000E+03   # mqL1(MX)            
        42     5.00000000E+03   # mqL2(MX)            
        43     5.00000000E+03   # mqL3(MX)            
        44     5.00000000E+03   # muR(MX)             
        45     5.00000000E+03   # mcR(MX)             
        46     5.00000000E+03   # mtR(MX)             
        47     5.00000000E+03   # mdR(MX)             
        48     5.00000000E+03   # msR(MX)             
        49     5.00000000E+03   # mbR(MX)             
#
BLOCK MASS  # Mass Spectrum
# PDG code           mass       particle
        24     8.00935359E+01   # W+
        25     1.24221562E+02   # h
        35     3.00007972E+03   # H
        36     2.99999996E+03   # A
        37     3.00087469E+03   # H+
         5     4.87878001E+00   # b-quark pole mass calculated from mb(mb)_Msbar
   1000001     5.06342469E+03   # ~d_L
   2000001     5.04562104E+03   # ~d_R
   1000002     5.06294740E+03   # ~u_L
   2000002     5.04534857E+03   # ~u_R
   1000003     5.06342469E+03   # ~s_L
   2000003     5.04562104E+03   # ~s_R
   1000004     5.06294740E+03   # ~c_L
   2000004     5.04534857E+03   # ~c_R
   1000005     5.01043170E+03   # ~b_1
   2000005     5.04472438E+03   # ~b_2
   1000006     4.90159195E+03   # ~t_1
   2000006     5.05804814E+03   # ~t_2
   1000011     5.01904559E+03   # ~e_L
   2000011     5.00590649E+03   # ~e_R
   1000012     5.01809691E+03   # ~nu_eL
   1000013     5.01904559E+03   # ~mu_L
   2000013     5.00590649E+03   # ~mu_R
   1000014     5.01809691E+03   # ~nu_muL
   1000015     5.00425269E+03   # ~tau_1
   2000015     5.01912822E+03   # ~tau_2
   1000016     5.01756162E+03   # ~nu_tauL
   1000021     9.00000562E+02   # ~g
   1000022     6.03014729E+01   # ~chi_10
   1000023     1.69941113E+03   # ~chi_20
   1000025    -1.70202659E+03   # ~chi_30
   1000035     3.07436421E+03   # ~chi_40
   1000024     1.70000066E+03   # ~chi_1+
   1000037     3.07453189E+03   # ~chi_2+
#
BLOCK NMIX  # Neutralino Mixing Matrix
  1  1     9.99653736E-01   # N_11
  1  2     1.27056791E-04   # N_12
  1  3    -2.62502461E-02   # N_13
  1  4     1.82091368E-03   # N_14
  2  1     1.72708805E-02   # N_21
  2  2     3.53981215E-02   # N_22
  2  3     7.06866417E-01   # N_23
  2  4     7.06249643E-01   # N_24
  3  1    -1.98465930E-02   # N_31
  3  2     1.27059984E-02   # N_32
  3  3    -7.06677555E-01   # N_33
  3  4     7.07143198E-01   # N_34
  4  1    -4.86542969E-04   # N_41
  4  2     9.99292507E-01   # N_42
  4  3    -1.60507200E-02   # N_43
  4  4    -3.40091636E-02   # N_44
#
BLOCK UMIX  # Chargino Mixing Matrix U
  1  1     2.26943585E-02   # U_11
  1  2     9.99742450E-01   # U_12
  2  1    -9.99742450E-01   # U_21
  2  2     2.26943585E-02   # U_22
#
BLOCK VMIX  # Chargino Mixing Matrix V
  1  1     4.80976619E-02   # V_11
  1  2    -9.98842638E-01   # V_12
  2  1    -9.98842638E-01   # V_21
  2  2    -4.80976619E-02   # V_22
#
BLOCK STOPMIX  # Stop Mixing Matrix
  1  1    -5.16595659E-01   # cos(theta_t)
  1  2     8.56229482E-01   # sin(theta_t)
  2  1    -8.56229482E-01   # -sin(theta_t)
  2  2    -5.16595659E-01   # cos(theta_t)
#
BLOCK SBOTMIX  # Sbottom Mixing Matrix
  1  1     9.93022633E-01   # cos(theta_b)
  1  2    -1.17923918E-01   # sin(theta_b)
  2  1     1.17923918E-01   # -sin(theta_b)
  2  2     9.93022633E-01   # cos(theta_b)
#
BLOCK STAUMIX  # Stau Mixing Matrix
  1  1    -1.88919815E-01   # cos(theta_tau)
  1  2     9.81992517E-01   # sin(theta_tau)
  2  1    -9.81992517E-01   # -sin(theta_tau)
  2  2    -1.88919815E-01   # cos(theta_tau)
#
BLOCK ALPHA  # Higgs mixing
          -1.05401468E-01   # Mixing angle in the neutral Higgs boson sector
#
BLOCK HMIX Q=  5.00069645E+03  # DRbar Higgs Parameters
         1    -1.67249087E+03   # mu(Q)MSSM           
         2     9.47572888E+00   # tan                 
         3     2.42084393E+02   # higgs               
         4     8.35578482E+06   # mA^2(Q)MSSM         
#
BLOCK GAUGE Q=  5.00069645E+03  # The gauge couplings
     1     3.70694416E-01   # gprime(Q) DRbar
     2     6.32000454E-01   # g(Q) DRbar
     3     1.01018754E+00   # g3(Q) DRbar
#
BLOCK AU Q=  5.00069645E+03  # The trilinear couplings
  1  1     5.00000001E+03   # A_u(Q) DRbar
  2  2     5.00000001E+03   # A_c(Q) DRbar
  3  3     5.00000001E+03   # A_t(Q) DRbar
#
BLOCK AD Q=  5.00069645E+03  # The trilinear couplings
  1  1     5.00000000E+03   # A_d(Q) DRbar
  2  2     5.00000000E+03   # A_s(Q) DRbar
  3  3     5.00000001E+03   # A_b(Q) DRbar
#
BLOCK AE Q=  5.00069645E+03  # The trilinear couplings
  1  1     0.00000000E+00   # A_e(Q) DRbar
  2  2     0.00000000E+00   # A_mu(Q) DRbar
  3  3    -7.08331665E-10   # A_tau(Q) DRbar
#
BLOCK Yu Q=  5.00069645E+03  # The Yukawa couplings
  1  1     0.00000000E+00   # y_u(Q) DRbar
  2  2     0.00000000E+00   # y_c(Q) DRbar
  3  3     8.12718721E-01   # y_t(Q) DRbar
#
BLOCK Yd Q=  5.00069645E+03  # The Yukawa couplings
  1  1     0.00000000E+00   # y_d(Q) DRbar
  2  2     0.00000000E+00   # y_s(Q) DRbar
  3  3     1.29621815E-01   # y_b(Q) DRbar
#
BLOCK Ye Q=  5.00069645E+03  # The Yukawa couplings
  1  1     0.00000000E+00   # y_e(Q) DRbar
  2  2     0.00000000E+00   # y_mu(Q) DRbar
  3  3     9.65730165E-02   # y_tau(Q) DRbar
#
BLOCK MSOFT Q=  5.00069645E+03  # The soft SUSY breaking masses at the scale Q
         1     6.00000000E+01   # M_1(Q)              
         2     3.00000000E+03   # M_2(Q)              
         3     6.88110000E+02   # M_3(Q)              
        21     5.86126590E+06   # mH1^2(Q)            
        22    -2.26178971E+06   # mH2^2(Q)            
        31     5.00000000E+03   # meL(Q)              
        32     5.00000000E+03   # mmuL(Q)             
        33     5.00000000E+03   # mtauL(Q)            
        34     5.00000000E+03   # meR(Q)              
        35     5.00000000E+03   # mmuR(Q)             
        36     5.00000000E+03   # mtauR(Q)            
        41     5.00000000E+03   # mqL1(Q)             
        42     5.00000000E+03   # mqL2(Q)             
        43     5.00000000E+03   # mqL3(Q)             
        44     5.00000000E+03   # muR(Q)              
        45     5.00000000E+03   # mcR(Q)              
        46     5.00000000E+03   # mtR(Q)              
        47     5.00000000E+03   # mdR(Q)              
        48     5.00000000E+03   # msR(Q)              
        49     5.00000000E+03   # mbR(Q)              
#
#
#
#                             =================
#                             |The decay table|
#                             =================
#
# - The QCD corrections to the decays gluino -> squark  + quark
#                                     squark -> gaugino + quark_prime
#                                     squark -> squark_prime + Higgs
#                                     squark -> gluino  + quark
#   are included.
#
# - The multi-body decays for the inos, stops and sbottoms are included.
#
# - The loop induced decays for the gluino, neutralinos and stops
#   are included.
#
# - The SUSY decays of the top quark are included.
#
#
#         PDG            Width
DECAY         6     1.39978311E+00   # top decays
#          BR         NDA      ID1       ID2
     1.00000000E+00    2           5        24   # BR(t ->  b    W+)
#
#         PDG            Width
DECAY   1000021     4.85241783E-06   # gluino decays
#          BR         NDA      ID1       ID2
     2.44967327E-05    2     1000022        21   # BR(~g -> ~chi_10 g)
#           BR         NDA      ID1       ID2       ID3
     8.51153817E-02    3     1000022         1        -1   # BR(~g -> ~chi_10 d  db)
     2.90135353E-01    3     1000022         2        -2   # BR(~g -> ~chi_10 u  ub)
     8.51153817E-02    3     1000022         3        -3   # BR(~g -> ~chi_10 s  sb)
     2.90135353E-01    3     1000022         4        -4   # BR(~g -> ~chi_10 c  cb)
     8.61050498E-02    3     1000022         5        -5   # BR(~g -> ~chi_10 b  bb)
     1.63368984E-01    3     1000022         6        -6   # BR(~g -> ~chi_10 t  tb)
#
#         PDG            Width
DECAY   1000006     4.04771494E+02   # stop1 decays
#          BR         NDA      ID1       ID2
     2.15392490E-02    2     1000022         6   # BR(~t_1 -> ~chi_10 t )
     6.23177368E-02    2     1000023         6   # BR(~t_1 -> ~chi_20 t )
     5.98025049E-02    2     1000025         6   # BR(~t_1 -> ~chi_30 t )
     5.57526571E-03    2     1000035         6   # BR(~t_1 -> ~chi_40 t )
     8.83601871E-02    2     1000024         5   # BR(~t_1 -> ~chi_1+ b )
     1.10770815E-02    2     1000037         5   # BR(~t_1 -> ~chi_2+ b )
     7.51327975E-01    2     1000021         6   # BR(~t_1 -> ~g      t )
#
#         PDG            Width
DECAY   2000006     4.10539861E+02   # stop2 decays
#          BR         NDA      ID1       ID2
     8.91946121E-03    2     1000022         6   # BR(~t_2 -> ~chi_10 t )
     6.39743260E-02    2     1000023         6   # BR(~t_2 -> ~chi_20 t )
     6.66626915E-02    2     1000025         6   # BR(~t_2 -> ~chi_30 t )
     1.29767471E-02    2     1000035         6   # BR(~t_2 -> ~chi_40 t )
     4.06462427E-02    2     1000024         5   # BR(~t_2 -> ~chi_1+ b )
     2.57337528E-02    2     1000037         5   # BR(~t_2 -> ~chi_2+ b )
     7.77825699E-01    2     1000021         6   # BR(~t_2 -> ~g      t )
     6.97775097E-04    2     1000006        25   # BR(~t_2 -> ~t_1    h )
     2.56330436E-03    2     1000006        23   # BR(~t_2 -> ~t_1    Z )
#
#         PDG            Width
DECAY   1000005     3.90467477E+02   # sbottom1 decays
#          BR         NDA      ID1       ID2
     2.02297814E-03    2     1000022         5   # BR(~b_1 -> ~chi_10 b )
     1.78479904E-03    2     1000023         5   # BR(~b_1 -> ~chi_20 b )
     1.65979355E-03    2     1000025         5   # BR(~b_1 -> ~chi_30 b )
     1.89663619E-02    2     1000035         5   # BR(~b_1 -> ~chi_40 b )
     1.31161646E-01    2    -1000024         6   # BR(~b_1 -> ~chi_1- t )
     3.82260182E-02    2    -1000037         6   # BR(~b_1 -> ~chi_2- t )
     8.04758442E-01    2     1000021         5   # BR(~b_1 -> ~g      b )
     1.41996045E-03    2     1000006       -24   # BR(~b_1 -> ~t_1    W-)
#
#         PDG            Width
DECAY   2000005     3.23113211E+02   # sbottom2 decays
#          BR         NDA      ID1       ID2
     9.05470904E-03    2     1000022         5   # BR(~b_2 -> ~chi_10 b )
     2.01709012E-03    2     1000023         5   # BR(~b_2 -> ~chi_20 b )
     2.12926677E-03    2     1000025         5   # BR(~b_2 -> ~chi_30 b )
     3.52567928E-04    2     1000035         5   # BR(~b_2 -> ~chi_40 b )
     6.33597063E-03    2    -1000024         6   # BR(~b_2 -> ~chi_1- t )
     7.10113173E-04    2    -1000037         6   # BR(~b_2 -> ~chi_2- t )
     9.79300353E-01    2     1000021         5   # BR(~b_2 -> ~g      b )
     9.99290614E-05    2     1000006       -24   # BR(~b_2 -> ~t_1    W-)
#
#         PDG            Width
DECAY   1000002     3.41803117E+02   # sup_L decays
#          BR         NDA      ID1       ID2
     2.18720090E-03    2     1000022         2   # BR(~u_L -> ~chi_10 u)
     6.76744419E-05    2     1000023         2   # BR(~u_L -> ~chi_20 u)
     3.50335685E-06    2     1000025         2   # BR(~u_L -> ~chi_30 u)
     2.27676737E-02    2     1000035         2   # BR(~u_L -> ~chi_40 u)
     2.08221883E-04    2     1000024         1   # BR(~u_L -> ~chi_1+ d)
     4.54972507E-02    2     1000037         1   # BR(~u_L -> ~chi_2+ d)
     9.29268475E-01    2     1000021         2   # BR(~u_L -> ~g      u)
#
#         PDG            Width
DECAY   2000002     3.28289235E+02   # sup_R decays
#          BR         NDA      ID1       ID2
     3.62616533E-02    2     1000022         2   # BR(~u_R -> ~chi_10 u)
     8.50477724E-06    2     1000023         2   # BR(~u_R -> ~chi_20 u)
     1.12218012E-05    2     1000025         2   # BR(~u_R -> ~chi_30 u)
     3.39787690E-09    2     1000035         2   # BR(~u_R -> ~chi_40 u)
     9.63718617E-01    2     1000021         2   # BR(~u_R -> ~g      u)
#
#         PDG            Width
DECAY   1000001     3.41813767E+02   # sdown_L decays
#          BR         NDA      ID1       ID2
     2.18165899E-03    2     1000022         1   # BR(~d_L -> ~chi_10 d)
     4.61588273E-05    2     1000023         1   # BR(~d_L -> ~chi_20 d)
     1.23745915E-05    2     1000025         1   # BR(~d_L -> ~chi_30 d)
     2.27827704E-02    2     1000035         1   # BR(~d_L -> ~chi_40 d)
     4.63620392E-05    2    -1000024         2   # BR(~d_L -> ~chi_1- u)
     4.55921212E-02    2    -1000037         2   # BR(~d_L -> ~chi_2- u)
     9.29338554E-01    2     1000021         1   # BR(~d_L -> ~g      d)
#
#         PDG            Width
DECAY   2000001     3.19375638E+02   # sdown_R decays
#          BR         NDA      ID1       ID2
     9.31892849E-03    2     1000022         1   # BR(~d_R -> ~chi_10 d)
     2.18571382E-06    2     1000023         1   # BR(~d_R -> ~chi_20 d)
     2.88398480E-06    2     1000025         1   # BR(~d_R -> ~chi_30 d)
     8.73335363E-10    2     1000035         1   # BR(~d_R -> ~chi_40 d)
     9.90676001E-01    2     1000021         1   # BR(~d_R -> ~g      d)
#
#         PDG            Width
DECAY   1000004     3.41803117E+02   # scharm_L decays
#          BR         NDA      ID1       ID2
     2.18720090E-03    2     1000022         4   # BR(~c_L -> ~chi_10 c)
     6.76744419E-05    2     1000023         4   # BR(~c_L -> ~chi_20 c)
     3.50335685E-06    2     1000025         4   # BR(~c_L -> ~chi_30 c)
     2.27676737E-02    2     1000035         4   # BR(~c_L -> ~chi_40 c)
     2.08221883E-04    2     1000024         3   # BR(~c_L -> ~chi_1+ s)
     4.54972507E-02    2     1000037         3   # BR(~c_L -> ~chi_2+ s)
     9.29268475E-01    2     1000021         4   # BR(~c_L -> ~g      c)
#
#         PDG            Width
DECAY   2000004     3.28289235E+02   # scharm_R decays
#          BR         NDA      ID1       ID2
     3.62616533E-02    2     1000022         4   # BR(~c_R -> ~chi_10 c)
     8.50477724E-06    2     1000023         4   # BR(~c_R -> ~chi_20 c)
     1.12218012E-05    2     1000025         4   # BR(~c_R -> ~chi_30 c)
     3.39787690E-09    2     1000035         4   # BR(~c_R -> ~chi_40 c)
     9.63718617E-01    2     1000021         4   # BR(~c_R -> ~g      c)
#
#         PDG            Width
DECAY   1000003     3.41813767E+02   # sstrange_L decays
#          BR         NDA      ID1       ID2
     2.18165899E-03    2     1000022         3   # BR(~s_L -> ~chi_10 s)
     4.61588273E-05    2     1000023         3   # BR(~s_L -> ~chi_20 s)
     1.23745915E-05    2     1000025         3   # BR(~s_L -> ~chi_30 s)
     2.27827704E-02    2     1000035         3   # BR(~s_L -> ~chi_40 s)
     4.63620392E-05    2    -1000024         4   # BR(~s_L -> ~chi_1- c)
     4.55921212E-02    2    -1000037         4   # BR(~s_L -> ~chi_2- c)
     9.29338554E-01    2     1000021         3   # BR(~s_L -> ~g      s)
#
#         PDG            Width
DECAY   2000003     3.19375638E+02   # sstrange_R decays
#          BR         NDA      ID1       ID2
     9.31892849E-03    2     1000022         3   # BR(~s_R -> ~chi_10 s)
     2.18571382E-06    2     1000023         3   # BR(~s_R -> ~chi_20 s)
     2.88398480E-06    2     1000025         3   # BR(~s_R -> ~chi_30 s)
     8.73335363E-10    2     1000035         3   # BR(~s_R -> ~chi_40 s)
     9.90676001E-01    2     1000021         3   # BR(~s_R -> ~g      s)
#
#         PDG            Width
DECAY   1000011     3.02332532E+01   # selectron_L decays
#          BR         NDA      ID1       ID2
     2.26793442E-01    2     1000022        11   # BR(~e_L -> ~chi_10 e-)
     1.07168538E-03    2     1000023        11   # BR(~e_L -> ~chi_20 e-)
     5.86113275E-07    2     1000025        11   # BR(~e_L -> ~chi_30 e-)
     2.56970799E-01    2     1000035        11   # BR(~e_L -> ~chi_40 e-)
     5.32468558E-04    2    -1000024        12   # BR(~e_L -> ~chi_1- nu_e)
     5.14631019E-01    2    -1000037        12   # BR(~e_L -> ~chi_2- nu_e)
#
#         PDG            Width
DECAY   2000011     2.73579474E+01   # selectron_R decays
#          BR         NDA      ID1       ID2
     9.99458095E-01    2     1000022        11   # BR(~e_R -> ~chi_10 e-)
     2.33595258E-04    2     1000023        11   # BR(~e_R -> ~chi_20 e-)
     3.08218281E-04    2     1000025        11   # BR(~e_R -> ~chi_30 e-)
     9.18677713E-08    2     1000035        11   # BR(~e_R -> ~chi_40 e-)
#
#         PDG            Width
DECAY   1000013     3.02332532E+01   # smuon_L decays
#          BR         NDA      ID1       ID2
     2.26793442E-01    2     1000022        13   # BR(~mu_L -> ~chi_10 mu-)
     1.07168538E-03    2     1000023        13   # BR(~mu_L -> ~chi_20 mu-)
     5.86113275E-07    2     1000025        13   # BR(~mu_L -> ~chi_30 mu-)
     2.56970799E-01    2     1000035        13   # BR(~mu_L -> ~chi_40 mu-)
     5.32468558E-04    2    -1000024        14   # BR(~mu_L -> ~chi_1- nu_mu)
     5.14631019E-01    2    -1000037        14   # BR(~mu_L -> ~chi_2- nu_mu)
#
#         PDG            Width
DECAY   2000013     2.73579474E+01   # smuon_R decays
#          BR         NDA      ID1       ID2
     9.99458095E-01    2     1000022        13   # BR(~mu_R -> ~chi_10 mu-)
     2.33595258E-04    2     1000023        13   # BR(~mu_R -> ~chi_20 mu-)
     3.08218281E-04    2     1000025        13   # BR(~mu_R -> ~chi_30 mu-)
     9.18677713E-08    2     1000035        13   # BR(~mu_R -> ~chi_40 mu-)
#
#         PDG            Width
DECAY   1000015     2.89052646E+01   # stau_1 decays
#          BR         NDA      ID1       ID2
     9.21203336E-01    2     1000022        15   # BR(~tau_1 -> ~chi_10  tau-)
     1.35859889E-02    2     1000023        15   # BR(~tau_1 -> ~chi_20  tau-)
     1.20837229E-02    2     1000025        15   # BR(~tau_1 -> ~chi_30  tau-)
     9.15696764E-03    2     1000035        15   # BR(~tau_1 -> ~chi_40  tau-)
     2.56308466E-02    2    -1000024        16   # BR(~tau_1 -> ~chi_1-  nu_tau)
     1.83391376E-02    2    -1000037        16   # BR(~tau_1 -> ~chi_2-  nu_tau)
#
#         PDG            Width
DECAY   2000015     3.08548078E+01   # stau_2 decays
#          BR         NDA      ID1       ID2
     2.45234076E-01    2     1000022        15   # BR(~tau_2 -> ~chi_10  tau-)
     1.21163715E-02    2     1000023        15   # BR(~tau_2 -> ~chi_20  tau-)
     1.25153827E-02    2     1000025        15   # BR(~tau_2 -> ~chi_30  tau-)
     2.43147387E-01    2     1000035        15   # BR(~tau_2 -> ~chi_40  tau-)
     4.37924440E-05    2    -1000024        16   # BR(~tau_2 -> ~chi_1-  nu_tau)
     4.86942990E-01    2    -1000037        16   # BR(~tau_2 -> ~chi_2-  nu_tau)
#
#         PDG            Width
DECAY   1000012     3.02349163E+01   # snu_eL decays
#          BR         NDA      ID1       ID2
     2.26541630E-01    2     1000022        12   # BR(~nu_eL -> ~chi_10 nu_e)
     3.29989895E-04    2     1000023        12   # BR(~nu_eL -> ~chi_20 nu_e)
     3.06123330E-04    2     1000025        12   # BR(~nu_eL -> ~chi_30 nu_e)
     2.57084936E-01    2     1000035        12   # BR(~nu_eL -> ~chi_40 nu_e)
     2.39087860E-03    2     1000024        11   # BR(~nu_eL -> ~chi_1+ e-)
     5.13346442E-01    2     1000037        11   # BR(~nu_eL -> ~chi_2+ e-)
#
#         PDG            Width
DECAY   1000014     3.02349163E+01   # snu_muL decays
#          BR         NDA      ID1       ID2
     2.26541630E-01    2     1000022        14   # BR(~nu_muL -> ~chi_10 nu_mu)
     3.29989895E-04    2     1000023        14   # BR(~nu_muL -> ~chi_20 nu_mu)
     3.06123330E-04    2     1000025        14   # BR(~nu_muL -> ~chi_30 nu_mu)
     2.57084936E-01    2     1000035        14   # BR(~nu_muL -> ~chi_40 nu_mu)
     2.39087860E-03    2     1000024        13   # BR(~nu_muL -> ~chi_1+ mu-)
     5.13346442E-01    2     1000037        13   # BR(~nu_muL -> ~chi_2+ mu-)
#
#         PDG            Width
DECAY   1000016     3.09550625E+01   # snu_tauL decays
#          BR         NDA      ID1       ID2
     2.21247693E-01    2     1000022        16   # BR(~nu_tauL -> ~chi_10 nu_tau)
     3.22260731E-04    2     1000023        16   # BR(~nu_tauL -> ~chi_20 nu_tau)
     2.98953121E-04    2     1000025        16   # BR(~nu_tauL -> ~chi_30 nu_tau)
     2.51012883E-01    2     1000035        16   # BR(~nu_tauL -> ~chi_40 nu_tau)
     2.58931472E-02    2     1000024        15   # BR(~nu_tauL -> ~chi_1+ tau-)
     5.01225063E-01    2     1000037        15   # BR(~nu_tauL -> ~chi_2+ tau-)
#
#         PDG            Width
DECAY   1000024     1.04869309E+00   # chargino1+ decays
#          BR         NDA      ID1       ID2
     1.00000000E+00    2     1000022        24   # BR(~chi_1+ -> ~chi_10  W+)
#
#         PDG            Width
DECAY   1000037     1.73768538E+01   # chargino2+ decays
#          BR         NDA      ID1       ID2
     2.52467751E-01    2     1000024        23   # BR(~chi_2+ -> ~chi_1+  Z )
     3.15386876E-04    2     1000022        24   # BR(~chi_2+ -> ~chi_10  W+)
     2.44329128E-01    2     1000023        24   # BR(~chi_2+ -> ~chi_20  W+)
     2.43454638E-01    2     1000025        24   # BR(~chi_2+ -> ~chi_30  W+)
     2.59432893E-01    2     1000024        25   # BR(~chi_2+ -> ~chi_1+  h )
     2.02987355E-07    2     1000022        37   # BR(~chi_2+ -> ~chi_10  H+)
#
#         PDG            Width
DECAY   1000022     0.00000000E+00   # neutralino1 decays
#
#         PDG            Width
DECAY   1000023     1.10299410E+00   # neutralino2 decays
#          BR         NDA      ID1       ID2
     5.60692480E-01    2     1000022        23   # BR(~chi_20 -> ~chi_10   Z )
     4.39307520E-01    2     1000022        25   # BR(~chi_20 -> ~chi_10   h )
#
#         PDG            Width
DECAY   1000025     1.11500611E+00   # neutralino3 decays
#          BR         NDA      ID1       ID2
     4.21284314E-01    2     1000022        23   # BR(~chi_30 -> ~chi_10   Z )
     5.78715686E-01    2     1000022        25   # BR(~chi_30 -> ~chi_10   h )
#
#         PDG            Width
DECAY   1000035     1.73637811E+01   # neutralino4 decays
#          BR         NDA      ID1       ID2
     1.25364364E-04    2     1000022        23   # BR(~chi_40 -> ~chi_10   Z )
     2.90781179E-02    2     1000023        23   # BR(~chi_40 -> ~chi_20   Z )
     2.23141576E-01    2     1000025        23   # BR(~chi_40 -> ~chi_30   Z )
     2.44128937E-01    2     1000024       -24   # BR(~chi_40 -> ~chi_1+   W-)
     2.44128937E-01    2    -1000024        24   # BR(~chi_40 -> ~chi_1-   W+)
     1.99619912E-04    2     1000022        25   # BR(~chi_40 -> ~chi_10   h )
     1.78802844E-07    2     1000022        35   # BR(~chi_40 -> ~chi_10   H )
     3.18434356E-08    2     1000022        36   # BR(~chi_40 -> ~chi_10   A )
     2.30263545E-01    2     1000023        25   # BR(~chi_40 -> ~chi_20   h )
     2.89336922E-02    2     1000025        25   # BR(~chi_40 -> ~chi_30   h )
#
#         PDG            Width
DECAY        25     3.99685132E-03   # h decays
#          BR         NDA      ID1       ID2
     6.17808337E-01    2           5        -5   # BR(h -> b       bb     )
     6.45972817E-02    2         -15        15   # BR(h -> tau+    tau-   )
     2.28700335E-04    2         -13        13   # BR(h -> mu+     mu-    )
     4.85251133E-04    2           3        -3   # BR(h -> s       sb     )
     2.10298259E-02    2           4        -4   # BR(h -> c       cb     )
     6.73846837E-02    2          21        21   # BR(h -> g       g      )
     2.30442015E-03    2          22        22   # BR(h -> gam     gam    )
     1.43942542E-03    2          22        23   # BR(h -> Z       gam    )
     2.00977484E-01    2          24       -24   # BR(h -> W+      W-     )
     2.37223329E-02    2          23        23   # BR(h -> Z       Z      )
     2.22577137E-05    2     1000022   1000022   # BR(h -> ~chi_10 ~chi_10)
#
#         PDG            Width
DECAY        35     6.88804030E+00   # H decays
#          BR         NDA      ID1       ID2
     4.74017136E-01    2           5        -5   # BR(H -> b       bb     )
     8.09816441E-02    2         -15        15   # BR(H -> tau+    tau-   )
     2.86357526E-04    2         -13        13   # BR(H -> mu+     mu-    )
     3.51030602E-04    2           3        -3   # BR(H -> s       sb     )
     1.95840078E-06    2           4        -4   # BR(H -> c       cb     )
     1.95659746E-01    2           6        -6   # BR(H -> t       tb     )
     6.48878968E-05    2          21        21   # BR(H -> g       g      )
     3.83460204E-07    2          22        22   # BR(H -> gam     gam    )
     1.15409826E-07    2          23        22   # BR(H -> Z       gam    )
     8.51296883E-05    2          24       -24   # BR(H -> W+      W-     )
     4.25109602E-05    2          23        23   # BR(H -> Z       Z      )
     3.28722047E-04    2          25        25   # BR(H -> h       h      )
     6.49886329E-24    2          36        36   # BR(H -> A       A      )
     8.33075520E-19    2          23        36   # BR(H -> Z       A      )
     7.26452508E-04    2     1000022   1000022   # BR(H -> ~chi_10 ~chi_10)
     1.46223320E-01    2     1000022   1000023   # BR(H -> ~chi_10 ~chi_20)
     1.01230606E-01    2     1000022   1000025   # BR(H -> ~chi_10 ~chi_30)
#
#         PDG            Width
DECAY        36     6.89102302E+00   # A decays
#          BR         NDA      ID1       ID2
     4.73971287E-01    2           5        -5   # BR(A -> b       bb     )
     8.09489647E-02    2         -15        15   # BR(A -> tau+    tau-   )
     2.86241569E-04    2         -13        13   # BR(A -> mu+     mu-    )
     3.51144530E-04    2           3        -3   # BR(A -> s       sb     )
     1.96584910E-06    2           4        -4   # BR(A -> c       cb     )
     1.96295530E-01    2           6        -6   # BR(A -> t       tb     )
     1.94353062E-04    2          21        21   # BR(A -> g       g      )
     3.50410027E-07    2          22        22   # BR(A -> gam     gam    )
     2.35249815E-07    2          23        22   # BR(A -> Z       gam    )
     8.47752938E-05    2          23        25   # BR(A -> Z       h      )
     7.48974189E-04    2     1000022   1000022   # BR(A -> ~chi_10 ~chi_10)
     1.02392085E-01    2     1000022   1000023   # BR(A -> ~chi_10 ~chi_20)
     1.44724093E-01    2     1000022   1000025   # BR(A -> ~chi_10 ~chi_30)
#
#         PDG            Width
DECAY        37     6.86347235E+00   # H+ decays
#          BR         NDA      ID1       ID2
     7.59286605E-04    2           4        -5   # BR(H+ -> c       bb     )
     8.12975995E-02    2         -15        16   # BR(H+ -> tau+    nu_tau )
     2.87474367E-04    2         -13        14   # BR(H+ -> mu+     nu_mu  )
     4.85940929E-06    2           2        -5   # BR(H+ -> u       bb     )
     1.68683960E-05    2           2        -3   # BR(H+ -> u       sb     )
     3.48834756E-04    2           4        -3   # BR(H+ -> c       sb     )
     6.67513741E-01    2           6        -5   # BR(H+ -> t       bb     )
     8.52447288E-05    2          24        25   # BR(H+ -> W+      h      )
     9.80631109E-14    2          24        36   # BR(H+ -> W+      A      )
     2.49686091E-01    2     1000024   1000022   # BR(H+ -> ~chi_1+ ~chi_10)
