#
#                              ======================
#                              | THE SUSYHIT OUTPUT |
#                              ======================
#
#
#              ------------------------------------------------------
#              |     This is the output of the SUSY-HIT package     |
#              |  created by A.Djouadi, M.Muehlleitner and M.Spira. |
#              |  In case of problems with SUSY-HIT email to        |
#              |           margarete.muehlleitner@cern.ch           |
#              |           michael.spira@psi.ch                     |
#              |           abdelhak.djouadi@cern.ch                 |
#              ------------------------------------------------------
#
#              ------------------------------------------------------
#              |  SUSY Les Houches Accord - MSSM Spectrum + Decays  |
#              |              based on the decay programs           |
#              |                                                    |
#              |                     SDECAY 1.3b                    |
#              |                                                    |
#              |  Authors: M.Muhlleitner, A.Djouadi and Y.Mambrini  |
#              |  Ref.:    Comput.Phys.Commun.168(2005)46           |
#              |           [hep-ph/0311167]                         |
#              |                                                    |
#              |                     HDECAY 3.4                     |
#              |                                                    |
#              |  By: A.Djouadi,J.Kalinowski,M.Muhlleitner,M.Spira  |
#              |  Ref.:    Comput.Phys.Commun.108(1998)56           |
#              |           [hep-ph/9704448]                         |
#              |                                                    |
#              |                                                    |
#              |  If not stated otherwise all DRbar couplings and   |
#              |  soft SUSY breaking masses are given at the scale  |
#              |  Q=  0.50007311E+04
#              |                                                    |
#              ------------------------------------------------------
#
#
BLOCK DCINFO  # Decay Program information
     1   SDECAY/HDECAY # decay calculator
     2   1.3b  /3.4    # version number
#
BLOCK SPINFO  # Spectrum calculator information
     1    SOFTSUSY    # spectrum calculator                
     2    3.4.0       # version number                     
#
BLOCK MODSEL  # Model selection
     1     0   #  nonUniversal                                     
#
BLOCK SMINPUTS  # Standard Model inputs
         1     1.25778332E+02   # alpha_em^-1(M_Z)^MSbar
         2     1.16570000E-05   # G_F [GeV^-2]
         3     1.17200002E-01   # alpha_S(M_Z)^MSbar
         4     9.11876000E+01   # M_Z pole mass
         5     4.25000000E+00   # mb(mb)^MSbar
         6     1.72500000E+02   # mt pole mass
         7     1.77682000E+00   # mtau pole mass
#
BLOCK MINPAR  # Input parameters - minimal models
         3     1.00000000E+01   # tanb                
#
BLOCK EXTPAR  # Input parameters - non-minimal models
         0    -1.00000000E+00   # Set                 
         1     6.00000000E+01   # M_1(MX)             
         2     3.00000000E+03   # M_2(MX)             
         3     1.21156400E+03   # M_3(MX)             
        11     5.00000000E+03   # At(MX)              
        12     5.00000000E+03   # Ab(MX)              
        13     0.00000000E+00   # Atau(MX)            
        23    -1.05646400E+03   # mu(MX)              
        26     3.00000000E+03   # mA(pole)            
        31     5.00000000E+03   # meL(MX)             
        32     5.00000000E+03   # mmuL(MX)            
        33     5.00000000E+03   # mtauL(MX)           
        34     5.00000000E+03   # meR(MX)             
        35     5.00000000E+03   # mmuR(MX)            
        36     5.00000000E+03   # mtauR(MX)           
        41     5.00000000E+03   # mqL1(MX)            
        42     5.00000000E+03   # mqL2(MX)            
        43     5.00000000E+03   # mqL3(MX)            
        44     5.00000000E+03   # muR(MX)             
        45     5.00000000E+03   # mcR(MX)             
        46     5.00000000E+03   # mtR(MX)             
        47     5.00000000E+03   # mdR(MX)             
        48     5.00000000E+03   # msR(MX)             
        49     5.00000000E+03   # mbR(MX)             
#
BLOCK MASS  # Mass Spectrum
# PDG code           mass       particle
        24     8.00944702E+01   # W+
        25     1.24619202E+02   # h
        35     3.00008351E+03   # H
        36     2.99999691E+03   # A
        37     3.00100479E+03   # H+
         5     4.87878001E+00   # b-quark pole mass calculated from mb(mb)_Msbar
   1000001     5.06667633E+03   # ~d_L
   2000001     5.04885979E+03   # ~d_R
   1000002     5.06620071E+03   # ~u_L
   2000002     5.04857604E+03   # ~u_R
   1000003     5.06667633E+03   # ~s_L
   2000003     5.04885979E+03   # ~s_R
   1000004     5.06620071E+03   # ~c_L
   2000004     5.04857604E+03   # ~c_R
   1000005     5.01265001E+03   # ~b_1
   2000005     5.04746860E+03   # ~b_2
   1000006     4.90324477E+03   # ~t_1
   2000006     5.05839269E+03   # ~t_2
   1000011     5.01906725E+03   # ~e_L
   2000011     5.00592120E+03   # ~e_R
   1000012     5.01811855E+03   # ~nu_eL
   1000013     5.01906725E+03   # ~mu_L
   2000013     5.00592120E+03   # ~mu_R
   1000014     5.01811855E+03   # ~nu_muL
   1000015     5.00456999E+03   # ~tau_1
   2000015     5.01880684E+03   # ~tau_2
   1000016     5.01757362E+03   # ~nu_tauL
   1000021     1.50000005E+03   # ~g
   1000022     6.03008670E+01   # ~chi_10
   1000023     1.09959032E+03   # ~chi_20
   1000025    -1.10186534E+03   # ~chi_30
   1000035     3.07427638E+03   # ~chi_40
   1000024     1.10000096E+03   # ~chi_1+
   1000037     3.07444385E+03   # ~chi_2+
#
BLOCK NMIX  # Neutralino Mixing Matrix
  1  1     9.99178303E-01   # N_11
  1  2     1.73945744E-04   # N_12
  1  3    -4.04803612E-02   # N_13
  1  4     2.00732598E-03   # N_14
  2  1     2.72108595E-02   # N_21
  2  2     2.46724799E-02   # N_22
  2  3     7.06785096E-01   # N_23
  2  4     7.06474109E-01   # N_24
  3  1    -3.00353410E-02   # N_31
  3  2     1.45520778E-02   # N_32
  3  3    -7.06232928E-01   # N_33
  3  4     7.07192454E-01   # N_34
  4  1    -4.08253105E-04   # N_41
  4  2     9.99589654E-01   # N_42
  4  3    -7.15688001E-03   # N_43
  4  4    -2.77333173E-02   # N_44
#
BLOCK UMIX  # Chargino Mixing Matrix U
  1  1     1.01359235E-02   # U_11
  1  2     9.99948630E-01   # U_12
  2  1    -9.99948630E-01   # U_21
  2  2     1.01359235E-02   # U_22
#
BLOCK VMIX  # Chargino Mixing Matrix V
  1  1     3.92504755E-02   # V_11
  1  2    -9.99229403E-01   # V_12
  2  1    -9.99229403E-01   # V_21
  2  2    -3.92504755E-02   # V_22
#
BLOCK STOPMIX  # Stop Mixing Matrix
  1  1    -5.09359082E-01   # cos(theta_t)
  1  2     8.60554081E-01   # sin(theta_t)
  2  1    -8.60554081E-01   # -sin(theta_t)
  2  2    -5.09359082E-01   # cos(theta_t)
#
BLOCK SBOTMIX  # Sbottom Mixing Matrix
  1  1     9.96620319E-01   # cos(theta_b)
  1  2    -8.21458444E-02   # sin(theta_b)
  2  1     8.21458444E-02   # -sin(theta_b)
  2  2     9.96620319E-01   # cos(theta_b)
#
BLOCK STAUMIX  # Stau Mixing Matrix
  1  1    -1.25032254E-01   # cos(theta_tau)
  1  2     9.92152677E-01   # sin(theta_tau)
  2  1    -9.92152677E-01   # -sin(theta_tau)
  2  2    -1.25032254E-01   # cos(theta_tau)
#
BLOCK ALPHA  # Higgs mixing
          -1.05454521E-01   # Mixing angle in the neutral Higgs boson sector
#
BLOCK HMIX Q=  5.00073110E+03  # DRbar Higgs Parameters
         1    -1.07561528E+03   # mu(Q)MSSM           
         2     9.47148165E+00   # tan                 
         3     2.41896673E+02   # higgs               
         4     8.48651531E+06   # mA^2(Q)MSSM         
#
BLOCK GAUGE Q=  5.00073110E+03  # The gauge couplings
     1     3.70784714E-01   # gprime(Q) DRbar
     2     6.32470967E-01   # g(Q) DRbar
     3     1.00270768E+00   # g3(Q) DRbar
#
BLOCK AU Q=  5.00073110E+03  # The trilinear couplings
  1  1     5.00000001E+03   # A_u(Q) DRbar
  2  2     5.00000001E+03   # A_c(Q) DRbar
  3  3     5.00000001E+03   # A_t(Q) DRbar
#
BLOCK AD Q=  5.00073110E+03  # The trilinear couplings
  1  1     5.00000000E+03   # A_d(Q) DRbar
  2  2     5.00000000E+03   # A_s(Q) DRbar
  3  3     5.00000001E+03   # A_b(Q) DRbar
#
BLOCK AE Q=  5.00073110E+03  # The trilinear couplings
  1  1     0.00000000E+00   # A_e(Q) DRbar
  2  2     9.73707864E-08   # A_mu(Q) DRbar
  3  3     9.67081092E-08   # A_tau(Q) DRbar
#
BLOCK Yu Q=  5.00073110E+03  # The Yukawa couplings
  1  1     0.00000000E+00   # y_u(Q) DRbar
  2  2     0.00000000E+00   # y_c(Q) DRbar
  3  3     8.17700451E-01   # y_t(Q) DRbar
#
BLOCK Yd Q=  5.00073110E+03  # The Yukawa couplings
  1  1     0.00000000E+00   # y_d(Q) DRbar
  2  2     0.00000000E+00   # y_s(Q) DRbar
  3  3     1.30214108E-01   # y_b(Q) DRbar
#
BLOCK Ye Q=  5.00073110E+03  # The Yukawa couplings
  1  1     0.00000000E+00   # y_e(Q) DRbar
  2  2     0.00000000E+00   # y_mu(Q) DRbar
  3  3     9.68124865E-02   # y_tau(Q) DRbar
#
BLOCK MSOFT Q=  5.00073110E+03  # The soft SUSY breaking masses at the scale Q
         1     6.00000000E+01   # M_1(Q)              
         2     3.00000000E+03   # M_2(Q)              
         3     1.21156400E+03   # M_3(Q)              
        21     7.53382156E+06   # mH1^2(Q)            
        22    -5.97590601E+05   # mH2^2(Q)            
        31     5.00000000E+03   # meL(Q)              
        32     5.00000000E+03   # mmuL(Q)             
        33     5.00000000E+03   # mtauL(Q)            
        34     5.00000000E+03   # meR(Q)              
        35     5.00000000E+03   # mmuR(Q)             
        36     5.00000000E+03   # mtauR(Q)            
        41     5.00000000E+03   # mqL1(Q)             
        42     5.00000000E+03   # mqL2(Q)             
        43     5.00000000E+03   # mqL3(Q)             
        44     5.00000000E+03   # muR(Q)              
        45     5.00000000E+03   # mcR(Q)              
        46     5.00000000E+03   # mtR(Q)              
        47     5.00000000E+03   # mdR(Q)              
        48     5.00000000E+03   # msR(Q)              
        49     5.00000000E+03   # mbR(Q)              
#
#
#
#                             =================
#                             |The decay table|
#                             =================
#
# - The QCD corrections to the decays gluino -> squark  + quark
#                                     squark -> gaugino + quark_prime
#                                     squark -> squark_prime + Higgs
#                                     squark -> gluino  + quark
#   are included.
#
# - The multi-body decays for the inos, stops and sbottoms are included.
#
# - The loop induced decays for the gluino, neutralinos and stops
#   are included.
#
# - The SUSY decays of the top quark are included.
#
#
#         PDG            Width
DECAY         6     1.40182729E+00   # top decays
#          BR         NDA      ID1       ID2
     1.00000000E+00    2           5        24   # BR(t ->  b    W+)
#
#         PDG            Width
DECAY   1000021     7.15903453E-05   # gluino decays
#          BR         NDA      ID1       ID2
     1.11413442E-05    2     1000022        21   # BR(~g -> ~chi_10 g)
     9.15555501E-03    2     1000023        21   # BR(~g -> ~chi_20 g)
     8.95069517E-03    2     1000025        21   # BR(~g -> ~chi_30 g)
#           BR         NDA      ID1       ID2       ID3
     7.48134777E-02    3     1000022         1        -1   # BR(~g -> ~chi_10 d  db)
     3.17551521E-06    3     1000023         1        -1   # BR(~g -> ~chi_20 d  db)
     1.20920370E-06    3     1000025         1        -1   # BR(~g -> ~chi_30 d  db)
     2.55065995E-01    3     1000022         2        -2   # BR(~g -> ~chi_10 u  ub)
     8.81827450E-06    3     1000023         2        -2   # BR(~g -> ~chi_20 u  ub)
     1.37901565E-06    3     1000025         2        -2   # BR(~g -> ~chi_30 u  ub)
     7.48134777E-02    3     1000022         3        -3   # BR(~g -> ~chi_10 s  sb)
     3.17551521E-06    3     1000023         3        -3   # BR(~g -> ~chi_20 s  sb)
     1.20920370E-06    3     1000025         3        -3   # BR(~g -> ~chi_30 s  sb)
     2.55065995E-01    3     1000022         4        -4   # BR(~g -> ~chi_10 c  cb)
     8.81827450E-06    3     1000023         4        -4   # BR(~g -> ~chi_20 c  cb)
     1.37901565E-06    3     1000025         4        -4   # BR(~g -> ~chi_30 c  cb)
     7.58329200E-02    3     1000022         5        -5   # BR(~g -> ~chi_10 b  bb)
     5.75173153E-04    3     1000023         5        -5   # BR(~g -> ~chi_20 b  bb)
     5.54249524E-04    3     1000025         5        -5   # BR(~g -> ~chi_30 b  bb)
     2.23529445E-01    3     1000022         6        -6   # BR(~g -> ~chi_10 t  tb)
     1.88145362E-03    3     1000023         6        -6   # BR(~g -> ~chi_20 t  tb)
     5.65258108E-04    3     1000025         6        -6   # BR(~g -> ~chi_30 t  tb)
     8.81906182E-06    3     1000024         1        -2   # BR(~g -> ~chi_1+ d  ub)
     8.81906182E-06    3    -1000024         2        -1   # BR(~g -> ~chi_1- u  db)
     8.81906182E-06    3     1000024         3        -4   # BR(~g -> ~chi_1+ s  cb)
     8.81906182E-06    3    -1000024         4        -3   # BR(~g -> ~chi_1- c  sb)
     9.56036198E-03    3     1000024         5        -6   # BR(~g -> ~chi_1+ b  tb)
     9.56036198E-03    3    -1000024         6        -5   # BR(~g -> ~chi_1- t  bb)
#
#         PDG            Width
DECAY   1000006     3.80516187E+02   # stop1 decays
#          BR         NDA      ID1       ID2
     2.31628774E-02    2     1000022         6   # BR(~t_1 -> ~chi_10 t )
     7.82824495E-02    2     1000023         6   # BR(~t_1 -> ~chi_20 t )
     7.52336196E-02    2     1000025         6   # BR(~t_1 -> ~chi_30 t )
     5.54267982E-03    2     1000035         6   # BR(~t_1 -> ~chi_40 t )
     1.13193984E-01    2     1000024         5   # BR(~t_1 -> ~chi_1+ b )
     1.10401214E-02    2     1000037         5   # BR(~t_1 -> ~chi_2+ b )
     6.93544268E-01    2     1000021         6   # BR(~t_1 -> ~g      t )
#
#         PDG            Width
DECAY   2000006     3.85445244E+02   # stop2 decays
#          BR         NDA      ID1       ID2
     9.18916266E-03    2     1000022         6   # BR(~t_2 -> ~chi_10 t )
     7.92705163E-02    2     1000023         6   # BR(~t_2 -> ~chi_20 t )
     8.25580214E-02    2     1000025         6   # BR(~t_2 -> ~chi_30 t )
     1.42456460E-02    2     1000035         6   # BR(~t_2 -> ~chi_40 t )
     4.78813195E-02    2     1000024         5   # BR(~t_2 -> ~chi_1+ b )
     2.83350510E-02    2     1000037         5   # BR(~t_2 -> ~chi_2+ b )
     7.35167918E-01    2     1000021         6   # BR(~t_2 -> ~g      t )
     7.52421001E-04    2     1000006        25   # BR(~t_2 -> ~t_1    h )
     2.59994407E-03    2     1000006        23   # BR(~t_2 -> ~t_1    Z )
#
#         PDG            Width
DECAY   1000005     3.62272471E+02   # sbottom1 decays
#          BR         NDA      ID1       ID2
     2.14058511E-03    2     1000022         5   # BR(~b_1 -> ~chi_10 b )
     2.16419743E-03    2     1000023         5   # BR(~b_1 -> ~chi_20 b )
     2.09518067E-03    2     1000025         5   # BR(~b_1 -> ~chi_30 b )
     2.07071283E-02    2     1000035         5   # BR(~b_1 -> ~chi_40 b )
     1.66715781E-01    2    -1000024         6   # BR(~b_1 -> ~chi_1- t )
     4.16161364E-02    2    -1000037         6   # BR(~b_1 -> ~chi_2- t )
     7.62994358E-01    2     1000021         5   # BR(~b_1 -> ~g      b )
     1.56663240E-03    2     1000006       -24   # BR(~b_1 -> ~t_1    W-)
#
#         PDG            Width
DECAY   2000005     2.85465904E+02   # sbottom2 decays
#          BR         NDA      ID1       ID2
     1.02921685E-02    2     1000022         5   # BR(~b_2 -> ~chi_10 b )
     2.71695633E-03    2     1000023         5   # BR(~b_2 -> ~chi_20 b )
     2.79866409E-03    2     1000025         5   # BR(~b_2 -> ~chi_30 b )
     1.84775091E-04    2     1000035         5   # BR(~b_2 -> ~chi_40 b )
     6.84085775E-03    2    -1000024         6   # BR(~b_2 -> ~chi_1- t )
     3.71280205E-04    2    -1000037         6   # BR(~b_2 -> ~chi_2- t )
     9.76739581E-01    2     1000021         5   # BR(~b_2 -> ~g      b )
     5.57165397E-05    2     1000006       -24   # BR(~b_2 -> ~t_1    W-)
#
#         PDG            Width
DECAY   1000002     3.04439092E+02   # sup_L decays
#          BR         NDA      ID1       ID2
     2.45379662E-03    2     1000022         2   # BR(~u_L -> ~chi_10 u)
     5.25256416E-05    2     1000023         2   # BR(~u_L -> ~chi_20 u)
     4.40100729E-06    2     1000025         2   # BR(~u_L -> ~chi_30 u)
     2.57024087E-02    2     1000035         2   # BR(~u_L -> ~chi_40 u)
     1.79932110E-04    2     1000024         1   # BR(~u_L -> ~chi_1+ d)
     5.13694862E-02    2     1000037         1   # BR(~u_L -> ~chi_2+ d)
     9.20237450E-01    2     1000021         2   # BR(~u_L -> ~g      u)
#
#         PDG            Width
DECAY   2000002     2.90713726E+02   # sup_R decays
#          BR         NDA      ID1       ID2
     4.08974748E-02    2     1000022         2   # BR(~u_R -> ~chi_10 u)
     2.75524988E-05    2     1000023         2   # BR(~u_R -> ~chi_20 u)
     3.35554108E-05    2     1000025         2   # BR(~u_R -> ~chi_30 u)
     2.71203225E-09    2     1000035         2   # BR(~u_R -> ~chi_40 u)
     9.59041415E-01    2     1000021         2   # BR(~u_R -> ~g      u)
#
#         PDG            Width
DECAY   1000001     3.04450866E+02   # sdown_L decays
#          BR         NDA      ID1       ID2
     2.44520468E-03    2     1000022         1   # BR(~d_L -> ~chi_10 d)
     2.18797022E-05    2     1000023         1   # BR(~d_L -> ~chi_20 d)
     2.43471994E-05    2     1000025         1   # BR(~d_L -> ~chi_30 d)
     2.57176257E-02    2     1000035         1   # BR(~d_L -> ~chi_40 d)
     1.19999009E-05    2    -1000024         2   # BR(~d_L -> ~chi_1- u)
     5.14574909E-02    2    -1000037         2   # BR(~d_L -> ~chi_2- u)
     9.20321452E-01    2     1000021         1   # BR(~d_L -> ~g      d)
#
#         PDG            Width
DECAY   2000001     2.81805216E+02   # sdown_R decays
#          BR         NDA      ID1       ID2
     1.05481812E-02    2     1000022         1   # BR(~d_R -> ~chi_10 d)
     7.10635449E-06    2     1000023         1   # BR(~d_R -> ~chi_20 d)
     8.65462902E-06    2     1000025         1   # BR(~d_R -> ~chi_30 d)
     6.99572831E-10    2     1000035         1   # BR(~d_R -> ~chi_40 d)
     9.89436057E-01    2     1000021         1   # BR(~d_R -> ~g      d)
#
#         PDG            Width
DECAY   1000004     3.04439092E+02   # scharm_L decays
#          BR         NDA      ID1       ID2
     2.45379662E-03    2     1000022         4   # BR(~c_L -> ~chi_10 c)
     5.25256416E-05    2     1000023         4   # BR(~c_L -> ~chi_20 c)
     4.40100729E-06    2     1000025         4   # BR(~c_L -> ~chi_30 c)
     2.57024087E-02    2     1000035         4   # BR(~c_L -> ~chi_40 c)
     1.79932110E-04    2     1000024         3   # BR(~c_L -> ~chi_1+ s)
     5.13694862E-02    2     1000037         3   # BR(~c_L -> ~chi_2+ s)
     9.20237450E-01    2     1000021         4   # BR(~c_L -> ~g      c)
#
#         PDG            Width
DECAY   2000004     2.90713726E+02   # scharm_R decays
#          BR         NDA      ID1       ID2
     4.08974748E-02    2     1000022         4   # BR(~c_R -> ~chi_10 c)
     2.75524988E-05    2     1000023         4   # BR(~c_R -> ~chi_20 c)
     3.35554108E-05    2     1000025         4   # BR(~c_R -> ~chi_30 c)
     2.71203225E-09    2     1000035         4   # BR(~c_R -> ~chi_40 c)
     9.59041415E-01    2     1000021         4   # BR(~c_R -> ~g      c)
#
#         PDG            Width
DECAY   1000003     3.04450866E+02   # sstrange_L decays
#          BR         NDA      ID1       ID2
     2.44520468E-03    2     1000022         3   # BR(~s_L -> ~chi_10 s)
     2.18797022E-05    2     1000023         3   # BR(~s_L -> ~chi_20 s)
     2.43471994E-05    2     1000025         3   # BR(~s_L -> ~chi_30 s)
     2.57176257E-02    2     1000035         3   # BR(~s_L -> ~chi_40 s)
     1.19999009E-05    2    -1000024         4   # BR(~s_L -> ~chi_1- c)
     5.14574909E-02    2    -1000037         4   # BR(~s_L -> ~chi_2- c)
     9.20321452E-01    2     1000021         3   # BR(~s_L -> ~g      s)
#
#         PDG            Width
DECAY   2000003     2.81805216E+02   # sstrange_R decays
#          BR         NDA      ID1       ID2
     1.05481812E-02    2     1000022         3   # BR(~s_R -> ~chi_10 s)
     7.10635449E-06    2     1000023         3   # BR(~s_R -> ~chi_20 s)
     8.65462902E-06    2     1000025         3   # BR(~s_R -> ~chi_30 s)
     6.99572831E-10    2     1000035         3   # BR(~s_R -> ~chi_40 s)
     9.89436057E-01    2     1000021         3   # BR(~s_R -> ~g      s)
#
#         PDG            Width
DECAY   1000011     3.02649151E+01   # selectron_L decays
#          BR         NDA      ID1       ID2
     2.26488338E-01    2     1000022        11   # BR(~e_L -> ~chi_10 e-)
     9.87014512E-04    2     1000023        11   # BR(~e_L -> ~chi_20 e-)
     5.58326075E-06    2     1000025        11   # BR(~e_L -> ~chi_30 e-)
     2.57282423E-01    2     1000035        11   # BR(~e_L -> ~chi_40 e-)
     1.22875496E-04    2    -1000024        12   # BR(~e_L -> ~chi_1- nu_e)
     5.15113766E-01    2    -1000037        12   # BR(~e_L -> ~chi_2- nu_e)
#
#         PDG            Width
DECAY   2000011     2.73712455E+01   # selectron_R decays
#          BR         NDA      ID1       ID2
     9.98511745E-01    2     1000022        11   # BR(~e_R -> ~chi_10 e-)
     6.71002102E-04    2     1000023        11   # BR(~e_R -> ~chi_20 e-)
     8.17188183E-04    2     1000025        11   # BR(~e_R -> ~chi_30 e-)
     6.46866557E-08    2     1000035        11   # BR(~e_R -> ~chi_40 e-)
#
#         PDG            Width
DECAY   1000013     3.02649151E+01   # smuon_L decays
#          BR         NDA      ID1       ID2
     2.26488338E-01    2     1000022        13   # BR(~mu_L -> ~chi_10 mu-)
     9.87014512E-04    2     1000023        13   # BR(~mu_L -> ~chi_20 mu-)
     5.58326075E-06    2     1000025        13   # BR(~mu_L -> ~chi_30 mu-)
     2.57282423E-01    2     1000035        13   # BR(~mu_L -> ~chi_40 mu-)
     1.22875496E-04    2    -1000024        14   # BR(~mu_L -> ~chi_1- nu_mu)
     5.15113766E-01    2    -1000037        14   # BR(~mu_L -> ~chi_2- nu_mu)
#
#         PDG            Width
DECAY   2000013     2.73712455E+01   # smuon_R decays
#          BR         NDA      ID1       ID2
     9.98511745E-01    2     1000022        13   # BR(~mu_R -> ~chi_10 mu-)
     6.71002102E-04    2     1000023        13   # BR(~mu_R -> ~chi_20 mu-)
     8.17188183E-04    2     1000025        13   # BR(~mu_R -> ~chi_30 mu-)
     6.46866557E-08    2     1000035        13   # BR(~mu_R -> ~chi_40 mu-)
#
#         PDG            Width
DECAY   1000015     2.90966731E+01   # stau_1 decays
#          BR         NDA      ID1       ID2
     9.28961035E-01    2     1000022        15   # BR(~tau_1 -> ~chi_10  tau-)
     1.53534697E-02    2     1000023        15   # BR(~tau_1 -> ~chi_20  tau-)
     1.44839552E-02    2     1000025        15   # BR(~tau_1 -> ~chi_30  tau-)
     4.04124025E-03    2     1000035        15   # BR(~tau_1 -> ~chi_40  tau-)
     2.90694392E-02    2    -1000024        16   # BR(~tau_1 -> ~chi_1-  nu_tau)
     8.09086089E-03    2    -1000037        16   # BR(~tau_1 -> ~chi_2-  nu_tau)
#
#         PDG            Width
DECAY   2000015     3.10634628E+01   # stau_2 decays
#          BR         NDA      ID1       ID2
     2.30226810E-01    2     1000022        15   # BR(~tau_2 -> ~chi_10  tau-)
     1.44028190E-02    2     1000023        15   # BR(~tau_2 -> ~chi_20  tau-)
     1.43398071E-02    2     1000025        15   # BR(~tau_2 -> ~chi_30  tau-)
     2.46802538E-01    2     1000035        15   # BR(~tau_2 -> ~chi_40  tau-)
     9.60952851E-05    2    -1000024        16   # BR(~tau_2 -> ~chi_1-  nu_tau)
     4.94131931E-01    2    -1000037        16   # BR(~tau_2 -> ~chi_2-  nu_tau)
#
#         PDG            Width
DECAY   1000012     3.02675809E+01   # snu_eL decays
#          BR         NDA      ID1       ID2
     2.26156766E-01    2     1000022        12   # BR(~nu_eL -> ~chi_10 nu_e)
     4.54626432E-05    2     1000023        12   # BR(~nu_eL -> ~chi_20 nu_e)
     6.18103587E-04    2     1000025        12   # BR(~nu_eL -> ~chi_30 nu_e)
     2.57340692E-01    2     1000035        12   # BR(~nu_eL -> ~chi_40 nu_e)
     1.84200820E-03    2     1000024        11   # BR(~nu_eL -> ~chi_1+ e-)
     5.13996968E-01    2     1000037        11   # BR(~nu_eL -> ~chi_2+ e-)
#
#         PDG            Width
DECAY   1000014     3.02675809E+01   # snu_muL decays
#          BR         NDA      ID1       ID2
     2.26156766E-01    2     1000022        14   # BR(~nu_muL -> ~chi_10 nu_mu)
     4.54626432E-05    2     1000023        14   # BR(~nu_muL -> ~chi_20 nu_mu)
     6.18103587E-04    2     1000025        14   # BR(~nu_muL -> ~chi_30 nu_mu)
     2.57340692E-01    2     1000035        14   # BR(~nu_muL -> ~chi_40 nu_mu)
     1.84200820E-03    2     1000024        13   # BR(~nu_muL -> ~chi_1+ mu-)
     5.13996968E-01    2     1000037        13   # BR(~nu_muL -> ~chi_2+ mu-)
#
#         PDG            Width
DECAY   1000016     3.11059971E+01   # snu_tauL decays
#          BR         NDA      ID1       ID2
     2.20037133E-01    2     1000022        16   # BR(~nu_tauL -> ~chi_10 nu_tau)
     4.42314918E-05    2     1000023        16   # BR(~nu_tauL -> ~chi_20 nu_tau)
     6.01364971E-04    2     1000025        16   # BR(~nu_tauL -> ~chi_30 nu_tau)
     2.50311911E-01    2     1000035        16   # BR(~nu_tauL -> ~chi_40 nu_tau)
     2.90474749E-02    2     1000024        15   # BR(~nu_tauL -> ~chi_1+ tau-)
     4.99957884E-01    2     1000037        15   # BR(~nu_tauL -> ~chi_2+ tau-)
#
#         PDG            Width
DECAY   1000024     6.71906273E-01   # chargino1+ decays
#          BR         NDA      ID1       ID2
     1.00000000E+00    2     1000022        24   # BR(~chi_1+ -> ~chi_10  W+)
#
#         PDG            Width
DECAY   1000037     2.00555264E+01   # chargino2+ decays
#          BR         NDA      ID1       ID2
     2.53113870E-01    2     1000024        23   # BR(~chi_2+ -> ~chi_1+  Z )
     2.05843946E-04    2     1000022        24   # BR(~chi_2+ -> ~chi_10  W+)
     2.44075892E-01    2     1000023        24   # BR(~chi_2+ -> ~chi_20  W+)
     2.44049949E-01    2     1000025        24   # BR(~chi_2+ -> ~chi_30  W+)
     2.58553513E-01    2     1000024        25   # BR(~chi_2+ -> ~chi_1+  h )
     9.31599357E-07    2     1000022        37   # BR(~chi_2+ -> ~chi_10  H+)
#
#         PDG            Width
DECAY   1000022     0.00000000E+00   # neutralino1 decays
#
#         PDG            Width
DECAY   1000023     7.03060637E-01   # neutralino2 decays
#          BR         NDA      ID1       ID2
     5.44446449E-01    2     1000022        23   # BR(~chi_20 -> ~chi_10   Z )
     4.55553551E-01    2     1000022        25   # BR(~chi_20 -> ~chi_10   h )
#
#         PDG            Width
DECAY   1000025     7.07529035E-01   # neutralino3 decays
#          BR         NDA      ID1       ID2
     4.43628849E-01    2     1000022        23   # BR(~chi_30 -> ~chi_10   Z )
     5.56371151E-01    2     1000022        25   # BR(~chi_30 -> ~chi_10   h )
#
#         PDG            Width
DECAY   1000035     2.00691890E+01   # neutralino4 decays
#          BR         NDA      ID1       ID2
     5.54652360E-05    2     1000022        23   # BR(~chi_40 -> ~chi_10   Z )
     6.53736381E-02    2     1000023        23   # BR(~chi_40 -> ~chi_20   Z )
     1.87022545E-01    2     1000025        23   # BR(~chi_40 -> ~chi_30   Z )
     2.44713160E-01    2     1000024       -24   # BR(~chi_40 -> ~chi_1+   W-)
     2.44713160E-01    2    -1000024        24   # BR(~chi_40 -> ~chi_1-   W+)
     1.52311695E-04    2     1000022        25   # BR(~chi_40 -> ~chi_10   h )
     8.62457906E-07    2     1000022        35   # BR(~chi_40 -> ~chi_10   H )
     1.09101398E-07    2     1000022        36   # BR(~chi_40 -> ~chi_10   A )
     1.92450499E-01    2     1000023        25   # BR(~chi_40 -> ~chi_20   h )
     6.55182500E-02    2     1000025        25   # BR(~chi_40 -> ~chi_30   h )
#
#         PDG            Width
DECAY        25     4.04416591E-03   # h decays
#          BR         NDA      ID1       ID2
     6.11231520E-01    2           5        -5   # BR(h -> b       bb     )
     6.40538150E-02    2         -15        15   # BR(h -> tau+    tau-   )
     2.26774476E-04    2         -13        13   # BR(h -> mu+     mu-    )
     4.80864489E-04    2           3        -3   # BR(h -> s       sb     )
     2.08372734E-02    2           4        -4   # BR(h -> c       cb     )
     6.72254848E-02    2          21        21   # BR(h -> g       g      )
     2.30783154E-03    2          22        22   # BR(h -> gam     gam    )
     1.47504333E-03    2          22        23   # BR(h -> Z       gam    )
     2.07458738E-01    2          24       -24   # BR(h -> W+      W-     )
     2.46547165E-02    2          23        23   # BR(h -> Z       Z      )
     4.79378872E-05    2     1000022   1000022   # BR(h -> ~chi_10 ~chi_10)
#
#         PDG            Width
DECAY        35     7.95118403E+00   # H decays
#          BR         NDA      ID1       ID2
     4.06789379E-01    2           5        -5   # BR(H -> b       bb     )
     7.00908004E-02    2         -15        15   # BR(H -> tau+    tau-   )
     2.47846638E-04    2         -13        13   # BR(H -> mu+     mu-    )
     3.03821999E-04    2           3        -3   # BR(H -> s       sb     )
     1.69826587E-06    2           4        -4   # BR(H -> c       cb     )
     1.69670213E-01    2           6        -6   # BR(H -> t       tb     )
     5.63570192E-05    2          21        21   # BR(H -> g       g      )
     3.01237209E-07    2          22        22   # BR(H -> gam     gam    )
     1.00144532E-07    2          23        22   # BR(H -> Z       gam    )
     7.73661880E-05    2          24       -24   # BR(H -> W+      W-     )
     3.86341280E-05    2          23        23   # BR(H -> Z       Z      )
     2.89229881E-04    2          25        25   # BR(H -> h       h      )
     6.75528584E-24    2          36        36   # BR(H -> A       A      )
     1.25371345E-18    2          23        36   # BR(H -> Z       A      )
     1.60445910E-03    2     1000024  -1000024   # BR(H -> ~chi_1+ ~chi_1-)
     1.50104305E-03    2     1000022   1000022   # BR(H -> ~chi_10 ~chi_10)
     5.87273294E-05    2     1000023   1000023   # BR(H -> ~chi_20 ~chi_20)
     3.73374903E-04    2     1000025   1000025   # BR(H -> ~chi_30 ~chi_30)
     2.08934153E-01    2     1000022   1000023   # BR(H -> ~chi_10 ~chi_20)
     1.39619909E-01    2     1000022   1000025   # BR(H -> ~chi_10 ~chi_30)
     3.42585024E-04    2     1000023   1000025   # BR(H -> ~chi_20 ~chi_30)
#
#         PDG            Width
DECAY        36     7.96968082E+00   # A decays
#          BR         NDA      ID1       ID2
     4.05982074E-01    2           5        -5   # BR(A -> b       bb     )
     6.99301116E-02    2         -15        15   # BR(A -> tau+    tau-   )
     2.47278084E-04    2         -13        13   # BR(A -> mu+     mu-    )
     3.03346549E-04    2           3        -3   # BR(A -> s       sb     )
     1.70130420E-06    2           4        -4   # BR(A -> c       cb     )
     1.69879982E-01    2           6        -6   # BR(A -> t       tb     )
     1.68136364E-04    2          21        21   # BR(A -> g       g      )
     5.55171927E-07    2          22        22   # BR(A -> gam     gam    )
     2.03584560E-07    2          23        22   # BR(A -> Z       gam    )
     7.68955184E-05    2          23        25   # BR(A -> Z       h      )
     3.10483882E-03    2     1000024  -1000024   # BR(A -> ~chi_1+ ~chi_1-)
     1.53180927E-03    2     1000022   1000022   # BR(A -> ~chi_10 ~chi_10)
     8.28605118E-05    2     1000023   1000023   # BR(A -> ~chi_20 ~chi_20)
     1.23760405E-03    2     1000025   1000025   # BR(A -> ~chi_30 ~chi_30)
     1.41180047E-01    2     1000022   1000023   # BR(A -> ~chi_10 ~chi_20)
     2.06203808E-01    2     1000022   1000025   # BR(A -> ~chi_10 ~chi_30)
     6.87481517E-05    2     1000023   1000025   # BR(A -> ~chi_20 ~chi_30)
#
#         PDG            Width
DECAY        37     7.92393470E+00   # H+ decays
#          BR         NDA      ID1       ID2
     6.52660090E-04    2           4        -5   # BR(H+ -> c       bb     )
     7.03574585E-02    2         -15        16   # BR(H+ -> tau+    nu_tau )
     2.48789214E-04    2         -13        14   # BR(H+ -> mu+     nu_mu  )
     4.17700295E-06    2           2        -5   # BR(H+ -> u       bb     )
     1.45983499E-05    2           2        -3   # BR(H+ -> u       sb     )
     3.01893638E-04    2           4        -3   # BR(H+ -> c       sb     )
     5.75209914E-01    2           6        -5   # BR(H+ -> t       bb     )
     7.74671494E-05    2          24        25   # BR(H+ -> W+      h      )
     1.72492434E-13    2          24        36   # BR(H+ -> W+      A      )
     3.52409852E-01    2     1000024   1000022   # BR(H+ -> ~chi_1+ ~chi_10)
     6.75000656E-04    2     1000024   1000023   # BR(H+ -> ~chi_1+ ~chi_20)
     4.81894187E-05    2     1000024   1000025   # BR(H+ -> ~chi_1+ ~chi_30)
