#
#                              ======================
#                              | THE SUSYHIT OUTPUT |
#                              ======================
#
#
#              ------------------------------------------------------
#              |     This is the output of the SUSY-HIT package     |
#              |  created by A.Djouadi, M.Muehlleitner and M.Spira. |
#              |  In case of problems with SUSY-HIT email to        |
#              |           margarete.muehlleitner@cern.ch           |
#              |           michael.spira@psi.ch                     |
#              |           abdelhak.djouadi@cern.ch                 |
#              ------------------------------------------------------
#
#              ------------------------------------------------------
#              |  SUSY Les Houches Accord - MSSM Spectrum + Decays  |
#              |              based on the decay programs           |
#              |                                                    |
#              |                     SDECAY 1.3b                    |
#              |                                                    |
#              |  Authors: M.Muhlleitner, A.Djouadi and Y.Mambrini  |
#              |  Ref.:    Comput.Phys.Commun.168(2005)46           |
#              |           [hep-ph/0311167]                         |
#              |                                                    |
#              |                     HDECAY 3.4                     |
#              |                                                    |
#              |  By: A.Djouadi,J.Kalinowski,M.Muhlleitner,M.Spira  |
#              |  Ref.:    Comput.Phys.Commun.108(1998)56           |
#              |           [hep-ph/9704448]                         |
#              |                                                    |
#              |                                                    |
#              |  If not stated otherwise all DRbar couplings and   |
#              |  soft SUSY breaking masses are given at the scale  |
#              |  Q=  0.50007314E+04
#              |                                                    |
#              ------------------------------------------------------
#
#
BLOCK DCINFO  # Decay Program information
     1   SDECAY/HDECAY # decay calculator
     2   1.3b  /3.4    # version number
#
BLOCK SPINFO  # Spectrum calculator information
     1    SOFTSUSY    # spectrum calculator                
     2    3.4.0       # version number                     
#
BLOCK MODSEL  # Model selection
     1     0   #  nonUniversal                                     
#
BLOCK SMINPUTS  # Standard Model inputs
         1     1.25778332E+02   # alpha_em^-1(M_Z)^MSbar
         2     1.16570000E-05   # G_F [GeV^-2]
         3     1.17200002E-01   # alpha_S(M_Z)^MSbar
         4     9.11876000E+01   # M_Z pole mass
         5     4.25000000E+00   # mb(mb)^MSbar
         6     1.72500000E+02   # mt pole mass
         7     1.77682000E+00   # mtau pole mass
#
BLOCK MINPAR  # Input parameters - minimal models
         3     1.00000000E+01   # tanb                
#
BLOCK EXTPAR  # Input parameters - non-minimal models
         0    -1.00000000E+00   # Set                 
         1     6.00000000E+01   # M_1(MX)             
         2     3.00000000E+03   # M_2(MX)             
         3     7.73142000E+02   # M_3(MX)             
        11     5.00000000E+03   # At(MX)              
        12     5.00000000E+03   # Ab(MX)              
        13     0.00000000E+00   # Atau(MX)            
        23    -8.62261000E+02   # mu(MX)              
        26     3.00000000E+03   # mA(pole)            
        31     5.00000000E+03   # meL(MX)             
        32     5.00000000E+03   # mmuL(MX)            
        33     5.00000000E+03   # mtauL(MX)           
        34     5.00000000E+03   # meR(MX)             
        35     5.00000000E+03   # mmuR(MX)            
        36     5.00000000E+03   # mtauR(MX)           
        41     5.00000000E+03   # mqL1(MX)            
        42     5.00000000E+03   # mqL2(MX)            
        43     5.00000000E+03   # mqL3(MX)            
        44     5.00000000E+03   # muR(MX)             
        45     5.00000000E+03   # mcR(MX)             
        46     5.00000000E+03   # mtR(MX)             
        47     5.00000000E+03   # mdR(MX)             
        48     5.00000000E+03   # msR(MX)             
        49     5.00000000E+03   # mbR(MX)             
#
BLOCK MASS  # Mass Spectrum
# PDG code           mass       particle
        24     8.00920237E+01   # W+
        25     1.24309624E+02   # h
        35     3.00007574E+03   # H
        36     2.99999372E+03   # A
        37     3.00119085E+03   # H+
         5     4.87878001E+00   # b-quark pole mass calculated from mb(mb)_Msbar
   1000001     5.06379897E+03   # ~d_L
   2000001     5.04595875E+03   # ~d_R
   1000002     5.06332180E+03   # ~u_L
   2000002     5.04566963E+03   # ~u_R
   1000003     5.06379897E+03   # ~s_L
   2000003     5.04595875E+03   # ~s_R
   1000004     5.06332180E+03   # ~c_L
   2000004     5.04566963E+03   # ~c_R
   1000005     5.01018388E+03   # ~b_1
   2000005     5.04447806E+03   # ~b_2
   1000006     4.90065267E+03   # ~t_1
   2000006     5.05593167E+03   # ~t_2
   1000011     5.01907929E+03   # ~e_L
   2000011     5.00592782E+03   # ~e_R
   1000012     5.01812978E+03   # ~nu_eL
   1000013     5.01907929E+03   # ~mu_L
   2000013     5.00592782E+03   # ~mu_R
   1000014     5.01812978E+03   # ~nu_muL
   1000015     5.00465104E+03   # ~tau_1
   2000015     5.01873266E+03   # ~tau_2
   1000016     5.01758234E+03   # ~nu_tauL
   1000021     1.00000027E+03   # ~g
   1000022     6.02942478E+01   # ~chi_10
   1000023     8.99732955E+02   # ~chi_20
   1000025    -9.01975903E+02   # ~chi_30
   1000035     3.07423873E+03   # ~chi_40
   1000024     9.00000822E+02   # ~chi_1+
   1000037     3.07440629E+03   # ~chi_2+
#
BLOCK NMIX  # Neutralino Mixing Matrix
  1  1     9.98775075E-01   # N_11
  1  2     1.95947415E-04   # N_12
  1  3    -4.94462366E-02   # N_13
  1  4     1.83860338E-03   # N_14
  2  1     3.36754252E-02   # N_21
  2  2     2.24321165E-02   # N_22
  2  3     7.06575653E-01   # N_23
  2  4     7.06479733E-01   # N_24
  3  1    -3.62513092E-02   # N_31
  3  2     1.52938082E-02   # N_32
  3  3    -7.05889829E-01   # N_33
  3  4     7.07228034E-01   # N_34
  4  1    -3.96844178E-04   # N_41
  4  2     9.99631363E-01   # N_42
  4  3    -5.04641519E-03   # N_43
  4  4    -2.66742390E-02   # N_44
#
BLOCK UMIX  # Chargino Mixing Matrix U
  1  1     7.14909681E-03   # U_11
  1  2     9.99974445E-01   # U_12
  2  1    -9.99974445E-01   # U_21
  2  2     7.14909681E-03   # U_22
#
BLOCK VMIX  # Chargino Mixing Matrix V
  1  1     3.77524001E-02   # V_11
  1  2    -9.99287124E-01   # V_12
  2  1    -9.99287124E-01   # V_21
  2  2    -3.77524001E-02   # V_22
#
BLOCK STOPMIX  # Stop Mixing Matrix
  1  1    -5.09645785E-01   # cos(theta_t)
  1  2     8.60384318E-01   # sin(theta_t)
  2  1    -8.60384318E-01   # -sin(theta_t)
  2  2    -5.09645785E-01   # cos(theta_t)
#
BLOCK SBOTMIX  # Sbottom Mixing Matrix
  1  1     9.97414885E-01   # cos(theta_b)
  1  2    -7.18578262E-02   # sin(theta_b)
  2  1     7.18578262E-02   # -sin(theta_b)
  2  2     9.97414885E-01   # cos(theta_b)
#
BLOCK STAUMIX  # Stau Mixing Matrix
  1  1    -1.02702568E-01   # cos(theta_tau)
  1  2     9.94712110E-01   # sin(theta_tau)
  2  1    -9.94712110E-01   # -sin(theta_tau)
  2  2    -1.02702568E-01   # cos(theta_tau)
#
BLOCK ALPHA  # Higgs mixing
          -1.05425580E-01   # Mixing angle in the neutral Higgs boson sector
#
BLOCK HMIX Q=  5.00073138E+03  # DRbar Higgs Parameters
         1    -8.77591750E+02   # mu(Q)MSSM           
         2     9.47418213E+00   # tan                 
         3     2.41905715E+02   # higgs               
         4     8.53888495E+06   # mA^2(Q)MSSM         
#
BLOCK GAUGE Q=  5.00073138E+03  # The gauge couplings
     1     3.70840977E-01   # gprime(Q) DRbar
     2     6.32718587E-01   # g(Q) DRbar
     3     1.00864369E+00   # g3(Q) DRbar
#
BLOCK AU Q=  5.00073138E+03  # The trilinear couplings
  1  1     5.00000001E+03   # A_u(Q) DRbar
  2  2     5.00000001E+03   # A_c(Q) DRbar
  3  3     5.00000001E+03   # A_t(Q) DRbar
#
BLOCK AD Q=  5.00073138E+03  # The trilinear couplings
  1  1     5.00000000E+03   # A_d(Q) DRbar
  2  2     5.00000000E+03   # A_s(Q) DRbar
  3  3     5.00000001E+03   # A_b(Q) DRbar
#
BLOCK AE Q=  5.00073138E+03  # The trilinear couplings
  1  1     0.00000000E+00   # A_e(Q) DRbar
  2  2     1.65509356E-08   # A_mu(Q) DRbar
  3  3     1.55731182E-08   # A_tau(Q) DRbar
#
BLOCK Yu Q=  5.00073138E+03  # The Yukawa couplings
  1  1     0.00000000E+00   # y_u(Q) DRbar
  2  2     0.00000000E+00   # y_c(Q) DRbar
  3  3     8.14222740E-01   # y_t(Q) DRbar
#
BLOCK Yd Q=  5.00073138E+03  # The Yukawa couplings
  1  1     0.00000000E+00   # y_d(Q) DRbar
  2  2     0.00000000E+00   # y_s(Q) DRbar
  3  3     1.29298009E-01   # y_b(Q) DRbar
#
BLOCK Ye Q=  5.00073138E+03  # The Yukawa couplings
  1  1     0.00000000E+00   # y_e(Q) DRbar
  2  2     0.00000000E+00   # y_mu(Q) DRbar
  3  3     9.69228962E-02   # y_tau(Q) DRbar
#
BLOCK MSOFT Q=  5.00073138E+03  # The soft SUSY breaking masses at the scale Q
         1     6.00000000E+01   # M_1(Q)              
         2     3.00000000E+03   # M_2(Q)              
         3     7.73142000E+02   # M_3(Q)              
        21     7.93094246E+06   # mH1^2(Q)            
        22    -2.08264118E+05   # mH2^2(Q)            
        31     5.00000000E+03   # meL(Q)              
        32     5.00000000E+03   # mmuL(Q)             
        33     5.00000000E+03   # mtauL(Q)            
        34     5.00000000E+03   # meR(Q)              
        35     5.00000000E+03   # mmuR(Q)             
        36     5.00000000E+03   # mtauR(Q)            
        41     5.00000000E+03   # mqL1(Q)             
        42     5.00000000E+03   # mqL2(Q)             
        43     5.00000000E+03   # mqL3(Q)             
        44     5.00000000E+03   # muR(Q)              
        45     5.00000000E+03   # mcR(Q)              
        46     5.00000000E+03   # mtR(Q)              
        47     5.00000000E+03   # mdR(Q)              
        48     5.00000000E+03   # msR(Q)              
        49     5.00000000E+03   # mbR(Q)              
#
#
#
#                             =================
#                             |The decay table|
#                             =================
#
# - The QCD corrections to the decays gluino -> squark  + quark
#                                     squark -> gaugino + quark_prime
#                                     squark -> squark_prime + Higgs
#                                     squark -> gluino  + quark
#   are included.
#
# - The multi-body decays for the inos, stops and sbottoms are included.
#
# - The loop induced decays for the gluino, neutralinos and stops
#   are included.
#
# - The SUSY decays of the top quark are included.
#
#
#         PDG            Width
DECAY         6     1.40303217E+00   # top decays
#          BR         NDA      ID1       ID2
     1.00000000E+00    2           5        24   # BR(t ->  b    W+)
#
#         PDG            Width
DECAY   1000021     8.42894639E-06   # gluino decays
#          BR         NDA      ID1       ID2
     1.92518729E-05    2     1000022        21   # BR(~g -> ~chi_10 g)
     1.54541322E-03    2     1000023        21   # BR(~g -> ~chi_20 g)
     1.42958777E-03    2     1000025        21   # BR(~g -> ~chi_30 g)
#           BR         NDA      ID1       ID2       ID3
     8.28244401E-02    3     1000022         1        -1   # BR(~g -> ~chi_10 d  db)
     2.94517866E-08    3     1000023         1        -1   # BR(~g -> ~chi_20 d  db)
     1.45618112E-08    3     1000025         1        -1   # BR(~g -> ~chi_30 d  db)
     2.82383847E-01    3     1000022         2        -2   # BR(~g -> ~chi_10 u  ub)
     1.06556470E-07    3     1000023         2        -2   # BR(~g -> ~chi_20 u  ub)
     1.82369435E-08    3     1000025         2        -2   # BR(~g -> ~chi_30 u  ub)
     8.28244401E-02    3     1000022         3        -3   # BR(~g -> ~chi_10 s  sb)
     2.94517866E-08    3     1000023         3        -3   # BR(~g -> ~chi_20 s  sb)
     1.45618112E-08    3     1000025         3        -3   # BR(~g -> ~chi_30 s  sb)
     2.82383847E-01    3     1000022         4        -4   # BR(~g -> ~chi_10 c  cb)
     1.06556470E-07    3     1000023         4        -4   # BR(~g -> ~chi_20 c  cb)
     1.82369435E-08    3     1000025         4        -4   # BR(~g -> ~chi_30 c  cb)
     8.40842537E-02    3     1000022         5        -5   # BR(~g -> ~chi_10 b  bb)
     5.88457096E-06    3     1000023         5        -5   # BR(~g -> ~chi_20 b  bb)
     5.08900750E-06    3     1000025         5        -5   # BR(~g -> ~chi_30 b  bb)
     1.82493291E-01    3     1000022         6        -6   # BR(~g -> ~chi_10 t  tb)
     7.93273297E-08    3     1000024         1        -2   # BR(~g -> ~chi_1+ d  ub)
     7.93273297E-08    3    -1000024         2        -1   # BR(~g -> ~chi_1- u  db)
     7.93273297E-08    3     1000024         3        -4   # BR(~g -> ~chi_1+ s  cb)
     7.93273297E-08    3    -1000024         4        -3   # BR(~g -> ~chi_1- c  sb)
#
#         PDG            Width
DECAY   1000006     4.17520722E+02   # stop1 decays
#          BR         NDA      ID1       ID2
     2.10512069E-02    2     1000022         6   # BR(~t_1 -> ~chi_10 t )
     7.35151661E-02    2     1000023         6   # BR(~t_1 -> ~chi_20 t )
     7.05130423E-02    2     1000025         6   # BR(~t_1 -> ~chi_30 t )
     5.04973358E-03    2     1000035         6   # BR(~t_1 -> ~chi_40 t )
     1.05907946E-01    2     1000024         5   # BR(~t_1 -> ~chi_1+ b )
     1.00624758E-02    2     1000037         5   # BR(~t_1 -> ~chi_2+ b )
     7.13900429E-01    2     1000021         6   # BR(~t_1 -> ~g      t )
#
#         PDG            Width
DECAY   2000006     4.18077617E+02   # stop2 decays
#          BR         NDA      ID1       ID2
     8.54323366E-03    2     1000022         6   # BR(~t_2 -> ~chi_10 t )
     7.48480859E-02    2     1000023         6   # BR(~t_2 -> ~chi_20 t )
     7.81443123E-02    2     1000025         6   # BR(~t_2 -> ~chi_30 t )
     1.30909507E-02    2     1000035         6   # BR(~t_2 -> ~chi_40 t )
     4.54679154E-02    2     1000024         5   # BR(~t_2 -> ~chi_1+ b )
     2.60517050E-02    2     1000037         5   # BR(~t_2 -> ~chi_2+ b )
     7.50766409E-01    2     1000021         6   # BR(~t_2 -> ~g      t )
     6.90946315E-04    2     1000006        25   # BR(~t_2 -> ~t_1    h )
     2.39644143E-03    2     1000006        23   # BR(~t_2 -> ~t_1    Z )
#
#         PDG            Width
DECAY   1000005     3.96185953E+02   # sbottom1 decays
#          BR         NDA      ID1       ID2
     1.95642221E-03    2     1000022         5   # BR(~b_1 -> ~chi_10 b )
     2.00409560E-03    2     1000023         5   # BR(~b_1 -> ~chi_20 b )
     1.95796593E-03    2     1000025         5   # BR(~b_1 -> ~chi_30 b )
     1.89324070E-02    2     1000035         5   # BR(~b_1 -> ~chi_40 b )
     1.56779207E-01    2    -1000024         6   # BR(~b_1 -> ~chi_1- t )
     3.80307198E-02    2    -1000037         6   # BR(~b_1 -> ~chi_2- t )
     7.78902863E-01    2     1000021         5   # BR(~b_1 -> ~g      b )
     1.43632009E-03    2     1000006       -24   # BR(~b_1 -> ~t_1    W-)
#
#         PDG            Width
DECAY   2000005     3.17384747E+02   # sbottom2 decays
#          BR         NDA      ID1       ID2
     9.26855954E-03    2     1000022         5   # BR(~b_2 -> ~chi_10 b )
     2.50739927E-03    2     1000023         5   # BR(~b_2 -> ~chi_20 b )
     2.57011958E-03    2     1000025         5   # BR(~b_2 -> ~chi_30 b )
     1.26941253E-04    2     1000035         5   # BR(~b_2 -> ~chi_40 b )
     5.99605317E-03    2    -1000024         6   # BR(~b_2 -> ~chi_1- t )
     2.54963782E-04    2    -1000037         6   # BR(~b_2 -> ~chi_2- t )
     9.79238304E-01    2     1000021         5   # BR(~b_2 -> ~g      b )
     3.76595408E-05    2     1000006       -24   # BR(~b_2 -> ~t_1    W-)
#
#         PDG            Width
DECAY   1000002     3.36289384E+02   # sup_L decays
#          BR         NDA      ID1       ID2
     2.22233461E-03    2     1000022         2   # BR(~u_L -> ~chi_10 u)
     4.59989854E-05    2     1000023         2   # BR(~u_L -> ~chi_20 u)
     3.68392068E-06    2     1000025         2   # BR(~u_L -> ~chi_30 u)
     2.32238308E-02    2     1000035         2   # BR(~u_L -> ~chi_40 u)
     1.55782069E-04    2     1000024         1   # BR(~u_L -> ~chi_1+ d)
     4.64169985E-02    2     1000037         1   # BR(~u_L -> ~chi_2+ d)
     9.27931371E-01    2     1000021         2   # BR(~u_L -> ~g      u)
#
#         PDG            Width
DECAY   2000002     3.22707872E+02   # sup_R decays
#          BR         NDA      ID1       ID2
     3.68502149E-02    2     1000022         2   # BR(~u_R -> ~chi_10 u)
     3.92879089E-05    2     1000023         2   # BR(~u_R -> ~chi_20 u)
     4.55131937E-05    2     1000025         2   # BR(~u_R -> ~chi_30 u)
     2.30270716E-09    2     1000035         2   # BR(~u_R -> ~chi_40 u)
     9.63064982E-01    2     1000021         2   # BR(~u_R -> ~g      u)
#
#         PDG            Width
DECAY   1000001     3.36298488E+02   # sdown_L decays
#          BR         NDA      ID1       ID2
     2.21357521E-03    2     1000022         1   # BR(~d_L -> ~chi_10 d)
     1.37363580E-05    2     1000023         1   # BR(~d_L -> ~chi_20 d)
     2.73577571E-05    2     1000025         1   # BR(~d_L -> ~chi_30 d)
     2.32376809E-02    2     1000035         1   # BR(~d_L -> ~chi_40 d)
     5.58682760E-06    2    -1000024         2   # BR(~d_L -> ~chi_1- u)
     4.64941679E-02    2    -1000037         2   # BR(~d_L -> ~chi_2- u)
     9.28007895E-01    2     1000021         1   # BR(~d_L -> ~g      d)
#
#         PDG            Width
DECAY   2000001     3.13789348E+02   # sdown_R decays
#          BR         NDA      ID1       ID2
     9.47493751E-03    2     1000022         1   # BR(~d_R -> ~chi_10 d)
     1.01017934E-05    2     1000023         1   # BR(~d_R -> ~chi_20 d)
     1.17024527E-05    2     1000025         1   # BR(~d_R -> ~chi_30 d)
     5.92152252E-10    2     1000035         1   # BR(~d_R -> ~chi_40 d)
     9.90503258E-01    2     1000021         1   # BR(~d_R -> ~g      d)
#
#         PDG            Width
DECAY   1000004     3.36289384E+02   # scharm_L decays
#          BR         NDA      ID1       ID2
     2.22233461E-03    2     1000022         4   # BR(~c_L -> ~chi_10 c)
     4.59989854E-05    2     1000023         4   # BR(~c_L -> ~chi_20 c)
     3.68392068E-06    2     1000025         4   # BR(~c_L -> ~chi_30 c)
     2.32238308E-02    2     1000035         4   # BR(~c_L -> ~chi_40 c)
     1.55782069E-04    2     1000024         3   # BR(~c_L -> ~chi_1+ s)
     4.64169985E-02    2     1000037         3   # BR(~c_L -> ~chi_2+ s)
     9.27931371E-01    2     1000021         4   # BR(~c_L -> ~g      c)
#
#         PDG            Width
DECAY   2000004     3.22707872E+02   # scharm_R decays
#          BR         NDA      ID1       ID2
     3.68502149E-02    2     1000022         4   # BR(~c_R -> ~chi_10 c)
     3.92879089E-05    2     1000023         4   # BR(~c_R -> ~chi_20 c)
     4.55131937E-05    2     1000025         4   # BR(~c_R -> ~chi_30 c)
     2.30270716E-09    2     1000035         4   # BR(~c_R -> ~chi_40 c)
     9.63064982E-01    2     1000021         4   # BR(~c_R -> ~g      c)
#
#         PDG            Width
DECAY   1000003     3.36298488E+02   # sstrange_L decays
#          BR         NDA      ID1       ID2
     2.21357521E-03    2     1000022         3   # BR(~s_L -> ~chi_10 s)
     1.37363580E-05    2     1000023         3   # BR(~s_L -> ~chi_20 s)
     2.73577571E-05    2     1000025         3   # BR(~s_L -> ~chi_30 s)
     2.32376809E-02    2     1000035         3   # BR(~s_L -> ~chi_40 s)
     5.58682760E-06    2    -1000024         4   # BR(~s_L -> ~chi_1- c)
     4.64941679E-02    2    -1000037         4   # BR(~s_L -> ~chi_2- c)
     9.28007895E-01    2     1000021         3   # BR(~s_L -> ~g      s)
#
#         PDG            Width
DECAY   2000003     3.13789348E+02   # sstrange_R decays
#          BR         NDA      ID1       ID2
     9.47493751E-03    2     1000022         3   # BR(~s_R -> ~chi_10 s)
     1.01017934E-05    2     1000023         3   # BR(~s_R -> ~chi_20 s)
     1.17024527E-05    2     1000025         3   # BR(~s_R -> ~chi_30 s)
     5.92152252E-10    2     1000035         3   # BR(~s_R -> ~chi_40 s)
     9.90503258E-01    2     1000021         3   # BR(~s_R -> ~g      s)
#
#         PDG            Width
DECAY   1000011     3.02848560E+01   # selectron_L decays
#          BR         NDA      ID1       ID2
     2.26242845E-01    2     1000022        11   # BR(~e_L -> ~chi_10 e-)
     1.09937761E-03    2     1000023        11   # BR(~e_L -> ~chi_20 e-)
     2.19042314E-05    2     1000025        11   # BR(~e_L -> ~chi_30 e-)
     2.57349003E-01    2     1000035        11   # BR(~e_L -> ~chi_40 e-)
     6.31923592E-05    2    -1000024        12   # BR(~e_L -> ~chi_1- nu_e)
     5.15223677E-01    2    -1000037        12   # BR(~e_L -> ~chi_2- nu_e)
#
#         PDG            Width
DECAY   2000011     2.73795697E+01   # selectron_R decays
#          BR         NDA      ID1       ID2
     9.97706754E-01    2     1000022        11   # BR(~e_R -> ~chi_10 e-)
     1.06242305E-03    2     1000023        11   # BR(~e_R -> ~chi_20 e-)
     1.23076161E-03    2     1000025        11   # BR(~e_R -> ~chi_30 e-)
     6.11237950E-08    2     1000035        11   # BR(~e_R -> ~chi_40 e-)
#
#         PDG            Width
DECAY   1000013     3.02848560E+01   # smuon_L decays
#          BR         NDA      ID1       ID2
     2.26242845E-01    2     1000022        13   # BR(~mu_L -> ~chi_10 mu-)
     1.09937761E-03    2     1000023        13   # BR(~mu_L -> ~chi_20 mu-)
     2.19042314E-05    2     1000025        13   # BR(~mu_L -> ~chi_30 mu-)
     2.57349003E-01    2     1000035        13   # BR(~mu_L -> ~chi_40 mu-)
     6.31923592E-05    2    -1000024        14   # BR(~mu_L -> ~chi_1- nu_mu)
     5.15223677E-01    2    -1000037        14   # BR(~mu_L -> ~chi_2- nu_mu)
#
#         PDG            Width
DECAY   2000013     2.73795697E+01   # smuon_R decays
#          BR         NDA      ID1       ID2
     9.97706754E-01    2     1000022        13   # BR(~mu_R -> ~chi_10 mu-)
     1.06242305E-03    2     1000023        13   # BR(~mu_R -> ~chi_20 mu-)
     1.23076161E-03    2     1000025        13   # BR(~mu_R -> ~chi_30 mu-)
     6.11237950E-08    2     1000035        13   # BR(~mu_R -> ~chi_40 mu-)
#
#         PDG            Width
DECAY   1000015     2.91519578E+01   # stau_1 decays
#          BR         NDA      ID1       ID2
     9.30352326E-01    2     1000022        15   # BR(~tau_1 -> ~chi_10  tau-)
     1.60515922E-02    2     1000023        15   # BR(~tau_1 -> ~chi_20  tau-)
     1.53788410E-02    2     1000025        15   # BR(~tau_1 -> ~chi_30  tau-)
     2.73357729E-03    2     1000035        15   # BR(~tau_1 -> ~chi_40  tau-)
     3.00111557E-02    2    -1000024        16   # BR(~tau_1 -> ~chi_1-  nu_tau)
     5.47250772E-03    2    -1000037        16   # BR(~tau_1 -> ~chi_2-  nu_tau)
#
#         PDG            Width
DECAY   2000015     3.11280023E+01   # stau_2 decays
#          BR         NDA      ID1       ID2
     2.26310237E-01    2     1000022        15   # BR(~tau_2 -> ~chi_10  tau-)
     1.51099443E-02    2     1000023        15   # BR(~tau_2 -> ~chi_20  tau-)
     1.47790771E-02    2     1000025        15   # BR(~tau_2 -> ~chi_30  tau-)
     2.47734914E-01    2     1000035        15   # BR(~tau_2 -> ~chi_40  tau-)
     8.93914034E-05    2    -1000024        16   # BR(~tau_2 -> ~chi_1-  nu_tau)
     4.95976436E-01    2    -1000037        16   # BR(~tau_2 -> ~chi_2-  nu_tau)
#
#         PDG            Width
DECAY   1000012     3.02877653E+01   # snu_eL decays
#          BR         NDA      ID1       ID2
     2.25875660E-01    2     1000022        12   # BR(~nu_eL -> ~chi_10 nu_e)
     4.48783427E-06    2     1000023        12   # BR(~nu_eL -> ~chi_20 nu_e)
     8.24955610E-04    2     1000025        12   # BR(~nu_eL -> ~chi_30 nu_e)
     2.57398141E-01    2     1000035        12   # BR(~nu_eL -> ~chi_40 nu_e)
     1.76163748E-03    2     1000024        11   # BR(~nu_eL -> ~chi_1+ e-)
     5.14135118E-01    2     1000037        11   # BR(~nu_eL -> ~chi_2+ e-)
#
#         PDG            Width
DECAY   1000014     3.02877653E+01   # snu_muL decays
#          BR         NDA      ID1       ID2
     2.25875660E-01    2     1000022        14   # BR(~nu_muL -> ~chi_10 nu_mu)
     4.48783427E-06    2     1000023        14   # BR(~nu_muL -> ~chi_20 nu_mu)
     8.24955610E-04    2     1000025        14   # BR(~nu_muL -> ~chi_30 nu_mu)
     2.57398141E-01    2     1000035        14   # BR(~nu_muL -> ~chi_40 nu_mu)
     1.76163748E-03    2     1000024        13   # BR(~nu_muL -> ~chi_1+ mu-)
     5.14135118E-01    2     1000037        13   # BR(~nu_muL -> ~chi_2+ mu-)
#
#         PDG            Width
DECAY   1000016     3.11566892E+01   # snu_tauL decays
#          BR         NDA      ID1       ID2
     2.19552283E-01    2     1000022        16   # BR(~nu_tauL -> ~chi_10 nu_tau)
     4.36213462E-06    2     1000023        16   # BR(~nu_tauL -> ~chi_20 nu_tau)
     8.01849386E-04    2     1000025        16   # BR(~nu_tauL -> ~chi_30 nu_tau)
     2.50126709E-01    2     1000035        16   # BR(~nu_tauL -> ~chi_40 nu_tau)
     2.99043690E-02    2     1000024        15   # BR(~nu_tauL -> ~chi_1+ tau-)
     4.99610428E-01    2     1000037        15   # BR(~nu_tauL -> ~chi_2+ tau-)
#
#         PDG            Width
DECAY   1000024     5.46533735E-01   # chargino1+ decays
#          BR         NDA      ID1       ID2
     1.00000000E+00    2     1000022        24   # BR(~chi_1+ -> ~chi_10  W+)
#
#         PDG            Width
DECAY   1000037     2.07801819E+01   # chargino2+ decays
#          BR         NDA      ID1       ID2
     2.53300855E-01    2     1000024        23   # BR(~chi_2+ -> ~chi_1+  Z )
     1.91065229E-04    2     1000022        24   # BR(~chi_2+ -> ~chi_10  W+)
     2.44309644E-01    2     1000023        24   # BR(~chi_2+ -> ~chi_20  W+)
     2.44207550E-01    2     1000025        24   # BR(~chi_2+ -> ~chi_30  W+)
     2.57989393E-01    2     1000024        25   # BR(~chi_2+ -> ~chi_1+  h )
     1.49269146E-06    2     1000022        37   # BR(~chi_2+ -> ~chi_10  H+)
#
#         PDG            Width
DECAY   1000022     0.00000000E+00   # neutralino1 decays
#
#         PDG            Width
DECAY   1000023     5.69260919E-01   # neutralino2 decays
#          BR         NDA      ID1       ID2
     5.35266205E-01    2     1000022        23   # BR(~chi_20 -> ~chi_10   Z )
     4.64733795E-01    2     1000022        25   # BR(~chi_20 -> ~chi_10   h )
#
#         PDG            Width
DECAY   1000025     5.70759655E-01   # neutralino3 decays
#          BR         NDA      ID1       ID2
     4.58780417E-01    2     1000022        23   # BR(~chi_30 -> ~chi_10   Z )
     5.41219583E-01    2     1000022        25   # BR(~chi_30 -> ~chi_10   h )
#
#         PDG            Width
DECAY   1000035     2.07958824E+01   # neutralino4 decays
#          BR         NDA      ID1       ID2
     4.00252176E-05    2     1000022        23   # BR(~chi_40 -> ~chi_10   Z )
     8.03576758E-02    2     1000023        23   # BR(~chi_40 -> ~chi_20   Z )
     1.72248719E-01    2     1000025        23   # BR(~chi_40 -> ~chi_30   Z )
     2.44906334E-01    2     1000024       -24   # BR(~chi_40 -> ~chi_1+   W-)
     2.44906334E-01    2    -1000024        24   # BR(~chi_40 -> ~chi_1-   W+)
     1.50848411E-04    2     1000022        25   # BR(~chi_40 -> ~chi_10   h )
     1.40498818E-06    2     1000022        35   # BR(~chi_40 -> ~chi_10   H )
     1.68049729E-07    2     1000022        36   # BR(~chi_40 -> ~chi_10   A )
     1.76837318E-01    2     1000023        25   # BR(~chi_40 -> ~chi_20   h )
     8.05511725E-02    2     1000025        25   # BR(~chi_40 -> ~chi_30   h )
#
#         PDG            Width
DECAY        25     4.01777901E-03   # h decays
#          BR         NDA      ID1       ID2
     6.17283393E-01    2           5        -5   # BR(h -> b       bb     )
     6.43150221E-02    2         -15        15   # BR(h -> tau+    tau-   )
     2.27700628E-04    2         -13        13   # BR(h -> mu+     mu-    )
     4.83062383E-04    2           3        -3   # BR(h -> s       sb     )
     2.09321860E-02    2           4        -4   # BR(h -> c       cb     )
     6.71741554E-02    2          21        21   # BR(h -> g       g      )
     2.29884230E-03    2          22        22   # BR(h -> gam     gam    )
     1.44341381E-03    2          22        23   # BR(h -> Z       gam    )
     2.01923787E-01    2          24       -24   # BR(h -> W+      W-     )
     2.38639901E-02    2          23        23   # BR(h -> Z       Z      )
     5.44474942E-05    2     1000022   1000022   # BR(h -> ~chi_10 ~chi_10)
#
#         PDG            Width
DECAY        35     8.24089725E+00   # H decays
#          BR         NDA      ID1       ID2
     3.90854368E-01    2           5        -5   # BR(H -> b       bb     )
     6.76651028E-02    2         -15        15   # BR(H -> tau+    tau-   )
     2.39269178E-04    2         -13        13   # BR(H -> mu+     mu-    )
     2.93307497E-04    2           3        -3   # BR(H -> s       sb     )
     1.63765252E-06    2           4        -4   # BR(H -> c       cb     )
     1.63614450E-01    2           6        -6   # BR(H -> t       tb     )
     5.43483815E-05    2          21        21   # BR(H -> g       g      )
     2.37638422E-07    2          22        22   # BR(H -> gam     gam    )
     9.64865449E-08    2          23        22   # BR(H -> Z       gam    )
     7.51107977E-05    2          24       -24   # BR(H -> W+      W-     )
     3.75078503E-05    2          23        23   # BR(H -> Z       Z      )
     2.80271531E-04    2          25        25   # BR(H -> h       h      )
     2.70692648E-23    2          36        36   # BR(H -> A       A      )
     6.25995860E-19    2          23        36   # BR(H -> Z       A      )
     2.30021473E-03    2     1000024  -1000024   # BR(H -> ~chi_1+ ~chi_1-)
     2.16511143E-03    2     1000022   1000022   # BR(H -> ~chi_10 ~chi_10)
     1.59471984E-05    2     1000023   1000023   # BR(H -> ~chi_20 ~chi_20)
     7.55031857E-04    2     1000025   1000025   # BR(H -> ~chi_30 ~chi_30)
     2.23186902E-01    2     1000022   1000023   # BR(H -> ~chi_10 ~chi_20)
     1.47717478E-01    2     1000022   1000025   # BR(H -> ~chi_10 ~chi_30)
     7.43608181E-04    2     1000023   1000025   # BR(H -> ~chi_20 ~chi_30)
#
#         PDG            Width
DECAY        36     8.25500844E+00   # A decays
#          BR         NDA      ID1       ID2
     3.90318981E-01    2           5        -5   # BR(A -> b       bb     )
     6.75514663E-02    2         -15        15   # BR(A -> tau+    tau-   )
     2.38867017E-04    2         -13        13   # BR(A -> mu+     mu-    )
     2.93028302E-04    2           3        -3   # BR(A -> s       sb     )
     1.64156229E-06    2           4        -4   # BR(A -> c       cb     )
     1.63914584E-01    2           6        -6   # BR(A -> t       tb     )
     1.62270860E-04    2          21        21   # BR(A -> g       g      )
     5.87670554E-07    2          22        22   # BR(A -> gam     gam    )
     1.96354766E-07    2          23        22   # BR(A -> Z       gam    )
     7.47018556E-05    2          23        25   # BR(A -> Z       h      )
     3.31202028E-03    2     1000024  -1000024   # BR(A -> ~chi_1+ ~chi_1-)
     2.19927036E-03    2     1000022   1000022   # BR(A -> ~chi_10 ~chi_10)
     1.62697177E-05    2     1000023   1000023   # BR(A -> ~chi_20 ~chi_20)
     1.80620765E-03    2     1000025   1000025   # BR(A -> ~chi_30 ~chi_30)
     1.49732688E-01    2     1000022   1000023   # BR(A -> ~chi_10 ~chi_20)
     2.20100084E-01    2     1000022   1000025   # BR(A -> ~chi_10 ~chi_30)
     2.77135214E-04    2     1000023   1000025   # BR(A -> ~chi_20 ~chi_30)
#
#         PDG            Width
DECAY        37     8.19170169E+00   # H+ decays
#          BR         NDA      ID1       ID2
     6.25434341E-04    2           4        -5   # BR(H+ -> c       bb     )
     6.81006790E-02    2         -15        16   # BR(H+ -> tau+    nu_tau )
     2.40809073E-04    2         -13        14   # BR(H+ -> mu+     nu_mu  )
     4.00275892E-06    2           2        -5   # BR(H+ -> u       bb     )
     1.41299810E-05    2           2        -3   # BR(H+ -> u       sb     )
     2.92205967E-04    2           4        -3   # BR(H+ -> c       sb     )
     5.52647037E-01    2           6        -5   # BR(H+ -> t       bb     )
     7.54178058E-05    2          24        25   # BR(H+ -> W+      h      )
     3.94434080E-13    2          24        36   # BR(H+ -> W+      A      )
     3.76852207E-01    2     1000024   1000022   # BR(H+ -> ~chi_1+ ~chi_10)
     1.12625708E-03    2     1000024   1000023   # BR(H+ -> ~chi_1+ ~chi_20)
     2.18200413E-05    2     1000024   1000025   # BR(H+ -> ~chi_1+ ~chi_30)
