#
#                              ======================
#                              | THE SUSYHIT OUTPUT |
#                              ======================
#
#
#              ------------------------------------------------------
#              |     This is the output of the SUSY-HIT package     |
#              |  created by A.Djouadi, M.Muehlleitner and M.Spira. |
#              |  In case of problems with SUSY-HIT email to        |
#              |           margarete.muehlleitner@kit.edu           |
#              |           michael.spira@psi.ch                     |
#              |           abdelhak.djouadi@cern.ch                 |
#              ------------------------------------------------------
#
#              ------------------------------------------------------
#              |  SUSY Les Houches Accord - MSSM Spectrum + Decays  |
#              |              based on the decay programs           |
#              |                                                    |
#              |                     SDECAY 1.5                     |
#              |                                                    |
#              |  Authors: M.Muhlleitner, A.Djouadi and Y.Mambrini  |
#              |  Ref.:    Comput.Phys.Commun.168(2005)46           |
#              |           [hep-ph/0311167]                         |
#              |                                                    |
#              |                     HDECAY 3.4                     |
#              |                                                    |
#              |  By: A.Djouadi,J.Kalinowski,M.Muhlleitner,M.Spira  |
#              |  Ref.:    Comput.Phys.Commun.108(1998)56           |
#              |           [hep-ph/9704448]                         |
#              |                                                    |
#              |                                                    |
#              |  If not stated otherwise all DRbar couplings and   |
#              |  soft SUSY breaking masses are given at the scale  |
#              |  Q=  0.91187600E+02
#              |                                                    |
#              ------------------------------------------------------
#
#
BLOCK DCINFO  # Decay Program information
     1   SDECAY/HDECAY # decay calculator
     2   1.5  /3.4    # version number
#
BLOCK SPINFO  # Spectrum calculator information
     1   SuSpect     # RGE +Spectrum calculator            
     2   2.43         # version number                     
#
BLOCK MODSEL  # Model selection
     1     2   # GMSB                                              
#
BLOCK SMINPUTS  # Standard Model inputs
         1     1.27932904E+02   # alpha_em^-1(M_Z)^MSbar
         2     1.16639000E-05   # G_F [GeV^-2]
         3     1.17200000E-01   # alpha_S(M_Z)^MSbar
         4     9.11870000E+01   # M_Z pole mass
         5     4.25000000E+00   # mb(mb)^MSbar
         6     1.72900000E+02   # mt pole mass
         7     1.77700000E+00   # mtau pole mass
#
BLOCK MINPAR  # Input parameters - minimal models
#
BLOCK EXTPAR  # Input parameters - non-minimal models
         0     9.11876000E+01   # EWSB                
         1     4.63000000E+02   # M_1                 
         2     3.00000000E+03   # M_2                 
         3     1.50000000E+03   # M_3                 
        11     0.00000000E+00   # A_t                 
        12     0.00000000E+00   # A_b                 
        13     0.00000000E+00   # A_tau               
        14     0.00000000E+00   # A_u                 
        15     0.00000000E+00   # A_d                 
        16     0.00000000E+00   # A_e                 
        23     4.50000000E+02   # mu(EWSB)            
        25     1.50000000E+00   # tanbeta(in)         
        26     2.00000000E+03   # MA_pole             
        31     5.00000000E+03   # M_eL                
        32     5.00000000E+03   # M_muL               
        33     5.00000000E+03   # M_tauL              
        34     5.00000000E+03   # M_eR                
        35     5.00000000E+03   # M_muR               
        36     5.00000000E+03   # M_tauR              
        41     5.00000000E+03   # M_q1L               
        42     5.00000000E+03   # M_q2L               
        43     5.00000000E+03   # M_q3L               
        44     5.00000000E+03   # M_uR                
        45     5.00000000E+03   # M_cR                
        46     5.00000000E+03   # M_tR                
        47     5.00000000E+03   # M_dR                
        48     5.00000000E+03   # M_sR                
        49     5.00000000E+03   # M_bR                
#
BLOCK MASS  # Mass Spectrum
# PDG code           mass       particle
        24     8.05385987E+01   # W+
        25     1.26000000E+02   # h
        35     2.00420645E+03   # H
        36     2.00000000E+03   # A
        37     2.00202857E+03   # H+
         5     4.87877839E+00   # b-quark pole mass calculated from mb(mb)_Msbar
   1000001     4.98868344E+03   # ~d_L
   2000001     4.98857373E+03   # ~d_R
   1000002     4.98843823E+03   # ~u_L
   2000002     4.98849635E+03   # ~u_R
   1000003     4.98868344E+03   # ~s_L
   2000003     4.98857373E+03   # ~s_R
   1000004     4.98843823E+03   # ~c_L
   2000004     4.98849635E+03   # ~c_R
   1000005     4.98843654E+03   # ~b_1
   2000005     4.98882210E+03   # ~b_2
   1000006     5.11807922E+03   # ~t_1
   2000006     5.41663554E+03   # ~t_2
   1000011     5.00008242E+03   # ~e_L
   2000011     5.00007600E+03   # ~e_R
   1000012     4.99984157E+03   # ~nu_eL
   1000013     5.00008242E+03   # ~mu_L
   2000013     5.00007600E+03   # ~mu_R
   1000014     4.99984157E+03   # ~nu_muL
   1000015     4.99995950E+03   # ~tau_1
   2000015     5.00019955E+03   # ~tau_2
   1000016     4.99984157E+03   # ~nu_tauL
   1000021     1.61387184E+03   # ~g
   1000022     4.42357761E+02   # ~chi_10
   1000023    -4.84179673E+02   # ~chi_20
   1000025     5.29929632E+02   # ~chi_30
   1000035     3.12901600E+03   # ~chi_40
   1000024     4.81824693E+02   # ~chi_1+
   1000037     3.12901544E+03   # ~chi_2+
   1000039     1.00000000E-09   # ~gravitino
#
BLOCK NMIX  # Neutralino Mixing Matrix
  1  1     6.70733231E-01   # N_11
  1  2    -2.13918813E-02   # N_12
  1  3     5.28937511E-01   # N_13
  1  4    -5.19504022E-01   # N_14
  2  1     8.97809447E-03   # N_21
  2  2    -4.31379370E-03   # N_22
  2  3    -7.06541226E-01   # N_23
  2  4    -7.07601781E-01   # N_24
  3  1     7.41644172E-01   # N_31
  3  2     2.00709822E-02   # N_32
  3  3    -4.69799070E-01   # N_33
  3  4     4.78382600E-01   # N_34
  4  1     4.98770937E-04   # N_41
  4  2    -9.99560370E-01   # N_42
  4  3    -1.77042075E-02   # N_43
  4  4     2.37776785E-02   # N_44
#
BLOCK UMIX  # Chargino Mixing Matrix U
  1  1    -2.50285603E-02   # U_11
  1  2     9.99686737E-01   # U_12
  2  1     9.99686737E-01   # U_21
  2  2     2.50285603E-02   # U_22
#
BLOCK VMIX  # Chargino Mixing Matrix V
  1  1    -3.36207562E-02   # V_11
  1  2     9.99434663E-01   # V_12
  2  1     9.99434663E-01   # V_21
  2  2     3.36207562E-02   # V_22
#
BLOCK STOPMIX  # Stop Mixing Matrix
  1  1     9.99905601E-01   # cos(theta_t)
  1  2    -1.37400542E-02   # sin(theta_t)
  2  1     1.37400542E-02   # -sin(theta_t)
  2  2     9.99905601E-01   # cos(theta_t)
#
BLOCK SBOTMIX  # Sbottom Mixing Matrix
  1  1     5.98102657E-01   # cos(theta_b)
  1  2     8.01419498E-01   # sin(theta_b)
  2  1    -8.01419498E-01   # -sin(theta_b)
  2  2     5.98102657E-01   # cos(theta_b)
#
BLOCK STAUMIX  # Stau Mixing Matrix
  1  1     6.97597316E-01   # cos(theta_tau)
  1  2     7.16490045E-01   # sin(theta_tau)
  2  1    -7.16490045E-01   # -sin(theta_tau)
  2  2     6.97597316E-01   # cos(theta_tau)
#
BLOCK ALPHA  # Higgs mixing
          -5.90205915E-01   # Mixing angle in the neutral Higgs boson sector
#
BLOCK HMIX Q=  9.11876000E+01  # DRbar Higgs Parameters
         1     4.50000000E+02   # mu(Q)               
         2     1.49999979E+00   # tanbeta(Q)          
         3     2.51890233E+02   # vev(Q)              
         4     3.76590762E+06   # MA^2(Q)             
#
BLOCK GAUGE Q=  9.11876000E+01  # The gauge couplings
     1     3.52960500E-01   # gprime(Q) DRbar
     2     6.28305298E-01   # g(Q) DRbar
     3     1.08507311E+00   # g3(Q) DRbar
#
BLOCK AU Q=  9.11876000E+01  # The trilinear couplings
  1  1     0.00000000E+00   # A_u(Q) DRbar
  2  2     0.00000000E+00   # A_c(Q) DRbar
  3  3     0.00000000E+00   # A_t(Q) DRbar
#
BLOCK AD Q=  9.11876000E+01  # The trilinear couplings
  1  1     0.00000000E+00   # A_d(Q) DRbar
  2  2     0.00000000E+00   # A_s(Q) DRbar
  3  3     0.00000000E+00   # A_b(Q) DRbar
#
BLOCK AE Q=  9.11876000E+01  # The trilinear couplings
  1  1     0.00000000E+00   # A_e(Q) DRbar
  2  2     0.00000000E+00   # A_mu(Q) DRbar
  3  3     0.00000000E+00   # A_tau(Q) DRbar
#
BLOCK Yu Q=  9.11876000E+01  # The Yukawa couplings
  1  1     0.00000000E+00   # y_u(Q) DRbar
  2  2     0.00000000E+00   # y_c(Q) DRbar
  3  3     1.02636599E+00   # y_t(Q) DRbar
#
BLOCK Yd Q=  9.11876000E+01  # The Yukawa couplings
  1  1     0.00000000E+00   # y_d(Q) DRbar
  2  2     0.00000000E+00   # y_s(Q) DRbar
  3  3     2.72178486E-02   # y_b(Q) DRbar
#
BLOCK Ye Q=  9.11876000E+01  # The Yukawa couplings
  1  1     0.00000000E+00   # y_e(Q) DRbar
  2  2     0.00000000E+00   # y_mu(Q) DRbar
  3  3     1.79913753E-02   # y_tau(Q) DRbar
#
BLOCK MSOFT Q=  9.11876000E+01  # The soft SUSY breaking masses at the scale Q
         1     4.63000000E+02   # M_1                 
         2     3.00000000E+03   # M_2                 
         3     1.50000000E+03   # M_3                 
        14     0.00000000E+00   # A_u                 
        15     0.00000000E+00   # A_d                 
        16     0.00000000E+00   # A_e                 
        21     2.83442116E+06   # M^2_Hd              
        22    -5.65736292E+06   # M^2_Hu              
        31     5.00000000E+03   # M_eL                
        32     5.00000000E+03   # M_muL               
        33     5.00000000E+03   # M_tauL              
        34     5.00000000E+03   # M_eR                
        35     5.00000000E+03   # M_muR               
        36     5.00000000E+03   # M_tauR              
        41     5.00000000E+03   # M_q1L               
        42     5.00000000E+03   # M_q2L               
        43     5.00000000E+03   # M_q3L               
        44     5.00000000E+03   # M_uR                
        45     5.00000000E+03   # M_cR                
        46     5.00000000E+03   # M_tR                
        47     5.00000000E+03   # M_dR                
        48     5.00000000E+03   # M_sR                
        49     5.00000000E+03   # M_bR                
#
#
#
#                             =================
#                             |The decay table|
#                             =================
#
# - The QCD corrections to the decays gluino -> squark  + quark
#                                     squark -> gaugino + quark_prime
#                                     squark -> squark_prime + Higgs
#                                     squark -> gluino  + quark
#   are included.
#
# - The multi-body decays for the inos, stops and sbottoms are included.
#
# - The loop induced decays for the gluino, neutralinos and stops
#   are included.
#
# - The SUSY decays of the top quark are included.
#
# - Possible decays of the NLSP in GMSB models are included.
#
#
#         PDG            Width
DECAY         6     1.37553478E+00   # top decays
#          BR         NDA      ID1       ID2
     1.00000000E+00    2           5        24   # BR(t ->  b    W+)
#
#         PDG            Width
DECAY   1000021     6.39558177E-04   # gluino decays
#          BR         NDA      ID1       ID2
     9.59392752E-03    2     1000022        21   # BR(~g -> ~chi_10 g)
     1.67647545E-02    2     1000023        21   # BR(~g -> ~chi_20 g)
     7.00719239E-03    2     1000025        21   # BR(~g -> ~chi_30 g)
#          BR         NDA      ID1       ID2
0.0E+00    2     1000039    21 # BR(~g -> ~G      g)
#           BR         NDA      ID1       ID2       ID3
     4.91464260E-03    3     1000022         1        -1   # BR(~g -> ~chi_10 d  db)
     1.17237238E-06    3     1000023         1        -1   # BR(~g -> ~chi_20 d  db)
     4.32662396E-03    3     1000025         1        -1   # BR(~g -> ~chi_30 d  db)
     1.52756399E-02    3     1000022         2        -2   # BR(~g -> ~chi_10 u  ub)
     1.29433961E-06    3     1000023         2        -2   # BR(~g -> ~chi_20 u  ub)
     1.58289009E-02    3     1000025         2        -2   # BR(~g -> ~chi_30 u  ub)
     4.91464260E-03    3     1000022         3        -3   # BR(~g -> ~chi_10 s  sb)
     1.17237238E-06    3     1000023         3        -3   # BR(~g -> ~chi_20 s  sb)
     4.32662396E-03    3     1000025         3        -3   # BR(~g -> ~chi_30 s  sb)
     1.52756399E-02    3     1000022         4        -4   # BR(~g -> ~chi_10 c  cb)
     1.29433961E-06    3     1000023         4        -4   # BR(~g -> ~chi_20 c  cb)
     1.58289009E-02    3     1000025         4        -4   # BR(~g -> ~chi_30 c  cb)
     5.02188012E-03    3     1000022         5        -5   # BR(~g -> ~chi_10 b  bb)
     2.20256855E-04    3     1000023         5        -5   # BR(~g -> ~chi_20 b  bb)
     4.43221562E-03    3     1000025         5        -5   # BR(~g -> ~chi_30 b  bb)
     1.10861746E-01    3     1000022         6        -6   # BR(~g -> ~chi_10 t  tb)
     1.80162194E-01    3     1000023         6        -6   # BR(~g -> ~chi_20 t  tb)
     1.02074474E-01    3     1000025         6        -6   # BR(~g -> ~chi_30 t  tb)
     9.25693928E-05    3     1000024         1        -2   # BR(~g -> ~chi_1+ d  ub)
     9.25693928E-05    3    -1000024         2        -1   # BR(~g -> ~chi_1- u  db)
     9.25693928E-05    3     1000024         3        -4   # BR(~g -> ~chi_1+ s  cb)
     9.25693928E-05    3    -1000024         4        -3   # BR(~g -> ~chi_1- c  sb)
     2.31543062E-01    3     1000024         5        -6   # BR(~g -> ~chi_1+ b  tb)
     2.31543062E-01    3    -1000024         6        -5   # BR(~g -> ~chi_1- t  bb)
#
#         PDG            Width
DECAY   1000006     3.16138257E+02   # stop1 decays
#          BR         NDA      ID1       ID2
     6.09586689E-02    2     1000022         6   # BR(~t_1 -> ~chi_10 t )
     1.14492716E-01    2     1000023         6   # BR(~t_1 -> ~chi_20 t )
     5.52354201E-02    2     1000025         6   # BR(~t_1 -> ~chi_30 t )
     2.42766950E-02    2     1000035         6   # BR(~t_1 -> ~chi_40 t )
     1.04781213E-04    2     1000024         5   # BR(~t_1 -> ~chi_1+ b )
     4.83752566E-02    2     1000037         5   # BR(~t_1 -> ~chi_2+ b )
     6.79678400E-01    2     1000021         6   # BR(~t_1 -> ~g      t )
     6.09367054E-03    2     1000005        24   # BR(~t_1 -> ~b_1    W+)
     1.07843919E-02    2     2000005        24   # BR(~t_1 -> ~b_2    W+)
#
#         PDG            Width
DECAY   2000006     3.95370021E+02   # stop2 decays
#          BR         NDA      ID1       ID2
     6.68448913E-02    2     1000022         6   # BR(~t_2 -> ~chi_10 t )
     9.75290225E-02    2     1000023         6   # BR(~t_2 -> ~chi_20 t )
     5.89623043E-02    2     1000025         6   # BR(~t_2 -> ~chi_30 t )
    -1.20898186E-05    2     1000035         6   # BR(~t_2 -> ~chi_40 t )
     1.95103461E-01    2     1000024         5   # BR(~t_2 -> ~chi_1+ b )
    -2.40530787E-05    2     1000037         5   # BR(~t_2 -> ~chi_2+ b )
     5.81466495E-01    2     1000021         6   # BR(~t_2 -> ~g      t )
    -5.23104218E-05    2     1000006        25   # BR(~t_2 -> ~t_1    h )
     2.64897556E-05    2     1000006        23   # BR(~t_2 -> ~t_1    Z )
     5.57877705E-05    2     1000005        24   # BR(~t_2 -> ~b_1    W+)
     1.00002155E-04    2     2000005        24   # BR(~t_2 -> ~b_2    W+)
#
#         PDG            Width
DECAY   1000005     2.25910316E+02   # sbottom1 decays
#          BR         NDA      ID1       ID2
     5.33712039E-03    2     1000022         5   # BR(~b_1 -> ~chi_10 b )
     8.73737082E-05    2     1000023         5   # BR(~b_1 -> ~chi_20 b )
     4.61632466E-03    2     1000025         5   # BR(~b_1 -> ~chi_30 b )
     6.35785600E-03    2     1000035         5   # BR(~b_1 -> ~chi_40 b )
     4.54583314E-02    2    -1000024         6   # BR(~b_1 -> ~chi_1- t )
     1.27550017E-02    2    -1000037         6   # BR(~b_1 -> ~chi_2- t )
     9.25387992E-01    2     1000021         5   # BR(~b_1 -> ~g      b )
#
#         PDG            Width
DECAY   2000005     2.86992306E+02   # sbottom2 decays
#          BR         NDA      ID1       ID2
     1.39119300E-03    2     1000022         5   # BR(~b_2 -> ~chi_10 b )
     1.08036064E-04    2     1000023         5   # BR(~b_2 -> ~chi_20 b )
     2.32288206E-03    2     1000025         5   # BR(~b_2 -> ~chi_30 b )
     1.93328250E-02    2     1000035         5   # BR(~b_2 -> ~chi_40 b )
     2.09856146E-01    2    -1000024         6   # BR(~b_2 -> ~chi_1- t )
     3.88108967E-02    2    -1000037         6   # BR(~b_2 -> ~chi_2- t )
     7.28178021E-01    2     1000021         5   # BR(~b_2 -> ~g      b )
#
#         PDG            Width
DECAY   1000002     2.30659119E+02   # sup_L decays
#          BR         NDA      ID1       ID2
     8.76431604E-04    2     1000022         2   # BR(~u_L -> ~chi_10 u)
     5.57644540E-07    2     1000023         2   # BR(~u_L -> ~chi_20 u)
     2.02528279E-03    2     1000025         2   # BR(~u_L -> ~chi_30 u)
     3.02633677E-02    2     1000035         2   # BR(~u_L -> ~chi_40 u)
     1.81933296E-04    2     1000024         1   # BR(~u_L -> ~chi_1+ d)
     6.05228501E-02    2     1000037         1   # BR(~u_L -> ~chi_2+ d)
     9.06129577E-01    2     1000021         2   # BR(~u_L -> ~g      u)
#
#         PDG            Width
DECAY   2000002     2.19416327E+02   # sup_R decays
#          BR         NDA      ID1       ID2
     2.14152653E-02    2     1000022         2   # BR(~u_R -> ~chi_10 u)
     3.82518071E-06    2     1000023         2   # BR(~u_R -> ~chi_20 u)
     2.60053755E-02    2     1000025         2   # BR(~u_R -> ~chi_30 u)
     4.44519324E-09    2     1000035         2   # BR(~u_R -> ~chi_40 u)
     9.52575530E-01    2     1000021         2   # BR(~u_R -> ~g      u)
#
#         PDG            Width
DECAY   1000001     2.30663308E+02   # sdown_L decays
#          BR         NDA      ID1       ID2
     1.74389323E-03    2     1000022         1   # BR(~d_L -> ~chi_10 d)
     2.89187604E-06    2     1000023         1   # BR(~d_L -> ~chi_20 d)
     1.13153171E-03    2     1000025         1   # BR(~d_L -> ~chi_30 d)
     3.02794475E-02    2     1000035         1   # BR(~d_L -> ~chi_40 d)
     1.00828518E-04    2    -1000024         2   # BR(~d_L -> ~chi_1- u)
     6.05629175E-02    2    -1000037         2   # BR(~d_L -> ~chi_2- u)
     9.06178490E-01    2     1000021         1   # BR(~d_L -> ~g      d)
#
#         PDG            Width
DECAY   2000001     2.11616850E+02   # sdown_R decays
#          BR         NDA      ID1       ID2
     5.55122922E-03    2     1000022         1   # BR(~d_R -> ~chi_10 d)
     9.91557036E-07    2     1000023         1   # BR(~d_R -> ~chi_20 d)
     6.74107131E-03    2     1000025         1   # BR(~d_R -> ~chi_30 d)
     1.15232083E-09    2     1000035         1   # BR(~d_R -> ~chi_40 d)
     9.87706707E-01    2     1000021         1   # BR(~d_R -> ~g      d)
#
#         PDG            Width
DECAY   1000004     2.30659119E+02   # scharm_L decays
#          BR         NDA      ID1       ID2
     8.76431604E-04    2     1000022         4   # BR(~c_L -> ~chi_10 c)
     5.57644540E-07    2     1000023         4   # BR(~c_L -> ~chi_20 c)
     2.02528279E-03    2     1000025         4   # BR(~c_L -> ~chi_30 c)
     3.02633677E-02    2     1000035         4   # BR(~c_L -> ~chi_40 c)
     1.81933296E-04    2     1000024         3   # BR(~c_L -> ~chi_1+ s)
     6.05228501E-02    2     1000037         3   # BR(~c_L -> ~chi_2+ s)
     9.06129577E-01    2     1000021         4   # BR(~c_L -> ~g      c)
#
#         PDG            Width
DECAY   2000004     2.19416327E+02   # scharm_R decays
#          BR         NDA      ID1       ID2
     2.14152653E-02    2     1000022         4   # BR(~c_R -> ~chi_10 c)
     3.82518071E-06    2     1000023         4   # BR(~c_R -> ~chi_20 c)
     2.60053755E-02    2     1000025         4   # BR(~c_R -> ~chi_30 c)
     4.44519324E-09    2     1000035         4   # BR(~c_R -> ~chi_40 c)
     9.52575530E-01    2     1000021         4   # BR(~c_R -> ~g      c)
#
#         PDG            Width
DECAY   1000003     2.30663308E+02   # sstrange_L decays
#          BR         NDA      ID1       ID2
     1.74389323E-03    2     1000022         3   # BR(~s_L -> ~chi_10 s)
     2.89187604E-06    2     1000023         3   # BR(~s_L -> ~chi_20 s)
     1.13153171E-03    2     1000025         3   # BR(~s_L -> ~chi_30 s)
     3.02794475E-02    2     1000035         3   # BR(~s_L -> ~chi_40 s)
     1.00828518E-04    2    -1000024         4   # BR(~s_L -> ~chi_1- c)
     6.05629175E-02    2    -1000037         4   # BR(~s_L -> ~chi_2- c)
     9.06178490E-01    2     1000021         3   # BR(~s_L -> ~g      s)
#
#         PDG            Width
DECAY   2000003     2.11616850E+02   # sstrange_R decays
#          BR         NDA      ID1       ID2
     5.55122922E-03    2     1000022         3   # BR(~s_R -> ~chi_10 s)
     9.91557036E-07    2     1000023         3   # BR(~s_R -> ~chi_20 s)
     6.74107131E-03    2     1000025         3   # BR(~s_R -> ~chi_30 s)
     1.15232083E-09    2     1000035         3   # BR(~s_R -> ~chi_40 s)
     9.87706707E-01    2     1000021         3   # BR(~s_R -> ~g      s)
#
#         PDG            Width
DECAY   1000011     2.79086934E+01   # selectron_L decays
#          BR         NDA      ID1       ID2
     8.74775736E-02    2     1000022        11   # BR(~e_L -> ~chi_10 e-)
     3.67702377E-07    2     1000023        11   # BR(~e_L -> ~chi_20 e-)
     1.31170645E-01    2     1000025        11   # BR(~e_L -> ~chi_30 e-)
     2.60020935E-01    2     1000035        11   # BR(~e_L -> ~chi_40 e-)
     8.65122637E-04    2    -1000024        12   # BR(~e_L -> ~chi_1- nu_e)
     5.20465356E-01    2    -1000037        12   # BR(~e_L -> ~chi_2- nu_e)
#
#         PDG            Width
DECAY   2000011     2.43065547E+01   # selectron_R decays
#          BR         NDA      ID1       ID2
     4.51585542E-01    2     1000022        11   # BR(~e_R -> ~chi_10 e-)
     8.06586196E-05    2     1000023        11   # BR(~e_R -> ~chi_20 e-)
     5.48333705E-01    2     1000025        11   # BR(~e_R -> ~chi_30 e-)
     9.38903410E-08    2     1000035        11   # BR(~e_R -> ~chi_40 e-)
#
#         PDG            Width
DECAY   1000013     2.79086934E+01   # smuon_L decays
#          BR         NDA      ID1       ID2
     8.74775736E-02    2     1000022        13   # BR(~mu_L -> ~chi_10 mu-)
     3.67702377E-07    2     1000023        13   # BR(~mu_L -> ~chi_20 mu-)
     1.31170645E-01    2     1000025        13   # BR(~mu_L -> ~chi_30 mu-)
     2.60020935E-01    2     1000035        13   # BR(~mu_L -> ~chi_40 mu-)
     8.65122637E-04    2    -1000024        14   # BR(~mu_L -> ~chi_1- nu_mu)
     5.20465356E-01    2    -1000037        14   # BR(~mu_L -> ~chi_2- nu_mu)
#
#         PDG            Width
DECAY   2000013     2.43065547E+01   # smuon_R decays
#          BR         NDA      ID1       ID2
     4.51585542E-01    2     1000022        13   # BR(~mu_R -> ~chi_10 mu-)
     8.06586196E-05    2     1000023        13   # BR(~mu_R -> ~chi_20 mu-)
     5.48333705E-01    2     1000025        13   # BR(~mu_R -> ~chi_30 mu-)
     9.38903410E-08    2     1000035        13   # BR(~mu_R -> ~chi_40 mu-)
#
#         PDG            Width
DECAY   1000015     2.61373114E+01   # stau_1 decays
#          BR         NDA      ID1       ID2
     2.67692176E-01    2     1000022        15   # BR(~tau_1 -> ~chi_10  tau-)
     4.44902442E-04    2     1000023        15   # BR(~tau_1 -> ~chi_20  tau-)
     3.24673687E-01    2     1000025        15   # BR(~tau_1 -> ~chi_30  tau-)
     1.34901834E-01    2     1000035        15   # BR(~tau_1 -> ~chi_40  tau-)
     2.12595273E-03    2    -1000024        16   # BR(~tau_1 -> ~chi_1-  nu_tau)
     2.70023804E-01    2    -1000037        16   # BR(~tau_1 -> ~chi_2-  nu_tau)
     1.37644203E-04    2     1000039        15   # BR(~tau_1 -> ~G       tau-)
#
#         PDG            Width
DECAY   2000015     2.61763139E+01   # stau_2 decays
#          BR         NDA      ID1       ID2
     2.45979012E-01    2     1000022        15   # BR(~tau_2 -> ~chi_10  tau-)
     8.36204301E-04    2     1000023        15   # BR(~tau_2 -> ~chi_20  tau-)
     3.25360132E-01    2     1000025        15   # BR(~tau_2 -> ~chi_30  tau-)
     1.42529168E-01    2     1000035        15   # BR(~tau_2 -> ~chi_40  tau-)
     6.10722180E-06    2    -1000024        16   # BR(~tau_2 -> ~chi_1-  nu_tau)
     2.85289377E-01    2    -1000037        16   # BR(~tau_2 -> ~chi_2-  nu_tau)
#
#         PDG            Width
DECAY   1000012     2.79076482E+01   # snu_eL decays
#          BR         NDA      ID1       ID2
     1.09805179E-01    2     1000022        12   # BR(~nu_eL -> ~chi_10 nu_e)
     6.04504244E-05    2     1000023        12   # BR(~nu_eL -> ~chi_20 nu_e)
     1.08162933E-01    2     1000025        12   # BR(~nu_eL -> ~chi_30 nu_e)
     2.60277574E-01    2     1000035        12   # BR(~nu_eL -> ~chi_40 nu_e)
     1.56104511E-03    2     1000024        11   # BR(~nu_eL -> ~chi_1+ e-)
     5.20132819E-01    2     1000037        11   # BR(~nu_eL -> ~chi_2+ e-)
#
#         PDG            Width
DECAY   1000014     2.79076482E+01   # snu_muL decays
#          BR         NDA      ID1       ID2
     1.09805179E-01    2     1000022        14   # BR(~nu_muL -> ~chi_10 nu_mu)
     6.04504244E-05    2     1000023        14   # BR(~nu_muL -> ~chi_20 nu_mu)
     1.08162933E-01    2     1000025        14   # BR(~nu_muL -> ~chi_30 nu_mu)
     2.60277574E-01    2     1000035        14   # BR(~nu_muL -> ~chi_40 nu_mu)
     1.56104511E-03    2     1000024        13   # BR(~nu_muL -> ~chi_1+ mu-)
     5.20132819E-01    2     1000037        13   # BR(~nu_muL -> ~chi_2+ mu-)
#
#         PDG            Width
DECAY   1000016     2.79392378E+01   # snu_tauL decays
#          BR         NDA      ID1       ID2
     1.09681027E-01    2     1000022        16   # BR(~nu_tauL -> ~chi_10 nu_tau)
     6.03820760E-05    2     1000023        16   # BR(~nu_tauL -> ~chi_20 nu_tau)
     1.08040638E-01    2     1000025        16   # BR(~nu_tauL -> ~chi_30 nu_tau)
     2.59983290E-01    2     1000035        16   # BR(~nu_tauL -> ~chi_40 nu_tau)
     2.68947548E-03    2     1000024        15   # BR(~nu_tauL -> ~chi_1+ tau-)
     5.19545187E-01    2     1000037        15   # BR(~nu_tauL -> ~chi_2+ tau-)
#
#         PDG            Width
DECAY   1000024     6.06777983E-05   # chargino1+ decays
#          BR         NDA      ID1       ID2
     2.21009556E-04    2     1000039        24   # BR(~chi_1+ -> ~G       W+)
#           BR         NDA      ID1       ID2       ID3
     3.33631196E-01    3     1000022         2        -1   # BR(~chi_1+ -> ~chi_10 u    db)
     3.33631196E-01    3     1000022         4        -3   # BR(~chi_1+ -> ~chi_10 c    sb)
     1.11210525E-01    3     1000022       -11        12   # BR(~chi_1+ -> ~chi_10 e+   nu_e)
     1.11210525E-01    3     1000022       -13        14   # BR(~chi_1+ -> ~chi_10 mu+  nu_mu)
     1.10095547E-01    3     1000022       -15        16   # BR(~chi_1+ -> ~chi_10 tau+ nu_tau)
#
#         PDG            Width
DECAY   1000037     3.50054031E+01   # chargino2+ decays
#          BR         NDA      ID1       ID2
     2.21826421E-01    2     1000024        23   # BR(~chi_2+ -> ~chi_1+  Z )
     1.12690420E-01    2     1000022        24   # BR(~chi_2+ -> ~chi_10  W+)
     2.16299223E-01    2     1000023        24   # BR(~chi_2+ -> ~chi_20  W+)
     1.03600377E-01    2     1000025        24   # BR(~chi_2+ -> ~chi_30  W+)
     2.22779571E-01    2     1000024        25   # BR(~chi_2+ -> ~chi_1+  h )
     3.05862961E-02    2     1000024        35   # BR(~chi_2+ -> ~chi_1+  H )
     3.08282703E-02    2     1000024        36   # BR(~chi_2+ -> ~chi_1+  A )
     1.80013079E-02    2     1000022        37   # BR(~chi_2+ -> ~chi_10  H+)
     3.05908167E-02    2     1000023        37   # BR(~chi_2+ -> ~chi_20  H+)
     1.27874613E-02    2     1000025        37   # BR(~chi_2+ -> ~chi_30  H+)
     9.83568133E-06    2     1000039        24   # BR(~chi_2+ -> ~G       W+)
     4.69042220E-10    2     1000039        37   # BR(~chi_2+ -> ~G       H+)
#
#         PDG            Width
DECAY   1000022    1.0E-05    # neutralino1 decays
#          BR         NDA      ID1       ID2
     5.00375733E-01    2     1000039        22   # BR(~chi_10 -> ~G        gam)
     4.89438266E-01    2     1000039        23   # BR(~chi_10 -> ~G        Z)
     1.01860010E-02    2     1000039        25   # BR(~chi_10 -> ~G        h)
#
#         PDG            Width
DECAY   1000023     6.55375349E-05   # neutralino2 decays
#          BR         NDA      ID1       ID2
     8.02785902E-04    2     1000022        22   # BR(~chi_20 -> ~chi_10 gam)
#          BR         NDA      ID1       ID2
     1.52659576E-08    2     1000039        22   # BR(~chi_20 -> ~G        gam)
     7.86478257E-06    2     1000039        23   # BR(~chi_20 -> ~G        Z)
     1.69947196E-04    2     1000039        25   # BR(~chi_20 -> ~G        h)
#           BR         NDA      ID1       ID2       ID3
     1.19103040E-01    3     1000022        -2         2   # BR(~chi_20 -> ~chi_10 ub      u)
     1.54184061E-01    3     1000022        -1         1   # BR(~chi_20 -> ~chi_10 db      d)
     1.19103040E-01    3     1000022        -4         4   # BR(~chi_20 -> ~chi_10 cb      c)
     1.54184061E-01    3     1000022        -3         3   # BR(~chi_20 -> ~chi_10 sb      s)
     1.36457266E-01    3     1000022        -5         5   # BR(~chi_20 -> ~chi_10 bb      b)
     3.51962610E-02    3     1000022       -11        11   # BR(~chi_20 -> ~chi_10 e+      e-)
     3.51962610E-02    3     1000022       -13        13   # BR(~chi_20 -> ~chi_10 mu+     mu-)
     3.47596134E-02    3     1000022       -15        15   # BR(~chi_20 -> ~chi_10 tau+    tau-)
     7.02778628E-02    3     1000022       -12        12   # BR(~chi_20 -> ~chi_10 nu_eb   nu_e)
     7.02778628E-02    3     1000022       -14        14   # BR(~chi_20 -> ~chi_10 nu_mub  nu_mu)
     7.02778628E-02    3     1000022       -16        16   # BR(~chi_20 -> ~chi_10 nu_taub nu_tau)
     4.09413485E-07    3     1000024        -2         1   # BR(~chi_20 -> ~chi_1+ ub      d)
     4.09413485E-07    3    -1000024        -1         2   # BR(~chi_20 -> ~chi_1- db      u)
     4.09413485E-07    3     1000024        -4         3   # BR(~chi_20 -> ~chi_1+ cb      s)
     4.09413485E-07    3    -1000024        -3         4   # BR(~chi_20 -> ~chi_1- sb      c)
     1.36471176E-07    3     1000024       -12        11   # BR(~chi_20 -> ~chi_1+ nu_eb   e-)
     1.36471176E-07    3    -1000024        12       -11   # BR(~chi_20 -> ~chi_1- nu_e    e+)
     1.36471176E-07    3     1000024       -14        13   # BR(~chi_20 -> ~chi_1+ nu_mub  mu-)
     1.36471176E-07    3    -1000024        14       -13   # BR(~chi_20 -> ~chi_1- nu_mu   mu+)
     4.82285296E-09    3     1000024       -16        15   # BR(~chi_20 -> ~chi_1+ nu_taub tau-)
     4.82285296E-09    3    -1000024        16       -15   # BR(~chi_20 -> ~chi_1- nu_tau  tau+)
#
#         PDG            Width
DECAY   1000025     3.74339880E-04   # neutralino3 decays
#          BR         NDA      ID1       ID2
     2.17110997E-04    2     1000022        22   # BR(~chi_30 -> ~chi_10 gam)
     5.21752005E-04    2     1000023        22   # BR(~chi_30 -> ~chi_20 gam)
#          BR         NDA      ID1       ID2
     5.53848131E-05    2     1000039        22   # BR(~chi_30 -> ~G        gam)
     3.83443297E-05    2     1000039        23   # BR(~chi_30 -> ~G        Z)
     9.41738048E-07    2     1000039        25   # BR(~chi_30 -> ~G        h)
#           BR         NDA      ID1       ID2       ID3
     3.33174967E-08    3     1000022        -2         2   # BR(~chi_30 -> ~chi_10 ub      u)
     3.61568050E-08    3     1000022        -1         1   # BR(~chi_30 -> ~chi_10 db      d)
     3.33174967E-08    3     1000022        -4         4   # BR(~chi_30 -> ~chi_10 cb      c)
     3.61568050E-08    3     1000022        -3         3   # BR(~chi_30 -> ~chi_10 sb      s)
     1.02188675E-06    3     1000022        -5         5   # BR(~chi_30 -> ~chi_10 bb      b)
     8.94126364E-08    3     1000022       -11        11   # BR(~chi_30 -> ~chi_10 e+      e-)
     8.94126364E-08    3     1000022       -13        13   # BR(~chi_30 -> ~chi_10 mu+     mu-)
     2.37234568E-07    3     1000022       -15        15   # BR(~chi_30 -> ~chi_10 tau+    tau-)
     5.58047236E-09    3     1000022       -12        12   # BR(~chi_30 -> ~chi_10 nu_eb   nu_e)
     5.58047236E-09    3     1000022       -14        14   # BR(~chi_30 -> ~chi_10 nu_mub  nu_mu)
     5.58047236E-09    3     1000022       -16        16   # BR(~chi_30 -> ~chi_10 nu_taub nu_tau)
     2.75003261E-02    3     1000023        -2         2   # BR(~chi_30 -> ~chi_20 ub      u)
     3.56004972E-02    3     1000023        -1         1   # BR(~chi_30 -> ~chi_20 db      d)
     2.75003261E-02    3     1000023        -4         4   # BR(~chi_30 -> ~chi_20 cb      c)
     3.56004972E-02    3     1000023        -3         3   # BR(~chi_30 -> ~chi_20 sb      s)
     3.21182298E-02    3     1000023        -5         5   # BR(~chi_30 -> ~chi_20 bb      b)
     8.12675429E-03    3     1000023       -11        11   # BR(~chi_30 -> ~chi_20 e+      e-)
     8.12675429E-03    3     1000023       -13        13   # BR(~chi_30 -> ~chi_20 mu+     mu-)
     8.03853541E-03    3     1000023       -15        15   # BR(~chi_30 -> ~chi_20 tau+    tau-)
     1.62267784E-02    3     1000023       -12        12   # BR(~chi_30 -> ~chi_20 nu_eb   nu_e)
     1.62267784E-02    3     1000023       -14        14   # BR(~chi_30 -> ~chi_20 nu_mub  nu_mu)
     1.62267784E-02    3     1000023       -16        16   # BR(~chi_30 -> ~chi_20 nu_taub nu_tau)
     1.28074375E-01    3     1000024        -2         1   # BR(~chi_30 -> ~chi_1+ ub      d)
     1.28074375E-01    3    -1000024        -1         2   # BR(~chi_30 -> ~chi_1- db      u)
     1.28074375E-01    3     1000024        -4         3   # BR(~chi_30 -> ~chi_1+ cb      s)
     1.28074375E-01    3    -1000024        -3         4   # BR(~chi_30 -> ~chi_1- sb      c)
     4.26913735E-02    3     1000024       -12        11   # BR(~chi_30 -> ~chi_1+ nu_eb   e-)
     4.26913735E-02    3    -1000024        12       -11   # BR(~chi_30 -> ~chi_1- nu_e    e+)
     4.26913735E-02    3     1000024       -14        13   # BR(~chi_30 -> ~chi_1+ nu_mub  mu-)
     4.26913735E-02    3    -1000024        14       -13   # BR(~chi_30 -> ~chi_1- nu_mu   mu+)
     4.24048114E-02    3     1000024       -16        15   # BR(~chi_30 -> ~chi_1+ nu_taub tau-)
     4.24048114E-02    3    -1000024        16       -15   # BR(~chi_30 -> ~chi_1- nu_tau  tau+)
#
#         PDG            Width
DECAY   1000035     3.50057981E+01   # neutralino4 decays
#          BR         NDA      ID1       ID2
     2.28652929E-03    2     1000022        23   # BR(~chi_40 -> ~chi_10   Z )
     2.17342810E-01    2     1000023        23   # BR(~chi_40 -> ~chi_20   Z )
     2.33092341E-03    2     1000025        23   # BR(~chi_40 -> ~chi_30   Z )
     2.16110898E-01    2     1000024       -24   # BR(~chi_40 -> ~chi_1+   W-)
     2.16110898E-01    2    -1000024        24   # BR(~chi_40 -> ~chi_1-   W+)
     1.13912166E-01    2     1000022        25   # BR(~chi_40 -> ~chi_10   h )
     1.89666157E-03    2     1000022        35   # BR(~chi_40 -> ~chi_10   H )
     1.60788547E-02    2     1000022        36   # BR(~chi_40 -> ~chi_10   A )
     4.60531754E-03    2     1000023        25   # BR(~chi_40 -> ~chi_20   h )
     2.72077881E-02    2     1000023        35   # BR(~chi_40 -> ~chi_20   H )
     3.30325494E-03    2     1000023        36   # BR(~chi_40 -> ~chi_20   A )
     1.04497894E-01    2     1000025        25   # BR(~chi_40 -> ~chi_30   h )
     1.35042490E-03    2     1000025        35   # BR(~chi_40 -> ~chi_30   H )
     1.14211830E-02    2     1000025        36   # BR(~chi_40 -> ~chi_30   A )
     3.07672812E-02    2     1000024       -37   # BR(~chi_40 -> ~chi_1+   H-)
     3.07672812E-02    2    -1000024        37   # BR(~chi_40 -> ~chi_1-   H+)
     2.36004593E-06    2     1000039        22   # BR(~chi_40 -> ~G        gam)
     7.47479713E-06    2     1000039        23   # BR(~chi_40 -> ~G        Z)
     4.80497809E-10    2     1000039        25   # BR(~chi_40 -> ~G        h)
     4.65784523E-10    2     1000039        35   # BR(~chi_40 -> ~G        H)
     1.43384850E-12    2     1000039        36   # BR(~chi_40 -> ~G        A)
#
#         PDG            Width
DECAY        25     4.21737327E-03   # h decays
#          BR         NDA      ID1       ID2
     6.01702770E-01    2           5        -5   # BR(h -> b       bb     )
     6.22540385E-02    2         -15        15   # BR(h -> tau+    tau-   )
     2.20352156E-04    2         -13        13   # BR(h -> mu+     mu-    )
     4.66222462E-04    2           3        -3   # BR(h -> s       sb     )
     2.01134349E-02    2           4        -4   # BR(h -> c       cb     )
     6.64233866E-02    2          21        21   # BR(h -> g       g      )
     2.31258332E-03    2          22        22   # BR(h -> gam     gam    )
     1.62687431E-03    2          22        23   # BR(h -> Z       gam    )
     2.16792826E-01    2          24       -24   # BR(h -> W+      W-     )
     2.80875124E-02    2          23        23   # BR(h -> Z       Z      )
#
#         PDG            Width
DECAY        35     3.99031017E+01   # H decays
#          BR         NDA      ID1       ID2
     1.39676676E-03    2           5        -5   # BR(H -> b       bb     )
     2.33523758E-04    2         -15        15   # BR(H -> tau+    tau-   )
     8.25593424E-07    2         -13        13   # BR(H -> mu+     mu-    )
     1.05704673E-06    2           3        -3   # BR(H -> s       sb     )
     9.53971181E-06    2           4        -4   # BR(H -> c       cb     )
     9.43915489E-01    2           6        -6   # BR(H -> t       tb     )
     7.55943122E-04    2          21        21   # BR(H -> g       g      )
     2.63733713E-06    2          22        22   # BR(H -> gam     gam    )
     1.09852841E-06    2          23        22   # BR(H -> Z       gam    )
     3.18293260E-04    2          24       -24   # BR(H -> W+      W-     )
     1.58712541E-04    2          23        23   # BR(H -> Z       Z      )
     8.57393199E-04    2          25        25   # BR(H -> h       h      )
     8.85587423E-24    2          36        36   # BR(H -> A       A      )
     3.56100159E-11    2          23        36   # BR(H -> Z       A      )
     3.22866980E-12    2          24       -37   # BR(H -> W+      H-     )
     3.22866980E-12    2         -24        37   # BR(H -> W-      H+     )
     5.65283470E-05    2     1000024  -1000024   # BR(H -> ~chi_1+ ~chi_1-)
     9.95165607E-04    2     1000022   1000022   # BR(H -> ~chi_10 ~chi_10)
     2.27679174E-05    2     1000023   1000023   # BR(H -> ~chi_20 ~chi_20)
     5.62235322E-04    2     1000025   1000025   # BR(H -> ~chi_30 ~chi_30)
     2.57877587E-02    2     1000022   1000023   # BR(H -> ~chi_10 ~chi_20)
     1.24502685E-05    2     1000022   1000025   # BR(H -> ~chi_10 ~chi_30)
     2.49118141E-02    2     1000023   1000025   # BR(H -> ~chi_20 ~chi_30)
#
#         PDG            Width
DECAY        36     4.03526767E+01   # A decays
#          BR         NDA      ID1       ID2
     1.39945642E-03    2           5        -5   # BR(A -> b       bb     )
     2.31117664E-04    2         -15        15   # BR(A -> tau+    tau-   )
     8.17084434E-07    2         -13        13   # BR(A -> mu+     mu-    )
     1.07720786E-06    2           3        -3   # BR(A -> s       sb     )
     9.43977589E-06    2           4        -4   # BR(A -> c       cb     )
     9.44754156E-01    2           6        -6   # BR(A -> t       tb     )
     8.94227757E-04    2          21        21   # BR(A -> g       g      )
     2.66893992E-06    2          22        22   # BR(A -> gam     gam    )
     1.28092827E-06    2          23        22   # BR(A -> Z       gam    )
     3.10103706E-04    2          23        25   # BR(A -> Z       h      )
     6.47371267E-04    2     1000024  -1000024   # BR(A -> ~chi_1+ ~chi_1-)
     2.86084438E-02    2     1000022   1000022   # BR(A -> ~chi_10 ~chi_10)
     1.16216841E-06    2     1000023   1000023   # BR(A -> ~chi_20 ~chi_20)
     2.15248289E-02    2     1000025   1000025   # BR(A -> ~chi_30 ~chi_30)
     6.61932257E-04    2     1000022   1000023   # BR(A -> ~chi_10 ~chi_20)
     1.09560918E-04    2     1000022   1000025   # BR(A -> ~chi_10 ~chi_30)
     8.42354754E-04    2     1000023   1000025   # BR(A -> ~chi_20 ~chi_30)
#
#         PDG            Width
DECAY        37     3.95433501E+01   # H+ decays
#          BR         NDA      ID1       ID2
     2.24545265E-06    2           4        -5   # BR(H+ -> c       bb     )
     2.36087125E-04    2         -15        16   # BR(H+ -> tau+    nu_tau )
     8.34653271E-07    2         -13        14   # BR(H+ -> mu+     nu_mu  )
     1.42762842E-08    2           2        -5   # BR(H+ -> u       bb     )
     5.16883816E-08    2           2        -3   # BR(H+ -> u       sb     )
     1.02991050E-05    2           4        -3   # BR(H+ -> c       sb     )
     9.46647417E-01    2           6        -5   # BR(H+ -> t       bb     )
     3.17867024E-04    2          24        25   # BR(H+ -> W+      h      )
     1.14217604E-12    2          24        36   # BR(H+ -> W+      A      )
     2.39233184E-02    2     1000024   1000022   # BR(H+ -> ~chi_1+ ~chi_10)
     1.46291827E-04    2     1000024   1000023   # BR(H+ -> ~chi_1+ ~chi_20)
     2.87155736E-02    2     1000024   1000025   # BR(H+ -> ~chi_1+ ~chi_30)
