#
#                              ======================
#                              | THE SUSYHIT OUTPUT |
#                              ======================
#
#
#              ------------------------------------------------------
#              |     This is the output of the SUSY-HIT package     |
#              |  created by A.Djouadi, M.Muehlleitner and M.Spira. |
#              |  In case of problems with SUSY-HIT email to        |
#              |           margarete.muehlleitner@cern.ch           |
#              |           michael.spira@psi.ch                     |
#              |           abdelhak.djouadi@cern.ch                 |
#              ------------------------------------------------------
#
#              ------------------------------------------------------
#              |  SUSY Les Houches Accord - MSSM Spectrum + Decays  |
#              |              based on the decay programs           |
#              |                                                    |
#              |                     SDECAY 1.3b                    |
#              |                                                    |
#              |  Authors: M.Muhlleitner, A.Djouadi and Y.Mambrini  |
#              |  Ref.:    Comput.Phys.Commun.168(2005)46           |
#              |           [hep-ph/0311167]                         |
#              |                                                    |
#              |                     HDECAY 3.4                     |
#              |                                                    |
#              |  By: A.Djouadi,J.Kalinowski,M.Muhlleitner,M.Spira  |
#              |  Ref.:    Comput.Phys.Commun.108(1998)56           |
#              |           [hep-ph/9704448]                         |
#              |                                                    |
#              |                                                    |
#              |  If not stated otherwise all DRbar couplings and   |
#              |  soft SUSY breaking masses are given at the scale  |
#              |  Q=  0.50007240E+04
#              |                                                    |
#              ------------------------------------------------------
#
#
BLOCK DCINFO  # Decay Program information
     1   SDECAY/HDECAY # decay calculator
     2   1.3b  /3.4    # version number
#
BLOCK SPINFO  # Spectrum calculator information
     1    SOFTSUSY    # spectrum calculator                
     2    3.4.0       # version number                     
#
BLOCK MODSEL  # Model selection
     1     0   #  nonUniversal                                     
#
BLOCK SMINPUTS  # Standard Model inputs
         1     1.25778332E+02   # alpha_em^-1(M_Z)^MSbar
         2     1.16570000E-05   # G_F [GeV^-2]
         3     1.17200002E-01   # alpha_S(M_Z)^MSbar
         4     9.11876000E+01   # M_Z pole mass
         5     4.25000000E+00   # mb(mb)^MSbar
         6     1.72500000E+02   # mt pole mass
         7     1.77682000E+00   # mtau pole mass
#
BLOCK MINPAR  # Input parameters - minimal models
         3     1.00000000E+01   # tanb                
#
BLOCK EXTPAR  # Input parameters - non-minimal models
         0    -1.00000000E+00   # Set                 
         1     6.00000000E+01   # M_1(MX)             
         2     3.00000000E+03   # M_2(MX)             
         3     1.76109600E+03   # M_3(MX)             
        11     5.00000000E+03   # At(MX)              
        12     5.00000000E+03   # Ab(MX)              
        13     0.00000000E+00   # Atau(MX)            
        23    -1.34884300E+03   # mu(MX)              
        26     3.00000000E+03   # mA(pole)            
        31     5.00000000E+03   # meL(MX)             
        32     5.00000000E+03   # mmuL(MX)            
        33     5.00000000E+03   # mtauL(MX)           
        34     5.00000000E+03   # meR(MX)             
        35     5.00000000E+03   # mmuR(MX)            
        36     5.00000000E+03   # mtauR(MX)           
        41     5.00000000E+03   # mqL1(MX)            
        42     5.00000000E+03   # mqL2(MX)            
        43     5.00000000E+03   # mqL3(MX)            
        44     5.00000000E+03   # muR(MX)             
        45     5.00000000E+03   # mcR(MX)             
        46     5.00000000E+03   # mtR(MX)             
        47     5.00000000E+03   # mdR(MX)             
        48     5.00000000E+03   # msR(MX)             
        49     5.00000000E+03   # mbR(MX)             
#
BLOCK MASS  # Mass Spectrum
# PDG code           mass       particle
        24     8.00963239E+01   # W+
        25     1.24788683E+02   # h
        35     3.00008414E+03   # H
        36     2.99999990E+03   # A
        37     3.00087292E+03   # H+
         5     4.87878001E+00   # b-quark pole mass calculated from mb(mb)_Msbar
   1000001     5.07325543E+03   # ~d_L
   2000001     5.05547896E+03   # ~d_R
   1000002     5.07278223E+03   # ~u_L
   2000002     5.05520217E+03   # ~u_R
   1000003     5.07325543E+03   # ~s_L
   2000003     5.05547896E+03   # ~s_R
   1000004     5.07278223E+03   # ~c_L
   2000004     5.05520217E+03   # ~c_R
   1000005     5.01915061E+03   # ~b_1
   2000005     5.05425165E+03   # ~b_2
   1000006     4.91055988E+03   # ~t_1
   2000006     5.06481378E+03   # ~t_2
   1000011     5.01905244E+03   # ~e_L
   2000011     5.00591304E+03   # ~e_R
   1000012     5.01810438E+03   # ~nu_eL
   1000013     5.01905244E+03   # ~mu_L
   2000013     5.00591304E+03   # ~mu_R
   1000014     5.01810438E+03   # ~nu_muL
   1000015     5.00442504E+03   # ~tau_1
   2000015     5.01894790E+03   # ~tau_2
   1000016     5.01756381E+03   # ~nu_tauL
   1000021     2.10000083E+03   # ~g
   1000022     6.03031782E+01   # ~chi_10
   1000023     1.39947286E+03   # ~chi_20
   1000025    -1.40186070E+03   # ~chi_30
   1000035     3.07431690E+03   # ~chi_40
   1000024     1.40000040E+03   # ~chi_1+
   1000037     3.07448435E+03   # ~chi_2+
#
BLOCK NMIX  # Neutralino Mixing Matrix
  1  1     9.99491100E-01   # N_11
  1  2     1.47259620E-04   # N_12
  1  3    -3.18382425E-02   # N_13
  1  4     1.96117418E-03   # N_14
  2  1     2.11273230E-02   # N_21
  2  2     2.90577747E-02   # N_22
  2  3     7.06893228E-01   # N_23
  2  4     7.06407280E-01   # N_24
  3  1    -2.38953274E-02   # N_31
  3  2     1.35650384E-02   # N_32
  3  3    -7.06518378E-01   # N_33
  3  4     7.07161074E-01   # N_34
  4  1    -4.37181489E-04   # N_41
  4  2     9.99485675E-01   # N_42
  4  3    -1.09577425E-02   # N_43
  4  4    -3.01350788E-02   # N_44
#
BLOCK UMIX  # Chargino Mixing Matrix U
  1  1     1.55092572E-02   # U_11
  1  2     9.99879724E-01   # U_12
  2  1    -9.99879724E-01   # U_21
  2  2     1.55092572E-02   # U_22
#
BLOCK VMIX  # Chargino Mixing Matrix V
  1  1     4.26412218E-02   # V_11
  1  2    -9.99090449E-01   # V_12
  2  1    -9.99090449E-01   # V_21
  2  2    -4.26412218E-02   # V_22
#
BLOCK STOPMIX  # Stop Mixing Matrix
  1  1    -5.09668915E-01   # cos(theta_t)
  1  2     8.60370616E-01   # sin(theta_t)
  2  1    -8.60370616E-01   # -sin(theta_t)
  2  2    -5.09668915E-01   # cos(theta_t)
#
BLOCK SBOTMIX  # Sbottom Mixing Matrix
  1  1     9.95120311E-01   # cos(theta_b)
  1  2    -9.86689750E-02   # sin(theta_b)
  2  1     9.86689750E-02   # -sin(theta_b)
  2  2     9.95120311E-01   # cos(theta_b)
#
BLOCK STAUMIX  # Stau Mixing Matrix
  1  1    -1.57619217E-01   # cos(theta_tau)
  1  2     9.87499966E-01   # sin(theta_tau)
  2  1    -9.87499966E-01   # -sin(theta_tau)
  2  2    -1.57619217E-01   # cos(theta_tau)
#
BLOCK ALPHA  # Higgs mixing
          -1.05468547E-01   # Mixing angle in the neutral Higgs boson sector
#
BLOCK HMIX Q=  5.00072400E+03  # DRbar Higgs Parameters
         1    -1.37359863E+03   # mu(Q)MSSM           
         2     9.47004219E+00   # tan                 
         3     2.41935199E+02   # higgs               
         4     8.42108726E+06   # mA^2(Q)MSSM         
#
BLOCK GAUGE Q=  5.00072400E+03  # The gauge couplings
     1     3.70717083E-01   # gprime(Q) DRbar
     2     6.32166450E-01   # g(Q) DRbar
     3     9.97783062E-01   # g3(Q) DRbar
#
BLOCK AU Q=  5.00072400E+03  # The trilinear couplings
  1  1     5.00000001E+03   # A_u(Q) DRbar
  2  2     5.00000001E+03   # A_c(Q) DRbar
  3  3     5.00000002E+03   # A_t(Q) DRbar
#
BLOCK AD Q=  5.00072400E+03  # The trilinear couplings
  1  1     5.00000001E+03   # A_d(Q) DRbar
  2  2     5.00000001E+03   # A_s(Q) DRbar
  3  3     5.00000001E+03   # A_b(Q) DRbar
#
BLOCK AE Q=  5.00072400E+03  # The trilinear couplings
  1  1     0.00000000E+00   # A_e(Q) DRbar
  2  2     1.91556613E-07   # A_mu(Q) DRbar
  3  3     1.91257341E-07   # A_tau(Q) DRbar
#
BLOCK Yu Q=  5.00072400E+03  # The Yukawa couplings
  1  1     0.00000000E+00   # y_u(Q) DRbar
  2  2     0.00000000E+00   # y_c(Q) DRbar
  3  3     8.19945570E-01   # y_t(Q) DRbar
#
BLOCK Yd Q=  5.00072400E+03  # The Yukawa couplings
  1  1     0.00000000E+00   # y_d(Q) DRbar
  2  2     0.00000000E+00   # y_s(Q) DRbar
  3  3     1.31239765E-01   # y_b(Q) DRbar
#
BLOCK Ye Q=  5.00072400E+03  # The Yukawa couplings
  1  1     0.00000000E+00   # y_e(Q) DRbar
  2  2     0.00000000E+00   # y_mu(Q) DRbar
  3  3     9.66699245E-02   # y_tau(Q) DRbar
#
BLOCK MSOFT Q=  5.00072400E+03  # The soft SUSY breaking masses at the scale Q
         1     6.00000000E+01   # M_1(Q)              
         2     3.00000000E+03   # M_2(Q)              
         3     1.76109600E+03   # M_3(Q)              
        21     6.78840008E+06   # mH1^2(Q)            
        22    -1.33449362E+06   # mH2^2(Q)            
        31     5.00000000E+03   # meL(Q)              
        32     5.00000000E+03   # mmuL(Q)             
        33     5.00000000E+03   # mtauL(Q)            
        34     5.00000000E+03   # meR(Q)              
        35     5.00000000E+03   # mmuR(Q)             
        36     5.00000000E+03   # mtauR(Q)            
        41     5.00000000E+03   # mqL1(Q)             
        42     5.00000000E+03   # mqL2(Q)             
        43     4.99999999E+03   # mqL3(Q)             
        44     5.00000000E+03   # muR(Q)              
        45     5.00000000E+03   # mcR(Q)              
        46     4.99999999E+03   # mtR(Q)              
        47     5.00000000E+03   # mdR(Q)              
        48     5.00000000E+03   # msR(Q)              
        49     5.00000000E+03   # mbR(Q)              
#
#
#
#                             =================
#                             |The decay table|
#                             =================
#
# - The QCD corrections to the decays gluino -> squark  + quark
#                                     squark -> gaugino + quark_prime
#                                     squark -> squark_prime + Higgs
#                                     squark -> gluino  + quark
#   are included.
#
# - The multi-body decays for the inos, stops and sbottoms are included.
#
# - The loop induced decays for the gluino, neutralinos and stops
#   are included.
#
# - The SUSY decays of the top quark are included.
#
#
#         PDG            Width
DECAY         6     1.40039681E+00   # top decays
#          BR         NDA      ID1       ID2
     1.00000000E+00    2           5        24   # BR(t ->  b    W+)
#
#         PDG            Width
DECAY   1000021     4.75246493E-04   # gluino decays
#          BR         NDA      ID1       ID2
     6.69818136E-06    2     1000022        21   # BR(~g -> ~chi_10 g)
     7.13186313E-03    2     1000023        21   # BR(~g -> ~chi_20 g)
     7.07518414E-03    2     1000025        21   # BR(~g -> ~chi_30 g)
#           BR         NDA      ID1       ID2       ID3
     6.33946250E-02    3     1000022         1        -1   # BR(~g -> ~chi_10 d  db)
     1.07852012E-05    3     1000023         1        -1   # BR(~g -> ~chi_20 d  db)
     2.28106110E-06    3     1000025         1        -1   # BR(~g -> ~chi_30 d  db)
     2.16136091E-01    3     1000022         2        -2   # BR(~g -> ~chi_10 u  ub)
     2.15359878E-05    3     1000023         2        -2   # BR(~g -> ~chi_20 u  ub)
     2.34998220E-06    3     1000025         2        -2   # BR(~g -> ~chi_30 u  ub)
     6.33946250E-02    3     1000022         3        -3   # BR(~g -> ~chi_10 s  sb)
     1.07852012E-05    3     1000023         3        -3   # BR(~g -> ~chi_20 s  sb)
     2.28106110E-06    3     1000025         3        -3   # BR(~g -> ~chi_30 s  sb)
     2.16136091E-01    3     1000022         4        -4   # BR(~g -> ~chi_10 c  cb)
     2.15359878E-05    3     1000023         4        -4   # BR(~g -> ~chi_20 c  cb)
     2.34998220E-06    3     1000025         4        -4   # BR(~g -> ~chi_30 c  cb)
     6.41968511E-02    3     1000022         5        -5   # BR(~g -> ~chi_10 b  bb)
     1.42382168E-03    3     1000023         5        -5   # BR(~g -> ~chi_20 b  bb)
     1.38650260E-03    3     1000025         5        -5   # BR(~g -> ~chi_30 b  bb)
     2.12325518E-01    3     1000022         6        -6   # BR(~g -> ~chi_10 t  tb)
     3.58747786E-02    3     1000023         6        -6   # BR(~g -> ~chi_20 t  tb)
     2.46312621E-02    3     1000025         6        -6   # BR(~g -> ~chi_30 t  tb)
     2.83417995E-05    3     1000024         1        -2   # BR(~g -> ~chi_1+ d  ub)
     2.83417995E-05    3    -1000024         2        -1   # BR(~g -> ~chi_1- u  db)
     2.83417995E-05    3     1000024         3        -4   # BR(~g -> ~chi_1+ s  cb)
     2.83417995E-05    3    -1000024         4        -3   # BR(~g -> ~chi_1- c  sb)
     4.33494079E-02    3     1000024         5        -6   # BR(~g -> ~chi_1+ b  tb)
     4.33494079E-02    3    -1000024         6        -5   # BR(~g -> ~chi_1- t  bb)
#
#         PDG            Width
DECAY   1000006     3.23584087E+02   # stop1 decays
#          BR         NDA      ID1       ID2
     2.72809704E-02    2     1000022         6   # BR(~t_1 -> ~chi_10 t )
     8.61789893E-02    2     1000023         6   # BR(~t_1 -> ~chi_20 t )
     8.28540242E-02    2     1000025         6   # BR(~t_1 -> ~chi_30 t )
     6.58545987E-03    2     1000035         6   # BR(~t_1 -> ~chi_40 t )
     1.24856640E-01    2     1000024         5   # BR(~t_1 -> ~chi_1+ b )
     1.31046029E-02    2     1000037         5   # BR(~t_1 -> ~chi_2+ b )
     6.59139313E-01    2     1000021         6   # BR(~t_1 -> ~g      t )
#
#         PDG            Width
DECAY   2000006     3.34176273E+02   # stop2 decays
#          BR         NDA      ID1       ID2
     1.05087507E-02    2     1000022         6   # BR(~t_2 -> ~chi_10 t )
     8.62756329E-02    2     1000023         6   # BR(~t_2 -> ~chi_20 t )
     8.97753618E-02    2     1000025         6   # BR(~t_2 -> ~chi_30 t )
     1.64779519E-02    2     1000035         6   # BR(~t_2 -> ~chi_40 t )
     5.20670854E-02    2     1000024         5   # BR(~t_2 -> ~chi_1+ b )
     3.27375453E-02    2     1000037         5   # BR(~t_2 -> ~chi_2+ b )
     7.08339396E-01    2     1000021         6   # BR(~t_2 -> ~g      t )
     8.52945584E-04    2     1000006        25   # BR(~t_2 -> ~t_1    h )
     2.96533034E-03    2     1000006        23   # BR(~t_2 -> ~t_1    Z )
#
#         PDG            Width
DECAY   1000005     3.10034073E+02   # sbottom1 decays
#          BR         NDA      ID1       ID2
     2.51140033E-03    2     1000022         5   # BR(~b_1 -> ~chi_10 b )
     2.43760206E-03    2     1000023         5   # BR(~b_1 -> ~chi_20 b )
     2.32311993E-03    2     1000025         5   # BR(~b_1 -> ~chi_30 b )
     2.42057481E-02    2     1000035         5   # BR(~b_1 -> ~chi_40 b )
     1.82701837E-01    2    -1000024         6   # BR(~b_1 -> ~chi_1- t )
     4.87009518E-02    2    -1000037         6   # BR(~b_1 -> ~chi_2- t )
     7.35343812E-01    2     1000021         5   # BR(~b_1 -> ~g      b )
     1.77552877E-03    2     1000006       -24   # BR(~b_1 -> ~t_1    W-)
#
#         PDG            Width
DECAY   2000005     2.37387339E+02   # sbottom2 decays
#          BR         NDA      ID1       ID2
     1.23365948E-02    2     1000022         5   # BR(~b_2 -> ~chi_10 b )
     3.08083638E-03    2     1000023         5   # BR(~b_2 -> ~chi_20 b )
     3.20255334E-03    2     1000025         5   # BR(~b_2 -> ~chi_30 b )
     3.23584562E-04    2     1000035         5   # BR(~b_2 -> ~chi_40 b )
     8.47966572E-03    2    -1000024         6   # BR(~b_2 -> ~chi_1- t )
     6.50805877E-04    2    -1000037         6   # BR(~b_2 -> ~chi_2- t )
     9.71828834E-01    2     1000021         5   # BR(~b_2 -> ~g      b )
     9.71254766E-05    2     1000006       -24   # BR(~b_2 -> ~t_1    W-)
#
#         PDG            Width
DECAY   1000002     2.56508533E+02   # sup_L decays
#          BR         NDA      ID1       ID2
     2.90803225E-03    2     1000022         2   # BR(~u_L -> ~chi_10 u)
     7.16889148E-05    2     1000023         2   # BR(~u_L -> ~chi_20 u)
     5.14590331E-06    2     1000025         2   # BR(~u_L -> ~chi_30 u)
     3.06081157E-02    2     1000035         2   # BR(~u_L -> ~chi_40 u)
     2.36665632E-04    2     1000024         1   # BR(~u_L -> ~chi_1+ d)
     6.11706084E-02    2     1000037         1   # BR(~u_L -> ~chi_2+ d)
     9.04999743E-01    2     1000021         2   # BR(~u_L -> ~g      u)
#
#         PDG            Width
DECAY   2000002     2.42554915E+02   # sup_R decays
#          BR         NDA      ID1       ID2
     4.89585480E-02    2     1000022         2   # BR(~u_R -> ~chi_10 u)
     1.86966379E-05    2     1000023         2   # BR(~u_R -> ~chi_20 u)
     2.39031625E-05    2     1000025         2   # BR(~u_R -> ~chi_30 u)
     3.74342011E-09    2     1000035         2   # BR(~u_R -> ~chi_40 u)
     9.50998848E-01    2     1000021         2   # BR(~u_R -> ~g      u)
#
#         PDG            Width
DECAY   1000001     2.56524225E+02   # sdown_L decays
#          BR         NDA      ID1       ID2
     2.89937469E-03    2     1000022         1   # BR(~d_L -> ~chi_10 d)
     4.04482208E-05    2     1000023         1   # BR(~d_L -> ~chi_20 d)
     2.16342240E-05    2     1000025         1   # BR(~d_L -> ~chi_30 d)
     3.06261560E-02    2     1000035         1   # BR(~d_L -> ~chi_40 d)
     3.13101744E-05    2    -1000024         2   # BR(~d_L -> ~chi_1- u)
     6.12824458E-02    2    -1000037         2   # BR(~d_L -> ~chi_2- u)
     9.05098631E-01    2     1000021         1   # BR(~d_L -> ~g      d)
#
#         PDG            Width
DECAY   2000001     2.33664144E+02   # sdown_R decays
#          BR         NDA      ID1       ID2
     1.27060524E-02    2     1000022         1   # BR(~d_R -> ~chi_10 d)
     4.85236393E-06    2     1000023         1   # BR(~d_R -> ~chi_20 d)
     6.20362077E-06    2     1000025         1   # BR(~d_R -> ~chi_30 d)
     9.71640937E-10    2     1000035         1   # BR(~d_R -> ~chi_40 d)
     9.87282891E-01    2     1000021         1   # BR(~d_R -> ~g      d)
#
#         PDG            Width
DECAY   1000004     2.56508533E+02   # scharm_L decays
#          BR         NDA      ID1       ID2
     2.90803225E-03    2     1000022         4   # BR(~c_L -> ~chi_10 c)
     7.16889148E-05    2     1000023         4   # BR(~c_L -> ~chi_20 c)
     5.14590331E-06    2     1000025         4   # BR(~c_L -> ~chi_30 c)
     3.06081157E-02    2     1000035         4   # BR(~c_L -> ~chi_40 c)
     2.36665632E-04    2     1000024         3   # BR(~c_L -> ~chi_1+ s)
     6.11706084E-02    2     1000037         3   # BR(~c_L -> ~chi_2+ s)
     9.04999743E-01    2     1000021         4   # BR(~c_L -> ~g      c)
#
#         PDG            Width
DECAY   2000004     2.42554915E+02   # scharm_R decays
#          BR         NDA      ID1       ID2
     4.89585480E-02    2     1000022         4   # BR(~c_R -> ~chi_10 c)
     1.86966379E-05    2     1000023         4   # BR(~c_R -> ~chi_20 c)
     2.39031625E-05    2     1000025         4   # BR(~c_R -> ~chi_30 c)
     3.74342011E-09    2     1000035         4   # BR(~c_R -> ~chi_40 c)
     9.50998848E-01    2     1000021         4   # BR(~c_R -> ~g      c)
#
#         PDG            Width
DECAY   1000003     2.56524225E+02   # sstrange_L decays
#          BR         NDA      ID1       ID2
     2.89937469E-03    2     1000022         3   # BR(~s_L -> ~chi_10 s)
     4.04482208E-05    2     1000023         3   # BR(~s_L -> ~chi_20 s)
     2.16342240E-05    2     1000025         3   # BR(~s_L -> ~chi_30 s)
     3.06261560E-02    2     1000035         3   # BR(~s_L -> ~chi_40 s)
     3.13101744E-05    2    -1000024         4   # BR(~s_L -> ~chi_1- c)
     6.12824458E-02    2    -1000037         4   # BR(~s_L -> ~chi_2- c)
     9.05098631E-01    2     1000021         3   # BR(~s_L -> ~g      s)
#
#         PDG            Width
DECAY   2000003     2.33664144E+02   # sstrange_R decays
#          BR         NDA      ID1       ID2
     1.27060524E-02    2     1000022         3   # BR(~s_R -> ~chi_10 s)
     4.85236393E-06    2     1000023         3   # BR(~s_R -> ~chi_20 s)
     6.20362077E-06    2     1000025         3   # BR(~s_R -> ~chi_30 s)
     9.71640937E-10    2     1000035         3   # BR(~s_R -> ~chi_40 s)
     9.87282891E-01    2     1000021         3   # BR(~s_R -> ~g      s)
#
#         PDG            Width
DECAY   1000011     3.02421092E+01   # selectron_L decays
#          BR         NDA      ID1       ID2
     2.26696946E-01    2     1000022        11   # BR(~e_L -> ~chi_10 e-)
     9.63974613E-04    2     1000023        11   # BR(~e_L -> ~chi_20 e-)
     1.12426095E-07    2     1000025        11   # BR(~e_L -> ~chi_30 e-)
     2.57155550E-01    2     1000035        11   # BR(~e_L -> ~chi_40 e-)
     2.69916422E-04    2    -1000024        12   # BR(~e_L -> ~chi_1- nu_e)
     5.14913500E-01    2    -1000037        12   # BR(~e_L -> ~chi_2- nu_e)
#
#         PDG            Width
DECAY   2000011     2.73612637E+01   # selectron_R decays
#          BR         NDA      ID1       ID2
     9.99135283E-01    2     1000022        11   # BR(~e_R -> ~chi_10 e-)
     3.79486467E-04    2     1000023        11   # BR(~e_R -> ~chi_20 e-)
     4.85156406E-04    2     1000025        11   # BR(~e_R -> ~chi_30 e-)
     7.41759148E-08    2     1000035        11   # BR(~e_R -> ~chi_40 e-)
#
#         PDG            Width
DECAY   1000013     3.02421092E+01   # smuon_L decays
#          BR         NDA      ID1       ID2
     2.26696946E-01    2     1000022        13   # BR(~mu_L -> ~chi_10 mu-)
     9.63974613E-04    2     1000023        13   # BR(~mu_L -> ~chi_20 mu-)
     1.12426095E-07    2     1000025        13   # BR(~mu_L -> ~chi_30 mu-)
     2.57155550E-01    2     1000035        13   # BR(~mu_L -> ~chi_40 mu-)
     2.69916422E-04    2    -1000024        14   # BR(~mu_L -> ~chi_1- nu_mu)
     5.14913500E-01    2    -1000037        14   # BR(~mu_L -> ~chi_2- nu_mu)
#
#         PDG            Width
DECAY   2000013     2.73612637E+01   # smuon_R decays
#          BR         NDA      ID1       ID2
     9.99135283E-01    2     1000022        13   # BR(~mu_R -> ~chi_10 mu-)
     3.79486467E-04    2     1000023        13   # BR(~mu_R -> ~chi_20 mu-)
     4.85156406E-04    2     1000025        13   # BR(~mu_R -> ~chi_30 mu-)
     7.41759148E-08    2     1000035        13   # BR(~mu_R -> ~chi_40 mu-)
#
#         PDG            Width
DECAY   1000015     2.90038718E+01   # stau_1 decays
#          BR         NDA      ID1       ID2
     9.25607913E-01    2     1000022        15   # BR(~tau_1 -> ~chi_10  tau-)
     1.44565180E-02    2     1000023        15   # BR(~tau_1 -> ~chi_20  tau-)
     1.32803025E-02    2     1000025        15   # BR(~tau_1 -> ~chi_30  tau-)
     6.40091671E-03    2     1000035        15   # BR(~tau_1 -> ~chi_40  tau-)
     2.74376186E-02    2    -1000024        16   # BR(~tau_1 -> ~chi_1-  nu_tau)
     1.28167313E-02    2    -1000037        16   # BR(~tau_1 -> ~chi_2-  nu_tau)
#
#         PDG            Width
DECAY   2000015     3.09597394E+01   # stau_2 decays
#          BR         NDA      ID1       ID2
     2.37153086E-01    2     1000022        15   # BR(~tau_2 -> ~chi_10  tau-)
     1.33019162E-02    2     1000023        15   # BR(~tau_2 -> ~chi_20  tau-)
     1.35187763E-02    2     1000025        15   # BR(~tau_2 -> ~chi_30  tau-)
     2.45122778E-01    2     1000035        15   # BR(~tau_2 -> ~chi_40  tau-)
     8.45851040E-05    2    -1000024        16   # BR(~tau_2 -> ~chi_1-  nu_tau)
     4.90818858E-01    2    -1000037        16   # BR(~tau_2 -> ~chi_2-  nu_tau)
#
#         PDG            Width
DECAY   1000012     3.02443222E+01   # snu_eL decays
#          BR         NDA      ID1       ID2
     2.26409866E-01    2     1000022        12   # BR(~nu_eL -> ~chi_10 nu_e)
     1.55851000E-04    2     1000023        12   # BR(~nu_eL -> ~chi_20 nu_e)
     4.26383573E-04    2     1000025        12   # BR(~nu_eL -> ~chi_30 nu_e)
     2.57235292E-01    2     1000035        12   # BR(~nu_eL -> ~chi_40 nu_e)
     2.03969428E-03    2     1000024        11   # BR(~nu_eL -> ~chi_1+ e-)
     5.13732913E-01    2     1000037        11   # BR(~nu_eL -> ~chi_2+ e-)
#
#         PDG            Width
DECAY   1000014     3.02443222E+01   # snu_muL decays
#          BR         NDA      ID1       ID2
     2.26409866E-01    2     1000022        14   # BR(~nu_muL -> ~chi_10 nu_mu)
     1.55851000E-04    2     1000023        14   # BR(~nu_muL -> ~chi_20 nu_mu)
     4.26383573E-04    2     1000025        14   # BR(~nu_muL -> ~chi_30 nu_mu)
     2.57235292E-01    2     1000035        14   # BR(~nu_muL -> ~chi_40 nu_mu)
     2.03969428E-03    2     1000024        13   # BR(~nu_muL -> ~chi_1+ mu-)
     5.13732913E-01    2     1000037        13   # BR(~nu_muL -> ~chi_2+ mu-)
#
#         PDG            Width
DECAY   1000016     3.10281975E+01   # snu_tauL decays
#          BR         NDA      ID1       ID2
     2.20666214E-01    2     1000022        16   # BR(~nu_tauL -> ~chi_10 nu_tau)
     1.51891800E-04    2     1000023        16   # BR(~nu_tauL -> ~chi_20 nu_tau)
     4.15551777E-04    2     1000025        16   # BR(~nu_tauL -> ~chi_30 nu_tau)
     2.50644748E-01    2     1000035        16   # BR(~nu_tauL -> ~chi_40 nu_tau)
     2.75500464E-02    2     1000024        15   # BR(~nu_tauL -> ~chi_1+ tau-)
     5.00571548E-01    2     1000037        15   # BR(~nu_tauL -> ~chi_2+ tau-)
#
#         PDG            Width
DECAY   1000024     8.59937706E-01   # chargino1+ decays
#          BR         NDA      ID1       ID2
     1.00000000E+00    2     1000022        24   # BR(~chi_1+ -> ~chi_10  W+)
#
#         PDG            Width
DECAY   1000037     1.88532279E+01   # chargino2+ decays
#          BR         NDA      ID1       ID2
     2.52814227E-01    2     1000024        23   # BR(~chi_2+ -> ~chi_1+  Z )
     2.42470541E-04    2     1000022        24   # BR(~chi_2+ -> ~chi_10  W+)
     2.43965918E-01    2     1000023        24   # BR(~chi_2+ -> ~chi_20  W+)
     2.43780666E-01    2     1000025        24   # BR(~chi_2+ -> ~chi_30  W+)
     2.59196252E-01    2     1000024        25   # BR(~chi_2+ -> ~chi_1+  h )
     4.67152439E-07    2     1000022        37   # BR(~chi_2+ -> ~chi_10  H+)
#
#         PDG            Width
DECAY   1000022     0.00000000E+00   # neutralino1 decays
#
#         PDG            Width
DECAY   1000023     9.03053337E-01   # neutralino2 decays
#          BR         NDA      ID1       ID2
     5.54024015E-01    2     1000022        23   # BR(~chi_20 -> ~chi_10   Z )
     4.45975985E-01    2     1000022        25   # BR(~chi_20 -> ~chi_10   h )
#
#         PDG            Width
DECAY   1000025     9.11408495E-01   # neutralino3 decays
#          BR         NDA      ID1       ID2
     4.29721994E-01    2     1000022        23   # BR(~chi_30 -> ~chi_10   Z )
     5.70278006E-01    2     1000022        25   # BR(~chi_30 -> ~chi_10   h )
#
#         PDG            Width
DECAY   1000035     1.88583241E+01   # neutralino4 decays
#          BR         NDA      ID1       ID2
     8.22960939E-05    2     1000022        23   # BR(~chi_40 -> ~chi_10   Z )
     4.53966671E-02    2     1000023        23   # BR(~chi_40 -> ~chi_20   Z )
     2.06800645E-01    2     1000025        23   # BR(~chi_40 -> ~chi_30   Z )
     2.44422127E-01    2     1000024       -24   # BR(~chi_40 -> ~chi_1+   W-)
     2.44422127E-01    2    -1000024        24   # BR(~chi_40 -> ~chi_1-   W+)
     1.65195357E-04    2     1000022        25   # BR(~chi_40 -> ~chi_10   h )
     4.23794274E-07    2     1000022        35   # BR(~chi_40 -> ~chi_10   H )
     6.02359344E-08    2     1000022        36   # BR(~chi_40 -> ~chi_10   A )
     2.13299558E-01    2     1000023        25   # BR(~chi_40 -> ~chi_20   h )
     4.54109014E-02    2     1000025        25   # BR(~chi_40 -> ~chi_30   h )
#
#         PDG            Width
DECAY        25     4.04833389E-03   # h decays
#          BR         NDA      ID1       ID2
     6.06892497E-01    2           5        -5   # BR(h -> b       bb     )
     6.40728209E-02    2         -15        15   # BR(h -> tau+    tau-   )
     2.26841015E-04    2         -13        13   # BR(h -> mu+     mu-    )
     4.80878448E-04    2           3        -3   # BR(h -> s       sb     )
     2.08386054E-02    2           4        -4   # BR(h -> c       cb     )
     6.74251411E-02    2          21        21   # BR(h -> g       g      )
     2.31873445E-03    2          22        22   # BR(h -> gam     gam    )
     1.49635601E-03    2          22        23   # BR(h -> Z       gam    )
     2.11051295E-01    2          24       -24   # BR(h -> W+      W-     )
     2.51603472E-02    2          23        23   # BR(h -> Z       Z      )
     3.64828726E-05    2     1000022   1000022   # BR(h -> ~chi_10 ~chi_10)
#
#         PDG            Width
DECAY        35     7.44966837E+00   # H decays
#          BR         NDA      ID1       ID2
     4.37523752E-01    2           5        -5   # BR(H -> b       bb     )
     7.47866578E-02    2         -15        15   # BR(H -> tau+    tau-   )
     2.64451562E-04    2         -13        13   # BR(H -> mu+     mu-    )
     3.24177057E-04    2           3        -3   # BR(H -> s       sb     )
     1.81308085E-06    2           4        -4   # BR(H -> c       cb     )
     1.81141140E-01    2           6        -6   # BR(H -> t       tb     )
     6.01461235E-05    2          21        21   # BR(H -> g       g      )
     3.84144997E-07    2          22        22   # BR(H -> gam     gam    )
     1.06979083E-07    2          23        22   # BR(H -> Z       gam    )
     8.14247156E-05    2          24       -24   # BR(H -> W+      W-     )
     4.06608312E-05    2          23        23   # BR(H -> Z       Z      )
     3.06367303E-04    2          25        25   # BR(H -> h       h      )
     3.99878878E-23    2          36        36   # BR(H -> A       A      )
     6.29346446E-19    2          23        36   # BR(H -> Z       A      )
     3.04219125E-04    2     1000024  -1000024   # BR(H -> ~chi_1+ ~chi_1-)
     9.89079774E-04    2     1000022   1000022   # BR(H -> ~chi_10 ~chi_10)
     2.94640764E-05    2     1000023   1000023   # BR(H -> ~chi_20 ~chi_20)
     4.25323268E-05    2     1000025   1000025   # BR(H -> ~chi_30 ~chi_30)
     1.81119921E-01    2     1000022   1000023   # BR(H -> ~chi_10 ~chi_20)
     1.22927551E-01    2     1000022   1000025   # BR(H -> ~chi_10 ~chi_30)
     5.61506605E-05    2     1000023   1000025   # BR(H -> ~chi_20 ~chi_30)
#
#         PDG            Width
DECAY        36     7.46882851E+00   # A decays
#          BR         NDA      ID1       ID2
     4.36547466E-01    2           5        -5   # BR(A -> b       bb     )
     7.45969511E-02    2         -15        15   # BR(A -> tau+    tau-   )
     2.63780376E-04    2         -13        13   # BR(A -> mu+     mu-    )
     3.23590613E-04    2           3        -3   # BR(A -> s       sb     )
     1.81594549E-06    2           4        -4   # BR(A -> c       cb     )
     1.81327235E-01    2           6        -6   # BR(A -> t       tb     )
     1.79443249E-04    2          21        21   # BR(A -> g       g      )
     4.26248549E-07    2          22        22   # BR(A -> gam     gam    )
     2.17378749E-07    2          23        22   # BR(A -> Z       gam    )
     8.09085888E-05    2          23        25   # BR(A -> Z       h      )
     2.01763072E-03    2     1000024  -1000024   # BR(A -> ~chi_1+ ~chi_1-)
     1.01424770E-03    2     1000022   1000022   # BR(A -> ~chi_10 ~chi_10)
     1.48360180E-04    2     1000023   1000023   # BR(A -> ~chi_20 ~chi_20)
     5.12364000E-04    2     1000025   1000025   # BR(A -> ~chi_30 ~chi_30)
     1.24097463E-01    2     1000022   1000023   # BR(A -> ~chi_10 ~chi_20)
     1.78887373E-01    2     1000022   1000025   # BR(A -> ~chi_10 ~chi_30)
     7.27010796E-07    2     1000023   1000025   # BR(A -> ~chi_20 ~chi_30)
#
#         PDG            Width
DECAY        37     7.45398596E+00   # H+ decays
#          BR         NDA      ID1       ID2
     7.04026936E-04    2           4        -5   # BR(H+ -> c       bb     )
     7.47672419E-02    2         -15        16   # BR(H+ -> tau+    nu_tau )
     2.64382536E-04    2         -13        14   # BR(H+ -> mu+     nu_mu  )
     4.50574932E-06    2           2        -5   # BR(H+ -> u       bb     )
     1.55134167E-05    2           2        -3   # BR(H+ -> u       sb     )
     3.20818265E-04    2           4        -3   # BR(H+ -> c       sb     )
     6.17899624E-01    2           6        -5   # BR(H+ -> t       bb     )
     8.11925490E-05    2          24        25   # BR(H+ -> W+      h      )
     8.94142802E-14    2          24        36   # BR(H+ -> W+      A      )
     3.05669340E-01    2     1000024   1000022   # BR(H+ -> ~chi_1+ ~chi_10)
     2.16718592E-04    2     1000024   1000023   # BR(H+ -> ~chi_1+ ~chi_20)
     5.66367782E-05    2     1000024   1000025   # BR(H+ -> ~chi_1+ ~chi_30)
