#
#                              ======================
#                              | THE SUSYHIT OUTPUT |
#                              ======================
#
#
#              ------------------------------------------------------
#              |     This is the output of the SUSY-HIT package     |
#              |  created by A.Djouadi, M.Muehlleitner and M.Spira. |
#              |  In case of problems with SUSY-HIT email to        |
#              |           margarete.muehlleitner@cern.ch           |
#              |           michael.spira@psi.ch                     |
#              |           abdelhak.djouadi@cern.ch                 |
#              ------------------------------------------------------
#
#              ------------------------------------------------------
#              |  SUSY Les Houches Accord - MSSM Spectrum + Decays  |
#              |              based on the decay programs           |
#              |                                                    |
#              |                     SDECAY 1.3b                    |
#              |                                                    |
#              |  Authors: M.Muhlleitner, A.Djouadi and Y.Mambrini  |
#              |  Ref.:    Comput.Phys.Commun.168(2005)46           |
#              |           [hep-ph/0311167]                         |
#              |                                                    |
#              |                     HDECAY 3.4                     |
#              |                                                    |
#              |  By: A.Djouadi,J.Kalinowski,M.Muhlleitner,M.Spira  |
#              |  Ref.:    Comput.Phys.Commun.108(1998)56           |
#              |           [hep-ph/9704448]                         |
#              |                                                    |
#              |                                                    |
#              |  If not stated otherwise all DRbar couplings and   |
#              |  soft SUSY breaking masses are given at the scale  |
#              |  Q=  0.50007664E+04
#              |                                                    |
#              ------------------------------------------------------
#
#
BLOCK DCINFO  # Decay Program information
     1   SDECAY/HDECAY # decay calculator
     2   1.3b  /3.4    # version number
#
BLOCK SPINFO  # Spectrum calculator information
     1    SOFTSUSY    # spectrum calculator                
     2    3.4.0       # version number                     
#
BLOCK MODSEL  # Model selection
     1     0   #  nonUniversal                                     
#
BLOCK SMINPUTS  # Standard Model inputs
         1     1.25778332E+02   # alpha_em^-1(M_Z)^MSbar
         2     1.16570000E-05   # G_F [GeV^-2]
         3     1.17200002E-01   # alpha_S(M_Z)^MSbar
         4     9.11876000E+01   # M_Z pole mass
         5     4.25000000E+00   # mb(mb)^MSbar
         6     1.72500000E+02   # mt pole mass
         7     1.77682000E+00   # mtau pole mass
#
BLOCK MINPAR  # Input parameters - minimal models
         3     1.00000000E+01   # tanb                
#
BLOCK EXTPAR  # Input parameters - non-minimal models
         0    -1.00000000E+00   # Set                 
         1     6.00000000E+01   # M_1(MX)             
         2     3.00000000E+03   # M_2(MX)             
         3     1.48349900E+03   # M_3(MX)             
        11     5.00000000E+03   # At(MX)              
        12     5.00000000E+03   # Ab(MX)              
        13     0.00000000E+00   # Atau(MX)            
        23    -2.82807000E+02   # mu(MX)              
        26     3.00000000E+03   # mA(pole)            
        31     5.00000000E+03   # meL(MX)             
        32     5.00000000E+03   # mmuL(MX)            
        33     5.00000000E+03   # mtauL(MX)           
        34     5.00000000E+03   # meR(MX)             
        35     5.00000000E+03   # mmuR(MX)            
        36     5.00000000E+03   # mtauR(MX)           
        41     5.00000000E+03   # mqL1(MX)            
        42     5.00000000E+03   # mqL2(MX)            
        43     5.00000000E+03   # mqL3(MX)            
        44     5.00000000E+03   # muR(MX)             
        45     5.00000000E+03   # mcR(MX)             
        46     5.00000000E+03   # mtR(MX)             
        47     5.00000000E+03   # mdR(MX)             
        48     5.00000000E+03   # msR(MX)             
        49     5.00000000E+03   # mbR(MX)             
#
BLOCK MASS  # Mass Spectrum
# PDG code           mass       particle
        24     8.00912222E+01   # W+
        25     1.24700665E+02   # h
        35     3.00008890E+03   # H
        36     2.99999970E+03   # A
        37     3.00146924E+03   # H+
         5     4.87878001E+00   # b-quark pole mass calculated from mb(mb)_Msbar
   1000001     5.06959415E+03   # ~d_L
   2000001     5.05171044E+03   # ~d_R
   1000002     5.06911819E+03   # ~u_L
   2000002     5.05140318E+03   # ~u_R
   1000003     5.06959415E+03   # ~s_L
   2000003     5.05171044E+03   # ~s_R
   1000004     5.06911819E+03   # ~c_L
   2000004     5.05140318E+03   # ~c_R
   1000005     5.01564246E+03   # ~b_1
   2000005     5.04985027E+03   # ~b_2
   1000006     4.90654115E+03   # ~t_1
   2000006     5.05947641E+03   # ~t_2
   1000011     5.01913982E+03   # ~e_L
   2000011     5.00595422E+03   # ~e_R
   1000012     5.01818814E+03   # ~nu_eL
   1000013     5.01913982E+03   # ~mu_L
   2000013     5.00595422E+03   # ~mu_R
   1000014     5.01818814E+03   # ~nu_muL
   1000015     5.00481643E+03   # ~tau_1
   2000015     5.01862122E+03   # ~tau_2
   1000016     5.01763427E+03   # ~nu_tauL
   1000021     1.80000081E+03   # ~g
   1000022     5.97918146E+01   # ~chi_10
   1000023     3.01966999E+02   # ~chi_20
   1000025    -3.03837065E+02   # ~chi_30
   1000035     3.07423330E+03   # ~chi_40
   1000024     3.00000797E+02   # ~chi_1+
   1000037     3.07440126E+03   # ~chi_2+
#
BLOCK NMIX  # Neutralino Mixing Matrix
  1  1     9.88606728E-01   # N_11
  1  2     6.01297252E-05   # N_12
  1  3    -1.49799786E-01   # N_13
  1  4    -1.47227167E-02   # N_14
  2  1     1.16365133E-01   # N_21
  2  2     1.76958857E-02   # N_22
  2  3     6.98596384E-01   # N_23
  2  4     7.05768449E-01   # N_24
  3  1    -9.54763615E-02   # N_31
  3  2     1.80280501E-02   # N_32
  3  3    -6.99659237E-01   # N_33
  3  4     7.07839110E-01   # N_34
  4  1    -3.97502969E-04   # N_41
  4  2     9.99680870E-01   # N_42
  4  3     2.60300551E-04   # N_43
  4  4    -2.52573318E-02   # N_44
#
BLOCK UMIX  # Chargino Mixing Matrix U
  1  1    -3.65573628E-04   # U_11
  1  2     9.99999933E-01   # U_12
  2  1    -9.99999933E-01   # U_21
  2  2    -3.65573628E-04   # U_22
#
BLOCK VMIX  # Chargino Mixing Matrix V
  1  1     3.57283190E-02   # V_11
  1  2    -9.99361540E-01   # V_12
  2  1    -9.99361540E-01   # V_21
  2  2    -3.57283190E-02   # V_22
#
BLOCK STOPMIX  # Stop Mixing Matrix
  1  1    -5.03607915E-01   # cos(theta_t)
  1  2     8.63932328E-01   # sin(theta_t)
  2  1    -8.63932328E-01   # -sin(theta_t)
  2  2    -5.03607915E-01   # cos(theta_t)
#
BLOCK SBOTMIX  # Sbottom Mixing Matrix
  1  1     9.99207227E-01   # cos(theta_b)
  1  2    -3.98110225E-02   # sin(theta_b)
  2  1     3.98110225E-02   # -sin(theta_b)
  2  2     9.99207227E-01   # cos(theta_b)
#
BLOCK STAUMIX  # Stau Mixing Matrix
  1  1    -3.37557902E-02   # cos(theta_tau)
  1  2     9.99430111E-01   # sin(theta_tau)
  2  1    -9.99430111E-01   # -sin(theta_tau)
  2  2    -3.37557902E-02   # cos(theta_tau)
#
BLOCK ALPHA  # Higgs mixing
          -1.05484454E-01   # Mixing angle in the neutral Higgs boson sector
#
BLOCK HMIX Q=  5.00076637E+03  # DRbar Higgs Parameters
         1    -2.87946015E+02   # mu(Q)MSSM           
         2     9.46953720E+00   # tan                 
         3     2.41704819E+02   # higgs               
         4     8.75112177E+06   # mA^2(Q)MSSM         
#
BLOCK GAUGE Q=  5.00076637E+03  # The gauge couplings
     1     3.71074179E-01   # gprime(Q) DRbar
     2     6.33912879E-01   # g(Q) DRbar
     3     1.00005065E+00   # g3(Q) DRbar
#
BLOCK AU Q=  5.00076637E+03  # The trilinear couplings
  1  1     5.00000001E+03   # A_u(Q) DRbar
  2  2     5.00000001E+03   # A_c(Q) DRbar
  3  3     5.00000002E+03   # A_t(Q) DRbar
#
BLOCK AD Q=  5.00076637E+03  # The trilinear couplings
  1  1     5.00000001E+03   # A_d(Q) DRbar
  2  2     5.00000001E+03   # A_s(Q) DRbar
  3  3     5.00000001E+03   # A_b(Q) DRbar
#
BLOCK AE Q=  5.00076637E+03  # The trilinear couplings
  1  1     0.00000000E+00   # A_e(Q) DRbar
  2  2     1.41519588E-07   # A_mu(Q) DRbar
  3  3     1.41027051E-07   # A_tau(Q) DRbar
#
BLOCK Yu Q=  5.00076637E+03  # The Yukawa couplings
  1  1     0.00000000E+00   # y_u(Q) DRbar
  2  2     0.00000000E+00   # y_c(Q) DRbar
  3  3     8.19663227E-01   # y_t(Q) DRbar
#
BLOCK Yd Q=  5.00076637E+03  # The Yukawa couplings
  1  1     0.00000000E+00   # y_d(Q) DRbar
  2  2     0.00000000E+00   # y_s(Q) DRbar
  3  3     1.29724675E-01   # y_b(Q) DRbar
#
BLOCK Ye Q=  5.00076637E+03  # The Yukawa couplings
  1  1     0.00000000E+00   # y_e(Q) DRbar
  2  2     0.00000000E+00   # y_mu(Q) DRbar
  3  3     9.72801237E-02   # y_tau(Q) DRbar
#
BLOCK MSOFT Q=  5.00076637E+03  # The soft SUSY breaking masses at the scale Q
         1     6.00000000E+01   # M_1(Q)              
         2     3.00000000E+03   # M_2(Q)              
         3     1.48349900E+03   # M_3(Q)              
        21     8.64833853E+06   # mH1^2(Q)            
        22     4.95021278E+05   # mH2^2(Q)            
        31     5.00000000E+03   # meL(Q)              
        32     5.00000000E+03   # mmuL(Q)             
        33     5.00000000E+03   # mtauL(Q)            
        34     5.00000000E+03   # meR(Q)              
        35     5.00000000E+03   # mmuR(Q)             
        36     5.00000000E+03   # mtauR(Q)            
        41     5.00000000E+03   # mqL1(Q)             
        42     5.00000000E+03   # mqL2(Q)             
        43     5.00000000E+03   # mqL3(Q)             
        44     5.00000000E+03   # muR(Q)              
        45     5.00000000E+03   # mcR(Q)              
        46     4.99999999E+03   # mtR(Q)              
        47     5.00000000E+03   # mdR(Q)              
        48     5.00000000E+03   # msR(Q)              
        49     5.00000000E+03   # mbR(Q)              
#
#
#
#                             =================
#                             |The decay table|
#                             =================
#
# - The QCD corrections to the decays gluino -> squark  + quark
#                                     squark -> gaugino + quark_prime
#                                     squark -> squark_prime + Higgs
#                                     squark -> gluino  + quark
#   are included.
#
# - The multi-body decays for the inos, stops and sbottoms are included.
#
# - The loop induced decays for the gluino, neutralinos and stops
#   are included.
#
# - The SUSY decays of the top quark are included.
#
#
#         PDG            Width
DECAY         6     1.40836896E+00   # top decays
#          BR         NDA      ID1       ID2
     1.00000000E+00    2           5        24   # BR(t ->  b    W+)
#
#         PDG            Width
DECAY   1000021     1.27691937E-03   # gluino decays
#          BR         NDA      ID1       ID2
     1.53476323E-06    2     1000022        21   # BR(~g -> ~chi_10 g)
     8.26434188E-03    2     1000023        21   # BR(~g -> ~chi_20 g)
     8.01737904E-03    2     1000025        21   # BR(~g -> ~chi_30 g)
#           BR         NDA      ID1       ID2       ID3
     1.04166461E-02    3     1000022         1        -1   # BR(~g -> ~chi_10 d  db)
     1.13564765E-04    3     1000023         1        -1   # BR(~g -> ~chi_20 d  db)
     8.77808399E-05    3     1000025         1        -1   # BR(~g -> ~chi_30 d  db)
     3.55058495E-02    3     1000022         2        -2   # BR(~g -> ~chi_10 u  ub)
     5.36536067E-04    3     1000023         2        -2   # BR(~g -> ~chi_20 u  ub)
     1.79798412E-04    3     1000025         2        -2   # BR(~g -> ~chi_30 u  ub)
     1.04166461E-02    3     1000022         3        -3   # BR(~g -> ~chi_10 s  sb)
     1.13564765E-04    3     1000023         3        -3   # BR(~g -> ~chi_20 s  sb)
     8.77808399E-05    3     1000025         3        -3   # BR(~g -> ~chi_30 s  sb)
     3.55058495E-02    3     1000022         4        -4   # BR(~g -> ~chi_10 c  cb)
     5.36536067E-04    3     1000023         4        -4   # BR(~g -> ~chi_20 c  cb)
     1.79798412E-04    3     1000025         4        -4   # BR(~g -> ~chi_30 c  cb)
     1.08767906E-02    3     1000022         5        -5   # BR(~g -> ~chi_10 b  bb)
     5.50714293E-03    3     1000023         5        -5   # BR(~g -> ~chi_20 b  bb)
     5.48385733E-03    3     1000025         5        -5   # BR(~g -> ~chi_30 b  bb)
     3.24810721E-02    3     1000022         6        -6   # BR(~g -> ~chi_10 t  tb)
     2.07860887E-01    3     1000023         6        -6   # BR(~g -> ~chi_20 t  tb)
     1.90451572E-01    3     1000025         6        -6   # BR(~g -> ~chi_30 t  tb)
     5.45356913E-05    3     1000024         1        -2   # BR(~g -> ~chi_1+ d  ub)
     5.45356913E-05    3    -1000024         2        -1   # BR(~g -> ~chi_1- u  db)
     5.45356913E-05    3     1000024         3        -4   # BR(~g -> ~chi_1+ s  cb)
     5.45356913E-05    3    -1000024         4        -3   # BR(~g -> ~chi_1- c  sb)
     2.18578464E-01    3     1000024         5        -6   # BR(~g -> ~chi_1+ b  tb)
     2.18578464E-01    3    -1000024         6        -5   # BR(~g -> ~chi_1- t  bb)
#
#         PDG            Width
DECAY   1000006     3.67716512E+02   # stop1 decays
#          BR         NDA      ID1       ID2
     2.29312012E-02    2     1000022         6   # BR(~t_1 -> ~chi_10 t )
     9.22259159E-02    2     1000023         6   # BR(~t_1 -> ~chi_20 t )
     8.47879704E-02    2     1000025         6   # BR(~t_1 -> ~chi_30 t )
     5.53783296E-03    2     1000035         6   # BR(~t_1 -> ~chi_40 t )
     1.31134861E-01    2     1000024         5   # BR(~t_1 -> ~chi_1+ b )
     1.10400163E-02    2     1000037         5   # BR(~t_1 -> ~chi_2+ b )
     6.52342202E-01    2     1000021         6   # BR(~t_1 -> ~g      t )
#
#         PDG            Width
DECAY   2000006     3.70696125E+02   # stop2 decays
#          BR         NDA      ID1       ID2
     1.00013500E-02    2     1000022         6   # BR(~t_2 -> ~chi_10 t )
     8.77616539E-02    2     1000023         6   # BR(~t_2 -> ~chi_20 t )
     9.61767491E-02    2     1000025         6   # BR(~t_2 -> ~chi_30 t )
     1.51316796E-02    2     1000035         6   # BR(~t_2 -> ~chi_40 t )
     5.28491345E-02    2     1000024         5   # BR(~t_2 -> ~chi_1+ b )
     3.01334599E-02    2     1000037         5   # BR(~t_2 -> ~chi_2+ b )
     7.04667330E-01    2     1000021         6   # BR(~t_2 -> ~g      t )
     7.59640596E-04    2     1000006        25   # BR(~t_2 -> ~t_1    h )
     2.51900294E-03    2     1000006        23   # BR(~t_2 -> ~t_1    Z )
#
#         PDG            Width
DECAY   1000005     3.46162476E+02   # sbottom1 decays
#          BR         NDA      ID1       ID2
     2.31386262E-03    2     1000022         5   # BR(~b_1 -> ~chi_10 b )
     2.32569882E-03    2     1000023         5   # BR(~b_1 -> ~chi_20 b )
     2.38558191E-03    2     1000025         5   # BR(~b_1 -> ~chi_30 b )
     2.19431596E-02    2     1000035         5   # BR(~b_1 -> ~chi_40 b )
     1.93030684E-01    2    -1000024         6   # BR(~b_1 -> ~chi_1- t )
     4.40516953E-02    2    -1000037         6   # BR(~b_1 -> ~chi_2- t )
     7.32345471E-01    2     1000021         5   # BR(~b_1 -> ~g      b )
     1.60384737E-03    2     1000006       -24   # BR(~b_1 -> ~t_1    W-)
#
#         PDG            Width
DECAY   2000005     2.62480276E+02   # sbottom2 decays
#          BR         NDA      ID1       ID2
     1.10823715E-02    2     1000022         5   # BR(~b_2 -> ~chi_10 b )
     3.35542713E-03    2     1000023         5   # BR(~b_2 -> ~chi_20 b )
     3.34223933E-03    2     1000025         5   # BR(~b_2 -> ~chi_30 b )
     4.18917429E-05    2     1000035         5   # BR(~b_2 -> ~chi_40 b )
     6.80206835E-03    2    -1000024         6   # BR(~b_2 -> ~chi_1- t )
     8.41158099E-05    2    -1000037         6   # BR(~b_2 -> ~chi_2- t )
     9.75278175E-01    2     1000021         5   # BR(~b_2 -> ~g      b )
     1.37106314E-05    2     1000006       -24   # BR(~b_2 -> ~t_1    W-)
#
#         PDG            Width
DECAY   1000002     2.81877485E+02   # sup_L decays
#          BR         NDA      ID1       ID2
     2.59382373E-03    2     1000022         2   # BR(~u_L -> ~chi_10 u)
     1.12987138E-04    2     1000023         2   # BR(~u_L -> ~chi_20 u)
     2.50541249E-08    2     1000025         2   # BR(~u_L -> ~chi_30 u)
     2.79531817E-02    2     1000035         2   # BR(~u_L -> ~chi_40 u)
     1.76737402E-04    2     1000024         1   # BR(~u_L -> ~chi_1+ d)
     5.58722659E-02    2     1000037         1   # BR(~u_L -> ~chi_2+ d)
     9.13290979E-01    2     1000021         2   # BR(~u_L -> ~g      u)
#
#         PDG            Width
DECAY   2000002     2.67934667E+02   # sup_R decays
#          BR         NDA      ID1       ID2
     4.34796537E-02    2     1000022         2   # BR(~u_R -> ~chi_10 u)
     5.98545582E-04    2     1000023         2   # BR(~u_R -> ~chi_20 u)
     4.02907974E-04    2     1000025         2   # BR(~u_R -> ~chi_30 u)
     2.80010073E-09    2     1000035         2   # BR(~u_R -> ~chi_40 u)
     9.55518890E-01    2     1000021         2   # BR(~u_R -> ~g      u)
#
#         PDG            Width
DECAY   1000001     2.81889733E+02   # sdown_L decays
#          BR         NDA      ID1       ID2
     2.59072465E-03    2     1000022         1   # BR(~d_L -> ~chi_10 d)
     1.73732641E-06    2     1000023         1   # BR(~d_L -> ~chi_20 d)
     9.30147487E-05    2     1000025         1   # BR(~d_L -> ~chi_30 d)
     2.79693373E-02    2     1000035         1   # BR(~d_L -> ~chi_40 d)
     1.85044347E-08    2    -1000024         2   # BR(~d_L -> ~chi_1- u)
     5.59586366E-02    2    -1000037         2   # BR(~d_L -> ~chi_2- u)
     9.13386531E-01    2     1000021         1   # BR(~d_L -> ~g      d)
#
#         PDG            Width
DECAY   2000001     2.59020959E+02   # sdown_R decays
#          BR         NDA      ID1       ID2
     1.12446712E-02    2     1000022         1   # BR(~d_R -> ~chi_10 d)
     1.54795471E-04    2     1000023         1   # BR(~d_R -> ~chi_20 d)
     1.04199800E-04    2     1000025         1   # BR(~d_R -> ~chi_30 d)
     7.24262190E-10    2     1000035         1   # BR(~d_R -> ~chi_40 d)
     9.88496333E-01    2     1000021         1   # BR(~d_R -> ~g      d)
#
#         PDG            Width
DECAY   1000004     2.81877485E+02   # scharm_L decays
#          BR         NDA      ID1       ID2
     2.59382373E-03    2     1000022         4   # BR(~c_L -> ~chi_10 c)
     1.12987138E-04    2     1000023         4   # BR(~c_L -> ~chi_20 c)
     2.50541249E-08    2     1000025         4   # BR(~c_L -> ~chi_30 c)
     2.79531817E-02    2     1000035         4   # BR(~c_L -> ~chi_40 c)
     1.76737402E-04    2     1000024         3   # BR(~c_L -> ~chi_1+ s)
     5.58722659E-02    2     1000037         3   # BR(~c_L -> ~chi_2+ s)
     9.13290979E-01    2     1000021         4   # BR(~c_L -> ~g      c)
#
#         PDG            Width
DECAY   2000004     2.67934667E+02   # scharm_R decays
#          BR         NDA      ID1       ID2
     4.34796537E-02    2     1000022         4   # BR(~c_R -> ~chi_10 c)
     5.98545582E-04    2     1000023         4   # BR(~c_R -> ~chi_20 c)
     4.02907974E-04    2     1000025         4   # BR(~c_R -> ~chi_30 c)
     2.80010073E-09    2     1000035         4   # BR(~c_R -> ~chi_40 c)
     9.55518890E-01    2     1000021         4   # BR(~c_R -> ~g      c)
#
#         PDG            Width
DECAY   1000003     2.81889733E+02   # sstrange_L decays
#          BR         NDA      ID1       ID2
     2.59072465E-03    2     1000022         3   # BR(~s_L -> ~chi_10 s)
     1.73732641E-06    2     1000023         3   # BR(~s_L -> ~chi_20 s)
     9.30147487E-05    2     1000025         3   # BR(~s_L -> ~chi_30 s)
     2.79693373E-02    2     1000035         3   # BR(~s_L -> ~chi_40 s)
     1.85044347E-08    2    -1000024         4   # BR(~s_L -> ~chi_1- c)
     5.59586366E-02    2    -1000037         4   # BR(~s_L -> ~chi_2- c)
     9.13386531E-01    2     1000021         3   # BR(~s_L -> ~g      s)
#
#         PDG            Width
DECAY   2000003     2.59020959E+02   # sstrange_R decays
#          BR         NDA      ID1       ID2
     1.12446712E-02    2     1000022         3   # BR(~s_R -> ~chi_10 s)
     1.54795471E-04    2     1000023         3   # BR(~s_R -> ~chi_20 s)
     1.04199800E-04    2     1000025         3   # BR(~s_R -> ~chi_30 s)
     7.24262190E-10    2     1000035         3   # BR(~s_R -> ~chi_40 s)
     9.88496333E-01    2     1000021         3   # BR(~s_R -> ~g      s)
#
#         PDG            Width
DECAY   1000011     3.03819044E+01   # selectron_L decays
#          BR         NDA      ID1       ID2
     2.21131197E-01    2     1000022        11   # BR(~e_L -> ~chi_10 e-)
     4.82754815E-03    2     1000023        11   # BR(~e_L -> ~chi_20 e-)
     9.39657907E-04    2     1000025        11   # BR(~e_L -> ~chi_30 e-)
     2.57533411E-01    2     1000035        11   # BR(~e_L -> ~chi_40 e-)
     1.75244592E-07    2    -1000024        12   # BR(~e_L -> ~chi_1- nu_e)
     5.15568011E-01    2    -1000037        12   # BR(~e_L -> ~chi_2- nu_e)
#
#         PDG            Width
DECAY   2000011     2.74141931E+01   # selectron_R decays
#          BR         NDA      ID1       ID2
     9.77498763E-01    2     1000022        11   # BR(~e_R -> ~chi_10 e-)
     1.34484572E-02    2     1000023        11   # BR(~e_R -> ~chi_20 e-)
     9.05271888E-03    2     1000025        11   # BR(~e_R -> ~chi_30 e-)
     6.13278757E-08    2     1000035        11   # BR(~e_R -> ~chi_40 e-)
#
#         PDG            Width
DECAY   1000013     3.03819044E+01   # smuon_L decays
#          BR         NDA      ID1       ID2
     2.21131197E-01    2     1000022        13   # BR(~mu_L -> ~chi_10 mu-)
     4.82754815E-03    2     1000023        13   # BR(~mu_L -> ~chi_20 mu-)
     9.39657907E-04    2     1000025        13   # BR(~mu_L -> ~chi_30 mu-)
     2.57533411E-01    2     1000035        13   # BR(~mu_L -> ~chi_40 mu-)
     1.75244592E-07    2    -1000024        14   # BR(~mu_L -> ~chi_1- nu_mu)
     5.15568011E-01    2    -1000037        14   # BR(~mu_L -> ~chi_2- nu_mu)
#
#         PDG            Width
DECAY   2000013     2.74141931E+01   # smuon_R decays
#          BR         NDA      ID1       ID2
     9.77498763E-01    2     1000022        13   # BR(~mu_R -> ~chi_10 mu-)
     1.34484572E-02    2     1000023        13   # BR(~mu_R -> ~chi_20 mu-)
     9.05271888E-03    2     1000025        13   # BR(~mu_R -> ~chi_30 mu-)
     6.13278757E-08    2     1000035        13   # BR(~mu_R -> ~chi_40 mu-)
#
#         PDG            Width
DECAY   1000015     2.92810305E+01   # stau_1 decays
#          BR         NDA      ID1       ID2
     9.15776293E-01    2     1000022        15   # BR(~tau_1 -> ~chi_10  tau-)
     2.78191367E-02    2     1000023        15   # BR(~tau_1 -> ~chi_20  tau-)
     2.35891405E-02    2     1000025        15   # BR(~tau_1 -> ~chi_30  tau-)
     3.02598396E-04    2     1000035        15   # BR(~tau_1 -> ~chi_40  tau-)
     3.19071887E-02    2    -1000024        16   # BR(~tau_1 -> ~chi_1-  nu_tau)
     6.05642839E-04    2    -1000037        16   # BR(~tau_1 -> ~chi_2-  nu_tau)
#
#         PDG            Width
DECAY   2000015     3.13088055E+01   # stau_2 decays
#          BR         NDA      ID1       ID2
     2.15159596E-01    2     1000022        15   # BR(~tau_2 -> ~chi_10  tau-)
     1.96427566E-02    2     1000023        15   # BR(~tau_2 -> ~chi_20  tau-)
     1.60660862E-02    2     1000025        15   # BR(~tau_2 -> ~chi_30  tau-)
     2.49535508E-01    2     1000035        15   # BR(~tau_2 -> ~chi_40  tau-)
     3.91275398E-05    2    -1000024        16   # BR(~tau_2 -> ~chi_1-  nu_tau)
     4.99556926E-01    2    -1000037        16   # BR(~tau_2 -> ~chi_2-  nu_tau)
#
#         PDG            Width
DECAY   1000012     3.03850334E+01   # snu_eL decays
#          BR         NDA      ID1       ID2
     2.20974617E-01    2     1000022        12   # BR(~nu_eL -> ~chi_10 nu_e)
     1.66615941E-03    2     1000023        12   # BR(~nu_eL -> ~chi_20 nu_e)
     3.58052526E-03    2     1000025        12   # BR(~nu_eL -> ~chi_30 nu_e)
     2.57580513E-01    2     1000035        12   # BR(~nu_eL -> ~chi_40 nu_e)
     1.67336936E-03    2     1000024        11   # BR(~nu_eL -> ~chi_1+ e-)
     5.14524817E-01    2     1000037        11   # BR(~nu_eL -> ~chi_2+ e-)
#
#         PDG            Width
DECAY   1000014     3.03850334E+01   # snu_muL decays
#          BR         NDA      ID1       ID2
     2.20974617E-01    2     1000022        14   # BR(~nu_muL -> ~chi_10 nu_mu)
     1.66615941E-03    2     1000023        14   # BR(~nu_muL -> ~chi_20 nu_mu)
     3.58052526E-03    2     1000025        14   # BR(~nu_muL -> ~chi_30 nu_mu)
     2.57580513E-01    2     1000035        14   # BR(~nu_muL -> ~chi_40 nu_mu)
     1.67336936E-03    2     1000024        13   # BR(~nu_muL -> ~chi_1+ mu-)
     5.14524817E-01    2     1000037        13   # BR(~nu_muL -> ~chi_2+ mu-)
#
#         PDG            Width
DECAY   1000016     3.13133874E+01   # snu_tauL decays
#          BR         NDA      ID1       ID2
     2.14399660E-01    2     1000022        16   # BR(~nu_tauL -> ~chi_10 nu_tau)
     1.61658143E-03    2     1000023        16   # BR(~nu_tauL -> ~chi_20 nu_tau)
     3.47398362E-03    2     1000025        16   # BR(~nu_tauL -> ~chi_30 nu_tau)
     2.49850094E-01    2     1000035        16   # BR(~nu_tauL -> ~chi_40 nu_tau)
     3.15769120E-02    2     1000024        15   # BR(~nu_tauL -> ~chi_1+ tau-)
     4.99082769E-01    2     1000037        15   # BR(~nu_tauL -> ~chi_2+ tau-)
#
#         PDG            Width
DECAY   1000024     1.63092397E-01   # chargino1+ decays
#          BR         NDA      ID1       ID2
     1.00000000E+00    2     1000022        24   # BR(~chi_1+ -> ~chi_10  W+)
#
#         PDG            Width
DECAY   1000037     2.29029687E+01   # chargino2+ decays
#          BR         NDA      ID1       ID2
     2.53651585E-01    2     1000024        23   # BR(~chi_2+ -> ~chi_1+  Z )
     1.47774527E-04    2     1000022        24   # BR(~chi_2+ -> ~chi_10  W+)
     2.45439219E-01    2     1000023        24   # BR(~chi_2+ -> ~chi_20  W+)
     2.44544322E-01    2     1000025        24   # BR(~chi_2+ -> ~chi_30  W+)
     2.56201962E-01    2     1000024        25   # BR(~chi_2+ -> ~chi_1+  h )
     1.51385603E-05    2     1000022        37   # BR(~chi_2+ -> ~chi_10  H+)
#
#         PDG            Width
DECAY   1000022     0.00000000E+00   # neutralino1 decays
#
#         PDG            Width
DECAY   1000023     1.53475563E-01   # neutralino2 decays
#          BR         NDA      ID1       ID2
     4.91638544E-01    2     1000022        23   # BR(~chi_20 -> ~chi_10   Z )
     5.08361456E-01    2     1000022        25   # BR(~chi_20 -> ~chi_10   h )
#
#         PDG            Width
DECAY   1000025     1.38325631E-01   # neutralino3 decays
#          BR         NDA      ID1       ID2
     6.71278996E-01    2     1000022        23   # BR(~chi_30 -> ~chi_10   Z )
     3.28721004E-01    2     1000022        25   # BR(~chi_30 -> ~chi_10   h )
#
#         PDG            Width
DECAY   1000035     2.29044660E+01   # neutralino4 decays
#          BR         NDA      ID1       ID2
     6.90287442E-05    2     1000022        23   # BR(~chi_40 -> ~chi_10   Z )
     1.29010718E-01    2     1000023        23   # BR(~chi_40 -> ~chi_20   Z )
     1.24406513E-01    2     1000025        23   # BR(~chi_40 -> ~chi_30   Z )
     2.45270943E-01    2     1000024       -24   # BR(~chi_40 -> ~chi_1+   W-)
     2.45270943E-01    2    -1000024        24   # BR(~chi_40 -> ~chi_1-   W+)
     6.83042589E-05    2     1000022        25   # BR(~chi_40 -> ~chi_10   h )
     1.46111241E-05    2     1000022        35   # BR(~chi_40 -> ~chi_10   H )
     1.54963016E-06    2     1000022        36   # BR(~chi_40 -> ~chi_10   A )
     1.26586352E-01    2     1000023        25   # BR(~chi_40 -> ~chi_20   h )
     1.29301039E-01    2     1000025        25   # BR(~chi_40 -> ~chi_30   h )
#
#         PDG            Width
DECAY        25     4.06984521E-03   # h decays
#          BR         NDA      ID1       ID2
     6.11331792E-01    2           5        -5   # BR(h -> b       bb     )
     6.37015203E-02    2         -15        15   # BR(h -> tau+    tau-   )
     2.25526863E-04    2         -13        13   # BR(h -> mu+     mu-    )
     4.78157092E-04    2           3        -3   # BR(h -> s       sb     )
     2.07166508E-02    2           4        -4   # BR(h -> c       cb     )
     6.69304184E-02    2          21        21   # BR(h -> g       g      )
     2.29772880E-03    2          22        22   # BR(h -> gam     gam    )
     1.47640215E-03    2          22        23   # BR(h -> Z       gam    )
     2.08087775E-01    2          24       -24   # BR(h -> W+      W-     )
     2.47518509E-02    2          23        23   # BR(h -> Z       Z      )
     2.17769949E-06    2     1000022   1000022   # BR(h -> ~chi_10 ~chi_10)
#
#         PDG            Width
DECAY        35     8.78222434E+00   # H decays
#          BR         NDA      ID1       ID2
     3.61670231E-01    2           5        -5   # BR(H -> b       bb     )
     6.34322267E-02    2         -15        15   # BR(H -> tau+    tau-   )
     2.24301392E-04    2         -13        13   # BR(H -> mu+     mu-    )
     2.74959032E-04    2           3        -3   # BR(H -> s       sb     )
     1.53844226E-06    2           4        -4   # BR(H -> c       cb     )
     1.53702574E-01    2           6        -6   # BR(H -> t       tb     )
     5.11362069E-05    2          21        21   # BR(H -> g       g      )
     1.38246774E-07    2          22        22   # BR(H -> gam     gam    )
     9.06583533E-08    2          23        22   # BR(H -> Z       gam    )
     7.46224965E-05    2          24       -24   # BR(H -> W+      W-     )
     3.72640060E-05    2          23        23   # BR(H -> Z       Z      )
     2.67270947E-04    2          25        25   # BR(H -> h       h      )
     1.95165415E-23    2          36        36   # BR(H -> A       A      )
     8.02142174E-19    2          23        36   # BR(H -> Z       A      )
     3.40598346E-03    2     1000024  -1000024   # BR(H -> ~chi_1+ ~chi_1-)
     1.88102002E-02    2     1000022   1000022   # BR(H -> ~chi_10 ~chi_10)
     3.32887383E-03    2     1000023   1000023   # BR(H -> ~chi_20 ~chi_20)
     5.10500481E-03    2     1000025   1000025   # BR(H -> ~chi_30 ~chi_30)
     2.32060446E-01    2     1000022   1000023   # BR(H -> ~chi_10 ~chi_20)
     1.48044424E-01    2     1000022   1000025   # BR(H -> ~chi_10 ~chi_30)
     9.50871444E-03    2     1000023   1000025   # BR(H -> ~chi_20 ~chi_30)
#
#         PDG            Width
DECAY        36     8.78756527E+00   # A decays
#          BR         NDA      ID1       ID2
     3.61574215E-01    2           5        -5   # BR(A -> b       bb     )
     6.33955326E-02    2         -15        15   # BR(A -> tau+    tau-   )
     2.24171325E-04    2         -13        13   # BR(A -> mu+     mu-    )
     2.75000521E-04    2           3        -3   # BR(A -> s       sb     )
     1.54359380E-06    2           4        -4   # BR(A -> c       cb     )
     1.54132158E-01    2           6        -6   # BR(A -> t       tb     )
     1.52523975E-04    2          21        21   # BR(A -> g       g      )
     5.63678340E-07    2          22        22   # BR(A -> gam     gam    )
     1.84548945E-07    2          23        22   # BR(A -> Z       gam    )
     7.42951489E-05    2          23        25   # BR(A -> Z       h      )
     3.56119855E-03    2     1000024  -1000024   # BR(A -> ~chi_1+ ~chi_1-)
     1.80625165E-02    2     1000022   1000022   # BR(A -> ~chi_10 ~chi_10)
     2.25814443E-03    2     1000023   1000023   # BR(A -> ~chi_20 ~chi_20)
     8.17548532E-03    2     1000025   1000025   # BR(A -> ~chi_30 ~chi_30)
     1.51172369E-01    2     1000022   1000023   # BR(A -> ~chi_10 ~chi_20)
     2.28604423E-01    2     1000022   1000025   # BR(A -> ~chi_10 ~chi_30)
     8.33567528E-03    2     1000023   1000025   # BR(A -> ~chi_20 ~chi_30)
#
#         PDG            Width
DECAY        37     8.72348614E+00   # H+ decays
#          BR         NDA      ID1       ID2
     5.78991624E-04    2           4        -5   # BR(H+ -> c       bb     )
     6.38924922E-02    2         -15        16   # BR(H+ -> tau+    nu_tau )
     2.25928611E-04    2         -13        14   # BR(H+ -> mu+     nu_mu  )
     3.70552685E-06    2           2        -5   # BR(H+ -> u       bb     )
     1.32566792E-05    2           2        -3   # BR(H+ -> u       sb     )
     2.74149134E-04    2           4        -3   # BR(H+ -> c       sb     )
     5.13929836E-01    2           6        -5   # BR(H+ -> t       bb     )
     7.49992509E-05    2          24        25   # BR(H+ -> W+      h      )
     1.03235159E-12    2          24        36   # BR(H+ -> W+      A      )
     4.10185170E-01    2     1000024   1000022   # BR(H+ -> ~chi_1+ ~chi_10)
     9.11580165E-03    2     1000024   1000023   # BR(H+ -> ~chi_1+ ~chi_20)
     1.70566995E-03    2     1000024   1000025   # BR(H+ -> ~chi_1+ ~chi_30)
