#
#                              ======================
#                              | THE SUSYHIT OUTPUT |
#                              ======================
#
#
#              ------------------------------------------------------
#              |     This is the output of the SUSY-HIT package     |
#              |  created by A.Djouadi, M.Muehlleitner and M.Spira. |
#              |  In case of problems with SUSY-HIT email to        |
#              |           margarete.muehlleitner@cern.ch           |
#              |           michael.spira@psi.ch                     |
#              |           abdelhak.djouadi@cern.ch                 |
#              ------------------------------------------------------
#
#              ------------------------------------------------------
#              |  SUSY Les Houches Accord - MSSM Spectrum + Decays  |
#              |              based on the decay programs           |
#              |                                                    |
#              |                     SDECAY 1.3b                    |
#              |                                                    |
#              |  Authors: M.Muhlleitner, A.Djouadi and Y.Mambrini  |
#              |  Ref.:    Comput.Phys.Commun.168(2005)46           |
#              |           [hep-ph/0311167]                         |
#              |                                                    |
#              |                     HDECAY 3.4                     |
#              |                                                    |
#              |  By: A.Djouadi,J.Kalinowski,M.Muhlleitner,M.Spira  |
#              |  Ref.:    Comput.Phys.Commun.108(1998)56           |
#              |           [hep-ph/9704448]                         |
#              |                                                    |
#              |                                                    |
#              |  If not stated otherwise all DRbar couplings and   |
#              |  soft SUSY breaking masses are given at the scale  |
#              |  Q=  0.50007528E+04
#              |                                                    |
#              ------------------------------------------------------
#
#
BLOCK DCINFO  # Decay Program information
     1   SDECAY/HDECAY # decay calculator
     2   1.3b  /3.4    # version number
#
BLOCK SPINFO  # Spectrum calculator information
     1    SOFTSUSY    # spectrum calculator                
     2    3.4.0       # version number                     
#
BLOCK MODSEL  # Model selection
     1     0   #  nonUniversal                                     
#
BLOCK SMINPUTS  # Standard Model inputs
         1     1.25778332E+02   # alpha_em^-1(M_Z)^MSbar
         2     1.16570000E-05   # G_F [GeV^-2]
         3     1.17200002E-01   # alpha_S(M_Z)^MSbar
         4     9.11876000E+01   # M_Z pole mass
         5     4.25000000E+00   # mb(mb)^MSbar
         6     1.72500000E+02   # mt pole mass
         7     1.77682000E+00   # mtau pole mass
#
BLOCK MINPAR  # Input parameters - minimal models
         3     1.00000000E+01   # tanb                
#
BLOCK EXTPAR  # Input parameters - non-minimal models
         0    -1.00000000E+00   # Set                 
         1     6.00000000E+01   # M_1(MX)             
         2     3.00000000E+03   # M_2(MX)             
         3     1.76109100E+03   # M_3(MX)             
        11     5.00000000E+03   # At(MX)              
        12     5.00000000E+03   # Ab(MX)              
        13     0.00000000E+00   # Atau(MX)            
        23    -6.68003000E+02   # mu(MX)              
        26     3.00000000E+03   # mA(pole)            
        31     5.00000000E+03   # meL(MX)             
        32     5.00000000E+03   # mmuL(MX)            
        33     5.00000000E+03   # mtauL(MX)           
        34     5.00000000E+03   # meR(MX)             
        35     5.00000000E+03   # mmuR(MX)            
        36     5.00000000E+03   # mtauR(MX)           
        41     5.00000000E+03   # mqL1(MX)            
        42     5.00000000E+03   # mqL2(MX)            
        43     5.00000000E+03   # mqL3(MX)            
        44     5.00000000E+03   # muR(MX)             
        45     5.00000000E+03   # mcR(MX)             
        46     5.00000000E+03   # mtR(MX)             
        47     5.00000000E+03   # mdR(MX)             
        48     5.00000000E+03   # msR(MX)             
        49     5.00000000E+03   # mbR(MX)             
#
BLOCK MASS  # Mass Spectrum
# PDG code           mass       particle
        24     8.00940867E+01   # W+
        25     1.24774371E+02   # h
        35     3.00008368E+03   # H
        36     2.99999872E+03   # A
        37     3.00137793E+03   # H+
         5     4.87878001E+00   # b-quark pole mass calculated from mb(mb)_Msbar
   1000001     5.07330389E+03   # ~d_L
   2000001     5.05548615E+03   # ~d_R
   1000002     5.07283029E+03   # ~u_L
   2000002     5.05519223E+03   # ~u_R
   1000003     5.07330389E+03   # ~s_L
   2000003     5.05548615E+03   # ~s_R
   1000004     5.07283029E+03   # ~c_L
   2000004     5.05519223E+03   # ~c_R
   1000005     5.01905698E+03   # ~b_1
   2000005     5.05382352E+03   # ~b_2
   1000006     4.91018817E+03   # ~t_1
   2000006     5.06323226E+03   # ~t_2
   1000011     5.01908968E+03   # ~e_L
   2000011     5.00593525E+03   # ~e_R
   1000012     5.01814032E+03   # ~nu_eL
   1000013     5.01908968E+03   # ~mu_L
   2000013     5.00593525E+03   # ~mu_R
   1000014     5.01814032E+03   # ~nu_muL
   1000015     5.00471957E+03   # ~tau_1
   2000015     5.01867126E+03   # ~tau_2
   1000016     5.01759079E+03   # ~nu_tauL
   1000021     2.10000078E+03   # ~g
   1000022     6.02748637E+01   # ~chi_10
   1000023     6.99989289E+02   # ~chi_20
   1000025    -7.02214869E+02   # ~chi_30
   1000035     3.07419488E+03   # ~chi_40
   1000024     7.00000069E+02   # ~chi_1+
   1000037     3.07436244E+03   # ~chi_2+
#
BLOCK NMIX  # Neutralino Mixing Matrix
  1  1     9.97979492E-01   # N_11
  1  2     2.19039171E-04   # N_12
  1  3    -6.35264046E-02   # N_13
  1  4     1.13209708E-03   # N_14
  2  1     4.41400479E-02   # N_21
  2  2     2.05657608E-02   # N_22
  2  3     7.06086496E-01   # N_23
  2  4     7.06449266E-01   # N_24
  3  1    -4.56994251E-02   # N_31
  3  2     1.61071944E-02   # N_32
  3  3    -7.05263315E-01   # N_33
  3  4     7.07287620E-01   # N_34
  4  1    -3.90413984E-04   # N_41
  4  2     9.99658722E-01   # N_42
  4  3    -3.14855244E-03   # N_43
  4  4    -2.59301832E-02   # N_44
#
BLOCK UMIX  # Chargino Mixing Matrix U
  1  1     4.46172965E-03   # U_11
  1  2     9.99990046E-01   # U_12
  2  1    -9.99990046E-01   # U_21
  2  2     4.46172965E-03   # U_22
#
BLOCK VMIX  # Chargino Mixing Matrix V
  1  1     3.66972940E-02   # V_11
  1  2    -9.99326427E-01   # V_12
  2  1    -9.99326427E-01   # V_21
  2  2    -3.66972940E-02   # V_22
#
BLOCK STOPMIX  # Stop Mixing Matrix
  1  1    -5.04565353E-01   # cos(theta_t)
  1  2     8.63373502E-01   # sin(theta_t)
  2  1    -8.63373502E-01   # -sin(theta_t)
  2  2    -5.04565353E-01   # cos(theta_t)
#
BLOCK SBOTMIX  # Sbottom Mixing Matrix
  1  1     9.98188824E-01   # cos(theta_b)
  1  2    -6.01587204E-02   # sin(theta_b)
  2  1     6.01587204E-02   # -sin(theta_b)
  2  2     9.98188824E-01   # cos(theta_b)
#
BLOCK STAUMIX  # Stau Mixing Matrix
  1  1    -7.99417232E-02   # cos(theta_tau)
  1  2     9.96799539E-01   # sin(theta_tau)
  2  1    -9.96799539E-01   # -sin(theta_tau)
  2  2    -7.99417232E-02   # cos(theta_tau)
#
BLOCK ALPHA  # Higgs mixing
          -1.05482485E-01   # Mixing angle in the neutral Higgs boson sector
#
BLOCK HMIX Q=  5.00075277E+03  # DRbar Higgs Parameters
         1    -6.80235935E+02   # mu(Q)MSSM           
         2     9.46932989E+00   # tan                 
         3     2.41791875E+02   # higgs               
         4     8.60953870E+06   # mA^2(Q)MSSM         
#
BLOCK GAUGE Q=  5.00075277E+03  # The gauge couplings
     1     3.70877568E-01   # gprime(Q) DRbar
     2     6.32948625E-01   # g(Q) DRbar
     3     9.97788946E-01   # g3(Q) DRbar
#
BLOCK AU Q=  5.00075277E+03  # The trilinear couplings
  1  1     5.00000001E+03   # A_u(Q) DRbar
  2  2     5.00000001E+03   # A_c(Q) DRbar
  3  3     5.00000002E+03   # A_t(Q) DRbar
#
BLOCK AD Q=  5.00075277E+03  # The trilinear couplings
  1  1     5.00000001E+03   # A_d(Q) DRbar
  2  2     5.00000001E+03   # A_s(Q) DRbar
  3  3     5.00000001E+03   # A_b(Q) DRbar
#
BLOCK AE Q=  5.00075277E+03  # The trilinear couplings
  1  1     0.00000000E+00   # A_e(Q) DRbar
  2  2     1.88396413E-07   # A_mu(Q) DRbar
  3  3     1.88090540E-07   # A_tau(Q) DRbar
#
BLOCK Yu Q=  5.00075277E+03  # The Yukawa couplings
  1  1     0.00000000E+00   # y_u(Q) DRbar
  2  2     0.00000000E+00   # y_c(Q) DRbar
  3  3     8.20360355E-01   # y_t(Q) DRbar
#
BLOCK Yd Q=  5.00075277E+03  # The Yukawa couplings
  1  1     0.00000000E+00   # y_d(Q) DRbar
  2  2     0.00000000E+00   # y_s(Q) DRbar
  3  3     1.30347009E-01   # y_b(Q) DRbar
#
BLOCK Ye Q=  5.00075277E+03  # The Yukawa couplings
  1  1     0.00000000E+00   # y_e(Q) DRbar
  2  2     0.00000000E+00   # y_mu(Q) DRbar
  3  3     9.70166654E-02   # y_tau(Q) DRbar
#
BLOCK MSOFT Q=  5.00075277E+03  # The soft SUSY breaking masses at the scale Q
         1     6.00000000E+01   # M_1(Q)              
         2     3.00000000E+03   # M_2(Q)              
         3     1.76109100E+03   # M_3(Q)              
        21     8.25195882E+06   # mH1^2(Q)            
        22     1.09596483E+05   # mH2^2(Q)            
        31     5.00000000E+03   # meL(Q)              
        32     5.00000000E+03   # mmuL(Q)             
        33     5.00000000E+03   # mtauL(Q)            
        34     5.00000000E+03   # meR(Q)              
        35     5.00000000E+03   # mmuR(Q)             
        36     5.00000000E+03   # mtauR(Q)            
        41     5.00000000E+03   # mqL1(Q)             
        42     5.00000000E+03   # mqL2(Q)             
        43     4.99999999E+03   # mqL3(Q)             
        44     5.00000000E+03   # muR(Q)              
        45     5.00000000E+03   # mcR(Q)              
        46     4.99999999E+03   # mtR(Q)              
        47     5.00000000E+03   # mdR(Q)              
        48     5.00000000E+03   # msR(Q)              
        49     5.00000000E+03   # mbR(Q)              
#
#
#
#                             =================
#                             |The decay table|
#                             =================
#
# - The QCD corrections to the decays gluino -> squark  + quark
#                                     squark -> gaugino + quark_prime
#                                     squark -> squark_prime + Higgs
#                                     squark -> gluino  + quark
#   are included.
#
# - The multi-body decays for the inos, stops and sbottoms are included.
#
# - The loop induced decays for the gluino, neutralinos and stops
#   are included.
#
# - The SUSY decays of the top quark are included.
#
#
#         PDG            Width
DECAY         6     1.40396226E+00   # top decays
#          BR         NDA      ID1       ID2
     1.00000000E+00    2           5        24   # BR(t ->  b    W+)
#
#         PDG            Width
DECAY   1000021     1.79303000E-03   # gluino decays
#          BR         NDA      ID1       ID2
     1.36691235E-06    2     1000022        21   # BR(~g -> ~chi_10 g)
     7.46152767E-03    2     1000023        21   # BR(~g -> ~chi_20 g)
     7.29307674E-03    2     1000025        21   # BR(~g -> ~chi_30 g)
#           BR         NDA      ID1       ID2       ID3
     1.67638471E-02    3     1000022         1        -1   # BR(~g -> ~chi_10 d  db)
     2.36309253E-05    3     1000023         1        -1   # BR(~g -> ~chi_20 d  db)
     2.27122847E-05    3     1000025         1        -1   # BR(~g -> ~chi_30 d  db)
     5.71661263E-02    3     1000022         2        -2   # BR(~g -> ~chi_10 u  ub)
     1.09505420E-04    3     1000023         2        -2   # BR(~g -> ~chi_20 u  ub)
     3.21841861E-05    3     1000025         2        -2   # BR(~g -> ~chi_30 u  ub)
     1.67638471E-02    3     1000022         3        -3   # BR(~g -> ~chi_10 s  sb)
     2.36309253E-05    3     1000023         3        -3   # BR(~g -> ~chi_20 s  sb)
     2.27122847E-05    3     1000025         3        -3   # BR(~g -> ~chi_30 s  sb)
     5.71661263E-02    3     1000022         4        -4   # BR(~g -> ~chi_10 c  cb)
     1.09505420E-04    3     1000023         4        -4   # BR(~g -> ~chi_20 c  cb)
     3.21841861E-05    3     1000025         4        -4   # BR(~g -> ~chi_30 c  cb)
     1.70586907E-02    3     1000022         5        -5   # BR(~g -> ~chi_10 b  bb)
     5.07427333E-03    3     1000023         5        -5   # BR(~g -> ~chi_20 b  bb)
     5.02878852E-03    3     1000025         5        -5   # BR(~g -> ~chi_30 b  bb)
     5.61328955E-02    3     1000022         6        -6   # BR(~g -> ~chi_10 t  tb)
     1.88166529E-01    3     1000023         6        -6   # BR(~g -> ~chi_20 t  tb)
     1.70365282E-01    3     1000025         6        -6   # BR(~g -> ~chi_30 t  tb)
     5.75321614E-05    3     1000024         1        -2   # BR(~g -> ~chi_1+ d  ub)
     5.75321614E-05    3    -1000024         2        -1   # BR(~g -> ~chi_1- u  db)
     5.75321614E-05    3     1000024         3        -4   # BR(~g -> ~chi_1+ s  cb)
     5.75321614E-05    3    -1000024         4        -3   # BR(~g -> ~chi_1- c  sb)
     1.97475714E-01    3     1000024         5        -6   # BR(~g -> ~chi_1+ b  tb)
     1.97475714E-01    3    -1000024         6        -5   # BR(~g -> ~chi_1- t  bb)
#
#         PDG            Width
DECAY   1000006     3.37333725E+02   # stop1 decays
#          BR         NDA      ID1       ID2
     2.62376854E-02    2     1000022         6   # BR(~t_1 -> ~chi_10 t )
     9.46988819E-02    2     1000023         6   # BR(~t_1 -> ~chi_20 t )
     9.05008731E-02    2     1000025         6   # BR(~t_1 -> ~chi_30 t )
     6.04951469E-03    2     1000035         6   # BR(~t_1 -> ~chi_40 t )
     1.38137192E-01    2     1000024         5   # BR(~t_1 -> ~chi_1+ b )
     1.20575937E-02    2     1000037         5   # BR(~t_1 -> ~chi_2+ b )
     6.32318260E-01    2     1000021         6   # BR(~t_1 -> ~g      t )
#
#         PDG            Width
DECAY   2000006     3.43328487E+02   # stop2 decays
#          BR         NDA      ID1       ID2
     1.00748964E-02    2     1000022         6   # BR(~t_2 -> ~chi_10 t )
     9.42869264E-02    2     1000023         6   # BR(~t_2 -> ~chi_20 t )
     9.88766571E-02    2     1000025         6   # BR(~t_2 -> ~chi_30 t )
     1.63206914E-02    2     1000035         6   # BR(~t_2 -> ~chi_40 t )
     5.53696340E-02    2     1000024         5   # BR(~t_2 -> ~chi_1+ b )
     3.24895047E-02    2     1000037         5   # BR(~t_2 -> ~chi_2+ b )
     6.89005050E-01    2     1000021         6   # BR(~t_2 -> ~g      t )
     8.23408726E-04    2     1000006        25   # BR(~t_2 -> ~t_1    h )
     2.75323158E-03    2     1000006        23   # BR(~t_2 -> ~t_1    Z )
#
#         PDG            Width
DECAY   1000005     3.18288778E+02   # sbottom1 decays
#          BR         NDA      ID1       ID2
     2.42664767E-03    2     1000022         5   # BR(~b_1 -> ~chi_10 b )
     2.56847436E-03    2     1000023         5   # BR(~b_1 -> ~chi_20 b )
     2.53695853E-03    2     1000025         5   # BR(~b_1 -> ~chi_30 b )
     2.37989081E-02    2     1000035         5   # BR(~b_1 -> ~chi_40 b )
     2.02842544E-01    2    -1000024         6   # BR(~b_1 -> ~chi_1- t )
     4.77927437E-02    2    -1000037         6   # BR(~b_1 -> ~chi_2- t )
     7.16294895E-01    2     1000021         5   # BR(~b_1 -> ~g      b )
     1.73882827E-03    2     1000006       -24   # BR(~b_1 -> ~t_1    W-)
#
#         PDG            Width
DECAY   2000005     2.37228414E+02   # sbottom2 decays
#          BR         NDA      ID1       ID2
     1.23776562E-02    2     1000022         5   # BR(~b_2 -> ~chi_10 b )
     3.50489605E-03    2     1000023         5   # BR(~b_2 -> ~chi_20 b )
     3.56957052E-03    2     1000025         5   # BR(~b_2 -> ~chi_30 b )
     1.12552662E-04    2     1000035         5   # BR(~b_2 -> ~chi_40 b )
     7.87004273E-03    2    -1000024         6   # BR(~b_2 -> ~chi_1- t )
     2.26026684E-04    2    -1000037         6   # BR(~b_2 -> ~chi_2- t )
     9.72303823E-01    2     1000021         5   # BR(~b_2 -> ~g      b )
     3.54324490E-05    2     1000006       -24   # BR(~b_2 -> ~t_1    W-)
#
#         PDG            Width
DECAY   1000002     2.56573160E+02   # sup_L decays
#          BR         NDA      ID1       ID2
     2.90319544E-03    2     1000022         2   # BR(~u_L -> ~chi_10 u)
     6.25958044E-05    2     1000023         2   # BR(~u_L -> ~chi_20 u)
     3.78847638E-06    2     1000025         2   # BR(~u_L -> ~chi_30 u)
     3.06911242E-02    2     1000035         2   # BR(~u_L -> ~chi_40 u)
     1.97907174E-04    2     1000024         1   # BR(~u_L -> ~chi_1+ d)
     6.13431004E-02    2     1000037         1   # BR(~u_L -> ~chi_2+ d)
     9.04798288E-01    2     1000021         2   # BR(~u_L -> ~g      u)
#
#         PDG            Width
DECAY   2000002     2.42567119E+02   # sup_R decays
#          BR         NDA      ID1       ID2
     4.88502772E-02    2     1000022         2   # BR(~u_R -> ~chi_10 u)
     9.20800111E-05    2     1000023         2   # BR(~u_R -> ~chi_20 u)
     9.86766889E-05    2     1000025         2   # BR(~u_R -> ~chi_30 u)
     2.98804432E-09    2     1000035         2   # BR(~u_R -> ~chi_40 u)
     9.50958963E-01    2     1000021         2   # BR(~u_R -> ~g      u)
#
#         PDG            Width
DECAY   1000001     2.56587545E+02   # sdown_L decays
#          BR         NDA      ID1       ID2
     2.89028657E-03    2     1000022         1   # BR(~d_L -> ~chi_10 d)
     1.04837225E-05    2     1000023         1   # BR(~d_L -> ~chi_20 d)
     4.60369537E-05    2     1000025         1   # BR(~d_L -> ~chi_30 d)
     3.07082446E-02    2     1000035         1   # BR(~d_L -> ~chi_40 d)
     2.92563197E-06    2    -1000024         2   # BR(~d_L -> ~chi_1- u)
     6.14401164E-02    2    -1000037         2   # BR(~d_L -> ~chi_2- u)
     9.04901906E-01    2     1000021         1   # BR(~d_L -> ~g      d)
#
#         PDG            Width
DECAY   2000001     2.33670088E+02   # sdown_R decays
#          BR         NDA      ID1       ID2
     1.26783122E-02    2     1000022         1   # BR(~d_R -> ~chi_10 d)
     2.38980052E-05    2     1000023         1   # BR(~d_R -> ~chi_20 d)
     2.56100761E-05    2     1000025         1   # BR(~d_R -> ~chi_30 d)
     7.75603873E-10    2     1000035         1   # BR(~d_R -> ~chi_40 d)
     9.87272179E-01    2     1000021         1   # BR(~d_R -> ~g      d)
#
#         PDG            Width
DECAY   1000004     2.56573160E+02   # scharm_L decays
#          BR         NDA      ID1       ID2
     2.90319544E-03    2     1000022         4   # BR(~c_L -> ~chi_10 c)
     6.25958044E-05    2     1000023         4   # BR(~c_L -> ~chi_20 c)
     3.78847638E-06    2     1000025         4   # BR(~c_L -> ~chi_30 c)
     3.06911242E-02    2     1000035         4   # BR(~c_L -> ~chi_40 c)
     1.97907174E-04    2     1000024         3   # BR(~c_L -> ~chi_1+ s)
     6.13431004E-02    2     1000037         3   # BR(~c_L -> ~chi_2+ s)
     9.04798288E-01    2     1000021         4   # BR(~c_L -> ~g      c)
#
#         PDG            Width
DECAY   2000004     2.42567119E+02   # scharm_R decays
#          BR         NDA      ID1       ID2
     4.88502772E-02    2     1000022         4   # BR(~c_R -> ~chi_10 c)
     9.20800111E-05    2     1000023         4   # BR(~c_R -> ~chi_20 c)
     9.86766889E-05    2     1000025         4   # BR(~c_R -> ~chi_30 c)
     2.98804432E-09    2     1000035         4   # BR(~c_R -> ~chi_40 c)
     9.50958963E-01    2     1000021         4   # BR(~c_R -> ~g      c)
#
#         PDG            Width
DECAY   1000003     2.56587545E+02   # sstrange_L decays
#          BR         NDA      ID1       ID2
     2.89028657E-03    2     1000022         3   # BR(~s_L -> ~chi_10 s)
     1.04837225E-05    2     1000023         3   # BR(~s_L -> ~chi_20 s)
     4.60369537E-05    2     1000025         3   # BR(~s_L -> ~chi_30 s)
     3.07082446E-02    2     1000035         3   # BR(~s_L -> ~chi_40 s)
     2.92563197E-06    2    -1000024         4   # BR(~s_L -> ~chi_1- c)
     6.14401164E-02    2    -1000037         4   # BR(~s_L -> ~chi_2- c)
     9.04901906E-01    2     1000021         3   # BR(~s_L -> ~g      s)
#
#         PDG            Width
DECAY   2000003     2.33670088E+02   # sstrange_R decays
#          BR         NDA      ID1       ID2
     1.26783122E-02    2     1000022         3   # BR(~s_R -> ~chi_10 s)
     2.38980052E-05    2     1000023         3   # BR(~s_R -> ~chi_20 s)
     2.56100761E-05    2     1000025         3   # BR(~s_R -> ~chi_30 s)
     7.75603873E-10    2     1000035         3   # BR(~s_R -> ~chi_40 s)
     9.87272179E-01    2     1000021         3   # BR(~s_R -> ~g      s)
#
#         PDG            Width
DECAY   1000011     3.03033523E+01   # selectron_L decays
#          BR         NDA      ID1       ID2
     2.25807733E-01    2     1000022        11   # BR(~e_L -> ~chi_10 e-)
     1.36805113E-03    2     1000023        11   # BR(~e_L -> ~chi_20 e-)
     7.22384487E-05    2     1000025        11   # BR(~e_L -> ~chi_30 e-)
     2.57405668E-01    2     1000035        11   # BR(~e_L -> ~chi_40 e-)
     2.52665695E-05    2    -1000024        12   # BR(~e_L -> ~chi_1- nu_e)
     5.15321043E-01    2    -1000037        12   # BR(~e_L -> ~chi_2- nu_e)
#
#         PDG            Width
DECAY   2000011     2.73850097E+01   # selectron_R decays
#          BR         NDA      ID1       ID2
     9.96118258E-01    2     1000022        11   # BR(~e_R -> ~chi_10 e-)
     1.87373207E-03    2     1000023        11   # BR(~e_R -> ~chi_20 e-)
     2.00795063E-03    2     1000025        11   # BR(~e_R -> ~chi_30 e-)
     5.91612910E-08    2     1000035        11   # BR(~e_R -> ~chi_40 e-)
#
#         PDG            Width
DECAY   1000013     3.03033523E+01   # smuon_L decays
#          BR         NDA      ID1       ID2
     2.25807733E-01    2     1000022        13   # BR(~mu_L -> ~chi_10 mu-)
     1.36805113E-03    2     1000023        13   # BR(~mu_L -> ~chi_20 mu-)
     7.22384487E-05    2     1000025        13   # BR(~mu_L -> ~chi_30 mu-)
     2.57405668E-01    2     1000035        13   # BR(~mu_L -> ~chi_40 mu-)
     2.52665695E-05    2    -1000024        14   # BR(~mu_L -> ~chi_1- nu_mu)
     5.15321043E-01    2    -1000037        14   # BR(~mu_L -> ~chi_2- nu_mu)
#
#         PDG            Width
DECAY   2000013     2.73850097E+01   # smuon_R decays
#          BR         NDA      ID1       ID2
     9.96118258E-01    2     1000022        13   # BR(~mu_R -> ~chi_10 mu-)
     1.87373207E-03    2     1000023        13   # BR(~mu_R -> ~chi_20 mu-)
     2.00795063E-03    2     1000025        13   # BR(~mu_R -> ~chi_30 mu-)
     5.91612910E-08    2     1000035        13   # BR(~mu_R -> ~chi_40 mu-)
#
#         PDG            Width
DECAY   1000015     2.91960860E+01   # stau_1 decays
#          BR         NDA      ID1       ID2
     9.30629404E-01    2     1000022        15   # BR(~tau_1 -> ~chi_10  tau-)
     1.70519101E-02    2     1000023        15   # BR(~tau_1 -> ~chi_20  tau-)
     1.65292406E-02    2     1000025        15   # BR(~tau_1 -> ~chi_30  tau-)
     1.66214117E-03    2     1000035        15   # BR(~tau_1 -> ~chi_40  tau-)
     3.07999249E-02    2    -1000024        16   # BR(~tau_1 -> ~chi_1-  nu_tau)
     3.32737918E-03    2    -1000037        16   # BR(~tau_1 -> ~chi_2-  nu_tau)
#
#         PDG            Width
DECAY   2000015     3.11826234E+01   # stau_2 decays
#          BR         NDA      ID1       ID2
     2.22924271E-01    2     1000022        15   # BR(~tau_2 -> ~chi_10  tau-)
     1.58578676E-02    2     1000023        15   # BR(~tau_2 -> ~chi_20  tau-)
     1.51340429E-02    2     1000025        15   # BR(~tau_2 -> ~chi_30  tau-)
     2.48505323E-01    2     1000035        15   # BR(~tau_2 -> ~chi_40  tau-)
     7.51450327E-05    2    -1000024        16   # BR(~tau_2 -> ~chi_1-  nu_tau)
     4.97503350E-01    2    -1000037        16   # BR(~tau_2 -> ~chi_2-  nu_tau)
#
#         PDG            Width
DECAY   1000012     3.03064457E+01   # snu_eL decays
#          BR         NDA      ID1       ID2
     2.25403978E-01    2     1000022        12   # BR(~nu_eL -> ~chi_10 nu_e)
     1.78087222E-05    2     1000023        12   # BR(~nu_eL -> ~chi_20 nu_e)
     1.16647565E-03    2     1000025        12   # BR(~nu_eL -> ~chi_30 nu_e)
     2.57449349E-01    2     1000035        12   # BR(~nu_eL -> ~chi_40 nu_e)
     1.70873555E-03    2     1000024        11   # BR(~nu_eL -> ~chi_1+ e-)
     5.14253653E-01    2     1000037        11   # BR(~nu_eL -> ~chi_2+ e-)
#
#         PDG            Width
DECAY   1000014     3.03064457E+01   # snu_muL decays
#          BR         NDA      ID1       ID2
     2.25403978E-01    2     1000022        14   # BR(~nu_muL -> ~chi_10 nu_mu)
     1.78087222E-05    2     1000023        14   # BR(~nu_muL -> ~chi_20 nu_mu)
     1.16647565E-03    2     1000025        14   # BR(~nu_muL -> ~chi_30 nu_mu)
     2.57449349E-01    2     1000035        14   # BR(~nu_muL -> ~chi_40 nu_mu)
     1.70873555E-03    2     1000024        13   # BR(~nu_muL -> ~chi_1+ mu-)
     5.14253653E-01    2     1000037        13   # BR(~nu_muL -> ~chi_2+ mu-)
#
#         PDG            Width
DECAY   1000016     3.12003078E+01   # snu_tauL decays
#          BR         NDA      ID1       ID2
     2.18922356E-01    2     1000022        16   # BR(~nu_tauL -> ~chi_10 nu_tau)
     1.72964728E-05    2     1000023        16   # BR(~nu_tauL -> ~chi_20 nu_tau)
     1.13292313E-03    2     1000025        16   # BR(~nu_tauL -> ~chi_30 nu_tau)
     2.49980453E-01    2     1000035        16   # BR(~nu_tauL -> ~chi_40 nu_tau)
     3.06129820E-02    2     1000024        15   # BR(~nu_tauL -> ~chi_1+ tau-)
     4.99333989E-01    2     1000037        15   # BR(~nu_tauL -> ~chi_2+ tau-)
#
#         PDG            Width
DECAY   1000024     4.20439523E-01   # chargino1+ decays
#          BR         NDA      ID1       ID2
     1.00000000E+00    2     1000022        24   # BR(~chi_1+ -> ~chi_10  W+)
#
#         PDG            Width
DECAY   1000037     2.14613812E+01   # chargino2+ decays
#          BR         NDA      ID1       ID2
     2.53433541E-01    2     1000024        23   # BR(~chi_2+ -> ~chi_1+  Z )
     1.77978063E-04    2     1000022        24   # BR(~chi_2+ -> ~chi_10  W+)
     2.44568182E-01    2     1000023        24   # BR(~chi_2+ -> ~chi_20  W+)
     2.44276115E-01    2     1000025        24   # BR(~chi_2+ -> ~chi_30  W+)
     2.57541619E-01    2     1000024        25   # BR(~chi_2+ -> ~chi_1+  h )
     2.56520493E-06    2     1000022        37   # BR(~chi_2+ -> ~chi_10  H+)
#
#         PDG            Width
DECAY   1000022     0.00000000E+00   # neutralino1 decays
#
#         PDG            Width
DECAY   1000023     4.34171380E-01   # neutralino2 decays
#          BR         NDA      ID1       ID2
     5.22414320E-01    2     1000022        23   # BR(~chi_20 -> ~chi_10   Z )
     4.77585680E-01    2     1000022        25   # BR(~chi_20 -> ~chi_10   h )
#
#         PDG            Width
DECAY   1000025     4.32042934E-01   # neutralino3 decays
#          BR         NDA      ID1       ID2
     4.83902617E-01    2     1000022        23   # BR(~chi_30 -> ~chi_10   Z )
     5.16097383E-01    2     1000022        25   # BR(~chi_30 -> ~chi_10   h )
#
#         PDG            Width
DECAY   1000035     2.14764726E+01   # neutralino4 decays
#          BR         NDA      ID1       ID2
     2.28862841E-05    2     1000022        23   # BR(~chi_40 -> ~chi_10   Z )
     9.62853417E-02    2     1000023        23   # BR(~chi_40 -> ~chi_20   Z )
     1.56539743E-01    2     1000025        23   # BR(~chi_40 -> ~chi_30   Z )
     2.45019222E-01    2     1000024       -24   # BR(~chi_40 -> ~chi_1+   W-)
     2.45019222E-01    2    -1000024        24   # BR(~chi_40 -> ~chi_1-   W+)
     1.52141303E-04    2     1000022        25   # BR(~chi_40 -> ~chi_10   h )
     2.45100966E-06    2     1000022        35   # BR(~chi_40 -> ~chi_10   H )
     2.79291004E-07    2     1000022        36   # BR(~chi_40 -> ~chi_10   A )
     1.60392081E-01    2     1000023        25   # BR(~chi_40 -> ~chi_20   h )
     9.65666324E-02    2     1000025        25   # BR(~chi_40 -> ~chi_30   h )
#
#         PDG            Width
DECAY        25     4.06584785E-03   # h decays
#          BR         NDA      ID1       ID2
     6.08873832E-01    2           5        -5   # BR(h -> b       bb     )
     6.37967937E-02    2         -15        15   # BR(h -> tau+    tau-   )
     2.25863842E-04    2         -13        13   # BR(h -> mu+     mu-    )
     4.78816925E-04    2           3        -3   # BR(h -> s       sb     )
     2.07468997E-02    2           4        -4   # BR(h -> c       cb     )
     6.71126486E-02    2          21        21   # BR(h -> g       g      )
     2.30713450E-03    2          22        22   # BR(h -> gam     gam    )
     1.48787021E-03    2          22        23   # BR(h -> Z       gam    )
     2.09883349E-01    2          24       -24   # BR(h -> W+      W-     )
     2.50069477E-02    2          23        23   # BR(h -> Z       Z      )
     7.98434807E-05    2     1000022   1000022   # BR(h -> ~chi_10 ~chi_10)
#
#         PDG            Width
DECAY        35     8.47984584E+00   # H decays
#          BR         NDA      ID1       ID2
     3.78095740E-01    2           5        -5   # BR(H -> b       bb     )
     6.56911925E-02    2         -15        15   # BR(H -> tau+    tau-   )
     2.32289275E-04    2         -13        13   # BR(H -> mu+     mu-    )
     2.84751013E-04    2           3        -3   # BR(H -> s       sb     )
     1.59323989E-06    2           4        -4   # BR(H -> c       cb     )
     1.59177286E-01    2           6        -6   # BR(H -> t       tb     )
     5.29224080E-05    2          21        21   # BR(H -> g       g      )
     1.84850065E-07    2          22        22   # BR(H -> gam     gam    )
     9.39603184E-08    2          23        22   # BR(H -> Z       gam    )
     7.48891005E-05    2          24       -24   # BR(H -> W+      W-     )
     3.73971505E-05    2          23        23   # BR(H -> Z       Z      )
     2.74119458E-04    2          25        25   # BR(H -> h       h      )
    -3.76759150E-23    2          36        36   # BR(H -> A       A      )
     1.01098077E-18    2          23        36   # BR(H -> Z       A      )
     2.81425909E-03    2     1000024  -1000024   # BR(H -> ~chi_1+ ~chi_1-)
     3.48084394E-03    2     1000022   1000022   # BR(H -> ~chi_10 ~chi_10)
     1.48446523E-05    2     1000023   1000023   # BR(H -> ~chi_20 ~chi_20)
     1.35571839E-03    2     1000025   1000025   # BR(H -> ~chi_30 ~chi_30)
     2.33785496E-01    2     1000022   1000023   # BR(H -> ~chi_10 ~chi_20)
     1.53105991E-01    2     1000022   1000025   # BR(H -> ~chi_10 ~chi_30)
     1.52038835E-03    2     1000023   1000025   # BR(H -> ~chi_20 ~chi_30)
#
#         PDG            Width
DECAY        36     8.48986003E+00   # A decays
#          BR         NDA      ID1       ID2
     3.77778221E-01    2           5        -5   # BR(A -> b       bb     )
     6.56156644E-02    2         -15        15   # BR(A -> tau+    tau-   )
     2.32021877E-04    2         -13        13   # BR(A -> mu+     mu-    )
     2.84631145E-04    2           3        -3   # BR(A -> s       sb     )
     1.59779093E-06    2           4        -4   # BR(A -> c       cb     )
     1.59543892E-01    2           6        -6   # BR(A -> t       tb     )
     1.57876427E-04    2          21        21   # BR(A -> g       g      )
     5.99901580E-07    2          22        22   # BR(A -> gam     gam    )
     1.91155364E-07    2          23        22   # BR(A -> Z       gam    )
     7.45178070E-05    2          23        25   # BR(A -> Z       h      )
     3.41353429E-03    2     1000024  -1000024   # BR(A -> ~chi_1+ ~chi_1-)
     3.50880795E-03    2     1000022   1000022   # BR(A -> ~chi_10 ~chi_10)
     1.23958850E-05    2     1000023   1000023   # BR(A -> ~chi_20 ~chi_20)
     2.65480425E-03    2     1000025   1000025   # BR(A -> ~chi_30 ~chi_30)
     1.55730717E-01    2     1000022   1000023   # BR(A -> ~chi_10 ~chi_20)
     2.30161022E-01    2     1000022   1000025   # BR(A -> ~chi_10 ~chi_30)
     8.29504056E-04    2     1000023   1000025   # BR(A -> ~chi_20 ~chi_30)
#
#         PDG            Width
DECAY        37     8.44269253E+00   # H+ decays
#          BR         NDA      ID1       ID2
     6.07102720E-04    2           4        -5   # BR(H+ -> c       bb     )
     6.60125794E-02    2         -15        16   # BR(H+ -> tau+    nu_tau )
     2.33425398E-04    2         -13        14   # BR(H+ -> mu+     nu_mu  )
     3.88543715E-06    2           2        -5   # BR(H+ -> u       bb     )
     1.36966177E-05    2           2        -3   # BR(H+ -> u       sb     )
     2.83247230E-04    2           4        -3   # BR(H+ -> c       sb     )
     5.36551093E-01    2           6        -5   # BR(H+ -> t       bb     )
     7.50858561E-05    2          24        25   # BR(H+ -> W+      h      )
     7.76765342E-13    2          24        36   # BR(H+ -> W+      A      )
     3.94295744E-01    2     1000024   1000022   # BR(H+ -> ~chi_1+ ~chi_10)
     1.86967819E-03    2     1000024   1000023   # BR(H+ -> ~chi_1+ ~chi_20)
     5.44624491E-05    2     1000024   1000025   # BR(H+ -> ~chi_1+ ~chi_30)
