#
#                              ======================
#                              | THE SUSYHIT OUTPUT |
#                              ======================
#
#
#              ------------------------------------------------------
#              |     This is the output of the SUSY-HIT package     |
#              |  created by A.Djouadi, M.Muehlleitner and M.Spira. |
#              |  In case of problems with SUSY-HIT email to        |
#              |           margarete.muehlleitner@cern.ch           |
#              |           michael.spira@psi.ch                     |
#              |           abdelhak.djouadi@cern.ch                 |
#              ------------------------------------------------------
#
#              ------------------------------------------------------
#              |  SUSY Les Houches Accord - MSSM Spectrum + Decays  |
#              |              based on the decay programs           |
#              |                                                    |
#              |                     SDECAY 1.3b                    |
#              |                                                    |
#              |  Authors: M.Muhlleitner, A.Djouadi and Y.Mambrini  |
#              |  Ref.:    Comput.Phys.Commun.168(2005)46           |
#              |           [hep-ph/0311167]                         |
#              |                                                    |
#              |                     HDECAY 3.4                     |
#              |                                                    |
#              |  By: A.Djouadi,J.Kalinowski,M.Muhlleitner,M.Spira  |
#              |  Ref.:    Comput.Phys.Commun.108(1998)56           |
#              |           [hep-ph/9704448]                         |
#              |                                                    |
#              |                                                    |
#              |  If not stated otherwise all DRbar couplings and   |
#              |  soft SUSY breaking masses are given at the scale  |
#              |  Q=  0.50007404E+04
#              |                                                    |
#              ------------------------------------------------------
#
#
BLOCK DCINFO  # Decay Program information
     1   SDECAY/HDECAY # decay calculator
     2   1.3b  /3.4    # version number
#
BLOCK SPINFO  # Spectrum calculator information
     1    SOFTSUSY    # spectrum calculator                
     2    3.4.0       # version number                     
#
BLOCK MODSEL  # Model selection
     1     0   #  nonUniversal                                     
#
BLOCK SMINPUTS  # Standard Model inputs
         1     1.25778332E+02   # alpha_em^-1(M_Z)^MSbar
         2     1.16570000E-05   # G_F [GeV^-2]
         3     1.17200002E-01   # alpha_S(M_Z)^MSbar
         4     9.11876000E+01   # M_Z pole mass
         5     4.25000000E+00   # mb(mb)^MSbar
         6     1.72500000E+02   # mt pole mass
         7     1.77682000E+00   # mtau pole mass
#
BLOCK MINPAR  # Input parameters - minimal models
         3     1.00000000E+01   # tanb                
#
BLOCK EXTPAR  # Input parameters - non-minimal models
         0    -1.00000000E+00   # Set                 
         1     6.00000000E+01   # M_1(MX)             
         2     3.00000000E+03   # M_2(MX)             
         3     1.30154100E+03   # M_3(MX)             
        11     5.00000000E+03   # At(MX)              
        12     5.00000000E+03   # Ab(MX)              
        13     0.00000000E+00   # Atau(MX)            
        23    -8.61963000E+02   # mu(MX)              
        26     3.00000000E+03   # mA(pole)            
        31     5.00000000E+03   # meL(MX)             
        32     5.00000000E+03   # mmuL(MX)            
        33     5.00000000E+03   # mtauL(MX)           
        34     5.00000000E+03   # meR(MX)             
        35     5.00000000E+03   # mmuR(MX)            
        36     5.00000000E+03   # mtauR(MX)           
        41     5.00000000E+03   # mqL1(MX)            
        42     5.00000000E+03   # mqL2(MX)            
        43     5.00000000E+03   # mqL3(MX)            
        44     5.00000000E+03   # muR(MX)             
        45     5.00000000E+03   # mcR(MX)             
        46     5.00000000E+03   # mtR(MX)             
        47     5.00000000E+03   # mdR(MX)             
        48     5.00000000E+03   # msR(MX)             
        49     5.00000000E+03   # mbR(MX)             
#
BLOCK MASS  # Mass Spectrum
# PDG code           mass       particle
        24     8.00940689E+01   # W+
        25     1.24654967E+02   # h
        35     3.00007349E+03   # H
        36     2.99997937E+03   # A
        37     3.00132343E+03   # H+
         5     4.87878001E+00   # b-quark pole mass calculated from mb(mb)_Msbar
   1000001     5.06753567E+03   # ~d_L
   2000001     5.04971053E+03   # ~d_R
   1000002     5.06706026E+03   # ~u_L
   2000002     5.04942174E+03   # ~u_R
   1000003     5.06753567E+03   # ~s_L
   2000003     5.04971053E+03   # ~s_R
   1000004     5.06706026E+03   # ~c_L
   2000004     5.04942174E+03   # ~c_R
   1000005     5.01343097E+03   # ~b_1
   2000005     5.04818813E+03   # ~b_2
   1000006     4.90403078E+03   # ~t_1
   2000006     5.05864745E+03   # ~t_2
   1000011     5.01907767E+03   # ~e_L
   2000011     5.00592776E+03   # ~e_R
   1000012     5.01812865E+03   # ~nu_eL
   1000013     5.01907767E+03   # ~mu_L
   2000013     5.00592776E+03   # ~mu_R
   1000014     5.01812865E+03   # ~nu_muL
   1000015     5.00465125E+03   # ~tau_1
   2000015     5.01873103E+03   # ~tau_2
   1000016     5.01758129E+03   # ~nu_tauL
   1000021     1.60000068E+03   # ~g
   1000022     6.02944464E+01   # ~chi_10
   1000023     8.99733230E+02   # ~chi_20
   1000025    -9.01973508E+02   # ~chi_30
   1000035     3.07423611E+03   # ~chi_40
   1000024     9.00000068E+02   # ~chi_1+
   1000037     3.07440362E+03   # ~chi_2+
#
BLOCK NMIX  # Neutralino Mixing Matrix
  1  1     9.98775495E-01   # N_11
  1  2     1.95979323E-04   # N_12
  1  3    -4.94377165E-02   # N_13
  1  4     1.83989769E-03   # N_14
  2  1     3.36684590E-02   # N_21
  2  2     2.24268108E-02   # N_22
  2  3     7.06575486E-01   # N_23
  2  4     7.06480400E-01   # N_24
  3  1    -3.62462265E-02   # N_31
  3  2     1.52912070E-02   # N_32
  3  3    -7.05890606E-01   # N_33
  3  4     7.07227575E-01   # N_34
  4  1    -3.96713129E-04   # N_41
  4  2     9.99631521E-01   # N_42
  4  3    -5.04448534E-03   # N_43
  4  4    -2.66686529E-02   # N_44
#
BLOCK UMIX  # Chargino Mixing Matrix U
  1  1     7.14636236E-03   # U_11
  1  2     9.99974464E-01   # U_12
  2  1    -9.99974464E-01   # U_21
  2  2     7.14636236E-03   # U_22
#
BLOCK VMIX  # Chargino Mixing Matrix V
  1  1     3.77445077E-02   # V_11
  1  2    -9.99287422E-01   # V_12
  2  1    -9.99287422E-01   # V_21
  2  2    -3.77445077E-02   # V_22
#
BLOCK STOPMIX  # Stop Mixing Matrix
  1  1    -5.07632297E-01   # cos(theta_t)
  1  2     8.61573822E-01   # sin(theta_t)
  2  1    -8.61573822E-01   # -sin(theta_t)
  2  2    -5.07632297E-01   # cos(theta_t)
#
BLOCK SBOTMIX  # Sbottom Mixing Matrix
  1  1     9.97464489E-01   # cos(theta_b)
  1  2    -7.11659552E-02   # sin(theta_b)
  2  1     7.11659552E-02   # -sin(theta_b)
  2  2     9.97464489E-01   # cos(theta_b)
#
BLOCK STAUMIX  # Stau Mixing Matrix
  1  1    -1.02683365E-01   # cos(theta_tau)
  1  2     9.94714093E-01   # sin(theta_tau)
  2  1    -9.94714093E-01   # -sin(theta_tau)
  2  2    -1.02683365E-01   # cos(theta_tau)
#
BLOCK ALPHA  # Higgs mixing
          -1.05462979E-01   # Mixing angle in the neutral Higgs boson sector
#
BLOCK HMIX Q=  5.00074041E+03  # DRbar Higgs Parameters
         1    -8.77620701E+02   # mu(Q)MSSM           
         2     9.47088812E+00   # tan                 
         3     2.41849832E+02   # higgs               
         4     8.54332405E+06   # mA^2(Q)MSSM         
#
BLOCK GAUGE Q=  5.00074041E+03  # The gauge couplings
     1     3.70829323E-01   # gprime(Q) DRbar
     2     6.32692816E-01   # g(Q) DRbar
     3     1.00176716E+00   # g3(Q) DRbar
#
BLOCK AU Q=  5.00074041E+03  # The trilinear couplings
  1  1     5.00000001E+03   # A_u(Q) DRbar
  2  2     5.00000001E+03   # A_c(Q) DRbar
  3  3     5.00000001E+03   # A_t(Q) DRbar
#
BLOCK AD Q=  5.00074041E+03  # The trilinear couplings
  1  1     5.00000000E+03   # A_d(Q) DRbar
  2  2     5.00000000E+03   # A_s(Q) DRbar
  3  3     5.00000001E+03   # A_b(Q) DRbar
#
BLOCK AE Q=  5.00074041E+03  # The trilinear couplings
  1  1     0.00000000E+00   # A_e(Q) DRbar
  2  2     1.12552006E-07   # A_mu(Q) DRbar
  3  3     1.11948650E-07   # A_tau(Q) DRbar
#
BLOCK Yu Q=  5.00074041E+03  # The Yukawa couplings
  1  1     0.00000000E+00   # y_u(Q) DRbar
  2  2     0.00000000E+00   # y_c(Q) DRbar
  3  3     8.18342051E-01   # y_t(Q) DRbar
#
BLOCK Yd Q=  5.00074041E+03  # The Yukawa couplings
  1  1     0.00000000E+00   # y_d(Q) DRbar
  2  2     0.00000000E+00   # y_s(Q) DRbar
  3  3     1.30132734E-01   # y_b(Q) DRbar
#
BLOCK Ye Q=  5.00074041E+03  # The Yukawa couplings
  1  1     0.00000000E+00   # y_e(Q) DRbar
  2  2     0.00000000E+00   # y_mu(Q) DRbar
  3  3     9.69121286E-02   # y_tau(Q) DRbar
#
BLOCK MSOFT Q=  5.00074041E+03  # The soft SUSY breaking masses at the scale Q
         1     6.00000000E+01   # M_1(Q)              
         2     3.00000000E+03   # M_2(Q)              
         3     1.30154100E+03   # M_3(Q)              
        21     7.93199523E+06   # mH1^2(Q)            
        22    -2.04753210E+05   # mH2^2(Q)            
        31     5.00000000E+03   # meL(Q)              
        32     5.00000000E+03   # mmuL(Q)             
        33     5.00000000E+03   # mtauL(Q)            
        34     5.00000000E+03   # meR(Q)              
        35     5.00000000E+03   # mmuR(Q)             
        36     5.00000000E+03   # mtauR(Q)            
        41     5.00000000E+03   # mqL1(Q)             
        42     5.00000000E+03   # mqL2(Q)             
        43     5.00000000E+03   # mqL3(Q)             
        44     5.00000000E+03   # muR(Q)              
        45     5.00000000E+03   # mcR(Q)              
        46     4.99999999E+03   # mtR(Q)              
        47     5.00000000E+03   # mdR(Q)              
        48     5.00000000E+03   # msR(Q)              
        49     5.00000000E+03   # mbR(Q)              
#
#
#
#                             =================
#                             |The decay table|
#                             =================
#
# - The QCD corrections to the decays gluino -> squark  + quark
#                                     squark -> gaugino + quark_prime
#                                     squark -> squark_prime + Higgs
#                                     squark -> gluino  + quark
#   are included.
#
# - The multi-body decays for the inos, stops and sbottoms are included.
#
# - The loop induced decays for the gluino, neutralinos and stops
#   are included.
#
# - The SUSY decays of the top quark are included.
#
#
#         PDG            Width
DECAY         6     1.40282843E+00   # top decays
#          BR         NDA      ID1       ID2
     1.00000000E+00    2           5        24   # BR(t ->  b    W+)
#
#         PDG            Width
DECAY   1000021     1.51825599E-04   # gluino decays
#          BR         NDA      ID1       ID2
     6.34775547E-06    2     1000022        21   # BR(~g -> ~chi_10 g)
     1.69085669E-02    2     1000023        21   # BR(~g -> ~chi_20 g)
     1.65558345E-02    2     1000025        21   # BR(~g -> ~chi_30 g)
#           BR         NDA      ID1       ID2       ID3
     4.89239085E-02    3     1000022         1        -1   # BR(~g -> ~chi_10 d  db)
     1.48853022E-05    3     1000023         1        -1   # BR(~g -> ~chi_20 d  db)
     8.89461065E-06    3     1000025         1        -1   # BR(~g -> ~chi_30 d  db)
     1.66811594E-01    3     1000022         2        -2   # BR(~g -> ~chi_10 u  ub)
     5.38580901E-05    3     1000023         2        -2   # BR(~g -> ~chi_20 u  ub)
     1.11430932E-05    3     1000025         2        -2   # BR(~g -> ~chi_30 u  ub)
     4.89239085E-02    3     1000022         3        -3   # BR(~g -> ~chi_10 s  sb)
     1.48853022E-05    3     1000023         3        -3   # BR(~g -> ~chi_20 s  sb)
     8.89461065E-06    3     1000025         3        -3   # BR(~g -> ~chi_30 s  sb)
     1.66811594E-01    3     1000022         4        -4   # BR(~g -> ~chi_10 c  cb)
     5.38580901E-05    3     1000023         4        -4   # BR(~g -> ~chi_20 c  cb)
     1.11430932E-05    3     1000025         4        -4   # BR(~g -> ~chi_30 c  cb)
     4.96578244E-02    3     1000022         5        -5   # BR(~g -> ~chi_10 b  bb)
     3.13145832E-03    3     1000023         5        -5   # BR(~g -> ~chi_20 b  bb)
     3.06926505E-03    3     1000025         5        -5   # BR(~g -> ~chi_30 b  bb)
     1.50382999E-01    3     1000022         6        -6   # BR(~g -> ~chi_10 t  tb)
     7.95808917E-02    3     1000023         6        -6   # BR(~g -> ~chi_20 t  tb)
     5.47277293E-02    3     1000025         6        -6   # BR(~g -> ~chi_30 t  tb)
     4.10797531E-05    3     1000024         1        -2   # BR(~g -> ~chi_1+ d  ub)
     4.10797531E-05    3    -1000024         2        -1   # BR(~g -> ~chi_1- u  db)
     4.10797531E-05    3     1000024         3        -4   # BR(~g -> ~chi_1+ s  cb)
     4.10797531E-05    3    -1000024         4        -3   # BR(~g -> ~chi_1- c  sb)
     9.70830987E-02    3     1000024         5        -6   # BR(~g -> ~chi_1+ b  tb)
     9.70830987E-02    3    -1000024         6        -5   # BR(~g -> ~chi_1- t  bb)
#
#         PDG            Width
DECAY   1000006     3.76683536E+02   # stop1 decays
#          BR         NDA      ID1       ID2
     2.34355498E-02    2     1000022         6   # BR(~t_1 -> ~chi_10 t )
     8.21042755E-02    2     1000023         6   # BR(~t_1 -> ~chi_20 t )
     7.87800771E-02    2     1000025         6   # BR(~t_1 -> ~chi_30 t )
     5.52571880E-03    2     1000035         6   # BR(~t_1 -> ~chi_40 t )
     1.19069276E-01    2     1000024         5   # BR(~t_1 -> ~chi_1+ b )
     1.10107280E-02    2     1000037         5   # BR(~t_1 -> ~chi_2+ b )
     6.80074374E-01    2     1000021         6   # BR(~t_1 -> ~g      t )
#
#         PDG            Width
DECAY   2000006     3.80984010E+02   # stop2 decays
#          BR         NDA      ID1       ID2
     9.23175677E-03    2     1000022         6   # BR(~t_2 -> ~chi_10 t )
     8.28307543E-02    2     1000023         6   # BR(~t_2 -> ~chi_20 t )
     8.64501081E-02    2     1000025         6   # BR(~t_2 -> ~chi_30 t )
     1.45052151E-02    2     1000035         6   # BR(~t_2 -> ~chi_40 t )
     4.95510947E-02    2     1000024         5   # BR(~t_2 -> ~chi_1+ b )
     2.88655201E-02    2     1000037         5   # BR(~t_2 -> ~chi_2+ b )
     7.25223275E-01    2     1000021         6   # BR(~t_2 -> ~g      t )
     7.57945689E-04    2     1000006        25   # BR(~t_2 -> ~t_1    h )
     2.58432968E-03    2     1000006        23   # BR(~t_2 -> ~t_1    Z )
#
#         PDG            Width
DECAY   1000005     3.57275114E+02   # sbottom1 decays
#          BR         NDA      ID1       ID2
     2.16509450E-03    2     1000022         5   # BR(~b_1 -> ~chi_10 b )
     2.24639760E-03    2     1000023         5   # BR(~b_1 -> ~chi_20 b )
     2.19605798E-03    2     1000025         5   # BR(~b_1 -> ~chi_30 b )
     2.10654048E-02    2     1000035         5   # BR(~b_1 -> ~chi_40 b )
     1.75307175E-01    2    -1000024         6   # BR(~b_1 -> ~chi_1- t )
     4.23166177E-02    2    -1000037         6   # BR(~b_1 -> ~chi_2- t )
     7.53118066E-01    2     1000021         5   # BR(~b_1 -> ~g      b )
     1.58518658E-03    2     1000006       -24   # BR(~b_1 -> ~t_1    W-)
#
#         PDG            Width
DECAY   2000005     2.78126351E+02   # sbottom2 decays
#          BR         NDA      ID1       ID2
     1.05694734E-02    2     1000022         5   # BR(~b_2 -> ~chi_10 b )
     2.89310582E-03    2     1000023         5   # BR(~b_2 -> ~chi_20 b )
     2.96344543E-03    2     1000025         5   # BR(~b_2 -> ~chi_30 b )
     1.39741343E-04    2     1000035         5   # BR(~b_2 -> ~chi_40 b )
     6.87127657E-03    2    -1000024         6   # BR(~b_2 -> ~chi_1- t )
     2.80686104E-04    2    -1000037         6   # BR(~b_2 -> ~chi_2- t )
     9.76239591E-01    2     1000021         5   # BR(~b_2 -> ~g      b )
     4.26806437E-05    2     1000006       -24   # BR(~b_2 -> ~t_1    W-)
#
#         PDG            Width
DECAY   1000002     2.97197016E+02   # sup_L decays
#          BR         NDA      ID1       ID2
     2.51224439E-03    2     1000022         2   # BR(~u_L -> ~chi_10 u)
     5.20180907E-05    2     1000023         2   # BR(~u_L -> ~chi_20 u)
     4.16618316E-06    2     1000025         2   # BR(~u_L -> ~chi_30 u)
     2.63681628E-02    2     1000035         2   # BR(~u_L -> ~chi_40 u)
     1.76173264E-04    2     1000024         1   # BR(~u_L -> ~chi_1+ d)
     5.27015481E-02    2     1000037         1   # BR(~u_L -> ~chi_2+ d)
     9.18185687E-01    2     1000021         2   # BR(~u_L -> ~g      u)
#
#         PDG            Width
DECAY   2000002     2.83418442E+02   # sup_R decays
#          BR         NDA      ID1       ID2
     4.19179856E-02    2     1000022         2   # BR(~u_R -> ~chi_10 u)
     4.47097882E-05    2     1000023         2   # BR(~u_R -> ~chi_20 u)
     5.18012419E-05    2     1000025         2   # BR(~u_R -> ~chi_30 u)
     2.62928269E-09    2     1000035         2   # BR(~u_R -> ~chi_40 u)
     9.57985501E-01    2     1000021         2   # BR(~u_R -> ~g      u)
#
#         PDG            Width
DECAY   1000001     2.97208963E+02   # sdown_L decays
#          BR         NDA      ID1       ID2
     2.50230795E-03    2     1000022         1   # BR(~d_L -> ~chi_10 d)
     1.55328172E-05    2     1000023         1   # BR(~d_L -> ~chi_20 d)
     3.09416099E-05    2     1000025         1   # BR(~d_L -> ~chi_30 d)
     2.63834846E-02    2     1000035         1   # BR(~d_L -> ~chi_40 d)
     6.31584288E-06    2    -1000024         2   # BR(~d_L -> ~chi_1- u)
     5.27883341E-02    2    -1000037         2   # BR(~d_L -> ~chi_2- u)
     9.18273083E-01    2     1000021         1   # BR(~d_L -> ~g      d)
#
#         PDG            Width
DECAY   2000001     2.74510312E+02   # sdown_R decays
#          BR         NDA      ID1       ID2
     1.08201899E-02    2     1000022         1   # BR(~d_R -> ~chi_10 d)
     1.15409158E-05    2     1000023         1   # BR(~d_R -> ~chi_20 d)
     1.33714298E-05    2     1000025         1   # BR(~d_R -> ~chi_30 d)
     6.78781030E-10    2     1000035         1   # BR(~d_R -> ~chi_40 d)
     9.89154897E-01    2     1000021         1   # BR(~d_R -> ~g      d)
#
#         PDG            Width
DECAY   1000004     2.97197016E+02   # scharm_L decays
#          BR         NDA      ID1       ID2
     2.51224439E-03    2     1000022         4   # BR(~c_L -> ~chi_10 c)
     5.20180907E-05    2     1000023         4   # BR(~c_L -> ~chi_20 c)
     4.16618316E-06    2     1000025         4   # BR(~c_L -> ~chi_30 c)
     2.63681628E-02    2     1000035         4   # BR(~c_L -> ~chi_40 c)
     1.76173264E-04    2     1000024         3   # BR(~c_L -> ~chi_1+ s)
     5.27015481E-02    2     1000037         3   # BR(~c_L -> ~chi_2+ s)
     9.18185687E-01    2     1000021         4   # BR(~c_L -> ~g      c)
#
#         PDG            Width
DECAY   2000004     2.83418442E+02   # scharm_R decays
#          BR         NDA      ID1       ID2
     4.19179856E-02    2     1000022         4   # BR(~c_R -> ~chi_10 c)
     4.47097882E-05    2     1000023         4   # BR(~c_R -> ~chi_20 c)
     5.18012419E-05    2     1000025         4   # BR(~c_R -> ~chi_30 c)
     2.62928269E-09    2     1000035         4   # BR(~c_R -> ~chi_40 c)
     9.57985501E-01    2     1000021         4   # BR(~c_R -> ~g      c)
#
#         PDG            Width
DECAY   1000003     2.97208963E+02   # sstrange_L decays
#          BR         NDA      ID1       ID2
     2.50230795E-03    2     1000022         3   # BR(~s_L -> ~chi_10 s)
     1.55328172E-05    2     1000023         3   # BR(~s_L -> ~chi_20 s)
     3.09416099E-05    2     1000025         3   # BR(~s_L -> ~chi_30 s)
     2.63834846E-02    2     1000035         3   # BR(~s_L -> ~chi_40 s)
     6.31584288E-06    2    -1000024         4   # BR(~s_L -> ~chi_1- c)
     5.27883341E-02    2    -1000037         4   # BR(~s_L -> ~chi_2- c)
     9.18273083E-01    2     1000021         3   # BR(~s_L -> ~g      s)
#
#         PDG            Width
DECAY   2000003     2.74510312E+02   # sstrange_R decays
#          BR         NDA      ID1       ID2
     1.08201899E-02    2     1000022         3   # BR(~s_R -> ~chi_10 s)
     1.15409158E-05    2     1000023         3   # BR(~s_R -> ~chi_20 s)
     1.33714298E-05    2     1000025         3   # BR(~s_R -> ~chi_30 s)
     6.78781030E-10    2     1000035         3   # BR(~s_R -> ~chi_40 s)
     9.89154897E-01    2     1000021         3   # BR(~s_R -> ~g      s)
#
#         PDG            Width
DECAY   1000011     3.02825318E+01   # selectron_L decays
#          BR         NDA      ID1       ID2
     2.26246129E-01    2     1000022        11   # BR(~e_L -> ~chi_10 e-)
     1.09889208E-03    2     1000023        11   # BR(~e_L -> ~chi_20 e-)
     2.19028024E-05    2     1000025        11   # BR(~e_L -> ~chi_30 e-)
     2.57348154E-01    2     1000035        11   # BR(~e_L -> ~chi_40 e-)
     6.31437140E-05    2    -1000024        12   # BR(~e_L -> ~chi_1- nu_e)
     5.15221778E-01    2    -1000037        12   # BR(~e_L -> ~chi_2- nu_e)
#
#         PDG            Width
DECAY   2000011     2.73778500E+01   # selectron_R decays
#          BR         NDA      ID1       ID2
     9.97707539E-01    2     1000022        11   # BR(~e_R -> ~chi_10 e-)
     1.06198345E-03    2     1000023        11   # BR(~e_R -> ~chi_20 e-)
     1.23041688E-03    2     1000025        11   # BR(~e_R -> ~chi_30 e-)
     6.10835531E-08    2     1000035        11   # BR(~e_R -> ~chi_40 e-)
#
#         PDG            Width
DECAY   1000013     3.02825318E+01   # smuon_L decays
#          BR         NDA      ID1       ID2
     2.26246129E-01    2     1000022        13   # BR(~mu_L -> ~chi_10 mu-)
     1.09889208E-03    2     1000023        13   # BR(~mu_L -> ~chi_20 mu-)
     2.19028024E-05    2     1000025        13   # BR(~mu_L -> ~chi_30 mu-)
     2.57348154E-01    2     1000035        13   # BR(~mu_L -> ~chi_40 mu-)
     6.31437140E-05    2    -1000024        14   # BR(~mu_L -> ~chi_1- nu_mu)
     5.15221778E-01    2    -1000037        14   # BR(~mu_L -> ~chi_2- nu_mu)
#
#         PDG            Width
DECAY   2000013     2.73778500E+01   # smuon_R decays
#          BR         NDA      ID1       ID2
     9.97707539E-01    2     1000022        13   # BR(~mu_R -> ~chi_10 mu-)
     1.06198345E-03    2     1000023        13   # BR(~mu_R -> ~chi_20 mu-)
     1.23041688E-03    2     1000025        13   # BR(~mu_R -> ~chi_30 mu-)
     6.10835531E-08    2     1000035        13   # BR(~mu_R -> ~chi_40 mu-)
#
#         PDG            Width
DECAY   1000015     2.91498341E+01   # stau_1 decays
#          BR         NDA      ID1       ID2
     9.30364794E-01    2     1000022        15   # BR(~tau_1 -> ~chi_10  tau-)
     1.60488986E-02    2     1000023        15   # BR(~tau_1 -> ~chi_20  tau-)
     1.53766400E-02    2     1000025        15   # BR(~tau_1 -> ~chi_30  tau-)
     2.73255437E-03    2     1000035        15   # BR(~tau_1 -> ~chi_40  tau-)
     3.00066551E-02    2    -1000024        16   # BR(~tau_1 -> ~chi_1-  nu_tau)
     5.47045779E-03    2    -1000037        16   # BR(~tau_1 -> ~chi_2-  nu_tau)
#
#         PDG            Width
DECAY   2000015     3.11255008E+01   # stau_2 decays
#          BR         NDA      ID1       ID2
     2.26312059E-01    2     1000022        15   # BR(~tau_2 -> ~chi_10  tau-)
     1.51075056E-02    2     1000023        15   # BR(~tau_2 -> ~chi_20  tau-)
     1.47768288E-02    2     1000025        15   # BR(~tau_2 -> ~chi_30  tau-)
     2.47735942E-01    2     1000035        15   # BR(~tau_2 -> ~chi_40  tau-)
     8.93634487E-05    2    -1000024        16   # BR(~tau_2 -> ~chi_1-  nu_tau)
     4.95978301E-01    2    -1000037        16   # BR(~tau_2 -> ~chi_2-  nu_tau)
#
#         PDG            Width
DECAY   1000012     3.02854402E+01   # snu_eL decays
#          BR         NDA      ID1       ID2
     2.25878919E-01    2     1000022        12   # BR(~nu_eL -> ~chi_10 nu_e)
     4.48312868E-06    2     1000023        12   # BR(~nu_eL -> ~chi_20 nu_e)
     8.24708805E-04    2     1000025        12   # BR(~nu_eL -> ~chi_30 nu_e)
     2.57397306E-01    2     1000035        12   # BR(~nu_eL -> ~chi_40 nu_e)
     1.76089247E-03    2     1000024        11   # BR(~nu_eL -> ~chi_1+ e-)
     5.14133691E-01    2     1000037        11   # BR(~nu_eL -> ~chi_2+ e-)
#
#         PDG            Width
DECAY   1000014     3.02854402E+01   # snu_muL decays
#          BR         NDA      ID1       ID2
     2.25878919E-01    2     1000022        14   # BR(~nu_muL -> ~chi_10 nu_mu)
     4.48312868E-06    2     1000023        14   # BR(~nu_muL -> ~chi_20 nu_mu)
     8.24708805E-04    2     1000025        14   # BR(~nu_muL -> ~chi_30 nu_mu)
     2.57397306E-01    2     1000035        14   # BR(~nu_muL -> ~chi_40 nu_mu)
     1.76089247E-03    2     1000024        13   # BR(~nu_muL -> ~chi_1+ mu-)
     5.14133691E-01    2     1000037        13   # BR(~nu_muL -> ~chi_2+ mu-)
#
#         PDG            Width
DECAY   1000016     3.11541710E+01   # snu_tauL decays
#          BR         NDA      ID1       ID2
     2.19556345E-01    2     1000022        16   # BR(~nu_tauL -> ~chi_10 nu_tau)
     4.35757858E-06    2     1000023        16   # BR(~nu_tauL -> ~chi_20 nu_tau)
     8.01612761E-04    2     1000025        16   # BR(~nu_tauL -> ~chi_30 nu_tau)
     2.50126926E-01    2     1000035        16   # BR(~nu_tauL -> ~chi_40 nu_tau)
     2.98996637E-02    2     1000024        15   # BR(~nu_tauL -> ~chi_1+ tau-)
     4.99611095E-01    2     1000037        15   # BR(~nu_tauL -> ~chi_2+ tau-)
#
#         PDG            Width
DECAY   1000024     5.46273028E-01   # chargino1+ decays
#          BR         NDA      ID1       ID2
     1.00000000E+00    2     1000022        24   # BR(~chi_1+ -> ~chi_10  W+)
#
#         PDG            Width
DECAY   1000037     2.07709695E+01   # chargino2+ decays
#          BR         NDA      ID1       ID2
     2.53284289E-01    2     1000024        23   # BR(~chi_2+ -> ~chi_1+  Z )
     1.91043524E-04    2     1000022        24   # BR(~chi_2+ -> ~chi_10  W+)
     2.44279814E-01    2     1000023        24   # BR(~chi_2+ -> ~chi_20  W+)
     2.44177597E-01    2     1000025        24   # BR(~chi_2+ -> ~chi_30  W+)
     2.58065775E-01    2     1000024        25   # BR(~chi_2+ -> ~chi_1+  h )
     1.48126733E-06    2     1000022        37   # BR(~chi_2+ -> ~chi_10  H+)
#
#         PDG            Width
DECAY   1000022     0.00000000E+00   # neutralino1 decays
#
#         PDG            Width
DECAY   1000023     5.69057546E-01   # neutralino2 decays
#          BR         NDA      ID1       ID2
     5.35265808E-01    2     1000022        23   # BR(~chi_20 -> ~chi_10   Z )
     4.64734192E-01    2     1000022        25   # BR(~chi_20 -> ~chi_10   h )
#
#         PDG            Width
DECAY   1000025     5.70555934E-01   # neutralino3 decays
#          BR         NDA      ID1       ID2
     4.58717095E-01    2     1000022        23   # BR(~chi_30 -> ~chi_10   Z )
     5.41282905E-01    2     1000022        25   # BR(~chi_30 -> ~chi_10   h )
#
#         PDG            Width
DECAY   1000035     2.07866788E+01   # neutralino4 decays
#          BR         NDA      ID1       ID2
     4.00091531E-05    2     1000022        23   # BR(~chi_40 -> ~chi_10   Z )
     8.03598517E-02    2     1000023        23   # BR(~chi_40 -> ~chi_20   Z )
     1.72229744E-01    2     1000025        23   # BR(~chi_40 -> ~chi_30   Z )
     2.44876506E-01    2     1000024       -24   # BR(~chi_40 -> ~chi_1+   W-)
     2.44876506E-01    2    -1000024        24   # BR(~chi_40 -> ~chi_1-   W+)
     1.50887433E-04    2     1000022        25   # BR(~chi_40 -> ~chi_10   h )
     1.40495833E-06    2     1000022        35   # BR(~chi_40 -> ~chi_10   H )
     1.68276047E-07    2     1000022        36   # BR(~chi_40 -> ~chi_10   A )
     1.76882122E-01    2     1000023        25   # BR(~chi_40 -> ~chi_20   h )
     8.05828010E-02    2     1000025        25   # BR(~chi_40 -> ~chi_30   h )
#
#         PDG            Width
DECAY        25     4.05165404E-03   # h decays
#          BR         NDA      ID1       ID2
     6.10913385E-01    2           5        -5   # BR(h -> b       bb     )
     6.39561201E-02    2         -15        15   # BR(h -> tau+    tau-   )
     2.26428441E-04    2         -13        13   # BR(h -> mu+     mu-    )
     4.80103666E-04    2           3        -3   # BR(h -> s       sb     )
     2.08035572E-02    2           4        -4   # BR(h -> c       cb     )
     6.71580689E-02    2          21        21   # BR(h -> g       g      )
     2.30619039E-03    2          22        22   # BR(h -> gam     gam    )
     1.47706828E-03    2          22        23   # BR(h -> Z       gam    )
     2.07897270E-01    2          24       -24   # BR(h -> W+      W-     )
     2.47203195E-02    2          23        23   # BR(h -> Z       Z      )
     6.14881963E-05    2     1000022   1000022   # BR(h -> ~chi_10 ~chi_10)
#
#         PDG            Width
DECAY        35     8.24087753E+00   # H decays
#          BR         NDA      ID1       ID2
     3.90848453E-01    2           5        -5   # BR(H -> b       bb     )
     6.76181532E-02    2         -15        15   # BR(H -> tau+    tau-   )
     2.39103161E-04    2         -13        13   # BR(H -> mu+     mu-    )
     2.93103954E-04    2           3        -3   # BR(H -> s       sb     )
     1.63882572E-06    2           4        -4   # BR(H -> c       cb     )
     1.63731659E-01    2           6        -6   # BR(H -> t       tb     )
     5.44077182E-05    2          21        21   # BR(H -> g       g      )
     2.37871490E-07    2          22        22   # BR(H -> gam     gam    )
     9.66351190E-08    2          23        22   # BR(H -> Z       gam    )
     7.57317592E-05    2          24       -24   # BR(H -> W+      W-     )
     3.78179461E-05    2          23        23   # BR(H -> Z       Z      )
     2.80507215E-04    2          25        25   # BR(H -> h       h      )
    -2.02977996E-23    2          36        36   # BR(H -> A       A      )
     1.55171653E-18    2          23        36   # BR(H -> Z       A      )
     2.29937313E-03    2     1000024  -1000024   # BR(H -> ~chi_1+ ~chi_1-)
     2.16395892E-03    2     1000022   1000022   # BR(H -> ~chi_10 ~chi_10)
     1.59531198E-05    2     1000023   1000023   # BR(H -> ~chi_20 ~chi_20)
     7.54679690E-04    2     1000025   1000025   # BR(H -> ~chi_30 ~chi_30)
     2.23162273E-01    2     1000022   1000023   # BR(H -> ~chi_10 ~chi_20)
     1.47679523E-01    2     1000022   1000025   # BR(H -> ~chi_10 ~chi_30)
     7.43328711E-04    2     1000023   1000025   # BR(H -> ~chi_20 ~chi_30)
#
#         PDG            Width
DECAY        36     8.25492116E+00   # A decays
#          BR         NDA      ID1       ID2
     3.90314736E-01    2           5        -5   # BR(A -> b       bb     )
     6.75048923E-02    2         -15        15   # BR(A -> tau+    tau-   )
     2.38702327E-04    2         -13        13   # BR(A -> mu+     mu-    )
     2.92826546E-04    2           3        -3   # BR(A -> s       sb     )
     1.64271491E-06    2           4        -4   # BR(A -> c       cb     )
     1.64029674E-01    2           6        -6   # BR(A -> t       tb     )
     1.62338661E-04    2          21        21   # BR(A -> g       g      )
     5.87911026E-07    2          22        22   # BR(A -> gam     gam    )
     1.96548745E-07    2          23        22   # BR(A -> Z       gam    )
     7.53169838E-05    2          23        25   # BR(A -> Z       h      )
     3.31076771E-03    2     1000024  -1000024   # BR(A -> ~chi_1+ ~chi_1-)
     2.19815183E-03    2     1000022   1000022   # BR(A -> ~chi_10 ~chi_10)
     1.62733559E-05    2     1000023   1000023   # BR(A -> ~chi_20 ~chi_20)
     1.80563691E-03    2     1000025   1000025   # BR(A -> ~chi_30 ~chi_30)
     1.49694036E-01    2     1000022   1000023   # BR(A -> ~chi_10 ~chi_20)
     2.20077255E-01    2     1000022   1000025   # BR(A -> ~chi_10 ~chi_30)
     2.76964861E-04    2     1000023   1000025   # BR(A -> ~chi_20 ~chi_30)
#
#         PDG            Width
DECAY        37     8.20569473E+00   # H+ decays
#          BR         NDA      ID1       ID2
     6.27043002E-04    2           4        -5   # BR(H+ -> c       bb     )
     6.79402833E-02    2         -15        16   # BR(H+ -> tau+    nu_tau )
     2.40241902E-04    2         -13        14   # BR(H+ -> mu+     nu_mu  )
     4.01305435E-06    2           2        -5   # BR(H+ -> u       bb     )
     1.40966204E-05    2           2        -3   # BR(H+ -> u       sb     )
     2.91518277E-04    2           4        -3   # BR(H+ -> c       sb     )
     5.53493275E-01    2           6        -5   # BR(H+ -> t       bb     )
     7.59195588E-05    2          24        25   # BR(H+ -> W+      h      )
     7.02428187E-13    2          24        36   # BR(H+ -> W+      A      )
     3.76167896E-01    2     1000024   1000022   # BR(H+ -> ~chi_1+ ~chi_10)
     1.12392508E-03    2     1000024   1000023   # BR(H+ -> ~chi_1+ ~chi_20)
     2.17886921E-05    2     1000024   1000025   # BR(H+ -> ~chi_1+ ~chi_30)
