#
#                              ======================
#                              | THE SUSYHIT OUTPUT |
#                              ======================
#
#
#              ------------------------------------------------------
#              |     This is the output of the SUSY-HIT package     |
#              |  created by A.Djouadi, M.Muehlleitner and M.Spira. |
#              |  In case of problems with SUSY-HIT email to        |
#              |           margarete.muehlleitner@cern.ch           |
#              |           michael.spira@psi.ch                     |
#              |           abdelhak.djouadi@cern.ch                 |
#              ------------------------------------------------------
#
#              ------------------------------------------------------
#              |  SUSY Les Houches Accord - MSSM Spectrum + Decays  |
#              |              based on the decay programs           |
#              |                                                    |
#              |                     SDECAY 1.3b                    |
#              |                                                    |
#              |  Authors: M.Muhlleitner, A.Djouadi and Y.Mambrini  |
#              |  Ref.:    Comput.Phys.Commun.168(2005)46           |
#              |           [hep-ph/0311167]                         |
#              |                                                    |
#              |                     HDECAY 3.4                     |
#              |                                                    |
#              |  By: A.Djouadi,J.Kalinowski,M.Muhlleitner,M.Spira  |
#              |  Ref.:    Comput.Phys.Commun.108(1998)56           |
#              |           [hep-ph/9704448]                         |
#              |                                                    |
#              |                                                    |
#              |  If not stated otherwise all DRbar couplings and   |
#              |  soft SUSY breaking masses are given at the scale  |
#              |  Q=  0.50007707E+04
#              |                                                    |
#              ------------------------------------------------------
#
#
BLOCK DCINFO  # Decay Program information
     1   SDECAY/HDECAY # decay calculator
     2   1.3b  /3.4    # version number
#
BLOCK SPINFO  # Spectrum calculator information
     1    SOFTSUSY    # spectrum calculator                
     2    3.4.0       # version number                     
#
BLOCK MODSEL  # Model selection
     1     0   #  nonUniversal                                     
#
BLOCK SMINPUTS  # Standard Model inputs
         1     1.25778332E+02   # alpha_em^-1(M_Z)^MSbar
         2     1.16570000E-05   # G_F [GeV^-2]
         3     1.17200002E-01   # alpha_S(M_Z)^MSbar
         4     9.11876000E+01   # M_Z pole mass
         5     4.25000000E+00   # mb(mb)^MSbar
         6     1.72500000E+02   # mt pole mass
         7     1.77682000E+00   # mtau pole mass
#
BLOCK MINPAR  # Input parameters - minimal models
         3     1.00000000E+01   # tanb                
#
BLOCK EXTPAR  # Input parameters - non-minimal models
         0    -1.00000000E+00   # Set                 
         1     6.00000000E+01   # M_1(MX)             
         2     3.00000000E+03   # M_2(MX)             
         3     2.13913000E+03   # M_3(MX)             
        11     5.00000000E+03   # At(MX)              
        12     5.00000000E+03   # Ab(MX)              
        13     0.00000000E+00   # Atau(MX)            
        23    -2.82773000E+02   # mu(MX)              
        26     3.00000000E+03   # mA(pole)            
        31     5.00000000E+03   # meL(MX)             
        32     5.00000000E+03   # mmuL(MX)            
        33     5.00000000E+03   # mtauL(MX)           
        34     5.00000000E+03   # meR(MX)             
        35     5.00000000E+03   # mmuR(MX)            
        36     5.00000000E+03   # mtauR(MX)           
        41     5.00000000E+03   # mqL1(MX)            
        42     5.00000000E+03   # mqL2(MX)            
        43     5.00000000E+03   # mqL3(MX)            
        44     5.00000000E+03   # muR(MX)             
        45     5.00000000E+03   # mcR(MX)             
        46     5.00000000E+03   # mtR(MX)             
        47     5.00000000E+03   # mdR(MX)             
        48     5.00000000E+03   # msR(MX)             
        49     5.00000000E+03   # mbR(MX)             
#
BLOCK MASS  # Mass Spectrum
# PDG code           mass       particle
        24     8.00919002E+01   # W+
        25     1.24797724E+02   # h
        35     3.00008910E+03   # H
        36     2.99999971E+03   # A
        37     3.00146928E+03   # H+
         5     4.87878001E+00   # b-quark pole mass calculated from mb(mb)_Msbar
   1000001     5.08001735E+03   # ~d_L
   2000001     5.06217388E+03   # ~d_R
   1000002     5.07954481E+03   # ~u_L
   2000002     5.06186803E+03   # ~u_R
   1000003     5.08001735E+03   # ~s_L
   2000003     5.06217388E+03   # ~s_R
   1000004     5.07954481E+03   # ~c_L
   2000004     5.06186803E+03   # ~c_R
   1000005     5.02594288E+03   # ~b_1
   2000005     5.06029293E+03   # ~b_2
   1000006     4.91785841E+03   # ~t_1
   2000006     5.06873985E+03   # ~t_2
   1000011     5.01913730E+03   # ~e_L
   2000011     5.00595383E+03   # ~e_R
   1000012     5.01818582E+03   # ~nu_eL
   1000013     5.01913730E+03   # ~mu_L
   2000013     5.00595383E+03   # ~mu_R
   1000014     5.01818582E+03   # ~nu_muL
   1000015     5.00481623E+03   # ~tau_1
   2000015     5.01861878E+03   # ~tau_2
   1000016     5.01763206E+03   # ~nu_tauL
   1000021     2.50000074E+03   # ~g
   1000022     5.97919643E+01   # ~chi_10
   1000023     3.01967288E+02   # ~chi_20
   1000025    -3.03836367E+02   # ~chi_30
   1000035     3.07422427E+03   # ~chi_40
   1000024     3.00000736E+02   # ~chi_1+
   1000037     3.07439219E+03   # ~chi_2+
#
BLOCK NMIX  # Neutralino Mixing Matrix
  1  1     9.88607446E-01   # N_11
  1  2     6.02053527E-05   # N_12
  1  3    -1.49795223E-01   # N_13
  1  4    -1.47208851E-02   # N_14
  2  1     1.16360529E-01   # N_21
  2  2     1.76945095E-02   # N_22
  2  3     6.98596401E-01   # N_23
  2  4     7.05769226E-01   # N_24
  3  1    -9.54745309E-02   # N_31
  3  2     1.80269683E-02   # N_32
  3  3    -6.99660197E-01   # N_33
  3  4     7.07838435E-01   # N_34
  4  1    -3.97472433E-04   # N_41
  4  2     9.99680914E-01   # N_42
  4  3     2.60533203E-04   # N_43
  4  4    -2.52555937E-02   # N_44
#
BLOCK UMIX  # Chargino Mixing Matrix U
  1  1    -3.65903817E-04   # U_11
  1  2     9.99999933E-01   # U_12
  2  1    -9.99999933E-01   # U_21
  2  2    -3.65903817E-04   # U_22
#
BLOCK VMIX  # Chargino Mixing Matrix V
  1  1     3.57258511E-02   # V_11
  1  2    -9.99361628E-01   # V_12
  2  1    -9.99361628E-01   # V_21
  2  2    -3.57258511E-02   # V_22
#
BLOCK STOPMIX  # Stop Mixing Matrix
  1  1    -5.00843882E-01   # cos(theta_t)
  1  2     8.65537640E-01   # sin(theta_t)
  2  1    -8.65537640E-01   # -sin(theta_t)
  2  2    -5.00843882E-01   # cos(theta_t)
#
BLOCK SBOTMIX  # Sbottom Mixing Matrix
  1  1     9.99226393E-01   # cos(theta_b)
  1  2    -3.93270331E-02   # sin(theta_b)
  2  1     3.93270331E-02   # -sin(theta_b)
  2  2     9.99226393E-01   # cos(theta_b)
#
BLOCK STAUMIX  # Stau Mixing Matrix
  1  1    -3.37576537E-02   # cos(theta_tau)
  1  2     9.99430048E-01   # sin(theta_tau)
  2  1    -9.99430048E-01   # -sin(theta_tau)
  2  2    -3.37576537E-02   # cos(theta_tau)
#
BLOCK ALPHA  # Higgs mixing
          -1.05497924E-01   # Mixing angle in the neutral Higgs boson sector
#
BLOCK HMIX Q=  5.00077072E+03  # DRbar Higgs Parameters
         1    -2.87951485E+02   # mu(Q)MSSM           
         2     9.46834729E+00   # tan                 
         3     2.41696346E+02   # higgs               
         4     8.75193950E+06   # mA^2(Q)MSSM         
#
BLOCK GAUGE Q=  5.00077072E+03  # The gauge couplings
     1     3.71060382E-01   # gprime(Q) DRbar
     2     6.33870189E-01   # g(Q) DRbar
     3     9.95216783E-01   # g3(Q) DRbar
#
BLOCK AU Q=  5.00077072E+03  # The trilinear couplings
  1  1     5.00000002E+03   # A_u(Q) DRbar
  2  2     5.00000002E+03   # A_c(Q) DRbar
  3  3     5.00000002E+03   # A_t(Q) DRbar
#
BLOCK AD Q=  5.00077072E+03  # The trilinear couplings
  1  1     5.00000001E+03   # A_d(Q) DRbar
  2  2     5.00000001E+03   # A_s(Q) DRbar
  3  3     5.00000001E+03   # A_b(Q) DRbar
#
BLOCK AE Q=  5.00077072E+03  # The trilinear couplings
  1  1     0.00000000E+00   # A_e(Q) DRbar
  2  2     2.45729981E-07   # A_mu(Q) DRbar
  3  3     2.45651254E-07   # A_tau(Q) DRbar
#
BLOCK Yu Q=  5.00077072E+03  # The Yukawa couplings
  1  1     0.00000000E+00   # y_u(Q) DRbar
  2  2     0.00000000E+00   # y_c(Q) DRbar
  3  3     8.21533948E-01   # y_t(Q) DRbar
#
BLOCK Yd Q=  5.00077072E+03  # The Yukawa couplings
  1  1     0.00000000E+00   # y_d(Q) DRbar
  2  2     0.00000000E+00   # y_s(Q) DRbar
  3  3     1.30075437E-01   # y_b(Q) DRbar
#
BLOCK Ye Q=  5.00077072E+03  # The Yukawa couplings
  1  1     0.00000000E+00   # y_e(Q) DRbar
  2  2     0.00000000E+00   # y_mu(Q) DRbar
  3  3     9.72713686E-02   # y_tau(Q) DRbar
#
BLOCK MSOFT Q=  5.00077072E+03  # The soft SUSY breaking masses at the scale Q
         1     6.00000000E+01   # M_1(Q)              
         2     3.00000000E+03   # M_2(Q)              
         3     2.13913000E+03   # M_3(Q)              
        21     8.64851248E+06   # mH1^2(Q)            
        22     4.97533065E+05   # mH2^2(Q)            
        31     5.00000000E+03   # meL(Q)              
        32     5.00000000E+03   # mmuL(Q)             
        33     5.00000000E+03   # mtauL(Q)            
        34     5.00000000E+03   # meR(Q)              
        35     5.00000000E+03   # mmuR(Q)             
        36     5.00000000E+03   # mtauR(Q)            
        41     4.99999999E+03   # mqL1(Q)             
        42     4.99999999E+03   # mqL2(Q)             
        43     4.99999999E+03   # mqL3(Q)             
        44     4.99999999E+03   # muR(Q)              
        45     4.99999999E+03   # mcR(Q)              
        46     4.99999999E+03   # mtR(Q)              
        47     4.99999999E+03   # mdR(Q)              
        48     4.99999999E+03   # msR(Q)              
        49     4.99999999E+03   # mbR(Q)              
#
#
#
#                             =================
#                             |The decay table|
#                             =================
#
# - The QCD corrections to the decays gluino -> squark  + quark
#                                     squark -> gaugino + quark_prime
#                                     squark -> squark_prime + Higgs
#                                     squark -> gluino  + quark
#   are included.
#
# - The multi-body decays for the inos, stops and sbottoms are included.
#
# - The loop induced decays for the gluino, neutralinos and stops
#   are included.
#
# - The SUSY decays of the top quark are included.
#
#
#         PDG            Width
DECAY         6     1.40814951E+00   # top decays
#          BR         NDA      ID1       ID2
     1.00000000E+00    2           5        24   # BR(t ->  b    W+)
#
#         PDG            Width
DECAY   1000021     8.27650154E-03   # gluino decays
#          BR         NDA      ID1       ID2
     4.72683926E-07    2     1000022        21   # BR(~g -> ~chi_10 g)
     3.91420855E-03    2     1000023        21   # BR(~g -> ~chi_20 g)
     3.79407225E-03    2     1000025        21   # BR(~g -> ~chi_30 g)
#           BR         NDA      ID1       ID2       ID3
     8.96343951E-03    3     1000022         1        -1   # BR(~g -> ~chi_10 d  db)
     1.04122284E-04    3     1000023         1        -1   # BR(~g -> ~chi_20 d  db)
     9.18031111E-05    3     1000025         1        -1   # BR(~g -> ~chi_30 d  db)
     3.05563273E-02    3     1000022         2        -2   # BR(~g -> ~chi_10 u  ub)
     4.91866795E-04    3     1000023         2        -2   # BR(~g -> ~chi_20 u  ub)
     1.88126534E-04    3     1000025         2        -2   # BR(~g -> ~chi_30 u  ub)
     8.96343951E-03    3     1000022         3        -3   # BR(~g -> ~chi_10 s  sb)
     1.04122284E-04    3     1000023         3        -3   # BR(~g -> ~chi_20 s  sb)
     9.18031111E-05    3     1000025         3        -3   # BR(~g -> ~chi_30 s  sb)
     3.05563273E-02    3     1000022         4        -4   # BR(~g -> ~chi_10 c  cb)
     4.91866795E-04    3     1000023         4        -4   # BR(~g -> ~chi_20 c  cb)
     1.88126534E-04    3     1000025         4        -4   # BR(~g -> ~chi_30 c  cb)
     9.36116834E-03    3     1000022         5        -5   # BR(~g -> ~chi_10 b  bb)
     5.34009407E-03    3     1000023         5        -5   # BR(~g -> ~chi_20 b  bb)
     5.33636163E-03    3     1000025         5        -5   # BR(~g -> ~chi_30 b  bb)
     3.04765603E-02    3     1000022         6        -6   # BR(~g -> ~chi_10 t  tb)
     2.14444637E-01    3     1000023         6        -6   # BR(~g -> ~chi_20 t  tb)
     2.04595051E-01    3     1000025         6        -6   # BR(~g -> ~chi_30 t  tb)
     5.25597869E-05    3     1000024         1        -2   # BR(~g -> ~chi_1+ d  ub)
     5.25597869E-05    3    -1000024         2        -1   # BR(~g -> ~chi_1- u  db)
     5.25597869E-05    3     1000024         3        -4   # BR(~g -> ~chi_1+ s  cb)
     5.25597869E-05    3    -1000024         4        -3   # BR(~g -> ~chi_1- c  sb)
     2.20867882E-01    3     1000024         5        -6   # BR(~g -> ~chi_1+ b  tb)
     2.20867882E-01    3    -1000024         6        -5   # BR(~g -> ~chi_1- t  bb)
#
#         PDG            Width
DECAY   1000006     3.03300848E+02   # stop1 decays
#          BR         NDA      ID1       ID2
     2.79701616E-02    2     1000022         6   # BR(~t_1 -> ~chi_10 t )
     1.11722900E-01    2     1000023         6   # BR(~t_1 -> ~chi_20 t )
     1.02804556E-01    2     1000025         6   # BR(~t_1 -> ~chi_30 t )
     6.60040336E-03    2     1000035         6   # BR(~t_1 -> ~chi_40 t )
     1.60331198E-01    2     1000024         5   # BR(~t_1 -> ~chi_1+ b )
     1.31581846E-02    2     1000037         5   # BR(~t_1 -> ~chi_2+ b )
     5.77412596E-01    2     1000021         6   # BR(~t_1 -> ~g      t )
#
#         PDG            Width
DECAY   2000006     3.09334104E+02   # stop2 decays
#          BR         NDA      ID1       ID2
     1.17266891E-02    2     1000022         6   # BR(~t_2 -> ~chi_10 t )
     1.05265918E-01    2     1000023         6   # BR(~t_2 -> ~chi_20 t )
     1.15258339E-01    2     1000025         6   # BR(~t_2 -> ~chi_30 t )
     1.84124210E-02    2     1000035         6   # BR(~t_2 -> ~chi_40 t )
     6.19817626E-02    2     1000024         5   # BR(~t_2 -> ~chi_1+ b )
     3.66670220E-02    2     1000037         5   # BR(~t_2 -> ~chi_2+ b )
     6.46918417E-01    2     1000021         6   # BR(~t_2 -> ~g      t )
     8.78929942E-04    2     1000006        25   # BR(~t_2 -> ~t_1    h )
     2.89050137E-03    2     1000006        23   # BR(~t_2 -> ~t_1    Z )
#
#         PDG            Width
DECAY   1000005     2.83645705E+02   # sbottom1 decays
#          BR         NDA      ID1       ID2
     2.81223765E-03    2     1000022         5   # BR(~b_1 -> ~chi_10 b )
     2.84318238E-03    2     1000023         5   # BR(~b_1 -> ~chi_20 b )
     2.91706383E-03    2     1000025         5   # BR(~b_1 -> ~chi_30 b )
     2.69548330E-02    2     1000035         5   # BR(~b_1 -> ~chi_40 b )
     2.35643882E-01    2    -1000024         6   # BR(~b_1 -> ~chi_1- t )
     5.41131395E-02    2    -1000037         6   # BR(~b_1 -> ~chi_2- t )
     6.72828996E-01    2     1000021         5   # BR(~b_1 -> ~g      b )
     1.88666653E-03    2     1000006       -24   # BR(~b_1 -> ~t_1    W-)
#
#         PDG            Width
DECAY   2000005     2.00109133E+02   # sbottom2 decays
#          BR         NDA      ID1       ID2
     1.45144900E-02    2     1000022         5   # BR(~b_2 -> ~chi_10 b )
     4.40260267E-03    2     1000023         5   # BR(~b_2 -> ~chi_20 b )
     4.38391408E-03    2     1000025         5   # BR(~b_2 -> ~chi_30 b )
     5.08985926E-05    2     1000035         5   # BR(~b_2 -> ~chi_40 b )
     8.89466076E-03    2    -1000024         6   # BR(~b_2 -> ~chi_1- t )
     1.02208931E-04    2    -1000037         6   # BR(~b_2 -> ~chi_2- t )
     9.67633728E-01    2     1000021         5   # BR(~b_2 -> ~g      b )
     1.74966198E-05    2     1000006       -24   # BR(~b_2 -> ~t_1    W-)
#
#         PDG            Width
DECAY   1000002     2.19816201E+02   # sup_L decays
#          BR         NDA      ID1       ID2
     3.31915208E-03    2     1000022         2   # BR(~u_L -> ~chi_10 u)
     1.44605946E-04    2     1000023         2   # BR(~u_L -> ~chi_20 u)
     3.22052782E-08    2     1000025         2   # BR(~u_L -> ~chi_30 u)
     3.60707391E-02    2     1000035         2   # BR(~u_L -> ~chi_40 u)
     2.26182320E-04    2     1000024         1   # BR(~u_L -> ~chi_1+ d)
     7.20975620E-02    2     1000037         1   # BR(~u_L -> ~chi_2+ d)
     8.88141726E-01    2     1000021         2   # BR(~u_L -> ~g      u)
#
#         PDG            Width
DECAY   2000002     2.05572112E+02   # sup_R decays
#          BR         NDA      ID1       ID2
     5.65494801E-02    2     1000022         2   # BR(~u_R -> ~chi_10 u)
     7.78641542E-04    2     1000023         2   # BR(~u_R -> ~chi_20 u)
     5.24161391E-04    2     1000025         2   # BR(~u_R -> ~chi_30 u)
     3.67251513E-09    2     1000035         2   # BR(~u_R -> ~chi_40 u)
     9.42147713E-01    2     1000021         2   # BR(~u_R -> ~g      u)
#
#         PDG            Width
DECAY   1000001     2.19831909E+02   # sdown_L decays
#          BR         NDA      ID1       ID2
     3.31508846E-03    2     1000022         1   # BR(~d_L -> ~chi_10 d)
     2.22465219E-06    2     1000023         1   # BR(~d_L -> ~chi_20 d)
     1.19045029E-04    2     1000025         1   # BR(~d_L -> ~chi_30 d)
     3.60904245E-02    2     1000035         1   # BR(~d_L -> ~chi_40 d)
     2.37267350E-08    2    -1000024         2   # BR(~d_L -> ~chi_1- u)
     7.22066789E-02    2    -1000037         2   # BR(~d_L -> ~chi_2- u)
     8.88266515E-01    2     1000021         1   # BR(~d_L -> ~g      d)
#
#         PDG            Width
DECAY   2000001     1.96679487E+02   # sdown_R decays
#          BR         NDA      ID1       ID2
     1.47774841E-02    2     1000022         1   # BR(~d_R -> ~chi_10 d)
     2.03474398E-04    2     1000023         1   # BR(~d_R -> ~chi_20 d)
     1.36973715E-04    2     1000025         1   # BR(~d_R -> ~chi_30 d)
     9.59833539E-10    2     1000035         1   # BR(~d_R -> ~chi_40 d)
     9.84882067E-01    2     1000021         1   # BR(~d_R -> ~g      d)
#
#         PDG            Width
DECAY   1000004     2.19816201E+02   # scharm_L decays
#          BR         NDA      ID1       ID2
     3.31915208E-03    2     1000022         4   # BR(~c_L -> ~chi_10 c)
     1.44605946E-04    2     1000023         4   # BR(~c_L -> ~chi_20 c)
     3.22052782E-08    2     1000025         4   # BR(~c_L -> ~chi_30 c)
     3.60707391E-02    2     1000035         4   # BR(~c_L -> ~chi_40 c)
     2.26182320E-04    2     1000024         3   # BR(~c_L -> ~chi_1+ s)
     7.20975620E-02    2     1000037         3   # BR(~c_L -> ~chi_2+ s)
     8.88141726E-01    2     1000021         4   # BR(~c_L -> ~g      c)
#
#         PDG            Width
DECAY   2000004     2.05572112E+02   # scharm_R decays
#          BR         NDA      ID1       ID2
     5.65494801E-02    2     1000022         4   # BR(~c_R -> ~chi_10 c)
     7.78641542E-04    2     1000023         4   # BR(~c_R -> ~chi_20 c)
     5.24161391E-04    2     1000025         4   # BR(~c_R -> ~chi_30 c)
     3.67251513E-09    2     1000035         4   # BR(~c_R -> ~chi_40 c)
     9.42147713E-01    2     1000021         4   # BR(~c_R -> ~g      c)
#
#         PDG            Width
DECAY   1000003     2.19831909E+02   # sstrange_L decays
#          BR         NDA      ID1       ID2
     3.31508846E-03    2     1000022         3   # BR(~s_L -> ~chi_10 s)
     2.22465219E-06    2     1000023         3   # BR(~s_L -> ~chi_20 s)
     1.19045029E-04    2     1000025         3   # BR(~s_L -> ~chi_30 s)
     3.60904245E-02    2     1000035         3   # BR(~s_L -> ~chi_40 s)
     2.37267350E-08    2    -1000024         4   # BR(~s_L -> ~chi_1- c)
     7.22066789E-02    2    -1000037         4   # BR(~s_L -> ~chi_2- c)
     8.88266515E-01    2     1000021         3   # BR(~s_L -> ~g      s)
#
#         PDG            Width
DECAY   2000003     1.96679487E+02   # sstrange_R decays
#          BR         NDA      ID1       ID2
     1.47774841E-02    2     1000022         3   # BR(~s_R -> ~chi_10 s)
     2.03474398E-04    2     1000023         3   # BR(~s_R -> ~chi_20 s)
     1.36973715E-04    2     1000025         3   # BR(~s_R -> ~chi_30 s)
     9.59833539E-10    2     1000035         3   # BR(~s_R -> ~chi_40 s)
     9.84882067E-01    2     1000021         3   # BR(~s_R -> ~g      s)
#
#         PDG            Width
DECAY   1000011     3.03783483E+01   # selectron_L decays
#          BR         NDA      ID1       ID2
     2.21140903E-01    2     1000022        11   # BR(~e_L -> ~chi_10 e-)
     4.82723357E-03    2     1000023        11   # BR(~e_L -> ~chi_20 e-)
     9.39725073E-04    2     1000025        11   # BR(~e_L -> ~chi_30 e-)
     2.57530273E-01    2     1000035        11   # BR(~e_L -> ~chi_40 e-)
     1.75558113E-07    2    -1000024        12   # BR(~e_L -> ~chi_1- nu_e)
     5.15561690E-01    2    -1000037        12   # BR(~e_L -> ~chi_2- nu_e)
#
#         PDG            Width
DECAY   2000011     2.74121526E+01   # selectron_R decays
#          BR         NDA      ID1       ID2
     9.77500174E-01    2     1000022        11   # BR(~e_R -> ~chi_10 e-)
     1.34473928E-02    2     1000023        11   # BR(~e_R -> ~chi_20 e-)
     9.05237198E-03    2     1000025        11   # BR(~e_R -> ~chi_30 e-)
     6.13188779E-08    2     1000035        11   # BR(~e_R -> ~chi_40 e-)
#
#         PDG            Width
DECAY   1000013     3.03783483E+01   # smuon_L decays
#          BR         NDA      ID1       ID2
     2.21140903E-01    2     1000022        13   # BR(~mu_L -> ~chi_10 mu-)
     4.82723357E-03    2     1000023        13   # BR(~mu_L -> ~chi_20 mu-)
     9.39725073E-04    2     1000025        13   # BR(~mu_L -> ~chi_30 mu-)
     2.57530273E-01    2     1000035        13   # BR(~mu_L -> ~chi_40 mu-)
     1.75558113E-07    2    -1000024        14   # BR(~mu_L -> ~chi_1- nu_mu)
     5.15561690E-01    2    -1000037        14   # BR(~mu_L -> ~chi_2- nu_mu)
#
#         PDG            Width
DECAY   2000013     2.74121526E+01   # smuon_R decays
#          BR         NDA      ID1       ID2
     9.77500174E-01    2     1000022        13   # BR(~mu_R -> ~chi_10 mu-)
     1.34473928E-02    2     1000023        13   # BR(~mu_R -> ~chi_20 mu-)
     9.05237198E-03    2     1000025        13   # BR(~mu_R -> ~chi_30 mu-)
     6.13188779E-08    2     1000035        13   # BR(~mu_R -> ~chi_40 mu-)
#
#         PDG            Width
DECAY   1000015     2.92786533E+01   # stau_1 decays
#          BR         NDA      ID1       ID2
     9.15783602E-01    2     1000022        15   # BR(~tau_1 -> ~chi_10  tau-)
     2.78166870E-02    2     1000023        15   # BR(~tau_1 -> ~chi_20  tau-)
     2.35873837E-02    2     1000025        15   # BR(~tau_1 -> ~chi_30  tau-)
     3.02618574E-04    2     1000035        15   # BR(~tau_1 -> ~chi_40  tau-)
     3.19040256E-02    2    -1000024        16   # BR(~tau_1 -> ~chi_1-  nu_tau)
     6.05683210E-04    2    -1000037        16   # BR(~tau_1 -> ~chi_2-  nu_tau)
#
#         PDG            Width
DECAY   2000015     3.13050841E+01   # stau_2 decays
#          BR         NDA      ID1       ID2
     2.15169425E-01    2     1000022        15   # BR(~tau_2 -> ~chi_10  tau-)
     1.96415701E-02    2     1000023        15   # BR(~tau_2 -> ~chi_20  tau-)
     1.60652963E-02    2     1000025        15   # BR(~tau_2 -> ~chi_30  tau-)
     2.49532903E-01    2     1000035        15   # BR(~tau_2 -> ~chi_40  tau-)
     3.91339373E-05    2    -1000024        16   # BR(~tau_2 -> ~chi_1-  nu_tau)
     4.99551671E-01    2    -1000037        16   # BR(~tau_2 -> ~chi_2-  nu_tau)
#
#         PDG            Width
DECAY   1000012     3.03814764E+01   # snu_eL decays
#          BR         NDA      ID1       ID2
     2.20984216E-01    2     1000022        12   # BR(~nu_eL -> ~chi_10 nu_e)
     1.66617788E-03    2     1000023        12   # BR(~nu_eL -> ~chi_20 nu_e)
     3.58041531E-03    2     1000025        12   # BR(~nu_eL -> ~chi_30 nu_e)
     2.57577404E-01    2     1000035        12   # BR(~nu_eL -> ~chi_40 nu_e)
     1.67310793E-03    2     1000024        11   # BR(~nu_eL -> ~chi_1+ e-)
     5.14518679E-01    2     1000037        11   # BR(~nu_eL -> ~chi_2+ e-)
#
#         PDG            Width
DECAY   1000014     3.03814764E+01   # snu_muL decays
#          BR         NDA      ID1       ID2
     2.20984216E-01    2     1000022        14   # BR(~nu_muL -> ~chi_10 nu_mu)
     1.66617788E-03    2     1000023        14   # BR(~nu_muL -> ~chi_20 nu_mu)
     3.58041531E-03    2     1000025        14   # BR(~nu_muL -> ~chi_30 nu_mu)
     2.57577404E-01    2     1000035        14   # BR(~nu_muL -> ~chi_40 nu_mu)
     1.67310793E-03    2     1000024        13   # BR(~nu_muL -> ~chi_1+ mu-)
     5.14518679E-01    2     1000037        13   # BR(~nu_muL -> ~chi_2+ mu-)
#
#         PDG            Width
DECAY   1000016     3.13096643E+01   # snu_tauL decays
#          BR         NDA      ID1       ID2
     2.14409372E-01    2     1000022        16   # BR(~nu_tauL -> ~chi_10 nu_tau)
     1.61660234E-03    2     1000023        16   # BR(~nu_tauL -> ~chi_20 nu_tau)
     3.47388339E-03    2     1000025        16   # BR(~nu_tauL -> ~chi_30 nu_tau)
     2.49847555E-01    2     1000035        16   # BR(~nu_tauL -> ~chi_40 nu_tau)
     3.15748179E-02    2     1000024        15   # BR(~nu_tauL -> ~chi_1+ tau-)
     4.99077769E-01    2     1000037        15   # BR(~nu_tauL -> ~chi_2+ tau-)
#
#         PDG            Width
DECAY   1000024     1.63057338E-01   # chargino1+ decays
#          BR         NDA      ID1       ID2
     1.00000000E+00    2     1000022        24   # BR(~chi_1+ -> ~chi_10  W+)
#
#         PDG            Width
DECAY   1000037     2.28972082E+01   # chargino2+ decays
#          BR         NDA      ID1       ID2
     2.53647902E-01    2     1000024        23   # BR(~chi_2+ -> ~chi_1+  Z )
     1.47791870E-04    2     1000022        24   # BR(~chi_2+ -> ~chi_10  W+)
     2.45428244E-01    2     1000023        24   # BR(~chi_2+ -> ~chi_20  W+)
     2.44532493E-01    2     1000025        24   # BR(~chi_2+ -> ~chi_30  W+)
     2.56228438E-01    2     1000024        25   # BR(~chi_2+ -> ~chi_1+  h )
     1.51317408E-05    2     1000022        37   # BR(~chi_2+ -> ~chi_10  H+)
#
#         PDG            Width
DECAY   1000022     0.00000000E+00   # neutralino1 decays
#
#         PDG            Width
DECAY   1000023     1.53409367E-01   # neutralino2 decays
#          BR         NDA      ID1       ID2
     4.91773416E-01    2     1000022        23   # BR(~chi_20 -> ~chi_10   Z )
     5.08226584E-01    2     1000022        25   # BR(~chi_20 -> ~chi_10   h )
#
#         PDG            Width
DECAY   1000025     1.38261545E-01   # neutralino3 decays
#          BR         NDA      ID1       ID2
     6.71452887E-01    2     1000022        23   # BR(~chi_30 -> ~chi_10   Z )
     3.28547113E-01    2     1000022        25   # BR(~chi_30 -> ~chi_10   h )
#
#         PDG            Width
DECAY   1000035     2.28987006E+01   # neutralino4 decays
#          BR         NDA      ID1       ID2
     6.90244464E-05    2     1000022        23   # BR(~chi_40 -> ~chi_10   Z )
     1.29011673E-01    2     1000023        23   # BR(~chi_40 -> ~chi_20   Z )
     1.24402059E-01    2     1000025        23   # BR(~chi_40 -> ~chi_30   Z )
     2.45259341E-01    2     1000024       -24   # BR(~chi_40 -> ~chi_1+   W-)
     2.45259341E-01    2    -1000024        24   # BR(~chi_40 -> ~chi_1-   W+)
     6.83362164E-05    2     1000022        25   # BR(~chi_40 -> ~chi_10   h )
     1.46057317E-05    2     1000022        35   # BR(~chi_40 -> ~chi_10   H )
     1.54819735E-06    2     1000022        36   # BR(~chi_40 -> ~chi_10   A )
     1.26596395E-01    2     1000023        25   # BR(~chi_40 -> ~chi_20   h )
     1.29317677E-01    2     1000025        25   # BR(~chi_40 -> ~chi_30   h )
#
#         PDG            Width
DECAY        25     4.07721915E-03   # h decays
#          BR         NDA      ID1       ID2
     6.09308375E-01    2           5        -5   # BR(h -> b       bb     )
     6.36362974E-02    2         -15        15   # BR(h -> tau+    tau-   )
     2.25295524E-04    2         -13        13   # BR(h -> mu+     mu-    )
     4.77594172E-04    2           3        -3   # BR(h -> s       sb     )
     2.06921326E-02    2           4        -4   # BR(h -> c       cb     )
     6.69627663E-02    2          21        21   # BR(h -> g       g      )
     2.30105094E-03    2          22        22   # BR(h -> gam     gam    )
     1.48673105E-03    2          22        23   # BR(h -> Z       gam    )
     2.09897018E-01    2          24       -24   # BR(h -> W+      W-     )
     2.50104923E-02    2          23        23   # BR(h -> Z       Z      )
     2.24676016E-06    2     1000022   1000022   # BR(h -> ~chi_10 ~chi_10)
#
#         PDG            Width
DECAY        35     8.77879622E+00   # H decays
#          BR         NDA      ID1       ID2
     3.61421241E-01    2           5        -5   # BR(H -> b       bb     )
     6.34410495E-02    2         -15        15   # BR(H -> tau+    tau-   )
     2.24332590E-04    2         -13        13   # BR(H -> mu+     mu-    )
     2.74997253E-04    2           3        -3   # BR(H -> s       sb     )
     1.53943900E-06    2           4        -4   # BR(H -> c       cb     )
     1.53802157E-01    2           6        -6   # BR(H -> t       tb     )
     5.11760992E-05    2          21        21   # BR(H -> g       g      )
     1.38365191E-07    2          22        22   # BR(H -> gam     gam    )
     9.07423482E-08    2          23        22   # BR(H -> Z       gam    )
     7.48407966E-05    2          24       -24   # BR(H -> W+      W-     )
     3.73730206E-05    2          23        23   # BR(H -> Z       Z      )
     2.67605847E-04    2          25        25   # BR(H -> h       h      )
    -8.46284178E-24    2          36        36   # BR(H -> A       A      )
     9.11164107E-19    2          23        36   # BR(H -> Z       A      )
     3.40688297E-03    2     1000024  -1000024   # BR(H -> ~chi_1+ ~chi_1-)
     1.88153067E-02    2     1000022   1000022   # BR(H -> ~chi_10 ~chi_10)
     3.32979697E-03    2     1000023   1000023   # BR(H -> ~chi_20 ~chi_20)
     5.10634724E-03    2     1000025   1000025   # BR(H -> ~chi_30 ~chi_30)
     2.32143887E-01    2     1000022   1000023   # BR(H -> ~chi_10 ~chi_20)
     1.48089821E-01    2     1000022   1000025   # BR(H -> ~chi_10 ~chi_30)
     9.51141607E-03    2     1000023   1000025   # BR(H -> ~chi_20 ~chi_30)
#
#         PDG            Width
DECAY        36     8.78412565E+00   # A decays
#          BR         NDA      ID1       ID2
     3.61325625E-01    2           5        -5   # BR(A -> b       bb     )
     6.34044193E-02    2         -15        15   # BR(A -> tau+    tau-   )
     2.24202749E-04    2         -13        13   # BR(A -> mu+     mu-    )
     2.75039100E-04    2           3        -3   # BR(A -> s       sb     )
     1.54458638E-06    2           4        -4   # BR(A -> c       cb     )
     1.54231270E-01    2           6        -6   # BR(A -> t       tb     )
     1.52606108E-04    2          21        21   # BR(A -> g       g      )
     5.63984349E-07    2          22        22   # BR(A -> gam     gam    )
     1.84683775E-07    2          23        22   # BR(A -> Z       gam    )
     7.45119583E-05    2          23        25   # BR(A -> Z       h      )
     3.56215978E-03    2     1000024  -1000024   # BR(A -> ~chi_1+ ~chi_1-)
     1.80674148E-02    2     1000022   1000022   # BR(A -> ~chi_10 ~chi_10)
     2.25864826E-03    2     1000023   1000023   # BR(A -> ~chi_20 ~chi_20)
     8.17808499E-03    2     1000025   1000025   # BR(A -> ~chi_30 ~chi_30)
     1.51218448E-01    2     1000022   1000023   # BR(A -> ~chi_10 ~chi_20)
     2.28687354E-01    2     1000022   1000025   # BR(A -> ~chi_10 ~chi_30)
     8.33792267E-03    2     1000023   1000025   # BR(A -> ~chi_20 ~chi_30)
#
#         PDG            Width
DECAY        37     8.72699131E+00   # H+ decays
#          BR         NDA      ID1       ID2
     5.79404484E-04    2           4        -5   # BR(H+ -> c       bb     )
     6.38507813E-02    2         -15        16   # BR(H+ -> tau+    nu_tau )
     2.25781119E-04    2         -13        14   # BR(H+ -> mu+     nu_mu  )
     3.70816915E-06    2           2        -5   # BR(H+ -> u       bb     )
     1.32480248E-05    2           2        -3   # BR(H+ -> u       sb     )
     2.73970911E-04    2           4        -3   # BR(H+ -> c       sb     )
     5.14164555E-01    2           6        -5   # BR(H+ -> t       bb     )
     7.51584744E-05    2          24        25   # BR(H+ -> W+      h      )
     1.03204008E-12    2          24        36   # BR(H+ -> W+      A      )
     4.09997564E-01    2     1000024   1000022   # BR(H+ -> ~chi_1+ ~chi_10)
     9.11095249E-03    2     1000024   1000023   # BR(H+ -> ~chi_1+ ~chi_20)
     1.70487639E-03    2     1000024   1000025   # BR(H+ -> ~chi_1+ ~chi_30)
