#
#                              ======================
#                              | THE SUSYHIT OUTPUT |
#                              ======================
#
#
#              ------------------------------------------------------
#              |     This is the output of the SUSY-HIT package     |
#              |  created by A.Djouadi, M.Muehlleitner and M.Spira. |
#              |  In case of problems with SUSY-HIT email to        |
#              |           margarete.muehlleitner@cern.ch           |
#              |           michael.spira@psi.ch                     |
#              |           abdelhak.djouadi@cern.ch                 |
#              ------------------------------------------------------
#
#              ------------------------------------------------------
#              |  SUSY Les Houches Accord - MSSM Spectrum + Decays  |
#              |              based on the decay programs           |
#              |                                                    |
#              |                     SDECAY 1.3b                    |
#              |                                                    |
#              |  Authors: M.Muhlleitner, A.Djouadi and Y.Mambrini  |
#              |  Ref.:    Comput.Phys.Commun.168(2005)46           |
#              |           [hep-ph/0311167]                         |
#              |                                                    |
#              |                     HDECAY 3.4                     |
#              |                                                    |
#              |  By: A.Djouadi,J.Kalinowski,M.Muhlleitner,M.Spira  |
#              |  Ref.:    Comput.Phys.Commun.108(1998)56           |
#              |           [hep-ph/9704448]                         |
#              |                                                    |
#              |                                                    |
#              |  If not stated otherwise all DRbar couplings and   |
#              |  soft SUSY breaking masses are given at the scale  |
#              |  Q=  0.50007539E+04
#              |                                                    |
#              ------------------------------------------------------
#
#
BLOCK DCINFO  # Decay Program information
     1   SDECAY/HDECAY # decay calculator
     2   1.3b  /3.4    # version number
#
BLOCK SPINFO  # Spectrum calculator information
     1    SOFTSUSY    # spectrum calculator                
     2    3.4.0       # version number                     
#
BLOCK MODSEL  # Model selection
     1     0   #  nonUniversal                                     
#
BLOCK SMINPUTS  # Standard Model inputs
         1     1.25778332E+02   # alpha_em^-1(M_Z)^MSbar
         2     1.16570000E-05   # G_F [GeV^-2]
         3     1.17200002E-01   # alpha_S(M_Z)^MSbar
         4     9.11876000E+01   # M_Z pole mass
         5     4.25000000E+00   # mb(mb)^MSbar
         6     1.72500000E+02   # mt pole mass
         7     1.77682000E+00   # mtau pole mass
#
BLOCK MINPAR  # Input parameters - minimal models
         3     1.00000000E+01   # tanb                
#
BLOCK EXTPAR  # Input parameters - non-minimal models
         0    -1.00000000E+00   # Set                 
         1     6.00000000E+01   # M_1(MX)             
         2     3.00000000E+03   # M_2(MX)             
         3     1.94902700E+03   # M_3(MX)             
        11     5.00000000E+03   # At(MX)              
        12     5.00000000E+03   # Ab(MX)              
        13     0.00000000E+00   # Atau(MX)            
        23    -6.67982000E+02   # mu(MX)              
        26     3.00000000E+03   # mA(pole)            
        31     5.00000000E+03   # meL(MX)             
        32     5.00000000E+03   # mmuL(MX)            
        33     5.00000000E+03   # mtauL(MX)           
        34     5.00000000E+03   # meR(MX)             
        35     5.00000000E+03   # mmuR(MX)            
        36     5.00000000E+03   # mtauR(MX)           
        41     5.00000000E+03   # mqL1(MX)            
        42     5.00000000E+03   # mqL2(MX)            
        43     5.00000000E+03   # mqL3(MX)            
        44     5.00000000E+03   # muR(MX)             
        45     5.00000000E+03   # mcR(MX)             
        46     5.00000000E+03   # mtR(MX)             
        47     5.00000000E+03   # mdR(MX)             
        48     5.00000000E+03   # msR(MX)             
        49     5.00000000E+03   # mbR(MX)             
#
BLOCK MASS  # Mass Spectrum
# PDG code           mass       particle
        24     8.00942579E+01   # W+
        25     1.24798097E+02   # h
        35     3.00008372E+03   # H
        36     2.99999873E+03   # A
        37     3.00137825E+03   # H+
         5     4.87878001E+00   # b-quark pole mass calculated from mb(mb)_Msbar
   1000001     5.07638638E+03   # ~d_L
   2000001     5.05858049E+03   # ~d_R
   1000002     5.07591377E+03   # ~u_L
   2000002     5.05828695E+03   # ~u_R
   1000003     5.07638638E+03   # ~s_L
   2000003     5.05858049E+03   # ~s_R
   1000004     5.07591377E+03   # ~c_L
   2000004     5.05828695E+03   # ~c_R
   1000005     5.02211159E+03   # ~b_1
   2000005     5.05690961E+03   # ~b_2
   1000006     4.91354698E+03   # ~t_1
   2000006     5.06598122E+03   # ~t_2
   1000011     5.01908895E+03   # ~e_L
   2000011     5.00593517E+03   # ~e_R
   1000012     5.01813964E+03   # ~nu_eL
   1000013     5.01908895E+03   # ~mu_L
   2000013     5.00593517E+03   # ~mu_R
   1000014     5.01813964E+03   # ~nu_muL
   1000015     5.00471954E+03   # ~tau_1
   2000015     5.01867055E+03   # ~tau_2
   1000016     5.01759014E+03   # ~nu_tauL
   1000021     2.30000008E+03   # ~g
   1000022     6.02748883E+01   # ~chi_10
   1000023     6.99989456E+02   # ~chi_20
   1000025    -7.02214749E+02   # ~chi_30
   1000035     3.07419248E+03   # ~chi_40
   1000024     7.00000092E+02   # ~chi_1+
   1000037     3.07436003E+03   # ~chi_2+
#
BLOCK NMIX  # Neutralino Mixing Matrix
  1  1     9.97979516E-01   # N_11
  1  2     2.19045428E-04   # N_12
  1  3    -6.35260306E-02   # N_13
  1  4     1.13226225E-03   # N_14
  2  1     4.41396619E-02   # N_21
  2  2     2.05653664E-02   # N_22
  2  3     7.06086444E-01   # N_23
  2  4     7.06449354E-01   # N_24
  3  1    -4.56992822E-02   # N_31
  3  2     1.61069627E-02   # N_32
  3  3    -7.05263400E-01   # N_33
  3  4     7.07287549E-01   # N_34
  4  1    -3.90407771E-04   # N_41
  4  2     9.99658734E-01   # N_42
  4  3    -3.14843456E-03   # N_43
  4  4    -2.59297409E-02   # N_44
#
BLOCK UMIX  # Chargino Mixing Matrix U
  1  1     4.46156174E-03   # U_11
  1  2     9.99990047E-01   # U_12
  2  1    -9.99990047E-01   # U_21
  2  2     4.46156174E-03   # U_22
#
BLOCK VMIX  # Chargino Mixing Matrix V
  1  1     3.66966672E-02   # V_11
  1  2    -9.99326450E-01   # V_12
  2  1    -9.99326450E-01   # V_21
  2  2    -3.66966672E-02   # V_22
#
BLOCK STOPMIX  # Stop Mixing Matrix
  1  1    -5.03782434E-01   # cos(theta_t)
  1  2     8.63830573E-01   # sin(theta_t)
  2  1    -8.63830573E-01   # -sin(theta_t)
  2  2    -5.03782434E-01   # cos(theta_t)
#
BLOCK SBOTMIX  # Sbottom Mixing Matrix
  1  1     9.98196804E-01   # cos(theta_b)
  1  2    -6.00261650E-02   # sin(theta_b)
  2  1     6.00261650E-02   # -sin(theta_b)
  2  2     9.98196804E-01   # cos(theta_b)
#
BLOCK STAUMIX  # Stau Mixing Matrix
  1  1    -7.99435363E-02   # cos(theta_tau)
  1  2     9.96799394E-01   # sin(theta_tau)
  2  1    -9.96799394E-01   # -sin(theta_tau)
  2  2    -7.99435363E-02   # cos(theta_tau)
#
BLOCK ALPHA  # Higgs mixing
          -1.05485870E-01   # Mixing angle in the neutral Higgs boson sector
#
BLOCK HMIX Q=  5.00075390E+03  # DRbar Higgs Parameters
         1    -6.80239352E+02   # mu(Q)MSSM           
         2     9.46903263E+00   # tan                 
         3     2.41790332E+02   # higgs               
         4     8.61004315E+06   # mA^2(Q)MSSM         
#
BLOCK GAUGE Q=  5.00075390E+03  # The gauge couplings
     1     3.70873636E-01   # gprime(Q) DRbar
     2     6.32936385E-01   # g(Q) DRbar
     3     9.96448990E-01   # g3(Q) DRbar
#
BLOCK AU Q=  5.00075390E+03  # The trilinear couplings
  1  1     5.00000001E+03   # A_u(Q) DRbar
  2  2     5.00000001E+03   # A_c(Q) DRbar
  3  3     5.00000002E+03   # A_t(Q) DRbar
#
BLOCK AD Q=  5.00075390E+03  # The trilinear couplings
  1  1     5.00000001E+03   # A_d(Q) DRbar
  2  2     5.00000001E+03   # A_s(Q) DRbar
  3  3     5.00000001E+03   # A_b(Q) DRbar
#
BLOCK AE Q=  5.00075390E+03  # The trilinear couplings
  1  1     0.00000000E+00   # A_e(Q) DRbar
  2  2     2.18383367E-07   # A_mu(Q) DRbar
  3  3     2.18195602E-07   # A_tau(Q) DRbar
#
BLOCK Yu Q=  5.00075390E+03  # The Yukawa couplings
  1  1     0.00000000E+00   # y_u(Q) DRbar
  2  2     0.00000000E+00   # y_c(Q) DRbar
  3  3     8.20855892E-01   # y_t(Q) DRbar
#
BLOCK Yd Q=  5.00075390E+03  # The Yukawa couplings
  1  1     0.00000000E+00   # y_d(Q) DRbar
  2  2     0.00000000E+00   # y_s(Q) DRbar
  3  3     1.30470332E-01   # y_b(Q) DRbar
#
BLOCK Ye Q=  5.00075390E+03  # The Yukawa couplings
  1  1     0.00000000E+00   # y_e(Q) DRbar
  2  2     0.00000000E+00   # y_mu(Q) DRbar
  3  3     9.70142813E-02   # y_tau(Q) DRbar
#
BLOCK MSOFT Q=  5.00075390E+03  # The soft SUSY breaking masses at the scale Q
         1     6.00000000E+01   # M_1(Q)              
         2     3.00000000E+03   # M_2(Q)              
         3     1.94902700E+03   # M_3(Q)              
        21     8.25203551E+06   # mH1^2(Q)            
        22     1.10299108E+05   # mH2^2(Q)            
        31     5.00000000E+03   # meL(Q)              
        32     5.00000000E+03   # mmuL(Q)             
        33     5.00000000E+03   # mtauL(Q)            
        34     5.00000000E+03   # meR(Q)              
        35     5.00000000E+03   # mmuR(Q)             
        36     5.00000000E+03   # mtauR(Q)            
        41     5.00000000E+03   # mqL1(Q)             
        42     5.00000000E+03   # mqL2(Q)             
        43     4.99999999E+03   # mqL3(Q)             
        44     5.00000000E+03   # muR(Q)              
        45     5.00000000E+03   # mcR(Q)              
        46     4.99999999E+03   # mtR(Q)              
        47     5.00000000E+03   # mdR(Q)              
        48     5.00000000E+03   # msR(Q)              
        49     5.00000000E+03   # mbR(Q)              
#
#
#
#                             =================
#                             |The decay table|
#                             =================
#
# - The QCD corrections to the decays gluino -> squark  + quark
#                                     squark -> gaugino + quark_prime
#                                     squark -> squark_prime + Higgs
#                                     squark -> gluino  + quark
#   are included.
#
# - The multi-body decays for the inos, stops and sbottoms are included.
#
# - The loop induced decays for the gluino, neutralinos and stops
#   are included.
#
# - The SUSY decays of the top quark are included.
#
#
#         PDG            Width
DECAY         6     1.40390047E+00   # top decays
#          BR         NDA      ID1       ID2
     1.00000000E+00    2           5        24   # BR(t ->  b    W+)
#
#         PDG            Width
DECAY   1000021     3.28524447E-03   # gluino decays
#          BR         NDA      ID1       ID2
     1.13057264E-06    2     1000022        21   # BR(~g -> ~chi_10 g)
     5.85171295E-03    2     1000023        21   # BR(~g -> ~chi_20 g)
     5.72036202E-03    2     1000025        21   # BR(~g -> ~chi_30 g)
#           BR         NDA      ID1       ID2       ID3
     1.47501390E-02    3     1000022         1        -1   # BR(~g -> ~chi_10 d  db)
     2.34911997E-05    3     1000023         1        -1   # BR(~g -> ~chi_20 d  db)
     2.36247534E-05    3     1000025         1        -1   # BR(~g -> ~chi_30 d  db)
     5.03010458E-02    3     1000022         2        -2   # BR(~g -> ~chi_10 u  ub)
     1.08857188E-04    3     1000023         2        -2   # BR(~g -> ~chi_20 u  ub)
     3.34837075E-05    3     1000025         2        -2   # BR(~g -> ~chi_30 u  ub)
     1.47501390E-02    3     1000022         3        -3   # BR(~g -> ~chi_10 s  sb)
     2.34911997E-05    3     1000023         3        -3   # BR(~g -> ~chi_20 s  sb)
     2.36247534E-05    3     1000025         3        -3   # BR(~g -> ~chi_30 s  sb)
     5.03010458E-02    3     1000022         4        -4   # BR(~g -> ~chi_10 c  cb)
     1.08857188E-04    3     1000023         4        -4   # BR(~g -> ~chi_20 c  cb)
     3.34837075E-05    3     1000025         4        -4   # BR(~g -> ~chi_30 c  cb)
     1.50109929E-02    3     1000022         5        -5   # BR(~g -> ~chi_10 b  bb)
     5.12584366E-03    3     1000023         5        -5   # BR(~g -> ~chi_20 b  bb)
     5.08599051E-03    3     1000025         5        -5   # BR(~g -> ~chi_30 b  bb)
     5.04099611E-02    3     1000022         6        -6   # BR(~g -> ~chi_10 t  tb)
     1.95096311E-01    3     1000023         6        -6   # BR(~g -> ~chi_20 t  tb)
     1.80634774E-01    3     1000025         6        -6   # BR(~g -> ~chi_30 t  tb)
     5.77479047E-05    3     1000024         1        -2   # BR(~g -> ~chi_1+ d  ub)
     5.77479047E-05    3    -1000024         2        -1   # BR(~g -> ~chi_1- u  db)
     5.77479047E-05    3     1000024         3        -4   # BR(~g -> ~chi_1+ s  cb)
     5.77479047E-05    3    -1000024         4        -3   # BR(~g -> ~chi_1- c  sb)
     2.03175323E-01    3     1000024         5        -6   # BR(~g -> ~chi_1+ b  tb)
     2.03175323E-01    3    -1000024         6        -5   # BR(~g -> ~chi_1- t  bb)
#
#         PDG            Width
DECAY   1000006     3.18627313E+02   # stop1 decays
#          BR         NDA      ID1       ID2
     2.78216023E-02    2     1000022         6   # BR(~t_1 -> ~chi_10 t )
     1.00233010E-01    2     1000023         6   # BR(~t_1 -> ~chi_20 t )
     9.58039735E-02    2     1000025         6   # BR(~t_1 -> ~chi_30 t )
     6.37440176E-03    2     1000035         6   # BR(~t_1 -> ~chi_40 t )
     1.46588759E-01    2     1000024         5   # BR(~t_1 -> ~chi_1+ b )
     1.27051475E-02    2     1000037         5   # BR(~t_1 -> ~chi_2+ b )
     6.10473106E-01    2     1000021         6   # BR(~t_1 -> ~g      t )
#
#         PDG            Width
DECAY   2000006     3.25482897E+02   # stop2 decays
#          BR         NDA      ID1       ID2
     1.05582056E-02    2     1000022         6   # BR(~t_2 -> ~chi_10 t )
     9.94665446E-02    2     1000023         6   # BR(~t_2 -> ~chi_20 t )
     1.04294343E-01    2     1000025         6   # BR(~t_2 -> ~chi_30 t )
     1.72916516E-02    2     1000035         6   # BR(~t_2 -> ~chi_40 t )
     5.80477839E-02    2     1000024         5   # BR(~t_2 -> ~chi_1+ b )
     3.44225528E-02    2     1000037         5   # BR(~t_2 -> ~chi_2+ b )
     6.72191251E-01    2     1000021         6   # BR(~t_2 -> ~g      t )
     8.59714346E-04    2     1000006        25   # BR(~t_2 -> ~t_1    h )
     2.86795238E-03    2     1000006        23   # BR(~t_2 -> ~t_1    Z )
#
#         PDG            Width
DECAY   1000005     3.00122753E+02   # sbottom1 decays
#          BR         NDA      ID1       ID2
     2.57100111E-03    2     1000022         5   # BR(~b_1 -> ~chi_10 b )
     2.72572310E-03    2     1000023         5   # BR(~b_1 -> ~chi_20 b )
     2.69267798E-03    2     1000025         5   # BR(~b_1 -> ~chi_30 b )
     2.52881704E-02    2     1000035         5   # BR(~b_1 -> ~chi_40 b )
     2.15122963E-01    2    -1000024         6   # BR(~b_1 -> ~chi_1- t )
     5.07834196E-02    2    -1000037         6   # BR(~b_1 -> ~chi_2- t )
     6.98991865E-01    2     1000021         5   # BR(~b_1 -> ~g      b )
     1.82417957E-03    2     1000006       -24   # BR(~b_1 -> ~t_1    W-)
#
#         PDG            Width
DECAY   2000005     2.19109498E+02   # sbottom2 decays
#          BR         NDA      ID1       ID2
     1.33941052E-02    2     1000022         5   # BR(~b_2 -> ~chi_10 b )
     3.79719770E-03    2     1000023         5   # BR(~b_2 -> ~chi_20 b )
     3.86664240E-03    2     1000025         5   # BR(~b_2 -> ~chi_30 b )
     1.20342268E-04    2     1000035         5   # BR(~b_2 -> ~chi_40 b )
     8.51182598E-03    2    -1000024         6   # BR(~b_2 -> ~chi_1- t )
     2.41671972E-04    2    -1000037         6   # BR(~b_2 -> ~chi_2- t )
     9.70030060E-01    2     1000021         5   # BR(~b_2 -> ~g      b )
     3.81543264E-05    2     1000006       -24   # BR(~b_2 -> ~t_1    W-)
#
#         PDG            Width
DECAY   1000002     2.38542709E+02   # sup_L decays
#          BR         NDA      ID1       ID2
     3.12070183E-03    2     1000022         2   # BR(~u_L -> ~chi_10 u)
     6.72997665E-05    2     1000023         2   # BR(~u_L -> ~chi_20 u)
     4.07296843E-06    2     1000025         2   # BR(~u_L -> ~chi_30 u)
     3.30714346E-02    2     1000035         2   # BR(~u_L -> ~chi_40 u)
     2.12778030E-04    2     1000024         1   # BR(~u_L -> ~chi_1+ d)
     6.61007073E-02    2     1000037         1   # BR(~u_L -> ~chi_2+ d)
     8.97423006E-01    2     1000021         2   # BR(~u_L -> ~g      u)
#
#         PDG            Width
DECAY   2000002     2.24449717E+02   # sup_R decays
#          BR         NDA      ID1       ID2
     5.27604532E-02    2     1000022         2   # BR(~u_R -> ~chi_10 u)
     9.94745194E-05    2     1000023         2   # BR(~u_R -> ~chi_20 u)
     1.06602259E-04    2     1000025         2   # BR(~u_R -> ~chi_30 u)
     3.23520130E-09    2     1000035         2   # BR(~u_R -> ~chi_40 u)
     9.47033467E-01    2     1000021         2   # BR(~u_R -> ~g      u)
#
#         PDG            Width
DECAY   1000001     2.38558072E+02   # sdown_L decays
#          BR         NDA      ID1       ID2
     3.10679965E-03    2     1000022         1   # BR(~d_L -> ~chi_10 d)
     1.12710211E-05    2     1000023         1   # BR(~d_L -> ~chi_20 d)
     4.94968050E-05    2     1000025         1   # BR(~d_L -> ~chi_30 d)
     3.30895667E-02    2     1000035         1   # BR(~d_L -> ~chi_40 d)
     3.14530986E-06    2    -1000024         2   # BR(~d_L -> ~chi_1- u)
     6.62046122E-02    2    -1000037         2   # BR(~d_L -> ~chi_2- u)
     8.97535108E-01    2     1000021         1   # BR(~d_L -> ~g      d)
#
#         PDG            Width
DECAY   2000001     2.15558845E+02   # sdown_R decays
#          BR         NDA      ID1       ID2
     1.37349585E-02    2     1000022         1   # BR(~d_R -> ~chi_10 d)
     2.58959917E-05    2     1000023         1   # BR(~d_R -> ~chi_20 d)
     2.77515418E-05    2     1000025         1   # BR(~d_R -> ~chi_30 d)
     8.42322461E-10    2     1000035         1   # BR(~d_R -> ~chi_40 d)
     9.86211393E-01    2     1000021         1   # BR(~d_R -> ~g      d)
#
#         PDG            Width
DECAY   1000004     2.38542709E+02   # scharm_L decays
#          BR         NDA      ID1       ID2
     3.12070183E-03    2     1000022         4   # BR(~c_L -> ~chi_10 c)
     6.72997665E-05    2     1000023         4   # BR(~c_L -> ~chi_20 c)
     4.07296843E-06    2     1000025         4   # BR(~c_L -> ~chi_30 c)
     3.30714346E-02    2     1000035         4   # BR(~c_L -> ~chi_40 c)
     2.12778030E-04    2     1000024         3   # BR(~c_L -> ~chi_1+ s)
     6.61007073E-02    2     1000037         3   # BR(~c_L -> ~chi_2+ s)
     8.97423006E-01    2     1000021         4   # BR(~c_L -> ~g      c)
#
#         PDG            Width
DECAY   2000004     2.24449717E+02   # scharm_R decays
#          BR         NDA      ID1       ID2
     5.27604532E-02    2     1000022         4   # BR(~c_R -> ~chi_10 c)
     9.94745194E-05    2     1000023         4   # BR(~c_R -> ~chi_20 c)
     1.06602259E-04    2     1000025         4   # BR(~c_R -> ~chi_30 c)
     3.23520130E-09    2     1000035         4   # BR(~c_R -> ~chi_40 c)
     9.47033467E-01    2     1000021         4   # BR(~c_R -> ~g      c)
#
#         PDG            Width
DECAY   1000003     2.38558072E+02   # sstrange_L decays
#          BR         NDA      ID1       ID2
     3.10679965E-03    2     1000022         3   # BR(~s_L -> ~chi_10 s)
     1.12710211E-05    2     1000023         3   # BR(~s_L -> ~chi_20 s)
     4.94968050E-05    2     1000025         3   # BR(~s_L -> ~chi_30 s)
     3.30895667E-02    2     1000035         3   # BR(~s_L -> ~chi_40 s)
     3.14530986E-06    2    -1000024         4   # BR(~s_L -> ~chi_1- c)
     6.62046122E-02    2    -1000037         4   # BR(~s_L -> ~chi_2- c)
     8.97535108E-01    2     1000021         3   # BR(~s_L -> ~g      s)
#
#         PDG            Width
DECAY   2000003     2.15558845E+02   # sstrange_R decays
#          BR         NDA      ID1       ID2
     1.37349585E-02    2     1000022         3   # BR(~s_R -> ~chi_10 s)
     2.58959917E-05    2     1000023         3   # BR(~s_R -> ~chi_20 s)
     2.77515418E-05    2     1000025         3   # BR(~s_R -> ~chi_30 s)
     8.42322461E-10    2     1000035         3   # BR(~s_R -> ~chi_40 s)
     9.86211393E-01    2     1000021         3   # BR(~s_R -> ~g      s)
#
#         PDG            Width
DECAY   1000011     3.03023314E+01   # selectron_L decays
#          BR         NDA      ID1       ID2
     2.25810534E-01    2     1000022        11   # BR(~e_L -> ~chi_10 e-)
     1.36802082E-03    2     1000023        11   # BR(~e_L -> ~chi_20 e-)
     7.22432492E-05    2     1000025        11   # BR(~e_L -> ~chi_30 e-)
     2.57404748E-01    2     1000035        11   # BR(~e_L -> ~chi_40 e-)
     2.52645378E-05    2    -1000024        12   # BR(~e_L -> ~chi_1- nu_e)
     5.15319190E-01    2    -1000037        12   # BR(~e_L -> ~chi_2- nu_e)
#
#         PDG            Width
DECAY   2000011     2.73844286E+01   # selectron_R decays
#          BR         NDA      ID1       ID2
     9.96118303E-01    2     1000022        11   # BR(~e_R -> ~chi_10 e-)
     1.87369925E-03    2     1000023        11   # BR(~e_R -> ~chi_20 e-)
     2.00793809E-03    2     1000025        11   # BR(~e_R -> ~chi_30 e-)
     5.91595175E-08    2     1000035        11   # BR(~e_R -> ~chi_40 e-)
#
#         PDG            Width
DECAY   1000013     3.03023314E+01   # smuon_L decays
#          BR         NDA      ID1       ID2
     2.25810534E-01    2     1000022        13   # BR(~mu_L -> ~chi_10 mu-)
     1.36802082E-03    2     1000023        13   # BR(~mu_L -> ~chi_20 mu-)
     7.22432492E-05    2     1000025        13   # BR(~mu_L -> ~chi_30 mu-)
     2.57404748E-01    2     1000035        13   # BR(~mu_L -> ~chi_40 mu-)
     2.52645378E-05    2    -1000024        14   # BR(~mu_L -> ~chi_1- nu_mu)
     5.15319190E-01    2    -1000037        14   # BR(~mu_L -> ~chi_2- nu_mu)
#
#         PDG            Width
DECAY   2000013     2.73844286E+01   # smuon_R decays
#          BR         NDA      ID1       ID2
     9.96118303E-01    2     1000022        13   # BR(~mu_R -> ~chi_10 mu-)
     1.87369925E-03    2     1000023        13   # BR(~mu_R -> ~chi_20 mu-)
     2.00793809E-03    2     1000025        13   # BR(~mu_R -> ~chi_30 mu-)
     5.91595175E-08    2     1000035        13   # BR(~mu_R -> ~chi_40 mu-)
#
#         PDG            Width
DECAY   1000015     2.91954147E+01   # stau_1 decays
#          BR         NDA      ID1       ID2
     9.30630903E-01    2     1000022        15   # BR(~tau_1 -> ~chi_10  tau-)
     1.70514709E-02    2     1000023        15   # BR(~tau_1 -> ~chi_20  tau-)
     1.65288344E-02    2     1000025        15   # BR(~tau_1 -> ~chi_30  tau-)
     1.66219552E-03    2     1000035        15   # BR(~tau_1 -> ~chi_40  tau-)
     3.07991087E-02    2    -1000024        16   # BR(~tau_1 -> ~chi_1-  nu_tau)
     3.32748795E-03    2    -1000037        16   # BR(~tau_1 -> ~chi_2-  nu_tau)
#
#         PDG            Width
DECAY   2000015     3.11815607E+01   # stau_2 decays
#          BR         NDA      ID1       ID2
     2.22927308E-01    2     1000022        15   # BR(~tau_2 -> ~chi_10  tau-)
     1.58576235E-02    2     1000023        15   # BR(~tau_2 -> ~chi_20  tau-)
     1.51338394E-02    2     1000025        15   # BR(~tau_2 -> ~chi_30  tau-)
     2.48504462E-01    2     1000035        15   # BR(~tau_2 -> ~chi_40  tau-)
     7.51520265E-05    2    -1000024        16   # BR(~tau_2 -> ~chi_1-  nu_tau)
     4.97501615E-01    2    -1000037        16   # BR(~tau_2 -> ~chi_2-  nu_tau)
#
#         PDG            Width
DECAY   1000012     3.03054245E+01   # snu_eL decays
#          BR         NDA      ID1       ID2
     2.25406770E-01    2     1000022        12   # BR(~nu_eL -> ~chi_10 nu_e)
     1.78112805E-05    2     1000023        12   # BR(~nu_eL -> ~chi_20 nu_e)
     1.16646525E-03    2     1000025        12   # BR(~nu_eL -> ~chi_30 nu_e)
     2.57448437E-01    2     1000035        12   # BR(~nu_eL -> ~chi_40 nu_e)
     1.70866842E-03    2     1000024        11   # BR(~nu_eL -> ~chi_1+ e-)
     5.14251848E-01    2     1000037        11   # BR(~nu_eL -> ~chi_2+ e-)
#
#         PDG            Width
DECAY   1000014     3.03054245E+01   # snu_muL decays
#          BR         NDA      ID1       ID2
     2.25406770E-01    2     1000022        14   # BR(~nu_muL -> ~chi_10 nu_mu)
     1.78112805E-05    2     1000023        14   # BR(~nu_muL -> ~chi_20 nu_mu)
     1.16646525E-03    2     1000025        14   # BR(~nu_muL -> ~chi_30 nu_mu)
     2.57448437E-01    2     1000035        14   # BR(~nu_muL -> ~chi_40 nu_mu)
     1.70866842E-03    2     1000024        13   # BR(~nu_muL -> ~chi_1+ mu-)
     5.14251848E-01    2     1000037        13   # BR(~nu_muL -> ~chi_2+ mu-)
#
#         PDG            Width
DECAY   1000016     3.11992429E+01   # snu_tauL decays
#          BR         NDA      ID1       ID2
     2.18925165E-01    2     1000022        16   # BR(~nu_tauL -> ~chi_10 nu_tau)
     1.72989652E-05    2     1000023        16   # BR(~nu_tauL -> ~chi_20 nu_tau)
     1.13291353E-03    2     1000025        16   # BR(~nu_tauL -> ~chi_30 nu_tau)
     2.49979681E-01    2     1000035        16   # BR(~nu_tauL -> ~chi_40 nu_tau)
     3.06124786E-02    2     1000024        15   # BR(~nu_tauL -> ~chi_1+ tau-)
     4.99332463E-01    2     1000037        15   # BR(~nu_tauL -> ~chi_2+ tau-)
#
#         PDG            Width
DECAY   1000024     4.20416605E-01   # chargino1+ decays
#          BR         NDA      ID1       ID2
     1.00000000E+00    2     1000022        24   # BR(~chi_1+ -> ~chi_10  W+)
#
#         PDG            Width
DECAY   1000037     2.14599063E+01   # chargino2+ decays
#          BR         NDA      ID1       ID2
     2.53432828E-01    2     1000024        23   # BR(~chi_2+ -> ~chi_1+  Z )
     1.77981281E-04    2     1000022        24   # BR(~chi_2+ -> ~chi_10  W+)
     2.44565406E-01    2     1000023        24   # BR(~chi_2+ -> ~chi_20  W+)
     2.44273243E-01    2     1000025        24   # BR(~chi_2+ -> ~chi_30  W+)
     2.57547976E-01    2     1000024        25   # BR(~chi_2+ -> ~chi_1+  h )
     2.56484936E-06    2     1000022        37   # BR(~chi_2+ -> ~chi_10  H+)
#
#         PDG            Width
DECAY   1000022     0.00000000E+00   # neutralino1 decays
#
#         PDG            Width
DECAY   1000023     4.34151453E-01   # neutralino2 decays
#          BR         NDA      ID1       ID2
     5.22417348E-01    2     1000022        23   # BR(~chi_20 -> ~chi_10   Z )
     4.77582652E-01    2     1000022        25   # BR(~chi_20 -> ~chi_10   h )
#
#         PDG            Width
DECAY   1000025     4.32022322E-01   # neutralino3 decays
#          BR         NDA      ID1       ID2
     4.83900634E-01    2     1000022        23   # BR(~chi_30 -> ~chi_10   Z )
     5.16099366E-01    2     1000022        25   # BR(~chi_30 -> ~chi_10   h )
#
#         PDG            Width
DECAY   1000035     2.14749967E+01   # neutralino4 decays
#          BR         NDA      ID1       ID2
     2.28860457E-05    2     1000022        23   # BR(~chi_40 -> ~chi_10   Z )
     9.62856942E-02    2     1000023        23   # BR(~chi_40 -> ~chi_20   Z )
     1.56538694E-01    2     1000025        23   # BR(~chi_40 -> ~chi_30   Z )
     2.45016370E-01    2     1000024       -24   # BR(~chi_40 -> ~chi_1+   W-)
     2.45016370E-01    2    -1000024        24   # BR(~chi_40 -> ~chi_1-   W+)
     1.52148352E-04    2     1000022        25   # BR(~chi_40 -> ~chi_10   h )
     2.45076992E-06    2     1000022        35   # BR(~chi_40 -> ~chi_10   H )
     2.79221583E-07    2     1000022        36   # BR(~chi_40 -> ~chi_10   A )
     1.60395345E-01    2     1000023        25   # BR(~chi_40 -> ~chi_20   h )
     9.65697633E-02    2     1000025        25   # BR(~chi_40 -> ~chi_30   h )
#
#         PDG            Width
DECAY        25     4.06684816E-03   # h decays
#          BR         NDA      ID1       ID2
     6.08299398E-01    2           5        -5   # BR(h -> b       bb     )
     6.37933773E-02    2         -15        15   # BR(h -> tau+    tau-   )
     2.25851642E-04    2         -13        13   # BR(h -> mu+     mu-    )
     4.78773316E-04    2           3        -3   # BR(h -> s       sb     )
     2.07449699E-02    2           4        -4   # BR(h -> c       cb     )
     6.71337782E-02    2          21        21   # BR(h -> g       g      )
     2.30840249E-03    2          22        22   # BR(h -> gam     gam    )
     1.49069820E-03    2          22        23   # BR(h -> Z       gam    )
     2.10368821E-01    2          24       -24   # BR(h -> W+      W-     )
     2.50754474E-02    2          23        23   # BR(h -> Z       Z      )
     8.04827358E-05    2     1000022   1000022   # BR(h -> ~chi_10 ~chi_10)
#
#         PDG            Width
DECAY        35     8.47981706E+00   # H decays
#          BR         NDA      ID1       ID2
     3.78093158E-01    2           5        -5   # BR(H -> b       bb     )
     6.56872905E-02    2         -15        15   # BR(H -> tau+    tau-   )
     2.32275477E-04    2         -13        13   # BR(H -> mu+     mu-    )
     2.84734094E-04    2           3        -3   # BR(H -> s       sb     )
     1.59334830E-06    2           4        -4   # BR(H -> c       cb     )
     1.59188116E-01    2           6        -6   # BR(H -> t       tb     )
     5.29280013E-05    2          21        21   # BR(H -> g       g      )
     1.84872252E-07    2          22        22   # BR(H -> gam     gam    )
     9.39733287E-08    2          23        22   # BR(H -> Z       gam    )
     7.49487255E-05    2          24       -24   # BR(H -> W+      W-     )
     3.74269260E-05    2          23        23   # BR(H -> Z       Z      )
     2.74160589E-04    2          25        25   # BR(H -> h       h      )
    -1.94445190E-23    2          36        36   # BR(H -> A       A      )
     9.63114629E-19    2          23        36   # BR(H -> Z       A      )
     2.81418336E-03    2     1000024  -1000024   # BR(H -> ~chi_1+ ~chi_1-)
     3.48075972E-03    2     1000022   1000022   # BR(H -> ~chi_10 ~chi_10)
     1.48444964E-05    2     1000023   1000023   # BR(H -> ~chi_20 ~chi_20)
     1.35568215E-03    2     1000025   1000025   # BR(H -> ~chi_30 ~chi_30)
     2.33784166E-01    2     1000022   1000023   # BR(H -> ~chi_10 ~chi_20)
     1.53103087E-01    2     1000022   1000025   # BR(H -> ~chi_10 ~chi_30)
     1.52036695E-03    2     1000023   1000025   # BR(H -> ~chi_20 ~chi_30)
#
#         PDG            Width
DECAY        36     8.48982783E+00   # A decays
#          BR         NDA      ID1       ID2
     3.77775743E-01    2           5        -5   # BR(A -> b       bb     )
     6.56117939E-02    2         -15        15   # BR(A -> tau+    tau-   )
     2.32008190E-04    2         -13        13   # BR(A -> mu+     mu-    )
     2.84614364E-04    2           3        -3   # BR(A -> s       sb     )
     1.59789731E-06    2           4        -4   # BR(A -> c       cb     )
     1.59554515E-01    2           6        -6   # BR(A -> t       tb     )
     1.57882817E-04    2          21        21   # BR(A -> g       g      )
     5.99925471E-07    2          22        22   # BR(A -> gam     gam    )
     1.91172350E-07    2          23        22   # BR(A -> Z       gam    )
     7.45770175E-05    2          23        25   # BR(A -> Z       h      )
     3.41344189E-03    2     1000024  -1000024   # BR(A -> ~chi_1+ ~chi_1-)
     3.50872935E-03    2     1000022   1000022   # BR(A -> ~chi_10 ~chi_10)
     1.23955917E-05    2     1000023   1000023   # BR(A -> ~chi_20 ~chi_20)
     2.65477022E-03    2     1000025   1000025   # BR(A -> ~chi_30 ~chi_30)
     1.55727764E-01    2     1000022   1000023   # BR(A -> ~chi_10 ~chi_20)
     2.30159893E-01    2     1000022   1000025   # BR(A -> ~chi_10 ~chi_30)
     8.29483218E-04    2     1000023   1000025   # BR(A -> ~chi_20 ~chi_30)
#
#         PDG            Width
DECAY        37     8.44540775E+00   # H+ decays
#          BR         NDA      ID1       ID2
     6.07421715E-04    2           4        -5   # BR(H+ -> c       bb     )
     6.59872201E-02    2         -15        16   # BR(H+ -> tau+    nu_tau )
     2.33335725E-04    2         -13        14   # BR(H+ -> mu+     nu_mu  )
     3.88747872E-06    2           2        -5   # BR(H+ -> u       bb     )
     1.36913558E-05    2           2        -3   # BR(H+ -> u       sb     )
     2.83138608E-04    2           4        -3   # BR(H+ -> c       sb     )
     5.36709393E-01    2           6        -5   # BR(H+ -> t       bb     )
     7.51210964E-05    2          24        25   # BR(H+ -> W+      h      )
     7.77389660E-13    2          24        36   # BR(H+ -> W+      A      )
     3.94163322E-01    2     1000024   1000022   # BR(H+ -> ~chi_1+ ~chi_10)
     1.86902220E-03    2     1000024   1000023   # BR(H+ -> ~chi_1+ ~chi_20)
     5.44470922E-05    2     1000024   1000025   # BR(H+ -> ~chi_1+ ~chi_30)
