#
#                              ======================
#                              | THE SUSYHIT OUTPUT |
#                              ======================
#
#
#              ------------------------------------------------------
#              |     This is the output of the SUSY-HIT package     |
#              |  created by A.Djouadi, M.Muehlleitner and M.Spira. |
#              |  In case of problems with SUSY-HIT email to        |
#              |           margarete.muehlleitner@cern.ch           |
#              |           michael.spira@psi.ch                     |
#              |           abdelhak.djouadi@cern.ch                 |
#              ------------------------------------------------------
#
#              ------------------------------------------------------
#              |  SUSY Les Houches Accord - MSSM Spectrum + Decays  |
#              |              based on the decay programs           |
#              |                                                    |
#              |                     SDECAY 1.3b                    |
#              |                                                    |
#              |  Authors: M.Muhlleitner, A.Djouadi and Y.Mambrini  |
#              |  Ref.:    Comput.Phys.Commun.168(2005)46           |
#              |           [hep-ph/0311167]                         |
#              |                                                    |
#              |                     HDECAY 3.4                     |
#              |                                                    |
#              |  By: A.Djouadi,J.Kalinowski,M.Muhlleitner,M.Spira  |
#              |  Ref.:    Comput.Phys.Commun.108(1998)56           |
#              |           [hep-ph/9704448]                         |
#              |                                                    |
#              |                                                    |
#              |  If not stated otherwise all DRbar couplings and   |
#              |  soft SUSY breaking masses are given at the scale  |
#              |  Q=  0.50007252E+04
#              |                                                    |
#              ------------------------------------------------------
#
#
BLOCK DCINFO  # Decay Program information
     1   SDECAY/HDECAY # decay calculator
     2   1.3b  /3.4    # version number
#
BLOCK SPINFO  # Spectrum calculator information
     1    SOFTSUSY    # spectrum calculator                
     2    3.4.0       # version number                     
#
BLOCK MODSEL  # Model selection
     1     0   #  nonUniversal                                     
#
BLOCK SMINPUTS  # Standard Model inputs
         1     1.25778332E+02   # alpha_em^-1(M_Z)^MSbar
         2     1.16570000E-05   # G_F [GeV^-2]
         3     1.17200002E-01   # alpha_S(M_Z)^MSbar
         4     9.11876000E+01   # M_Z pole mass
         5     4.25000000E+00   # mb(mb)^MSbar
         6     1.72500000E+02   # mt pole mass
         7     1.77682000E+00   # mtau pole mass
#
BLOCK MINPAR  # Input parameters - minimal models
         3     1.00000000E+01   # tanb                
#
BLOCK EXTPAR  # Input parameters - non-minimal models
         0    -1.00000000E+00   # Set                 
         1     6.00000000E+01   # M_1(MX)             
         2     3.00000000E+03   # M_2(MX)             
         3     6.88107000E+02   # M_3(MX)             
        11     5.00000000E+03   # At(MX)              
        12     5.00000000E+03   # Ab(MX)              
        13     0.00000000E+00   # Atau(MX)            
        23    -9.59536000E+02   # mu(MX)              
        26     3.00000000E+03   # mA(pole)            
        31     5.00000000E+03   # meL(MX)             
        32     5.00000000E+03   # mmuL(MX)            
        33     5.00000000E+03   # mtauL(MX)           
        34     5.00000000E+03   # meR(MX)             
        35     5.00000000E+03   # mmuR(MX)            
        36     5.00000000E+03   # mtauR(MX)           
        41     5.00000000E+03   # mqL1(MX)            
        42     5.00000000E+03   # mqL2(MX)            
        43     5.00000000E+03   # mqL3(MX)            
        44     5.00000000E+03   # muR(MX)             
        45     5.00000000E+03   # mcR(MX)             
        46     5.00000000E+03   # mtR(MX)             
        47     5.00000000E+03   # mdR(MX)             
        48     5.00000000E+03   # msR(MX)             
        49     5.00000000E+03   # mbR(MX)             
#
BLOCK MASS  # Mass Spectrum
# PDG code           mass       particle
        24     8.00918506E+01   # W+
        25     1.24220414E+02   # h
        35     3.00008106E+03   # H
        36     2.99999847E+03   # A
        37     3.00110810E+03   # H+
         5     4.87878001E+00   # b-quark pole mass calculated from mb(mb)_Msbar
   1000001     5.06346237E+03   # ~d_L
   2000001     5.04562699E+03   # ~d_R
   1000002     5.06298502E+03   # ~u_L
   2000002     5.04534046E+03   # ~u_R
   1000003     5.06346237E+03   # ~s_L
   2000003     5.04562699E+03   # ~s_R
   1000004     5.06298502E+03   # ~c_L
   2000004     5.04534046E+03   # ~c_R
   1000005     5.00997432E+03   # ~b_1
   2000005     5.04421841E+03   # ~b_2
   1000006     4.90051124E+03   # ~t_1
   2000006     5.05598885E+03   # ~t_2
   1000011     5.01907388E+03   # ~e_L
   2000011     5.00592446E+03   # ~e_R
   1000012     5.01812446E+03   # ~nu_eL
   1000013     5.01907388E+03   # ~mu_L
   2000013     5.00592446E+03   # ~mu_R
   1000014     5.01812446E+03   # ~nu_muL
   1000015     5.00461198E+03   # ~tau_1
   2000015     5.01876860E+03   # ~tau_2
   1000016     5.01757819E+03   # ~nu_tauL
   1000021     9.00000968E+02   # ~g
   1000022     6.02982860E+01   # ~chi_10
   1000023     9.99650694E+02   # ~chi_20
   1000025    -1.00190807E+03   # ~chi_30
   1000035     3.07425965E+03   # ~chi_40
   1000024     1.00000012E+03   # ~chi_1+
   1000037     3.07442721E+03   # ~chi_2+
#
BLOCK NMIX  # Neutralino Mixing Matrix
  1  1     9.99006545E-01   # N_11
  1  2     1.84539373E-04   # N_12
  1  3    -4.45202885E-02   # N_13
  1  4     1.95786051E-03   # N_14
  2  1     3.01049281E-02   # N_21
  2  2     2.35012509E-02   # N_22
  2  3     7.06701333E-01   # N_23
  2  4     7.06480438E-01   # N_24
  3  1    -3.28550620E-02   # N_31
  3  2     1.49156801E-02   # N_32
  3  3    -7.06083788E-01   # N_33
  3  4     7.07208422E-01   # N_34
  4  1    -4.01959671E-04   # N_41
  4  2     9.99612515E-01   # N_42
  4  3    -6.07078206E-03   # N_43
  4  4    -2.71625550E-02   # N_44
#
BLOCK UMIX  # Chargino Mixing Matrix U
  1  1     8.59907376E-03   # U_11
  1  2     9.99963027E-01   # U_12
  2  1    -9.99963027E-01   # U_21
  2  2     8.59907376E-03   # U_22
#
BLOCK VMIX  # Chargino Mixing Matrix V
  1  1     3.84434505E-02   # V_11
  1  2    -9.99260777E-01   # V_12
  2  1    -9.99260777E-01   # V_21
  2  2    -3.84434505E-02   # V_22
#
BLOCK STOPMIX  # Stop Mixing Matrix
  1  1    -5.10626135E-01   # cos(theta_t)
  1  2     8.59802855E-01   # sin(theta_t)
  2  1    -8.59802855E-01   # -sin(theta_t)
  2  2    -5.10626135E-01   # cos(theta_t)
#
BLOCK SBOTMIX  # Sbottom Mixing Matrix
  1  1     9.96997159E-01   # cos(theta_b)
  1  2    -7.74381363E-02   # sin(theta_b)
  2  1     7.74381363E-02   # -sin(theta_b)
  2  2     9.96997159E-01   # cos(theta_b)
#
BLOCK STAUMIX  # Stau Mixing Matrix
  1  1    -1.13939967E-01   # cos(theta_tau)
  1  2     9.93487637E-01   # sin(theta_tau)
  2  1    -9.93487637E-01   # -sin(theta_tau)
  2  2    -1.13939967E-01   # cos(theta_tau)
#
BLOCK ALPHA  # Higgs mixing
          -1.05414361E-01   # Mixing angle in the neutral Higgs boson sector
#
BLOCK HMIX Q=  5.00072519E+03  # DRbar Higgs Parameters
         1    -9.76509750E+02   # mu(Q)MSSM           
         2     9.47509113E+00   # tan                 
         3     2.41941246E+02   # higgs               
         4     8.50929158E+06   # mA^2(Q)MSSM         
#
BLOCK GAUGE Q=  5.00072519E+03  # The gauge couplings
     1     3.70818787E-01   # gprime(Q) DRbar
     2     6.32603662E-01   # g(Q) DRbar
     3     1.01019473E+00   # g3(Q) DRbar
#
BLOCK AU Q=  5.00072519E+03  # The trilinear couplings
  1  1     5.00000001E+03   # A_u(Q) DRbar
  2  2     5.00000001E+03   # A_c(Q) DRbar
  3  3     5.00000001E+03   # A_t(Q) DRbar
#
BLOCK AD Q=  5.00072519E+03  # The trilinear couplings
  1  1     5.00000000E+03   # A_d(Q) DRbar
  2  2     5.00000000E+03   # A_s(Q) DRbar
  3  3     5.00000001E+03   # A_b(Q) DRbar
#
BLOCK AE Q=  5.00072519E+03  # The trilinear couplings
  1  1     0.00000000E+00   # A_e(Q) DRbar
  2  2     0.00000000E+00   # A_mu(Q) DRbar
  3  3    -1.14812171E-09   # A_tau(Q) DRbar
#
BLOCK Yu Q=  5.00072519E+03  # The Yukawa couplings
  1  1     0.00000000E+00   # y_u(Q) DRbar
  2  2     0.00000000E+00   # y_c(Q) DRbar
  3  3     8.13165426E-01   # y_t(Q) DRbar
#
BLOCK Yd Q=  5.00072519E+03  # The Yukawa couplings
  1  1     0.00000000E+00   # y_d(Q) DRbar
  2  2     0.00000000E+00   # y_s(Q) DRbar
  3  3     1.29174647E-01   # y_b(Q) DRbar
#
BLOCK Ye Q=  5.00072519E+03  # The Yukawa couplings
  1  1     0.00000000E+00   # y_e(Q) DRbar
  2  2     0.00000000E+00   # y_mu(Q) DRbar
  3  3     9.68731292E-02   # y_tau(Q) DRbar
#
BLOCK MSOFT Q=  5.00072519E+03  # The soft SUSY breaking masses at the scale Q
         1     6.00000000E+01   # M_1(Q)              
         2     3.00000000E+03   # M_2(Q)              
         3     6.88107000E+02   # M_3(Q)              
        21     7.74232749E+06   # mH1^2(Q)            
        22    -3.95283511E+05   # mH2^2(Q)            
        31     5.00000000E+03   # meL(Q)              
        32     5.00000000E+03   # mmuL(Q)             
        33     5.00000000E+03   # mtauL(Q)            
        34     5.00000000E+03   # meR(Q)              
        35     5.00000000E+03   # mmuR(Q)             
        36     5.00000000E+03   # mtauR(Q)            
        41     5.00000000E+03   # mqL1(Q)             
        42     5.00000000E+03   # mqL2(Q)             
        43     5.00000000E+03   # mqL3(Q)             
        44     5.00000000E+03   # muR(Q)              
        45     5.00000000E+03   # mcR(Q)              
        46     5.00000000E+03   # mtR(Q)              
        47     5.00000000E+03   # mdR(Q)              
        48     5.00000000E+03   # msR(Q)              
        49     5.00000000E+03   # mbR(Q)              
#
#
#
#                             =================
#                             |The decay table|
#                             =================
#
# - The QCD corrections to the decays gluino -> squark  + quark
#                                     squark -> gaugino + quark_prime
#                                     squark -> squark_prime + Higgs
#                                     squark -> gluino  + quark
#   are included.
#
# - The multi-body decays for the inos, stops and sbottoms are included.
#
# - The loop induced decays for the gluino, neutralinos and stops
#   are included.
#
# - The SUSY decays of the top quark are included.
#
#
#         PDG            Width
DECAY         6     1.40253010E+00   # top decays
#          BR         NDA      ID1       ID2
     1.00000000E+00    2           5        24   # BR(t ->  b    W+)
#
#         PDG            Width
DECAY   1000021     4.85211094E-06   # gluino decays
#          BR         NDA      ID1       ID2
     2.41278304E-05    2     1000022        21   # BR(~g -> ~chi_10 g)
#           BR         NDA      ID1       ID2       ID3
     8.50581491E-02    3     1000022         1        -1   # BR(~g -> ~chi_10 d  db)
     2.89988164E-01    3     1000022         2        -2   # BR(~g -> ~chi_10 u  ub)
     8.50581491E-02    3     1000022         3        -3   # BR(~g -> ~chi_10 s  sb)
     2.89988164E-01    3     1000022         4        -4   # BR(~g -> ~chi_10 c  cb)
     8.62869414E-02    3     1000022         5        -5   # BR(~g -> ~chi_10 b  bb)
     1.63596305E-01    3     1000022         6        -6   # BR(~g -> ~chi_10 t  tb)
#
#         PDG            Width
DECAY   1000006     4.21479582E+02   # stop1 decays
#          BR         NDA      ID1       ID2
     2.08329703E-02    2     1000022         6   # BR(~t_1 -> ~chi_10 t )
     7.14047146E-02    2     1000023         6   # BR(~t_1 -> ~chi_20 t )
     6.85599928E-02    2     1000025         6   # BR(~t_1 -> ~chi_30 t )
     5.03775293E-03    2     1000035         6   # BR(~t_1 -> ~chi_40 t )
     1.02690832E-01    2     1000024         5   # BR(~t_1 -> ~chi_1+ b )
     1.00368363E-02    2     1000037         5   # BR(~t_1 -> ~chi_2+ b )
     7.21436901E-01    2     1000021         6   # BR(~t_1 -> ~g      t )
#
#         PDG            Width
DECAY   2000006     4.22012278E+02   # stop2 decays
#          BR         NDA      ID1       ID2
     8.49911717E-03    2     1000022         6   # BR(~t_2 -> ~chi_10 t )
     7.29062100E-02    2     1000023         6   # BR(~t_2 -> ~chi_20 t )
     7.60161423E-02    2     1000025         6   # BR(~t_2 -> ~chi_30 t )
     1.29221387E-02    2     1000035         6   # BR(~t_2 -> ~chi_40 t )
     4.45284242E-02    2     1000024         5   # BR(~t_2 -> ~chi_1+ b )
     2.57101886E-02    2     1000037         5   # BR(~t_2 -> ~chi_2+ b )
     7.56341870E-01    2     1000021         6   # BR(~t_2 -> ~g      t )
     6.84023266E-04    2     1000006        25   # BR(~t_2 -> ~t_1    h )
     2.39188574E-03    2     1000006        23   # BR(~t_2 -> ~t_1    Z )
#
#         PDG            Width
DECAY   1000005     4.00575035E+02   # sbottom1 decays
#          BR         NDA      ID1       ID2
     1.93708059E-03    2     1000022         5   # BR(~b_1 -> ~chi_10 b )
     1.95607135E-03    2     1000023         5   # BR(~b_1 -> ~chi_20 b )
     1.90156918E-03    2     1000025         5   # BR(~b_1 -> ~chi_30 b )
     1.86928698E-02    2     1000035         5   # BR(~b_1 -> ~chi_40 b )
     1.52134813E-01    2    -1000024         6   # BR(~b_1 -> ~chi_1- t )
     3.75571785E-02    2    -1000037         6   # BR(~b_1 -> ~chi_2- t )
     7.84403075E-01    2     1000021         5   # BR(~b_1 -> ~g      b )
     1.41734202E-03    2     1000006       -24   # BR(~b_1 -> ~t_1    W-)
#
#         PDG            Width
DECAY   2000005     3.22992987E+02   # sbottom2 decays
#          BR         NDA      ID1       ID2
     9.10542690E-03    2     1000022         5   # BR(~b_2 -> ~chi_10 b )
     2.41487151E-03    2     1000023         5   # BR(~b_2 -> ~chi_20 b )
     2.48238385E-03    2     1000025         5   # BR(~b_2 -> ~chi_30 b )
     1.46172140E-04    2     1000035         5   # BR(~b_2 -> ~chi_40 b )
     5.94963290E-03    2    -1000024         6   # BR(~b_2 -> ~chi_1- t )
     2.93637238E-04    2    -1000037         6   # BR(~b_2 -> ~chi_2- t )
     9.79564940E-01    2     1000021         5   # BR(~b_2 -> ~g      b )
     4.29358552E-05    2     1000006       -24   # BR(~b_2 -> ~t_1    W-)
#
#         PDG            Width
DECAY   1000002     3.41850400E+02   # sup_L decays
#          BR         NDA      ID1       ID2
     2.18683902E-03    2     1000022         2   # BR(~u_L -> ~chi_10 u)
     4.56911320E-05    2     1000023         2   # BR(~u_L -> ~chi_20 u)
     3.81853036E-06    2     1000025         2   # BR(~u_L -> ~chi_30 u)
     2.28257281E-02    2     1000035         2   # BR(~u_L -> ~chi_40 u)
     1.56413296E-04    2     1000024         1   # BR(~u_L -> ~chi_1+ d)
     4.56207235E-02    2     1000037         1   # BR(~u_L -> ~chi_2+ d)
     9.29160786E-01    2     1000021         2   # BR(~u_L -> ~g      u)
#
#         PDG            Width
DECAY   2000002     3.28301021E+02   # sup_R decays
#          BR         NDA      ID1       ID2
     3.62376474E-02    2     1000022         2   # BR(~u_R -> ~chi_10 u)
     3.03832982E-05    2     1000023         2   # BR(~u_R -> ~chi_20 u)
     3.61745545E-05    2     1000025         2   # BR(~u_R -> ~chi_30 u)
     2.32080251E-09    2     1000035         2   # BR(~u_R -> ~chi_40 u)
     9.63695792E-01    2     1000021         2   # BR(~u_R -> ~g      u)
#
#         PDG            Width
DECAY   1000001     3.41859354E+02   # sdown_L decays
#          BR         NDA      ID1       ID2
     2.17873380E-03    2     1000022         1   # BR(~d_L -> ~chi_10 d)
     1.64293576E-05    2     1000023         1   # BR(~d_L -> ~chi_20 d)
     2.40823350E-05    2     1000025         1   # BR(~d_L -> ~chi_30 d)
     2.28394583E-02    2     1000035         1   # BR(~d_L -> ~chi_40 d)
     7.82651770E-06    2    -1000024         2   # BR(~d_L -> ~chi_1- u)
     4.56979857E-02    2    -1000037         2   # BR(~d_L -> ~chi_2- u)
     9.29235484E-01    2     1000021         1   # BR(~d_L -> ~g      d)
#
#         PDG            Width
DECAY   2000001     3.19382489E+02   # sdown_R decays
#          BR         NDA      ID1       ID2
     9.31291972E-03    2     1000022         1   # BR(~d_R -> ~chi_10 d)
     7.80844917E-06    2     1000023         1   # BR(~d_R -> ~chi_20 d)
     9.29679130E-06    2     1000025         1   # BR(~d_R -> ~chi_30 d)
     5.96515746E-10    2     1000035         1   # BR(~d_R -> ~chi_40 d)
     9.90669974E-01    2     1000021         1   # BR(~d_R -> ~g      d)
#
#         PDG            Width
DECAY   1000004     3.41850400E+02   # scharm_L decays
#          BR         NDA      ID1       ID2
     2.18683902E-03    2     1000022         4   # BR(~c_L -> ~chi_10 c)
     4.56911320E-05    2     1000023         4   # BR(~c_L -> ~chi_20 c)
     3.81853036E-06    2     1000025         4   # BR(~c_L -> ~chi_30 c)
     2.28257281E-02    2     1000035         4   # BR(~c_L -> ~chi_40 c)
     1.56413296E-04    2     1000024         3   # BR(~c_L -> ~chi_1+ s)
     4.56207235E-02    2     1000037         3   # BR(~c_L -> ~chi_2+ s)
     9.29160786E-01    2     1000021         4   # BR(~c_L -> ~g      c)
#
#         PDG            Width
DECAY   2000004     3.28301021E+02   # scharm_R decays
#          BR         NDA      ID1       ID2
     3.62376474E-02    2     1000022         4   # BR(~c_R -> ~chi_10 c)
     3.03832982E-05    2     1000023         4   # BR(~c_R -> ~chi_20 c)
     3.61745545E-05    2     1000025         4   # BR(~c_R -> ~chi_30 c)
     2.32080251E-09    2     1000035         4   # BR(~c_R -> ~chi_40 c)
     9.63695792E-01    2     1000021         4   # BR(~c_R -> ~g      c)
#
#         PDG            Width
DECAY   1000003     3.41859354E+02   # sstrange_L decays
#          BR         NDA      ID1       ID2
     2.17873380E-03    2     1000022         3   # BR(~s_L -> ~chi_10 s)
     1.64293576E-05    2     1000023         3   # BR(~s_L -> ~chi_20 s)
     2.40823350E-05    2     1000025         3   # BR(~s_L -> ~chi_30 s)
     2.28394583E-02    2     1000035         3   # BR(~s_L -> ~chi_40 s)
     7.82651770E-06    2    -1000024         4   # BR(~s_L -> ~chi_1- c)
     4.56979857E-02    2    -1000037         4   # BR(~s_L -> ~chi_2- c)
     9.29235484E-01    2     1000021         3   # BR(~s_L -> ~g      s)
#
#         PDG            Width
DECAY   2000003     3.19382489E+02   # sstrange_R decays
#          BR         NDA      ID1       ID2
     9.31291972E-03    2     1000022         3   # BR(~s_R -> ~chi_10 s)
     7.80844917E-06    2     1000023         3   # BR(~s_R -> ~chi_20 s)
     9.29679130E-06    2     1000025         3   # BR(~s_R -> ~chi_30 s)
     5.96515746E-10    2     1000035         3   # BR(~s_R -> ~chi_40 s)
     9.90669974E-01    2     1000021         3   # BR(~s_R -> ~g      s)
#
#         PDG            Width
DECAY   1000011     3.02756704E+01   # selectron_L decays
#          BR         NDA      ID1       ID2
     2.26380177E-01    2     1000022        11   # BR(~e_L -> ~chi_10 e-)
     1.03047007E-03    2     1000023        11   # BR(~e_L -> ~chi_20 e-)
     1.14763629E-05    2     1000025        11   # BR(~e_L -> ~chi_30 e-)
     2.57317161E-01    2     1000035        11   # BR(~e_L -> ~chi_40 e-)
     9.00002429E-05    2    -1000024        12   # BR(~e_L -> ~chi_1- nu_e)
     5.15170715E-01    2    -1000037        12   # BR(~e_L -> ~chi_2- nu_e)
#
#         PDG            Width
DECAY   2000011     2.73762821E+01   # selectron_R decays
#          BR         NDA      ID1       ID2
     9.98168951E-01    2     1000022        11   # BR(~e_R -> ~chi_10 e-)
     8.35837599E-04    2     1000023        11   # BR(~e_R -> ~chi_20 e-)
     9.95149130E-04    2     1000025        11   # BR(~e_R -> ~chi_30 e-)
     6.27086237E-08    2     1000035        11   # BR(~e_R -> ~chi_40 e-)
#
#         PDG            Width
DECAY   1000013     3.02756704E+01   # smuon_L decays
#          BR         NDA      ID1       ID2
     2.26380177E-01    2     1000022        13   # BR(~mu_L -> ~chi_10 mu-)
     1.03047007E-03    2     1000023        13   # BR(~mu_L -> ~chi_20 mu-)
     1.14763629E-05    2     1000025        13   # BR(~mu_L -> ~chi_30 mu-)
     2.57317161E-01    2     1000035        13   # BR(~mu_L -> ~chi_40 mu-)
     9.00002429E-05    2    -1000024        14   # BR(~mu_L -> ~chi_1- nu_mu)
     5.15170715E-01    2    -1000037        14   # BR(~mu_L -> ~chi_2- nu_mu)
#
#         PDG            Width
DECAY   2000013     2.73762821E+01   # smuon_R decays
#          BR         NDA      ID1       ID2
     9.98168951E-01    2     1000022        13   # BR(~mu_R -> ~chi_10 mu-)
     8.35837599E-04    2     1000023        13   # BR(~mu_R -> ~chi_20 mu-)
     9.95149130E-04    2     1000025        13   # BR(~mu_R -> ~chi_30 mu-)
     6.27086237E-08    2     1000035        13   # BR(~mu_R -> ~chi_40 mu-)
#
#         PDG            Width
DECAY   1000015     2.91263197E+01   # stau_1 decays
#          BR         NDA      ID1       ID2
     9.29754120E-01    2     1000022        15   # BR(~tau_1 -> ~chi_10  tau-)
     1.56846238E-02    2     1000023        15   # BR(~tau_1 -> ~chi_20  tau-)
     1.49148939E-02    2     1000025        15   # BR(~tau_1 -> ~chi_30  tau-)
     3.35997557E-03    2     1000035        15   # BR(~tau_1 -> ~chi_40  tau-)
     2.95596734E-02    2    -1000024        16   # BR(~tau_1 -> ~chi_1-  nu_tau)
     6.72671361E-03    2    -1000037        16   # BR(~tau_1 -> ~chi_2-  nu_tau)
#
#         PDG            Width
DECAY   2000015     3.10975983E+01   # stau_2 decays
#          BR         NDA      ID1       ID2
     2.28199191E-01    2     1000022        15   # BR(~tau_2 -> ~chi_10  tau-)
     1.47578428E-02    2     1000023        15   # BR(~tau_2 -> ~chi_20  tau-)
     1.45717298E-02    2     1000025        15   # BR(~tau_2 -> ~chi_30  tau-)
     2.47287112E-01    2     1000035        15   # BR(~tau_2 -> ~chi_40  tau-)
     9.39468690E-05    2    -1000024        16   # BR(~tau_2 -> ~chi_1-  nu_tau)
     4.95090177E-01    2    -1000037        16   # BR(~tau_2 -> ~chi_2-  nu_tau)
#
#         PDG            Width
DECAY   1000012     3.02784648E+01   # snu_eL decays
#          BR         NDA      ID1       ID2
     2.26031344E-01    2     1000022        12   # BR(~nu_eL -> ~chi_10 nu_e)
     2.08526832E-05    2     1000023        12   # BR(~nu_eL -> ~chi_20 nu_e)
     7.10304589E-04    2     1000025        12   # BR(~nu_eL -> ~chi_30 nu_e)
     2.57370395E-01    2     1000035        12   # BR(~nu_eL -> ~chi_40 nu_e)
     1.79824650E-03    2     1000024        11   # BR(~nu_eL -> ~chi_1+ e-)
     5.14068857E-01    2     1000037        11   # BR(~nu_eL -> ~chi_2+ e-)
#
#         PDG            Width
DECAY   1000014     3.02784648E+01   # snu_muL decays
#          BR         NDA      ID1       ID2
     2.26031344E-01    2     1000022        14   # BR(~nu_muL -> ~chi_10 nu_mu)
     2.08526832E-05    2     1000023        14   # BR(~nu_muL -> ~chi_20 nu_mu)
     7.10304589E-04    2     1000025        14   # BR(~nu_muL -> ~chi_30 nu_mu)
     2.57370395E-01    2     1000035        14   # BR(~nu_muL -> ~chi_40 nu_mu)
     1.79824650E-03    2     1000024        13   # BR(~nu_muL -> ~chi_1+ mu-)
     5.14068857E-01    2     1000037        13   # BR(~nu_muL -> ~chi_2+ mu-)
#
#         PDG            Width
DECAY   1000016     3.11328701E+01   # snu_tauL decays
#          BR         NDA      ID1       ID2
     2.19804233E-01    2     1000022        16   # BR(~nu_tauL -> ~chi_10 nu_tau)
     2.02778330E-05    2     1000023        16   # BR(~nu_tauL -> ~chi_20 nu_tau)
     6.90723419E-04    2     1000025        16   # BR(~nu_tauL -> ~chi_30 nu_tau)
     2.50214434E-01    2     1000035        16   # BR(~nu_tauL -> ~chi_40 nu_tau)
     2.94951068E-02    2     1000024        15   # BR(~nu_tauL -> ~chi_1+ tau-)
     4.99775225E-01    2     1000037        15   # BR(~nu_tauL -> ~chi_2+ tau-)
#
#         PDG            Width
DECAY   1000024     6.09442470E-01   # chargino1+ decays
#          BR         NDA      ID1       ID2
     1.00000000E+00    2     1000022        24   # BR(~chi_1+ -> ~chi_10  W+)
#
#         PDG            Width
DECAY   1000037     2.04287177E+01   # chargino2+ decays
#          BR         NDA      ID1       ID2
     2.53221146E-01    2     1000024        23   # BR(~chi_2+ -> ~chi_1+  Z )
     1.97895271E-04    2     1000022        24   # BR(~chi_2+ -> ~chi_10  W+)
     2.44201379E-01    2     1000023        24   # BR(~chi_2+ -> ~chi_20  W+)
     2.44152413E-01    2     1000025        24   # BR(~chi_2+ -> ~chi_30  W+)
     2.58225993E-01    2     1000024        25   # BR(~chi_2+ -> ~chi_1+  h )
     1.17233005E-06    2     1000022        37   # BR(~chi_2+ -> ~chi_10  H+)
#
#         PDG            Width
DECAY   1000022     0.00000000E+00   # neutralino1 decays
#
#         PDG            Width
DECAY   1000023     6.36386161E-01   # neutralino2 decays
#          BR         NDA      ID1       ID2
     5.40232135E-01    2     1000022        23   # BR(~chi_20 -> ~chi_10   Z )
     4.59767865E-01    2     1000022        25   # BR(~chi_20 -> ~chi_10   h )
#
#         PDG            Width
DECAY   1000025     6.39421088E-01   # neutralino3 decays
#          BR         NDA      ID1       ID2
     4.50416587E-01    2     1000022        23   # BR(~chi_30 -> ~chi_10   Z )
     5.49583413E-01    2     1000022        25   # BR(~chi_30 -> ~chi_10   h )
#
#         PDG            Width
DECAY   1000035     2.04437131E+01   # neutralino4 decays
#          BR         NDA      ID1       ID2
     4.77707256E-05    2     1000022        23   # BR(~chi_40 -> ~chi_10   Z )
     7.27230734E-02    2     1000023        23   # BR(~chi_40 -> ~chi_20   Z )
     1.79784573E-01    2     1000025        23   # BR(~chi_40 -> ~chi_30   Z )
     2.44831653E-01    2     1000024       -24   # BR(~chi_40 -> ~chi_1+   W-)
     2.44831653E-01    2    -1000024        24   # BR(~chi_40 -> ~chi_1-   W+)
     1.51011039E-04    2     1000022        25   # BR(~chi_40 -> ~chi_10   h )
     1.09507163E-06    2     1000022        35   # BR(~chi_40 -> ~chi_10   H )
     1.34487843E-07    2     1000022        36   # BR(~chi_40 -> ~chi_10   A )
     1.84751358E-01    2     1000023        25   # BR(~chi_40 -> ~chi_20   h )
     7.28776776E-02    2     1000025        25   # BR(~chi_40 -> ~chi_30   h )
#
#         PDG            Width
DECAY        25     4.00698660E-03   # h decays
#          BR         NDA      ID1       ID2
     6.18725183E-01    2           5        -5   # BR(h -> b       bb     )
     6.44404186E-02    2         -15        15   # BR(h -> tau+    tau-   )
     2.28144982E-04    2         -13        13   # BR(h -> mu+     mu-    )
     4.84072965E-04    2           3        -3   # BR(h -> s       sb     )
     2.09764509E-02    2           4        -4   # BR(h -> c       cb     )
     6.72130528E-02    2          21        21   # BR(h -> g       g      )
     2.29822392E-03    2          22        22   # BR(h -> gam     gam    )
     1.43554663E-03    2          22        23   # BR(h -> Z       gam    )
     2.00493295E-01    2          24       -24   # BR(h -> W+      W-     )
     2.36588796E-02    2          23        23   # BR(h -> Z       Z      )
     4.67322092E-05    2     1000022   1000022   # BR(h -> ~chi_10 ~chi_10)
#
#         PDG            Width
DECAY        35     8.10098188E+00   # H decays
#          BR         NDA      ID1       ID2
     3.98352040E-01    2           5        -5   # BR(H -> b       bb     )
     6.88471236E-02    2         -15        15   # BR(H -> tau+    tau-   )
     2.43448898E-04    2         -13        13   # BR(H -> mu+     mu-    )
     2.98431142E-04    2           3        -3   # BR(H -> s       sb     )
     1.66558290E-06    2           4        -4   # BR(H -> c       cb     )
     1.66404922E-01    2           6        -6   # BR(H -> t       tb     )
     5.52597038E-05    2          21        21   # BR(H -> g       g      )
     2.68573271E-07    2          22        22   # BR(H -> gam     gam    )
     9.81194190E-08    2          23        22   # BR(H -> Z       gam    )
     7.57152877E-05    2          24       -24   # BR(H -> W+      W-     )
     3.78097121E-05    2          23        23   # BR(H -> Z       Z      )
     2.84366507E-04    2          25        25   # BR(H -> h       h      )
     4.72541986E-24    2          36        36   # BR(H -> A       A      )
     9.14495971E-19    2          23        36   # BR(H -> Z       A      )
     1.97635119E-03    2     1000024  -1000024   # BR(H -> ~chi_1+ ~chi_1-)
     1.78388772E-03    2     1000022   1000022   # BR(H -> ~chi_10 ~chi_10)
     3.94878439E-05    2     1000023   1000023   # BR(H -> ~chi_20 ~chi_20)
     5.44608288E-04    2     1000025   1000025   # BR(H -> ~chi_30 ~chi_30)
     2.16526400E-01    2     1000022   1000023   # BR(H -> ~chi_10 ~chi_20)
     1.44015155E-01    2     1000022   1000025   # BR(H -> ~chi_10 ~chi_30)
     5.12960659E-04    2     1000023   1000025   # BR(H -> ~chi_20 ~chi_30)
#
#         PDG            Width
DECAY        36     8.11734567E+00   # A decays
#          BR         NDA      ID1       ID2
     3.97683956E-01    2           5        -5   # BR(A -> b       bb     )
     6.87103691E-02    2         -15        15   # BR(A -> tau+    tau-   )
     2.42964983E-04    2         -13        13   # BR(A -> mu+     mu-    )
     2.98055365E-04    2           3        -3   # BR(A -> s       sb     )
     1.66908368E-06    2           4        -4   # BR(A -> c       cb     )
     1.66662673E-01    2           6        -6   # BR(A -> t       tb     )
     1.65004285E-04    2          21        21   # BR(A -> g       g      )
     5.74427461E-07    2          22        22   # BR(A -> gam     gam    )
     1.99649377E-07    2          23        22   # BR(A -> Z       gam    )
     7.52804502E-05    2          23        25   # BR(A -> Z       h      )
     3.23001703E-03    2     1000024  -1000024   # BR(A -> ~chi_1+ ~chi_1-)
     1.81668138E-03    2     1000022   1000022   # BR(A -> ~chi_10 ~chi_10)
     4.63898030E-05    2     1000023   1000023   # BR(A -> ~chi_20 ~chi_20)
     1.50097999E-03    2     1000025   1000025   # BR(A -> ~chi_30 ~chi_30)
     1.45786192E-01    2     1000022   1000023   # BR(A -> ~chi_10 ~chi_20)
     2.13632548E-01    2     1000022   1000025   # BR(A -> ~chi_10 ~chi_30)
     1.46446086E-04    2     1000023   1000025   # BR(A -> ~chi_20 ~chi_30)
#
#         PDG            Width
DECAY        37     8.05335431E+00   # H+ decays
#          BR         NDA      ID1       ID2
     6.37189914E-04    2           4        -5   # BR(H+ -> c       bb     )
     6.92819531E-02    2         -15        16   # BR(H+ -> tau+    nu_tau )
     2.44986147E-04    2         -13        14   # BR(H+ -> mu+     nu_mu  )
     4.07799423E-06    2           2        -5   # BR(H+ -> u       bb     )
     1.43751310E-05    2           2        -3   # BR(H+ -> u       sb     )
     2.97275013E-04    2           4        -3   # BR(H+ -> c       sb     )
     5.62736304E-01    2           6        -5   # BR(H+ -> t       bb     )
     7.60116882E-05    2          24        25   # BR(H+ -> W+      h      )
     2.74514686E-13    2          24        36   # BR(H+ -> W+      A      )
     3.65796437E-01    2     1000024   1000022   # BR(H+ -> ~chi_1+ ~chi_10)
     8.78491550E-04    2     1000024   1000023   # BR(H+ -> ~chi_1+ ~chi_20)
     3.28982765E-05    2     1000024   1000025   # BR(H+ -> ~chi_1+ ~chi_30)
