#
#                              ======================
#                              | THE SUSYHIT OUTPUT |
#                              ======================
#
#
#              ------------------------------------------------------
#              |     This is the output of the SUSY-HIT package     |
#              |  created by A.Djouadi, M.Muehlleitner and M.Spira. |
#              |  In case of problems with SUSY-HIT email to        |
#              |           margarete.muehlleitner@cern.ch           |
#              |           michael.spira@psi.ch                     |
#              |           abdelhak.djouadi@cern.ch                 |
#              ------------------------------------------------------
#
#              ------------------------------------------------------
#              |  SUSY Les Houches Accord - MSSM Spectrum + Decays  |
#              |              based on the decay programs           |
#              |                                                    |
#              |                     SDECAY 1.3b                    |
#              |                                                    |
#              |  Authors: M.Muhlleitner, A.Djouadi and Y.Mambrini  |
#              |  Ref.:    Comput.Phys.Commun.168(2005)46           |
#              |           [hep-ph/0311167]                         |
#              |                                                    |
#              |                     HDECAY 3.4                     |
#              |                                                    |
#              |  By: A.Djouadi,J.Kalinowski,M.Muhlleitner,M.Spira  |
#              |  Ref.:    Comput.Phys.Commun.108(1998)56           |
#              |           [hep-ph/9704448]                         |
#              |                                                    |
#              |                                                    |
#              |  If not stated otherwise all DRbar couplings and   |
#              |  soft SUSY breaking masses are given at the scale  |
#              |  Q=  0.50007350E+04
#              |                                                    |
#              ------------------------------------------------------
#
#
BLOCK DCINFO  # Decay Program information
     1   SDECAY/HDECAY # decay calculator
     2   1.3b  /3.4    # version number
#
BLOCK SPINFO  # Spectrum calculator information
     1    SOFTSUSY    # spectrum calculator                
     2    3.4.0       # version number                     
#
BLOCK MODSEL  # Model selection
     1     0   #  nonUniversal                                     
#
BLOCK SMINPUTS  # Standard Model inputs
         1     1.25778332E+02   # alpha_em^-1(M_Z)^MSbar
         2     1.16570000E-05   # G_F [GeV^-2]
         3     1.17200002E-01   # alpha_S(M_Z)^MSbar
         4     9.11876000E+01   # M_Z pole mass
         5     4.25000000E+00   # mb(mb)^MSbar
         6     1.72500000E+02   # mt pole mass
         7     1.77682000E+00   # mtau pole mass
#
BLOCK MINPAR  # Input parameters - minimal models
         3     1.00000000E+01   # tanb                
#
BLOCK EXTPAR  # Input parameters - non-minimal models
         0    -1.00000000E+00   # Set                 
         1     6.00000000E+01   # M_1(MX)             
         2     3.00000000E+03   # M_2(MX)             
         3     9.46040000E+02   # M_3(MX)             
        11     5.00000000E+03   # At(MX)              
        12     5.00000000E+03   # Ab(MX)              
        13     0.00000000E+00   # Atau(MX)            
        23    -8.62138000E+02   # mu(MX)              
        26     3.00000000E+03   # mA(pole)            
        31     5.00000000E+03   # meL(MX)             
        32     5.00000000E+03   # mmuL(MX)            
        33     5.00000000E+03   # mtauL(MX)           
        34     5.00000000E+03   # meR(MX)             
        35     5.00000000E+03   # mmuR(MX)            
        36     5.00000000E+03   # mtauR(MX)           
        41     5.00000000E+03   # mqL1(MX)            
        42     5.00000000E+03   # mqL2(MX)            
        43     5.00000000E+03   # mqL3(MX)            
        44     5.00000000E+03   # muR(MX)             
        45     5.00000000E+03   # mcR(MX)             
        46     5.00000000E+03   # mtR(MX)             
        47     5.00000000E+03   # mdR(MX)             
        48     5.00000000E+03   # msR(MX)             
        49     5.00000000E+03   # mbR(MX)             
#
BLOCK MASS  # Mass Spectrum
# PDG code           mass       particle
        24     8.00928751E+01   # W+
        25     1.24457351E+02   # h
        35     3.00005772E+03   # H
        36     2.99993389E+03   # A
        37     3.00119365E+03   # H+
         5     4.87878001E+00   # b-quark pole mass calculated from mb(mb)_Msbar
   1000001     5.06470020E+03   # ~d_L
   2000001     5.04686372E+03   # ~d_R
   1000002     5.06422356E+03   # ~u_L
   2000002     5.04657470E+03   # ~u_R
   1000003     5.06470020E+03   # ~s_L
   2000003     5.04686372E+03   # ~s_R
   1000004     5.06422356E+03   # ~c_L
   2000004     5.04657470E+03   # ~c_R
   1000005     5.01087901E+03   # ~b_1
   2000005     5.04536748E+03   # ~b_2
   1000006     4.90131949E+03   # ~t_1
   2000006     5.05648030E+03   # ~t_2
   1000011     5.01907880E+03   # ~e_L
   2000011     5.00592778E+03   # ~e_R
   1000012     5.01812949E+03   # ~nu_eL
   1000013     5.01907880E+03   # ~mu_L
   2000013     5.00592778E+03   # ~mu_R
   1000014     5.01812949E+03   # ~nu_muL
   1000015     5.00465111E+03   # ~tau_1
   2000015     5.01873216E+03   # ~tau_2
   1000016     5.01758208E+03   # ~nu_tauL
   1000021     1.20000106E+03   # ~g
   1000022     6.02943191E+01   # ~chi_10
   1000023     8.99732976E+02   # ~chi_20
   1000025    -9.01974827E+02   # ~chi_30
   1000035     3.07423788E+03   # ~chi_40
   1000024     9.00000432E+02   # ~chi_1+
   1000037     3.07440542E+03   # ~chi_2+
#
BLOCK NMIX  # Neutralino Mixing Matrix
  1  1     9.98775259E-01   # N_11
  1  2     1.95959660E-04   # N_12
  1  3    -4.94425129E-02   # N_13
  1  4     1.83913437E-03   # N_14
  2  1     3.36724059E-02   # N_21
  2  2     2.24298750E-02   # N_22
  2  3     7.06575593E-01   # N_23
  2  4     7.06480008E-01   # N_24
  3  1    -3.62490626E-02   # N_31
  3  2     1.52927051E-02   # N_32
  3  3    -7.05890155E-01   # N_33
  3  4     7.07227847E-01   # N_34
  4  1    -3.96787535E-04   # N_41
  4  2     9.99631430E-01   # N_42
  4  3    -5.04560321E-03   # N_43
  4  4    -2.66718760E-02   # N_44
#
BLOCK UMIX  # Chargino Mixing Matrix U
  1  1     7.14794640E-03   # U_11
  1  2     9.99974453E-01   # U_12
  2  1    -9.99974453E-01   # U_21
  2  2     7.14794640E-03   # U_22
#
BLOCK VMIX  # Chargino Mixing Matrix V
  1  1     3.77490616E-02   # V_11
  1  2    -9.99287250E-01   # V_12
  2  1    -9.99287250E-01   # V_21
  2  2    -3.77490616E-02   # V_22
#
BLOCK STOPMIX  # Stop Mixing Matrix
  1  1    -5.08991631E-01   # cos(theta_t)
  1  2     8.60771468E-01   # sin(theta_t)
  2  1    -8.60771468E-01   # -sin(theta_t)
  2  2    -5.08991631E-01   # cos(theta_t)
#
BLOCK SBOTMIX  # Sbottom Mixing Matrix
  1  1     9.97434374E-01   # cos(theta_b)
  1  2    -7.15867974E-02   # sin(theta_b)
  2  1     7.15867974E-02   # -sin(theta_b)
  2  2     9.97434374E-01   # cos(theta_b)
#
BLOCK STAUMIX  # Stau Mixing Matrix
  1  1    -1.02693068E-01   # cos(theta_tau)
  1  2     9.94713091E-01   # sin(theta_tau)
  2  1    -9.94713091E-01   # -sin(theta_tau)
  2  2    -1.02693068E-01   # cos(theta_tau)
#
BLOCK ALPHA  # Higgs mixing
          -1.05441091E-01   # Mixing angle in the neutral Higgs boson sector
#
BLOCK HMIX Q=  5.00073504E+03  # DRbar Higgs Parameters
         1    -8.77603280E+02   # mu(Q)MSSM           
         2     9.47281631E+00   # tan                 
         3     2.41881293E+02   # higgs               
         4     8.54022641E+06   # mA^2(Q)MSSM         
#
BLOCK GAUGE Q=  5.00073504E+03  # The gauge couplings
     1     3.70836911E-01   # gprime(Q) DRbar
     2     6.32710539E-01   # g(Q) DRbar
     3     1.00596969E+00   # g3(Q) DRbar
#
BLOCK AU Q=  5.00073504E+03  # The trilinear couplings
  1  1     5.00000001E+03   # A_u(Q) DRbar
  2  2     5.00000001E+03   # A_c(Q) DRbar
  3  3     5.00000001E+03   # A_t(Q) DRbar
#
BLOCK AD Q=  5.00073504E+03  # The trilinear couplings
  1  1     5.00000000E+03   # A_d(Q) DRbar
  2  2     5.00000000E+03   # A_s(Q) DRbar
  3  3     5.00000001E+03   # A_b(Q) DRbar
#
BLOCK AE Q=  5.00073504E+03  # The trilinear couplings
  1  1     0.00000000E+00   # A_e(Q) DRbar
  2  2     4.92344029E-08   # A_mu(Q) DRbar
  3  3     4.83840894E-08   # A_tau(Q) DRbar
#
BLOCK Yu Q=  5.00073504E+03  # The Yukawa couplings
  1  1     0.00000000E+00   # y_u(Q) DRbar
  2  2     0.00000000E+00   # y_c(Q) DRbar
  3  3     8.15898019E-01   # y_t(Q) DRbar
#
BLOCK Yd Q=  5.00073504E+03  # The Yukawa couplings
  1  1     0.00000000E+00   # y_d(Q) DRbar
  2  2     0.00000000E+00   # y_s(Q) DRbar
  3  3     1.29619653E-01   # y_b(Q) DRbar
#
BLOCK Ye Q=  5.00073504E+03  # The Yukawa couplings
  1  1     0.00000000E+00   # y_e(Q) DRbar
  2  2     0.00000000E+00   # y_mu(Q) DRbar
  3  3     9.69189317E-02   # y_tau(Q) DRbar
#
BLOCK MSOFT Q=  5.00073504E+03  # The soft SUSY breaking masses at the scale Q
         1     6.00000000E+01   # M_1(Q)              
         2     3.00000000E+03   # M_2(Q)              
         3     9.46040000E+02   # M_3(Q)              
        21     7.93105557E+06   # mH1^2(Q)            
        22    -2.06842466E+05   # mH2^2(Q)            
        31     5.00000000E+03   # meL(Q)              
        32     5.00000000E+03   # mmuL(Q)             
        33     5.00000000E+03   # mtauL(Q)            
        34     5.00000000E+03   # meR(Q)              
        35     5.00000000E+03   # mmuR(Q)             
        36     5.00000000E+03   # mtauR(Q)            
        41     5.00000000E+03   # mqL1(Q)             
        42     5.00000000E+03   # mqL2(Q)             
        43     5.00000000E+03   # mqL3(Q)             
        44     5.00000000E+03   # muR(Q)              
        45     5.00000000E+03   # mcR(Q)              
        46     5.00000000E+03   # mtR(Q)              
        47     5.00000000E+03   # mdR(Q)              
        48     5.00000000E+03   # msR(Q)              
        49     5.00000000E+03   # mbR(Q)              
#
#
#
#                             =================
#                             |The decay table|
#                             =================
#
# - The QCD corrections to the decays gluino -> squark  + quark
#                                     squark -> gaugino + quark_prime
#                                     squark -> squark_prime + Higgs
#                                     squark -> gluino  + quark
#   are included.
#
# - The multi-body decays for the inos, stops and sbottoms are included.
#
# - The loop induced decays for the gluino, neutralinos and stops
#   are included.
#
# - The SUSY decays of the top quark are included.
#
#
#         PDG            Width
DECAY         6     1.40295924E+00   # top decays
#          BR         NDA      ID1       ID2
     1.00000000E+00    2           5        24   # BR(t ->  b    W+)
#
#         PDG            Width
DECAY   1000021     2.23479561E-05   # gluino decays
#          BR         NDA      ID1       ID2
     1.42040810E-05    2     1000022        21   # BR(~g -> ~chi_10 g)
     1.23524427E-02    2     1000023        21   # BR(~g -> ~chi_20 g)
     1.19512087E-02    2     1000025        21   # BR(~g -> ~chi_30 g)
#           BR         NDA      ID1       ID2       ID3
     7.77999901E-02    3     1000022         1        -1   # BR(~g -> ~chi_10 d  db)
     2.08593680E-06    3     1000023         1        -1   # BR(~g -> ~chi_20 d  db)
     1.13604398E-06    3     1000025         1        -1   # BR(~g -> ~chi_30 d  db)
     2.65257334E-01    3     1000022         2        -2   # BR(~g -> ~chi_10 u  ub)
     7.54704380E-06    3     1000023         2        -2   # BR(~g -> ~chi_20 u  ub)
     1.42288997E-06    3     1000025         2        -2   # BR(~g -> ~chi_30 u  ub)
     7.77999901E-02    3     1000022         3        -3   # BR(~g -> ~chi_10 s  sb)
     2.08593680E-06    3     1000023         3        -3   # BR(~g -> ~chi_20 s  sb)
     1.13604398E-06    3     1000025         3        -3   # BR(~g -> ~chi_30 s  sb)
     2.65257334E-01    3     1000022         4        -4   # BR(~g -> ~chi_10 c  cb)
     7.54704380E-06    3     1000023         4        -4   # BR(~g -> ~chi_20 c  cb)
     1.42288997E-06    3     1000025         4        -4   # BR(~g -> ~chi_30 c  cb)
     7.89739282E-02    3     1000022         5        -5   # BR(~g -> ~chi_10 b  bb)
     4.26573261E-04    3     1000023         5        -5   # BR(~g -> ~chi_20 b  bb)
     4.07549574E-04    3     1000025         5        -5   # BR(~g -> ~chi_30 b  bb)
     2.03233365E-01    3     1000022         6        -6   # BR(~g -> ~chi_10 t  tb)
     5.68485737E-06    3     1000024         1        -2   # BR(~g -> ~chi_1+ d  ub)
     5.68485737E-06    3    -1000024         2        -1   # BR(~g -> ~chi_1- u  db)
     5.68485737E-06    3     1000024         3        -4   # BR(~g -> ~chi_1+ s  cb)
     5.68485737E-06    3    -1000024         4        -3   # BR(~g -> ~chi_1- c  sb)
     3.23947851E-03    3     1000024         5        -6   # BR(~g -> ~chi_1+ b  tb)
     3.23947851E-03    3    -1000024         6        -5   # BR(~g -> ~chi_1- t  bb)
#
#         PDG            Width
DECAY   1000006     4.05178104E+02   # stop1 decays
#          BR         NDA      ID1       ID2
     2.17240183E-02    2     1000022         6   # BR(~t_1 -> ~chi_10 t )
     7.60100239E-02    2     1000023         6   # BR(~t_1 -> ~chi_20 t )
     7.29147698E-02    2     1000025         6   # BR(~t_1 -> ~chi_30 t )
     5.18172091E-03    2     1000035         6   # BR(~t_1 -> ~chi_40 t )
     1.09737062E-01    2     1000024         5   # BR(~t_1 -> ~chi_1+ b )
     1.03254213E-02    2     1000037         5   # BR(~t_1 -> ~chi_2+ b )
     7.04106983E-01    2     1000021         6   # BR(~t_1 -> ~g      t )
#
#         PDG            Width
DECAY   2000006     4.06978419E+02   # stop2 decays
#          BR         NDA      ID1       ID2
     8.73375353E-03    2     1000022         6   # BR(~t_2 -> ~chi_10 t )
     7.71697400E-02    2     1000023         6   # BR(~t_2 -> ~chi_20 t )
     8.05593700E-02    2     1000025         6   # BR(~t_2 -> ~chi_30 t )
     1.34880224E-02    2     1000035         6   # BR(~t_2 -> ~chi_40 t )
     4.66480111E-02    2     1000024         5   # BR(~t_2 -> ~chi_1+ b )
     2.68416866E-02    2     1000037         5   # BR(~t_2 -> ~chi_2+ b )
     7.43394927E-01    2     1000021         6   # BR(~t_2 -> ~g      t )
     7.11477577E-04    2     1000006        25   # BR(~t_2 -> ~t_1    h )
     2.45301123E-03    2     1000006        23   # BR(~t_2 -> ~t_1    Z )
#
#         PDG            Width
DECAY   1000005     3.84447397E+02   # sbottom1 decays
#          BR         NDA      ID1       ID2
     2.01492796E-03    2     1000022         5   # BR(~b_1 -> ~chi_10 b )
     2.07429695E-03    2     1000023         5   # BR(~b_1 -> ~chi_20 b )
     2.02700878E-03    2     1000025         5   # BR(~b_1 -> ~chi_30 b )
     1.95293067E-02    2     1000035         5   # BR(~b_1 -> ~chi_40 b )
     1.62151642E-01    2    -1000024         6   # BR(~b_1 -> ~chi_1- t )
     3.92301212E-02    2    -1000037         6   # BR(~b_1 -> ~chi_2- t )
     7.71490107E-01    2     1000021         5   # BR(~b_1 -> ~g      b )
     1.48258852E-03    2     1000006       -24   # BR(~b_1 -> ~t_1    W-)
#
#         PDG            Width
DECAY   2000005     3.05470295E+02   # sbottom2 decays
#          BR         NDA      ID1       ID2
     9.62866961E-03    2     1000022         5   # BR(~b_2 -> ~chi_10 b )
     2.61684384E-03    2     1000023         5   # BR(~b_2 -> ~chi_20 b )
     2.68163320E-03    2     1000025         5   # BR(~b_2 -> ~chi_30 b )
     1.30206458E-04    2     1000035         5   # BR(~b_2 -> ~chi_40 b )
     6.24267256E-03    2    -1000024         6   # BR(~b_2 -> ~chi_1- t )
     2.61525871E-04    2    -1000037         6   # BR(~b_2 -> ~chi_2- t )
     9.78399361E-01    2     1000021         5   # BR(~b_2 -> ~g      b )
     3.90875321E-05    2     1000006       -24   # BR(~b_2 -> ~t_1    W-)
#
#         PDG            Width
DECAY   1000002     3.24418157E+02   # sup_L decays
#          BR         NDA      ID1       ID2
     2.30310647E-03    2     1000022         2   # BR(~u_L -> ~chi_10 u)
     4.76734580E-05    2     1000023         2   # BR(~u_L -> ~chi_20 u)
     3.81814062E-06    2     1000025         2   # BR(~u_L -> ~chi_30 u)
     2.40977329E-02    2     1000035         2   # BR(~u_L -> ~chi_40 u)
     1.61455762E-04    2     1000024         1   # BR(~u_L -> ~chi_1+ d)
     4.81636598E-02    2     1000037         1   # BR(~u_L -> ~chi_2+ d)
     9.25222553E-01    2     1000021         2   # BR(~u_L -> ~g      u)
#
#         PDG            Width
DECAY   2000002     3.10779991E+02   # sup_R decays
#          BR         NDA      ID1       ID2
     3.82553111E-02    2     1000022         2   # BR(~u_R -> ~chi_10 u)
     4.07890496E-05    2     1000023         2   # BR(~u_R -> ~chi_20 u)
     4.72548542E-05    2     1000025         2   # BR(~u_R -> ~chi_30 u)
     2.39283085E-09    2     1000035         2   # BR(~u_R -> ~chi_40 u)
     9.61656643E-01    2     1000021         2   # BR(~u_R -> ~g      u)
#
#         PDG            Width
DECAY   1000001     3.24428074E+02   # sdown_L decays
#          BR         NDA      ID1       ID2
     2.29402011E-03    2     1000022         1   # BR(~d_L -> ~chi_10 d)
     1.42361236E-05    2     1000023         1   # BR(~d_L -> ~chi_20 d)
     2.83552044E-05    2     1000025         1   # BR(~d_L -> ~chi_30 d)
     2.41120044E-02    2     1000035         1   # BR(~d_L -> ~chi_40 d)
     5.78944363E-06    2    -1000024         2   # BR(~d_L -> ~chi_1- u)
     4.82435242E-02    2    -1000037         2   # BR(~d_L -> ~chi_2- u)
     9.25302070E-01    2     1000021         1   # BR(~d_L -> ~g      d)
#
#         PDG            Width
DECAY   2000001     3.01864120E+02   # sdown_R decays
#          BR         NDA      ID1       ID2
     9.84687166E-03    2     1000022         1   # BR(~d_R -> ~chi_10 d)
     1.04991308E-05    2     1000023         1   # BR(~d_R -> ~chi_20 d)
     1.21634340E-05    2     1000025         1   # BR(~d_R -> ~chi_30 d)
     6.15994408E-10    2     1000035         1   # BR(~d_R -> ~chi_40 d)
     9.90130465E-01    2     1000021         1   # BR(~d_R -> ~g      d)
#
#         PDG            Width
DECAY   1000004     3.24418157E+02   # scharm_L decays
#          BR         NDA      ID1       ID2
     2.30310647E-03    2     1000022         4   # BR(~c_L -> ~chi_10 c)
     4.76734580E-05    2     1000023         4   # BR(~c_L -> ~chi_20 c)
     3.81814062E-06    2     1000025         4   # BR(~c_L -> ~chi_30 c)
     2.40977329E-02    2     1000035         4   # BR(~c_L -> ~chi_40 c)
     1.61455762E-04    2     1000024         3   # BR(~c_L -> ~chi_1+ s)
     4.81636598E-02    2     1000037         3   # BR(~c_L -> ~chi_2+ s)
     9.25222553E-01    2     1000021         4   # BR(~c_L -> ~g      c)
#
#         PDG            Width
DECAY   2000004     3.10779991E+02   # scharm_R decays
#          BR         NDA      ID1       ID2
     3.82553111E-02    2     1000022         4   # BR(~c_R -> ~chi_10 c)
     4.07890496E-05    2     1000023         4   # BR(~c_R -> ~chi_20 c)
     4.72548542E-05    2     1000025         4   # BR(~c_R -> ~chi_30 c)
     2.39283085E-09    2     1000035         4   # BR(~c_R -> ~chi_40 c)
     9.61656643E-01    2     1000021         4   # BR(~c_R -> ~g      c)
#
#         PDG            Width
DECAY   1000003     3.24428074E+02   # sstrange_L decays
#          BR         NDA      ID1       ID2
     2.29402011E-03    2     1000022         3   # BR(~s_L -> ~chi_10 s)
     1.42361236E-05    2     1000023         3   # BR(~s_L -> ~chi_20 s)
     2.83552044E-05    2     1000025         3   # BR(~s_L -> ~chi_30 s)
     2.41120044E-02    2     1000035         3   # BR(~s_L -> ~chi_40 s)
     5.78944363E-06    2    -1000024         4   # BR(~s_L -> ~chi_1- c)
     4.82435242E-02    2    -1000037         4   # BR(~s_L -> ~chi_2- c)
     9.25302070E-01    2     1000021         3   # BR(~s_L -> ~g      s)
#
#         PDG            Width
DECAY   2000003     3.01864120E+02   # sstrange_R decays
#          BR         NDA      ID1       ID2
     9.84687166E-03    2     1000022         3   # BR(~s_R -> ~chi_10 s)
     1.04991308E-05    2     1000023         3   # BR(~s_R -> ~chi_20 s)
     1.21634340E-05    2     1000025         3   # BR(~s_R -> ~chi_30 s)
     6.15994408E-10    2     1000035         3   # BR(~s_R -> ~chi_40 s)
     9.90130465E-01    2     1000021         3   # BR(~s_R -> ~g      s)
#
#         PDG            Width
DECAY   1000011     3.02841147E+01   # selectron_L decays
#          BR         NDA      ID1       ID2
     2.26243493E-01    2     1000022        11   # BR(~e_L -> ~chi_10 e-)
     1.09916910E-03    2     1000023        11   # BR(~e_L -> ~chi_20 e-)
     2.19029137E-05    2     1000025        11   # BR(~e_L -> ~chi_30 e-)
     2.57348893E-01    2     1000035        11   # BR(~e_L -> ~chi_40 e-)
     6.31719594E-05    2    -1000024        12   # BR(~e_L -> ~chi_1- nu_e)
     5.15223370E-01    2    -1000037        12   # BR(~e_L -> ~chi_2- nu_e)
#
#         PDG            Width
DECAY   2000011     2.73789698E+01   # selectron_R decays
#          BR         NDA      ID1       ID2
     9.97707097E-01    2     1000022        11   # BR(~e_R -> ~chi_10 e-)
     1.06223252E-03    2     1000023        11   # BR(~e_R -> ~chi_20 e-)
     1.23060923E-03    2     1000025        11   # BR(~e_R -> ~chi_30 e-)
     6.11063856E-08    2     1000035        11   # BR(~e_R -> ~chi_40 e-)
#
#         PDG            Width
DECAY   1000013     3.02841147E+01   # smuon_L decays
#          BR         NDA      ID1       ID2
     2.26243493E-01    2     1000022        13   # BR(~mu_L -> ~chi_10 mu-)
     1.09916910E-03    2     1000023        13   # BR(~mu_L -> ~chi_20 mu-)
     2.19029137E-05    2     1000025        13   # BR(~mu_L -> ~chi_30 mu-)
     2.57348893E-01    2     1000035        13   # BR(~mu_L -> ~chi_40 mu-)
     6.31719594E-05    2    -1000024        14   # BR(~mu_L -> ~chi_1- nu_mu)
     5.15223370E-01    2    -1000037        14   # BR(~mu_L -> ~chi_2- nu_mu)
#
#         PDG            Width
DECAY   2000013     2.73789698E+01   # smuon_R decays
#          BR         NDA      ID1       ID2
     9.97707097E-01    2     1000022        13   # BR(~mu_R -> ~chi_10 mu-)
     1.06223252E-03    2     1000023        13   # BR(~mu_R -> ~chi_20 mu-)
     1.23060923E-03    2     1000025        13   # BR(~mu_R -> ~chi_30 mu-)
     6.11063856E-08    2     1000035        13   # BR(~mu_R -> ~chi_40 mu-)
#
#         PDG            Width
DECAY   1000015     2.91512087E+01   # stau_1 decays
#          BR         NDA      ID1       ID2
     9.30357366E-01    2     1000022        15   # BR(~tau_1 -> ~chi_10  tau-)
     1.60505558E-02    2     1000023        15   # BR(~tau_1 -> ~chi_20  tau-)
     1.53780170E-02    2     1000025        15   # BR(~tau_1 -> ~chi_30  tau-)
     2.73308040E-03    2     1000035        15   # BR(~tau_1 -> ~chi_40  tau-)
     3.00094685E-02    2    -1000024        16   # BR(~tau_1 -> ~chi_1-  nu_tau)
     5.47151206E-03    2    -1000037        16   # BR(~tau_1 -> ~chi_2-  nu_tau)
#
#         PDG            Width
DECAY   2000015     3.11271961E+01   # stau_2 decays
#          BR         NDA      ID1       ID2
     2.26310065E-01    2     1000022        15   # BR(~tau_2 -> ~chi_10  tau-)
     1.51089672E-02    2     1000023        15   # BR(~tau_2 -> ~chi_20  tau-)
     1.47781737E-02    2     1000025        15   # BR(~tau_2 -> ~chi_30  tau-)
     2.47735631E-01    2     1000035        15   # BR(~tau_2 -> ~chi_40  tau-)
     8.93756555E-05    2    -1000024        16   # BR(~tau_2 -> ~chi_1-  nu_tau)
     4.95977788E-01    2    -1000037        16   # BR(~tau_2 -> ~chi_2-  nu_tau)
#
#         PDG            Width
DECAY   1000012     3.02870235E+01   # snu_eL decays
#          BR         NDA      ID1       ID2
     2.25876300E-01    2     1000022        12   # BR(~nu_eL -> ~chi_10 nu_e)
     4.48614275E-06    2     1000023        12   # BR(~nu_eL -> ~chi_20 nu_e)
     8.24847330E-04    2     1000025        12   # BR(~nu_eL -> ~chi_30 nu_e)
     2.57398034E-01    2     1000035        12   # BR(~nu_eL -> ~chi_40 nu_e)
     1.76132424E-03    2     1000024        11   # BR(~nu_eL -> ~chi_1+ e-)
     5.14135008E-01    2     1000037        11   # BR(~nu_eL -> ~chi_2+ e-)
#
#         PDG            Width
DECAY   1000014     3.02870235E+01   # snu_muL decays
#          BR         NDA      ID1       ID2
     2.25876300E-01    2     1000022        14   # BR(~nu_muL -> ~chi_10 nu_mu)
     4.48614275E-06    2     1000023        14   # BR(~nu_muL -> ~chi_20 nu_mu)
     8.24847330E-04    2     1000025        14   # BR(~nu_muL -> ~chi_30 nu_mu)
     2.57398034E-01    2     1000035        14   # BR(~nu_muL -> ~chi_40 nu_mu)
     1.76132424E-03    2     1000024        13   # BR(~nu_muL -> ~chi_1+ mu-)
     5.14135008E-01    2     1000037        13   # BR(~nu_muL -> ~chi_2+ mu-)
#
#         PDG            Width
DECAY   1000016     3.11558763E+01   # snu_tauL decays
#          BR         NDA      ID1       ID2
     2.19553257E-01    2     1000022        16   # BR(~nu_tauL -> ~chi_10 nu_tau)
     4.36049747E-06    2     1000023        16   # BR(~nu_tauL -> ~chi_20 nu_tau)
     8.01745426E-04    2     1000025        16   # BR(~nu_tauL -> ~chi_30 nu_tau)
     2.50127011E-01    2     1000035        16   # BR(~nu_tauL -> ~chi_40 nu_tau)
     2.99024967E-02    2     1000024        15   # BR(~nu_tauL -> ~chi_1+ tau-)
     4.99611130E-01    2     1000037        15   # BR(~nu_tauL -> ~chi_2+ tau-)
#
#         PDG            Width
DECAY   1000024     5.46425776E-01   # chargino1+ decays
#          BR         NDA      ID1       ID2
     1.00000000E+00    2     1000022        24   # BR(~chi_1+ -> ~chi_10  W+)
#
#         PDG            Width
DECAY   1000037     2.07764780E+01   # chargino2+ decays
#          BR         NDA      ID1       ID2
     2.53293597E-01    2     1000024        23   # BR(~chi_2+ -> ~chi_1+  Z )
     1.91054631E-04    2     1000022        24   # BR(~chi_2+ -> ~chi_10  W+)
     2.44297133E-01    2     1000023        24   # BR(~chi_2+ -> ~chi_20  W+)
     2.44195000E-01    2     1000025        24   # BR(~chi_2+ -> ~chi_30  W+)
     2.58021723E-01    2     1000024        25   # BR(~chi_2+ -> ~chi_1+  h )
     1.49237582E-06    2     1000022        37   # BR(~chi_2+ -> ~chi_10  H+)
#
#         PDG            Width
DECAY   1000022     0.00000000E+00   # neutralino1 decays
#
#         PDG            Width
DECAY   1000023     5.69176746E-01   # neutralino2 decays
#          BR         NDA      ID1       ID2
     5.35265522E-01    2     1000022        23   # BR(~chi_20 -> ~chi_10   Z )
     4.64734478E-01    2     1000022        25   # BR(~chi_20 -> ~chi_10   h )
#
#         PDG            Width
DECAY   1000025     5.70675315E-01   # neutralino3 decays
#          BR         NDA      ID1       ID2
     4.58753693E-01    2     1000022        23   # BR(~chi_30 -> ~chi_10   Z )
     5.41246307E-01    2     1000022        25   # BR(~chi_30 -> ~chi_10   h )
#
#         PDG            Width
DECAY   1000035     2.07921823E+01   # neutralino4 decays
#          BR         NDA      ID1       ID2
     4.00181541E-05    2     1000022        23   # BR(~chi_40 -> ~chi_10   Z )
     8.03584776E-02    2     1000023        23   # BR(~chi_40 -> ~chi_20   Z )
     1.72240561E-01    2     1000025        23   # BR(~chi_40 -> ~chi_30   Z )
     2.44893834E-01    2     1000024       -24   # BR(~chi_40 -> ~chi_1+   W-)
     2.44893834E-01    2    -1000024        24   # BR(~chi_40 -> ~chi_1-   W+)
     1.50863841E-04    2     1000022        25   # BR(~chi_40 -> ~chi_10   h )
     1.40611010E-06    2     1000022        35   # BR(~chi_40 -> ~chi_10   H )
     1.69152863E-07    2     1000022        36   # BR(~chi_40 -> ~chi_10   A )
     1.76856340E-01    2     1000023        25   # BR(~chi_40 -> ~chi_20   h )
     8.05644973E-02    2     1000025        25   # BR(~chi_40 -> ~chi_30   h )
#
#         PDG            Width
DECAY        25     4.03286138E-03   # h decays
#          BR         NDA      ID1       ID2
     6.14633244E-01    2           5        -5   # BR(h -> b       bb     )
     6.41513355E-02    2         -15        15   # BR(h -> tau+    tau-   )
     2.27120454E-04    2         -13        13   # BR(h -> mu+     mu-    )
     4.81719960E-04    2           3        -3   # BR(h -> s       sb     )
     2.08738375E-02    2           4        -4   # BR(h -> c       cb     )
     6.71569680E-02    2          21        21   # BR(h -> g       g      )
     2.30162476E-03    2          22        22   # BR(h -> gam     gam    )
     1.45753685E-03    2          22        23   # BR(h -> Z       gam    )
     2.04435485E-01    2          24       -24   # BR(h -> W+      W-     )
     2.42236995E-02    2          23        23   # BR(h -> Z       Z      )
     5.74287855E-05    2     1000022   1000022   # BR(h -> ~chi_10 ~chi_10)
#
#         PDG            Width
DECAY        35     8.24066377E+00   # H decays
#          BR         NDA      ID1       ID2
     3.90839604E-01    2           5        -5   # BR(H -> b       bb     )
     6.76470978E-02    2         -15        15   # BR(H -> tau+    tau-   )
     2.39205511E-04    2         -13        13   # BR(H -> mu+     mu-    )
     2.93229659E-04    2           3        -3   # BR(H -> s       sb     )
     1.63817573E-06    2           4        -4   # BR(H -> c       cb     )
     1.63666701E-01    2           6        -6   # BR(H -> t       tb     )
     5.43744215E-05    2          21        21   # BR(H -> g       g      )
     2.37741549E-07    2          22        22   # BR(H -> gam     gam    )
     9.65508171E-08    2          23        22   # BR(H -> Z       gam    )
     7.53727082E-05    2          24       -24   # BR(H -> W+      W-     )
     3.76386426E-05    2          23        23   # BR(H -> Z       Z      )
     2.80375697E-04    2          25        25   # BR(H -> h       h      )
     1.86638665E-23    2          36        36   # BR(H -> A       A      )
     3.86832956E-18    2          23        36   # BR(H -> Z       A      )
     2.29988587E-03    2     1000024  -1000024   # BR(H -> ~chi_1+ ~chi_1-)
     2.16466300E-03    2     1000022   1000022   # BR(H -> ~chi_10 ~chi_10)
     1.59501078E-05    2     1000023   1000023   # BR(H -> ~chi_20 ~chi_20)
     7.54890559E-04    2     1000025   1000025   # BR(H -> ~chi_30 ~chi_30)
     2.23180937E-01    2     1000022   1000023   # BR(H -> ~chi_10 ~chi_20)
     1.47704601E-01    2     1000022   1000025   # BR(H -> ~chi_10 ~chi_30)
     7.43500000E-04    2     1000023   1000025   # BR(H -> ~chi_20 ~chi_30)
#
#         PDG            Width
DECAY        36     8.25463766E+00   # A decays
#          BR         NDA      ID1       ID2
     3.90305947E-01    2           5        -5   # BR(A -> b       bb     )
     6.75336775E-02    2         -15        15   # BR(A -> tau+    tau-   )
     2.38804114E-04    2         -13        13   # BR(A -> mu+     mu-    )
     2.92951949E-04    2           3        -3   # BR(A -> s       sb     )
     1.64208101E-06    2           4        -4   # BR(A -> c       cb     )
     1.63966369E-01    2           6        -6   # BR(A -> t       tb     )
     1.62306134E-04    2          21        21   # BR(A -> g       g      )
     5.87789842E-07    2          22        22   # BR(A -> gam     gam    )
     1.96442979E-07    2          23        22   # BR(A -> Z       gam    )
     7.49595136E-05    2          23        25   # BR(A -> Z       h      )
     3.31153113E-03    2     1000024  -1000024   # BR(A -> ~chi_1+ ~chi_1-)
     2.19883856E-03    2     1000022   1000022   # BR(A -> ~chi_10 ~chi_10)
     1.62716950E-05    2     1000023   1000023   # BR(A -> ~chi_20 ~chi_20)
     1.80598293E-03    2     1000025   1000025   # BR(A -> ~chi_30 ~chi_30)
     1.49719021E-01    2     1000022   1000023   # BR(A -> ~chi_10 ~chi_20)
     2.20093854E-01    2     1000022   1000025   # BR(A -> ~chi_10 ~chi_30)
     2.77059805E-04    2     1000023   1000025   # BR(A -> ~chi_20 ~chi_30)
#
#         PDG            Width
DECAY        37     8.19642359E+00   # H+ decays
#          BR         NDA      ID1       ID2
     6.25994563E-04    2           4        -5   # BR(H+ -> c       bb     )
     6.80418878E-02    2         -15        16   # BR(H+ -> tau+    nu_tau )
     2.40601183E-04    2         -13        14   # BR(H+ -> mu+     nu_mu  )
     4.00634434E-06    2           2        -5   # BR(H+ -> u       bb     )
     1.41177810E-05    2           2        -3   # BR(H+ -> u       sb     )
     2.91954586E-04    2           4        -3   # BR(H+ -> c       sb     )
     5.52950074E-01    2           6        -5   # BR(H+ -> t       bb     )
     7.56356984E-05    2          24        25   # BR(H+ -> W+      h      )
     5.08682388E-13    2          24        36   # BR(H+ -> W+      A      )
     3.76608527E-01    2     1000024   1000022   # BR(H+ -> ~chi_1+ ~chi_10)
     1.12539173E-03    2     1000024   1000023   # BR(H+ -> ~chi_1+ ~chi_20)
     2.18089579E-05    2     1000024   1000025   # BR(H+ -> ~chi_1+ ~chi_30)
