#
#                              ======================
#                              | THE SUSYHIT OUTPUT |
#                              ======================
#
#
#              ------------------------------------------------------
#              |     This is the output of the SUSY-HIT package     |
#              |  created by A.Djouadi, M.Muehlleitner and M.Spira. |
#              |  In case of problems with SUSY-HIT email to        |
#              |           margarete.muehlleitner@cern.ch           |
#              |           michael.spira@psi.ch                     |
#              |           abdelhak.djouadi@cern.ch                 |
#              ------------------------------------------------------
#
#              ------------------------------------------------------
#              |  SUSY Les Houches Accord - MSSM Spectrum + Decays  |
#              |              based on the decay programs           |
#              |                                                    |
#              |                     SDECAY 1.3b                    |
#              |                                                    |
#              |  Authors: M.Muhlleitner, A.Djouadi and Y.Mambrini  |
#              |  Ref.:    Comput.Phys.Commun.168(2005)46           |
#              |           [hep-ph/0311167]                         |
#              |                                                    |
#              |                     HDECAY 3.4                     |
#              |                                                    |
#              |  By: A.Djouadi,J.Kalinowski,M.Muhlleitner,M.Spira  |
#              |  Ref.:    Comput.Phys.Commun.108(1998)56           |
#              |           [hep-ph/9704448]                         |
#              |                                                    |
#              |                                                    |
#              |  If not stated otherwise all DRbar couplings and   |
#              |  soft SUSY breaking masses are given at the scale  |
#              |  Q=  0.50007513E+04
#              |                                                    |
#              ------------------------------------------------------
#
#
BLOCK DCINFO  # Decay Program information
     1   SDECAY/HDECAY # decay calculator
     2   1.3b  /3.4    # version number
#
BLOCK SPINFO  # Spectrum calculator information
     1    SOFTSUSY    # spectrum calculator                
     2    3.4.0       # version number                     
#
BLOCK MODSEL  # Model selection
     1     0   #  nonUniversal                                     
#
BLOCK SMINPUTS  # Standard Model inputs
         1     1.25778332E+02   # alpha_em^-1(M_Z)^MSbar
         2     1.16570000E-05   # G_F [GeV^-2]
         3     1.17200002E-01   # alpha_S(M_Z)^MSbar
         4     9.11876000E+01   # M_Z pole mass
         5     4.25000000E+00   # mb(mb)^MSbar
         6     1.72500000E+02   # mt pole mass
         7     1.77682000E+00   # mtau pole mass
#
BLOCK MINPAR  # Input parameters - minimal models
         3     1.00000000E+01   # tanb                
#
BLOCK EXTPAR  # Input parameters - non-minimal models
         0    -1.00000000E+00   # Set                 
         1     6.00000000E+01   # M_1(MX)             
         2     3.00000000E+03   # M_2(MX)             
         3     1.57543300E+03   # M_3(MX)             
        11     5.00000000E+03   # At(MX)              
        12     5.00000000E+03   # Ab(MX)              
        13     0.00000000E+00   # Atau(MX)            
        23    -6.68033000E+02   # mu(MX)              
        26     3.00000000E+03   # mA(pole)            
        31     5.00000000E+03   # meL(MX)             
        32     5.00000000E+03   # mmuL(MX)            
        33     5.00000000E+03   # mtauL(MX)           
        34     5.00000000E+03   # meR(MX)             
        35     5.00000000E+03   # mmuR(MX)            
        36     5.00000000E+03   # mtauR(MX)           
        41     5.00000000E+03   # mqL1(MX)            
        42     5.00000000E+03   # mqL2(MX)            
        43     5.00000000E+03   # mqL3(MX)            
        44     5.00000000E+03   # muR(MX)             
        45     5.00000000E+03   # mcR(MX)             
        46     5.00000000E+03   # mtR(MX)             
        47     5.00000000E+03   # mdR(MX)             
        48     5.00000000E+03   # msR(MX)             
        49     5.00000000E+03   # mbR(MX)             
#
BLOCK MASS  # Mass Spectrum
# PDG code           mass       particle
        24     8.00938390E+01   # W+
        25     1.24737043E+02   # h
        35     3.00008362E+03   # H
        36     2.99999871E+03   # A
        37     3.00137753E+03   # H+
         5     4.87878001E+00   # b-quark pole mass calculated from mb(mb)_Msbar
   1000001     5.07068358E+03   # ~d_L
   2000001     5.05285571E+03   # ~d_R
   1000002     5.07020910E+03   # ~u_L
   2000002     5.05256146E+03   # ~u_R
   1000003     5.07068358E+03   # ~s_L
   2000003     5.05285571E+03   # ~s_R
   1000004     5.07020910E+03   # ~c_L
   2000004     5.05256146E+03   # ~c_R
   1000005     5.01648793E+03   # ~b_1
   2000005     5.05120196E+03   # ~b_2
   1000006     4.90736511E+03   # ~t_1
   2000006     5.06094166E+03   # ~t_2
   1000011     5.01909037E+03   # ~e_L
   2000011     5.00593533E+03   # ~e_R
   1000012     5.01814094E+03   # ~nu_eL
   1000013     5.01909037E+03   # ~mu_L
   2000013     5.00593533E+03   # ~mu_R
   1000014     5.01814094E+03   # ~nu_muL
   1000015     5.00471959E+03   # ~tau_1
   2000015     5.01867193E+03   # ~tau_2
   1000016     5.01759138E+03   # ~nu_tauL
   1000021     1.90000097E+03   # ~g
   1000022     6.02748327E+01   # ~chi_10
   1000023     6.99989105E+02   # ~chi_20
   1000025    -7.02215061E+02   # ~chi_30
   1000035     3.07419699E+03   # ~chi_40
   1000024     7.00000053E+02   # ~chi_1+
   1000037     3.07436456E+03   # ~chi_2+
#
BLOCK NMIX  # Neutralino Mixing Matrix
  1  1     9.97979436E-01   # N_11
  1  2     2.19031493E-04   # N_12
  1  3    -6.35272838E-02   # N_13
  1  4     1.13186120E-03   # N_14
  2  1     4.41408426E-02   # N_21
  2  2     2.05663398E-02   # N_22
  2  3     7.06086544E-01   # N_23
  2  4     7.06449152E-01   # N_24
  3  1    -4.56998737E-02   # N_31
  3  2     1.61075270E-02   # N_32
  3  3    -7.05263186E-01   # N_33
  3  4     7.07287712E-01   # N_34
  4  1    -3.90425795E-04   # N_41
  4  2     9.99658704E-01   # N_42
  4  3    -3.14873015E-03   # N_43
  4  4    -2.59308272E-02   # N_44
#
BLOCK UMIX  # Chargino Mixing Matrix U
  1  1     4.46198158E-03   # U_11
  1  2     9.99990045E-01   # U_12
  2  1    -9.99990045E-01   # U_21
  2  2     4.46198158E-03   # U_22
#
BLOCK VMIX  # Chargino Mixing Matrix V
  1  1     3.66982058E-02   # V_11
  1  2    -9.99326394E-01   # V_12
  2  1    -9.99326394E-01   # V_21
  2  2    -3.66982058E-02   # V_22
#
BLOCK STOPMIX  # Stop Mixing Matrix
  1  1    -5.05322829E-01   # cos(theta_t)
  1  2     8.62930379E-01   # sin(theta_t)
  2  1    -8.62930379E-01   # -sin(theta_t)
  2  2    -5.05322829E-01   # cos(theta_t)
#
BLOCK SBOTMIX  # Sbottom Mixing Matrix
  1  1     9.98180108E-01   # cos(theta_b)
  1  2    -6.03031674E-02   # sin(theta_b)
  2  1     6.03031674E-02   # -sin(theta_b)
  2  2     9.98180108E-01   # cos(theta_b)
#
BLOCK STAUMIX  # Stau Mixing Matrix
  1  1    -7.99411323E-02   # cos(theta_tau)
  1  2     9.96799586E-01   # sin(theta_tau)
  2  1    -9.96799586E-01   # -sin(theta_tau)
  2  2    -7.99411323E-02   # cos(theta_tau)
#
BLOCK ALPHA  # Higgs mixing
          -1.05477631E-01   # Mixing angle in the neutral Higgs boson sector
#
BLOCK HMIX Q=  5.00075133E+03  # DRbar Higgs Parameters
         1    -6.80231884E+02   # mu(Q)MSSM           
         2     9.46975676E+00   # tan                 
         3     2.41796120E+02   # higgs               
         4     8.60891349E+06   # mA^2(Q)MSSM         
#
BLOCK GAUGE Q=  5.00075133E+03  # The gauge couplings
     1     3.70881388E-01   # gprime(Q) DRbar
     2     6.32959982E-01   # g(Q) DRbar
     3     9.99256822E-01   # g3(Q) DRbar
#
BLOCK AU Q=  5.00075133E+03  # The trilinear couplings
  1  1     5.00000001E+03   # A_u(Q) DRbar
  2  2     5.00000001E+03   # A_c(Q) DRbar
  3  3     5.00000002E+03   # A_t(Q) DRbar
#
BLOCK AD Q=  5.00075133E+03  # The trilinear couplings
  1  1     5.00000001E+03   # A_d(Q) DRbar
  2  2     5.00000001E+03   # A_s(Q) DRbar
  3  3     5.00000001E+03   # A_b(Q) DRbar
#
BLOCK AE Q=  5.00075133E+03  # The trilinear couplings
  1  1     0.00000000E+00   # A_e(Q) DRbar
  2  2     1.58113406E-07   # A_mu(Q) DRbar
  3  3     1.57688572E-07   # A_tau(Q) DRbar
#
BLOCK Yu Q=  5.00075133E+03  # The Yukawa couplings
  1  1     0.00000000E+00   # y_u(Q) DRbar
  2  2     0.00000000E+00   # y_c(Q) DRbar
  3  3     8.19727619E-01   # y_t(Q) DRbar
#
BLOCK Yd Q=  5.00075133E+03  # The Yukawa couplings
  1  1     0.00000000E+00   # y_d(Q) DRbar
  2  2     0.00000000E+00   # y_s(Q) DRbar
  3  3     1.30201468E-01   # y_b(Q) DRbar
#
BLOCK Ye Q=  5.00075133E+03  # The Yukawa couplings
  1  1     0.00000000E+00   # y_e(Q) DRbar
  2  2     0.00000000E+00   # y_mu(Q) DRbar
  3  3     9.70192733E-02   # y_tau(Q) DRbar
#
BLOCK MSOFT Q=  5.00075133E+03  # The soft SUSY breaking masses at the scale Q
         1     6.00000000E+01   # M_1(Q)              
         2     3.00000000E+03   # M_2(Q)              
         3     1.57543300E+03   # M_3(Q)              
        21     8.25187528E+06   # mH1^2(Q)            
        22     1.08866994E+05   # mH2^2(Q)            
        31     5.00000000E+03   # meL(Q)              
        32     5.00000000E+03   # mmuL(Q)             
        33     5.00000000E+03   # mtauL(Q)            
        34     5.00000000E+03   # meR(Q)              
        35     5.00000000E+03   # mmuR(Q)             
        36     5.00000000E+03   # mtauR(Q)            
        41     5.00000000E+03   # mqL1(Q)             
        42     5.00000000E+03   # mqL2(Q)             
        43     5.00000000E+03   # mqL3(Q)             
        44     5.00000000E+03   # muR(Q)              
        45     5.00000000E+03   # mcR(Q)              
        46     4.99999999E+03   # mtR(Q)              
        47     5.00000000E+03   # mdR(Q)              
        48     5.00000000E+03   # msR(Q)              
        49     5.00000000E+03   # mbR(Q)              
#
#
#
#                             =================
#                             |The decay table|
#                             =================
#
# - The QCD corrections to the decays gluino -> squark  + quark
#                                     squark -> gaugino + quark_prime
#                                     squark -> squark_prime + Higgs
#                                     squark -> gluino  + quark
#   are included.
#
# - The multi-body decays for the inos, stops and sbottoms are included.
#
# - The loop induced decays for the gluino, neutralinos and stops
#   are included.
#
# - The SUSY decays of the top quark are included.
#
#
#         PDG            Width
DECAY         6     1.40402349E+00   # top decays
#          BR         NDA      ID1       ID2
     1.00000000E+00    2           5        24   # BR(t ->  b    W+)
#
#         PDG            Width
DECAY   1000021     9.03202203E-04   # gluino decays
#          BR         NDA      ID1       ID2
     1.74688279E-06    2     1000022        21   # BR(~g -> ~chi_10 g)
     9.84112816E-03    2     1000023        21   # BR(~g -> ~chi_20 g)
     9.61572981E-03    2     1000025        21   # BR(~g -> ~chi_30 g)
#           BR         NDA      ID1       ID2       ID3
     1.98015553E-02    3     1000022         1        -1   # BR(~g -> ~chi_10 d  db)
     2.36239667E-05    3     1000023         1        -1   # BR(~g -> ~chi_20 d  db)
     2.16424788E-05    3     1000025         1        -1   # BR(~g -> ~chi_30 d  db)
     6.75228370E-02    3     1000022         2        -2   # BR(~g -> ~chi_10 u  ub)
     1.09473770E-04    3     1000023         2        -2   # BR(~g -> ~chi_20 u  ub)
     3.06629870E-05    3     1000025         2        -2   # BR(~g -> ~chi_30 u  ub)
     1.98015553E-02    3     1000022         3        -3   # BR(~g -> ~chi_10 s  sb)
     2.36239667E-05    3     1000023         3        -3   # BR(~g -> ~chi_20 s  sb)
     2.16424788E-05    3     1000025         3        -3   # BR(~g -> ~chi_30 s  sb)
     6.75228370E-02    3     1000022         4        -4   # BR(~g -> ~chi_10 c  cb)
     1.09473770E-04    3     1000023         4        -4   # BR(~g -> ~chi_20 c  cb)
     3.06629870E-05    3     1000025         4        -4   # BR(~g -> ~chi_30 c  cb)
     2.01487194E-02    3     1000022         5        -5   # BR(~g -> ~chi_10 b  bb)
     4.98844230E-03    3     1000023         5        -5   # BR(~g -> ~chi_20 b  bb)
     4.93599112E-03    3     1000025         5        -5   # BR(~g -> ~chi_30 b  bb)
     6.45522900E-02    3     1000022         6        -6   # BR(~g -> ~chi_10 t  tb)
     1.77579908E-01    3     1000023         6        -6   # BR(~g -> ~chi_20 t  tb)
     1.55410202E-01    3     1000025         6        -6   # BR(~g -> ~chi_30 t  tb)
     5.69517339E-05    3     1000024         1        -2   # BR(~g -> ~chi_1+ d  ub)
     5.69517339E-05    3    -1000024         2        -1   # BR(~g -> ~chi_1- u  db)
     5.69517339E-05    3     1000024         3        -4   # BR(~g -> ~chi_1+ s  cb)
     5.69517339E-05    3    -1000024         4        -3   # BR(~g -> ~chi_1- c  sb)
     1.88839222E-01    3     1000024         5        -6   # BR(~g -> ~chi_1+ b  tb)
     1.88839222E-01    3    -1000024         6        -5   # BR(~g -> ~chi_1- t  bb)
#
#         PDG            Width
DECAY   1000006     3.55138585E+02   # stop1 decays
#          BR         NDA      ID1       ID2
     2.48841671E-02    2     1000022         6   # BR(~t_1 -> ~chi_10 t )
     8.99308764E-02    2     1000023         6   # BR(~t_1 -> ~chi_20 t )
     8.59316369E-02    2     1000025         6   # BR(~t_1 -> ~chi_30 t )
     5.77316190E-03    2     1000035         6   # BR(~t_1 -> ~chi_40 t )
     1.30853965E-01    2     1000024         5   # BR(~t_1 -> ~chi_1+ b )
     1.15068608E-02    2     1000037         5   # BR(~t_1 -> ~chi_2+ b )
     6.51119332E-01    2     1000021         6   # BR(~t_1 -> ~g      t )
#
#         PDG            Width
DECAY   2000006     3.60118182E+02   # stop2 decays
#          BR         NDA      ID1       ID2
     9.66521838E-03    2     1000022         6   # BR(~t_2 -> ~chi_10 t )
     8.98391232E-02    2     1000023         6   # BR(~t_2 -> ~chi_20 t )
     9.42248856E-02    2     1000025         6   # BR(~t_2 -> ~chi_30 t )
     1.54953900E-02    2     1000035         6   # BR(~t_2 -> ~chi_40 t )
     5.30757159E-02    2     1000024         5   # BR(~t_2 -> ~chi_1+ b )
     3.08466783E-02    2     1000037         5   # BR(~t_2 -> ~chi_2+ b )
     7.03405989E-01    2     1000021         6   # BR(~t_2 -> ~g      t )
     7.91412178E-04    2     1000006        25   # BR(~t_2 -> ~t_1    h )
     2.65558705E-03    2     1000006        23   # BR(~t_2 -> ~t_1    Z )
#
#         PDG            Width
DECAY   1000005     3.35485466E+02   # sbottom1 decays
#          BR         NDA      ID1       ID2
     2.30441411E-03    2     1000022         5   # BR(~b_1 -> ~chi_10 b )
     2.43405766E-03    2     1000023         5   # BR(~b_1 -> ~chi_20 b )
     2.40382996E-03    2     1000025         5   # BR(~b_1 -> ~chi_30 b )
     2.25399868E-02    2     1000035         5   # BR(~b_1 -> ~chi_40 b )
     1.92350421E-01    2    -1000024         6   # BR(~b_1 -> ~chi_1- t )
     4.52642881E-02    2    -1000037         6   # BR(~b_1 -> ~chi_2- t )
     7.31037406E-01    2     1000021         5   # BR(~b_1 -> ~g      b )
     1.66559653E-03    2     1000006       -24   # BR(~b_1 -> ~t_1    W-)
#
#         PDG            Width
DECAY   2000005     2.54398760E+02   # sbottom2 decays
#          BR         NDA      ID1       ID2
     1.15478533E-02    2     1000022         5   # BR(~b_2 -> ~chi_10 b )
     3.26465026E-03    2     1000023         5   # BR(~b_2 -> ~chi_20 b )
     3.32544884E-03    2     1000025         5   # BR(~b_2 -> ~chi_30 b )
     1.06301188E-04    2     1000035         5   # BR(~b_2 -> ~chi_40 b )
     7.34321689E-03    2    -1000024         6   # BR(~b_2 -> ~chi_1- t )
     2.13468883E-04    2    -1000037         6   # BR(~b_2 -> ~chi_2- t )
     9.74165837E-01    2     1000021         5   # BR(~b_2 -> ~g      b )
     3.32237230E-05    2     1000006       -24   # BR(~b_2 -> ~t_1    W-)
#
#         PDG            Width
DECAY   1000002     2.73656996E+02   # sup_L decays
#          BR         NDA      ID1       ID2
     2.72350439E-03    2     1000022         2   # BR(~u_L -> ~chi_10 u)
     5.87103984E-05    2     1000023         2   # BR(~u_L -> ~chi_20 u)
     3.55346407E-06    2     1000025         2   # BR(~u_L -> ~chi_30 u)
     2.87274437E-02    2     1000035         2   # BR(~u_L -> ~chi_40 u)
     1.85623528E-04    2     1000024         1   # BR(~u_L -> ~chi_1+ d)
     5.74182269E-02    2     1000037         1   # BR(~u_L -> ~chi_2+ d)
     9.10882938E-01    2     1000021         2   # BR(~u_L -> ~g      u)
#
#         PDG            Width
DECAY   2000002     2.59736793E+02   # sup_R decays
#          BR         NDA      ID1       ID2
     4.56472800E-02    2     1000022         2   # BR(~u_R -> ~chi_10 u)
     8.60239504E-05    2     1000023         2   # BR(~u_R -> ~chi_20 u)
     9.21851613E-05    2     1000025         2   # BR(~u_R -> ~chi_30 u)
     2.78595221E-09    2     1000035         2   # BR(~u_R -> ~chi_40 u)
     9.54174508E-01    2     1000021         2   # BR(~u_R -> ~g      u)
#
#         PDG            Width
DECAY   1000001     2.73670302E+02   # sdown_L decays
#          BR         NDA      ID1       ID2
     2.71141496E-03    2     1000022         1   # BR(~d_L -> ~chi_10 d)
     9.83341327E-06    2     1000023         1   # BR(~d_L -> ~chi_20 d)
     4.31788933E-05    2     1000025         1   # BR(~d_L -> ~chi_30 d)
     2.87437138E-02    2     1000035         1   # BR(~d_L -> ~chi_40 d)
     2.74423876E-06    2    -1000024         2   # BR(~d_L -> ~chi_1- u)
     5.75095291E-02    2    -1000037         2   # BR(~d_L -> ~chi_2- u)
     9.10979586E-01    2     1000021         1   # BR(~d_L -> ~g      d)
#
#         PDG            Width
DECAY   2000001     2.50833986E+02   # sdown_R decays
#          BR         NDA      ID1       ID2
     1.18175535E-02    2     1000022         1   # BR(~d_R -> ~chi_10 d)
     2.22707042E-05    2     1000023         1   # BR(~d_R -> ~chi_20 d)
     2.38657782E-05    2     1000025         1   # BR(~d_R -> ~chi_30 d)
     7.21348472E-10    2     1000035         1   # BR(~d_R -> ~chi_40 d)
     9.88136309E-01    2     1000021         1   # BR(~d_R -> ~g      d)
#
#         PDG            Width
DECAY   1000004     2.73656996E+02   # scharm_L decays
#          BR         NDA      ID1       ID2
     2.72350439E-03    2     1000022         4   # BR(~c_L -> ~chi_10 c)
     5.87103984E-05    2     1000023         4   # BR(~c_L -> ~chi_20 c)
     3.55346407E-06    2     1000025         4   # BR(~c_L -> ~chi_30 c)
     2.87274437E-02    2     1000035         4   # BR(~c_L -> ~chi_40 c)
     1.85623528E-04    2     1000024         3   # BR(~c_L -> ~chi_1+ s)
     5.74182269E-02    2     1000037         3   # BR(~c_L -> ~chi_2+ s)
     9.10882938E-01    2     1000021         4   # BR(~c_L -> ~g      c)
#
#         PDG            Width
DECAY   2000004     2.59736793E+02   # scharm_R decays
#          BR         NDA      ID1       ID2
     4.56472800E-02    2     1000022         4   # BR(~c_R -> ~chi_10 c)
     8.60239504E-05    2     1000023         4   # BR(~c_R -> ~chi_20 c)
     9.21851613E-05    2     1000025         4   # BR(~c_R -> ~chi_30 c)
     2.78595221E-09    2     1000035         4   # BR(~c_R -> ~chi_40 c)
     9.54174508E-01    2     1000021         4   # BR(~c_R -> ~g      c)
#
#         PDG            Width
DECAY   1000003     2.73670302E+02   # sstrange_L decays
#          BR         NDA      ID1       ID2
     2.71141496E-03    2     1000022         3   # BR(~s_L -> ~chi_10 s)
     9.83341327E-06    2     1000023         3   # BR(~s_L -> ~chi_20 s)
     4.31788933E-05    2     1000025         3   # BR(~s_L -> ~chi_30 s)
     2.87437138E-02    2     1000035         3   # BR(~s_L -> ~chi_40 s)
     2.74423876E-06    2    -1000024         4   # BR(~s_L -> ~chi_1- c)
     5.75095291E-02    2    -1000037         4   # BR(~s_L -> ~chi_2- c)
     9.10979586E-01    2     1000021         3   # BR(~s_L -> ~g      s)
#
#         PDG            Width
DECAY   2000003     2.50833986E+02   # sstrange_R decays
#          BR         NDA      ID1       ID2
     1.18175535E-02    2     1000022         3   # BR(~s_R -> ~chi_10 s)
     2.22707042E-05    2     1000023         3   # BR(~s_R -> ~chi_20 s)
     2.38657782E-05    2     1000025         3   # BR(~s_R -> ~chi_30 s)
     7.21348472E-10    2     1000035         3   # BR(~s_R -> ~chi_40 s)
     9.88136309E-01    2     1000021         3   # BR(~s_R -> ~g      s)
#
#         PDG            Width
DECAY   1000011     3.03043086E+01   # selectron_L decays
#          BR         NDA      ID1       ID2
     2.25805260E-01    2     1000022        11   # BR(~e_L -> ~chi_10 e-)
     1.36810720E-03    2     1000023        11   # BR(~e_L -> ~chi_20 e-)
     7.22350553E-05    2     1000025        11   # BR(~e_L -> ~chi_30 e-)
     2.57406467E-01    2     1000035        11   # BR(~e_L -> ~chi_40 e-)
     2.52695361E-05    2    -1000024        12   # BR(~e_L -> ~chi_1- nu_e)
     5.15322661E-01    2    -1000037        12   # BR(~e_L -> ~chi_2- nu_e)
#
#         PDG            Width
DECAY   2000011     2.73855741E+01   # selectron_R decays
#          BR         NDA      ID1       ID2
     9.96118151E-01    2     1000022        11   # BR(~e_R -> ~chi_10 e-)
     1.87379959E-03    2     1000023        11   # BR(~e_R -> ~chi_20 e-)
     2.00799002E-03    2     1000025        11   # BR(~e_R -> ~chi_30 e-)
     5.91647749E-08    2     1000035        11   # BR(~e_R -> ~chi_40 e-)
#
#         PDG            Width
DECAY   1000013     3.03043086E+01   # smuon_L decays
#          BR         NDA      ID1       ID2
     2.25805260E-01    2     1000022        13   # BR(~mu_L -> ~chi_10 mu-)
     1.36810720E-03    2     1000023        13   # BR(~mu_L -> ~chi_20 mu-)
     7.22350553E-05    2     1000025        13   # BR(~mu_L -> ~chi_30 mu-)
     2.57406467E-01    2     1000035        13   # BR(~mu_L -> ~chi_40 mu-)
     2.52695361E-05    2    -1000024        14   # BR(~mu_L -> ~chi_1- nu_mu)
     5.15322661E-01    2    -1000037        14   # BR(~mu_L -> ~chi_2- nu_mu)
#
#         PDG            Width
DECAY   2000013     2.73855741E+01   # smuon_R decays
#          BR         NDA      ID1       ID2
     9.96118151E-01    2     1000022        13   # BR(~mu_R -> ~chi_10 mu-)
     1.87379959E-03    2     1000023        13   # BR(~mu_R -> ~chi_20 mu-)
     2.00799002E-03    2     1000025        13   # BR(~mu_R -> ~chi_30 mu-)
     5.91647749E-08    2     1000035        13   # BR(~mu_R -> ~chi_40 mu-)
#
#         PDG            Width
DECAY   1000015     2.91967491E+01   # stau_1 decays
#          BR         NDA      ID1       ID2
     9.30627431E-01    2     1000022        15   # BR(~tau_1 -> ~chi_10  tau-)
     1.70524536E-02    2     1000023        15   # BR(~tau_1 -> ~chi_20  tau-)
     1.65297278E-02    2     1000025        15   # BR(~tau_1 -> ~chi_30  tau-)
     1.66213359E-03    2     1000035        15   # BR(~tau_1 -> ~chi_40  tau-)
     3.08008900E-02    2    -1000024        16   # BR(~tau_1 -> ~chi_1-  nu_tau)
     3.32736413E-03    2    -1000037        16   # BR(~tau_1 -> ~chi_2-  nu_tau)
#
#         PDG            Width
DECAY   2000015     3.11836254E+01   # stau_2 decays
#          BR         NDA      ID1       ID2
     2.22921627E-01    2     1000022        15   # BR(~tau_2 -> ~chi_10  tau-)
     1.58582338E-02    2     1000023        15   # BR(~tau_2 -> ~chi_20  tau-)
     1.51343569E-02    2     1000025        15   # BR(~tau_2 -> ~chi_30  tau-)
     2.48505973E-01    2     1000035        15   # BR(~tau_2 -> ~chi_40  tau-)
     7.51408511E-05    2    -1000024        16   # BR(~tau_2 -> ~chi_1-  nu_tau)
     4.97504668E-01    2    -1000037        16   # BR(~tau_2 -> ~chi_2-  nu_tau)
#
#         PDG            Width
DECAY   1000012     3.03074021E+01   # snu_eL decays
#          BR         NDA      ID1       ID2
     2.25401515E-01    2     1000022        12   # BR(~nu_eL -> ~chi_10 nu_e)
     1.78067111E-05    2     1000023        12   # BR(~nu_eL -> ~chi_20 nu_e)
     1.16650208E-03    2     1000025        12   # BR(~nu_eL -> ~chi_30 nu_e)
     2.57450140E-01    2     1000035        12   # BR(~nu_eL -> ~chi_40 nu_e)
     1.70882809E-03    2     1000024        11   # BR(~nu_eL -> ~chi_1+ e-)
     5.14255208E-01    2     1000037        11   # BR(~nu_eL -> ~chi_2+ e-)
#
#         PDG            Width
DECAY   1000014     3.03074021E+01   # snu_muL decays
#          BR         NDA      ID1       ID2
     2.25401515E-01    2     1000022        14   # BR(~nu_muL -> ~chi_10 nu_mu)
     1.78067111E-05    2     1000023        14   # BR(~nu_muL -> ~chi_20 nu_mu)
     1.16650208E-03    2     1000025        14   # BR(~nu_muL -> ~chi_30 nu_mu)
     2.57450140E-01    2     1000035        14   # BR(~nu_muL -> ~chi_40 nu_mu)
     1.70882809E-03    2     1000024        13   # BR(~nu_muL -> ~chi_1+ mu-)
     5.14255208E-01    2     1000037        13   # BR(~nu_muL -> ~chi_2+ mu-)
#
#         PDG            Width
DECAY   1000016     3.12013121E+01   # snu_tauL decays
#          BR         NDA      ID1       ID2
     2.18919825E-01    2     1000022        16   # BR(~nu_tauL -> ~chi_10 nu_tau)
     1.72945087E-05    2     1000023        16   # BR(~nu_tauL -> ~chi_20 nu_tau)
     1.13294808E-03    2     1000025        16   # BR(~nu_tauL -> ~chi_30 nu_tau)
     2.49981058E-01    2     1000035        16   # BR(~nu_tauL -> ~chi_40 nu_tau)
     3.06136991E-02    2     1000024        15   # BR(~nu_tauL -> ~chi_1+ tau-)
     4.99335175E-01    2     1000037        15   # BR(~nu_tauL -> ~chi_2+ tau-)
#
#         PDG            Width
DECAY   1000024     4.20468749E-01   # chargino1+ decays
#          BR         NDA      ID1       ID2
     1.00000000E+00    2     1000022        24   # BR(~chi_1+ -> ~chi_10  W+)
#
#         PDG            Width
DECAY   1000037     2.14630784E+01   # chargino2+ decays
#          BR         NDA      ID1       ID2
     2.53434996E-01    2     1000024        23   # BR(~chi_2+ -> ~chi_1+  Z )
     1.77975636E-04    2     1000022        24   # BR(~chi_2+ -> ~chi_10  W+)
     2.44572021E-01    2     1000023        24   # BR(~chi_2+ -> ~chi_20  W+)
     2.44280040E-01    2     1000025        24   # BR(~chi_2+ -> ~chi_30  W+)
     2.57532402E-01    2     1000024        25   # BR(~chi_2+ -> ~chi_1+  h )
     2.56553873E-06    2     1000022        37   # BR(~chi_2+ -> ~chi_10  H+)
#
#         PDG            Width
DECAY   1000022     0.00000000E+00   # neutralino1 decays
#
#         PDG            Width
DECAY   1000023     4.34197192E-01   # neutralino2 decays
#          BR         NDA      ID1       ID2
     5.22410024E-01    2     1000022        23   # BR(~chi_20 -> ~chi_10   Z )
     4.77589976E-01    2     1000022        25   # BR(~chi_20 -> ~chi_10   h )
#
#         PDG            Width
DECAY   1000025     4.32069883E-01   # neutralino3 decays
#          BR         NDA      ID1       ID2
     4.83905454E-01    2     1000022        23   # BR(~chi_30 -> ~chi_10   Z )
     5.16094546E-01    2     1000022        25   # BR(~chi_30 -> ~chi_10   h )
#
#         PDG            Width
DECAY   1000035     2.14781703E+01   # neutralino4 decays
#          BR         NDA      ID1       ID2
     2.28869842E-05    2     1000022        23   # BR(~chi_40 -> ~chi_10   Z )
     9.62849424E-02    2     1000023        23   # BR(~chi_40 -> ~chi_20   Z )
     1.56541594E-01    2     1000025        23   # BR(~chi_40 -> ~chi_30   Z )
     2.45023127E-01    2     1000024       -24   # BR(~chi_40 -> ~chi_1+   W-)
     2.45023127E-01    2    -1000024        24   # BR(~chi_40 -> ~chi_1-   W+)
     1.52132683E-04    2     1000022        25   # BR(~chi_40 -> ~chi_10   h )
     2.45122724E-06    2     1000022        35   # BR(~chi_40 -> ~chi_10   H )
     2.79352035E-07    2     1000022        36   # BR(~chi_40 -> ~chi_10   A )
     1.60387377E-01    2     1000023        25   # BR(~chi_40 -> ~chi_20   h )
     9.65620822E-02    2     1000025        25   # BR(~chi_40 -> ~chi_30   h )
#
#         PDG            Width
DECAY        25     4.06327181E-03   # h decays
#          BR         NDA      ID1       ID2
     6.09679671E-01    2           5        -5   # BR(h -> b       bb     )
     6.38179338E-02    2         -15        15   # BR(h -> tau+    tau-   )
     2.25938849E-04    2         -13        13   # BR(h -> mu+     mu-    )
     4.79003875E-04    2           3        -3   # BR(h -> s       sb     )
     2.07550557E-02    2           4        -4   # BR(h -> c       cb     )
     6.70960406E-02    2          21        21   # BR(h -> g       g      )
     2.30570830E-03    2          22        22   # BR(h -> gam     gam    )
     1.48379523E-03    2          22        23   # BR(h -> Z       gam    )
     2.09172359E-01    2          24       -24   # BR(h -> W+      W-     )
     2.49056327E-02    2          23        23   # BR(h -> Z       Z      )
     7.88610597E-05    2     1000022   1000022   # BR(h -> ~chi_10 ~chi_10)
#
#         PDG            Width
DECAY        35     8.47999210E+00   # H decays
#          BR         NDA      ID1       ID2
     3.78107054E-01    2           5        -5   # BR(H -> b       bb     )
     6.56959830E-02    2         -15        15   # BR(H -> tau+    tau-   )
     2.32306214E-04    2         -13        13   # BR(H -> mu+     mu-    )
     2.84771788E-04    2           3        -3   # BR(H -> s       sb     )
     1.59306471E-06    2           4        -4   # BR(H -> c       cb     )
     1.59159784E-01    2           6        -6   # BR(H -> t       tb     )
     5.29138706E-05    2          21        21   # BR(H -> g       g      )
     1.84817728E-07    2          22        22   # BR(H -> gam     gam    )
     9.39404481E-08    2          23        22   # BR(H -> Z       gam    )
     7.48062513E-05    2          24       -24   # BR(H -> W+      W-     )
     3.73557774E-05    2          23        23   # BR(H -> Z       Z      )
     2.74065513E-04    2          25        25   # BR(H -> h       h      )
    -2.85778493E-23    2          36        36   # BR(H -> A       A      )
     8.94935676E-19    2          23        36   # BR(H -> Z       A      )
     2.81433477E-03    2     1000024  -1000024   # BR(H -> ~chi_1+ ~chi_1-)
     3.48095974E-03    2     1000022   1000022   # BR(H -> ~chi_10 ~chi_10)
     1.48457260E-05    2     1000023   1000023   # BR(H -> ~chi_20 ~chi_20)
     1.35576242E-03    2     1000025   1000025   # BR(H -> ~chi_30 ~chi_30)
     2.33784511E-01    2     1000022   1000023   # BR(H -> ~chi_10 ~chi_20)
     1.53108257E-01    2     1000022   1000025   # BR(H -> ~chi_10 ~chi_30)
     1.52041623E-03    2     1000023   1000025   # BR(H -> ~chi_20 ~chi_30)
#
#         PDG            Width
DECAY        36     8.49001083E+00   # A decays
#          BR         NDA      ID1       ID2
     3.77789382E-01    2           5        -5   # BR(A -> b       bb     )
     6.56204145E-02    2         -15        15   # BR(A -> tau+    tau-   )
     2.32038674E-04    2         -13        13   # BR(A -> mu+     mu-    )
     2.84651739E-04    2           3        -3   # BR(A -> s       sb     )
     1.59761850E-06    2           4        -4   # BR(A -> c       cb     )
     1.59526675E-01    2           6        -6   # BR(A -> t       tb     )
     1.57865307E-04    2          21        21   # BR(A -> g       g      )
     5.99859966E-07    2          22        22   # BR(A -> gam     gam    )
     1.91128536E-07    2          23        22   # BR(A -> Z       gam    )
     7.44355643E-05    2          23        25   # BR(A -> Z       h      )
     3.41362677E-03    2     1000024  -1000024   # BR(A -> ~chi_1+ ~chi_1-)
     3.50891572E-03    2     1000022   1000022   # BR(A -> ~chi_10 ~chi_10)
     1.23970168E-05    2     1000023   1000023   # BR(A -> ~chi_20 ~chi_20)
     2.65483771E-03    2     1000025   1000025   # BR(A -> ~chi_30 ~chi_30)
     1.55733033E-01    2     1000022   1000023   # BR(A -> ~chi_10 ~chi_20)
     2.30159804E-01    2     1000022   1000025   # BR(A -> ~chi_10 ~chi_30)
     8.29534028E-04    2     1000023   1000025   # BR(A -> ~chi_20 ~chi_30)
#
#         PDG            Width
DECAY        37     8.43983739E+00   # H+ decays
#          BR         NDA      ID1       ID2
     6.06766993E-04    2           4        -5   # BR(H+ -> c       bb     )
     6.60408560E-02    2         -15        16   # BR(H+ -> tau+    nu_tau )
     2.33525386E-04    2         -13        14   # BR(H+ -> mu+     nu_mu  )
     3.88328849E-06    2           2        -5   # BR(H+ -> u       bb     )
     1.37024849E-05    2           2        -3   # BR(H+ -> u       sb     )
     2.83368287E-04    2           4        -3   # BR(H+ -> c       sb     )
     5.36380671E-01    2           6        -5   # BR(H+ -> t       bb     )
     7.50296634E-05    2          24        25   # BR(H+ -> W+      h      )
     7.75929443E-13    2          24        36   # BR(H+ -> W+      A      )
     3.94437315E-01    2     1000024   1000022   # BR(H+ -> ~chi_1+ ~chi_10)
     1.87040199E-03    2     1000024   1000023   # BR(H+ -> ~chi_1+ ~chi_20)
     5.44793916E-05    2     1000024   1000025   # BR(H+ -> ~chi_1+ ~chi_30)
