#
#                              ======================
#                              | THE SUSYHIT OUTPUT |
#                              ======================
#
#
#              ------------------------------------------------------
#              |     This is the output of the SUSY-HIT package     |
#              |  created by A.Djouadi, M.Muehlleitner and M.Spira. |
#              |  In case of problems with SUSY-HIT email to        |
#              |           margarete.muehlleitner@cern.ch           |
#              |           michael.spira@psi.ch                     |
#              |           abdelhak.djouadi@cern.ch                 |
#              ------------------------------------------------------
#
#              ------------------------------------------------------
#              |  SUSY Les Houches Accord - MSSM Spectrum + Decays  |
#              |              based on the decay programs           |
#              |                                                    |
#              |                     SDECAY 1.3b                    |
#              |                                                    |
#              |  Authors: M.Muhlleitner, A.Djouadi and Y.Mambrini  |
#              |  Ref.:    Comput.Phys.Commun.168(2005)46           |
#              |           [hep-ph/0311167]                         |
#              |                                                    |
#              |                     HDECAY 3.4                     |
#              |                                                    |
#              |  By: A.Djouadi,J.Kalinowski,M.Muhlleitner,M.Spira  |
#              |  Ref.:    Comput.Phys.Commun.108(1998)56           |
#              |           [hep-ph/9704448]                         |
#              |                                                    |
#              |                                                    |
#              |  If not stated otherwise all DRbar couplings and   |
#              |  soft SUSY breaking masses are given at the scale  |
#              |  Q=  0.50007507E+04
#              |                                                    |
#              ------------------------------------------------------
#
#
BLOCK DCINFO  # Decay Program information
     1   SDECAY/HDECAY # decay calculator
     2   1.3b  /3.4    # version number
#
BLOCK SPINFO  # Spectrum calculator information
     1    SOFTSUSY    # spectrum calculator                
     2    3.4.0       # version number                     
#
BLOCK MODSEL  # Model selection
     1     0   #  nonUniversal                                     
#
BLOCK SMINPUTS  # Standard Model inputs
         1     1.25778332E+02   # alpha_em^-1(M_Z)^MSbar
         2     1.16570000E-05   # G_F [GeV^-2]
         3     1.17200002E-01   # alpha_S(M_Z)^MSbar
         4     9.11876000E+01   # M_Z pole mass
         5     4.25000000E+00   # mb(mb)^MSbar
         6     1.72500000E+02   # mt pole mass
         7     1.77682000E+00   # mtau pole mass
#
BLOCK MINPAR  # Input parameters - minimal models
         3     1.00000000E+01   # tanb                
#
BLOCK EXTPAR  # Input parameters - non-minimal models
         0    -1.00000000E+00   # Set                 
         1     6.00000000E+01   # M_1(MX)             
         2     3.00000000E+03   # M_2(MX)             
         3     2.13913300E+03   # M_3(MX)             
        11     5.00000000E+03   # At(MX)              
        12     5.00000000E+03   # Ab(MX)              
        13     0.00000000E+00   # Atau(MX)            
        23    -7.64801000E+02   # mu(MX)              
        26     3.00000000E+03   # mA(pole)            
        31     5.00000000E+03   # meL(MX)             
        32     5.00000000E+03   # mmuL(MX)            
        33     5.00000000E+03   # mtauL(MX)           
        34     5.00000000E+03   # meR(MX)             
        35     5.00000000E+03   # mmuR(MX)            
        36     5.00000000E+03   # mtauR(MX)           
        41     5.00000000E+03   # mqL1(MX)            
        42     5.00000000E+03   # mqL2(MX)            
        43     5.00000000E+03   # mqL3(MX)            
        44     5.00000000E+03   # muR(MX)             
        45     5.00000000E+03   # mcR(MX)             
        46     5.00000000E+03   # mtR(MX)             
        47     5.00000000E+03   # mdR(MX)             
        48     5.00000000E+03   # msR(MX)             
        49     5.00000000E+03   # mbR(MX)             
#
BLOCK MASS  # Mass Spectrum
# PDG code           mass       particle
        24     8.00947787E+01   # W+
        25     1.24813714E+02   # h
        35     3.00008296E+03   # H
        36     2.99999762E+03   # A
        37     3.00136076E+03   # H+
         5     4.87878001E+00   # b-quark pole mass calculated from mb(mb)_Msbar
   1000001     5.07995135E+03   # ~d_L
   2000001     5.06216707E+03   # ~d_R
   1000002     5.07947998E+03   # ~u_L
   2000002     5.06187687E+03   # ~u_R
   1000003     5.07995135E+03   # ~s_L
   2000003     5.06216707E+03   # ~s_R
   1000004     5.07947998E+03   # ~c_L
   2000004     5.06187687E+03   # ~c_R
   1000005     5.02564591E+03   # ~b_1
   2000005     5.06054304E+03   # ~b_2
   1000006     4.91742698E+03   # ~t_1
   2000006     5.06937856E+03   # ~t_2
   1000011     5.01908083E+03   # ~e_L
   2000011     5.00593120E+03   # ~e_R
   1000012     5.01813187E+03   # ~nu_eL
   1000013     5.01908083E+03   # ~mu_L
   2000013     5.00593120E+03   # ~mu_R
   1000014     5.01813187E+03   # ~nu_muL
   1000015     5.00468704E+03   # ~tau_1
   2000015     5.01869655E+03   # ~tau_2
   1000016     5.01758348E+03   # ~nu_tauL
   1000021     2.50000040E+03   # ~g
   1000022     6.02875408E+01   # ~chi_10
   1000023     7.99842234E+02   # ~chi_20
   1000025    -8.02072595E+02   # ~chi_30
   1000035     3.07420742E+03   # ~chi_40
   1000024     8.00000295E+02   # ~chi_1+
   1000037     3.07437491E+03   # ~chi_2+
#
BLOCK NMIX  # Neutralino Mixing Matrix
  1  1     9.98452030E-01   # N_11
  1  2     2.07826547E-04   # N_12
  1  3    -5.55962854E-02   # N_13
  1  4     1.59784265E-03   # N_14
  2  1     3.81982116E-02   # N_21
  2  2     2.14525551E-02   # N_22
  2  3     7.06384779E-01   # N_23
  2  4     7.06470968E-01   # N_24
  3  1    -4.04262973E-02   # N_31
  3  2     1.56878975E-02   # N_32
  3  3    -7.05629507E-01   # N_33
  3  4     7.07252856E-01   # N_34
  4  1    -3.92889252E-04   # N_41
  4  2     9.99646755E-01   # N_42
  4  3    -4.07379963E-03   # N_43
  4  4    -2.62605262E-02   # N_44
#
BLOCK UMIX  # Chargino Mixing Matrix U
  1  1     5.77200792E-03   # U_11
  1  2     9.99983342E-01   # U_12
  2  1    -9.99983342E-01   # U_21
  2  2     5.77200792E-03   # U_22
#
BLOCK VMIX  # Chargino Mixing Matrix V
  1  1     3.71662320E-02   # V_11
  1  2    -9.99309097E-01   # V_12
  2  1    -9.99309097E-01   # V_21
  2  2    -3.71662320E-02   # V_22
#
BLOCK STOPMIX  # Stop Mixing Matrix
  1  1    -5.03582974E-01   # cos(theta_t)
  1  2     8.63946867E-01   # sin(theta_t)
  2  1    -8.63946867E-01   # -sin(theta_t)
  2  2    -5.03582974E-01   # cos(theta_t)
#
BLOCK SBOTMIX  # Sbottom Mixing Matrix
  1  1     9.97873082E-01   # cos(theta_b)
  1  2    -6.51867488E-02   # sin(theta_b)
  2  1     6.51867488E-02   # -sin(theta_b)
  2  2     9.97873082E-01   # cos(theta_b)
#
BLOCK STAUMIX  # Stau Mixing Matrix
  1  1    -9.13609501E-02   # cos(theta_tau)
  1  2     9.95817843E-01   # sin(theta_tau)
  2  1    -9.95817843E-01   # -sin(theta_tau)
  2  2    -9.13609501E-02   # cos(theta_tau)
#
BLOCK ALPHA  # Higgs mixing
          -1.05485854E-01   # Mixing angle in the neutral Higgs boson sector
#
BLOCK HMIX Q=  5.00075073E+03  # DRbar Higgs Parameters
         1    -7.78860657E+02   # mu(Q)MSSM           
         2     9.46895476E+00   # tan                 
         3     2.41811900E+02   # higgs               
         4     8.57833130E+06   # mA^2(Q)MSSM         
#
BLOCK GAUGE Q=  5.00075073E+03  # The gauge couplings
     1     3.70839008E-01   # gprime(Q) DRbar
     2     6.32773357E-01   # g(Q) DRbar
     3     9.95213393E-01   # g3(Q) DRbar
#
BLOCK AU Q=  5.00075073E+03  # The trilinear couplings
  1  1     5.00000002E+03   # A_u(Q) DRbar
  2  2     5.00000002E+03   # A_c(Q) DRbar
  3  3     5.00000002E+03   # A_t(Q) DRbar
#
BLOCK AD Q=  5.00075073E+03  # The trilinear couplings
  1  1     5.00000001E+03   # A_d(Q) DRbar
  2  2     5.00000001E+03   # A_s(Q) DRbar
  3  3     5.00000001E+03   # A_b(Q) DRbar
#
BLOCK AE Q=  5.00075073E+03  # The trilinear couplings
  1  1     0.00000000E+00   # A_e(Q) DRbar
  2  2     2.48705616E-07   # A_mu(Q) DRbar
  3  3     2.48636356E-07   # A_tau(Q) DRbar
#
BLOCK Yu Q=  5.00075073E+03  # The Yukawa couplings
  1  1     0.00000000E+00   # y_u(Q) DRbar
  2  2     0.00000000E+00   # y_c(Q) DRbar
  3  3     8.21172147E-01   # y_t(Q) DRbar
#
BLOCK Yd Q=  5.00075073E+03  # The Yukawa couplings
  1  1     0.00000000E+00   # y_d(Q) DRbar
  2  2     0.00000000E+00   # y_s(Q) DRbar
  3  3     1.30708015E-01   # y_b(Q) DRbar
#
BLOCK Ye Q=  5.00075073E+03  # The Yukawa couplings
  1  1     0.00000000E+00   # y_e(Q) DRbar
  2  2     0.00000000E+00   # y_mu(Q) DRbar
  3  3     9.69550545E-02   # y_tau(Q) DRbar
#
BLOCK MSOFT Q=  5.00075073E+03  # The soft SUSY breaking masses at the scale Q
         1     6.00000000E+01   # M_1(Q)              
         2     3.00000000E+03   # M_2(Q)              
         3     2.13913300E+03   # M_3(Q)              
        21     8.10282710E+06   # mH1^2(Q)            
        22    -3.52277251E+04   # mH2^2(Q)            
        31     5.00000000E+03   # meL(Q)              
        32     5.00000000E+03   # mmuL(Q)             
        33     5.00000000E+03   # mtauL(Q)            
        34     5.00000000E+03   # meR(Q)              
        35     5.00000000E+03   # mmuR(Q)             
        36     5.00000000E+03   # mtauR(Q)            
        41     4.99999999E+03   # mqL1(Q)             
        42     4.99999999E+03   # mqL2(Q)             
        43     4.99999999E+03   # mqL3(Q)             
        44     4.99999999E+03   # muR(Q)              
        45     4.99999999E+03   # mcR(Q)              
        46     4.99999999E+03   # mtR(Q)              
        47     4.99999999E+03   # mdR(Q)              
        48     4.99999999E+03   # msR(Q)              
        49     4.99999999E+03   # mbR(Q)              
#
#
#
#                             =================
#                             |The decay table|
#                             =================
#
# - The QCD corrections to the decays gluino -> squark  + quark
#                                     squark -> gaugino + quark_prime
#                                     squark -> squark_prime + Higgs
#                                     squark -> gluino  + quark
#   are included.
#
# - The multi-body decays for the inos, stops and sbottoms are included.
#
# - The loop induced decays for the gluino, neutralinos and stops
#   are included.
#
# - The SUSY decays of the top quark are included.
#
#
#         PDG            Width
DECAY         6     1.40315457E+00   # top decays
#          BR         NDA      ID1       ID2
     1.00000000E+00    2           5        24   # BR(t ->  b    W+)
#
#         PDG            Width
DECAY   1000021     4.94709215E-03   # gluino decays
#          BR         NDA      ID1       ID2
     1.25436451E-06    2     1000022        21   # BR(~g -> ~chi_10 g)
     5.00271272E-03    2     1000023        21   # BR(~g -> ~chi_20 g)
     4.90255403E-03    2     1000025        21   # BR(~g -> ~chi_30 g)
#           BR         NDA      ID1       ID2       ID3
     1.52773918E-02    3     1000022         1        -1   # BR(~g -> ~chi_10 d  db)
     2.19311739E-05    3     1000023         1        -1   # BR(~g -> ~chi_20 d  db)
     1.95104628E-05    3     1000025         1        -1   # BR(~g -> ~chi_30 d  db)
     5.20995535E-02    3     1000022         2        -2   # BR(~g -> ~chi_10 u  ub)
     9.05156240E-05    3     1000023         2        -2   # BR(~g -> ~chi_20 u  ub)
     2.59045319E-05    3     1000025         2        -2   # BR(~g -> ~chi_30 u  ub)
     1.52773918E-02    3     1000022         3        -3   # BR(~g -> ~chi_10 s  sb)
     2.19311739E-05    3     1000023         3        -3   # BR(~g -> ~chi_20 s  sb)
     1.95104628E-05    3     1000025         3        -3   # BR(~g -> ~chi_30 s  sb)
     5.20995535E-02    3     1000022         4        -4   # BR(~g -> ~chi_10 c  cb)
     9.05156240E-05    3     1000023         4        -4   # BR(~g -> ~chi_20 c  cb)
     2.59045319E-05    3     1000025         4        -4   # BR(~g -> ~chi_30 c  cb)
     1.55277221E-02    3     1000022         5        -5   # BR(~g -> ~chi_10 b  bb)
     5.04497956E-03    3     1000023         5        -5   # BR(~g -> ~chi_20 b  bb)
     5.00439846E-03    3     1000025         5        -5   # BR(~g -> ~chi_30 b  bb)
     5.30961793E-02    3     1000022         6        -6   # BR(~g -> ~chi_10 t  tb)
     1.93634294E-01    3     1000023         6        -6   # BR(~g -> ~chi_20 t  tb)
     1.80723369E-01    3     1000025         6        -6   # BR(~g -> ~chi_30 t  tb)
     5.98391532E-05    3     1000024         1        -2   # BR(~g -> ~chi_1+ d  ub)
     5.98391532E-05    3    -1000024         2        -1   # BR(~g -> ~chi_1- u  db)
     5.98391532E-05    3     1000024         3        -4   # BR(~g -> ~chi_1+ s  cb)
     5.98391532E-05    3    -1000024         4        -3   # BR(~g -> ~chi_1- c  sb)
     2.00876783E-01    3     1000024         5        -6   # BR(~g -> ~chi_1+ b  tb)
     2.00876783E-01    3    -1000024         6        -5   # BR(~g -> ~chi_1- t  bb)
#
#         PDG            Width
DECAY   1000006     2.97763142E+02   # stop1 decays
#          BR         NDA      ID1       ID2
     2.98467754E-02    2     1000022         6   # BR(~t_1 -> ~chi_10 t )
     1.05623868E-01    2     1000023         6   # BR(~t_1 -> ~chi_20 t )
     1.01237283E-01    2     1000025         6   # BR(~t_1 -> ~chi_30 t )
     6.81581225E-03    2     1000035         6   # BR(~t_1 -> ~chi_40 t )
     1.54952682E-01    2     1000024         5   # BR(~t_1 -> ~chi_1+ b )
     1.35833233E-02    2     1000037         5   # BR(~t_1 -> ~chi_2+ b )
     5.87940257E-01    2     1000021         6   # BR(~t_1 -> ~g      t )
#
#         PDG            Width
DECAY   2000006     3.05799520E+02   # stop2 decays
#          BR         NDA      ID1       ID2
     1.11665902E-02    2     1000022         6   # BR(~t_2 -> ~chi_10 t )
     1.04743446E-01    2     1000023         6   # BR(~t_2 -> ~chi_20 t )
     1.09482394E-01    2     1000025         6   # BR(~t_2 -> ~chi_30 t )
     1.84550467E-02    2     1000035         6   # BR(~t_2 -> ~chi_40 t )
     6.08398581E-02    2     1000024         5   # BR(~t_2 -> ~chi_1+ b )
     3.67329399E-02    2     1000037         5   # BR(~t_2 -> ~chi_2+ b )
     6.54638117E-01    2     1000021         6   # BR(~t_2 -> ~g      t )
     9.06619672E-04    2     1000006        25   # BR(~t_2 -> ~t_1    h )
     3.03498848E-03    2     1000006        23   # BR(~t_2 -> ~t_1    Z )
#
#         PDG            Width
DECAY   1000005     2.80288902E+02   # sbottom1 decays
#          BR         NDA      ID1       ID2
     2.74806002E-03    2     1000022         5   # BR(~b_1 -> ~chi_10 b )
     2.90240987E-03    2     1000023         5   # BR(~b_1 -> ~chi_20 b )
     2.85316579E-03    2     1000025         5   # BR(~b_1 -> ~chi_30 b )
     2.71025777E-02    2     1000035         5   # BR(~b_1 -> ~chi_40 b )
     2.27262197E-01    2    -1000024         6   # BR(~b_1 -> ~chi_1- t )
     5.44350267E-02    2    -1000037         6   # BR(~b_1 -> ~chi_2- t )
     6.80762836E-01    2     1000021         5   # BR(~b_1 -> ~g      b )
     1.93372663E-03    2     1000006       -24   # BR(~b_1 -> ~t_1    W-)
#
#         PDG            Width
DECAY   2000005     2.00240691E+02   # sbottom2 decays
#          BR         NDA      ID1       ID2
     1.46497144E-02    2     1000022         5   # BR(~b_2 -> ~chi_10 b )
     4.10180952E-03    2     1000023         5   # BR(~b_2 -> ~chi_20 b )
     4.18724938E-03    2     1000025         5   # BR(~b_2 -> ~chi_30 b )
     1.56327390E-04    2     1000035         5   # BR(~b_2 -> ~chi_40 b )
     9.40775690E-03    2    -1000024         6   # BR(~b_2 -> ~chi_1- t )
     3.13972909E-04    2    -1000037         6   # BR(~b_2 -> ~chi_2- t )
     9.67133739E-01    2     1000021         5   # BR(~b_2 -> ~g      b )
     4.94308030E-05    2     1000006       -24   # BR(~b_2 -> ~t_1    W-)
#
#         PDG            Width
DECAY   1000002     2.19725405E+02   # sup_L decays
#          BR         NDA      ID1       ID2
     3.38798900E-03    2     1000022         2   # BR(~u_L -> ~chi_10 u)
     7.08135108E-05    2     1000023         2   # BR(~u_L -> ~chi_20 u)
     5.13923771E-06    2     1000025         2   # BR(~u_L -> ~chi_30 u)
     3.59574148E-02    2     1000035         2   # BR(~u_L -> ~chi_40 u)
     2.33991259E-04    2     1000024         1   # BR(~u_L -> ~chi_1+ d)
     7.18683144E-02    2     1000037         1   # BR(~u_L -> ~chi_2+ d)
     8.88476338E-01    2     1000021         2   # BR(~u_L -> ~g      u)
#
#         PDG            Width
DECAY   2000002     2.05557170E+02   # sup_R decays
#          BR         NDA      ID1       ID2
     5.76166568E-02    2     1000022         2   # BR(~u_R -> ~chi_10 u)
     8.03496536E-05    2     1000023         2   # BR(~u_R -> ~chi_20 u)
     8.99712316E-05    2     1000025         2   # BR(~u_R -> ~chi_30 u)
     3.58435649E-09    2     1000035         2   # BR(~u_R -> ~chi_40 u)
     9.42213019E-01    2     1000021         2   # BR(~u_R -> ~g      u)
#
#         PDG            Width
DECAY   1000001     2.19741722E+02   # sdown_L decays
#          BR         NDA      ID1       ID2
     3.37364847E-03    2     1000022         1   # BR(~d_L -> ~chi_10 d)
     1.65790544E-05    2     1000023         1   # BR(~d_L -> ~chi_20 d)
     4.71034209E-05    2     1000025         1   # BR(~d_L -> ~chi_30 d)
     3.59767947E-02    2     1000035         1   # BR(~d_L -> ~chi_40 d)
     5.64376754E-06    2    -1000024         2   # BR(~d_L -> ~chi_1- u)
     7.19820075E-02    2    -1000037         2   # BR(~d_L -> ~chi_2- u)
     8.88598223E-01    2     1000021         1   # BR(~d_L -> ~g      d)
#
#         PDG            Width
DECAY   2000001     1.96673880E+02   # sdown_R decays
#          BR         NDA      ID1       ID2
     1.50556456E-02    2     1000022         1   # BR(~d_R -> ~chi_10 d)
     2.09960579E-05    2     1000023         1   # BR(~d_R -> ~chi_20 d)
     2.35102600E-05    2     1000025         1   # BR(~d_R -> ~chi_30 d)
     9.36741745E-10    2     1000035         1   # BR(~d_R -> ~chi_40 d)
     9.84899847E-01    2     1000021         1   # BR(~d_R -> ~g      d)
#
#         PDG            Width
DECAY   1000004     2.19725405E+02   # scharm_L decays
#          BR         NDA      ID1       ID2
     3.38798900E-03    2     1000022         4   # BR(~c_L -> ~chi_10 c)
     7.08135108E-05    2     1000023         4   # BR(~c_L -> ~chi_20 c)
     5.13923771E-06    2     1000025         4   # BR(~c_L -> ~chi_30 c)
     3.59574148E-02    2     1000035         4   # BR(~c_L -> ~chi_40 c)
     2.33991259E-04    2     1000024         3   # BR(~c_L -> ~chi_1+ s)
     7.18683144E-02    2     1000037         3   # BR(~c_L -> ~chi_2+ s)
     8.88476338E-01    2     1000021         4   # BR(~c_L -> ~g      c)
#
#         PDG            Width
DECAY   2000004     2.05557170E+02   # scharm_R decays
#          BR         NDA      ID1       ID2
     5.76166568E-02    2     1000022         4   # BR(~c_R -> ~chi_10 c)
     8.03496536E-05    2     1000023         4   # BR(~c_R -> ~chi_20 c)
     8.99712316E-05    2     1000025         4   # BR(~c_R -> ~chi_30 c)
     3.58435649E-09    2     1000035         4   # BR(~c_R -> ~chi_40 c)
     9.42213019E-01    2     1000021         4   # BR(~c_R -> ~g      c)
#
#         PDG            Width
DECAY   1000003     2.19741722E+02   # sstrange_L decays
#          BR         NDA      ID1       ID2
     3.37364847E-03    2     1000022         3   # BR(~s_L -> ~chi_10 s)
     1.65790544E-05    2     1000023         3   # BR(~s_L -> ~chi_20 s)
     4.71034209E-05    2     1000025         3   # BR(~s_L -> ~chi_30 s)
     3.59767947E-02    2     1000035         3   # BR(~s_L -> ~chi_40 s)
     5.64376754E-06    2    -1000024         4   # BR(~s_L -> ~chi_1- c)
     7.19820075E-02    2    -1000037         4   # BR(~s_L -> ~chi_2- c)
     8.88598223E-01    2     1000021         3   # BR(~s_L -> ~g      s)
#
#         PDG            Width
DECAY   2000003     1.96673880E+02   # sstrange_R decays
#          BR         NDA      ID1       ID2
     1.50556456E-02    2     1000022         3   # BR(~s_R -> ~chi_10 s)
     2.09960579E-05    2     1000023         3   # BR(~s_R -> ~chi_20 s)
     2.35102600E-05    2     1000025         3   # BR(~s_R -> ~chi_30 s)
     9.36741745E-10    2     1000035         3   # BR(~s_R -> ~chi_40 s)
     9.84899847E-01    2     1000021         3   # BR(~s_R -> ~g      s)
#
#         PDG            Width
DECAY   1000011     3.02889384E+01   # selectron_L decays
#          BR         NDA      ID1       ID2
     2.26072965E-01    2     1000022        11   # BR(~e_L -> ~chi_10 e-)
     1.20478513E-03    2     1000023        11   # BR(~e_L -> ~chi_20 e-)
     4.01503206E-05    2     1000025        11   # BR(~e_L -> ~chi_30 e-)
     2.57374564E-01    2     1000035        11   # BR(~e_L -> ~chi_40 e-)
     4.17703567E-05    2    -1000024        12   # BR(~e_L -> ~chi_1- nu_e)
     5.15265766E-01    2    -1000037        12   # BR(~e_L -> ~chi_2- nu_e)
#
#         PDG            Width
DECAY   2000011     2.73792948E+01   # selectron_R decays
#          BR         NDA      ID1       ID2
     9.97061624E-01    2     1000022        11   # BR(~e_R -> ~chi_10 e-)
     1.38617229E-03    2     1000023        11   # BR(~e_R -> ~chi_20 e-)
     1.55214393E-03    2     1000025        11   # BR(~e_R -> ~chi_30 e-)
     5.99131352E-08    2     1000035        11   # BR(~e_R -> ~chi_40 e-)
#
#         PDG            Width
DECAY   1000013     3.02889384E+01   # smuon_L decays
#          BR         NDA      ID1       ID2
     2.26072965E-01    2     1000022        13   # BR(~mu_L -> ~chi_10 mu-)
     1.20478513E-03    2     1000023        13   # BR(~mu_L -> ~chi_20 mu-)
     4.01503206E-05    2     1000025        13   # BR(~mu_L -> ~chi_30 mu-)
     2.57374564E-01    2     1000035        13   # BR(~mu_L -> ~chi_40 mu-)
     4.17703567E-05    2    -1000024        14   # BR(~mu_L -> ~chi_1- nu_mu)
     5.15265766E-01    2    -1000037        14   # BR(~mu_L -> ~chi_2- nu_mu)
#
#         PDG            Width
DECAY   2000013     2.73792948E+01   # smuon_R decays
#          BR         NDA      ID1       ID2
     9.97061624E-01    2     1000022        13   # BR(~mu_R -> ~chi_10 mu-)
     1.38617229E-03    2     1000023        13   # BR(~mu_R -> ~chi_20 mu-)
     1.55214393E-03    2     1000025        13   # BR(~mu_R -> ~chi_30 mu-)
     5.99131352E-08    2     1000035        13   # BR(~mu_R -> ~chi_40 mu-)
#
#         PDG            Width
DECAY   1000015     2.91714566E+01   # stau_1 decays
#          BR         NDA      ID1       ID2
     9.30692789E-01    2     1000022        15   # BR(~tau_1 -> ~chi_10  tau-)
     1.64845389E-02    2     1000023        15   # BR(~tau_1 -> ~chi_20  tau-)
     1.58996654E-02    2     1000025        15   # BR(~tau_1 -> ~chi_30  tau-)
     2.16652274E-03    2     1000035        15   # BR(~tau_1 -> ~chi_40  tau-)
     3.04193028E-02    2    -1000024        16   # BR(~tau_1 -> ~chi_1-  nu_tau)
     4.33718088E-03    2    -1000037        16   # BR(~tau_1 -> ~chi_2-  nu_tau)
#
#         PDG            Width
DECAY   2000015     3.11509488E+01   # stau_2 decays
#          BR         NDA      ID1       ID2
     2.24570030E-01    2     1000022        15   # BR(~tau_2 -> ~chi_10  tau-)
     1.54682139E-02    2     1000023        15   # BR(~tau_2 -> ~chi_20  tau-)
     1.49631134E-02    2     1000025        15   # BR(~tau_2 -> ~chi_30  tau-)
     2.48138983E-01    2     1000035        15   # BR(~tau_2 -> ~chi_40  tau-)
     8.29745493E-05    2    -1000024        16   # BR(~tau_2 -> ~chi_1-  nu_tau)
     4.96776686E-01    2    -1000037        16   # BR(~tau_2 -> ~chi_2-  nu_tau)
#
#         PDG            Width
DECAY   1000012     3.02919468E+01   # snu_eL decays
#          BR         NDA      ID1       ID2
     2.25686891E-01    2     1000022        12   # BR(~nu_eL -> ~chi_10 nu_e)
     5.46282163E-07    2     1000023        12   # BR(~nu_eL -> ~chi_20 nu_e)
     9.71586664E-04    2     1000025        12   # BR(~nu_eL -> ~chi_30 nu_e)
     2.57420553E-01    2     1000035        12   # BR(~nu_eL -> ~chi_40 nu_e)
     1.73132100E-03    2     1000024        11   # BR(~nu_eL -> ~chi_1+ e-)
     5.14189102E-01    2     1000037        11   # BR(~nu_eL -> ~chi_2+ e-)
#
#         PDG            Width
DECAY   1000014     3.02919468E+01   # snu_muL decays
#          BR         NDA      ID1       ID2
     2.25686891E-01    2     1000022        14   # BR(~nu_muL -> ~chi_10 nu_mu)
     5.46282163E-07    2     1000023        14   # BR(~nu_muL -> ~chi_20 nu_mu)
     9.71586664E-04    2     1000025        14   # BR(~nu_muL -> ~chi_30 nu_mu)
     2.57420553E-01    2     1000035        14   # BR(~nu_muL -> ~chi_40 nu_mu)
     1.73132100E-03    2     1000024        13   # BR(~nu_muL -> ~chi_1+ mu-)
     5.14189102E-01    2     1000037        13   # BR(~nu_muL -> ~chi_2+ mu-)
#
#         PDG            Width
DECAY   1000016     3.11737500E+01   # snu_tauL decays
#          BR         NDA      ID1       ID2
     2.19278969E-01    2     1000022        16   # BR(~nu_tauL -> ~chi_10 nu_tau)
     5.30765573E-07    2     1000023        16   # BR(~nu_tauL -> ~chi_20 nu_tau)
     9.43989669E-04    2     1000025        16   # BR(~nu_tauL -> ~chi_30 nu_tau)
     2.50045944E-01    2     1000035        16   # BR(~nu_tauL -> ~chi_40 nu_tau)
     3.02725697E-02    2     1000024        15   # BR(~nu_tauL -> ~chi_1+ tau-)
     4.99457996E-01    2     1000037        15   # BR(~nu_tauL -> ~chi_2+ tau-)
#
#         PDG            Width
DECAY   1000024     4.83284406E-01   # chargino1+ decays
#          BR         NDA      ID1       ID2
     1.00000000E+00    2     1000022        24   # BR(~chi_1+ -> ~chi_10  W+)
#
#         PDG            Width
DECAY   1000037     2.11118555E+01   # chargino2+ decays
#          BR         NDA      ID1       ID2
     2.53358142E-01    2     1000024        23   # BR(~chi_2+ -> ~chi_1+  Z )
     1.84740150E-04    2     1000022        24   # BR(~chi_2+ -> ~chi_10  W+)
     2.44401855E-01    2     1000023        24   # BR(~chi_2+ -> ~chi_20  W+)
     2.44218098E-01    2     1000025        24   # BR(~chi_2+ -> ~chi_30  W+)
     2.57835241E-01    2     1000024        25   # BR(~chi_2+ -> ~chi_1+  h )
     1.92293353E-06    2     1000022        37   # BR(~chi_2+ -> ~chi_10  H+)
#
#         PDG            Width
DECAY   1000022     0.00000000E+00   # neutralino1 decays
#
#         PDG            Width
DECAY   1000023     5.01676514E-01   # neutralino2 decays
#          BR         NDA      ID1       ID2
     5.29410233E-01    2     1000022        23   # BR(~chi_20 -> ~chi_10   Z )
     4.70589767E-01    2     1000022        25   # BR(~chi_20 -> ~chi_10   h )
#
#         PDG            Width
DECAY   1000025     5.01471503E-01   # neutralino3 decays
#          BR         NDA      ID1       ID2
     4.69496935E-01    2     1000022        23   # BR(~chi_30 -> ~chi_10   Z )
     5.30503065E-01    2     1000022        25   # BR(~chi_30 -> ~chi_10   h )
#
#         PDG            Width
DECAY   1000035     2.11276105E+01   # neutralino4 decays
#          BR         NDA      ID1       ID2
     3.18516930E-05    2     1000022        23   # BR(~chi_40 -> ~chi_10   Z )
     8.82315124E-02    2     1000023        23   # BR(~chi_40 -> ~chi_20   Z )
     1.64466534E-01    2     1000025        23   # BR(~chi_40 -> ~chi_30   Z )
     2.44938846E-01    2     1000024       -24   # BR(~chi_40 -> ~chi_1+   W-)
     2.44938846E-01    2    -1000024        24   # BR(~chi_40 -> ~chi_1-   W+)
     1.51498379E-04    2     1000022        25   # BR(~chi_40 -> ~chi_10   h )
     1.83156620E-06    2     1000022        35   # BR(~chi_40 -> ~chi_10   H )
     2.13566041E-07    2     1000022        36   # BR(~chi_40 -> ~chi_10   A )
     1.68740616E-01    2     1000023        25   # BR(~chi_40 -> ~chi_20   h )
     8.84982497E-02    2     1000025        25   # BR(~chi_40 -> ~chi_30   h )
#
#         PDG            Width
DECAY        25     4.06380523E-03   # h decays
#          BR         NDA      ID1       ID2
     6.07585171E-01    2           5        -5   # BR(h -> b       bb     )
     6.38480957E-02    2         -15        15   # BR(h -> tau+    tau-   )
     2.26045296E-04    2         -13        13   # BR(h -> mu+     mu-    )
     4.79172259E-04    2           3        -3   # BR(h -> s       sb     )
     2.07625979E-02    2           4        -4   # BR(h -> c       cb     )
     6.72088282E-02    2          21        21   # BR(h -> g       g      )
     2.31146989E-03    2          22        22   # BR(h -> gam     gam    )
     1.49394282E-03    2          22        23   # BR(h -> Z       gam    )
     2.10868299E-01    2          24       -24   # BR(h -> W+      W-     )
     2.51435003E-02    2          23        23   # BR(h -> Z       Z      )
     7.28776714E-05    2     1000022   1000022   # BR(h -> ~chi_10 ~chi_10)
#
#         PDG            Width
DECAY        35     8.36794746E+00   # H decays
#          BR         NDA      ID1       ID2
     3.84137055E-01    2           5        -5   # BR(H -> b       bb     )
     6.65643528E-02    2         -15        15   # BR(H -> tau+    tau-   )
     2.35376839E-04    2         -13        13   # BR(H -> mu+     mu-    )
     2.88535896E-04    2           3        -3   # BR(H -> s       sb     )
     1.61464894E-06    2           4        -4   # BR(H -> c       cb     )
     1.61316218E-01    2           6        -6   # BR(H -> t       tb     )
     5.36271373E-05    2          21        21   # BR(H -> g       g      )
     2.09653252E-07    2          22        22   # BR(H -> gam     gam    )
     9.52431104E-08    2          23        22   # BR(H -> Z       gam    )
     7.54564125E-05    2          24       -24   # BR(H -> W+      W-     )
     3.76804502E-05    2          23        23   # BR(H -> Z       Z      )
     2.77131927E-04    2          25        25   # BR(H -> h       h      )
    -1.59864787E-25    2          36        36   # BR(H -> A       A      )
     8.37702913E-19    2          23        36   # BR(H -> Z       A      )
     2.57745876E-03    2     1000024  -1000024   # BR(H -> ~chi_1+ ~chi_1-)
     2.69794384E-03    2     1000022   1000022   # BR(H -> ~chi_10 ~chi_10)
     4.86639757E-07    2     1000023   1000023   # BR(H -> ~chi_20 ~chi_20)
     1.01750819E-03    2     1000025   1000025   # BR(H -> ~chi_30 ~chi_30)
     2.28931123E-01    2     1000022   1000023   # BR(H -> ~chi_10 ~chi_20)
     1.50725601E-01    2     1000022   1000025   # BR(H -> ~chi_10 ~chi_30)
     1.06252488E-03    2     1000023   1000025   # BR(H -> ~chi_20 ~chi_30)
#
#         PDG            Width
DECAY        36     8.37986841E+00   # A decays
#          BR         NDA      ID1       ID2
     3.83720603E-01    2           5        -5   # BR(A -> b       bb     )
     6.64716245E-02    2         -15        15   # BR(A -> tau+    tau-   )
     2.35048615E-04    2         -13        13   # BR(A -> mu+     mu-    )
     2.88344199E-04    2           3        -3   # BR(A -> s       sb     )
     1.61889080E-06    2           4        -4   # BR(A -> c       cb     )
     1.61650773E-01    2           6        -6   # BR(A -> t       tb     )
     1.59956082E-04    2          21        21   # BR(A -> g       g      )
     5.96181197E-07    2          22        22   # BR(A -> gam     gam    )
     1.93706932E-07    2          23        22   # BR(A -> Z       gam    )
     7.50637680E-05    2          23        25   # BR(A -> Z       h      )
     3.36834781E-03    2     1000024  -1000024   # BR(A -> ~chi_1+ ~chi_1-)
     2.73154520E-03    2     1000022   1000022   # BR(A -> ~chi_10 ~chi_10)
     4.44112952E-07    2     1000023   1000023   # BR(A -> ~chi_20 ~chi_20)
     2.17774947E-03    2     1000025   1000025   # BR(A -> ~chi_30 ~chi_30)
     1.53022545E-01    2     1000022   1000023   # BR(A -> ~chi_10 ~chi_20)
     2.25606999E-01    2     1000022   1000025   # BR(A -> ~chi_10 ~chi_30)
     4.88547281E-04    2     1000023   1000025   # BR(A -> ~chi_20 ~chi_30)
#
#         PDG            Width
DECAY        37     8.34188355E+00   # H+ decays
#          BR         NDA      ID1       ID2
     6.17760184E-04    2           4        -5   # BR(H+ -> c       bb     )
     6.68046447E-02    2         -15        16   # BR(H+ -> tau+    nu_tau )
     2.36226200E-04    2         -13        14   # BR(H+ -> mu+     nu_mu  )
     3.95364465E-06    2           2        -5   # BR(H+ -> u       bb     )
     1.38609696E-05    2           2        -3   # BR(H+ -> u       sb     )
     2.86646289E-04    2           4        -3   # BR(H+ -> c       sb     )
     5.45119431E-01    2           6        -5   # BR(H+ -> t       bb     )
     7.55570386E-05    2          24        25   # BR(H+ -> W+      h      )
     7.41411551E-13    2          24        36   # BR(H+ -> W+      A      )
     3.85378589E-01    2     1000024   1000022   # BR(H+ -> ~chi_1+ ~chi_10)
     1.43918706E-03    2     1000024   1000023   # BR(H+ -> ~chi_1+ ~chi_20)
     2.41435180E-05    2     1000024   1000025   # BR(H+ -> ~chi_1+ ~chi_30)
