#
#                              ======================
#                              | THE SUSYHIT OUTPUT |
#                              ======================
#
#
#              ------------------------------------------------------
#              |     This is the output of the SUSY-HIT package     |
#              |  created by A.Djouadi, M.Muehlleitner and M.Spira. |
#              |  In case of problems with SUSY-HIT email to        |
#              |           margarete.muehlleitner@cern.ch           |
#              |           michael.spira@psi.ch                     |
#              |           abdelhak.djouadi@cern.ch                 |
#              ------------------------------------------------------
#
#              ------------------------------------------------------
#              |  SUSY Les Houches Accord - MSSM Spectrum + Decays  |
#              |              based on the decay programs           |
#              |                                                    |
#              |                     SDECAY 1.3b                    |
#              |                                                    |
#              |  Authors: M.Muhlleitner, A.Djouadi and Y.Mambrini  |
#              |  Ref.:    Comput.Phys.Commun.168(2005)46           |
#              |           [hep-ph/0311167]                         |
#              |                                                    |
#              |                     HDECAY 3.4                     |
#              |                                                    |
#              |  By: A.Djouadi,J.Kalinowski,M.Muhlleitner,M.Spira  |
#              |  Ref.:    Comput.Phys.Commun.108(1998)56           |
#              |           [hep-ph/9704448]                         |
#              |                                                    |
#              |                                                    |
#              |  If not stated otherwise all DRbar couplings and   |
#              |  soft SUSY breaking masses are given at the scale  |
#              |  Q=  0.50007514E+04
#              |                                                    |
#              ------------------------------------------------------
#
#
BLOCK DCINFO  # Decay Program information
     1   SDECAY/HDECAY # decay calculator
     2   1.3b  /3.4    # version number
#
BLOCK SPINFO  # Spectrum calculator information
     1    SOFTSUSY    # spectrum calculator                
     2    3.4.0       # version number                     
#
BLOCK MODSEL  # Model selection
     1     0   #  nonUniversal                                     
#
BLOCK SMINPUTS  # Standard Model inputs
         1     1.25778332E+02   # alpha_em^-1(M_Z)^MSbar
         2     1.16570000E-05   # G_F [GeV^-2]
         3     1.17200002E-01   # alpha_S(M_Z)^MSbar
         4     9.11876000E+01   # M_Z pole mass
         5     4.25000000E+00   # mb(mb)^MSbar
         6     1.72500000E+02   # mt pole mass
         7     1.77682000E+00   # mtau pole mass
#
BLOCK MINPAR  # Input parameters - minimal models
         3     1.00000000E+01   # tanb                
#
BLOCK EXTPAR  # Input parameters - non-minimal models
         0    -1.00000000E+00   # Set                 
         1     6.00000000E+01   # M_1(MX)             
         2     3.00000000E+03   # M_2(MX)             
         3     1.21156200E+03   # M_3(MX)             
        11     5.00000000E+03   # At(MX)              
        12     5.00000000E+03   # Ab(MX)              
        13     0.00000000E+00   # Atau(MX)            
        23    -5.71451000E+02   # mu(MX)              
        26     3.00000000E+03   # mA(pole)            
        31     5.00000000E+03   # meL(MX)             
        32     5.00000000E+03   # mmuL(MX)            
        33     5.00000000E+03   # mtauL(MX)           
        34     5.00000000E+03   # meR(MX)             
        35     5.00000000E+03   # mmuR(MX)            
        36     5.00000000E+03   # mtauR(MX)           
        41     5.00000000E+03   # mqL1(MX)            
        42     5.00000000E+03   # mqL2(MX)            
        43     5.00000000E+03   # mqL3(MX)            
        44     5.00000000E+03   # muR(MX)             
        45     5.00000000E+03   # mcR(MX)             
        46     5.00000000E+03   # mtR(MX)             
        47     5.00000000E+03   # mdR(MX)             
        48     5.00000000E+03   # msR(MX)             
        49     5.00000000E+03   # mbR(MX)             
#
BLOCK MASS  # Mass Spectrum
# PDG code           mass       particle
        24     8.00925453E+01   # W+
        25     1.24606815E+02   # h
        35     3.00008439E+03   # H
        36     2.99999918E+03   # A
        37     3.00140345E+03   # H+
         5     4.87878001E+00   # b-quark pole mass calculated from mb(mb)_Msbar
   1000001     5.06671827E+03   # ~d_L
   2000001     5.04886556E+03   # ~d_R
   1000002     5.06624213E+03   # ~u_L
   2000002     5.04856776E+03   # ~u_R
   1000003     5.06671827E+03   # ~s_L
   2000003     5.04886556E+03   # ~s_R
   1000004     5.06624213E+03   # ~c_L
   2000004     5.04856776E+03   # ~c_R
   1000005     5.01274326E+03   # ~b_1
   2000005     5.04717608E+03   # ~b_2
   1000006     4.90329481E+03   # ~t_1
   2000006     5.05747660E+03   # ~t_2
   1000011     5.01910018E+03   # ~e_L
   2000011     5.00593963E+03   # ~e_R
   1000012     5.01815017E+03   # ~nu_eL
   1000013     5.01910018E+03   # ~mu_L
   2000013     5.00593963E+03   # ~mu_R
   1000014     5.01815017E+03   # ~nu_muL
   1000015     5.00474873E+03   # ~tau_1
   2000015     5.01865122E+03   # ~tau_2
   1000016     5.01759948E+03   # ~nu_tauL
   1000021     1.50000080E+03   # ~g
   1000022     6.02508966E+01   # ~chi_10
   1000023     6.00198378E+02   # ~chi_20
   1000025    -6.02417729E+02   # ~chi_30
   1000035     3.07418835E+03   # ~chi_40
   1000024     6.00000317E+02   # ~chi_1+
   1000037     3.07435601E+03   # ~chi_2+
#
BLOCK NMIX  # Neutralino Mixing Matrix
  1  1     9.97248806E-01   # N_11
  1  2     2.27022873E-04   # N_12
  1  3    -7.41263094E-02   # N_13
  1  4     2.41240751E-04   # N_14
  2  1     5.22719855E-02   # N_21
  2  2     1.97551893E-02   # N_22
  2  3     7.05593941E-01   # N_23
  2  4     7.06409627E-01   # N_24
  3  1    -5.25576581E-02   # N_31
  3  2     1.65500605E-02   # N_32
  3  3    -7.04725034E-01   # N_33
  3  4     7.07337554E-01   # N_34
  4  1    -3.89338164E-04   # N_41
  4  2     9.99667833E-01   # N_42
  4  3    -2.25982223E-03   # N_43
  4  4    -2.56703168E-02   # N_44
#
BLOCK UMIX  # Chargino Mixing Matrix U
  1  1     3.20299474E-03   # U_11
  1  2     9.99994870E-01   # U_12
  2  1    -9.99994870E-01   # U_21
  2  2     3.20299474E-03   # U_22
#
BLOCK VMIX  # Chargino Mixing Matrix V
  1  1     3.63272224E-02   # V_11
  1  2    -9.99339949E-01   # V_12
  2  1    -9.99339949E-01   # V_21
  2  2    -3.63272224E-02   # V_22
#
BLOCK STOPMIX  # Stop Mixing Matrix
  1  1    -5.06206796E-01   # cos(theta_t)
  1  2     8.62412129E-01   # sin(theta_t)
  2  1    -8.62412129E-01   # -sin(theta_t)
  2  2    -5.06206796E-01   # cos(theta_t)
#
BLOCK SBOTMIX  # Sbottom Mixing Matrix
  1  1     9.98463318E-01   # cos(theta_b)
  1  2    -5.54166275E-02   # sin(theta_b)
  2  1     5.54166275E-02   # -sin(theta_b)
  2  2     9.98463318E-01   # cos(theta_b)
#
BLOCK STAUMIX  # Stau Mixing Matrix
  1  1    -6.84593302E-02   # cos(theta_tau)
  1  2     9.97653908E-01   # sin(theta_tau)
  2  1    -9.97653908E-01   # -sin(theta_tau)
  2  2    -6.84593302E-02   # cos(theta_tau)
#
BLOCK ALPHA  # Higgs mixing
          -1.05464718E-01   # Mixing angle in the neutral Higgs boson sector
#
BLOCK HMIX Q=  5.00075136E+03  # DRbar Higgs Parameters
         1    -5.81790967E+02   # mu(Q)MSSM           
         2     9.47098093E+00   # tan                 
         3     2.41793388E+02   # higgs               
         4     8.64118867E+06   # mA^2(Q)MSSM         
#
BLOCK GAUGE Q=  5.00075136E+03  # The gauge couplings
     1     3.70924044E-01   # gprime(Q) DRbar
     2     6.33152717E-01   # g(Q) DRbar
     3     1.00271150E+00   # g3(Q) DRbar
#
BLOCK AU Q=  5.00075136E+03  # The trilinear couplings
  1  1     5.00000001E+03   # A_u(Q) DRbar
  2  2     5.00000001E+03   # A_c(Q) DRbar
  3  3     5.00000001E+03   # A_t(Q) DRbar
#
BLOCK AD Q=  5.00075136E+03  # The trilinear couplings
  1  1     5.00000000E+03   # A_d(Q) DRbar
  2  2     5.00000000E+03   # A_s(Q) DRbar
  3  3     5.00000001E+03   # A_b(Q) DRbar
#
BLOCK AE Q=  5.00075136E+03  # The trilinear couplings
  1  1     0.00000000E+00   # A_e(Q) DRbar
  2  2     9.62432881E-08   # A_mu(Q) DRbar
  3  3     9.55751590E-08   # A_tau(Q) DRbar
#
BLOCK Yu Q=  5.00075136E+03  # The Yukawa couplings
  1  1     0.00000000E+00   # y_u(Q) DRbar
  2  2     0.00000000E+00   # y_c(Q) DRbar
  3  3     8.18019014E-01   # y_t(Q) DRbar
#
BLOCK Yd Q=  5.00075136E+03  # The Yukawa couplings
  1  1     0.00000000E+00   # y_d(Q) DRbar
  2  2     0.00000000E+00   # y_s(Q) DRbar
  3  3     1.29742220E-01   # y_b(Q) DRbar
#
BLOCK Ye Q=  5.00075136E+03  # The Yukawa couplings
  1  1     0.00000000E+00   # y_e(Q) DRbar
  2  2     0.00000000E+00   # y_mu(Q) DRbar
  3  3     9.70852532E-02   # y_tau(Q) DRbar
#
BLOCK MSOFT Q=  5.00075136E+03  # The soft SUSY breaking masses at the scale Q
         1     6.00000000E+01   # M_1(Q)              
         2     3.00000000E+03   # M_2(Q)              
         3     1.21156200E+03   # M_3(Q)              
        21     8.38081765E+06   # mH1^2(Q)            
        22     2.33519780E+05   # mH2^2(Q)            
        31     5.00000000E+03   # meL(Q)              
        32     5.00000000E+03   # mmuL(Q)             
        33     5.00000000E+03   # mtauL(Q)            
        34     5.00000000E+03   # meR(Q)              
        35     5.00000000E+03   # mmuR(Q)             
        36     5.00000000E+03   # mtauR(Q)            
        41     5.00000000E+03   # mqL1(Q)             
        42     5.00000000E+03   # mqL2(Q)             
        43     5.00000000E+03   # mqL3(Q)             
        44     5.00000000E+03   # muR(Q)              
        45     5.00000000E+03   # mcR(Q)              
        46     5.00000000E+03   # mtR(Q)              
        47     5.00000000E+03   # mdR(Q)              
        48     5.00000000E+03   # msR(Q)              
        49     5.00000000E+03   # mbR(Q)              
#
#
#
#                             =================
#                             |The decay table|
#                             =================
#
# - The QCD corrections to the decays gluino -> squark  + quark
#                                     squark -> gaugino + quark_prime
#                                     squark -> squark_prime + Higgs
#                                     squark -> gluino  + quark
#   are included.
#
# - The multi-body decays for the inos, stops and sbottoms are included.
#
# - The loop induced decays for the gluino, neutralinos and stops
#   are included.
#
# - The SUSY decays of the top quark are included.
#
#
#         PDG            Width
DECAY         6     1.40493532E+00   # top decays
#          BR         NDA      ID1       ID2
     1.00000000E+00    2           5        24   # BR(t ->  b    W+)
#
#         PDG            Width
DECAY   1000021     2.16879578E-04   # gluino decays
#          BR         NDA      ID1       ID2
     1.97652414E-06    2     1000022        21   # BR(~g -> ~chi_10 g)
     1.77561365E-02    2     1000023        21   # BR(~g -> ~chi_20 g)
     1.72891099E-02    2     1000025        21   # BR(~g -> ~chi_30 g)
#           BR         NDA      ID1       ID2       ID3
     2.46150542E-02    3     1000022         1        -1   # BR(~g -> ~chi_10 d  db)
     2.83239611E-05    3     1000023         1        -1   # BR(~g -> ~chi_20 d  db)
     2.59220334E-05    3     1000025         1        -1   # BR(~g -> ~chi_30 d  db)
     8.39346095E-02    3     1000022         2        -2   # BR(~g -> ~chi_10 u  ub)
     1.42708693E-04    3     1000023         2        -2   # BR(~g -> ~chi_20 u  ub)
     3.95766944E-05    3     1000025         2        -2   # BR(~g -> ~chi_30 u  ub)
     2.46150542E-02    3     1000022         3        -3   # BR(~g -> ~chi_10 s  sb)
     2.83239611E-05    3     1000023         3        -3   # BR(~g -> ~chi_20 s  sb)
     2.59220334E-05    3     1000025         3        -3   # BR(~g -> ~chi_30 s  sb)
     8.39346095E-02    3     1000022         4        -4   # BR(~g -> ~chi_10 c  cb)
     1.42708693E-04    3     1000023         4        -4   # BR(~g -> ~chi_20 c  cb)
     3.95766944E-05    3     1000025         4        -4   # BR(~g -> ~chi_30 c  cb)
     2.51021137E-02    3     1000022         5        -5   # BR(~g -> ~chi_10 b  bb)
     5.05922580E-03    3     1000023         5        -5   # BR(~g -> ~chi_20 b  bb)
     4.99237673E-03    3     1000025         5        -5   # BR(~g -> ~chi_30 b  bb)
     7.32989807E-02    3     1000022         6        -6   # BR(~g -> ~chi_10 t  tb)
     1.58302952E-01    3     1000023         6        -6   # BR(~g -> ~chi_20 t  tb)
     1.25942687E-01    3     1000025         6        -6   # BR(~g -> ~chi_30 t  tb)
     5.56251571E-05    3     1000024         1        -2   # BR(~g -> ~chi_1+ d  ub)
     5.56251571E-05    3    -1000024         2        -1   # BR(~g -> ~chi_1- u  db)
     5.56251571E-05    3     1000024         3        -4   # BR(~g -> ~chi_1+ s  cb)
     5.56251571E-05    3    -1000024         4        -3   # BR(~g -> ~chi_1- c  sb)
     1.77229775E-01    3     1000024         5        -6   # BR(~g -> ~chi_1+ b  tb)
     1.77229775E-01    3    -1000024         6        -5   # BR(~g -> ~chi_1- t  bb)
#
#         PDG            Width
DECAY   1000006     3.88677421E+02   # stop1 decays
#          BR         NDA      ID1       ID2
     2.26154981E-02    2     1000022         6   # BR(~t_1 -> ~chi_10 t )
     8.31385309E-02    2     1000023         6   # BR(~t_1 -> ~chi_20 t )
     7.90963168E-02    2     1000025         6   # BR(~t_1 -> ~chi_30 t )
     5.30648050E-03    2     1000035         6   # BR(~t_1 -> ~chi_40 t )
     1.20220795E-01    2     1000024         5   # BR(~t_1 -> ~chi_1+ b )
     1.05777659E-02    2     1000037         5   # BR(~t_1 -> ~chi_2+ b )
     6.79044612E-01    2     1000021         6   # BR(~t_1 -> ~g      t )
#
#         PDG            Width
DECAY   2000006     3.90880248E+02   # stop2 decays
#          BR         NDA      ID1       ID2
     9.02157832E-03    2     1000022         6   # BR(~t_2 -> ~chi_10 t )
     8.31935166E-02    2     1000023         6   # BR(~t_2 -> ~chi_20 t )
     8.76776368E-02    2     1000025         6   # BR(~t_2 -> ~chi_30 t )
     1.41950950E-02    2     1000035         6   # BR(~t_2 -> ~chi_40 t )
     4.96915612E-02    2     1000024         5   # BR(~t_2 -> ~chi_1+ b )
     2.82619483E-02    2     1000037         5   # BR(~t_2 -> ~chi_2+ b )
     7.24748509E-01    2     1000021         6   # BR(~t_2 -> ~g      t )
     7.33914163E-04    2     1000006        25   # BR(~t_2 -> ~t_1    h )
     2.47624096E-03    2     1000006        23   # BR(~t_2 -> ~t_1    Z )
#
#         PDG            Width
DECAY   1000005     3.67200895E+02   # sbottom1 decays
#          BR         NDA      ID1       ID2
     2.11356843E-03    2     1000022         5   # BR(~b_1 -> ~chi_10 b )
     2.22403245E-03    2     1000023         5   # BR(~b_1 -> ~chi_20 b )
     2.20830083E-03    2     1000025         5   # BR(~b_1 -> ~chi_30 b )
     2.05586010E-02    2     1000035         5   # BR(~b_1 -> ~chi_40 b )
     1.77282761E-01    2    -1000024         6   # BR(~b_1 -> ~chi_1- t )
     4.12799793E-02    2    -1000037         6   # BR(~b_1 -> ~chi_2- t )
     7.52793137E-01    2     1000021         5   # BR(~b_1 -> ~g      b )
     1.53961961E-03    2     1000006       -24   # BR(~b_1 -> ~t_1    W-)
#
#         PDG            Width
DECAY   2000005     2.85351709E+02   # sbottom2 decays
#          BR         NDA      ID1       ID2
     1.02975567E-02    2     1000022         5   # BR(~b_2 -> ~chi_10 b )
     2.93696630E-03    2     1000023         5   # BR(~b_2 -> ~chi_20 b )
     2.98404831E-03    2     1000025         5   # BR(~b_2 -> ~chi_30 b )
     8.02953650E-05    2     1000035         5   # BR(~b_2 -> ~chi_40 b )
     6.46960309E-03    2    -1000024         6   # BR(~b_2 -> ~chi_1- t )
     1.61227629E-04    2    -1000037         6   # BR(~b_2 -> ~chi_2- t )
     9.77045451E-01    2     1000021         5   # BR(~b_2 -> ~g      b )
     2.48512684E-05    2     1000006       -24   # BR(~b_2 -> ~t_1    W-)
#
#         PDG            Width
DECAY   1000002     3.04496259E+02   # sup_L decays
#          BR         NDA      ID1       ID2
     2.44707107E-03    2     1000022         2   # BR(~u_L -> ~chi_10 u)
     5.62336655E-05    2     1000023         2   # BR(~u_L -> ~chi_20 u)
     2.47503040E-06    2     1000025         2   # BR(~u_L -> ~chi_30 u)
     2.57596371E-02    2     1000035         2   # BR(~u_L -> ~chi_40 u)
     1.65323266E-04    2     1000024         1   # BR(~u_L -> ~chi_1+ d)
     5.14868087E-02    2     1000037         1   # BR(~u_L -> ~chi_2+ d)
     9.20082451E-01    2     1000021         2   # BR(~u_L -> ~g      u)
#
#         PDG            Width
DECAY   2000002     2.90724264E+02   # sup_R decays
#          BR         NDA      ID1       ID2
     4.07687590E-02    2     1000022         2   # BR(~u_R -> ~chi_10 u)
     1.08965603E-04    2     1000023         2   # BR(~u_R -> ~chi_20 u)
     1.10136646E-04    2     1000025         2   # BR(~u_R -> ~chi_30 u)
     2.46846551E-09    2     1000035         2   # BR(~u_R -> ~chi_40 u)
     9.59012136E-01    2     1000021         2   # BR(~u_R -> ~g      u)
#
#         PDG            Width
DECAY   1000001     3.04507217E+02   # sdown_L decays
#          BR         NDA      ID1       ID2
     2.43582955E-03    2     1000022         1   # BR(~d_L -> ~chi_10 d)
     5.71012139E-06    2     1000023         1   # BR(~d_L -> ~chi_20 d)
     4.50271014E-05    2     1000025         1   # BR(~d_L -> ~chi_30 d)
     2.57745779E-02    2     1000035         1   # BR(~d_L -> ~chi_40 d)
     1.28531546E-06    2    -1000024         2   # BR(~d_L -> ~chi_1- u)
     5.15685283E-02    2    -1000037         2   # BR(~d_L -> ~chi_2- u)
     9.20169042E-01    2     1000021         1   # BR(~d_L -> ~g      d)
#
#         PDG            Width
DECAY   2000001     2.81810131E+02   # sdown_R decays
#          BR         NDA      ID1       ID2
     1.05152103E-02    2     1000022         1   # BR(~d_R -> ~chi_10 d)
     2.81048528E-05    2     1000023         1   # BR(~d_R -> ~chi_20 d)
     2.84068937E-05    2     1000025         1   # BR(~d_R -> ~chi_30 d)
     6.36762310E-10    2     1000035         1   # BR(~d_R -> ~chi_40 d)
     9.89428277E-01    2     1000021         1   # BR(~d_R -> ~g      d)
#
#         PDG            Width
DECAY   1000004     3.04496259E+02   # scharm_L decays
#          BR         NDA      ID1       ID2
     2.44707107E-03    2     1000022         4   # BR(~c_L -> ~chi_10 c)
     5.62336655E-05    2     1000023         4   # BR(~c_L -> ~chi_20 c)
     2.47503040E-06    2     1000025         4   # BR(~c_L -> ~chi_30 c)
     2.57596371E-02    2     1000035         4   # BR(~c_L -> ~chi_40 c)
     1.65323266E-04    2     1000024         3   # BR(~c_L -> ~chi_1+ s)
     5.14868087E-02    2     1000037         3   # BR(~c_L -> ~chi_2+ s)
     9.20082451E-01    2     1000021         4   # BR(~c_L -> ~g      c)
#
#         PDG            Width
DECAY   2000004     2.90724264E+02   # scharm_R decays
#          BR         NDA      ID1       ID2
     4.07687590E-02    2     1000022         4   # BR(~c_R -> ~chi_10 c)
     1.08965603E-04    2     1000023         4   # BR(~c_R -> ~chi_20 c)
     1.10136646E-04    2     1000025         4   # BR(~c_R -> ~chi_30 c)
     2.46846551E-09    2     1000035         4   # BR(~c_R -> ~chi_40 c)
     9.59012136E-01    2     1000021         4   # BR(~c_R -> ~g      c)
#
#         PDG            Width
DECAY   1000003     3.04507217E+02   # sstrange_L decays
#          BR         NDA      ID1       ID2
     2.43582955E-03    2     1000022         3   # BR(~s_L -> ~chi_10 s)
     5.71012139E-06    2     1000023         3   # BR(~s_L -> ~chi_20 s)
     4.50271014E-05    2     1000025         3   # BR(~s_L -> ~chi_30 s)
     2.57745779E-02    2     1000035         3   # BR(~s_L -> ~chi_40 s)
     1.28531546E-06    2    -1000024         4   # BR(~s_L -> ~chi_1- c)
     5.15685283E-02    2    -1000037         4   # BR(~s_L -> ~chi_2- c)
     9.20169042E-01    2     1000021         3   # BR(~s_L -> ~g      s)
#
#         PDG            Width
DECAY   2000003     2.81810131E+02   # sstrange_R decays
#          BR         NDA      ID1       ID2
     1.05152103E-02    2     1000022         3   # BR(~s_R -> ~chi_10 s)
     2.81048528E-05    2     1000023         3   # BR(~s_R -> ~chi_20 s)
     2.84068937E-05    2     1000025         3   # BR(~s_R -> ~chi_30 s)
     6.36762310E-10    2     1000035         3   # BR(~s_R -> ~chi_40 s)
     9.89428277E-01    2     1000021         3   # BR(~s_R -> ~g      s)
#
#         PDG            Width
DECAY   1000011     3.03202313E+01   # selectron_L decays
#          BR         NDA      ID1       ID2
     2.25414997E-01    2     1000022        11   # BR(~e_L -> ~chi_10 e-)
     1.62772979E-03    2     1000023        11   # BR(~e_L -> ~chi_20 e-)
     1.30027455E-04    2     1000025        11   # BR(~e_L -> ~chi_30 e-)
     2.57436493E-01    2     1000035        11   # BR(~e_L -> ~chi_40 e-)
     1.31598419E-05    2    -1000024        12   # BR(~e_L -> ~chi_1- nu_e)
     5.15377593E-01    2    -1000037        12   # BR(~e_L -> ~chi_2- nu_e)
#
#         PDG            Width
DECAY   2000011     2.73918992E+01   # selectron_R decays
#          BR         NDA      ID1       ID2
     9.94660314E-01    2     1000022        11   # BR(~e_R -> ~chi_10 e-)
     2.65555122E-03    2     1000023        11   # BR(~e_R -> ~chi_20 e-)
     2.68407615E-03    2     1000025        11   # BR(~e_R -> ~chi_30 e-)
     5.88361157E-08    2     1000035        11   # BR(~e_R -> ~chi_40 e-)
#
#         PDG            Width
DECAY   1000013     3.03202313E+01   # smuon_L decays
#          BR         NDA      ID1       ID2
     2.25414997E-01    2     1000022        13   # BR(~mu_L -> ~chi_10 mu-)
     1.62772979E-03    2     1000023        13   # BR(~mu_L -> ~chi_20 mu-)
     1.30027455E-04    2     1000025        13   # BR(~mu_L -> ~chi_30 mu-)
     2.57436493E-01    2     1000035        13   # BR(~mu_L -> ~chi_40 mu-)
     1.31598419E-05    2    -1000024        14   # BR(~mu_L -> ~chi_1- nu_mu)
     5.15377593E-01    2    -1000037        14   # BR(~mu_L -> ~chi_2- nu_mu)
#
#         PDG            Width
DECAY   2000013     2.73918992E+01   # smuon_R decays
#          BR         NDA      ID1       ID2
     9.94660314E-01    2     1000022        13   # BR(~mu_R -> ~chi_10 mu-)
     2.65555122E-03    2     1000023        13   # BR(~mu_R -> ~chi_20 mu-)
     2.68407615E-03    2     1000025        13   # BR(~mu_R -> ~chi_30 mu-)
     5.88361157E-08    2     1000035        13   # BR(~mu_R -> ~chi_40 mu-)
#
#         PDG            Width
DECAY   1000015     2.92201426E+01   # stau_1 decays
#          BR         NDA      ID1       ID2
     9.29980087E-01    2     1000022        15   # BR(~tau_1 -> ~chi_10  tau-)
     1.78666726E-02    2     1000023        15   # BR(~tau_1 -> ~chi_20  tau-)
     1.73414155E-02    2     1000025        15   # BR(~tau_1 -> ~chi_30  tau-)
     1.22217455E-03    2     1000035        15   # BR(~tau_1 -> ~chi_40  tau-)
     3.11430810E-02    2    -1000024        16   # BR(~tau_1 -> ~chi_1-  nu_tau)
     2.44656895E-03    2    -1000037        16   # BR(~tau_1 -> ~chi_2-  nu_tau)
#
#         PDG            Width
DECAY   2000015     3.12147536E+01   # stau_2 decays
#          BR         NDA      ID1       ID2
     2.21354818E-01    2     1000022        15   # BR(~tau_2 -> ~chi_10  tau-)
     1.63100923E-02    2     1000023        15   # BR(~tau_2 -> ~chi_20  tau-)
     1.52965859E-02    2     1000025        15   # BR(~tau_2 -> ~chi_30  tau-)
     2.48827921E-01    2     1000035        15   # BR(~tau_2 -> ~chi_40  tau-)
     6.64240026E-05    2    -1000024        16   # BR(~tau_2 -> ~chi_1-  nu_tau)
     4.98144158E-01    2    -1000037        16   # BR(~tau_2 -> ~chi_2-  nu_tau)
#
#         PDG            Width
DECAY   1000012     3.03233899E+01   # snu_eL decays
#          BR         NDA      ID1       ID2
     2.24998831E-01    2     1000022        12   # BR(~nu_eL -> ~chi_10 nu_e)
     7.57249981E-05    2     1000023        12   # BR(~nu_eL -> ~chi_20 nu_e)
     1.43659907E-03    2     1000025        12   # BR(~nu_eL -> ~chi_30 nu_e)
     2.57478830E-01    2     1000035        12   # BR(~nu_eL -> ~chi_40 nu_e)
     1.69227286E-03    2     1000024        11   # BR(~nu_eL -> ~chi_1+ e-)
     5.14317742E-01    2     1000037        11   # BR(~nu_eL -> ~chi_2+ e-)
#
#         PDG            Width
DECAY   1000014     3.03233899E+01   # snu_muL decays
#          BR         NDA      ID1       ID2
     2.24998831E-01    2     1000022        14   # BR(~nu_muL -> ~chi_10 nu_mu)
     7.57249981E-05    2     1000023        14   # BR(~nu_muL -> ~chi_20 nu_mu)
     1.43659907E-03    2     1000025        14   # BR(~nu_muL -> ~chi_30 nu_mu)
     2.57478830E-01    2     1000035        14   # BR(~nu_muL -> ~chi_40 nu_mu)
     1.69227286E-03    2     1000024        13   # BR(~nu_muL -> ~chi_1+ mu-)
     5.14317742E-01    2     1000037        13   # BR(~nu_muL -> ~chi_2+ mu-)
#
#         PDG            Width
DECAY   1000016     3.12280610E+01   # snu_tauL decays
#          BR         NDA      ID1       ID2
     2.18456667E-01    2     1000022        16   # BR(~nu_tauL -> ~chi_10 nu_tau)
     7.35227213E-05    2     1000023        16   # BR(~nu_tauL -> ~chi_20 nu_tau)
     1.39481903E-03    2     1000025        16   # BR(~nu_tauL -> ~chi_30 nu_tau)
     2.49926348E-01    2     1000035        16   # BR(~nu_tauL -> ~chi_40 nu_tau)
     3.09176592E-02    2     1000024        15   # BR(~nu_tauL -> ~chi_1+ tau-)
     4.99230984E-01    2     1000037        15   # BR(~nu_tauL -> ~chi_2+ tau-)
#
#         PDG            Width
DECAY   1000024     3.57513003E-01   # chargino1+ decays
#          BR         NDA      ID1       ID2
     1.00000000E+00    2     1000022        24   # BR(~chi_1+ -> ~chi_10  W+)
#
#         PDG            Width
DECAY   1000037     2.18160152E+01   # chargino2+ decays
#          BR         NDA      ID1       ID2
     2.53508587E-01    2     1000024        23   # BR(~chi_2+ -> ~chi_1+  Z )
     1.69239098E-04    2     1000022        24   # BR(~chi_2+ -> ~chi_10  W+)
     2.44770381E-01    2     1000023        24   # BR(~chi_2+ -> ~chi_20  W+)
     2.44342269E-01    2     1000025        24   # BR(~chi_2+ -> ~chi_30  W+)
     2.57205974E-01    2     1000024        25   # BR(~chi_2+ -> ~chi_1+  h )
     3.54891207E-06    2     1000022        37   # BR(~chi_2+ -> ~chi_10  H+)
#
#         PDG            Width
DECAY   1000022     0.00000000E+00   # neutralino1 decays
#
#         PDG            Width
DECAY   1000023     3.66273574E-01   # neutralino2 decays
#          BR         NDA      ID1       ID2
     5.14033275E-01    2     1000022        23   # BR(~chi_20 -> ~chi_10   Z )
     4.85966725E-01    2     1000022        25   # BR(~chi_20 -> ~chi_10   h )
#
#         PDG            Width
DECAY   1000025     3.61908937E-01   # neutralino3 decays
#          BR         NDA      ID1       ID2
     5.03957441E-01    2     1000022        23   # BR(~chi_30 -> ~chi_10   Z )
     4.96042559E-01    2     1000022        25   # BR(~chi_30 -> ~chi_10   h )
#
#         PDG            Width
DECAY   1000035     2.18295945E+01   # neutralino4 decays
#          BR         NDA      ID1       ID2
     1.29202665E-05    2     1000022        23   # BR(~chi_40 -> ~chi_10   Z )
     1.04467710E-01    2     1000023        23   # BR(~chi_40 -> ~chi_20   Z )
     1.48504486E-01    2     1000025        23   # BR(~chi_40 -> ~chi_30   Z )
     2.45105708E-01    2     1000024       -24   # BR(~chi_40 -> ~chi_1+   W-)
     2.45105708E-01    2    -1000024        24   # BR(~chi_40 -> ~chi_1-   W+)
     1.51345233E-04    2     1000022        25   # BR(~chi_40 -> ~chi_10   h )
     3.40260048E-06    2     1000022        35   # BR(~chi_40 -> ~chi_10   H )
     3.79374989E-07    2     1000022        36   # BR(~chi_40 -> ~chi_10   A )
     1.51913653E-01    2     1000023        25   # BR(~chi_40 -> ~chi_20   h )
     1.04734687E-01    2     1000025        25   # BR(~chi_40 -> ~chi_30   h )
#
#         PDG            Width
DECAY        25     4.05379729E-03   # h decays
#          BR         NDA      ID1       ID2
     6.12406873E-01    2           5        -5   # BR(h -> b       bb     )
     6.39008921E-02    2         -15        15   # BR(h -> tau+    tau-   )
     2.26233126E-04    2         -13        13   # BR(h -> mu+     mu-    )
     4.79725320E-04    2           3        -3   # BR(h -> s       sb     )
     2.07860830E-02    2           4        -4   # BR(h -> c       cb     )
     6.70465472E-02    2          21        21   # BR(h -> g       g      )
     2.30084639E-03    2          22        22   # BR(h -> gam     gam    )
     1.46978798E-03    2          22        23   # BR(h -> Z       gam    )
     2.06743994E-01    2          24       -24   # BR(h -> W+      W-     )
     2.45577559E-02    2          23        23   # BR(h -> Z       Z      )
     8.12619584E-05    2     1000022   1000022   # BR(h -> ~chi_10 ~chi_10)
#
#         PDG            Width
DECAY        35     8.57953695E+00   # H decays
#          BR         NDA      ID1       ID2
     3.72969861E-01    2           5        -5   # BR(H -> b       bb     )
     6.49505379E-02    2         -15        15   # BR(H -> tau+    tau-   )
     2.29670261E-04    2         -13        13   # BR(H -> mu+     mu-    )
     2.81540523E-04    2           3        -3   # BR(H -> s       sb     )
     1.57419282E-06    2           4        -4   # BR(H -> c       cb     )
     1.57274334E-01    2           6        -6   # BR(H -> t       tb     )
     5.22887966E-05    2          21        21   # BR(H -> g       g      )
     1.64279364E-07    2          22        22   # BR(H -> gam     gam    )
     9.27863882E-08    2          23        22   # BR(H -> Z       gam    )
     7.42616544E-05    2          24       -24   # BR(H -> W+      W-     )
     3.70838185E-05    2          23        23   # BR(H -> Z       Z      )
     2.71429505E-04    2          25        25   # BR(H -> h       h      )
    -2.05238611E-24    2          36        36   # BR(H -> A       A      )
     2.87011857E-19    2          23        36   # BR(H -> Z       A      )
     3.01200738E-03    2     1000024  -1000024   # BR(H -> ~chi_1+ ~chi_1-)
     4.69240823E-03    2     1000022   1000022   # BR(H -> ~chi_10 ~chi_10)
     1.03147477E-04    2     1000023   1000023   # BR(H -> ~chi_20 ~chi_20)
     1.80817060E-03    2     1000025   1000025   # BR(H -> ~chi_30 ~chi_30)
     2.37433254E-01    2     1000022   1000023   # BR(H -> ~chi_10 ~chi_20)
     1.54598327E-01    2     1000022   1000025   # BR(H -> ~chi_10 ~chi_30)
     2.20984685E-03    2     1000023   1000025   # BR(H -> ~chi_20 ~chi_30)
#
#         PDG            Width
DECAY        36     8.58792554E+00   # A decays
#          BR         NDA      ID1       ID2
     3.72732678E-01    2           5        -5   # BR(A -> b       bb     )
     6.48890309E-02    2         -15        15   # BR(A -> tau+    tau-   )
     2.29452446E-04    2         -13        13   # BR(A -> mu+     mu-    )
     2.81479066E-04    2           3        -3   # BR(A -> s       sb     )
     1.57899530E-06    2           4        -4   # BR(A -> c       cb     )
     1.57667096E-01    2           6        -6   # BR(A -> t       tb     )
     1.56041841E-04    2          21        21   # BR(A -> g       g      )
     5.98985316E-07    2          22        22   # BR(A -> gam     gam    )
     1.88857007E-07    2          23        22   # BR(A -> Z       gam    )
     7.39094754E-05    2          23        25   # BR(A -> Z       h      )
     3.45123803E-03    2     1000024  -1000024   # BR(A -> ~chi_1+ ~chi_1-)
     4.70199995E-03    2     1000022   1000022   # BR(A -> ~chi_10 ~chi_10)
     8.02194090E-05    2     1000023   1000023   # BR(A -> ~chi_20 ~chi_20)
     3.29814378E-03    2     1000025   1000025   # BR(A -> ~chi_30 ~chi_30)
     1.57598274E-01    2     1000022   1000023   # BR(A -> ~chi_10 ~chi_20)
     2.33447513E-01    2     1000022   1000025   # BR(A -> ~chi_10 ~chi_30)
     1.39055604E-03    2     1000023   1000025   # BR(A -> ~chi_20 ~chi_30)
#
#         PDG            Width
DECAY        37     8.52831000E+00   # H+ decays
#          BR         NDA      ID1       ID2
     5.97500564E-04    2           4        -5   # BR(H+ -> c       bb     )
     6.53732117E-02    2         -15        16   # BR(H+ -> tau+    nu_tau )
     2.31164546E-04    2         -13        14   # BR(H+ -> mu+     nu_mu  )
     3.82398358E-06    2           2        -5   # BR(H+ -> u       bb     )
     1.35639435E-05    2           2        -3   # BR(H+ -> u       sb     )
     2.80502454E-04    2           4        -3   # BR(H+ -> c       sb     )
     5.28922448E-01    2           6        -5   # BR(H+ -> t       bb     )
     7.45787129E-05    2          24        25   # BR(H+ -> W+      h      )
     8.41405068E-13    2          24        36   # BR(H+ -> W+      A      )
     4.01872494E-01    2     1000024   1000022   # BR(H+ -> ~chi_1+ ~chi_10)
     2.49177538E-03    2     1000024   1000023   # BR(H+ -> ~chi_1+ ~chi_20)
     1.38936551E-04    2     1000024   1000025   # BR(H+ -> ~chi_1+ ~chi_30)
