#
#                              ======================
#                              | THE SUSYHIT OUTPUT |
#                              ======================
#
#
#              ------------------------------------------------------
#              |     This is the output of the SUSY-HIT package     |
#              |  created by A.Djouadi, M.Muehlleitner and M.Spira. |
#              |  In case of problems with SUSY-HIT email to        |
#              |           margarete.muehlleitner@cern.ch           |
#              |           michael.spira@psi.ch                     |
#              |           abdelhak.djouadi@cern.ch                 |
#              ------------------------------------------------------
#
#              ------------------------------------------------------
#              |  SUSY Les Houches Accord - MSSM Spectrum + Decays  |
#              |              based on the decay programs           |
#              |                                                    |
#              |                     SDECAY 1.3b                    |
#              |                                                    |
#              |  Authors: M.Muhlleitner, A.Djouadi and Y.Mambrini  |
#              |  Ref.:    Comput.Phys.Commun.168(2005)46           |
#              |           [hep-ph/0311167]                         |
#              |                                                    |
#              |                     HDECAY 3.4                     |
#              |                                                    |
#              |  By: A.Djouadi,J.Kalinowski,M.Muhlleitner,M.Spira  |
#              |  Ref.:    Comput.Phys.Commun.108(1998)56           |
#              |           [hep-ph/9704448]                         |
#              |                                                    |
#              |                                                    |
#              |  If not stated otherwise all DRbar couplings and   |
#              |  soft SUSY breaking masses are given at the scale  |
#              |  Q=  0.50007187E+04
#              |                                                    |
#              ------------------------------------------------------
#
#
BLOCK DCINFO  # Decay Program information
     1   SDECAY/HDECAY # decay calculator
     2   1.3b  /3.4    # version number
#
BLOCK SPINFO  # Spectrum calculator information
     1    SOFTSUSY    # spectrum calculator                
     2    3.4.0       # version number                     
#
BLOCK MODSEL  # Model selection
     1     0   #  nonUniversal                                     
#
BLOCK SMINPUTS  # Standard Model inputs
         1     1.25778332E+02   # alpha_em^-1(M_Z)^MSbar
         2     1.16570000E-05   # G_F [GeV^-2]
         3     1.17200002E-01   # alpha_S(M_Z)^MSbar
         4     9.11876000E+01   # M_Z pole mass
         5     4.25000000E+00   # mb(mb)^MSbar
         6     1.72500000E+02   # mt pole mass
         7     1.77682000E+00   # mtau pole mass
#
BLOCK MINPAR  # Input parameters - minimal models
         3     1.00000000E+01   # tanb                
#
BLOCK EXTPAR  # Input parameters - non-minimal models
         0    -1.00000000E+00   # Set                 
         1     6.00000000E+01   # M_1(MX)             
         2     3.00000000E+03   # M_2(MX)             
         3     1.21156600E+03   # M_3(MX)             
        11     5.00000000E+03   # At(MX)              
        12     5.00000000E+03   # Ab(MX)              
        13     0.00000000E+00   # Atau(MX)            
        23    -1.34910000E+03   # mu(MX)              
        26     3.00000000E+03   # mA(pole)            
        31     5.00000000E+03   # meL(MX)             
        32     5.00000000E+03   # mmuL(MX)            
        33     5.00000000E+03   # mtauL(MX)           
        34     5.00000000E+03   # meR(MX)             
        35     5.00000000E+03   # mmuR(MX)            
        36     5.00000000E+03   # mtauR(MX)           
        41     5.00000000E+03   # mqL1(MX)            
        42     5.00000000E+03   # mqL2(MX)            
        43     5.00000000E+03   # mqL3(MX)            
        44     5.00000000E+03   # muR(MX)             
        45     5.00000000E+03   # mcR(MX)             
        46     5.00000000E+03   # mtR(MX)             
        47     5.00000000E+03   # mdR(MX)             
        48     5.00000000E+03   # msR(MX)             
        49     5.00000000E+03   # mbR(MX)             
#
BLOCK MASS  # Mass Spectrum
# PDG code           mass       particle
        24     8.00952420E+01   # W+
        25     1.24622083E+02   # h
        35     3.00008395E+03   # H
        36     2.99999990E+03   # A
        37     3.00087362E+03   # H+
         5     4.87878001E+00   # b-quark pole mass calculated from mb(mb)_Msbar
   1000001     5.06665926E+03   # ~d_L
   2000001     5.04885711E+03   # ~d_R
   1000002     5.06618369E+03   # ~u_L
   2000002     5.04857972E+03   # ~u_R
   1000003     5.06665926E+03   # ~s_L
   2000003     5.04885711E+03   # ~s_R
   1000004     5.06618369E+03   # ~c_L
   2000004     5.04857972E+03   # ~c_R
   1000005     5.01278822E+03   # ~b_1
   2000005     5.04767133E+03   # ~b_2
   1000006     4.90359604E+03   # ~t_1
   2000006     5.05921356E+03   # ~t_2
   1000011     5.01905440E+03   # ~e_L
   2000011     5.00591306E+03   # ~e_R
   1000012     5.01810607E+03   # ~nu_eL
   1000013     5.01905440E+03   # ~mu_L
   2000013     5.00591306E+03   # ~mu_R
   1000014     5.01810607E+03   # ~nu_muL
   1000015     5.00442485E+03   # ~tau_1
   2000015     5.01894987E+03   # ~tau_2
   1000016     5.01756544E+03   # ~nu_tauL
   1000021     1.50000016E+03   # ~g
   1000022     6.03030125E+01   # ~chi_10
   1000023     1.39947218E+03   # ~chi_20
   1000025    -1.40186165E+03   # ~chi_30
   1000035     3.07432114E+03   # ~chi_40
   1000024     1.40000046E+03   # ~chi_1+
   1000037     3.07448863E+03   # ~chi_2+
#
BLOCK NMIX  # Neutralino Mixing Matrix
  1  1     9.99491028E-01   # N_11
  1  2     1.47241346E-04   # N_12
  1  3    -3.18405127E-02   # N_13
  1  4     1.96070941E-03   # N_14
  2  1     2.11292625E-02   # N_21
  2  2     2.90612176E-02   # N_22
  2  3     7.06893332E-01   # N_23
  2  4     7.06406977E-01   # N_24
  3  1    -2.38965979E-02   # N_31
  3  2     1.35661645E-02   # N_32
  3  3    -7.06518146E-01   # N_33
  3  4     7.07161241E-01   # N_34
  4  1    -4.37248260E-04   # N_41
  4  2     9.99485559E-01   # N_42
  4  3    -1.09593893E-02   # N_43
  4  4    -3.01383056E-02   # N_44
#
BLOCK UMIX  # Chargino Mixing Matrix U
  1  1     1.55115967E-02   # U_11
  1  2     9.99879688E-01   # U_12
  2  1    -9.99879688E-01   # U_21
  2  2     1.55115967E-02   # U_22
#
BLOCK VMIX  # Chargino Mixing Matrix V
  1  1     4.26457608E-02   # V_11
  1  2    -9.99090256E-01   # V_12
  2  1    -9.99090256E-01   # V_21
  2  2    -4.26457608E-02   # V_22
#
BLOCK STOPMIX  # Stop Mixing Matrix
  1  1    -5.11784532E-01   # cos(theta_t)
  1  2     8.59113842E-01   # sin(theta_t)
  2  1    -8.59113842E-01   # -sin(theta_t)
  2  2    -5.11784532E-01   # cos(theta_t)
#
BLOCK SBOTMIX  # Sbottom Mixing Matrix
  1  1     9.95076021E-01   # cos(theta_b)
  1  2    -9.91146429E-02   # sin(theta_b)
  2  1     9.91146429E-02   # -sin(theta_b)
  2  2     9.95076021E-01   # cos(theta_b)
#
BLOCK STAUMIX  # Stau Mixing Matrix
  1  1    -1.57620960E-01   # cos(theta_tau)
  1  2     9.87499688E-01   # sin(theta_tau)
  2  1    -9.87499688E-01   # -sin(theta_tau)
  2  2    -1.57620960E-01   # cos(theta_tau)
#
BLOCK ALPHA  # Higgs mixing
          -1.05448785E-01   # Mixing angle in the neutral Higgs boson sector
#
BLOCK HMIX Q=  5.00071871E+03  # DRbar Higgs Parameters
         1    -1.37356873E+03   # mu(Q)MSSM           
         2     9.47177191E+00   # tan                 
         3     2.41957906E+02   # higgs               
         4     8.41689723E+06   # mA^2(Q)MSSM         
#
BLOCK GAUGE Q=  5.00071871E+03  # The gauge couplings
     1     3.70728347E-01   # gprime(Q) DRbar
     2     6.32197300E-01   # g(Q) DRbar
     3     1.00270483E+00   # g3(Q) DRbar
#
BLOCK AU Q=  5.00071871E+03  # The trilinear couplings
  1  1     5.00000001E+03   # A_u(Q) DRbar
  2  2     5.00000001E+03   # A_c(Q) DRbar
  3  3     5.00000001E+03   # A_t(Q) DRbar
#
BLOCK AD Q=  5.00071871E+03  # The trilinear couplings
  1  1     5.00000000E+03   # A_d(Q) DRbar
  2  2     5.00000000E+03   # A_s(Q) DRbar
  3  3     5.00000001E+03   # A_b(Q) DRbar
#
BLOCK AE Q=  5.00071871E+03  # The trilinear couplings
  1  1     0.00000000E+00   # A_e(Q) DRbar
  2  2     9.80530777E-08   # A_mu(Q) DRbar
  3  3     9.73923623E-08   # A_tau(Q) DRbar
#
BLOCK Yu Q=  5.00071871E+03  # The Yukawa couplings
  1  1     0.00000000E+00   # y_u(Q) DRbar
  2  2     0.00000000E+00   # y_c(Q) DRbar
  3  3     8.17518144E-01   # y_t(Q) DRbar
#
BLOCK Yd Q=  5.00071871E+03  # The Yukawa couplings
  1  1     0.00000000E+00   # y_d(Q) DRbar
  2  2     0.00000000E+00   # y_s(Q) DRbar
  3  3     1.30520709E-01   # y_b(Q) DRbar
#
BLOCK Ye Q=  5.00071871E+03  # The Yukawa couplings
  1  1     0.00000000E+00   # y_e(Q) DRbar
  2  2     0.00000000E+00   # y_mu(Q) DRbar
  3  3     9.66781148E-02   # y_tau(Q) DRbar
#
BLOCK MSOFT Q=  5.00071871E+03  # The soft SUSY breaking masses at the scale Q
         1     6.00000000E+01   # M_1(Q)              
         2     3.00000000E+03   # M_2(Q)              
         3     1.21156600E+03   # M_3(Q)              
        21     6.78815744E+06   # mH1^2(Q)            
        22    -1.33686107E+06   # mH2^2(Q)            
        31     5.00000000E+03   # meL(Q)              
        32     5.00000000E+03   # mmuL(Q)             
        33     5.00000000E+03   # mtauL(Q)            
        34     5.00000000E+03   # meR(Q)              
        35     5.00000000E+03   # mmuR(Q)             
        36     5.00000000E+03   # mtauR(Q)            
        41     5.00000000E+03   # mqL1(Q)             
        42     5.00000000E+03   # mqL2(Q)             
        43     5.00000000E+03   # mqL3(Q)             
        44     5.00000000E+03   # muR(Q)              
        45     5.00000000E+03   # mcR(Q)              
        46     5.00000000E+03   # mtR(Q)              
        47     5.00000000E+03   # mdR(Q)              
        48     5.00000000E+03   # msR(Q)              
        49     5.00000000E+03   # mbR(Q)              
#
#
#
#                             =================
#                             |The decay table|
#                             =================
#
# - The QCD corrections to the decays gluino -> squark  + quark
#                                     squark -> gaugino + quark_prime
#                                     squark -> squark_prime + Higgs
#                                     squark -> gluino  + quark
#   are included.
#
# - The multi-body decays for the inos, stops and sbottoms are included.
#
# - The loop induced decays for the gluino, neutralinos and stops
#   are included.
#
# - The SUSY decays of the top quark are included.
#
#
#         PDG            Width
DECAY         6     1.40058073E+00   # top decays
#          BR         NDA      ID1       ID2
     1.00000000E+00    2           5        24   # BR(t ->  b    W+)
#
#         PDG            Width
DECAY   1000021     6.86977881E-05   # gluino decays
#          BR         NDA      ID1       ID2
     1.17140810E-05    2     1000022        21   # BR(~g -> ~chi_10 g)
     2.13381614E-04    2     1000023        21   # BR(~g -> ~chi_20 g)
     1.99252255E-04    2     1000025        21   # BR(~g -> ~chi_30 g)
#           BR         NDA      ID1       ID2       ID3
     7.79929143E-02    3     1000022         1        -1   # BR(~g -> ~chi_10 d  db)
     6.79014603E-09    3     1000023         1        -1   # BR(~g -> ~chi_20 d  db)
     1.22888323E-09    3     1000025         1        -1   # BR(~g -> ~chi_30 d  db)
     2.65885436E-01    3     1000022         2        -2   # BR(~g -> ~chi_10 u  ub)
     1.35571277E-08    3     1000023         2        -2   # BR(~g -> ~chi_20 u  ub)
     1.26540760E-09    3     1000025         2        -2   # BR(~g -> ~chi_30 u  ub)
     7.79929143E-02    3     1000022         3        -3   # BR(~g -> ~chi_10 s  sb)
     6.79014603E-09    3     1000023         3        -3   # BR(~g -> ~chi_20 s  sb)
     1.22888323E-09    3     1000025         3        -3   # BR(~g -> ~chi_30 s  sb)
     2.65885436E-01    3     1000022         4        -4   # BR(~g -> ~chi_10 c  cb)
     1.35571277E-08    3     1000023         4        -4   # BR(~g -> ~chi_20 c  cb)
     1.26540760E-09    3     1000025         4        -4   # BR(~g -> ~chi_30 c  cb)
     7.89629380E-02    3     1000022         5        -5   # BR(~g -> ~chi_10 b  bb)
     8.70842972E-07    3     1000023         5        -5   # BR(~g -> ~chi_20 b  bb)
     7.37921379E-07    3     1000025         5        -5   # BR(~g -> ~chi_30 b  bb)
     2.32854290E-01    3     1000022         6        -6   # BR(~g -> ~chi_10 t  tb)
     1.73825321E-08    3     1000024         1        -2   # BR(~g -> ~chi_1+ d  ub)
     1.73825321E-08    3    -1000024         2        -1   # BR(~g -> ~chi_1- u  db)
     1.73825321E-08    3     1000024         3        -4   # BR(~g -> ~chi_1+ s  cb)
     1.73825321E-08    3    -1000024         4        -3   # BR(~g -> ~chi_1- c  sb)
#
#         PDG            Width
DECAY   1000006     3.73680595E+02   # stop1 decays
#          BR         NDA      ID1       ID2
     2.35203505E-02    2     1000022         6   # BR(~t_1 -> ~chi_10 t )
     7.44109144E-02    2     1000023         6   # BR(~t_1 -> ~chi_20 t )
     7.15136306E-02    2     1000025         6   # BR(~t_1 -> ~chi_30 t )
     5.77501790E-03    2     1000035         6   # BR(~t_1 -> ~chi_40 t )
     1.07033541E-01    2     1000024         5   # BR(~t_1 -> ~chi_1+ b )
     1.14919751E-02    2     1000037         5   # BR(~t_1 -> ~chi_2+ b )
     7.06254570E-01    2     1000021         6   # BR(~t_1 -> ~g      t )
#
#         PDG            Width
DECAY   2000006     3.80815945E+02   # stop2 decays
#          BR         NDA      ID1       ID2
     9.38127707E-03    2     1000022         6   # BR(~t_2 -> ~chi_10 t )
     7.54293679E-02    2     1000023         6   # BR(~t_2 -> ~chi_20 t )
     7.85121266E-02    2     1000025         6   # BR(~t_2 -> ~chi_30 t )
     1.42928737E-02    2     1000035         6   # BR(~t_2 -> ~chi_40 t )
     4.62629100E-02    2     1000024         5   # BR(~t_2 -> ~chi_1+ b )
     2.83965227E-02    2     1000037         5   # BR(~t_2 -> ~chi_2+ b )
     7.44281360E-01    2     1000021         6   # BR(~t_2 -> ~g      t )
     7.61206506E-04    2     1000006        25   # BR(~t_2 -> ~t_1    h )
     2.68235554E-03    2     1000006        23   # BR(~t_2 -> ~t_1    Z )
#
#         PDG            Width
DECAY   1000005     3.58156877E+02   # sbottom1 decays
#          BR         NDA      ID1       ID2
     2.17938518E-03    2     1000022         5   # BR(~b_1 -> ~chi_10 b )
     2.09312395E-03    2     1000023         5   # BR(~b_1 -> ~chi_20 b )
     1.99333356E-03    2     1000025         5   # BR(~b_1 -> ~chi_30 b )
     2.08542857E-02    2     1000035         5   # BR(~b_1 -> ~chi_40 b )
     1.57576261E-01    2    -1000024         6   # BR(~b_1 -> ~chi_1- t )
     4.19572840E-02    2    -1000037         6   # BR(~b_1 -> ~chi_2- t )
     7.71772899E-01    2     1000021         5   # BR(~b_1 -> ~g      b )
     1.57342801E-03    2     1000006       -24   # BR(~b_1 -> ~t_1    W-)
#
#         PDG            Width
DECAY   2000005     2.85523689E+02   # sbottom2 decays
#          BR         NDA      ID1       ID2
     1.02700561E-02    2     1000022         5   # BR(~b_2 -> ~chi_10 b )
     2.53895179E-03    2     1000023         5   # BR(~b_2 -> ~chi_20 b )
     2.64112030E-03    2     1000025         5   # BR(~b_2 -> ~chi_30 b )
     2.74388716E-04    2     1000035         5   # BR(~b_2 -> ~chi_40 b )
     7.04584725E-03    2    -1000024         6   # BR(~b_2 -> ~chi_1- t )
     5.51846770E-04    2    -1000037         6   # BR(~b_2 -> ~chi_2- t )
     9.76596350E-01    2     1000021         5   # BR(~b_2 -> ~g      b )
     8.14388255E-05    2     1000006       -24   # BR(~b_2 -> ~t_1    W-)
#
#         PDG            Width
DECAY   1000002     3.04417124E+02   # sup_L decays
#          BR         NDA      ID1       ID2
     2.45408259E-03    2     1000022         2   # BR(~u_L -> ~chi_10 u)
     6.04090972E-05    2     1000023         2   # BR(~u_L -> ~chi_20 u)
     4.33616849E-06    2     1000025         2   # BR(~u_L -> ~chi_30 u)
     2.56752341E-02    2     1000035         2   # BR(~u_L -> ~chi_40 u)
     1.99424952E-04    2     1000024         1   # BR(~u_L -> ~chi_1+ d)
     5.13121542E-02    2     1000037         1   # BR(~u_L -> ~chi_2+ d)
     9.20294359E-01    2     1000021         2   # BR(~u_L -> ~g      u)
#
#         PDG            Width
DECAY   2000002     2.90708832E+02   # sup_R decays
#          BR         NDA      ID1       ID2
     4.09113630E-02    2     1000022         2   # BR(~u_R -> ~chi_10 u)
     1.55990335E-05    2     1000023         2   # BR(~u_R -> ~chi_20 u)
     1.99413277E-05    2     1000025         2   # BR(~u_R -> ~chi_30 u)
     3.10995141E-09    2     1000035         2   # BR(~u_R -> ~chi_40 u)
     9.59053094E-01    2     1000021         2   # BR(~u_R -> ~g      u)
#
#         PDG            Width
DECAY   1000001     3.04429567E+02   # sdown_L decays
#          BR         NDA      ID1       ID2
     2.44682684E-03    2     1000022         1   # BR(~d_L -> ~chi_10 d)
     3.40855390E-05    2     1000023         1   # BR(~d_L -> ~chi_20 d)
     1.82289704E-05    2     1000025         1   # BR(~d_L -> ~chi_30 d)
     2.56909640E-02    2     1000035         1   # BR(~d_L -> ~chi_40 d)
     2.63862327E-05    2    -1000024         2   # BR(~d_L -> ~chi_1- u)
     5.14071758E-02    2    -1000037         2   # BR(~d_L -> ~chi_2- u)
     9.20376333E-01    2     1000021         1   # BR(~d_L -> ~g      d)
#
#         PDG            Width
DECAY   2000001     2.81802527E+02   # sdown_R decays
#          BR         NDA      ID1       ID2
     1.05516729E-02    2     1000022         1   # BR(~d_R -> ~chi_10 d)
     4.02330462E-06    2     1000023         1   # BR(~d_R -> ~chi_20 d)
     5.14327002E-06    2     1000025         1   # BR(~d_R -> ~chi_30 d)
     8.02207459E-10    2     1000035         1   # BR(~d_R -> ~chi_40 d)
     9.89439160E-01    2     1000021         1   # BR(~d_R -> ~g      d)
#
#         PDG            Width
DECAY   1000004     3.04417124E+02   # scharm_L decays
#          BR         NDA      ID1       ID2
     2.45408259E-03    2     1000022         4   # BR(~c_L -> ~chi_10 c)
     6.04090972E-05    2     1000023         4   # BR(~c_L -> ~chi_20 c)
     4.33616849E-06    2     1000025         4   # BR(~c_L -> ~chi_30 c)
     2.56752341E-02    2     1000035         4   # BR(~c_L -> ~chi_40 c)
     1.99424952E-04    2     1000024         3   # BR(~c_L -> ~chi_1+ s)
     5.13121542E-02    2     1000037         3   # BR(~c_L -> ~chi_2+ s)
     9.20294359E-01    2     1000021         4   # BR(~c_L -> ~g      c)
#
#         PDG            Width
DECAY   2000004     2.90708832E+02   # scharm_R decays
#          BR         NDA      ID1       ID2
     4.09113630E-02    2     1000022         4   # BR(~c_R -> ~chi_10 c)
     1.55990335E-05    2     1000023         4   # BR(~c_R -> ~chi_20 c)
     1.99413277E-05    2     1000025         4   # BR(~c_R -> ~chi_30 c)
     3.10995141E-09    2     1000035         4   # BR(~c_R -> ~chi_40 c)
     9.59053094E-01    2     1000021         4   # BR(~c_R -> ~g      c)
#
#         PDG            Width
DECAY   1000003     3.04429567E+02   # sstrange_L decays
#          BR         NDA      ID1       ID2
     2.44682684E-03    2     1000022         3   # BR(~s_L -> ~chi_10 s)
     3.40855390E-05    2     1000023         3   # BR(~s_L -> ~chi_20 s)
     1.82289704E-05    2     1000025         3   # BR(~s_L -> ~chi_30 s)
     2.56909640E-02    2     1000035         3   # BR(~s_L -> ~chi_40 s)
     2.63862327E-05    2    -1000024         4   # BR(~s_L -> ~chi_1- c)
     5.14071758E-02    2    -1000037         4   # BR(~s_L -> ~chi_2- c)
     9.20376333E-01    2     1000021         3   # BR(~s_L -> ~g      s)
#
#         PDG            Width
DECAY   2000003     2.81802527E+02   # sstrange_R decays
#          BR         NDA      ID1       ID2
     1.05516729E-02    2     1000022         3   # BR(~s_R -> ~chi_10 s)
     4.02330462E-06    2     1000023         3   # BR(~s_R -> ~chi_20 s)
     5.14327002E-06    2     1000025         3   # BR(~s_R -> ~chi_30 s)
     8.02207459E-10    2     1000035         3   # BR(~s_R -> ~chi_40 s)
     9.89439160E-01    2     1000021         3   # BR(~s_R -> ~g      s)
#
#         PDG            Width
DECAY   1000011     3.02447680E+01   # selectron_L decays
#          BR         NDA      ID1       ID2
     2.26690836E-01    2     1000022        11   # BR(~e_L -> ~chi_10 e-)
     9.64187062E-04    2     1000023        11   # BR(~e_L -> ~chi_20 e-)
     1.12106483E-07    2     1000025        11   # BR(~e_L -> ~chi_30 e-)
     2.57157453E-01    2     1000035        11   # BR(~e_L -> ~chi_40 e-)
     2.70000611E-04    2    -1000024        12   # BR(~e_L -> ~chi_1- nu_e)
     5.14917411E-01    2    -1000037        12   # BR(~e_L -> ~chi_2- nu_e)
#
#         PDG            Width
DECAY   2000011     2.73629260E+01   # selectron_R decays
#          BR         NDA      ID1       ID2
     9.99135162E-01    2     1000022        11   # BR(~e_R -> ~chi_10 e-)
     3.79556215E-04    2     1000023        11   # BR(~e_R -> ~chi_20 e-)
     4.85207897E-04    2     1000025        11   # BR(~e_R -> ~chi_30 e-)
     7.41983288E-08    2     1000035        11   # BR(~e_R -> ~chi_40 e-)
#
#         PDG            Width
DECAY   1000013     3.02447680E+01   # smuon_L decays
#          BR         NDA      ID1       ID2
     2.26690836E-01    2     1000022        13   # BR(~mu_L -> ~chi_10 mu-)
     9.64187062E-04    2     1000023        13   # BR(~mu_L -> ~chi_20 mu-)
     1.12106483E-07    2     1000025        13   # BR(~mu_L -> ~chi_30 mu-)
     2.57157453E-01    2     1000035        13   # BR(~mu_L -> ~chi_40 mu-)
     2.70000611E-04    2    -1000024        14   # BR(~mu_L -> ~chi_1- nu_mu)
     5.14917411E-01    2    -1000037        14   # BR(~mu_L -> ~chi_2- nu_mu)
#
#         PDG            Width
DECAY   2000013     2.73629260E+01   # smuon_R decays
#          BR         NDA      ID1       ID2
     9.99135162E-01    2     1000022        13   # BR(~mu_R -> ~chi_10 mu-)
     3.79556215E-04    2     1000023        13   # BR(~mu_R -> ~chi_20 mu-)
     4.85207897E-04    2     1000025        13   # BR(~mu_R -> ~chi_30 mu-)
     7.41983288E-08    2     1000035        13   # BR(~mu_R -> ~chi_40 mu-)
#
#         PDG            Width
DECAY   1000015     2.90058280E+01   # stau_1 decays
#          BR         NDA      ID1       ID2
     9.25601306E-01    2     1000022        15   # BR(~tau_1 -> ~chi_10  tau-)
     1.44580869E-02    2     1000023        15   # BR(~tau_1 -> ~chi_20  tau-)
     1.32816179E-02    2     1000025        15   # BR(~tau_1 -> ~chi_30  tau-)
     6.40119336E-03    2     1000035        15   # BR(~tau_1 -> ~chi_40  tau-)
     2.74405086E-02    2    -1000024        16   # BR(~tau_1 -> ~chi_1-  nu_tau)
     1.28172876E-02    2    -1000037        16   # BR(~tau_1 -> ~chi_2-  nu_tau)
#
#         PDG            Width
DECAY   2000015     3.09625041E+01   # stau_2 decays
#          BR         NDA      ID1       ID2
     2.37146630E-01    2     1000022        15   # BR(~tau_2 -> ~chi_10  tau-)
     1.33030673E-02    2     1000023        15   # BR(~tau_2 -> ~chi_20  tau-)
     1.35198791E-02    2     1000025        15   # BR(~tau_2 -> ~chi_30  tau-)
     2.45124153E-01    2     1000035        15   # BR(~tau_2 -> ~chi_40  tau-)
     8.45632312E-05    2    -1000024        16   # BR(~tau_2 -> ~chi_1-  nu_tau)
     4.90821708E-01    2    -1000037        16   # BR(~tau_2 -> ~chi_2-  nu_tau)
#
#         PDG            Width
DECAY   1000012     3.02469814E+01   # snu_eL decays
#          BR         NDA      ID1       ID2
     2.26403775E-01    2     1000022        12   # BR(~nu_eL -> ~chi_10 nu_e)
     1.55899989E-04    2     1000023        12   # BR(~nu_eL -> ~chi_20 nu_e)
     4.26437677E-04    2     1000025        12   # BR(~nu_eL -> ~chi_30 nu_e)
     2.57237182E-01    2     1000035        12   # BR(~nu_eL -> ~chi_40 nu_e)
     2.04014917E-03    2     1000024        11   # BR(~nu_eL -> ~chi_1+ e-)
     5.13736556E-01    2     1000037        11   # BR(~nu_eL -> ~chi_2+ e-)
#
#         PDG            Width
DECAY   1000014     3.02469814E+01   # snu_muL decays
#          BR         NDA      ID1       ID2
     2.26403775E-01    2     1000022        14   # BR(~nu_muL -> ~chi_10 nu_mu)
     1.55899989E-04    2     1000023        14   # BR(~nu_muL -> ~chi_20 nu_mu)
     4.26437677E-04    2     1000025        14   # BR(~nu_muL -> ~chi_30 nu_mu)
     2.57237182E-01    2     1000035        14   # BR(~nu_muL -> ~chi_40 nu_mu)
     2.04014917E-03    2     1000024        13   # BR(~nu_muL -> ~chi_1+ mu-)
     5.13736556E-01    2     1000037        13   # BR(~nu_muL -> ~chi_2+ mu-)
#
#         PDG            Width
DECAY   1000016     3.10309895E+01   # snu_tauL decays
#          BR         NDA      ID1       ID2
     2.20659820E-01    2     1000022        16   # BR(~nu_tauL -> ~chi_10 nu_tau)
     1.51939230E-04    2     1000023        16   # BR(~nu_tauL -> ~chi_20 nu_tau)
     4.15603644E-04    2     1000025        16   # BR(~nu_tauL -> ~chi_30 nu_tau)
     2.50646063E-01    2     1000035        16   # BR(~nu_tauL -> ~chi_40 nu_tau)
     2.75525261E-02    2     1000024        15   # BR(~nu_tauL -> ~chi_1+ tau-)
     5.00574048E-01    2     1000037        15   # BR(~nu_tauL -> ~chi_2+ tau-)
#
#         PDG            Width
DECAY   1000024     8.60165567E-01   # chargino1+ decays
#          BR         NDA      ID1       ID2
     1.00000000E+00    2     1000022        24   # BR(~chi_1+ -> ~chi_10  W+)
#
#         PDG            Width
DECAY   1000037     1.88587220E+01   # chargino2+ decays
#          BR         NDA      ID1       ID2
     2.52820786E-01    2     1000024        23   # BR(~chi_2+ -> ~chi_1+  Z )
     2.42485506E-04    2     1000022        24   # BR(~chi_2+ -> ~chi_10  W+)
     2.43981569E-01    2     1000023        24   # BR(~chi_2+ -> ~chi_20  W+)
     2.43796064E-01    2     1000025        24   # BR(~chi_2+ -> ~chi_30  W+)
     2.59158629E-01    2     1000024        25   # BR(~chi_2+ -> ~chi_1+  h )
     4.67224431E-07    2     1000022        37   # BR(~chi_2+ -> ~chi_10  H+)
#
#         PDG            Width
DECAY   1000022     0.00000000E+00   # neutralino1 decays
#
#         PDG            Width
DECAY   1000023     9.03210360E-01   # neutralino2 decays
#          BR         NDA      ID1       ID2
     5.54035071E-01    2     1000022        23   # BR(~chi_20 -> ~chi_10   Z )
     4.45964929E-01    2     1000022        25   # BR(~chi_20 -> ~chi_10   h )
#
#         PDG            Width
DECAY   1000025     9.11554218E-01   # neutralino3 decays
#          BR         NDA      ID1       ID2
     4.29770451E-01    2     1000022        23   # BR(~chi_30 -> ~chi_10   Z )
     5.70229549E-01    2     1000022        25   # BR(~chi_30 -> ~chi_10   h )
#
#         PDG            Width
DECAY   1000035     1.88638008E+01   # neutralino4 decays
#          BR         NDA      ID1       ID2
     8.23078857E-05    2     1000022        23   # BR(~chi_40 -> ~chi_10   Z )
     4.53952163E-02    2     1000023        23   # BR(~chi_40 -> ~chi_20   Z )
     2.06809001E-01    2     1000025        23   # BR(~chi_40 -> ~chi_30   Z )
     2.44437433E-01    2     1000024       -24   # BR(~chi_40 -> ~chi_1+   W-)
     2.44437433E-01    2    -1000024        24   # BR(~chi_40 -> ~chi_1-   W+)
     1.65176833E-04    2     1000022        25   # BR(~chi_40 -> ~chi_10   h )
     4.23864818E-07    2     1000022        35   # BR(~chi_40 -> ~chi_10   H )
     6.02587972E-08    2     1000022        36   # BR(~chi_40 -> ~chi_10   A )
     2.13271059E-01    2     1000023        25   # BR(~chi_40 -> ~chi_20   h )
     4.54018889E-02    2     1000025        25   # BR(~chi_40 -> ~chi_30   h )
#
#         PDG            Width
DECAY        25     4.03796352E-03   # h decays
#          BR         NDA      ID1       ID2
     6.10593028E-01    2           5        -5   # BR(h -> b       bb     )
     6.41506250E-02    2         -15        15   # BR(h -> tau+    tau-   )
     2.27117207E-04    2         -13        13   # BR(h -> mu+     mu-    )
     4.81589366E-04    2           3        -3   # BR(h -> s       sb     )
     2.08696793E-02    2           4        -4   # BR(h -> c       cb     )
     6.73330491E-02    2          21        21   # BR(h -> g       g      )
     2.31173302E-03    2          22        22   # BR(h -> gam     gam    )
     1.47773518E-03    2          22        23   # BR(h -> Z       gam    )
     2.07819421E-01    2          24       -24   # BR(h -> W+      W-     )
     2.47015563E-02    2          23        23   # BR(h -> Z       Z      )
     3.44662696E-05    2     1000022   1000022   # BR(h -> ~chi_10 ~chi_10)
#
#         PDG            Width
DECAY        35     7.44432298E+00   # H decays
#          BR         NDA      ID1       ID2
     4.37133215E-01    2           5        -5   # BR(H -> b       bb     )
     7.48677072E-02    2         -15        15   # BR(H -> tau+    tau-   )
     2.64738159E-04    2         -13        13   # BR(H -> mu+     mu-    )
     3.24528419E-04    2           3        -3   # BR(H -> s       sb     )
     1.81369798E-06    2           4        -4   # BR(H -> c       cb     )
     1.81202796E-01    2           6        -6   # BR(H -> t       tb     )
     6.01533351E-05    2          21        21   # BR(H -> g       g      )
     3.84237801E-07    2          22        22   # BR(H -> gam     gam    )
     1.06968862E-07    2          23        22   # BR(H -> Z       gam    )
     8.10545024E-05    2          24       -24   # BR(H -> W+      W-     )
     4.04759542E-05    2          23        23   # BR(H -> Z       Z      )
     3.06561462E-04    2          25        25   # BR(H -> h       h      )
    -8.90112981E-24    2          36        36   # BR(H -> A       A      )
     1.03594405E-18    2          23        36   # BR(H -> Z       A      )
     3.04491476E-04    2     1000024  -1000024   # BR(H -> ~chi_1+ ~chi_1-)
     9.90031956E-04    2     1000022   1000022   # BR(H -> ~chi_10 ~chi_10)
     2.94894841E-05    2     1000023   1000023   # BR(H -> ~chi_20 ~chi_20)
     4.25713978E-05    2     1000025   1000025   # BR(H -> ~chi_30 ~chi_30)
     1.81260898E-01    2     1000022   1000023   # BR(H -> ~chi_10 ~chi_20)
     1.23032790E-01    2     1000022   1000025   # BR(H -> ~chi_10 ~chi_30)
     5.61934180E-05    2     1000023   1000025   # BR(H -> ~chi_20 ~chi_30)
#
#         PDG            Width
DECAY        36     7.46350394E+00   # A decays
#          BR         NDA      ID1       ID2
     4.36156196E-01    2           5        -5   # BR(A -> b       bb     )
     7.46774422E-02    2         -15        15   # BR(A -> tau+    tau-   )
     2.64064998E-04    2         -13        13   # BR(A -> mu+     mu-    )
     3.23939720E-04    2           3        -3   # BR(A -> s       sb     )
     1.81657735E-06    2           4        -4   # BR(A -> c       cb     )
     1.81390328E-01    2           6        -6   # BR(A -> t       tb     )
     1.79532954E-04    2          21        21   # BR(A -> g       g      )
     4.26432531E-07    2          22        22   # BR(A -> gam     gam    )
     2.17421812E-07    2          23        22   # BR(A -> Z       gam    )
     8.05414759E-05    2          23        25   # BR(A -> Z       h      )
     2.01947515E-03    2     1000024  -1000024   # BR(A -> ~chi_1+ ~chi_1-)
     1.01520624E-03    2     1000022   1000022   # BR(A -> ~chi_10 ~chi_10)
     1.48498432E-04    2     1000023   1000023   # BR(A -> ~chi_20 ~chi_20)
     5.12796985E-04    2     1000025   1000025   # BR(A -> ~chi_30 ~chi_30)
     1.24203317E-01    2     1000022   1000023   # BR(A -> ~chi_10 ~chi_20)
     1.79025473E-01    2     1000022   1000025   # BR(A -> ~chi_10 ~chi_30)
     7.27941204E-07    2     1000023   1000025   # BR(A -> ~chi_20 ~chi_30)
#
#         PDG            Width
DECAY        37     7.43385619E+00   # H+ decays
#          BR         NDA      ID1       ID2
     7.01616845E-04    2           4        -5   # BR(H+ -> c       bb     )
     7.49971071E-02    2         -15        16   # BR(H+ -> tau+    nu_tau )
     2.65195357E-04    2         -13        14   # BR(H+ -> mu+     nu_mu  )
     4.49032472E-06    2           2        -5   # BR(H+ -> u       bb     )
     1.55611109E-05    2           2        -3   # BR(H+ -> u       sb     )
     3.21803304E-04    2           4        -3   # BR(H+ -> c       sb     )
     6.16813622E-01    2           6        -5   # BR(H+ -> t       bb     )
     8.09852916E-05    2          24        25   # BR(H+ -> W+      h      )
     9.00188456E-14    2          24        36   # BR(H+ -> W+      A      )
     3.06525462E-01    2     1000024   1000022   # BR(H+ -> ~chi_1+ ~chi_10)
     2.17348715E-04    2     1000024   1000023   # BR(H+ -> ~chi_1+ ~chi_20)
     5.68074980E-05    2     1000024   1000025   # BR(H+ -> ~chi_1+ ~chi_30)
