#
#                              ======================
#                              | THE SUSYHIT OUTPUT |
#                              ======================
#
#
#              ------------------------------------------------------
#              |     This is the output of the SUSY-HIT package     |
#              |  created by A.Djouadi, M.Muehlleitner and M.Spira. |
#              |  In case of problems with SUSY-HIT email to        |
#              |           margarete.muehlleitner@cern.ch           |
#              |           michael.spira@psi.ch                     |
#              |           abdelhak.djouadi@cern.ch                 |
#              ------------------------------------------------------
#
#              ------------------------------------------------------
#              |  SUSY Les Houches Accord - MSSM Spectrum + Decays  |
#              |              based on the decay programs           |
#              |                                                    |
#              |                     SDECAY 1.3b                    |
#              |                                                    |
#              |  Authors: M.Muhlleitner, A.Djouadi and Y.Mambrini  |
#              |  Ref.:    Comput.Phys.Commun.168(2005)46           |
#              |           [hep-ph/0311167]                         |
#              |                                                    |
#              |                     HDECAY 3.4                     |
#              |                                                    |
#              |  By: A.Djouadi,J.Kalinowski,M.Muhlleitner,M.Spira  |
#              |  Ref.:    Comput.Phys.Commun.108(1998)56           |
#              |           [hep-ph/9704448]                         |
#              |                                                    |
#              |                                                    |
#              |  If not stated otherwise all DRbar couplings and   |
#              |  soft SUSY breaking masses are given at the scale  |
#              |  Q=  0.50007293E+04
#              |                                                    |
#              ------------------------------------------------------
#
#
BLOCK DCINFO  # Decay Program information
     1   SDECAY/HDECAY # decay calculator
     2   1.3b  /3.4    # version number
#
BLOCK SPINFO  # Spectrum calculator information
     1    SOFTSUSY    # spectrum calculator                
     2    3.4.0       # version number                     
#
BLOCK MODSEL  # Model selection
     1     0   #  nonUniversal                                     
#
BLOCK SMINPUTS  # Standard Model inputs
         1     1.25778332E+02   # alpha_em^-1(M_Z)^MSbar
         2     1.16570000E-05   # G_F [GeV^-2]
         3     1.17200002E-01   # alpha_S(M_Z)^MSbar
         4     9.11876000E+01   # M_Z pole mass
         5     4.25000000E+00   # mb(mb)^MSbar
         6     1.72500000E+02   # mt pole mass
         7     1.77682000E+00   # mtau pole mass
#
BLOCK MINPAR  # Input parameters - minimal models
         3     1.00000000E+01   # tanb                
#
BLOCK EXTPAR  # Input parameters - non-minimal models
         0    -1.00000000E+00   # Set                 
         1     6.00000000E+01   # M_1(MX)             
         2     3.00000000E+03   # M_2(MX)             
         3     8.59144000E+02   # M_3(MX)             
        11     5.00000000E+03   # At(MX)              
        12     5.00000000E+03   # Ab(MX)              
        13     0.00000000E+00   # Atau(MX)            
        23    -9.59383000E+02   # mu(MX)              
        26     3.00000000E+03   # mA(pole)            
        31     5.00000000E+03   # meL(MX)             
        32     5.00000000E+03   # mmuL(MX)            
        33     5.00000000E+03   # mtauL(MX)           
        34     5.00000000E+03   # meR(MX)             
        35     5.00000000E+03   # mmuR(MX)            
        36     5.00000000E+03   # mtauR(MX)           
        41     5.00000000E+03   # mqL1(MX)            
        42     5.00000000E+03   # mqL2(MX)            
        43     5.00000000E+03   # mqL3(MX)            
        44     5.00000000E+03   # muR(MX)             
        45     5.00000000E+03   # mcR(MX)             
        46     5.00000000E+03   # mtR(MX)             
        47     5.00000000E+03   # mdR(MX)             
        48     5.00000000E+03   # msR(MX)             
        49     5.00000000E+03   # mbR(MX)             
#
BLOCK MASS  # Mass Spectrum
# PDG code           mass       particle
        24     8.00928099E+01   # W+
        25     1.24390316E+02   # h
        35     3.00008117E+03   # H
        36     2.99999850E+03   # A
        37     3.00111293E+03   # H+
         5     4.87878001E+00   # b-quark pole mass calculated from mb(mb)_Msbar
   1000001     5.06420129E+03   # ~d_L
   2000001     5.04636907E+03   # ~d_R
   1000002     5.06372445E+03   # ~u_L
   2000002     5.04608261E+03   # ~u_R
   1000003     5.06420129E+03   # ~s_L
   2000003     5.04636907E+03   # ~s_R
   1000004     5.06372445E+03   # ~c_L
   2000004     5.04608261E+03   # ~c_R
   1000005     5.01047963E+03   # ~b_1
   2000005     5.04494312E+03   # ~b_2
   1000006     4.90094558E+03   # ~t_1
   2000006     5.05636424E+03   # ~t_2
   1000011     5.01907339E+03   # ~e_L
   2000011     5.00592442E+03   # ~e_R
   1000012     5.01812420E+03   # ~nu_eL
   1000013     5.01907339E+03   # ~mu_L
   2000013     5.00592442E+03   # ~mu_R
   1000014     5.01812420E+03   # ~nu_muL
   1000015     5.00461206E+03   # ~tau_1
   2000015     5.01876809E+03   # ~tau_2
   1000016     5.01757796E+03   # ~nu_tauL
   1000021     1.10000101E+03   # ~g
   1000022     6.02983674E+01   # ~chi_10
   1000023     9.99651927E+02   # ~chi_20
   1000025    -1.00190806E+03   # ~chi_30
   1000035     3.07425897E+03   # ~chi_40
   1000024     1.00000087E+03   # ~chi_1+
   1000037     3.07442649E+03   # ~chi_2+
#
BLOCK NMIX  # Neutralino Mixing Matrix
  1  1     9.99006719E-01   # N_11
  1  2     1.84550837E-04   # N_12
  1  3    -4.45163531E-02   # N_13
  1  4     1.95838362E-03   # N_14
  2  1     3.01017656E-02   # N_21
  2  2     2.34985783E-02   # N_22
  2  3     7.06701266E-01   # N_23
  2  4     7.06480730E-01   # N_24
  3  1    -3.28526591E-02   # N_31
  3  2     1.49144472E-02   # N_32
  3  3    -7.06084112E-01   # N_33
  3  4     7.07208236E-01   # N_34
  4  1    -4.01892667E-04   # N_41
  4  2     9.99612596E-01   # N_42
  4  3    -6.06975671E-03   # N_43
  4  4    -2.71597958E-02   # N_44
#
BLOCK UMIX  # Chargino Mixing Matrix U
  1  1     8.59762089E-03   # U_11
  1  2     9.99963040E-01   # U_12
  2  1    -9.99963040E-01   # U_21
  2  2     8.59762089E-03   # U_22
#
BLOCK VMIX  # Chargino Mixing Matrix V
  1  1     3.84395552E-02   # V_11
  1  2    -9.99260927E-01   # V_12
  2  1    -9.99260927E-01   # V_21
  2  2    -3.84395552E-02   # V_22
#
BLOCK STOPMIX  # Stop Mixing Matrix
  1  1    -5.09980846E-01   # cos(theta_t)
  1  2     8.60185757E-01   # sin(theta_t)
  2  1    -8.60185757E-01   # -sin(theta_t)
  2  2    -5.09980846E-01   # cos(theta_t)
#
BLOCK SBOTMIX  # Sbottom Mixing Matrix
  1  1     9.97021077E-01   # cos(theta_b)
  1  2    -7.71295794E-02   # sin(theta_b)
  2  1     7.71295794E-02   # -sin(theta_b)
  2  2     9.97021077E-01   # cos(theta_b)
#
BLOCK STAUMIX  # Stau Mixing Matrix
  1  1    -1.13927889E-01   # cos(theta_tau)
  1  2     9.93489022E-01   # sin(theta_tau)
  2  1    -9.93489022E-01   # -sin(theta_tau)
  2  2    -1.13927889E-01   # cos(theta_tau)
#
BLOCK ALPHA  # Higgs mixing
          -1.05431828E-01   # Mixing angle in the neutral Higgs boson sector
#
BLOCK HMIX Q=  5.00072926E+03  # DRbar Higgs Parameters
         1    -9.76525333E+02   # mu(Q)MSSM           
         2     9.47355305E+00   # tan                 
         3     2.41913025E+02   # higgs               
         4     8.51084429E+06   # mA^2(Q)MSSM         
#
BLOCK GAUGE Q=  5.00072926E+03  # The gauge couplings
     1     3.70814545E-01   # gprime(Q) DRbar
     2     6.32595735E-01   # g(Q) DRbar
     3     1.00724344E+00   # g3(Q) DRbar
#
BLOCK AU Q=  5.00072926E+03  # The trilinear couplings
  1  1     5.00000001E+03   # A_u(Q) DRbar
  2  2     5.00000001E+03   # A_c(Q) DRbar
  3  3     5.00000001E+03   # A_t(Q) DRbar
#
BLOCK AD Q=  5.00072926E+03  # The trilinear couplings
  1  1     5.00000000E+03   # A_d(Q) DRbar
  2  2     5.00000000E+03   # A_s(Q) DRbar
  3  3     5.00000001E+03   # A_b(Q) DRbar
#
BLOCK AE Q=  5.00072926E+03  # The trilinear couplings
  1  1     0.00000000E+00   # A_e(Q) DRbar
  2  2     3.31139361E-08   # A_mu(Q) DRbar
  3  3     3.22013744E-08   # A_tau(Q) DRbar
#
BLOCK Yu Q=  5.00072926E+03  # The Yukawa couplings
  1  1     0.00000000E+00   # y_u(Q) DRbar
  2  2     0.00000000E+00   # y_c(Q) DRbar
  3  3     8.15042953E-01   # y_t(Q) DRbar
#
BLOCK Yd Q=  5.00072926E+03  # The Yukawa couplings
  1  1     0.00000000E+00   # y_d(Q) DRbar
  2  2     0.00000000E+00   # y_s(Q) DRbar
  3  3     1.29537352E-01   # y_b(Q) DRbar
#
BLOCK Ye Q=  5.00072926E+03  # The Yukawa couplings
  1  1     0.00000000E+00   # y_e(Q) DRbar
  2  2     0.00000000E+00   # y_mu(Q) DRbar
  3  3     9.68689614E-02   # y_tau(Q) DRbar
#
BLOCK MSOFT Q=  5.00072926E+03  # The soft SUSY breaking masses at the scale Q
         1     6.00000000E+01   # M_1(Q)              
         2     3.00000000E+03   # M_2(Q)              
         3     8.59144000E+02   # M_3(Q)              
        21     7.74245978E+06   # mH1^2(Q)            
        22    -3.93669139E+05   # mH2^2(Q)            
        31     5.00000000E+03   # meL(Q)              
        32     5.00000000E+03   # mmuL(Q)             
        33     5.00000000E+03   # mtauL(Q)            
        34     5.00000000E+03   # meR(Q)              
        35     5.00000000E+03   # mmuR(Q)             
        36     5.00000000E+03   # mtauR(Q)            
        41     5.00000000E+03   # mqL1(Q)             
        42     5.00000000E+03   # mqL2(Q)             
        43     5.00000000E+03   # mqL3(Q)             
        44     5.00000000E+03   # muR(Q)              
        45     5.00000000E+03   # mcR(Q)              
        46     5.00000000E+03   # mtR(Q)              
        47     5.00000000E+03   # mdR(Q)              
        48     5.00000000E+03   # msR(Q)              
        49     5.00000000E+03   # mbR(Q)              
#
#
#
#                             =================
#                             |The decay table|
#                             =================
#
# - The QCD corrections to the decays gluino -> squark  + quark
#                                     squark -> gaugino + quark_prime
#                                     squark -> squark_prime + Higgs
#                                     squark -> gluino  + quark
#   are included.
#
# - The multi-body decays for the inos, stops and sbottoms are included.
#
# - The loop induced decays for the gluino, neutralinos and stops
#   are included.
#
# - The SUSY decays of the top quark are included.
#
#
#         PDG            Width
DECAY         6     1.40245301E+00   # top decays
#          BR         NDA      ID1       ID2
     1.00000000E+00    2           5        24   # BR(t ->  b    W+)
#
#         PDG            Width
DECAY   1000021     1.38181349E-05   # gluino decays
#          BR         NDA      ID1       ID2
     1.74729343E-05    2     1000022        21   # BR(~g -> ~chi_10 g)
     9.66891231E-04    2     1000023        21   # BR(~g -> ~chi_20 g)
     8.96375667E-04    2     1000025        21   # BR(~g -> ~chi_30 g)
#           BR         NDA      ID1       ID2       ID3
     8.13934772E-02    3     1000022         1        -1   # BR(~g -> ~chi_10 d  db)
     1.95708114E-08    3     1000023         1        -1   # BR(~g -> ~chi_20 d  db)
     8.08850558E-09    3     1000025         1        -1   # BR(~g -> ~chi_30 d  db)
     2.77497973E-01    3     1000022         2        -2   # BR(~g -> ~chi_10 u  ub)
     6.18834106E-08    3     1000023         2        -2   # BR(~g -> ~chi_20 u  ub)
     9.63566008E-09    3     1000025         2        -2   # BR(~g -> ~chi_30 u  ub)
     8.13934772E-02    3     1000022         3        -3   # BR(~g -> ~chi_10 s  sb)
     1.95708114E-08    3     1000023         3        -3   # BR(~g -> ~chi_20 s  sb)
     8.08850558E-09    3     1000025         3        -3   # BR(~g -> ~chi_30 s  sb)
     2.77497973E-01    3     1000022         4        -4   # BR(~g -> ~chi_10 c  cb)
     6.18834106E-08    3     1000023         4        -4   # BR(~g -> ~chi_20 c  cb)
     9.63566008E-09    3     1000025         4        -4   # BR(~g -> ~chi_30 c  cb)
     8.25591692E-02    3     1000022         5        -5   # BR(~g -> ~chi_10 b  bb)
     3.73256508E-06    3     1000023         5        -5   # BR(~g -> ~chi_20 b  bb)
     3.21767404E-06    3     1000025         5        -5   # BR(~g -> ~chi_30 b  bb)
     1.97769827E-01    3     1000022         6        -6   # BR(~g -> ~chi_10 t  tb)
     5.35955124E-08    3     1000024         1        -2   # BR(~g -> ~chi_1+ d  ub)
     5.35955124E-08    3    -1000024         2        -1   # BR(~g -> ~chi_1- u  db)
     5.35955124E-08    3     1000024         3        -4   # BR(~g -> ~chi_1+ s  cb)
     5.35955124E-08    3    -1000024         4        -3   # BR(~g -> ~chi_1- c  sb)
#
#         PDG            Width
DECAY   1000006     4.09705285E+02   # stop1 decays
#          BR         NDA      ID1       ID2
     2.14628049E-02    2     1000022         6   # BR(~t_1 -> ~chi_10 t )
     7.37448275E-02    2     1000023         6   # BR(~t_1 -> ~chi_20 t )
     7.08145492E-02    2     1000025         6   # BR(~t_1 -> ~chi_30 t )
     5.16115468E-03    2     1000035         6   # BR(~t_1 -> ~chi_40 t )
     1.06279760E-01    2     1000024         5   # BR(~t_1 -> ~chi_1+ b )
     1.02825848E-02    2     1000037         5   # BR(~t_1 -> ~chi_2+ b )
     7.12254319E-01    2     1000021         6   # BR(~t_1 -> ~g      t )
#
#         PDG            Width
DECAY   2000006     4.11465206E+02   # stop2 decays
#          BR         NDA      ID1       ID2
     8.67608739E-03    2     1000022         6   # BR(~t_2 -> ~chi_10 t )
     7.50873189E-02    2     1000023         6   # BR(~t_2 -> ~chi_20 t )
     7.82826010E-02    2     1000025         6   # BR(~t_2 -> ~chi_30 t )
     1.32911840E-02    2     1000035         6   # BR(~t_2 -> ~chi_40 t )
     4.56407728E-02    2     1000024         5   # BR(~t_2 -> ~chi_1+ b )
     2.64440912E-02    2     1000037         5   # BR(~t_2 -> ~chi_2+ b )
     7.49425816E-01    2     1000021         6   # BR(~t_2 -> ~g      t )
     7.04248879E-04    2     1000006        25   # BR(~t_2 -> ~t_1    h )
     2.44787962E-03    2     1000006        23   # BR(~t_2 -> ~t_1    Z )
#
#         PDG            Width
DECAY   1000005     3.89374668E+02   # sbottom1 decays
#          BR         NDA      ID1       ID2
     1.99162485E-03    2     1000022         5   # BR(~b_1 -> ~chi_10 b )
     2.02241855E-03    2     1000023         5   # BR(~b_1 -> ~chi_20 b )
     1.96659159E-03    2     1000025         5   # BR(~b_1 -> ~chi_30 b )
     1.92476554E-02    2     1000035         5   # BR(~b_1 -> ~chi_40 b )
     1.57164470E-01    2    -1000024         6   # BR(~b_1 -> ~chi_1- t )
     3.86724099E-02    2    -1000037         6   # BR(~b_1 -> ~chi_2- t )
     7.77471310E-01    2     1000021         5   # BR(~b_1 -> ~g      b )
     1.46351959E-03    2     1000006       -24   # BR(~b_1 -> ~t_1    W-)
#
#         PDG            Width
DECAY   2000005     3.11582816E+02   # sbottom2 decays
#          BR         NDA      ID1       ID2
     9.43793587E-03    2     1000022         5   # BR(~b_2 -> ~chi_10 b )
     2.51627093E-03    2     1000023         5   # BR(~b_2 -> ~chi_20 b )
     2.58589138E-03    2     1000025         5   # BR(~b_2 -> ~chi_30 b )
     1.49620498E-04    2     1000035         5   # BR(~b_2 -> ~chi_40 b )
     6.18245421E-03    2    -1000024         6   # BR(~b_2 -> ~chi_1- t )
     3.00570145E-04    2    -1000037         6   # BR(~b_2 -> ~chi_2- t )
     9.78782743E-01    2     1000021         5   # BR(~b_2 -> ~g      b )
     4.45142676E-05    2     1000006       -24   # BR(~b_2 -> ~t_1    W-)
#
#         PDG            Width
DECAY   1000002     3.30475951E+02   # sup_L decays
#          BR         NDA      ID1       ID2
     2.26166509E-03    2     1000022         2   # BR(~u_L -> ~chi_10 u)
     4.72567140E-05    2     1000023         2   # BR(~u_L -> ~chi_20 u)
     3.94954049E-06    2     1000025         2   # BR(~u_L -> ~chi_30 u)
     2.36335092E-02    2     1000035         2   # BR(~u_L -> ~chi_40 u)
     1.61776122E-04    2     1000024         1   # BR(~u_L -> ~chi_1+ d)
     4.72352095E-02    2     1000037         1   # BR(~u_L -> ~chi_2+ d)
     9.26656634E-01    2     1000021         2   # BR(~u_L -> ~g      u)
#
#         PDG            Width
DECAY   2000002     3.16875464E+02   # sup_R decays
#          BR         NDA      ID1       ID2
     3.75368330E-02    2     1000022         2   # BR(~u_R -> ~chi_10 u)
     3.14746252E-05    2     1000023         2   # BR(~u_R -> ~chi_20 u)
     3.74763225E-05    2     1000025         2   # BR(~u_R -> ~chi_30 u)
     2.40596639E-09    2     1000035         2   # BR(~u_R -> ~chi_40 u)
     9.62394214E-01    2     1000021         2   # BR(~u_R -> ~g      u)
#
#         PDG            Width
DECAY   1000001     3.30485619E+02   # sdown_L decays
#          BR         NDA      ID1       ID2
     2.25327508E-03    2     1000022         1   # BR(~d_L -> ~chi_10 d)
     1.69920699E-05    2     1000023         1   # BR(~d_L -> ~chi_20 d)
     2.49090570E-05    2     1000025         1   # BR(~d_L -> ~chi_30 d)
     2.36476386E-02    2     1000035         1   # BR(~d_L -> ~chi_40 d)
     8.09373917E-06    2    -1000024         2   # BR(~d_L -> ~chi_1- u)
     4.73150219E-02    2    -1000037         2   # BR(~d_L -> ~chi_2- u)
     9.26734070E-01    2     1000021         1   # BR(~d_L -> ~g      d)
#
#         PDG            Width
DECAY   2000001     3.07959138E+02   # sdown_R decays
#          BR         NDA      ID1       ID2
     9.65645889E-03    2     1000022         1   # BR(~d_R -> ~chi_10 d)
     8.09701278E-06    2     1000023         1   # BR(~d_R -> ~chi_20 d)
     9.64098139E-06    2     1000025         1   # BR(~d_R -> ~chi_30 d)
     6.19024146E-10    2     1000035         1   # BR(~d_R -> ~chi_40 d)
     9.90325803E-01    2     1000021         1   # BR(~d_R -> ~g      d)
#
#         PDG            Width
DECAY   1000004     3.30475951E+02   # scharm_L decays
#          BR         NDA      ID1       ID2
     2.26166509E-03    2     1000022         4   # BR(~c_L -> ~chi_10 c)
     4.72567140E-05    2     1000023         4   # BR(~c_L -> ~chi_20 c)
     3.94954049E-06    2     1000025         4   # BR(~c_L -> ~chi_30 c)
     2.36335092E-02    2     1000035         4   # BR(~c_L -> ~chi_40 c)
     1.61776122E-04    2     1000024         3   # BR(~c_L -> ~chi_1+ s)
     4.72352095E-02    2     1000037         3   # BR(~c_L -> ~chi_2+ s)
     9.26656634E-01    2     1000021         4   # BR(~c_L -> ~g      c)
#
#         PDG            Width
DECAY   2000004     3.16875464E+02   # scharm_R decays
#          BR         NDA      ID1       ID2
     3.75368330E-02    2     1000022         4   # BR(~c_R -> ~chi_10 c)
     3.14746252E-05    2     1000023         4   # BR(~c_R -> ~chi_20 c)
     3.74763225E-05    2     1000025         4   # BR(~c_R -> ~chi_30 c)
     2.40596639E-09    2     1000035         4   # BR(~c_R -> ~chi_40 c)
     9.62394214E-01    2     1000021         4   # BR(~c_R -> ~g      c)
#
#         PDG            Width
DECAY   1000003     3.30485619E+02   # sstrange_L decays
#          BR         NDA      ID1       ID2
     2.25327508E-03    2     1000022         3   # BR(~s_L -> ~chi_10 s)
     1.69920699E-05    2     1000023         3   # BR(~s_L -> ~chi_20 s)
     2.49090570E-05    2     1000025         3   # BR(~s_L -> ~chi_30 s)
     2.36476386E-02    2     1000035         3   # BR(~s_L -> ~chi_40 s)
     8.09373917E-06    2    -1000024         4   # BR(~s_L -> ~chi_1- c)
     4.73150219E-02    2    -1000037         4   # BR(~s_L -> ~chi_2- c)
     9.26734070E-01    2     1000021         3   # BR(~s_L -> ~g      s)
#
#         PDG            Width
DECAY   2000003     3.07959138E+02   # sstrange_R decays
#          BR         NDA      ID1       ID2
     9.65645889E-03    2     1000022         3   # BR(~s_R -> ~chi_10 s)
     8.09701278E-06    2     1000023         3   # BR(~s_R -> ~chi_20 s)
     9.64098139E-06    2     1000025         3   # BR(~s_R -> ~chi_30 s)
     6.19024146E-10    2     1000035         3   # BR(~s_R -> ~chi_40 s)
     9.90325803E-01    2     1000021         3   # BR(~s_R -> ~g      s)
#
#         PDG            Width
DECAY   1000011     3.02749282E+01   # selectron_L decays
#          BR         NDA      ID1       ID2
     2.26380613E-01    2     1000022        11   # BR(~e_L -> ~chi_10 e-)
     1.03024345E-03    2     1000023        11   # BR(~e_L -> ~chi_20 e-)
     1.14755383E-05    2     1000025        11   # BR(~e_L -> ~chi_30 e-)
     2.57317133E-01    2     1000035        11   # BR(~e_L -> ~chi_40 e-)
     8.99697626E-05    2    -1000024        12   # BR(~e_L -> ~chi_1- nu_e)
     5.15170565E-01    2    -1000037        12   # BR(~e_L -> ~chi_2- nu_e)
#
#         PDG            Width
DECAY   2000011     2.73756562E+01   # selectron_R decays
#          BR         NDA      ID1       ID2
     9.98169272E-01    2     1000022        11   # BR(~e_R -> ~chi_10 e-)
     8.35661806E-04    2     1000023        11   # BR(~e_R -> ~chi_20 e-)
     9.95003547E-04    2     1000025        11   # BR(~e_R -> ~chi_30 e-)
     6.26877500E-08    2     1000035        11   # BR(~e_R -> ~chi_40 e-)
#
#         PDG            Width
DECAY   1000013     3.02749282E+01   # smuon_L decays
#          BR         NDA      ID1       ID2
     2.26380613E-01    2     1000022        13   # BR(~mu_L -> ~chi_10 mu-)
     1.03024345E-03    2     1000023        13   # BR(~mu_L -> ~chi_20 mu-)
     1.14755383E-05    2     1000025        13   # BR(~mu_L -> ~chi_30 mu-)
     2.57317133E-01    2     1000035        13   # BR(~mu_L -> ~chi_40 mu-)
     8.99697626E-05    2    -1000024        14   # BR(~mu_L -> ~chi_1- nu_mu)
     5.15170565E-01    2    -1000037        14   # BR(~mu_L -> ~chi_2- nu_mu)
#
#         PDG            Width
DECAY   2000013     2.73756562E+01   # smuon_R decays
#          BR         NDA      ID1       ID2
     9.98169272E-01    2     1000022        13   # BR(~mu_R -> ~chi_10 mu-)
     8.35661806E-04    2     1000023        13   # BR(~mu_R -> ~chi_20 mu-)
     9.95003547E-04    2     1000025        13   # BR(~mu_R -> ~chi_30 mu-)
     6.26877500E-08    2     1000035        13   # BR(~mu_R -> ~chi_40 mu-)
#
#         PDG            Width
DECAY   1000015     2.91255374E+01   # stau_1 decays
#          BR         NDA      ID1       ID2
     9.29759883E-01    2     1000022        15   # BR(~tau_1 -> ~chi_10  tau-)
     1.56835451E-02    2     1000023        15   # BR(~tau_1 -> ~chi_20  tau-)
     1.49140629E-02    2     1000025        15   # BR(~tau_1 -> ~chi_30  tau-)
     3.35927929E-03    2     1000035        15   # BR(~tau_1 -> ~chi_40  tau-)
     2.95579109E-02    2    -1000024        16   # BR(~tau_1 -> ~chi_1-  nu_tau)
     6.72531842E-03    2    -1000037        16   # BR(~tau_1 -> ~chi_2-  nu_tau)
#
#         PDG            Width
DECAY   2000015     3.10967908E+01   # stau_2 decays
#          BR         NDA      ID1       ID2
     2.28198312E-01    2     1000022        15   # BR(~tau_2 -> ~chi_10  tau-)
     1.47568176E-02    2     1000023        15   # BR(~tau_2 -> ~chi_20  tau-)
     1.45707565E-02    2     1000025        15   # BR(~tau_2 -> ~chi_30  tau-)
     2.47288107E-01    2     1000035        15   # BR(~tau_2 -> ~chi_40  tau-)
     9.39268917E-05    2    -1000024        16   # BR(~tau_2 -> ~chi_1-  nu_tau)
     4.95092079E-01    2    -1000037        16   # BR(~tau_2 -> ~chi_2-  nu_tau)
#
#         PDG            Width
DECAY   1000012     3.02777223E+01   # snu_eL decays
#          BR         NDA      ID1       ID2
     2.26031774E-01    2     1000022        12   # BR(~nu_eL -> ~chi_10 nu_e)
     2.08466967E-05    2     1000023        12   # BR(~nu_eL -> ~chi_20 nu_e)
     7.10195241E-04    2     1000025        12   # BR(~nu_eL -> ~chi_30 nu_e)
     2.57370370E-01    2     1000035        12   # BR(~nu_eL -> ~chi_40 nu_e)
     1.79788080E-03    2     1000024        11   # BR(~nu_eL -> ~chi_1+ e-)
     5.14068934E-01    2     1000037        11   # BR(~nu_eL -> ~chi_2+ e-)
#
#         PDG            Width
DECAY   1000014     3.02777223E+01   # snu_muL decays
#          BR         NDA      ID1       ID2
     2.26031774E-01    2     1000022        14   # BR(~nu_muL -> ~chi_10 nu_mu)
     2.08466967E-05    2     1000023        14   # BR(~nu_muL -> ~chi_20 nu_mu)
     7.10195241E-04    2     1000025        14   # BR(~nu_muL -> ~chi_30 nu_mu)
     2.57370370E-01    2     1000035        14   # BR(~nu_muL -> ~chi_40 nu_mu)
     1.79788080E-03    2     1000024        13   # BR(~nu_muL -> ~chi_1+ mu-)
     5.14068934E-01    2     1000037        13   # BR(~nu_muL -> ~chi_2+ mu-)
#
#         PDG            Width
DECAY   1000016     3.11320538E+01   # snu_tauL decays
#          BR         NDA      ID1       ID2
     2.19805025E-01    2     1000022        16   # BR(~nu_tauL -> ~chi_10 nu_tau)
     2.02720460E-05    2     1000023        16   # BR(~nu_tauL -> ~chi_20 nu_tau)
     6.90618261E-04    2     1000025        16   # BR(~nu_tauL -> ~chi_30 nu_tau)
     2.50214838E-01    2     1000035        16   # BR(~nu_tauL -> ~chi_40 nu_tau)
     2.94930898E-02    2     1000024        15   # BR(~nu_tauL -> ~chi_1+ tau-)
     4.99776156E-01    2     1000037        15   # BR(~nu_tauL -> ~chi_2+ tau-)
#
#         PDG            Width
DECAY   1000024     6.09307128E-01   # chargino1+ decays
#          BR         NDA      ID1       ID2
     1.00000000E+00    2     1000022        24   # BR(~chi_1+ -> ~chi_10  W+)
#
#         PDG            Width
DECAY   1000037     2.04246001E+01   # chargino2+ decays
#          BR         NDA      ID1       ID2
     2.53212765E-01    2     1000024        23   # BR(~chi_2+ -> ~chi_1+  Z )
     1.97879217E-04    2     1000022        24   # BR(~chi_2+ -> ~chi_10  W+)
     2.44187131E-01    2     1000023        24   # BR(~chi_2+ -> ~chi_20  W+)
     2.44138188E-01    2     1000025        24   # BR(~chi_2+ -> ~chi_30  W+)
     2.58262864E-01    2     1000024        25   # BR(~chi_2+ -> ~chi_1+  h )
     1.17195463E-06    2     1000022        37   # BR(~chi_2+ -> ~chi_10  H+)
#
#         PDG            Width
DECAY   1000022     0.00000000E+00   # neutralino1 decays
#
#         PDG            Width
DECAY   1000023     6.36286034E-01   # neutralino2 decays
#          BR         NDA      ID1       ID2
     5.40226486E-01    2     1000022        23   # BR(~chi_20 -> ~chi_10   Z )
     4.59773514E-01    2     1000022        25   # BR(~chi_20 -> ~chi_10   h )
#
#         PDG            Width
DECAY   1000025     6.39323481E-01   # neutralino3 decays
#          BR         NDA      ID1       ID2
     4.50380334E-01    2     1000022        23   # BR(~chi_30 -> ~chi_10   Z )
     5.49619666E-01    2     1000022        25   # BR(~chi_30 -> ~chi_10   h )
#
#         PDG            Width
DECAY   1000035     2.04396022E+01   # neutralino4 decays
#          BR         NDA      ID1       ID2
     4.77611908E-05    2     1000022        23   # BR(~chi_40 -> ~chi_10   Z )
     7.27239190E-02    2     1000023        23   # BR(~chi_40 -> ~chi_20   Z )
     1.79775185E-01    2     1000025        23   # BR(~chi_40 -> ~chi_30   Z )
     2.44817494E-01    2     1000024       -24   # BR(~chi_40 -> ~chi_1+   W-)
     2.44817494E-01    2    -1000024        24   # BR(~chi_40 -> ~chi_1-   W+)
     1.51026160E-04    2     1000022        25   # BR(~chi_40 -> ~chi_10   h )
     1.09501947E-06    2     1000022        35   # BR(~chi_40 -> ~chi_10   H )
     1.34479607E-07    2     1000022        36   # BR(~chi_40 -> ~chi_10   A )
     1.84774522E-01    2     1000023        25   # BR(~chi_40 -> ~chi_20   h )
     7.28913680E-02    2     1000025        25   # BR(~chi_40 -> ~chi_30   h )
#
#         PDG            Width
DECAY        25     4.02436999E-03   # h decays
#          BR         NDA      ID1       ID2
     6.15699233E-01    2           5        -5   # BR(h -> b       bb     )
     6.42506196E-02    2         -15        15   # BR(h -> tau+    tau-   )
     2.27472257E-04    2         -13        13   # BR(h -> mu+     mu-    )
     4.82516937E-04    2           3        -3   # BR(h -> s       sb     )
     2.09088205E-02    2           4        -4   # BR(h -> c       cb     )
     6.71920919E-02    2          21        21   # BR(h -> g       g      )
     2.30137781E-03    2          22        22   # BR(h -> gam     gam    )
     1.45172851E-03    2          22        23   # BR(h -> Z       gam    )
     2.03366611E-01    2          24       -24   # BR(h -> W+      W-     )
     2.40697663E-02    2          23        23   # BR(h -> Z       Z      )
     4.97624068E-05    2     1000022   1000022   # BR(h -> ~chi_10 ~chi_10)
#
#         PDG            Width
DECAY        35     8.10103372E+00   # H decays
#          BR         NDA      ID1       ID2
     3.98352373E-01    2           5        -5   # BR(H -> b       bb     )
     6.88243276E-02    2         -15        15   # BR(H -> tau+    tau-   )
     2.43368289E-04    2         -13        13   # BR(H -> mu+     mu-    )
     2.98332298E-04    2           3        -3   # BR(H -> s       sb     )
     1.66612821E-06    2           4        -4   # BR(H -> c       cb     )
     1.66459404E-01    2           6        -6   # BR(H -> t       tb     )
     5.52873333E-05    2          21        21   # BR(H -> g       g      )
     2.68684435E-07    2          22        22   # BR(H -> gam     gam    )
     9.81893699E-08    2          23        22   # BR(H -> Z       gam    )
     7.60141509E-05    2          24       -24   # BR(H -> W+      W-     )
     3.79589584E-05    2          23        23   # BR(H -> Z       Z      )
     2.84460937E-04    2          25        25   # BR(H -> h       h      )
    -1.44664233E-23    2          36        36   # BR(H -> A       A      )
     3.71475450E-19    2          23        36   # BR(H -> Z       A      )
     1.97598390E-03    2     1000024  -1000024   # BR(H -> ~chi_1+ ~chi_1-)
     1.78340196E-03    2     1000022   1000022   # BR(H -> ~chi_10 ~chi_10)
     3.94885090E-05    2     1000023   1000023   # BR(H -> ~chi_20 ~chi_20)
     5.44479467E-04    2     1000025   1000025   # BR(H -> ~chi_30 ~chi_30)
     2.16513506E-01    2     1000022   1000023   # BR(H -> ~chi_10 ~chi_20)
     1.43996718E-01    2     1000022   1000025   # BR(H -> ~chi_10 ~chi_30)
     5.12862489E-04    2     1000023   1000025   # BR(H -> ~chi_20 ~chi_30)
#
#         PDG            Width
DECAY        36     8.11738205E+00   # A decays
#          BR         NDA      ID1       ID2
     3.97684983E-01    2           5        -5   # BR(A -> b       bb     )
     6.86877565E-02    2         -15        15   # BR(A -> tau+    tau-   )
     2.42885023E-04    2         -13        13   # BR(A -> mu+     mu-    )
     2.97957317E-04    2           3        -3   # BR(A -> s       sb     )
     1.66961823E-06    2           4        -4   # BR(A -> c       cb     )
     1.66716049E-01    2           6        -6   # BR(A -> t       tb     )
     1.65034831E-04    2          21        21   # BR(A -> g       g      )
     5.74533545E-07    2          22        22   # BR(A -> gam     gam    )
     1.99739795E-07    2          23        22   # BR(A -> Z       gam    )
     7.55766748E-05    2          23        25   # BR(A -> Z       h      )
     3.22939724E-03    2     1000024  -1000024   # BR(A -> ~chi_1+ ~chi_1-)
     1.81620792E-03    2     1000022   1000022   # BR(A -> ~chi_10 ~chi_10)
     4.63874971E-05    2     1000023   1000023   # BR(A -> ~chi_20 ~chi_20)
     1.50073333E-03    2     1000025   1000025   # BR(A -> ~chi_30 ~chi_30)
     1.45767551E-01    2     1000022   1000023   # BR(A -> ~chi_10 ~chi_20)
     2.13620638E-01    2     1000022   1000025   # BR(A -> ~chi_10 ~chi_30)
     1.46397750E-04    2     1000023   1000025   # BR(A -> ~chi_20 ~chi_30)
#
#         PDG            Width
DECAY        37     8.05883599E+00   # H+ decays
#          BR         NDA      ID1       ID2
     6.37840835E-04    2           4        -5   # BR(H+ -> c       bb     )
     6.92124625E-02    2         -15        16   # BR(H+ -> tau+    nu_tau )
     2.44740423E-04    2         -13        14   # BR(H+ -> mu+     nu_mu  )
     4.08216012E-06    2           2        -5   # BR(H+ -> u       bb     )
     1.43607096E-05    2           2        -3   # BR(H+ -> u       sb     )
     2.96977828E-04    2           4        -3   # BR(H+ -> c       sb     )
     5.63084059E-01    2           6        -5   # BR(H+ -> t       bb     )
     7.62595900E-05    2          24        25   # BR(H+ -> W+      h      )
     2.80311765E-13    2          24        36   # BR(H+ -> W+      A      )
     3.65518640E-01    2     1000024   1000022   # BR(H+ -> ~chi_1+ ~chi_10)
     8.77702477E-04    2     1000024   1000023   # BR(H+ -> ~chi_1+ ~chi_20)
     3.28742537E-05    2     1000024   1000025   # BR(H+ -> ~chi_1+ ~chi_30)
