#
#                              ======================
#                              | THE SUSYHIT OUTPUT |
#                              ======================
#
#
#              ------------------------------------------------------
#              |     This is the output of the SUSY-HIT package     |
#              |  created by A.Djouadi, M.Muehlleitner and M.Spira. |
#              |  In case of problems with SUSY-HIT email to        |
#              |           margarete.muehlleitner@cern.ch           |
#              |           michael.spira@psi.ch                     |
#              |           abdelhak.djouadi@cern.ch                 |
#              ------------------------------------------------------
#
#              ------------------------------------------------------
#              |  SUSY Les Houches Accord - MSSM Spectrum + Decays  |
#              |              based on the decay programs           |
#              |                                                    |
#              |                     SDECAY 1.3b                    |
#              |                                                    |
#              |  Authors: M.Muhlleitner, A.Djouadi and Y.Mambrini  |
#              |  Ref.:    Comput.Phys.Commun.168(2005)46           |
#              |           [hep-ph/0311167]                         |
#              |                                                    |
#              |                     HDECAY 3.4                     |
#              |                                                    |
#              |  By: A.Djouadi,J.Kalinowski,M.Muhlleitner,M.Spira  |
#              |  Ref.:    Comput.Phys.Commun.108(1998)56           |
#              |           [hep-ph/9704448]                         |
#              |                                                    |
#              |                                                    |
#              |  If not stated otherwise all DRbar couplings and   |
#              |  soft SUSY breaking masses are given at the scale  |
#              |  Q=  0.50007687E+04
#              |                                                    |
#              ------------------------------------------------------
#
#
BLOCK DCINFO  # Decay Program information
     1   SDECAY/HDECAY # decay calculator
     2   1.3b  /3.4    # version number
#
BLOCK SPINFO  # Spectrum calculator information
     1    SOFTSUSY    # spectrum calculator                
     2    3.4.0       # version number                     
#
BLOCK MODSEL  # Model selection
     1     0   #  nonUniversal                                     
#
BLOCK SMINPUTS  # Standard Model inputs
         1     1.25778332E+02   # alpha_em^-1(M_Z)^MSbar
         2     1.16570000E-05   # G_F [GeV^-2]
         3     1.17200002E-01   # alpha_S(M_Z)^MSbar
         4     9.11876000E+01   # M_Z pole mass
         5     4.25000000E+00   # mb(mb)^MSbar
         6     1.72500000E+02   # mt pole mass
         7     1.77682000E+00   # mtau pole mass
#
BLOCK MINPAR  # Input parameters - minimal models
         3     1.00000000E+01   # tanb                
#
BLOCK EXTPAR  # Input parameters - non-minimal models
         0    -1.00000000E+00   # Set                 
         1     6.00000000E+01   # M_1(MX)             
         2     3.00000000E+03   # M_2(MX)             
         3     1.76108800E+03   # M_3(MX)             
        11     5.00000000E+03   # At(MX)              
        12     5.00000000E+03   # Ab(MX)              
        13     0.00000000E+00   # Atau(MX)            
        23    -2.82787000E+02   # mu(MX)              
        26     3.00000000E+03   # mA(pole)            
        31     5.00000000E+03   # meL(MX)             
        32     5.00000000E+03   # mmuL(MX)            
        33     5.00000000E+03   # mtauL(MX)           
        34     5.00000000E+03   # meR(MX)             
        35     5.00000000E+03   # mmuR(MX)            
        36     5.00000000E+03   # mtauR(MX)           
        41     5.00000000E+03   # mqL1(MX)            
        42     5.00000000E+03   # mqL2(MX)            
        43     5.00000000E+03   # mqL3(MX)            
        44     5.00000000E+03   # muR(MX)             
        45     5.00000000E+03   # mcR(MX)             
        46     5.00000000E+03   # mtR(MX)             
        47     5.00000000E+03   # mdR(MX)             
        48     5.00000000E+03   # msR(MX)             
        49     5.00000000E+03   # mbR(MX)             
#
BLOCK MASS  # Mass Spectrum
# PDG code           mass       particle
        24     8.00916411E+01   # W+
        25     1.24762104E+02   # h
        35     3.00008901E+03   # H
        36     2.99999971E+03   # A
        37     3.00146925E+03   # H+
         5     4.87878001E+00   # b-quark pole mass calculated from mb(mb)_Msbar
   1000001     5.07336076E+03   # ~d_L
   2000001     5.05549170E+03   # ~d_R
   1000002     5.07288611E+03   # ~u_L
   2000002     5.05518497E+03   # ~u_R
   1000003     5.07336076E+03   # ~s_L
   2000003     5.05549170E+03   # ~s_R
   1000004     5.07288611E+03   # ~c_L
   2000004     5.05518497E+03   # ~c_R
   1000005     5.01932222E+03   # ~b_1
   2000005     5.05362172E+03   # ~b_2
   1000006     4.91058227E+03   # ~t_1
   2000006     5.06275158E+03   # ~t_2
   1000011     5.01913882E+03   # ~e_L
   2000011     5.00595406E+03   # ~e_R
   1000012     5.01818726E+03   # ~nu_eL
   1000013     5.01913882E+03   # ~mu_L
   2000013     5.00595406E+03   # ~mu_R
   1000014     5.01818726E+03   # ~nu_muL
   1000015     5.00481636E+03   # ~tau_1
   2000015     5.01862026E+03   # ~tau_2
   1000016     5.01763344E+03   # ~nu_tauL
   1000021     2.10000013E+03   # ~g
   1000022     5.97919033E+01   # ~chi_10
   1000023     3.01967269E+02   # ~chi_20
   1000025    -3.03836806E+02   # ~chi_30
   1000035     3.07422983E+03   # ~chi_40
   1000024     3.00000940E+02   # ~chi_1+
   1000037     3.07439777E+03   # ~chi_2+
#
BLOCK NMIX  # Neutralino Mixing Matrix
  1  1     9.88607320E-01   # N_11
  1  2     6.01756623E-05   # N_12
  1  3    -1.49796001E-01   # N_13
  1  4    -1.47214891E-02   # N_14
  2  1     1.16361546E-01   # N_21
  2  2     1.76950752E-02   # N_22
  2  3     6.98596565E-01   # N_23
  2  4     7.05768882E-01   # N_24
  3  1    -9.54746064E-02   # N_31
  3  2     1.80274231E-02   # N_32
  3  3    -6.99659867E-01   # N_33
  3  4     7.07838740E-01   # N_34
  4  1    -3.97482117E-04   # N_41
  4  2     9.99680895E-01   # N_42
  4  3     2.60442883E-04   # N_43
  4  4    -2.52563155E-02   # N_44
#
BLOCK UMIX  # Chargino Mixing Matrix U
  1  1    -3.65776260E-04   # U_11
  1  2     9.99999933E-01   # U_12
  2  1    -9.99999933E-01   # U_21
  2  2    -3.65776260E-04   # U_22
#
BLOCK VMIX  # Chargino Mixing Matrix V
  1  1     3.57268766E-02   # V_11
  1  2    -9.99361591E-01   # V_12
  2  1    -9.99361591E-01   # V_21
  2  2    -3.57268766E-02   # V_22
#
BLOCK STOPMIX  # Stop Mixing Matrix
  1  1    -5.02461571E-01   # cos(theta_t)
  1  2     8.64599543E-01   # sin(theta_t)
  2  1    -8.64599543E-01   # -sin(theta_t)
  2  2    -5.02461571E-01   # cos(theta_t)
#
BLOCK SBOTMIX  # Sbottom Mixing Matrix
  1  1     9.99215885E-01   # cos(theta_b)
  1  2    -3.95931202E-02   # sin(theta_b)
  2  1     3.95931202E-02   # -sin(theta_b)
  2  2     9.99215885E-01   # cos(theta_b)
#
BLOCK STAUMIX  # Stau Mixing Matrix
  1  1    -3.37557669E-02   # cos(theta_tau)
  1  2     9.99430112E-01   # sin(theta_tau)
  2  1    -9.99430112E-01   # -sin(theta_tau)
  2  2    -3.37557669E-02   # cos(theta_tau)
#
BLOCK ALPHA  # Higgs mixing
          -1.05492400E-01   # Mixing angle in the neutral Higgs boson sector
#
BLOCK HMIX Q=  5.00076868E+03  # DRbar Higgs Parameters
         1    -2.87948879E+02   # mu(Q)MSSM           
         2     9.46883560E+00   # tan                 
         3     2.41697243E+02   # higgs               
         4     8.75155067E+06   # mA^2(Q)MSSM         
#
BLOCK GAUGE Q=  5.00076868E+03  # The gauge couplings
     1     3.71068418E-01   # gprime(Q) DRbar
     2     6.33896046E-01   # g(Q) DRbar
     3     9.97791664E-01   # g3(Q) DRbar
#
BLOCK AU Q=  5.00076868E+03  # The trilinear couplings
  1  1     5.00000001E+03   # A_u(Q) DRbar
  2  2     5.00000001E+03   # A_c(Q) DRbar
  3  3     5.00000002E+03   # A_t(Q) DRbar
#
BLOCK AD Q=  5.00076868E+03  # The trilinear couplings
  1  1     5.00000001E+03   # A_d(Q) DRbar
  2  2     5.00000001E+03   # A_s(Q) DRbar
  3  3     5.00000001E+03   # A_b(Q) DRbar
#
BLOCK AE Q=  5.00076868E+03  # The trilinear couplings
  1  1     0.00000000E+00   # A_e(Q) DRbar
  2  2     1.86635390E-07   # A_mu(Q) DRbar
  3  3     1.86321777E-07   # A_tau(Q) DRbar
#
BLOCK Yu Q=  5.00076868E+03  # The Yukawa couplings
  1  1     0.00000000E+00   # y_u(Q) DRbar
  2  2     0.00000000E+00   # y_c(Q) DRbar
  3  3     8.20666292E-01   # y_t(Q) DRbar
#
BLOCK Yd Q=  5.00076868E+03  # The Yukawa couplings
  1  1     0.00000000E+00   # y_d(Q) DRbar
  2  2     0.00000000E+00   # y_s(Q) DRbar
  3  3     1.29901779E-01   # y_b(Q) DRbar
#
BLOCK Ye Q=  5.00076868E+03  # The Yukawa couplings
  1  1     0.00000000E+00   # y_e(Q) DRbar
  2  2     0.00000000E+00   # y_mu(Q) DRbar
  3  3     9.72760177E-02   # y_tau(Q) DRbar
#
BLOCK MSOFT Q=  5.00076868E+03  # The soft SUSY breaking masses at the scale Q
         1     6.00000000E+01   # M_1(Q)              
         2     3.00000000E+03   # M_2(Q)              
         3     1.76108800E+03   # M_3(Q)              
        21     8.64841586E+06   # mH1^2(Q)            
        22     4.96133915E+05   # mH2^2(Q)            
        31     5.00000000E+03   # meL(Q)              
        32     5.00000000E+03   # mmuL(Q)             
        33     5.00000000E+03   # mtauL(Q)            
        34     5.00000000E+03   # meR(Q)              
        35     5.00000000E+03   # mmuR(Q)             
        36     5.00000000E+03   # mtauR(Q)            
        41     5.00000000E+03   # mqL1(Q)             
        42     5.00000000E+03   # mqL2(Q)             
        43     4.99999999E+03   # mqL3(Q)             
        44     5.00000000E+03   # muR(Q)              
        45     5.00000000E+03   # mcR(Q)              
        46     4.99999999E+03   # mtR(Q)              
        47     5.00000000E+03   # mdR(Q)              
        48     5.00000000E+03   # msR(Q)              
        49     5.00000000E+03   # mbR(Q)              
#
#
#
#                             =================
#                             |The decay table|
#                             =================
#
# - The QCD corrections to the decays gluino -> squark  + quark
#                                     squark -> gaugino + quark_prime
#                                     squark -> squark_prime + Higgs
#                                     squark -> gluino  + quark
#   are included.
#
# - The multi-body decays for the inos, stops and sbottoms are included.
#
# - The loop induced decays for the gluino, neutralinos and stops
#   are included.
#
# - The SUSY decays of the top quark are included.
#
#
#         PDG            Width
DECAY         6     1.40827577E+00   # top decays
#          BR         NDA      ID1       ID2
     1.00000000E+00    2           5        24   # BR(t ->  b    W+)
#
#         PDG            Width
DECAY   1000021     3.07536199E-03   # gluino decays
#          BR         NDA      ID1       ID2
     9.03275804E-07    2     1000022        21   # BR(~g -> ~chi_10 g)
     5.77564499E-03    2     1000023        21   # BR(~g -> ~chi_20 g)
     5.60168927E-03    2     1000025        21   # BR(~g -> ~chi_30 g)
#           BR         NDA      ID1       ID2       ID3
     9.60120112E-03    3     1000022         1        -1   # BR(~g -> ~chi_10 d  db)
     1.08694346E-04    3     1000023         1        -1   # BR(~g -> ~chi_20 d  db)
     8.95153274E-05    3     1000025         1        -1   # BR(~g -> ~chi_30 d  db)
     3.27278592E-02    3     1000022         2        -2   # BR(~g -> ~chi_10 u  ub)
     5.13503328E-04    3     1000023         2        -2   # BR(~g -> ~chi_20 u  ub)
     1.83383497E-04    3     1000025         2        -2   # BR(~g -> ~chi_30 u  ub)
     9.60120112E-03    3     1000022         3        -3   # BR(~g -> ~chi_10 s  sb)
     1.08694346E-04    3     1000023         3        -3   # BR(~g -> ~chi_20 s  sb)
     8.95153274E-05    3     1000025         3        -3   # BR(~g -> ~chi_30 s  sb)
     3.27278592E-02    3     1000022         4        -4   # BR(~g -> ~chi_10 c  cb)
     5.13503328E-04    3     1000023         4        -4   # BR(~g -> ~chi_20 c  cb)
     1.83383497E-04    3     1000025         4        -4   # BR(~g -> ~chi_30 c  cb)
     1.00254037E-02    3     1000022         5        -5   # BR(~g -> ~chi_10 b  bb)
     5.41393463E-03    3     1000023         5        -5   # BR(~g -> ~chi_20 b  bb)
     5.40055468E-03    3     1000025         5        -5   # BR(~g -> ~chi_30 b  bb)
     3.13722050E-02    3     1000022         6        -6   # BR(~g -> ~chi_10 t  tb)
     2.11621296E-01    3     1000023         6        -6   # BR(~g -> ~chi_20 t  tb)
     1.98411871E-01    3     1000025         6        -6   # BR(~g -> ~chi_30 t  tb)
     5.34381638E-05    3     1000024         1        -2   # BR(~g -> ~chi_1+ d  ub)
     5.34381638E-05    3    -1000024         2        -1   # BR(~g -> ~chi_1- u  db)
     5.34381638E-05    3     1000024         3        -4   # BR(~g -> ~chi_1+ s  cb)
     5.34381638E-05    3    -1000024         4        -3   # BR(~g -> ~chi_1- c  sb)
     2.19857215E-01    3     1000024         5        -6   # BR(~g -> ~chi_1+ b  tb)
     2.19857215E-01    3    -1000024         6        -5   # BR(~g -> ~chi_1- t  bb)
#
#         PDG            Width
DECAY   1000006     3.41408446E+02   # stop1 decays
#          BR         NDA      ID1       ID2
     2.47605405E-02    2     1000022         6   # BR(~t_1 -> ~chi_10 t )
     9.93686969E-02    2     1000023         6   # BR(~t_1 -> ~chi_20 t )
     9.13908107E-02    2     1000025         6   # BR(~t_1 -> ~chi_30 t )
     5.92165878E-03    2     1000035         6   # BR(~t_1 -> ~chi_40 t )
     1.41836099E-01    2     1000024         5   # BR(~t_1 -> ~chi_1+ b )
     1.18051016E-02    2     1000037         5   # BR(~t_1 -> ~chi_2+ b )
     6.24917092E-01    2     1000021         6   # BR(~t_1 -> ~g      t )
#
#         PDG            Width
DECAY   2000006     3.45936394E+02   # stop2 decays
#          BR         NDA      ID1       ID2
     1.06221369E-02    2     1000022         6   # BR(~t_2 -> ~chi_10 t )
     9.41472278E-02    2     1000023         6   # BR(~t_2 -> ~chi_20 t )
     1.03134770E-01    2     1000025         6   # BR(~t_2 -> ~chi_30 t )
     1.63147066E-02    2     1000035         6   # BR(~t_2 -> ~chi_40 t )
     5.61708380E-02    2     1000024         5   # BR(~t_2 -> ~chi_1+ b )
     3.24892956E-02    2     1000037         5   # BR(~t_2 -> ~chi_2+ b )
     6.83663548E-01    2     1000021         6   # BR(~t_2 -> ~g      t )
     8.04457928E-04    2     1000006        25   # BR(~t_2 -> ~t_1    h )
     2.65301840E-03    2     1000006        23   # BR(~t_2 -> ~t_1    Z )
#
#         PDG            Width
DECAY   1000005     3.20775735E+02   # sbottom1 decays
#          BR         NDA      ID1       ID2
     2.49283815E-03    2     1000022         5   # BR(~b_1 -> ~chi_10 b )
     2.51322183E-03    2     1000023         5   # BR(~b_1 -> ~chi_20 b )
     2.57814841E-03    2     1000025         5   # BR(~b_1 -> ~chi_30 b )
     2.37390562E-02    2     1000035         5   # BR(~b_1 -> ~chi_40 b )
     2.08482659E-01    2    -1000024         6   # BR(~b_1 -> ~chi_1- t )
     4.76573533E-02    2    -1000037         6   # BR(~b_1 -> ~chi_2- t )
     7.10829983E-01    2     1000021         5   # BR(~b_1 -> ~g      b )
     1.70674106E-03    2     1000006       -24   # BR(~b_1 -> ~t_1    W-)
#
#         PDG            Width
DECAY   2000005     2.37124619E+02   # sbottom2 decays
#          BR         NDA      ID1       ID2
     1.22603116E-02    2     1000022         5   # BR(~b_2 -> ~chi_10 b )
     3.71695617E-03    2     1000023         5   # BR(~b_2 -> ~chi_20 b )
     3.70187137E-03    2     1000025         5   # BR(~b_2 -> ~chi_30 b )
     4.48884879E-05    2     1000035         5   # BR(~b_2 -> ~chi_40 b )
     7.52424034E-03    2    -1000024         6   # BR(~b_2 -> ~chi_1- t )
     9.01363838E-05    2    -1000037         6   # BR(~b_2 -> ~chi_2- t )
     9.72646599E-01    2     1000021         5   # BR(~b_2 -> ~g      b )
     1.49969879E-05    2     1000006       -24   # BR(~b_2 -> ~t_1    W-)
#
#         PDG            Width
DECAY   1000002     2.56651163E+02   # sup_L decays
#          BR         NDA      ID1       ID2
     2.84640769E-03    2     1000022         2   # BR(~u_L -> ~chi_10 u)
     1.23994969E-04    2     1000023         2   # BR(~u_L -> ~chi_20 u)
     2.75415879E-08    2     1000025         2   # BR(~u_L -> ~chi_30 u)
     3.07753101E-02    2     1000035         2   # BR(~u_L -> ~chi_40 u)
     1.93952360E-04    2     1000024         1   # BR(~u_L -> ~chi_1+ d)
     6.15131080E-02    2     1000037         1   # BR(~u_L -> ~chi_2+ d)
     9.04547199E-01    2     1000021         2   # BR(~u_L -> ~g      u)
#
#         PDG            Width
DECAY   2000002     2.42580293E+02   # sup_R decays
#          BR         NDA      ID1       ID2
     4.79838863E-02    2     1000022         2   # BR(~u_R -> ~chi_10 u)
     6.60595387E-04    2     1000023         2   # BR(~u_R -> ~chi_20 u)
     4.44688038E-04    2     1000025         2   # BR(~u_R -> ~chi_30 u)
     3.10013863E-09    2     1000035         2   # BR(~u_R -> ~chi_40 u)
     9.50910827E-01    2     1000021         2   # BR(~u_R -> ~g      u)
#
#         PDG            Width
DECAY   1000001     2.56665058E+02   # sdown_L decays
#          BR         NDA      ID1       ID2
     2.84297381E-03    2     1000022         1   # BR(~d_L -> ~chi_10 d)
     1.90695968E-06    2     1000023         1   # BR(~d_L -> ~chi_20 d)
     1.02077888E-04    2     1000025         1   # BR(~d_L -> ~chi_30 d)
     3.07927182E-02    2     1000035         1   # BR(~d_L -> ~chi_40 d)
     2.03307854E-08    2    -1000024         2   # BR(~d_L -> ~chi_1- u)
     6.16074359E-02    2    -1000037         2   # BR(~d_L -> ~chi_2- u)
     9.04652867E-01    2     1000021         1   # BR(~d_L -> ~g      d)
#
#         PDG            Width
DECAY   2000001     2.33675099E+02   # sdown_R decays
#          BR         NDA      ID1       ID2
     1.24538954E-02    2     1000022         1   # BR(~d_R -> ~chi_10 d)
     1.71453225E-04    2     1000023         1   # BR(~d_R -> ~chi_20 d)
     1.15415882E-04    2     1000025         1   # BR(~d_R -> ~chi_30 d)
     8.04733330E-10    2     1000035         1   # BR(~d_R -> ~chi_40 d)
     9.87259235E-01    2     1000021         1   # BR(~d_R -> ~g      d)
#
#         PDG            Width
DECAY   1000004     2.56651163E+02   # scharm_L decays
#          BR         NDA      ID1       ID2
     2.84640769E-03    2     1000022         4   # BR(~c_L -> ~chi_10 c)
     1.23994969E-04    2     1000023         4   # BR(~c_L -> ~chi_20 c)
     2.75415879E-08    2     1000025         4   # BR(~c_L -> ~chi_30 c)
     3.07753101E-02    2     1000035         4   # BR(~c_L -> ~chi_40 c)
     1.93952360E-04    2     1000024         3   # BR(~c_L -> ~chi_1+ s)
     6.15131080E-02    2     1000037         3   # BR(~c_L -> ~chi_2+ s)
     9.04547199E-01    2     1000021         4   # BR(~c_L -> ~g      c)
#
#         PDG            Width
DECAY   2000004     2.42580293E+02   # scharm_R decays
#          BR         NDA      ID1       ID2
     4.79838863E-02    2     1000022         4   # BR(~c_R -> ~chi_10 c)
     6.60595387E-04    2     1000023         4   # BR(~c_R -> ~chi_20 c)
     4.44688038E-04    2     1000025         4   # BR(~c_R -> ~chi_30 c)
     3.10013863E-09    2     1000035         4   # BR(~c_R -> ~chi_40 c)
     9.50910827E-01    2     1000021         4   # BR(~c_R -> ~g      c)
#
#         PDG            Width
DECAY   1000003     2.56665058E+02   # sstrange_L decays
#          BR         NDA      ID1       ID2
     2.84297381E-03    2     1000022         3   # BR(~s_L -> ~chi_10 s)
     1.90695968E-06    2     1000023         3   # BR(~s_L -> ~chi_20 s)
     1.02077888E-04    2     1000025         3   # BR(~s_L -> ~chi_30 s)
     3.07927182E-02    2     1000035         3   # BR(~s_L -> ~chi_40 s)
     2.03307854E-08    2    -1000024         4   # BR(~s_L -> ~chi_1- c)
     6.16074359E-02    2    -1000037         4   # BR(~s_L -> ~chi_2- c)
     9.04652867E-01    2     1000021         3   # BR(~s_L -> ~g      s)
#
#         PDG            Width
DECAY   2000003     2.33675099E+02   # sstrange_R decays
#          BR         NDA      ID1       ID2
     1.24538954E-02    2     1000022         3   # BR(~s_R -> ~chi_10 s)
     1.71453225E-04    2     1000023         3   # BR(~s_R -> ~chi_20 s)
     1.15415882E-04    2     1000025         3   # BR(~s_R -> ~chi_30 s)
     8.04733330E-10    2     1000035         3   # BR(~s_R -> ~chi_40 s)
     9.87259235E-01    2     1000021         3   # BR(~s_R -> ~g      s)
#
#         PDG            Width
DECAY   1000011     3.03804883E+01   # selectron_L decays
#          BR         NDA      ID1       ID2
     2.21134893E-01    2     1000022        11   # BR(~e_L -> ~chi_10 e-)
     4.82727283E-03    2     1000023        11   # BR(~e_L -> ~chi_20 e-)
     9.39662346E-04    2     1000025        11   # BR(~e_L -> ~chi_30 e-)
     2.57532279E-01    2     1000035        11   # BR(~e_L -> ~chi_40 e-)
     1.75437740E-07    2    -1000024        12   # BR(~e_L -> ~chi_1- nu_e)
     5.15565718E-01    2    -1000037        12   # BR(~e_L -> ~chi_2- nu_e)
#
#         PDG            Width
DECAY   2000011     2.74133412E+01   # selectron_R decays
#          BR         NDA      ID1       ID2
     9.77499925E-01    2     1000022        11   # BR(~e_R -> ~chi_10 e-)
     1.34476278E-02    2     1000023        11   # BR(~e_R -> ~chi_20 e-)
     9.05238610E-03    2     1000025        11   # BR(~e_R -> ~chi_30 e-)
     6.13216040E-08    2     1000035        11   # BR(~e_R -> ~chi_40 e-)
#
#         PDG            Width
DECAY   1000013     3.03804883E+01   # smuon_L decays
#          BR         NDA      ID1       ID2
     2.21134893E-01    2     1000022        13   # BR(~mu_L -> ~chi_10 mu-)
     4.82727283E-03    2     1000023        13   # BR(~mu_L -> ~chi_20 mu-)
     9.39662346E-04    2     1000025        13   # BR(~mu_L -> ~chi_30 mu-)
     2.57532279E-01    2     1000035        13   # BR(~mu_L -> ~chi_40 mu-)
     1.75437740E-07    2    -1000024        14   # BR(~mu_L -> ~chi_1- nu_mu)
     5.15565718E-01    2    -1000037        14   # BR(~mu_L -> ~chi_2- nu_mu)
#
#         PDG            Width
DECAY   2000013     2.74133412E+01   # smuon_R decays
#          BR         NDA      ID1       ID2
     9.77499925E-01    2     1000022        13   # BR(~mu_R -> ~chi_10 mu-)
     1.34476278E-02    2     1000023        13   # BR(~mu_R -> ~chi_20 mu-)
     9.05238610E-03    2     1000025        13   # BR(~mu_R -> ~chi_30 mu-)
     6.13216040E-08    2     1000035        13   # BR(~mu_R -> ~chi_40 mu-)
#
#         PDG            Width
DECAY   1000015     2.92800207E+01   # stau_1 decays
#          BR         NDA      ID1       ID2
     9.15780401E-01    2     1000022        15   # BR(~tau_1 -> ~chi_10  tau-)
     2.78176491E-02    2     1000023        15   # BR(~tau_1 -> ~chi_20  tau-)
     2.35881304E-02    2     1000025        15   # BR(~tau_1 -> ~chi_30  tau-)
     3.02593710E-04    2     1000035        15   # BR(~tau_1 -> ~chi_40  tau-)
     3.19055920E-02    2    -1000024        16   # BR(~tau_1 -> ~chi_1-  nu_tau)
     6.05633445E-04    2    -1000037        16   # BR(~tau_1 -> ~chi_2-  nu_tau)
#
#         PDG            Width
DECAY   2000015     3.13073118E+01   # stau_2 decays
#          BR         NDA      ID1       ID2
     2.15163401E-01    2     1000022        15   # BR(~tau_2 -> ~chi_10  tau-)
     1.96419515E-02    2     1000023        15   # BR(~tau_2 -> ~chi_20  tau-)
     1.60655599E-02    2     1000025        15   # BR(~tau_2 -> ~chi_30  tau-)
     2.49534693E-01    2     1000035        15   # BR(~tau_2 -> ~chi_40  tau-)
     3.91289837E-05    2    -1000024        16   # BR(~tau_2 -> ~chi_1-  nu_tau)
     4.99555266E-01    2    -1000037        16   # BR(~tau_2 -> ~chi_2-  nu_tau)
#
#         PDG            Width
DECAY   1000012     3.03836170E+01   # snu_eL decays
#          BR         NDA      ID1       ID2
     2.20978247E-01    2     1000022        12   # BR(~nu_eL -> ~chi_10 nu_e)
     1.66611272E-03    2     1000023        12   # BR(~nu_eL -> ~chi_20 nu_e)
     3.58040086E-03    2     1000025        12   # BR(~nu_eL -> ~chi_30 nu_e)
     2.57579392E-01    2     1000035        12   # BR(~nu_eL -> ~chi_40 nu_e)
     1.67322307E-03    2     1000024        11   # BR(~nu_eL -> ~chi_1+ e-)
     5.14522624E-01    2     1000037        11   # BR(~nu_eL -> ~chi_2+ e-)
#
#         PDG            Width
DECAY   1000014     3.03836170E+01   # snu_muL decays
#          BR         NDA      ID1       ID2
     2.20978247E-01    2     1000022        14   # BR(~nu_muL -> ~chi_10 nu_mu)
     1.66611272E-03    2     1000023        14   # BR(~nu_muL -> ~chi_20 nu_mu)
     3.58040086E-03    2     1000025        14   # BR(~nu_muL -> ~chi_30 nu_mu)
     2.57579392E-01    2     1000035        14   # BR(~nu_muL -> ~chi_40 nu_mu)
     1.67322307E-03    2     1000024        13   # BR(~nu_muL -> ~chi_1+ mu-)
     5.14522624E-01    2     1000037        13   # BR(~nu_muL -> ~chi_2+ mu-)
#
#         PDG            Width
DECAY   1000016     3.13118931E+01   # snu_tauL decays
#          BR         NDA      ID1       ID2
     2.14403422E-01    2     1000022        16   # BR(~nu_tauL -> ~chi_10 nu_tau)
     1.61653793E-03    2     1000023        16   # BR(~nu_tauL -> ~chi_20 nu_tau)
     3.47386680E-03    2     1000025        16   # BR(~nu_tauL -> ~chi_30 nu_tau)
     2.49849293E-01    2     1000035        16   # BR(~nu_tauL -> ~chi_40 nu_tau)
     3.15756675E-02    2     1000024        15   # BR(~nu_tauL -> ~chi_1+ tau-)
     4.99081213E-01    2     1000037        15   # BR(~nu_tauL -> ~chi_2+ tau-)
#
#         PDG            Width
DECAY   1000024     1.63073877E-01   # chargino1+ decays
#          BR         NDA      ID1       ID2
     1.00000000E+00    2     1000022        24   # BR(~chi_1+ -> ~chi_10  W+)
#
#         PDG            Width
DECAY   1000037     2.29001939E+01   # chargino2+ decays
#          BR         NDA      ID1       ID2
     2.53648965E-01    2     1000024        23   # BR(~chi_2+ -> ~chi_1+  Z )
     1.47783313E-04    2     1000022        24   # BR(~chi_2+ -> ~chi_10  W+)
     2.45433007E-01    2     1000023        24   # BR(~chi_2+ -> ~chi_20  W+)
     2.44537658E-01    2     1000025        24   # BR(~chi_2+ -> ~chi_30  W+)
     2.56217451E-01    2     1000024        25   # BR(~chi_2+ -> ~chi_1+  h )
     1.51358568E-05    2     1000022        37   # BR(~chi_2+ -> ~chi_10  H+)
#
#         PDG            Width
DECAY   1000022     0.00000000E+00   # neutralino1 decays
#
#         PDG            Width
DECAY   1000023     1.53436355E-01   # neutralino2 decays
#          BR         NDA      ID1       ID2
     4.91723738E-01    2     1000022        23   # BR(~chi_20 -> ~chi_10   Z )
     5.08276262E-01    2     1000022        25   # BR(~chi_20 -> ~chi_10   h )
#
#         PDG            Width
DECAY   1000025     1.38287590E-01   # neutralino3 decays
#          BR         NDA      ID1       ID2
     6.71389310E-01    2     1000022        23   # BR(~chi_30 -> ~chi_10   Z )
     3.28610690E-01    2     1000022        25   # BR(~chi_30 -> ~chi_10   h )
#
#         PDG            Width
DECAY   1000035     2.29016887E+01   # neutralino4 decays
#          BR         NDA      ID1       ID2
     6.90249900E-05    2     1000022        23   # BR(~chi_40 -> ~chi_10   Z )
     1.29011089E-01    2     1000023        23   # BR(~chi_40 -> ~chi_20   Z )
     1.24403620E-01    2     1000025        23   # BR(~chi_40 -> ~chi_30   Z )
     2.45264401E-01    2     1000024       -24   # BR(~chi_40 -> ~chi_1+   W-)
     2.45264401E-01    2    -1000024        24   # BR(~chi_40 -> ~chi_1-   W+)
     6.83225567E-05    2     1000022        25   # BR(~chi_40 -> ~chi_10   h )
     1.46089529E-05    2     1000022        35   # BR(~chi_40 -> ~chi_10   H )
     1.54906802E-06    2     1000022        36   # BR(~chi_40 -> ~chi_10   A )
     1.26592180E-01    2     1000023        25   # BR(~chi_40 -> ~chi_20   h )
     1.29310803E-01    2     1000025        25   # BR(~chi_40 -> ~chi_30   h )
#
#         PDG            Width
DECAY        25     4.07540894E-03   # h decays
#          BR         NDA      ID1       ID2
     6.10138273E-01    2           5        -5   # BR(h -> b       bb     )
     6.36461995E-02    2         -15        15   # BR(h -> tau+    tau-   )
     2.25330737E-04    2         -13        13   # BR(h -> mu+     mu-    )
     4.77695400E-04    2           3        -3   # BR(h -> s       sb     )
     2.06965694E-02    2           4        -4   # BR(h -> c       cb     )
     6.69360620E-02    2          21        21   # BR(h -> g       g      )
     2.29932603E-03    2          22        22   # BR(h -> gam     gam    )
     1.48260859E-03    2          22        23   # BR(h -> Z       gam    )
     2.09185876E-01    2          24       -24   # BR(h -> W+      W-     )
     2.49098387E-02    2          23        23   # BR(h -> Z       Z      )
     2.22037887E-06    2     1000022   1000022   # BR(h -> ~chi_10 ~chi_10)
#
#         PDG            Width
DECAY        35     8.78052206E+00   # H decays
#          BR         NDA      ID1       ID2
     3.61547321E-01    2           5        -5   # BR(H -> b       bb     )
     6.34351226E-02    2         -15        15   # BR(H -> tau+    tau-   )
     2.24311632E-04    2         -13        13   # BR(H -> mu+     mu-    )
     2.74971572E-04    2           3        -3   # BR(H -> s       sb     )
     1.53897405E-06    2           4        -4   # BR(H -> c       cb     )
     1.53755705E-01    2           6        -6   # BR(H -> t       tb     )
     5.11578606E-05    2          21        21   # BR(H -> g       g      )
     1.38311825E-07    2          22        22   # BR(H -> gam     gam    )
     9.07050918E-08    2          23        22   # BR(H -> Z       gam    )
     7.47507214E-05    2          24       -24   # BR(H -> W+      W-     )
     3.73280390E-05    2          23        23   # BR(H -> Z       Z      )
     2.67437258E-04    2          25        25   # BR(H -> h       h      )
    -5.36114769E-25    2          36        36   # BR(H -> A       A      )
     9.91082178E-19    2          23        36   # BR(H -> Z       A      )
     3.40639361E-03    2     1000024  -1000024   # BR(H -> ~chi_1+ ~chi_1-)
     1.88122271E-02    2     1000022   1000022   # BR(H -> ~chi_10 ~chi_10)
     3.32922092E-03    2     1000023   1000023   # BR(H -> ~chi_20 ~chi_20)
     5.10555374E-03    2     1000025   1000025   # BR(H -> ~chi_30 ~chi_30)
     2.32101151E-01    2     1000022   1000023   # BR(H -> ~chi_10 ~chi_20)
     1.48065762E-01    2     1000022   1000025   # BR(H -> ~chi_10 ~chi_30)
     9.50981816E-03    2     1000023   1000025   # BR(H -> ~chi_20 ~chi_30)
#
#         PDG            Width
DECAY        36     8.78585654E+00   # A decays
#          BR         NDA      ID1       ID2
     3.61451543E-01    2           5        -5   # BR(A -> b       bb     )
     6.33984669E-02    2         -15        15   # BR(A -> tau+    tau-   )
     2.24181701E-04    2         -13        13   # BR(A -> mu+     mu-    )
     2.75013267E-04    2           3        -3   # BR(A -> s       sb     )
     1.54412281E-06    2           4        -4   # BR(A -> c       cb     )
     1.54184981E-01    2           6        -6   # BR(A -> t       tb     )
     1.52566848E-04    2          21        21   # BR(A -> g       g      )
     5.63838403E-07    2          22        22   # BR(A -> gam     gam    )
     1.84622550E-07    2          23        22   # BR(A -> Z       gam    )
     7.44224712E-05    2          23        25   # BR(A -> Z       h      )
     3.56164008E-03    2     1000024  -1000024   # BR(A -> ~chi_1+ ~chi_1-)
     1.80644615E-02    2     1000022   1000022   # BR(A -> ~chi_10 ~chi_10)
     2.25830803E-03    2     1000023   1000023   # BR(A -> ~chi_20 ~chi_20)
     8.17662974E-03    2     1000025   1000025   # BR(A -> ~chi_30 ~chi_30)
     1.51194043E-01    2     1000022   1000023   # BR(A -> ~chi_10 ~chi_20)
     2.28644889E-01    2     1000022   1000025   # BR(A -> ~chi_10 ~chi_30)
     8.33656120E-03    2     1000023   1000025   # BR(A -> ~chi_20 ~chi_30)
#
#         PDG            Width
DECAY        37     8.72499354E+00   # H+ decays
#          BR         NDA      ID1       ID2
     5.79170776E-04    2           4        -5   # BR(H+ -> c       bb     )
     6.38719882E-02    2         -15        16   # BR(H+ -> tau+    nu_tau )
     2.25856108E-04    2         -13        14   # BR(H+ -> mu+     nu_mu  )
     3.70667342E-06    2           2        -5   # BR(H+ -> u       bb     )
     1.32524250E-05    2           2        -3   # BR(H+ -> u       sb     )
     2.74061598E-04    2           4        -3   # BR(H+ -> c       sb     )
     5.14037893E-01    2           6        -5   # BR(H+ -> t       bb     )
     7.51001931E-05    2          24        25   # BR(H+ -> W+      h      )
     1.03217024E-12    2          24        36   # BR(H+ -> W+      A      )
     4.10100290E-01    2     1000024   1000022   # BR(H+ -> ~chi_1+ ~chi_10)
     9.11341073E-03    2     1000024   1000023   # BR(H+ -> ~chi_1+ ~chi_20)
     1.70527080E-03    2     1000024   1000025   # BR(H+ -> ~chi_1+ ~chi_30)
