#
#                              ======================
#                              | THE SUSYHIT OUTPUT |
#                              ======================
#
#
#              ------------------------------------------------------
#              |     This is the output of the SUSY-HIT package     |
#              |  created by A.Djouadi, M.Muehlleitner and M.Spira. |
#              |  In case of problems with SUSY-HIT email to        |
#              |           margarete.muehlleitner@cern.ch           |
#              |           michael.spira@psi.ch                     |
#              |           abdelhak.djouadi@cern.ch                 |
#              ------------------------------------------------------
#
#              ------------------------------------------------------
#              |  SUSY Les Houches Accord - MSSM Spectrum + Decays  |
#              |              based on the decay programs           |
#              |                                                    |
#              |                     SDECAY 1.3b                    |
#              |                                                    |
#              |  Authors: M.Muhlleitner, A.Djouadi and Y.Mambrini  |
#              |  Ref.:    Comput.Phys.Commun.168(2005)46           |
#              |           [hep-ph/0311167]                         |
#              |                                                    |
#              |                     HDECAY 3.4                     |
#              |                                                    |
#              |  By: A.Djouadi,J.Kalinowski,M.Muhlleitner,M.Spira  |
#              |  Ref.:    Comput.Phys.Commun.108(1998)56           |
#              |           [hep-ph/9704448]                         |
#              |                                                    |
#              |                                                    |
#              |  If not stated otherwise all DRbar couplings and   |
#              |  soft SUSY breaking masses are given at the scale  |
#              |  Q=  0.50007536E+04
#              |                                                    |
#              ------------------------------------------------------
#
#
BLOCK DCINFO  # Decay Program information
     1   SDECAY/HDECAY # decay calculator
     2   1.3b  /3.4    # version number
#
BLOCK SPINFO  # Spectrum calculator information
     1    SOFTSUSY    # spectrum calculator                
     2    3.4.0       # version number                     
#
BLOCK MODSEL  # Model selection
     1     0   #  nonUniversal                                     
#
BLOCK SMINPUTS  # Standard Model inputs
         1     1.25778332E+02   # alpha_em^-1(M_Z)^MSbar
         2     1.16570000E-05   # G_F [GeV^-2]
         3     1.17200002E-01   # alpha_S(M_Z)^MSbar
         4     9.11876000E+01   # M_Z pole mass
         5     4.25000000E+00   # mb(mb)^MSbar
         6     1.72500000E+02   # mt pole mass
         7     1.77682000E+00   # mtau pole mass
#
BLOCK MINPAR  # Input parameters - minimal models
         3     1.00000000E+01   # tanb                
#
BLOCK EXTPAR  # Input parameters - non-minimal models
         0    -1.00000000E+00   # Set                 
         1     6.00000000E+01   # M_1(MX)             
         2     3.00000000E+03   # M_2(MX)             
         3     1.39219500E+03   # M_3(MX)             
        11     5.00000000E+03   # At(MX)              
        12     5.00000000E+03   # Ab(MX)              
        13     0.00000000E+00   # Atau(MX)            
        23    -5.71406000E+02   # mu(MX)              
        26     3.00000000E+03   # mA(pole)            
        31     5.00000000E+03   # meL(MX)             
        32     5.00000000E+03   # mmuL(MX)            
        33     5.00000000E+03   # mtauL(MX)           
        34     5.00000000E+03   # meR(MX)             
        35     5.00000000E+03   # mmuR(MX)            
        36     5.00000000E+03   # mtauR(MX)           
        41     5.00000000E+03   # mqL1(MX)            
        42     5.00000000E+03   # mqL2(MX)            
        43     5.00000000E+03   # mqL3(MX)            
        44     5.00000000E+03   # muR(MX)             
        45     5.00000000E+03   # mcR(MX)             
        46     5.00000000E+03   # mtR(MX)             
        47     5.00000000E+03   # mdR(MX)             
        48     5.00000000E+03   # msR(MX)             
        49     5.00000000E+03   # mbR(MX)             
#
BLOCK MASS  # Mass Spectrum
# PDG code           mass       particle
        24     8.00930036E+01   # W+
        25     1.24680082E+02   # h
        35     3.00008449E+03   # H
        36     2.99999918E+03   # A
        37     3.00140386E+03   # H+
         5     4.87878001E+00   # b-quark pole mass calculated from mb(mb)_Msbar
   1000001     5.06850548E+03   # ~d_L
   2000001     5.05065982E+03   # ~d_R
   1000002     5.06803004E+03   # ~u_L
   2000002     5.05036226E+03   # ~u_R
   1000003     5.06850548E+03   # ~s_L
   2000003     5.05065982E+03   # ~s_R
   1000004     5.06803004E+03   # ~c_L
   2000004     5.05036226E+03   # ~c_R
   1000005     5.01442378E+03   # ~b_1
   2000005     5.04896040E+03   # ~b_2
   1000006     4.90511830E+03   # ~t_1
   2000006     5.05893559E+03   # ~t_2
   1000011     5.01909960E+03   # ~e_L
   2000011     5.00593955E+03   # ~e_R
   1000012     5.01814970E+03   # ~nu_eL
   1000013     5.01909960E+03   # ~mu_L
   2000013     5.00593955E+03   # ~mu_R
   1000014     5.01814970E+03   # ~nu_muL
   1000015     5.00474873E+03   # ~tau_1
   2000015     5.01865066E+03   # ~tau_2
   1000016     5.01759905E+03   # ~nu_tauL
   1000021     1.70000086E+03   # ~g
   1000022     6.02509424E+01   # ~chi_10
   1000023     6.00198272E+02   # ~chi_20
   1000025    -6.02417025E+02   # ~chi_30
   1000035     3.07418671E+03   # ~chi_40
   1000024     6.00000001E+02   # ~chi_1+
   1000037     3.07435436E+03   # ~chi_2+
#
BLOCK NMIX  # Neutralino Mixing Matrix
  1  1     9.97248994E-01   # N_11
  1  2     2.27036447E-04   # N_12
  1  3    -7.41237806E-02   # N_13
  1  4     2.41743894E-04   # N_14
  2  1     5.22698282E-02   # N_21
  2  2     1.97541690E-02   # N_22
  2  3     7.05593917E-01   # N_23
  2  4     7.06409840E-01   # N_24
  3  1    -5.25562398E-02   # N_31
  3  2     1.65494392E-02   # N_32
  3  3    -7.04725325E-01   # N_33
  3  4     7.07337384E-01   # N_34
  4  1    -3.89311897E-04   # N_41
  4  2     9.99667864E-01   # N_42
  4  3    -2.25953423E-03   # N_43
  4  4    -2.56691569E-02   # N_44
#
BLOCK UMIX  # Chargino Mixing Matrix U
  1  1     3.20258662E-03   # U_11
  1  2     9.99994872E-01   # U_12
  2  1    -9.99994872E-01   # U_21
  2  2     3.20258662E-03   # U_22
#
BLOCK VMIX  # Chargino Mixing Matrix V
  1  1     3.63255798E-02   # V_11
  1  2    -9.99340008E-01   # V_12
  2  1    -9.99340008E-01   # V_21
  2  2    -3.63255798E-02   # V_22
#
BLOCK STOPMIX  # Stop Mixing Matrix
  1  1    -5.05495835E-01   # cos(theta_t)
  1  2     8.62829045E-01   # sin(theta_t)
  2  1    -8.62829045E-01   # -sin(theta_t)
  2  2    -5.05495835E-01   # cos(theta_t)
#
BLOCK SBOTMIX  # Sbottom Mixing Matrix
  1  1     9.98473038E-01   # cos(theta_b)
  1  2    -5.52412200E-02   # sin(theta_b)
  2  1     5.52412200E-02   # -sin(theta_b)
  2  2     9.98473038E-01   # cos(theta_b)
#
BLOCK STAUMIX  # Stau Mixing Matrix
  1  1    -6.84571280E-02   # cos(theta_tau)
  1  2     9.97654059E-01   # sin(theta_tau)
  2  1    -9.97654059E-01   # -sin(theta_tau)
  2  2    -6.84571280E-02   # cos(theta_tau)
#
BLOCK ALPHA  # Higgs mixing
          -1.05473276E-01   # Mixing angle in the neutral Higgs boson sector
#
BLOCK HMIX Q=  5.00075356E+03  # DRbar Higgs Parameters
         1    -5.81795530E+02   # mu(Q)MSSM           
         2     9.47022704E+00   # tan                 
         3     2.41782262E+02   # higgs               
         4     8.64190949E+06   # mA^2(Q)MSSM         
#
BLOCK GAUGE Q=  5.00075356E+03  # The gauge couplings
     1     3.70920302E-01   # gprime(Q) DRbar
     2     6.33143065E-01   # g(Q) DRbar
     3     1.00088397E+00   # g3(Q) DRbar
#
BLOCK AU Q=  5.00075356E+03  # The trilinear couplings
  1  1     5.00000001E+03   # A_u(Q) DRbar
  2  2     5.00000001E+03   # A_c(Q) DRbar
  3  3     5.00000001E+03   # A_t(Q) DRbar
#
BLOCK AD Q=  5.00075356E+03  # The trilinear couplings
  1  1     5.00000000E+03   # A_d(Q) DRbar
  2  2     5.00000000E+03   # A_s(Q) DRbar
  3  3     5.00000001E+03   # A_b(Q) DRbar
#
BLOCK AE Q=  5.00075356E+03  # The trilinear couplings
  1  1     0.00000000E+00   # A_e(Q) DRbar
  2  2     1.27199914E-07   # A_mu(Q) DRbar
  3  3     1.26653429E-07   # A_tau(Q) DRbar
#
BLOCK Yu Q=  5.00075356E+03  # The Yukawa couplings
  1  1     0.00000000E+00   # y_u(Q) DRbar
  2  2     0.00000000E+00   # y_c(Q) DRbar
  3  3     8.19001331E-01   # y_t(Q) DRbar
#
BLOCK Yd Q=  5.00075356E+03  # The Yukawa couplings
  1  1     0.00000000E+00   # y_d(Q) DRbar
  2  2     0.00000000E+00   # y_s(Q) DRbar
  3  3     1.29931072E-01   # y_b(Q) DRbar
#
BLOCK Ye Q=  5.00075356E+03  # The Yukawa couplings
  1  1     0.00000000E+00   # y_e(Q) DRbar
  2  2     0.00000000E+00   # y_mu(Q) DRbar
  3  3     9.70820961E-02   # y_tau(Q) DRbar
#
BLOCK MSOFT Q=  5.00075356E+03  # The soft SUSY breaking masses at the scale Q
         1     6.00000000E+01   # M_1(Q)              
         2     3.00000000E+03   # M_2(Q)              
         3     1.39219500E+03   # M_3(Q)              
        21     8.38090262E+06   # mH1^2(Q)            
        22     2.34402058E+05   # mH2^2(Q)            
        31     5.00000000E+03   # meL(Q)              
        32     5.00000000E+03   # mmuL(Q)             
        33     5.00000000E+03   # mtauL(Q)            
        34     5.00000000E+03   # meR(Q)              
        35     5.00000000E+03   # mmuR(Q)             
        36     5.00000000E+03   # mtauR(Q)            
        41     5.00000000E+03   # mqL1(Q)             
        42     5.00000000E+03   # mqL2(Q)             
        43     5.00000000E+03   # mqL3(Q)             
        44     5.00000000E+03   # muR(Q)              
        45     5.00000000E+03   # mcR(Q)              
        46     4.99999999E+03   # mtR(Q)              
        47     5.00000000E+03   # mdR(Q)              
        48     5.00000000E+03   # msR(Q)              
        49     5.00000000E+03   # mbR(Q)              
#
#
#
#                             =================
#                             |The decay table|
#                             =================
#
# - The QCD corrections to the decays gluino -> squark  + quark
#                                     squark -> gaugino + quark_prime
#                                     squark -> squark_prime + Higgs
#                                     squark -> gluino  + quark
#   are included.
#
# - The multi-body decays for the inos, stops and sbottoms are included.
#
# - The loop induced decays for the gluino, neutralinos and stops
#   are included.
#
# - The SUSY decays of the top quark are included.
#
#
#         PDG            Width
DECAY         6     1.40487241E+00   # top decays
#          BR         NDA      ID1       ID2
     1.00000000E+00    2           5        24   # BR(t ->  b    W+)
#
#         PDG            Width
DECAY   1000021     5.23608557E-04   # gluino decays
#          BR         NDA      ID1       ID2
     1.39506299E-06    2     1000022        21   # BR(~g -> ~chi_10 g)
     1.23385602E-02    2     1000023        21   # BR(~g -> ~chi_20 g)
     1.20241930E-02    2     1000025        21   # BR(~g -> ~chi_30 g)
#           BR         NDA      ID1       ID2       ID3
     1.92723842E-02    3     1000022         1        -1   # BR(~g -> ~chi_10 d  db)
     2.83391467E-05    3     1000023         1        -1   # BR(~g -> ~chi_20 d  db)
     2.74437197E-05    3     1000025         1        -1   # BR(~g -> ~chi_30 d  db)
     6.57182312E-02    3     1000022         2        -2   # BR(~g -> ~chi_10 u  ub)
     1.42782597E-04    3     1000023         2        -2   # BR(~g -> ~chi_20 u  ub)
     4.19051620E-05    3     1000025         2        -2   # BR(~g -> ~chi_30 u  ub)
     1.92723842E-02    3     1000022         3        -3   # BR(~g -> ~chi_10 s  sb)
     2.83391467E-05    3     1000023         3        -3   # BR(~g -> ~chi_20 s  sb)
     2.74437197E-05    3     1000025         3        -3   # BR(~g -> ~chi_30 s  sb)
     6.57182312E-02    3     1000022         4        -4   # BR(~g -> ~chi_10 c  cb)
     1.42782597E-04    3     1000023         4        -4   # BR(~g -> ~chi_20 c  cb)
     4.19051620E-05    3     1000025         4        -4   # BR(~g -> ~chi_30 c  cb)
     1.96526968E-02    3     1000022         5        -5   # BR(~g -> ~chi_10 b  bb)
     5.16225207E-03    3     1000023         5        -5   # BR(~g -> ~chi_20 b  bb)
     5.10709164E-03    3     1000025         5        -5   # BR(~g -> ~chi_30 b  bb)
     6.04704924E-02    3     1000022         6        -6   # BR(~g -> ~chi_10 t  tb)
     1.78156196E-01    3     1000023         6        -6   # BR(~g -> ~chi_20 t  tb)
     1.52421330E-01    3     1000025         6        -6   # BR(~g -> ~chi_30 t  tb)
     5.63405322E-05    3     1000024         1        -2   # BR(~g -> ~chi_1+ d  ub)
     5.63405322E-05    3    -1000024         2        -1   # BR(~g -> ~chi_1- u  db)
     5.63405322E-05    3     1000024         3        -4   # BR(~g -> ~chi_1+ s  cb)
     5.63405322E-05    3    -1000024         4        -3   # BR(~g -> ~chi_1- c  sb)
     1.91989129E-01    3     1000024         5        -6   # BR(~g -> ~chi_1+ b  tb)
     1.91989129E-01    3    -1000024         6        -5   # BR(~g -> ~chi_1- t  bb)
#
#         PDG            Width
DECAY   1000006     3.73156335E+02   # stop1 decays
#          BR         NDA      ID1       ID2
     2.35913920E-02    2     1000022         6   # BR(~t_1 -> ~chi_10 t )
     8.67128621E-02    2     1000023         6   # BR(~t_1 -> ~chi_20 t )
     8.25100246E-02    2     1000025         6   # BR(~t_1 -> ~chi_30 t )
     5.50215943E-03    2     1000035         6   # BR(~t_1 -> ~chi_40 t )
     1.25684768E-01    2     1000024         5   # BR(~t_1 -> ~chi_1+ b )
     1.09677595E-02    2     1000037         5   # BR(~t_1 -> ~chi_2+ b )
     6.65031034E-01    2     1000021         6   # BR(~t_1 -> ~g      t )
#
#         PDG            Width
DECAY   2000006     3.76561040E+02   # stop2 decays
#          BR         NDA      ID1       ID2
     9.31212794E-03    2     1000022         6   # BR(~t_2 -> ~chi_10 t )
     8.65035558E-02    2     1000023         6   # BR(~t_2 -> ~chi_20 t )
     9.11524886E-02    2     1000025         6   # BR(~t_2 -> ~chi_30 t )
     1.47883299E-02    2     1000035         6   # BR(~t_2 -> ~chi_40 t )
     5.13812171E-02    2     1000024         5   # BR(~t_2 -> ~chi_1+ b )
     2.94429399E-02    2     1000037         5   # BR(~t_2 -> ~chi_2+ b )
     7.14112785E-01    2     1000021         6   # BR(~t_2 -> ~g      t )
     7.58916853E-04    2     1000006        25   # BR(~t_2 -> ~t_1    h )
     2.54763881E-03    2     1000006        23   # BR(~t_2 -> ~t_1    Z )
#
#         PDG            Width
DECAY   1000005     3.52344770E+02   # sbottom1 decays
#          BR         NDA      ID1       ID2
     2.20089186E-03    2     1000022         5   # BR(~b_1 -> ~chi_10 b )
     2.32268203E-03    2     1000023         5   # BR(~b_1 -> ~chi_20 b )
     2.30657458E-03    2     1000025         5   # BR(~b_1 -> ~chi_30 b )
     2.14546610E-02    2     1000035         5   # BR(~b_1 -> ~chi_40 b )
     1.85054538E-01    2    -1000024         6   # BR(~b_1 -> ~chi_1- t )
     4.30794861E-02    2    -1000037         6   # BR(~b_1 -> ~chi_2- t )
     7.41985979E-01    2     1000021         5   # BR(~b_1 -> ~g      b )
     1.59518785E-03    2     1000006       -24   # BR(~b_1 -> ~t_1    W-)
#
#         PDG            Width
DECAY   2000005     2.70455125E+02   # sbottom2 decays
#          BR         NDA      ID1       ID2
     1.08610823E-02    2     1000022         5   # BR(~b_2 -> ~chi_10 b )
     3.10503408E-03    2     1000023         5   # BR(~b_2 -> ~chi_20 b )
     3.15426540E-03    2     1000025         5   # BR(~b_2 -> ~chi_30 b )
     8.34752107E-05    2     1000035         5   # BR(~b_2 -> ~chi_40 b )
     6.82886664E-03    2    -1000024         6   # BR(~b_2 -> ~chi_1- t )
     1.67615461E-04    2    -1000037         6   # BR(~b_2 -> ~chi_2- t )
     9.75773574E-01    2     1000021         5   # BR(~b_2 -> ~g      b )
     2.60865653E-05    2     1000006       -24   # BR(~b_2 -> ~t_1    W-)
#
#         PDG            Width
DECAY   1000002     2.89672221E+02   # sup_L decays
#          BR         NDA      ID1       ID2
     2.57117727E-03    2     1000022         2   # BR(~u_L -> ~chi_10 u)
     5.90906581E-05    2     1000023         2   # BR(~u_L -> ~chi_20 u)
     2.60069093E-06    2     1000025         2   # BR(~u_L -> ~chi_30 u)
     2.71143069E-02    2     1000035         2   # BR(~u_L -> ~chi_40 u)
     1.73723022E-04    2     1000024         1   # BR(~u_L -> ~chi_1+ d)
     5.41944544E-02    2     1000037         1   # BR(~u_L -> ~chi_2+ d)
     9.15884647E-01    2     1000021         2   # BR(~u_L -> ~g      u)
#
#         PDG            Width
DECAY   2000002     2.75822714E+02   # sup_R decays
#          BR         NDA      ID1       ID2
     4.29523667E-02    2     1000022         2   # BR(~u_R -> ~chi_10 u)
     1.14814229E-04    2     1000023         2   # BR(~u_R -> ~chi_20 u)
     1.16051548E-04    2     1000025         2   # BR(~u_R -> ~chi_30 u)
     2.60504994E-09    2     1000035         2   # BR(~u_R -> ~chi_40 u)
     9.56816765E-01    2     1000021         2   # BR(~u_R -> ~g      u)
#
#         PDG            Width
DECAY   1000001     2.89684279E+02   # sdown_L decays
#          BR         NDA      ID1       ID2
     2.55935059E-03    2     1000022         1   # BR(~d_L -> ~chi_10 d)
     5.99993147E-06    2     1000023         1   # BR(~d_L -> ~chi_20 d)
     4.73159142E-05    2     1000025         1   # BR(~d_L -> ~chi_30 d)
     2.71298571E-02    2     1000035         1   # BR(~d_L -> ~chi_40 d)
     1.35039015E-06    2    -1000024         2   # BR(~d_L -> ~chi_1- u)
     5.42801136E-02    2    -1000037         2   # BR(~d_L -> ~chi_2- u)
     9.15976013E-01    2     1000021         1   # BR(~d_L -> ~g      d)
#
#         PDG            Width
DECAY   2000001     2.66913200E+02   # sdown_R decays
#          BR         NDA      ID1       ID2
     1.10971867E-02    2     1000022         1   # BR(~d_R -> ~chi_10 d)
     2.96635350E-05    2     1000023         1   # BR(~d_R -> ~chi_20 d)
     2.99832111E-05    2     1000025         1   # BR(~d_R -> ~chi_30 d)
     6.73133896E-10    2     1000035         1   # BR(~d_R -> ~chi_40 d)
     9.88843166E-01    2     1000021         1   # BR(~d_R -> ~g      d)
#
#         PDG            Width
DECAY   1000004     2.89672221E+02   # scharm_L decays
#          BR         NDA      ID1       ID2
     2.57117727E-03    2     1000022         4   # BR(~c_L -> ~chi_10 c)
     5.90906581E-05    2     1000023         4   # BR(~c_L -> ~chi_20 c)
     2.60069093E-06    2     1000025         4   # BR(~c_L -> ~chi_30 c)
     2.71143069E-02    2     1000035         4   # BR(~c_L -> ~chi_40 c)
     1.73723022E-04    2     1000024         3   # BR(~c_L -> ~chi_1+ s)
     5.41944544E-02    2     1000037         3   # BR(~c_L -> ~chi_2+ s)
     9.15884647E-01    2     1000021         4   # BR(~c_L -> ~g      c)
#
#         PDG            Width
DECAY   2000004     2.75822714E+02   # scharm_R decays
#          BR         NDA      ID1       ID2
     4.29523667E-02    2     1000022         4   # BR(~c_R -> ~chi_10 c)
     1.14814229E-04    2     1000023         4   # BR(~c_R -> ~chi_20 c)
     1.16051548E-04    2     1000025         4   # BR(~c_R -> ~chi_30 c)
     2.60504994E-09    2     1000035         4   # BR(~c_R -> ~chi_40 c)
     9.56816765E-01    2     1000021         4   # BR(~c_R -> ~g      c)
#
#         PDG            Width
DECAY   1000003     2.89684279E+02   # sstrange_L decays
#          BR         NDA      ID1       ID2
     2.55935059E-03    2     1000022         3   # BR(~s_L -> ~chi_10 s)
     5.99993147E-06    2     1000023         3   # BR(~s_L -> ~chi_20 s)
     4.73159142E-05    2     1000025         3   # BR(~s_L -> ~chi_30 s)
     2.71298571E-02    2     1000035         3   # BR(~s_L -> ~chi_40 s)
     1.35039015E-06    2    -1000024         4   # BR(~s_L -> ~chi_1- c)
     5.42801136E-02    2    -1000037         4   # BR(~s_L -> ~chi_2- c)
     9.15976013E-01    2     1000021         3   # BR(~s_L -> ~g      s)
#
#         PDG            Width
DECAY   2000003     2.66913200E+02   # sstrange_R decays
#          BR         NDA      ID1       ID2
     1.10971867E-02    2     1000022         3   # BR(~s_R -> ~chi_10 s)
     2.96635350E-05    2     1000023         3   # BR(~s_R -> ~chi_20 s)
     2.99832111E-05    2     1000025         3   # BR(~s_R -> ~chi_30 s)
     6.73133896E-10    2     1000035         3   # BR(~s_R -> ~chi_40 s)
     9.88843166E-01    2     1000021         3   # BR(~s_R -> ~g      s)
#
#         PDG            Width
DECAY   1000011     3.03193969E+01   # selectron_L decays
#          BR         NDA      ID1       ID2
     2.25416721E-01    2     1000022        11   # BR(~e_L -> ~chi_10 e-)
     1.62758739E-03    2     1000023        11   # BR(~e_L -> ~chi_20 e-)
     1.30026133E-04    2     1000025        11   # BR(~e_L -> ~chi_30 e-)
     2.57435981E-01    2     1000035        11   # BR(~e_L -> ~chi_40 e-)
     1.31564483E-05    2    -1000024        12   # BR(~e_L -> ~chi_1- nu_e)
     5.15376528E-01    2    -1000037        12   # BR(~e_L -> ~chi_2- nu_e)
#
#         PDG            Width
DECAY   2000011     2.73913464E+01   # selectron_R decays
#          BR         NDA      ID1       ID2
     9.94660678E-01    2     1000022        11   # BR(~e_R -> ~chi_10 e-)
     2.65533202E-03    2     1000023        11   # BR(~e_R -> ~chi_20 e-)
     2.68393144E-03    2     1000025        11   # BR(~e_R -> ~chi_30 e-)
     5.88282502E-08    2     1000035        11   # BR(~e_R -> ~chi_40 e-)
#
#         PDG            Width
DECAY   1000013     3.03193969E+01   # smuon_L decays
#          BR         NDA      ID1       ID2
     2.25416721E-01    2     1000022        13   # BR(~mu_L -> ~chi_10 mu-)
     1.62758739E-03    2     1000023        13   # BR(~mu_L -> ~chi_20 mu-)
     1.30026133E-04    2     1000025        13   # BR(~mu_L -> ~chi_30 mu-)
     2.57435981E-01    2     1000035        13   # BR(~mu_L -> ~chi_40 mu-)
     1.31564483E-05    2    -1000024        14   # BR(~mu_L -> ~chi_1- nu_mu)
     5.15376528E-01    2    -1000037        14   # BR(~mu_L -> ~chi_2- nu_mu)
#
#         PDG            Width
DECAY   2000013     2.73913464E+01   # smuon_R decays
#          BR         NDA      ID1       ID2
     9.94660678E-01    2     1000022        13   # BR(~mu_R -> ~chi_10 mu-)
     2.65533202E-03    2     1000023        13   # BR(~mu_R -> ~chi_20 mu-)
     2.68393144E-03    2     1000025        13   # BR(~mu_R -> ~chi_30 mu-)
     5.88282502E-08    2     1000035        13   # BR(~mu_R -> ~chi_40 mu-)
#
#         PDG            Width
DECAY   1000015     2.92194697E+01   # stau_1 decays
#          BR         NDA      ID1       ID2
     9.29983201E-01    2     1000022        15   # BR(~tau_1 -> ~chi_10  tau-)
     1.78658310E-02    2     1000023        15   # BR(~tau_1 -> ~chi_20  tau-)
     1.73407062E-02    2     1000025        15   # BR(~tau_1 -> ~chi_30  tau-)
     1.22209047E-03    2     1000035        15   # BR(~tau_1 -> ~chi_40  tau-)
     3.11417705E-02    2    -1000024        16   # BR(~tau_1 -> ~chi_1-  nu_tau)
     2.44640045E-03    2    -1000037        16   # BR(~tau_1 -> ~chi_2-  nu_tau)
#
#         PDG            Width
DECAY   2000015     3.12138623E+01   # stau_2 decays
#          BR         NDA      ID1       ID2
     2.21356597E-01    2     1000022        15   # BR(~tau_2 -> ~chi_10  tau-)
     1.63094122E-02    2     1000023        15   # BR(~tau_2 -> ~chi_20  tau-)
     1.52960161E-02    2     1000025        15   # BR(~tau_2 -> ~chi_30  tau-)
     2.48827759E-01    2     1000035        15   # BR(~tau_2 -> ~chi_40  tau-)
     6.64218250E-05    2    -1000024        16   # BR(~tau_2 -> ~chi_1-  nu_tau)
     4.98143794E-01    2    -1000037        16   # BR(~tau_2 -> ~chi_2-  nu_tau)
#
#         PDG            Width
DECAY   1000012     3.03225551E+01   # snu_eL decays
#          BR         NDA      ID1       ID2
     2.25000540E-01    2     1000022        12   # BR(~nu_eL -> ~chi_10 nu_e)
     7.57235740E-05    2     1000023        12   # BR(~nu_eL -> ~chi_20 nu_e)
     1.43651628E-03    2     1000025        12   # BR(~nu_eL -> ~chi_30 nu_e)
     2.57478325E-01    2     1000035        12   # BR(~nu_eL -> ~chi_40 nu_e)
     1.69211470E-03    2     1000024        11   # BR(~nu_eL -> ~chi_1+ e-)
     5.14316781E-01    2     1000037        11   # BR(~nu_eL -> ~chi_2+ e-)
#
#         PDG            Width
DECAY   1000014     3.03225551E+01   # snu_muL decays
#          BR         NDA      ID1       ID2
     2.25000540E-01    2     1000022        14   # BR(~nu_muL -> ~chi_10 nu_mu)
     7.57235740E-05    2     1000023        14   # BR(~nu_muL -> ~chi_20 nu_mu)
     1.43651628E-03    2     1000025        14   # BR(~nu_muL -> ~chi_30 nu_mu)
     2.57478325E-01    2     1000035        14   # BR(~nu_muL -> ~chi_40 nu_mu)
     1.69211470E-03    2     1000024        13   # BR(~nu_muL -> ~chi_1+ mu-)
     5.14316781E-01    2     1000037        13   # BR(~nu_muL -> ~chi_2+ mu-)
#
#         PDG            Width
DECAY   1000016     3.12271677E+01   # snu_tauL decays
#          BR         NDA      ID1       ID2
     2.18458563E-01    2     1000022        16   # BR(~nu_tauL -> ~chi_10 nu_tau)
     7.35214184E-05    2     1000023        16   # BR(~nu_tauL -> ~chi_20 nu_tau)
     1.39474015E-03    2     1000025        16   # BR(~nu_tauL -> ~chi_30 nu_tau)
     2.49926134E-01    2     1000035        16   # BR(~nu_tauL -> ~chi_40 nu_tau)
     3.09164392E-02    2     1000024        15   # BR(~nu_tauL -> ~chi_1+ tau-)
     4.99230602E-01    2     1000037        15   # BR(~nu_tauL -> ~chi_2+ tau-)
#
#         PDG            Width
DECAY   1000024     3.57473091E-01   # chargino1+ decays
#          BR         NDA      ID1       ID2
     1.00000000E+00    2     1000022        24   # BR(~chi_1+ -> ~chi_10  W+)
#
#         PDG            Width
DECAY   1000037     2.18136680E+01   # chargino2+ decays
#          BR         NDA      ID1       ID2
     2.53505179E-01    2     1000024        23   # BR(~chi_2+ -> ~chi_1+  Z )
     1.69241433E-04    2     1000022        24   # BR(~chi_2+ -> ~chi_10  W+)
     2.44763715E-01    2     1000023        24   # BR(~chi_2+ -> ~chi_20  W+)
     2.44335453E-01    2     1000025        24   # BR(~chi_2+ -> ~chi_30  W+)
     2.57222863E-01    2     1000024        25   # BR(~chi_2+ -> ~chi_1+  h )
     3.54851485E-06    2     1000022        37   # BR(~chi_2+ -> ~chi_10  H+)
#
#         PDG            Width
DECAY   1000022     0.00000000E+00   # neutralino1 decays
#
#         PDG            Width
DECAY   1000023     3.66233302E-01   # neutralino2 decays
#          BR         NDA      ID1       ID2
     5.14047156E-01    2     1000022        23   # BR(~chi_20 -> ~chi_10   Z )
     4.85952844E-01    2     1000022        25   # BR(~chi_20 -> ~chi_10   h )
#
#         PDG            Width
DECAY   1000025     3.61865310E-01   # neutralino3 decays
#          BR         NDA      ID1       ID2
     5.03961330E-01    2     1000022        23   # BR(~chi_30 -> ~chi_10   Z )
     4.96038670E-01    2     1000022        25   # BR(~chi_30 -> ~chi_10   h )
#
#         PDG            Width
DECAY   1000035     2.18272461E+01   # neutralino4 decays
#          BR         NDA      ID1       ID2
     1.29191297E-05    2     1000022        23   # BR(~chi_40 -> ~chi_10   Z )
     1.04468149E-01    2     1000023        23   # BR(~chi_40 -> ~chi_20   Z )
     1.48500664E-01    2     1000025        23   # BR(~chi_40 -> ~chi_30   Z )
     2.45098918E-01    2     1000024       -24   # BR(~chi_40 -> ~chi_1+   W-)
     2.45098918E-01    2    -1000024        24   # BR(~chi_40 -> ~chi_1-   W+)
     1.51359740E-04    2     1000022        25   # BR(~chi_40 -> ~chi_10   h )
     3.40233887E-06    2     1000022        35   # BR(~chi_40 -> ~chi_10   H )
     3.79309970E-07    2     1000022        36   # BR(~chi_40 -> ~chi_10   A )
     1.51921652E-01    2     1000023        25   # BR(~chi_40 -> ~chi_20   h )
     1.04743638E-01    2     1000025        25   # BR(~chi_40 -> ~chi_30   h )
#
#         PDG            Width
DECAY        25     4.06083505E-03   # h decays
#          BR         NDA      ID1       ID2
     6.11027150E-01    2           5        -5   # BR(h -> b       bb     )
     6.38280158E-02    2         -15        15   # BR(h -> tau+    tau-   )
     2.25974794E-04    2         -13        13   # BR(h -> mu+     mu-    )
     4.79122619E-04    2           3        -3   # BR(h -> s       sb     )
     2.07598748E-02    2           4        -4   # BR(h -> c       cb     )
     6.70461832E-02    2          21        21   # BR(h -> g       g      )
     2.30251236E-03    2          22        22   # BR(h -> gam     gam    )
     1.47702271E-03    2          22        23   # BR(h -> Z       gam    )
     2.08028317E-01    2          24       -24   # BR(h -> W+      W-     )
     2.47425724E-02    2          23        23   # BR(h -> Z       Z      )
     8.32540312E-05    2     1000022   1000022   # BR(h -> ~chi_10 ~chi_10)
#
#         PDG            Width
DECAY        35     8.57889723E+00   # H decays
#          BR         NDA      ID1       ID2
     3.72923260E-01    2           5        -5   # BR(H -> b       bb     )
     6.49450391E-02    2         -15        15   # BR(H -> tau+    tau-   )
     2.29650817E-04    2         -13        13   # BR(H -> mu+     mu-    )
     2.81516674E-04    2           3        -3   # BR(H -> s       sb     )
     1.57456758E-06    2           4        -4   # BR(H -> c       cb     )
     1.57311775E-01    2           6        -6   # BR(H -> t       tb     )
     5.23057283E-05    2          21        21   # BR(H -> g       g      )
     1.64337551E-07    2          22        22   # BR(H -> gam     gam    )
     9.28256676E-08    2          23        22   # BR(H -> Z       gam    )
     7.44028572E-05    2          24       -24   # BR(H -> W+      W-     )
     3.71543324E-05    2          23        23   # BR(H -> Z       Z      )
     2.71528009E-04    2          25        25   # BR(H -> h       h      )
     1.24708061E-23    2          36        36   # BR(H -> A       A      )
     3.20225019E-19    2          23        36   # BR(H -> Z       A      )
     3.01198965E-03    2     1000024  -1000024   # BR(H -> ~chi_1+ ~chi_1-)
     4.69224264E-03    2     1000022   1000022   # BR(H -> ~chi_10 ~chi_10)
     1.03137243E-04    2     1000023   1000023   # BR(H -> ~chi_20 ~chi_20)
     1.80812185E-03    2     1000025   1000025   # BR(H -> ~chi_30 ~chi_30)
     2.37445248E-01    2     1000022   1000023   # BR(H -> ~chi_10 ~chi_20)
     1.54600977E-01    2     1000022   1000025   # BR(H -> ~chi_10 ~chi_30)
     2.20981983E-03    2     1000023   1000025   # BR(H -> ~chi_20 ~chi_30)
#
#         PDG            Width
DECAY        36     8.58727864E+00   # A decays
#          BR         NDA      ID1       ID2
     3.72686355E-01    2           5        -5   # BR(A -> b       bb     )
     6.48835884E-02    2         -15        15   # BR(A -> tau+    tau-   )
     2.29433202E-04    2         -13        13   # BR(A -> mu+     mu-    )
     2.81455477E-04    2           3        -3   # BR(A -> s       sb     )
     1.57936568E-06    2           4        -4   # BR(A -> c       cb     )
     1.57704079E-01    2           6        -6   # BR(A -> t       tb     )
     1.56068111E-04    2          21        21   # BR(A -> g       g      )
     5.99084737E-07    2          22        22   # BR(A -> gam     gam    )
     1.88913056E-07    2          23        22   # BR(A -> Z       gam    )
     7.40496085E-05    2          23        25   # BR(A -> Z       h      )
     3.45121986E-03    2     1000024  -1000024   # BR(A -> ~chi_1+ ~chi_1-)
     4.70185197E-03    2     1000022   1000022   # BR(A -> ~chi_10 ~chi_10)
     8.02087285E-05    2     1000023   1000023   # BR(A -> ~chi_20 ~chi_20)
     3.29816940E-03    2     1000025   1000025   # BR(A -> ~chi_30 ~chi_30)
     1.57600904E-01    2     1000022   1000023   # BR(A -> ~chi_10 ~chi_20)
     2.33459749E-01    2     1000022   1000025   # BR(A -> ~chi_10 ~chi_30)
     1.39049957E-03    2     1000023   1000025   # BR(A -> ~chi_20 ~chi_30)
#
#         PDG            Width
DECAY        37     8.53089432E+00   # H+ decays
#          BR         NDA      ID1       ID2
     5.97805958E-04    2           4        -5   # BR(H+ -> c       bb     )
     6.53430128E-02    2         -15        16   # BR(H+ -> tau+    nu_tau )
     2.31057760E-04    2         -13        14   # BR(H+ -> mu+     nu_mu  )
     3.82593810E-06    2           2        -5   # BR(H+ -> u       bb     )
     1.35576775E-05    2           2        -3   # BR(H+ -> u       sb     )
     2.80373358E-04    2           4        -3   # BR(H+ -> c       sb     )
     5.29090630E-01    2           6        -5   # BR(H+ -> t       bb     )
     7.46918824E-05    2          24        25   # BR(H+ -> W+      h      )
     8.42382052E-13    2          24        36   # BR(H+ -> W+      A      )
     4.01735389E-01    2     1000024   1000022   # BR(H+ -> ~chi_1+ ~chi_10)
     2.49076859E-03    2     1000024   1000023   # BR(H+ -> ~chi_1+ ~chi_20)
     1.38887301E-04    2     1000024   1000025   # BR(H+ -> ~chi_1+ ~chi_30)
