#
#                              ======================
#                              | THE SUSYHIT OUTPUT |
#                              ======================
#
#
#              ------------------------------------------------------
#              |     This is the output of the SUSY-HIT package     |
#              |  created by A.Djouadi, M.Muehlleitner and M.Spira. |
#              |  In case of problems with SUSY-HIT email to        |
#              |           margarete.muehlleitner@cern.ch           |
#              |           michael.spira@psi.ch                     |
#              |           abdelhak.djouadi@cern.ch                 |
#              ------------------------------------------------------
#
#              ------------------------------------------------------
#              |  SUSY Les Houches Accord - MSSM Spectrum + Decays  |
#              |              based on the decay programs           |
#              |                                                    |
#              |                     SDECAY 1.3b                    |
#              |                                                    |
#              |  Authors: M.Muhlleitner, A.Djouadi and Y.Mambrini  |
#              |  Ref.:    Comput.Phys.Commun.168(2005)46           |
#              |           [hep-ph/0311167]                         |
#              |                                                    |
#              |                     HDECAY 3.4                     |
#              |                                                    |
#              |  By: A.Djouadi,J.Kalinowski,M.Muhlleitner,M.Spira  |
#              |  Ref.:    Comput.Phys.Commun.108(1998)56           |
#              |           [hep-ph/9704448]                         |
#              |                                                    |
#              |                                                    |
#              |  If not stated otherwise all DRbar couplings and   |
#              |  soft SUSY breaking masses are given at the scale  |
#              |  Q=  0.50007433E+04
#              |                                                    |
#              ------------------------------------------------------
#
#
BLOCK DCINFO  # Decay Program information
     1   SDECAY/HDECAY # decay calculator
     2   1.3b  /3.4    # version number
#
BLOCK SPINFO  # Spectrum calculator information
     1    SOFTSUSY    # spectrum calculator                
     2    3.4.0       # version number                     
#
BLOCK MODSEL  # Model selection
     1     0   #  nonUniversal                                     
#
BLOCK SMINPUTS  # Standard Model inputs
         1     1.25778332E+02   # alpha_em^-1(M_Z)^MSbar
         2     1.16570000E-05   # G_F [GeV^-2]
         3     1.17200002E-01   # alpha_S(M_Z)^MSbar
         4     9.11876000E+01   # M_Z pole mass
         5     4.25000000E+00   # mb(mb)^MSbar
         6     1.72500000E+02   # mt pole mass
         7     1.77682000E+00   # mtau pole mass
#
BLOCK MINPAR  # Input parameters - minimal models
         3     1.00000000E+01   # tanb                
#
BLOCK EXTPAR  # Input parameters - non-minimal models
         0    -1.00000000E+00   # Set                 
         1     6.00000000E+01   # M_1(MX)             
         2     3.00000000E+03   # M_2(MX)             
         3     1.21156300E+03   # M_3(MX)             
        11     5.00000000E+03   # At(MX)              
        12     5.00000000E+03   # Ab(MX)              
        13     0.00000000E+00   # Atau(MX)            
        23    -7.64982000E+02   # mu(MX)              
        26     3.00000000E+03   # mA(pole)            
        31     5.00000000E+03   # meL(MX)             
        32     5.00000000E+03   # mmuL(MX)            
        33     5.00000000E+03   # mtauL(MX)           
        34     5.00000000E+03   # meR(MX)             
        35     5.00000000E+03   # mmuR(MX)            
        36     5.00000000E+03   # mtauR(MX)           
        41     5.00000000E+03   # mqL1(MX)            
        42     5.00000000E+03   # mqL2(MX)            
        43     5.00000000E+03   # mqL3(MX)            
        44     5.00000000E+03   # muR(MX)             
        45     5.00000000E+03   # mcR(MX)             
        46     5.00000000E+03   # mtR(MX)             
        47     5.00000000E+03   # mdR(MX)             
        48     5.00000000E+03   # msR(MX)             
        49     5.00000000E+03   # mbR(MX)             
#
BLOCK MASS  # Mass Spectrum
# PDG code           mass       particle
        24     8.00934486E+01   # W+
        25     1.24612922E+02   # h
        35     3.00008263E+03   # H
        36     2.99999739E+03   # A
        37     3.00136155E+03   # H+
         5     4.87878001E+00   # b-quark pole mass calculated from mb(mb)_Msbar
   1000001     5.06669856E+03   # ~d_L
   2000001     5.04886308E+03   # ~d_R
   1000002     5.06622272E+03   # ~u_L
   2000002     5.04857130E+03   # ~u_R
   1000003     5.06669856E+03   # ~s_L
   2000003     5.04886308E+03   # ~s_R
   1000004     5.06622272E+03   # ~c_L
   2000004     5.04857130E+03   # ~c_R
   1000005     5.01266242E+03   # ~b_1
   2000005     5.04728723E+03   # ~b_2
   1000006     4.90319050E+03   # ~t_1
   2000006     5.05778495E+03   # ~t_2
   1000011     5.01908427E+03   # ~e_L
   2000011     5.00593154E+03   # ~e_R
   1000012     5.01813494E+03   # ~nu_eL
   1000013     5.01908427E+03   # ~mu_L
   2000013     5.00593154E+03   # ~mu_R
   1000014     5.01813494E+03   # ~nu_muL
   1000015     5.00468710E+03   # ~tau_1
   2000015     5.01869990E+03   # ~tau_2
   1000016     5.01758643E+03   # ~nu_tauL
   1000021     1.50000079E+03   # ~g
   1000022     6.02873787E+01   # ~chi_10
   1000023     7.99841329E+02   # ~chi_20
   1000025    -8.02073680E+02   # ~chi_30
   1000035     3.07421765E+03   # ~chi_40
   1000024     8.00000288E+02   # ~chi_1+
   1000037     3.07438520E+03   # ~chi_2+
#
BLOCK NMIX  # Neutralino Mixing Matrix
  1  1     9.98451795E-01   # N_11
  1  2     2.07791969E-04   # N_12
  1  3    -5.56005352E-02   # N_13
  1  4     1.59678155E-03   # N_14
  2  1     3.82019922E-02   # N_21
  2  2     2.14557604E-02   # N_22
  2  3     7.06385016E-01   # N_23
  2  4     7.06470430E-01   # N_24
  3  1    -4.04285269E-02   # N_31
  3  2     1.56896096E-02   # N_32
  3  3    -7.05628929E-01   # N_33
  3  4     7.07253268E-01   # N_34
  4  1    -3.92954095E-04   # N_41
  4  2     9.99646659E-01   # N_42
  4  3    -4.07487165E-03   # N_43
  4  4    -2.62639999E-02   # N_44
#
BLOCK UMIX  # Chargino Mixing Matrix U
  1  1     5.77352832E-03   # U_11
  1  2     9.99983333E-01   # U_12
  2  1    -9.99983333E-01   # U_21
  2  2     5.77352832E-03   # U_22
#
BLOCK VMIX  # Chargino Mixing Matrix V
  1  1     3.71711458E-02   # V_11
  1  2    -9.99308914E-01   # V_12
  2  1    -9.99308914E-01   # V_21
  2  2    -3.71711458E-02   # V_22
#
BLOCK STOPMIX  # Stop Mixing Matrix
  1  1    -5.07352355E-01   # cos(theta_t)
  1  2     8.61738700E-01   # sin(theta_t)
  2  1    -8.61738700E-01   # -sin(theta_t)
  2  2    -5.07352355E-01   # cos(theta_t)
#
BLOCK SBOTMIX  # Sbottom Mixing Matrix
  1  1     9.97824939E-01   # cos(theta_b)
  1  2    -6.59195806E-02   # sin(theta_b)
  2  1     6.59195806E-02   # -sin(theta_b)
  2  2     9.97824939E-01   # cos(theta_b)
#
BLOCK STAUMIX  # Stau Mixing Matrix
  1  1    -9.13581604E-02   # cos(theta_tau)
  1  2     9.95818099E-01   # sin(theta_tau)
  2  1    -9.95818099E-01   # -sin(theta_tau)
  2  2    -9.13581604E-02   # cos(theta_tau)
#
BLOCK ALPHA  # Higgs mixing
          -1.05460440E-01   # Mixing angle in the neutral Higgs boson sector
#
BLOCK HMIX Q=  5.00074332E+03  # DRbar Higgs Parameters
         1    -7.78836903E+02   # mu(Q)MSSM           
         2     9.47118759E+00   # tan                 
         3     2.41835403E+02   # higgs               
         4     8.57476391E+06   # mA^2(Q)MSSM         
#
BLOCK GAUGE Q=  5.00074332E+03  # The gauge couplings
     1     3.70858300E-01   # gprime(Q) DRbar
     2     6.32830035E-01   # g(Q) DRbar
     3     1.00271009E+00   # g3(Q) DRbar
#
BLOCK AU Q=  5.00074332E+03  # The trilinear couplings
  1  1     5.00000001E+03   # A_u(Q) DRbar
  2  2     5.00000001E+03   # A_c(Q) DRbar
  3  3     5.00000001E+03   # A_t(Q) DRbar
#
BLOCK AD Q=  5.00074332E+03  # The trilinear couplings
  1  1     5.00000000E+03   # A_d(Q) DRbar
  2  2     5.00000000E+03   # A_s(Q) DRbar
  3  3     5.00000001E+03   # A_b(Q) DRbar
#
BLOCK AE Q=  5.00074332E+03  # The trilinear couplings
  1  1     0.00000000E+00   # A_e(Q) DRbar
  2  2     9.66951140E-08   # A_mu(Q) DRbar
  3  3     9.60296749E-08   # A_tau(Q) DRbar
#
BLOCK Yu Q=  5.00074332E+03  # The Yukawa couplings
  1  1     0.00000000E+00   # y_u(Q) DRbar
  2  2     0.00000000E+00   # y_c(Q) DRbar
  3  3     8.17886506E-01   # y_t(Q) DRbar
#
BLOCK Yd Q=  5.00074332E+03  # The Yukawa couplings
  1  1     0.00000000E+00   # y_d(Q) DRbar
  2  2     0.00000000E+00   # y_s(Q) DRbar
  3  3     1.29923740E-01   # y_b(Q) DRbar
#
BLOCK Ye Q=  5.00074332E+03  # The Yukawa couplings
  1  1     0.00000000E+00   # y_e(Q) DRbar
  2  2     0.00000000E+00   # y_mu(Q) DRbar
  3  3     9.69681299E-02   # y_tau(Q) DRbar
#
BLOCK MSOFT Q=  5.00074332E+03  # The soft SUSY breaking masses at the scale Q
         1     6.00000000E+01   # M_1(Q)              
         2     3.00000000E+03   # M_2(Q)              
         3     1.21156300E+03   # M_3(Q)              
        21     8.10232457E+06   # mH1^2(Q)            
        22    -3.90227455E+04   # mH2^2(Q)            
        31     5.00000000E+03   # meL(Q)              
        32     5.00000000E+03   # mmuL(Q)             
        33     5.00000000E+03   # mtauL(Q)            
        34     5.00000000E+03   # meR(Q)              
        35     5.00000000E+03   # mmuR(Q)             
        36     5.00000000E+03   # mtauR(Q)            
        41     5.00000000E+03   # mqL1(Q)             
        42     5.00000000E+03   # mqL2(Q)             
        43     5.00000000E+03   # mqL3(Q)             
        44     5.00000000E+03   # muR(Q)              
        45     5.00000000E+03   # mcR(Q)              
        46     5.00000000E+03   # mtR(Q)              
        47     5.00000000E+03   # mdR(Q)              
        48     5.00000000E+03   # msR(Q)              
        49     5.00000000E+03   # mbR(Q)              
#
#
#
#                             =================
#                             |The decay table|
#                             =================
#
# - The QCD corrections to the decays gluino -> squark  + quark
#                                     squark -> gaugino + quark_prime
#                                     squark -> squark_prime + Higgs
#                                     squark -> gluino  + quark
#   are included.
#
# - The multi-body decays for the inos, stops and sbottoms are included.
#
# - The loop induced decays for the gluino, neutralinos and stops
#   are included.
#
# - The SUSY decays of the top quark are included.
#
#
#         PDG            Width
DECAY         6     1.40346413E+00   # top decays
#          BR         NDA      ID1       ID2
     1.00000000E+00    2           5        24   # BR(t ->  b    W+)
#
#         PDG            Width
DECAY   1000021     1.20095055E-04   # gluino decays
#          BR         NDA      ID1       ID2
     5.72614111E-06    2     1000022        21   # BR(~g -> ~chi_10 g)
     1.99483509E-02    2     1000023        21   # BR(~g -> ~chi_20 g)
     1.94837663E-02    2     1000025        21   # BR(~g -> ~chi_30 g)
#           BR         NDA      ID1       ID2       ID3
     4.45467959E-02    3     1000022         1        -1   # BR(~g -> ~chi_10 d  db)
     1.70912382E-05    3     1000023         1        -1   # BR(~g -> ~chi_20 d  db)
     1.20712647E-05    3     1000025         1        -1   # BR(~g -> ~chi_30 d  db)
     1.51890838E-01    3     1000022         2        -2   # BR(~g -> ~chi_10 u  ub)
     7.05353106E-05    3     1000023         2        -2   # BR(~g -> ~chi_20 u  ub)
     1.60129272E-05    3     1000025         2        -2   # BR(~g -> ~chi_30 u  ub)
     4.45467959E-02    3     1000022         3        -3   # BR(~g -> ~chi_10 s  sb)
     1.70912382E-05    3     1000023         3        -3   # BR(~g -> ~chi_20 s  sb)
     1.20712647E-05    3     1000025         3        -3   # BR(~g -> ~chi_30 s  sb)
     1.51890838E-01    3     1000022         4        -4   # BR(~g -> ~chi_10 c  cb)
     7.05353106E-05    3     1000023         4        -4   # BR(~g -> ~chi_20 c  cb)
     1.60129272E-05    3     1000025         4        -4   # BR(~g -> ~chi_30 c  cb)
     4.52622832E-02    3     1000022         5        -5   # BR(~g -> ~chi_10 b  bb)
     3.63488634E-03    3     1000023         5        -5   # BR(~g -> ~chi_20 b  bb)
     3.56610937E-03    3     1000025         5        -5   # BR(~g -> ~chi_30 b  bb)
     1.33028938E-01    3     1000022         6        -6   # BR(~g -> ~chi_10 t  tb)
     9.23108968E-02    3     1000023         6        -6   # BR(~g -> ~chi_20 t  tb)
     6.35426531E-02    3     1000025         6        -6   # BR(~g -> ~chi_30 t  tb)
     4.47780825E-05    3     1000024         1        -2   # BR(~g -> ~chi_1+ d  ub)
     4.47780825E-05    3    -1000024         2        -1   # BR(~g -> ~chi_1- u  db)
     4.47780825E-05    3     1000024         3        -4   # BR(~g -> ~chi_1+ s  cb)
     4.47780825E-05    3    -1000024         4        -3   # BR(~g -> ~chi_1- c  sb)
     1.12965294E-01    3     1000024         5        -6   # BR(~g -> ~chi_1+ b  tb)
     1.12965294E-01    3    -1000024         6        -5   # BR(~g -> ~chi_1- t  bb)
#
#         PDG            Width
DECAY   1000006     3.85928229E+02   # stop1 decays
#          BR         NDA      ID1       ID2
     2.28529098E-02    2     1000022         6   # BR(~t_1 -> ~chi_10 t )
     8.13702573E-02    2     1000023         6   # BR(~t_1 -> ~chi_20 t )
     7.79363720E-02    2     1000025         6   # BR(~t_1 -> ~chi_30 t )
     5.38134649E-03    2     1000035         6   # BR(~t_1 -> ~chi_40 t )
     1.17891490E-01    2     1000024         5   # BR(~t_1 -> ~chi_1+ b )
     1.07247326E-02    2     1000037         5   # BR(~t_1 -> ~chi_2+ b )
     6.83842892E-01    2     1000021         6   # BR(~t_1 -> ~g      t )
#
#         PDG            Width
DECAY   2000006     3.89066512E+02   # stop2 decays
#          BR         NDA      ID1       ID2
     9.05284222E-03    2     1000022         6   # BR(~t_2 -> ~chi_10 t )
     8.20635097E-02    2     1000023         6   # BR(~t_2 -> ~chi_20 t )
     8.58298800E-02    2     1000025         6   # BR(~t_2 -> ~chi_30 t )
     1.42079583E-02    2     1000035         6   # BR(~t_2 -> ~chi_40 t )
     4.91062369E-02    2     1000024         5   # BR(~t_2 -> ~chi_1+ b )
     2.82795147E-02    2     1000037         5   # BR(~t_2 -> ~chi_2+ b )
     7.28194731E-01    2     1000021         6   # BR(~t_2 -> ~g      t )
     7.41708239E-04    2     1000006        25   # BR(~t_2 -> ~t_1    h )
     2.52361858E-03    2     1000006        23   # BR(~t_2 -> ~t_1    Z )
#
#         PDG            Width
DECAY   1000005     3.65534852E+02   # sbottom1 decays
#          BR         NDA      ID1       ID2
     2.11675357E-03    2     1000022         5   # BR(~b_1 -> ~chi_10 b )
     2.21113731E-03    2     1000023         5   # BR(~b_1 -> ~chi_20 b )
     2.17187583E-03    2     1000025         5   # BR(~b_1 -> ~chi_30 b )
     2.06014226E-02    2     1000035         5   # BR(~b_1 -> ~chi_40 b )
     1.73769577E-01    2    -1000024         6   # BR(~b_1 -> ~chi_1- t )
     4.13768776E-02    2    -1000037         6   # BR(~b_1 -> ~chi_2- t )
     7.56200246E-01    2     1000021         5   # BR(~b_1 -> ~g      b )
     1.55210970E-03    2     1000006       -24   # BR(~b_1 -> ~t_1    W-)
#
#         PDG            Width
DECAY   2000005     2.85399691E+02   # sbottom2 decays
#          BR         NDA      ID1       ID2
     1.03029327E-02    2     1000022         5   # BR(~b_2 -> ~chi_10 b )
     2.85873087E-03    2     1000023         5   # BR(~b_2 -> ~chi_20 b )
     2.92083167E-03    2     1000025         5   # BR(~b_2 -> ~chi_30 b )
     1.16132663E-04    2     1000035         5   # BR(~b_2 -> ~chi_40 b )
     6.61863069E-03    2    -1000024         6   # BR(~b_2 -> ~chi_1- t )
     2.33230194E-04    2    -1000037         6   # BR(~b_2 -> ~chi_2- t )
     9.76914001E-01    2     1000021         5   # BR(~b_2 -> ~g      b )
     3.55101147E-05    2     1000006       -24   # BR(~b_2 -> ~t_1    W-)
#
#         PDG            Width
DECAY   1000002     3.04469186E+02   # sup_L decays
#          BR         NDA      ID1       ID2
     2.45182532E-03    2     1000022         2   # BR(~u_L -> ~chi_10 u)
     5.11883750E-05    2     1000023         2   # BR(~u_L -> ~chi_20 u)
     3.71549670E-06    2     1000025         2   # BR(~u_L -> ~chi_30 u)
     2.57336542E-02    2     1000035         2   # BR(~u_L -> ~chi_40 u)
     1.69145100E-04    2     1000024         1   # BR(~u_L -> ~chi_1+ d)
     5.14339394E-02    2     1000037         1   # BR(~u_L -> ~chi_2+ d)
     9.20156532E-01    2     1000021         2   # BR(~u_L -> ~g      u)
#
#         PDG            Width
DECAY   2000002     2.90719443E+02   # sup_R decays
#          BR         NDA      ID1       ID2
     4.08533902E-02    2     1000022         2   # BR(~u_R -> ~chi_10 u)
     5.68996312E-05    2     1000023         2   # BR(~u_R -> ~chi_20 u)
     6.37072216E-05    2     1000025         2   # BR(~u_R -> ~chi_30 u)
     2.51362992E-09    2     1000035         2   # BR(~u_R -> ~chi_40 u)
     9.59026000E-01    2     1000021         2   # BR(~u_R -> ~g      u)
#
#         PDG            Width
DECAY   1000001     3.04480429E+02   # sdown_L decays
#          BR         NDA      ID1       ID2
     2.44153976E-03    2     1000022         1   # BR(~d_L -> ~chi_10 d)
     1.19864844E-05    2     1000023         1   # BR(~d_L -> ~chi_20 d)
     3.40470746E-05    2     1000025         1   # BR(~d_L -> ~chi_30 d)
     2.57486266E-02    2     1000035         1   # BR(~d_L -> ~chi_40 d)
     4.08093066E-06    2    -1000024         2   # BR(~d_L -> ~chi_1- u)
     5.15175283E-02    2    -1000037         2   # BR(~d_L -> ~chi_2- u)
     9.20242191E-01    2     1000021         1   # BR(~d_L -> ~g      d)
#
#         PDG            Width
DECAY   2000001     2.81808016E+02   # sdown_R decays
#          BR         NDA      ID1       ID2
     1.05369304E-02    2     1000022         1   # BR(~d_R -> ~chi_10 d)
     1.46756715E-05    2     1000023         1   # BR(~d_R -> ~chi_20 d)
     1.64314999E-05    2     1000025         1   # BR(~d_R -> ~chi_30 d)
     6.48404398E-10    2     1000035         1   # BR(~d_R -> ~chi_40 d)
     9.89431962E-01    2     1000021         1   # BR(~d_R -> ~g      d)
#
#         PDG            Width
DECAY   1000004     3.04469186E+02   # scharm_L decays
#          BR         NDA      ID1       ID2
     2.45182532E-03    2     1000022         4   # BR(~c_L -> ~chi_10 c)
     5.11883750E-05    2     1000023         4   # BR(~c_L -> ~chi_20 c)
     3.71549670E-06    2     1000025         4   # BR(~c_L -> ~chi_30 c)
     2.57336542E-02    2     1000035         4   # BR(~c_L -> ~chi_40 c)
     1.69145100E-04    2     1000024         3   # BR(~c_L -> ~chi_1+ s)
     5.14339394E-02    2     1000037         3   # BR(~c_L -> ~chi_2+ s)
     9.20156532E-01    2     1000021         4   # BR(~c_L -> ~g      c)
#
#         PDG            Width
DECAY   2000004     2.90719443E+02   # scharm_R decays
#          BR         NDA      ID1       ID2
     4.08533902E-02    2     1000022         4   # BR(~c_R -> ~chi_10 c)
     5.68996312E-05    2     1000023         4   # BR(~c_R -> ~chi_20 c)
     6.37072216E-05    2     1000025         4   # BR(~c_R -> ~chi_30 c)
     2.51362992E-09    2     1000035         4   # BR(~c_R -> ~chi_40 c)
     9.59026000E-01    2     1000021         4   # BR(~c_R -> ~g      c)
#
#         PDG            Width
DECAY   1000003     3.04480429E+02   # sstrange_L decays
#          BR         NDA      ID1       ID2
     2.44153976E-03    2     1000022         3   # BR(~s_L -> ~chi_10 s)
     1.19864844E-05    2     1000023         3   # BR(~s_L -> ~chi_20 s)
     3.40470746E-05    2     1000025         3   # BR(~s_L -> ~chi_30 s)
     2.57486266E-02    2     1000035         3   # BR(~s_L -> ~chi_40 s)
     4.08093066E-06    2    -1000024         4   # BR(~s_L -> ~chi_1- c)
     5.15175283E-02    2    -1000037         4   # BR(~s_L -> ~chi_2- c)
     9.20242191E-01    2     1000021         3   # BR(~s_L -> ~g      s)
#
#         PDG            Width
DECAY   2000003     2.81808016E+02   # sstrange_R decays
#          BR         NDA      ID1       ID2
     1.05369304E-02    2     1000022         3   # BR(~s_R -> ~chi_10 s)
     1.46756715E-05    2     1000023         3   # BR(~s_R -> ~chi_20 s)
     1.64314999E-05    2     1000025         3   # BR(~s_R -> ~chi_30 s)
     6.48404398E-10    2     1000035         3   # BR(~s_R -> ~chi_40 s)
     9.89431962E-01    2     1000021         3   # BR(~s_R -> ~g      s)
#
#         PDG            Width
DECAY   1000011     3.02937237E+01   # selectron_L decays
#          BR         NDA      ID1       ID2
     2.26060801E-01    2     1000022        11   # BR(~e_L -> ~chi_10 e-)
     1.20506345E-03    2     1000023        11   # BR(~e_L -> ~chi_20 e-)
     4.01382036E-05    2     1000025        11   # BR(~e_L -> ~chi_30 e-)
     2.57378488E-01    2     1000035        11   # BR(~e_L -> ~chi_40 e-)
     4.17932809E-05    2    -1000024        12   # BR(~e_L -> ~chi_1- nu_e)
     5.15273717E-01    2    -1000037        12   # BR(~e_L -> ~chi_2- nu_e)
#
#         PDG            Width
DECAY   2000011     2.73821448E+01   # selectron_R decays
#          BR         NDA      ID1       ID2
     9.97061178E-01    2     1000022        11   # BR(~e_R -> ~chi_10 e-)
     1.38644689E-03    2     1000023        11   # BR(~e_R -> ~chi_20 e-)
     1.55231496E-03    2     1000025        11   # BR(~e_R -> ~chi_30 e-)
     5.99324413E-08    2     1000035        11   # BR(~e_R -> ~chi_40 e-)
#
#         PDG            Width
DECAY   1000013     3.02937237E+01   # smuon_L decays
#          BR         NDA      ID1       ID2
     2.26060801E-01    2     1000022        13   # BR(~mu_L -> ~chi_10 mu-)
     1.20506345E-03    2     1000023        13   # BR(~mu_L -> ~chi_20 mu-)
     4.01382036E-05    2     1000025        13   # BR(~mu_L -> ~chi_30 mu-)
     2.57378488E-01    2     1000035        13   # BR(~mu_L -> ~chi_40 mu-)
     4.17932809E-05    2    -1000024        14   # BR(~mu_L -> ~chi_1- nu_mu)
     5.15273717E-01    2    -1000037        14   # BR(~mu_L -> ~chi_2- nu_mu)
#
#         PDG            Width
DECAY   2000013     2.73821448E+01   # smuon_R decays
#          BR         NDA      ID1       ID2
     9.97061178E-01    2     1000022        13   # BR(~mu_R -> ~chi_10 mu-)
     1.38644689E-03    2     1000023        13   # BR(~mu_R -> ~chi_20 mu-)
     1.55231496E-03    2     1000025        13   # BR(~mu_R -> ~chi_30 mu-)
     5.99324413E-08    2     1000035        13   # BR(~mu_R -> ~chi_40 mu-)
#
#         PDG            Width
DECAY   1000015     2.91747991E+01   # stau_1 decays
#          BR         NDA      ID1       ID2
     9.30683065E-01    2     1000022        15   # BR(~tau_1 -> ~chi_10  tau-)
     1.64871859E-02    2     1000023        15   # BR(~tau_1 -> ~chi_20  tau-)
     1.59020417E-02    2     1000025        15   # BR(~tau_1 -> ~chi_30  tau-)
     2.16649809E-03    2     1000035        15   # BR(~tau_1 -> ~chi_40  tau-)
     3.04240769E-02    2    -1000024        16   # BR(~tau_1 -> ~chi_1-  nu_tau)
     4.33713226E-03    2    -1000037        16   # BR(~tau_1 -> ~chi_2-  nu_tau)
#
#         PDG            Width
DECAY   2000015     3.11559569E+01   # stau_2 decays
#          BR         NDA      ID1       ID2
     2.24556907E-01    2     1000022        15   # BR(~tau_2 -> ~chi_10  tau-)
     1.54700277E-02    2     1000023        15   # BR(~tau_2 -> ~chi_20  tau-)
     1.49646971E-02    2     1000025        15   # BR(~tau_2 -> ~chi_30  tau-)
     2.48142200E-01    2     1000035        15   # BR(~tau_2 -> ~chi_40  tau-)
     8.29498044E-05    2    -1000024        16   # BR(~tau_2 -> ~chi_1-  nu_tau)
     4.96783219E-01    2    -1000037        16   # BR(~tau_2 -> ~chi_2-  nu_tau)
#
#         PDG            Width
DECAY   1000012     3.02967331E+01   # snu_eL decays
#          BR         NDA      ID1       ID2
     2.25674769E-01    2     1000022        12   # BR(~nu_eL -> ~chi_10 nu_e)
     5.44154417E-07    2     1000023        12   # BR(~nu_eL -> ~chi_20 nu_e)
     9.71712794E-04    2     1000025        12   # BR(~nu_eL -> ~chi_30 nu_e)
     2.57424439E-01    2     1000035        12   # BR(~nu_eL -> ~chi_40 nu_e)
     1.73181661E-03    2     1000024        11   # BR(~nu_eL -> ~chi_1+ e-)
     5.14196719E-01    2     1000037        11   # BR(~nu_eL -> ~chi_2+ e-)
#
#         PDG            Width
DECAY   1000014     3.02967331E+01   # snu_muL decays
#          BR         NDA      ID1       ID2
     2.25674769E-01    2     1000022        14   # BR(~nu_muL -> ~chi_10 nu_mu)
     5.44154417E-07    2     1000023        14   # BR(~nu_muL -> ~chi_20 nu_mu)
     9.71712794E-04    2     1000025        14   # BR(~nu_muL -> ~chi_30 nu_mu)
     2.57424439E-01    2     1000035        14   # BR(~nu_muL -> ~chi_40 nu_mu)
     1.73181661E-03    2     1000024        13   # BR(~nu_muL -> ~chi_1+ mu-)
     5.14196719E-01    2     1000037        13   # BR(~nu_muL -> ~chi_2+ mu-)
#
#         PDG            Width
DECAY   1000016     3.11787735E+01   # snu_tauL decays
#          BR         NDA      ID1       ID2
     2.19266497E-01    2     1000022        16   # BR(~nu_tauL -> ~chi_10 nu_tau)
     5.28696588E-07    2     1000023        16   # BR(~nu_tauL -> ~chi_20 nu_tau)
     9.44109226E-04    2     1000025        16   # BR(~nu_tauL -> ~chi_30 nu_tau)
     2.50048912E-01    2     1000035        16   # BR(~nu_tauL -> ~chi_40 nu_tau)
     3.02761683E-02    2     1000024        15   # BR(~nu_tauL -> ~chi_1+ tau-)
     4.99463784E-01    2     1000037        15   # BR(~nu_tauL -> ~chi_2+ tau-)
#
#         PDG            Width
DECAY   1000024     4.83460284E-01   # chargino1+ decays
#          BR         NDA      ID1       ID2
     1.00000000E+00    2     1000022        24   # BR(~chi_1+ -> ~chi_10  W+)
#
#         PDG            Width
DECAY   1000037     2.11205282E+01   # chargino2+ decays
#          BR         NDA      ID1       ID2
     2.53365974E-01    2     1000024        23   # BR(~chi_2+ -> ~chi_1+  Z )
     1.84733467E-04    2     1000022        24   # BR(~chi_2+ -> ~chi_10  W+)
     2.44422160E-01    2     1000023        24   # BR(~chi_2+ -> ~chi_20  W+)
     2.44238739E-01    2     1000025        24   # BR(~chi_2+ -> ~chi_30  W+)
     2.57786470E-01    2     1000024        25   # BR(~chi_2+ -> ~chi_1+  h )
     1.92384496E-06    2     1000022        37   # BR(~chi_2+ -> ~chi_10  H+)
#
#         PDG            Width
DECAY   1000022     0.00000000E+00   # neutralino1 decays
#
#         PDG            Width
DECAY   1000023     5.01822045E-01   # neutralino2 decays
#          BR         NDA      ID1       ID2
     5.29398933E-01    2     1000022        23   # BR(~chi_20 -> ~chi_10   Z )
     4.70601067E-01    2     1000022        25   # BR(~chi_20 -> ~chi_10   h )
#
#         PDG            Width
DECAY   1000025     5.01620191E-01   # neutralino3 decays
#          BR         NDA      ID1       ID2
     4.69526418E-01    2     1000022        23   # BR(~chi_30 -> ~chi_10   Z )
     5.30473582E-01    2     1000022        25   # BR(~chi_30 -> ~chi_10   h )
#
#         PDG            Width
DECAY   1000035     2.11362827E+01   # neutralino4 decays
#          BR         NDA      ID1       ID2
     3.18569899E-05    2     1000022        23   # BR(~chi_40 -> ~chi_10   Z )
     8.82293973E-02    2     1000023        23   # BR(~chi_40 -> ~chi_20   Z )
     1.64476537E-01    2     1000025        23   # BR(~chi_40 -> ~chi_30   Z )
     2.44959377E-01    2     1000024       -24   # BR(~chi_40 -> ~chi_1+   W-)
     2.44959377E-01    2    -1000024        24   # BR(~chi_40 -> ~chi_1-   W+)
     1.51458389E-04    2     1000022        25   # BR(~chi_40 -> ~chi_10   h )
     1.83235449E-06    2     1000022        35   # BR(~chi_40 -> ~chi_10   H )
     2.13794805E-07    2     1000022        36   # BR(~chi_40 -> ~chi_10   A )
     1.68713885E-01    2     1000023        25   # BR(~chi_40 -> ~chi_20   h )
     8.84760642E-02    2     1000025        25   # BR(~chi_40 -> ~chi_30   h )
#
#         PDG            Width
DECAY        25     4.05005068E-03   # h decays
#          BR         NDA      ID1       ID2
     6.11919048E-01    2           5        -5   # BR(h -> b       bb     )
     6.39607383E-02    2         -15        15   # BR(h -> tau+    tau-   )
     2.26444978E-04    2         -13        13   # BR(h -> mu+     mu-    )
     4.80170201E-04    2           3        -3   # BR(h -> s       sb     )
     2.08061410E-02    2           4        -4   # BR(h -> c       cb     )
     6.71181038E-02    2          21        21   # BR(h -> g       g      )
     2.30375148E-03    2          22        22   # BR(h -> gam     gam    )
     1.47200904E-03    2          22        23   # BR(h -> Z       gam    )
     2.07046078E-01    2          24       -24   # BR(h -> W+      W-     )
     2.45994087E-02    2          23        23   # BR(h -> Z       Z      )
     6.81055903E-05    2     1000022   1000022   # BR(h -> ~chi_10 ~chi_10)
#
#         PDG            Width
DECAY        35     8.36745187E+00   # H decays
#          BR         NDA      ID1       ID2
     3.84104207E-01    2           5        -5   # BR(H -> b       bb     )
     6.65996980E-02    2         -15        15   # BR(H -> tau+    tau-   )
     2.35501822E-04    2         -13        13   # BR(H -> mu+     mu-    )
     2.88689151E-04    2           3        -3   # BR(H -> s       sb     )
     1.61396094E-06    2           4        -4   # BR(H -> c       cb     )
     1.61247482E-01    2           6        -6   # BR(H -> t       tb     )
     5.35896555E-05    2          21        21   # BR(H -> g       g      )
     2.09500951E-07    2          22        22   # BR(H -> gam     gam    )
     9.51509757E-08    2          23        22   # BR(H -> Z       gam    )
     7.50151587E-05    2          24       -24   # BR(H -> W+      W-     )
     3.74600973E-05    2          23        23   # BR(H -> Z       Z      )
     2.76927189E-04    2          25        25   # BR(H -> h       h      )
    -1.77176353E-23    2          36        36   # BR(H -> A       A      )
     1.13522206E-18    2          23        36   # BR(H -> Z       A      )
     2.57821133E-03    2     1000024  -1000024   # BR(H -> ~chi_1+ ~chi_1-)
     2.69884843E-03    2     1000022   1000022   # BR(H -> ~chi_10 ~chi_10)
     4.86101379E-07    2     1000023   1000023   # BR(H -> ~chi_20 ~chi_20)
     1.01783921E-03    2     1000025   1000025   # BR(H -> ~chi_30 ~chi_30)
     2.28961021E-01    2     1000022   1000023   # BR(H -> ~chi_10 ~chi_20)
     1.50760322E-01    2     1000022   1000025   # BR(H -> ~chi_10 ~chi_30)
     1.06278315E-03    2     1000023   1000025   # BR(H -> ~chi_20 ~chi_30)
#
#         PDG            Width
DECAY        36     8.37939689E+00   # A decays
#          BR         NDA      ID1       ID2
     3.83686936E-01    2           5        -5   # BR(A -> b       bb     )
     6.65067140E-02    2         -15        15   # BR(A -> tau+    tau-   )
     2.35172695E-04    2         -13        13   # BR(A -> mu+     mu-    )
     2.88496355E-04    2           3        -3   # BR(A -> s       sb     )
     1.61821853E-06    2           4        -4   # BR(A -> c       cb     )
     1.61583645E-01    2           6        -6   # BR(A -> t       tb     )
     1.59921022E-04    2          21        21   # BR(A -> g       g      )
     5.96053116E-07    2          22        22   # BR(A -> gam     gam    )
     1.93592087E-07    2          23        22   # BR(A -> Z       gam    )
     7.46258380E-05    2          23        25   # BR(A -> Z       h      )
     3.36934510E-03    2     1000024  -1000024   # BR(A -> ~chi_1+ ~chi_1-)
     2.73242001E-03    2     1000022   1000022   # BR(A -> ~chi_10 ~chi_10)
     4.43665423E-07    2     1000023   1000023   # BR(A -> ~chi_20 ~chi_20)
     2.17823123E-03    2     1000025   1000025   # BR(A -> ~chi_30 ~chi_30)
     1.53057746E-01    2     1000022   1000023   # BR(A -> ~chi_10 ~chi_20)
     2.25635174E-01    2     1000022   1000025   # BR(A -> ~chi_10 ~chi_30)
     4.88721534E-04    2     1000023   1000025   # BR(A -> ~chi_20 ~chi_30)
#
#         PDG            Width
DECAY        37     8.32522390E+00   # H+ decays
#          BR         NDA      ID1       ID2
     6.15795095E-04    2           4        -5   # BR(H+ -> c       bb     )
     6.69699181E-02    2         -15        16   # BR(H+ -> tau+    nu_tau )
     2.36810619E-04    2         -13        14   # BR(H+ -> mu+     nu_mu  )
     3.94106807E-06    2           2        -5   # BR(H+ -> u       bb     )
     1.38952609E-05    2           2        -3   # BR(H+ -> u       sb     )
     2.87353962E-04    2           4        -3   # BR(H+ -> c       sb     )
     5.44137048E-01    2           6        -5   # BR(H+ -> t       bb     )
     7.52623917E-05    2          24        25   # BR(H+ -> W+      h      )
     7.45679739E-13    2          24        36   # BR(H+ -> W+      A      )
     3.86193346E-01    2     1000024   1000022   # BR(H+ -> ~chi_1+ ~chi_10)
     1.44244331E-03    2     1000024   1000023   # BR(H+ -> ~chi_1+ ~chi_20)
     2.41854350E-05    2     1000024   1000025   # BR(H+ -> ~chi_1+ ~chi_30)
