#
#                              ======================
#                              | THE SUSYHIT OUTPUT |
#                              ======================
#
#
#              ------------------------------------------------------
#              |     This is the output of the SUSY-HIT package     |
#              |  created by A.Djouadi, M.Muehlleitner and M.Spira. |
#              |  In case of problems with SUSY-HIT email to        |
#              |           margarete.muehlleitner@cern.ch           |
#              |           michael.spira@psi.ch                     |
#              |           abdelhak.djouadi@cern.ch                 |
#              ------------------------------------------------------
#
#              ------------------------------------------------------
#              |  SUSY Les Houches Accord - MSSM Spectrum + Decays  |
#              |              based on the decay programs           |
#              |                                                    |
#              |                     SDECAY 1.3b                    |
#              |                                                    |
#              |  Authors: M.Muhlleitner, A.Djouadi and Y.Mambrini  |
#              |  Ref.:    Comput.Phys.Commun.168(2005)46           |
#              |           [hep-ph/0311167]                         |
#              |                                                    |
#              |                     HDECAY 3.4                     |
#              |                                                    |
#              |  By: A.Djouadi,J.Kalinowski,M.Muhlleitner,M.Spira  |
#              |  Ref.:    Comput.Phys.Commun.108(1998)56           |
#              |           [hep-ph/9704448]                         |
#              |                                                    |
#              |                                                    |
#              |  If not stated otherwise all DRbar couplings and   |
#              |  soft SUSY breaking masses are given at the scale  |
#              |  Q=  0.50007659E+04
#              |                                                    |
#              ------------------------------------------------------
#
#
BLOCK DCINFO  # Decay Program information
     1   SDECAY/HDECAY # decay calculator
     2   1.3b  /3.4    # version number
#
BLOCK SPINFO  # Spectrum calculator information
     1    SOFTSUSY    # spectrum calculator                
     2    3.4.0       # version number                     
#
BLOCK MODSEL  # Model selection
     1     0   #  nonUniversal                                     
#
BLOCK SMINPUTS  # Standard Model inputs
         1     1.25778332E+02   # alpha_em^-1(M_Z)^MSbar
         2     1.16570000E-05   # G_F [GeV^-2]
         3     1.17200002E-01   # alpha_S(M_Z)^MSbar
         4     9.11876000E+01   # M_Z pole mass
         5     4.25000000E+00   # mb(mb)^MSbar
         6     1.72500000E+02   # mt pole mass
         7     1.77682000E+00   # mtau pole mass
#
BLOCK MINPAR  # Input parameters - minimal models
         3     1.00000000E+01   # tanb                
#
BLOCK EXTPAR  # Input parameters - non-minimal models
         0    -1.00000000E+00   # Set                 
         1     6.00000000E+01   # M_1(MX)             
         2     3.00000000E+03   # M_2(MX)             
         3     1.94902600E+03   # M_3(MX)             
        11     5.00000000E+03   # At(MX)              
        12     5.00000000E+03   # Ab(MX)              
        13     0.00000000E+00   # Atau(MX)            
        23    -3.78680000E+02   # mu(MX)              
        26     3.00000000E+03   # mA(pole)            
        31     5.00000000E+03   # meL(MX)             
        32     5.00000000E+03   # mmuL(MX)            
        33     5.00000000E+03   # mtauL(MX)           
        34     5.00000000E+03   # meR(MX)             
        35     5.00000000E+03   # mmuR(MX)            
        36     5.00000000E+03   # mtauR(MX)           
        41     5.00000000E+03   # mqL1(MX)            
        42     5.00000000E+03   # mqL2(MX)            
        43     5.00000000E+03   # mqL3(MX)            
        44     5.00000000E+03   # muR(MX)             
        45     5.00000000E+03   # mcR(MX)             
        46     5.00000000E+03   # mtR(MX)             
        47     5.00000000E+03   # mdR(MX)             
        48     5.00000000E+03   # msR(MX)             
        49     5.00000000E+03   # mbR(MX)             
#
BLOCK MASS  # Mass Spectrum
# PDG code           mass       particle
        24     8.00925646E+01   # W+
        25     1.24787587E+02   # h
        35     3.00008734E+03   # H
        36     2.99999960E+03   # A
        37     3.00145188E+03   # H+
         5     4.87878001E+00   # b-quark pole mass calculated from mb(mb)_Msbar
   1000001     5.07642413E+03   # ~d_L
   2000001     5.05858454E+03   # ~d_R
   1000002     5.07595086E+03   # ~u_L
   2000002     5.05828158E+03   # ~u_R
   1000003     5.07642413E+03   # ~s_L
   2000003     5.05858454E+03   # ~s_R
   1000004     5.07595086E+03   # ~c_L
   2000004     5.05828158E+03   # ~c_R
   1000005     5.02229096E+03   # ~b_1
   2000005     5.05675792E+03   # ~b_2
   1000006     4.91381068E+03   # ~t_1
   2000006     5.06559832E+03   # ~t_2
   1000011     5.01912091E+03   # ~e_L
   2000011     5.00594858E+03   # ~e_R
   1000012     5.01817018E+03   # ~nu_eL
   1000013     5.01912091E+03   # ~mu_L
   2000013     5.00594858E+03   # ~mu_R
   1000014     5.01817018E+03   # ~nu_muL
   1000015     5.00479693E+03   # ~tau_1
   2000015     5.01862199E+03   # ~tau_2
   1000016     5.01761747E+03   # ~nu_tauL
   1000021     2.30000100E+03   # ~g
   1000022     6.00913539E+01   # ~chi_10
   1000023     4.01022412E+02   # ~chi_20
   1000025    -4.03142248E+02   # ~chi_30
   1000035     3.07418999E+03   # ~chi_40
   1000024     4.00000923E+02   # ~chi_1+
   1000037     3.07435778E+03   # ~chi_2+
#
BLOCK NMIX  # Neutralino Mixing Matrix
  1  1     9.93745867E-01   # N_11
  1  2     1.92577949E-04   # N_12
  1  3    -1.11538757E-01   # N_13
  1  4    -5.31237903E-03   # N_14
  2  1     8.26701077E-02   # N_21
  2  2     1.83217954E-02   # N_22
  2  3     7.02939996E-01   # N_23
  2  4     7.06190716E-01   # N_24
  3  1    -7.50643214E-02   # N_31
  3  2     1.75061690E-02   # N_32
  3  3    -7.02448684E-01   # N_33
  3  4     7.07548393E-01   # N_34
  4  1    -3.92075557E-04   # N_41
  4  2     9.99678853E-01   # N_42
  4  3    -5.60637560E-04   # N_43
  4  4    -2.53322559E-02   # N_44
#
BLOCK UMIX  # Chargino Mixing Matrix U
  1  1     7.96434603E-04   # U_11
  1  2     9.99999683E-01   # U_12
  2  1    -9.99999683E-01   # U_21
  2  2     7.96434603E-04   # U_22
#
BLOCK VMIX  # Chargino Mixing Matrix V
  1  1     3.58404555E-02   # V_11
  1  2    -9.99357524E-01   # V_12
  2  1    -9.99357524E-01   # V_21
  2  2    -3.58404555E-02   # V_22
#
BLOCK STOPMIX  # Stop Mixing Matrix
  1  1    -5.02160709E-01   # cos(theta_t)
  1  2     8.64774319E-01   # sin(theta_t)
  2  1    -8.64774319E-01   # -sin(theta_t)
  2  2    -5.02160709E-01   # cos(theta_t)
#
BLOCK SBOTMIX  # Sbottom Mixing Matrix
  1  1     9.99008482E-01   # cos(theta_b)
  1  2    -4.45202526E-02   # sin(theta_b)
  2  1     4.45202526E-02   # -sin(theta_b)
  2  2     9.99008482E-01   # cos(theta_b)
#
BLOCK STAUMIX  # Stau Mixing Matrix
  1  1    -4.53435694E-02   # cos(theta_tau)
  1  2     9.98971451E-01   # sin(theta_tau)
  2  1    -9.98971451E-01   # -sin(theta_tau)
  2  2    -4.53435694E-02   # cos(theta_tau)
#
BLOCK ALPHA  # Higgs mixing
          -1.05492977E-01   # Mixing angle in the neutral Higgs boson sector
#
BLOCK HMIX Q=  5.00076591E+03  # DRbar Higgs Parameters
         1    -3.85613807E+02   # mu(Q)MSSM           
         2     9.46868009E+00   # tan                 
         3     2.41722824E+02   # higgs               
         4     8.71445948E+06   # mA^2(Q)MSSM         
#
BLOCK GAUGE Q=  5.00076591E+03  # The gauge couplings
     1     3.71000312E-01   # gprime(Q) DRbar
     2     6.33561916E-01   # g(Q) DRbar
     3     9.96450983E-01   # g3(Q) DRbar
#
BLOCK AU Q=  5.00076591E+03  # The trilinear couplings
  1  1     5.00000001E+03   # A_u(Q) DRbar
  2  2     5.00000001E+03   # A_c(Q) DRbar
  3  3     5.00000002E+03   # A_t(Q) DRbar
#
BLOCK AD Q=  5.00076591E+03  # The trilinear couplings
  1  1     5.00000001E+03   # A_d(Q) DRbar
  2  2     5.00000001E+03   # A_s(Q) DRbar
  3  3     5.00000001E+03   # A_b(Q) DRbar
#
BLOCK AE Q=  5.00076591E+03  # The trilinear couplings
  1  1     0.00000000E+00   # A_e(Q) DRbar
  2  2     2.16839443E-07   # A_mu(Q) DRbar
  3  3     2.16646327E-07   # A_tau(Q) DRbar
#
BLOCK Yu Q=  5.00076591E+03  # The Yukawa couplings
  1  1     0.00000000E+00   # y_u(Q) DRbar
  2  2     0.00000000E+00   # y_c(Q) DRbar
  3  3     8.21067554E-01   # y_t(Q) DRbar
#
BLOCK Yd Q=  5.00076591E+03  # The Yukawa couplings
  1  1     0.00000000E+00   # y_d(Q) DRbar
  2  2     0.00000000E+00   # y_s(Q) DRbar
  3  3     1.30108042E-01   # y_b(Q) DRbar
#
BLOCK Ye Q=  5.00076591E+03  # The Yukawa couplings
  1  1     0.00000000E+00   # y_e(Q) DRbar
  2  2     0.00000000E+00   # y_mu(Q) DRbar
  3  3     9.72034720E-02   # y_tau(Q) DRbar
#
BLOCK MSOFT Q=  5.00076591E+03  # The soft SUSY breaking masses at the scale Q
         1     6.00000000E+01   # M_1(Q)              
         2     3.00000000E+03   # M_2(Q)              
         3     1.94902600E+03   # M_3(Q)              
        21     8.57924723E+06   # mH1^2(Q)            
        22     4.29808528E+05   # mH2^2(Q)            
        31     5.00000000E+03   # meL(Q)              
        32     5.00000000E+03   # mmuL(Q)             
        33     5.00000000E+03   # mtauL(Q)            
        34     5.00000000E+03   # meR(Q)              
        35     5.00000000E+03   # mmuR(Q)             
        36     5.00000000E+03   # mtauR(Q)            
        41     5.00000000E+03   # mqL1(Q)             
        42     5.00000000E+03   # mqL2(Q)             
        43     4.99999999E+03   # mqL3(Q)             
        44     5.00000000E+03   # muR(Q)              
        45     5.00000000E+03   # mcR(Q)              
        46     4.99999999E+03   # mtR(Q)              
        47     5.00000000E+03   # mdR(Q)              
        48     5.00000000E+03   # msR(Q)              
        49     5.00000000E+03   # mbR(Q)              
#
#
#
#                             =================
#                             |The decay table|
#                             =================
#
# - The QCD corrections to the decays gluino -> squark  + quark
#                                     squark -> gaugino + quark_prime
#                                     squark -> squark_prime + Higgs
#                                     squark -> gluino  + quark
#   are included.
#
# - The multi-body decays for the inos, stops and sbottoms are included.
#
# - The loop induced decays for the gluino, neutralinos and stops
#   are included.
#
# - The SUSY decays of the top quark are included.
#
#
#         PDG            Width
DECAY         6     1.40675105E+00   # top decays
#          BR         NDA      ID1       ID2
     1.00000000E+00    2           5        24   # BR(t ->  b    W+)
#
#         PDG            Width
DECAY   1000021     4.74354438E-03   # gluino decays
#          BR         NDA      ID1       ID2
     2.87848821E-08    2     1000022        21   # BR(~g -> ~chi_10 g)
     4.91536760E-03    2     1000023        21   # BR(~g -> ~chi_20 g)
     4.77210439E-03    2     1000025        21   # BR(~g -> ~chi_30 g)
#           BR         NDA      ID1       ID2       ID3
     1.01354002E-02    3     1000022         1        -1   # BR(~g -> ~chi_10 d  db)
     5.48455692E-05    3     1000023         1        -1   # BR(~g -> ~chi_20 d  db)
     5.83566751E-05    3     1000025         1        -1   # BR(~g -> ~chi_30 d  db)
     3.45619200E-02    3     1000022         2        -2   # BR(~g -> ~chi_10 u  ub)
     2.79767207E-04    3     1000023         2        -2   # BR(~g -> ~chi_20 u  ub)
     1.07082828E-04    3     1000025         2        -2   # BR(~g -> ~chi_30 u  ub)
     1.01354002E-02    3     1000022         3        -3   # BR(~g -> ~chi_10 s  sb)
     5.48455692E-05    3     1000023         3        -3   # BR(~g -> ~chi_20 s  sb)
     5.83566751E-05    3     1000025         3        -3   # BR(~g -> ~chi_30 s  sb)
     3.45619200E-02    3     1000022         4        -4   # BR(~g -> ~chi_10 c  cb)
     2.79767207E-04    3     1000023         4        -4   # BR(~g -> ~chi_20 c  cb)
     1.07082828E-04    3     1000025         4        -4   # BR(~g -> ~chi_30 c  cb)
     1.04388467E-02    3     1000022         5        -5   # BR(~g -> ~chi_10 b  bb)
     5.35565139E-03    3     1000023         5        -5   # BR(~g -> ~chi_20 b  bb)
     5.33627363E-03    3     1000025         5        -5   # BR(~g -> ~chi_30 b  bb)
     3.42965401E-02    3     1000022         6        -6   # BR(~g -> ~chi_10 t  tb)
     2.10080265E-01    3     1000023         6        -6   # BR(~g -> ~chi_20 t  tb)
     1.98553395E-01    3     1000025         6        -6   # BR(~g -> ~chi_30 t  tb)
     5.35805743E-05    3     1000024         1        -2   # BR(~g -> ~chi_1+ d  ub)
     5.35805743E-05    3    -1000024         2        -1   # BR(~g -> ~chi_1- u  db)
     5.35805743E-05    3     1000024         3        -4   # BR(~g -> ~chi_1+ s  cb)
     5.35805743E-05    3    -1000024         4        -3   # BR(~g -> ~chi_1- c  sb)
     2.17821230E-01    3     1000024         5        -6   # BR(~g -> ~chi_1+ b  tb)
     2.17821230E-01    3    -1000024         6        -5   # BR(~g -> ~chi_1- t  bb)
#
#         PDG            Width
DECAY   1000006     3.21955825E+02   # stop1 decays
#          BR         NDA      ID1       ID2
     2.70302022E-02    2     1000022         6   # BR(~t_1 -> ~chi_10 t )
     1.03405048E-01    2     1000023         6   # BR(~t_1 -> ~chi_20 t )
     9.68432729E-02    2     1000025         6   # BR(~t_1 -> ~chi_30 t )
     6.25765834E-03    2     1000035         6   # BR(~t_1 -> ~chi_40 t )
     1.49713799E-01    2     1000024         5   # BR(~t_1 -> ~chi_1+ b )
     1.24748334E-02    2     1000037         5   # BR(~t_1 -> ~chi_2+ b )
     6.04275186E-01    2     1000021         6   # BR(~t_1 -> ~g      t )
#
#         PDG            Width
DECAY   2000006     3.27614913E+02   # stop2 decays
#          BR         NDA      ID1       ID2
     1.07121195E-02    2     1000022         6   # BR(~t_2 -> ~chi_10 t )
     1.00146940E-01    2     1000023         6   # BR(~t_2 -> ~chi_20 t )
     1.07427325E-01    2     1000025         6   # BR(~t_2 -> ~chi_30 t )
     1.72716610E-02    2     1000035         6   # BR(~t_2 -> ~chi_40 t )
     5.87307420E-02    2     1000024         5   # BR(~t_2 -> ~chi_1+ b )
     3.43933196E-02    2     1000037         5   # BR(~t_2 -> ~chi_2+ b )
     6.67687228E-01    2     1000021         6   # BR(~t_2 -> ~g      t )
     8.44293680E-04    2     1000006        25   # BR(~t_2 -> ~t_1    h )
     2.78637210E-03    2     1000006        23   # BR(~t_2 -> ~t_1    Z )
#
#         PDG            Width
DECAY   1000005     3.02141673E+02   # sbottom1 decays
#          BR         NDA      ID1       ID2
     2.59337144E-03    2     1000022         5   # BR(~b_1 -> ~chi_10 b )
     2.70669683E-03    2     1000023         5   # BR(~b_1 -> ~chi_20 b )
     2.73310100E-03    2     1000025         5   # BR(~b_1 -> ~chi_30 b )
     2.52143021E-02    2     1000035         5   # BR(~b_1 -> ~chi_40 b )
     2.19944385E-01    2    -1000024         6   # BR(~b_1 -> ~chi_1- t )
     5.06210663E-02    2    -1000037         6   # BR(~b_1 -> ~chi_2- t )
     6.94389190E-01    2     1000021         5   # BR(~b_1 -> ~g      b )
     1.79788738E-03    2     1000006       -24   # BR(~b_1 -> ~t_1    W-)
#
#         PDG            Width
DECAY   2000005     2.19031214E+02   # sbottom2 decays
#          BR         NDA      ID1       ID2
     1.33438593E-02    2     1000022         5   # BR(~b_2 -> ~chi_10 b )
     3.94397660E-03    2     1000023         5   # BR(~b_2 -> ~chi_20 b )
     3.97011042E-03    2     1000025         5   # BR(~b_2 -> ~chi_30 b )
     6.23873795E-05    2     1000035         5   # BR(~b_2 -> ~chi_40 b )
     8.22805326E-03    2    -1000024         6   # BR(~b_2 -> ~chi_1- t )
     1.25271589E-04    2    -1000037         6   # BR(~b_2 -> ~chi_2- t )
     9.70305704E-01    2     1000021         5   # BR(~b_2 -> ~g      b )
     2.06376077E-05    2     1000006       -24   # BR(~b_2 -> ~t_1    W-)
#
#         PDG            Width
DECAY   1000002     2.38594592E+02   # sup_L decays
#          BR         NDA      ID1       ID2
     3.09493787E-03    2     1000022         2   # BR(~u_L -> ~chi_10 u)
     9.63766809E-05    2     1000023         2   # BR(~u_L -> ~chi_20 u)
     6.61117822E-07    2     1000025         2   # BR(~u_L -> ~chi_30 u)
     3.31318030E-02    2     1000035         2   # BR(~u_L -> ~chi_40 u)
     2.08538017E-04    2     1000024         1   # BR(~u_L -> ~chi_1+ d)
     6.62228445E-02    2     1000037         1   # BR(~u_L -> ~chi_2+ d)
     8.97244839E-01    2     1000021         2   # BR(~u_L -> ~g      u)
#
#         PDG            Width
DECAY   2000002     2.24458292E+02   # sup_R decays
#          BR         NDA      ID1       ID2
     5.23475007E-02    2     1000022         2   # BR(~u_R -> ~chi_10 u)
     3.58160866E-04    2     1000023         2   # BR(~u_R -> ~chi_20 u)
     2.95251523E-04    2     1000025         2   # BR(~u_R -> ~chi_30 u)
     3.26500017E-09    2     1000035         2   # BR(~u_R -> ~chi_40 u)
     9.46999084E-01    2     1000021         2   # BR(~u_R -> ~g      u)
#
#         PDG            Width
DECAY   1000001     2.38609596E+02   # sdown_L decays
#          BR         NDA      ID1       ID2
     3.08276967E-03    2     1000022         1   # BR(~d_L -> ~chi_10 d)
     3.87588132E-07    2     1000023         1   # BR(~d_L -> ~chi_20 d)
     8.39312497E-05    2     1000025         1   # BR(~d_L -> ~chi_30 d)
     3.31500689E-02    2     1000035         1   # BR(~d_L -> ~chi_40 d)
     1.02980069E-07    2    -1000024         2   # BR(~d_L -> ~chi_1- u)
     6.63242236E-02    2    -1000037         2   # BR(~d_L -> ~chi_2- u)
     8.97358516E-01    2     1000021         1   # BR(~d_L -> ~g      d)
#
#         PDG            Width
DECAY   2000001     2.15562105E+02   # sdown_R decays
#          BR         NDA      ID1       ID2
     1.36277962E-02    2     1000022         1   # BR(~d_R -> ~chi_10 d)
     9.32413172E-05    2     1000023         1   # BR(~d_R -> ~chi_20 d)
     7.68639010E-05    2     1000025         1   # BR(~d_R -> ~chi_30 d)
     8.50105830E-10    2     1000035         1   # BR(~d_R -> ~chi_40 d)
     9.86202098E-01    2     1000021         1   # BR(~d_R -> ~g      d)
#
#         PDG            Width
DECAY   1000004     2.38594592E+02   # scharm_L decays
#          BR         NDA      ID1       ID2
     3.09493787E-03    2     1000022         4   # BR(~c_L -> ~chi_10 c)
     9.63766809E-05    2     1000023         4   # BR(~c_L -> ~chi_20 c)
     6.61117822E-07    2     1000025         4   # BR(~c_L -> ~chi_30 c)
     3.31318030E-02    2     1000035         4   # BR(~c_L -> ~chi_40 c)
     2.08538017E-04    2     1000024         3   # BR(~c_L -> ~chi_1+ s)
     6.62228445E-02    2     1000037         3   # BR(~c_L -> ~chi_2+ s)
     8.97244839E-01    2     1000021         4   # BR(~c_L -> ~g      c)
#
#         PDG            Width
DECAY   2000004     2.24458292E+02   # scharm_R decays
#          BR         NDA      ID1       ID2
     5.23475007E-02    2     1000022         4   # BR(~c_R -> ~chi_10 c)
     3.58160866E-04    2     1000023         4   # BR(~c_R -> ~chi_20 c)
     2.95251523E-04    2     1000025         4   # BR(~c_R -> ~chi_30 c)
     3.26500017E-09    2     1000035         4   # BR(~c_R -> ~chi_40 c)
     9.46999084E-01    2     1000021         4   # BR(~c_R -> ~g      c)
#
#         PDG            Width
DECAY   1000003     2.38609596E+02   # sstrange_L decays
#          BR         NDA      ID1       ID2
     3.08276967E-03    2     1000022         3   # BR(~s_L -> ~chi_10 s)
     3.87588132E-07    2     1000023         3   # BR(~s_L -> ~chi_20 s)
     8.39312497E-05    2     1000025         3   # BR(~s_L -> ~chi_30 s)
     3.31500689E-02    2     1000035         3   # BR(~s_L -> ~chi_40 s)
     1.02980069E-07    2    -1000024         4   # BR(~s_L -> ~chi_1- c)
     6.63242236E-02    2    -1000037         4   # BR(~s_L -> ~chi_2- c)
     8.97358516E-01    2     1000021         3   # BR(~s_L -> ~g      s)
#
#         PDG            Width
DECAY   2000003     2.15562105E+02   # sstrange_R decays
#          BR         NDA      ID1       ID2
     1.36277962E-02    2     1000022         3   # BR(~s_R -> ~chi_10 s)
     9.32413172E-05    2     1000023         3   # BR(~s_R -> ~chi_20 s)
     7.68639010E-05    2     1000025         3   # BR(~s_R -> ~chi_30 s)
     8.50105830E-10    2     1000035         3   # BR(~s_R -> ~chi_40 s)
     9.86202098E-01    2     1000021         3   # BR(~s_R -> ~g      s)
#
#         PDG            Width
DECAY   1000011     3.03535194E+01   # selectron_L decays
#          BR         NDA      ID1       ID2
     2.23656159E-01    2     1000022        11   # BR(~e_L -> ~chi_10 e-)
     2.90267095E-03    2     1000023        11   # BR(~e_L -> ~chi_20 e-)
     4.55955905E-04    2     1000025        11   # BR(~e_L -> ~chi_30 e-)
     2.57494858E-01    2     1000035        11   # BR(~e_L -> ~chi_40 e-)
     8.26975804E-07    2    -1000024        12   # BR(~e_L -> ~chi_1- nu_e)
     5.15489529E-01    2    -1000037        12   # BR(~e_L -> ~chi_2- nu_e)
#
#         PDG            Width
DECAY   2000011     2.74032321E+01   # selectron_R decays
#          BR         NDA      ID1       ID2
     9.87685749E-01    2     1000022        11   # BR(~e_R -> ~chi_10 e-)
     6.74991303E-03    2     1000023        11   # BR(~e_R -> ~chi_20 e-)
     5.56427808E-03    2     1000025        11   # BR(~e_R -> ~chi_30 e-)
     5.96665059E-08    2     1000035        11   # BR(~e_R -> ~chi_40 e-)
#
#         PDG            Width
DECAY   1000013     3.03535194E+01   # smuon_L decays
#          BR         NDA      ID1       ID2
     2.23656159E-01    2     1000022        13   # BR(~mu_L -> ~chi_10 mu-)
     2.90267095E-03    2     1000023        13   # BR(~mu_L -> ~chi_20 mu-)
     4.55955905E-04    2     1000025        13   # BR(~mu_L -> ~chi_30 mu-)
     2.57494858E-01    2     1000035        13   # BR(~mu_L -> ~chi_40 mu-)
     8.26975804E-07    2    -1000024        14   # BR(~mu_L -> ~chi_1- nu_mu)
     5.15489529E-01    2    -1000037        14   # BR(~mu_L -> ~chi_2- nu_mu)
#
#         PDG            Width
DECAY   2000013     2.74032321E+01   # smuon_R decays
#          BR         NDA      ID1       ID2
     9.87685749E-01    2     1000022        13   # BR(~mu_R -> ~chi_10 mu-)
     6.74991303E-03    2     1000023        13   # BR(~mu_R -> ~chi_20 mu-)
     5.56427808E-03    2     1000025        13   # BR(~mu_R -> ~chi_30 mu-)
     5.96665059E-08    2     1000035        13   # BR(~mu_R -> ~chi_40 mu-)
#
#         PDG            Width
DECAY   1000015     2.92588771E+01   # stau_1 decays
#          BR         NDA      ID1       ID2
     9.24676853E-01    2     1000022        15   # BR(~tau_1 -> ~chi_10  tau-)
     2.17163911E-02    2     1000023        15   # BR(~tau_1 -> ~chi_20  tau-)
     2.02894624E-02    2     1000025        15   # BR(~tau_1 -> ~chi_30  tau-)
     5.41044490E-04    2     1000035        15   # BR(~tau_1 -> ~chi_40  tau-)
     3.16932577E-02    2    -1000024        16   # BR(~tau_1 -> ~chi_1-  nu_tau)
     1.08299145E-03    2    -1000037        16   # BR(~tau_1 -> ~chi_2-  nu_tau)
#
#         PDG            Width
DECAY   2000015     3.12716401E+01   # stau_2 decays
#          BR         NDA      ID1       ID2
     2.17964139E-01    2     1000022        15   # BR(~tau_2 -> ~chi_10  tau-)
     1.78035942E-02    2     1000023        15   # BR(~tau_2 -> ~chi_20  tau-)
     1.56820354E-02    2     1000025        15   # BR(~tau_2 -> ~chi_30  tau-)
     2.49339269E-01    2     1000035        15   # BR(~tau_2 -> ~chi_40  tau-)
     4.80321827E-05    2    -1000024        16   # BR(~tau_2 -> ~chi_1-  nu_tau)
     4.99162930E-01    2    -1000037        16   # BR(~tau_2 -> ~chi_2-  nu_tau)
#
#         PDG            Width
DECAY   1000012     3.03567143E+01   # snu_eL decays
#          BR         NDA      ID1       ID2
     2.23294453E-01    2     1000022        12   # BR(~nu_eL -> ~chi_10 nu_e)
     5.89918779E-04    2     1000023        12   # BR(~nu_eL -> ~chi_20 nu_e)
     2.46128289E-03    2     1000025        12   # BR(~nu_eL -> ~chi_30 nu_e)
     2.57538348E-01    2     1000035        12   # BR(~nu_eL -> ~chi_40 nu_e)
     1.67420840E-03    2     1000024        11   # BR(~nu_eL -> ~chi_1+ e-)
     5.14441788E-01    2     1000037        11   # BR(~nu_eL -> ~chi_2+ e-)
#
#         PDG            Width
DECAY   1000014     3.03567143E+01   # snu_muL decays
#          BR         NDA      ID1       ID2
     2.23294453E-01    2     1000022        14   # BR(~nu_muL -> ~chi_10 nu_mu)
     5.89918779E-04    2     1000023        14   # BR(~nu_muL -> ~chi_20 nu_mu)
     2.46128289E-03    2     1000025        14   # BR(~nu_muL -> ~chi_30 nu_mu)
     2.57538348E-01    2     1000035        14   # BR(~nu_muL -> ~chi_40 nu_mu)
     1.67420840E-03    2     1000024        13   # BR(~nu_muL -> ~chi_1+ mu-)
     5.14441788E-01    2     1000037        13   # BR(~nu_muL -> ~chi_2+ mu-)
#
#         PDG            Width
DECAY   1000016     3.12784010E+01   # snu_tauL decays
#          BR         NDA      ID1       ID2
     2.16690709E-01    2     1000022        16   # BR(~nu_tauL -> ~chi_10 nu_tau)
     5.72470847E-04    2     1000023        16   # BR(~nu_tauL -> ~chi_20 nu_tau)
     2.38848586E-03    2     1000025        16   # BR(~nu_tauL -> ~chi_30 nu_tau)
     2.49855732E-01    2     1000035        16   # BR(~nu_tauL -> ~chi_40 nu_tau)
     3.13975264E-02    2     1000024        15   # BR(~nu_tauL -> ~chi_1+ tau-)
     4.99095075E-01    2     1000037        15   # BR(~nu_tauL -> ~chi_2+ tau-)
#
#         PDG            Width
DECAY   1000024     2.29928205E-01   # chargino1+ decays
#          BR         NDA      ID1       ID2
     1.00000000E+00    2     1000022        24   # BR(~chi_1+ -> ~chi_10  W+)
#
#         PDG            Width
DECAY   1000037     2.25236222E+01   # chargino2+ decays
#          BR         NDA      ID1       ID2
     2.53606525E-01    2     1000024        23   # BR(~chi_2+ -> ~chi_1+  Z )
     1.38116874E-04    2     1000022        24   # BR(~chi_2+ -> ~chi_10  W+)
     2.45211830E-01    2     1000023        24   # BR(~chi_2+ -> ~chi_20  W+)
     2.44431834E-01    2     1000025        24   # BR(~chi_2+ -> ~chi_30  W+)
     2.56603460E-01    2     1000024        25   # BR(~chi_2+ -> ~chi_1+  h )
     8.23465319E-06    2     1000022        37   # BR(~chi_2+ -> ~chi_10  H+)
#
#         PDG            Width
DECAY   1000022     0.00000000E+00   # neutralino1 decays
#
#         PDG            Width
DECAY   1000023     2.27178404E-01   # neutralino2 decays
#          BR         NDA      ID1       ID2
     4.94358808E-01    2     1000022        23   # BR(~chi_20 -> ~chi_10   Z )
     5.05641192E-01    2     1000022        25   # BR(~chi_20 -> ~chi_10   h )
#
#         PDG            Width
DECAY   1000025     2.16601842E-01   # neutralino3 decays
#          BR         NDA      ID1       ID2
     5.81756404E-01    2     1000022        23   # BR(~chi_30 -> ~chi_10   Z )
     4.18243596E-01    2     1000022        25   # BR(~chi_30 -> ~chi_10   h )
#
#         PDG            Width
DECAY   1000035     2.25304969E+01   # neutralino4 decays
#          BR         NDA      ID1       ID2
     2.15554260E-06    2     1000022        23   # BR(~chi_40 -> ~chi_10   Z )
     1.20957322E-01    2     1000023        23   # BR(~chi_40 -> ~chi_20   Z )
     1.32332796E-01    2     1000025        23   # BR(~chi_40 -> ~chi_30   Z )
     2.45204879E-01    2     1000024       -24   # BR(~chi_40 -> ~chi_1+   W-)
     2.45204879E-01    2    -1000024        24   # BR(~chi_40 -> ~chi_1-   W+)
     1.25386385E-04    2     1000022        25   # BR(~chi_40 -> ~chi_10   h )
     7.94188989E-06    2     1000022        35   # BR(~chi_40 -> ~chi_10   H )
     8.50876740E-07    2     1000022        36   # BR(~chi_40 -> ~chi_10   A )
     1.34948416E-01    2     1000023        25   # BR(~chi_40 -> ~chi_20   h )
     1.21215373E-01    2     1000025        25   # BR(~chi_40 -> ~chi_30   h )
#
#         PDG            Width
DECAY        25     4.07442546E-03   # h decays
#          BR         NDA      ID1       ID2
     6.09290722E-01    2           5        -5   # BR(h -> b       bb     )
     6.36732226E-02    2         -15        15   # BR(h -> tau+    tau-   )
     2.25426297E-04    2         -13        13   # BR(h -> mu+     mu-    )
     4.77879105E-04    2           3        -3   # BR(h -> s       sb     )
     2.07049726E-02    2           4        -4   # BR(h -> c       cb     )
     6.69925095E-02    2          21        21   # BR(h -> g       g      )
     2.30249420E-03    2          22        22   # BR(h -> gam     gam    )
     1.48642711E-03    2          22        23   # BR(h -> Z       gam    )
     2.09789218E-01    2          24       -24   # BR(h -> W+      W-     )
     2.49957840E-02    2          23        23   # BR(h -> Z       Z      )
     6.13447554E-05    2     1000022   1000022   # BR(h -> ~chi_10 ~chi_10)
#
#         PDG            Width
DECAY        35     8.72813294E+00   # H decays
#          BR         NDA      ID1       ID2
     3.64546462E-01    2           5        -5   # BR(H -> b       bb     )
     6.38137648E-02    2         -15        15   # BR(H -> tau+    tau-   )
     2.25650541E-04    2         -13        13   # BR(H -> mu+     mu-    )
     2.76612887E-04    2           3        -3   # BR(H -> s       sb     )
     1.54822817E-06    2           4        -4   # BR(H -> c       cb     )
     1.54680262E-01    2           6        -6   # BR(H -> t       tb     )
     5.14576329E-05    2          21        21   # BR(H -> g       g      )
     1.39975852E-07    2          22        22   # BR(H -> gam     gam    )
     9.12741975E-08    2          23        22   # BR(H -> Z       gam    )
     7.45730322E-05    2          24       -24   # BR(H -> W+      W-     )
     3.72393105E-05    2          23        23   # BR(H -> Z       Z      )
     2.68422208E-04    2          25        25   # BR(H -> h       h      )
    -1.06689711E-23    2          36        36   # BR(H -> A       A      )
     7.41085107E-19    2          23        36   # BR(H -> Z       A      )
     3.30507914E-03    2     1000024  -1000024   # BR(H -> ~chi_1+ ~chi_1-)
     1.04836907E-02    2     1000022   1000022   # BR(H -> ~chi_10 ~chi_10)
     1.10145220E-03    2     1000023   1000023   # BR(H -> ~chi_20 ~chi_20)
     3.42881207E-03    2     1000025   1000025   # BR(H -> ~chi_30 ~chi_30)
     2.38976868E-01    2     1000022   1000023   # BR(H -> ~chi_10 ~chi_20)
     1.53409187E-01    2     1000022   1000025   # BR(H -> ~chi_10 ~chi_30)
     5.31868676E-03    2     1000023   1000025   # BR(H -> ~chi_20 ~chi_30)
#
#         PDG            Width
DECAY        36     8.73414687E+00   # A decays
#          BR         NDA      ID1       ID2
     3.64420018E-01    2           5        -5   # BR(A -> b       bb     )
     6.37717143E-02    2         -15        15   # BR(A -> tau+    tau-   )
     2.25501532E-04    2         -13        13   # BR(A -> mu+     mu-    )
     2.76632365E-04    2           3        -3   # BR(A -> s       sb     )
     1.55331561E-06    2           4        -4   # BR(A -> c       cb     )
     1.55102908E-01    2           6        -6   # BR(A -> t       tb     )
     1.53473052E-04    2          21        21   # BR(A -> g       g      )
     5.82684044E-07    2          22        22   # BR(A -> gam     gam    )
     1.85760385E-07    2          23        22   # BR(A -> Z       gam    )
     7.42394813E-05    2          23        25   # BR(A -> Z       h      )
     3.52248268E-03    2     1000024  -1000024   # BR(A -> ~chi_1+ ~chi_1-)
     1.02843133E-02    2     1000022   1000022   # BR(A -> ~chi_10 ~chi_10)
     7.73847068E-04    2     1000023   1000023   # BR(A -> ~chi_20 ~chi_20)
     5.66478309E-03    2     1000025   1000025   # BR(A -> ~chi_30 ~chi_30)
     1.57099975E-01    2     1000022   1000023   # BR(A -> ~chi_10 ~chi_20)
     2.34416407E-01    2     1000022   1000025   # BR(A -> ~chi_10 ~chi_30)
     4.21138325E-03    2     1000023   1000025   # BR(A -> ~chi_20 ~chi_30)
#
#         PDG            Width
DECAY        37     8.67886700E+00   # H+ decays
#          BR         NDA      ID1       ID2
     5.84607017E-04    2           4        -5   # BR(H+ -> c       bb     )
     6.42089750E-02    2         -15        16   # BR(H+ -> tau+    nu_tau )
     2.27047718E-04    2         -13        14   # BR(H+ -> mu+     nu_mu  )
     3.74146524E-06    2           2        -5   # BR(H+ -> u       bb     )
     1.33223544E-05    2           2        -3   # BR(H+ -> u       sb     )
     2.75507844E-04    2           4        -3   # BR(H+ -> c       sb     )
     5.18245773E-01    2           6        -5   # BR(H+ -> t       bb     )
     7.48691341E-05    2          24        25   # BR(H+ -> W+      h      )
     9.78138931E-13    2          24        36   # BR(H+ -> W+      A      )
     4.10397048E-01    2     1000024   1000022   # BR(H+ -> ~chi_1+ ~chi_10)
     5.22243908E-03    2     1000024   1000023   # BR(H+ -> ~chi_1+ ~chi_20)
     7.46669661E-04    2     1000024   1000025   # BR(H+ -> ~chi_1+ ~chi_30)
