#
#                              ======================
#                              | THE SUSYHIT OUTPUT |
#                              ======================
#
#
#              ------------------------------------------------------
#              |     This is the output of the SUSY-HIT package     |
#              |  created by A.Djouadi, M.Muehlleitner and M.Spira. |
#              |  In case of problems with SUSY-HIT email to        |
#              |           margarete.muehlleitner@kit.edu           |
#              |           michael.spira@psi.ch                     |
#              |           abdelhak.djouadi@cern.ch                 |
#              ------------------------------------------------------
#
#              ------------------------------------------------------
#              |  SUSY Les Houches Accord - MSSM Spectrum + Decays  |
#              |              based on the decay programs           |
#              |                                                    |
#              |                     SDECAY 1.5a                    |
#              |                                                    |
#              |  Authors: M.Muhlleitner, A.Djouadi and Y.Mambrini  |
#              |  Ref.:    Comput.Phys.Commun.168(2005)46           |
#              |           [hep-ph/0311167]                         |
#              |                                                    |
#              |                     HDECAY 3.4                     |
#              |                                                    |
#              |  By: A.Djouadi,J.Kalinowski,M.Muhlleitner,M.Spira  |
#              |  Ref.:    Comput.Phys.Commun.108(1998)56           |
#              |           [hep-ph/9704448]                         |
#              |                                                    |
#              |                                                    |
#              |  If not stated otherwise all DRbar couplings and   |
#              |  soft SUSY breaking masses are given at the scale  |
#              |  Q=  0.91187600E+02
#              |                                                    |
#              ------------------------------------------------------
#
#
BLOCK DCINFO  # Decay Program information
     1   SDECAY/HDECAY # decay calculator
     2   1.5a /3.4    # version number
#
BLOCK SPINFO  # Spectrum calculator information
     1   SuSpect     # RGE +Spectrum calculator            
     2   2.43         # version number                     
#
BLOCK MODSEL  # Model selection
     1     2   # GMSB                                              
#
BLOCK SMINPUTS  # Standard Model inputs
         1     1.27932904E+02   # alpha_em^-1(M_Z)^MSbar
         2     1.16639000E-05   # G_F [GeV^-2]
         3     1.17200000E-01   # alpha_S(M_Z)^MSbar
         4     9.11870000E+01   # M_Z pole mass
         5     4.25000000E+00   # mb(mb)^MSbar
         6     1.72900000E+02   # mt pole mass
         7     1.77700000E+00   # mtau pole mass
#
BLOCK MINPAR  # Input parameters - minimal models
#
BLOCK EXTPAR  # Input parameters - non-minimal models
         0     9.11876000E+01   # EWSB                
         1     2.03600000E+03   # M_1                 
         2     3.00000000E+03   # M_2                 
         3     2.40000000E+03   # M_3                 
        11     0.00000000E+00   # A_t                 
        12     0.00000000E+00   # A_b                 
        13     0.00000000E+00   # A_tau               
        14     0.00000000E+00   # A_u                 
        15     0.00000000E+00   # A_d                 
        16     0.00000000E+00   # A_e                 
        23     2.05000000E+03   # mu(EWSB)            
        25     1.50000000E+00   # tanbeta(in)         
        26     2.00000000E+03   # MA_pole             
        31     5.00000000E+03   # M_eL                
        32     5.00000000E+03   # M_muL               
        33     5.00000000E+03   # M_tauL              
        34     5.00000000E+03   # M_eR                
        35     5.00000000E+03   # M_muR               
        36     5.00000000E+03   # M_tauR              
        41     5.00000000E+03   # M_q1L               
        42     5.00000000E+03   # M_q2L               
        43     5.00000000E+03   # M_q3L               
        44     5.00000000E+03   # M_uR                
        45     5.00000000E+03   # M_cR                
        46     5.00000000E+03   # M_tR                
        47     5.00000000E+03   # M_dR                
        48     5.00000000E+03   # M_sR                
        49     5.00000000E+03   # M_bR                
#
BLOCK MASS  # Mass Spectrum
# PDG code           mass       particle
        24     8.05422134E+01   # W+
        25     1.25000000E+02   # h
        35     2.00398917E+03   # H
        36     2.00000000E+03   # A
        37     2.00152157E+03   # H+
         5     4.87877839E+00   # b-quark pole mass calculated from mb(mb)_Msbar
   1000001     5.00013292E+03   # ~d_L
   2000001     5.00002539E+03   # ~d_R
   1000002     4.99989247E+03   # ~u_L
   2000002     4.99994922E+03   # ~u_R
   1000003     5.00013292E+03   # ~s_L
   2000003     5.00002539E+03   # ~s_R
   1000004     4.99989247E+03   # ~c_L
   2000004     4.99994922E+03   # ~c_R
   1000005     4.99925260E+03   # ~b_1
   2000005     5.00090701E+03   # ~b_2
   1000006     4.98140985E+03   # ~t_1
   2000006     5.02297302E+03   # ~t_2
   1000011     5.00008214E+03   # ~e_L
   2000011     5.00007617E+03   # ~e_R
   1000012     4.99984169E+03   # ~nu_eL
   1000013     5.00008214E+03   # ~mu_L
   2000013     5.00007617E+03   # ~mu_R
   1000014     4.99984169E+03   # ~nu_muL
   1000015     4.99953245E+03   # ~tau_1
   2000015     5.00062644E+03   # ~tau_2
   1000016     4.99984169E+03   # ~nu_tauL
   1000021     2.40000000E+03   # ~g
   1000022     1.99619749E+03   # ~chi_10
   1000023    -2.05006628E+03   # ~chi_20
   1000025     2.08352239E+03   # ~chi_30
   1000035     3.00634640E+03   # ~chi_40
   1000024     2.04376149E+03   # ~chi_1+
   1000037     3.00633374E+03   # ~chi_2+
   1000039     1.00000000E-09   # ~gravitino
#
BLOCK NMIX  # Neutralino Mixing Matrix
  1  1     7.37650443E-01   # N_11
  1  2    -5.19679556E-02   # N_12
  1  3     4.77274279E-01   # N_13
  1  4    -4.74742476E-01   # N_14
  2  1     2.13677819E-03   # N_21
  2  2    -3.07178340E-03   # N_22
  2  3    -7.07044673E-01   # N_23
  2  4    -7.07158984E-01   # N_24
  3  1     6.75169458E-01   # N_31
  3  2     6.22031004E-02   # N_32
  3  3    -5.18904784E-01   # N_33
  3  4     5.20590821E-01   # N_34
  4  1     3.66897404E-03   # N_41
  4  2    -9.96704906E-01   # N_42
  4  3    -5.50900938E-02   # N_43
  4  4     5.94217986E-02   # N_44
#
BLOCK UMIX  # Chargino Mixing Matrix U
  1  1    -7.77509001E-02   # U_11
  1  2     9.96972817E-01   # U_12
  2  1     9.96972817E-01   # U_21
  2  2     7.77509001E-02   # U_22
#
BLOCK VMIX  # Chargino Mixing Matrix V
  1  1    -8.38719364E-02   # V_11
  1  2     9.96476542E-01   # V_12
  2  1     9.96476542E-01   # V_21
  2  2     8.38719364E-02   # V_22
#
BLOCK STOPMIX  # Stop Mixing Matrix
  1  1     7.07589156E-01   # cos(theta_t)
  1  2     7.06624077E-01   # sin(theta_t)
  2  1    -7.06624077E-01   # -sin(theta_t)
  2  2     7.07589156E-01   # cos(theta_t)
#
BLOCK SBOTMIX  # Sbottom Mixing Matrix
  1  1     6.83741285E-01   # cos(theta_b)
  1  2     7.29724506E-01   # sin(theta_b)
  2  1    -7.29724506E-01   # -sin(theta_b)
  2  2     6.83741285E-01   # cos(theta_b)
#
BLOCK STAUMIX  # Stau Mixing Matrix
  1  1     7.05174362E-01   # cos(theta_tau)
  1  2     7.09033934E-01   # sin(theta_tau)
  2  1    -7.09033934E-01   # -sin(theta_tau)
  2  2     7.05174362E-01   # cos(theta_tau)
#
BLOCK ALPHA  # Higgs mixing
          -5.90196179E-01   # Mixing angle in the neutral Higgs boson sector
#
BLOCK HMIX Q=  9.11876000E+01  # DRbar Higgs Parameters
         1     2.05000000E+03   # mu(Q)               
         2     1.49999979E+00   # tanbeta(Q)          
         3     2.52349584E+02   # vev(Q)              
         4     2.97670310E+06   # MA^2(Q)             
#
BLOCK GAUGE Q=  9.11876000E+01  # The gauge couplings
     1     3.52700943E-01   # gprime(Q) DRbar
     2     6.26656341E-01   # g(Q) DRbar
     3     1.07754676E+00   # g3(Q) DRbar
#
BLOCK AU Q=  9.11876000E+01  # The trilinear couplings
  1  1     0.00000000E+00   # A_u(Q) DRbar
  2  2     0.00000000E+00   # A_c(Q) DRbar
  3  3     0.00000000E+00   # A_t(Q) DRbar
#
BLOCK AD Q=  9.11876000E+01  # The trilinear couplings
  1  1     0.00000000E+00   # A_d(Q) DRbar
  2  2     0.00000000E+00   # A_s(Q) DRbar
  3  3     0.00000000E+00   # A_b(Q) DRbar
#
BLOCK AE Q=  9.11876000E+01  # The trilinear couplings
  1  1     0.00000000E+00   # A_e(Q) DRbar
  2  2     0.00000000E+00   # A_mu(Q) DRbar
  3  3     0.00000000E+00   # A_tau(Q) DRbar
#
BLOCK Yu Q=  9.11876000E+01  # The Yukawa couplings
  1  1     0.00000000E+00   # y_u(Q) DRbar
  2  2     0.00000000E+00   # y_c(Q) DRbar
  3  3     1.02463385E+00   # y_t(Q) DRbar
#
BLOCK Yd Q=  9.11876000E+01  # The Yukawa couplings
  1  1     0.00000000E+00   # y_d(Q) DRbar
  2  2     0.00000000E+00   # y_s(Q) DRbar
  3  3     2.71213338E-02   # y_b(Q) DRbar
#
BLOCK Ye Q=  9.11876000E+01  # The Yukawa couplings
  1  1     0.00000000E+00   # y_e(Q) DRbar
  2  2     0.00000000E+00   # y_mu(Q) DRbar
  3  3     1.79718245E-02   # y_tau(Q) DRbar
#
BLOCK MSOFT Q=  9.11876000E+01  # The soft SUSY breaking masses at the scale Q
         1     2.03600000E+03   # M_1                 
         2     3.00000000E+03   # M_2                 
         3     2.40000000E+03   # M_3                 
        14     0.00000000E+00   # A_u                 
        15     0.00000000E+00   # A_d                 
        16     0.00000000E+00   # A_e                 
        21    -1.65603987E+06   # M^2_Hd              
        22    -9.23013880E+06   # M^2_Hu              
        31     5.00000000E+03   # M_eL                
        32     5.00000000E+03   # M_muL               
        33     5.00000000E+03   # M_tauL              
        34     5.00000000E+03   # M_eR                
        35     5.00000000E+03   # M_muR               
        36     5.00000000E+03   # M_tauR              
        41     5.00000000E+03   # M_q1L               
        42     5.00000000E+03   # M_q2L               
        43     5.00000000E+03   # M_q3L               
        44     5.00000000E+03   # M_uR                
        45     5.00000000E+03   # M_cR                
        46     5.00000000E+03   # M_tR                
        47     5.00000000E+03   # M_dR                
        48     5.00000000E+03   # M_sR                
        49     5.00000000E+03   # M_bR                
#
#
#
#                             =================
#                             |The decay table|
#                             =================
#
# - The QCD corrections to the decays gluino -> squark  + quark
#                                     squark -> gaugino + quark_prime
#                                     squark -> squark_prime + Higgs
#                                     squark -> gluino  + quark
#   are included.
#
# - The multi-body decays for the inos, stops and sbottoms are included.
#
# - The loop induced decays for the gluino, neutralinos and stops
#   are included.
#
# - The SUSY decays of the top quark are included.
#
# - Possible decays of the NLSP in GMSB models are included.
#
#
#         PDG            Width
DECAY         6     1.36817049E+00   # top decays
#          BR         NDA      ID1       ID2
     1.00000000E+00    2           5        24   # BR(t ->  b    W+)
#
#         PDG            Width
DECAY   1000021     9.73283603E-05   # gluino decays
#          BR         NDA      ID1       ID2
     9.15826813E-03    2     1000022        21   # BR(~g -> ~chi_10 g)
     1.36050120E-02    2     1000023        21   # BR(~g -> ~chi_20 g)
     5.65789203E-03    2     1000025        21   # BR(~g -> ~chi_30 g)
#          BR         NDA      ID1       ID2
     0.00000000E+00    2     1000039        21   # BR(~g -> ~G      g)
#           BR         NDA      ID1       ID2       ID3
     1.07557245E-03    3     1000022         1        -1   # BR(~g -> ~chi_10 d  db)
     2.09332819E-08    3     1000023         1        -1   # BR(~g -> ~chi_20 d  db)
     2.08698026E-04    3     1000025         1        -1   # BR(~g -> ~chi_30 d  db)
     2.99226656E-03    3     1000022         2        -2   # BR(~g -> ~chi_10 u  ub)
     1.59973911E-08    3     1000023         2        -2   # BR(~g -> ~chi_20 u  ub)
     8.93049386E-04    3     1000025         2        -2   # BR(~g -> ~chi_30 u  ub)
     1.07557245E-03    3     1000022         3        -3   # BR(~g -> ~chi_10 s  sb)
     2.09332819E-08    3     1000023         3        -3   # BR(~g -> ~chi_20 s  sb)
     2.08698026E-04    3     1000025         3        -3   # BR(~g -> ~chi_30 s  sb)
     2.99226656E-03    3     1000022         4        -4   # BR(~g -> ~chi_10 c  cb)
     1.59973911E-08    3     1000023         4        -4   # BR(~g -> ~chi_20 c  cb)
     8.93049386E-04    3     1000025         4        -4   # BR(~g -> ~chi_30 c  cb)
     1.07865414E-03    3     1000022         5        -5   # BR(~g -> ~chi_10 b  bb)
     1.83876638E-05    3     1000023         5        -5   # BR(~g -> ~chi_20 b  bb)
     2.17914005E-04    3     1000025         5        -5   # BR(~g -> ~chi_30 b  bb)
     1.28081058E-03    3     1000022         6        -6   # BR(~g -> ~chi_10 t  tb)
     3.58255177E-06    3     1000023         6        -6   # BR(~g -> ~chi_20 t  tb)
     6.95447869E-05    3     1000024         1        -2   # BR(~g -> ~chi_1+ d  ub)
     6.95447869E-05    3    -1000024         2        -1   # BR(~g -> ~chi_1- u  db)
     6.95447869E-05    3     1000024         3        -4   # BR(~g -> ~chi_1+ s  cb)
     6.95447869E-05    3    -1000024         4        -3   # BR(~g -> ~chi_1- c  sb)
     8.23274934E-03    3     1000024         5        -6   # BR(~g -> ~chi_1+ b  tb)
     8.23274934E-03    3    -1000024         6        -5   # BR(~g -> ~chi_1- t  bb)
#
#         PDG            Width
DECAY   1000006     2.54074845E+02   # stop1 decays
#          BR         NDA      ID1       ID2
     7.40783265E-02    2     1000022         6   # BR(~t_1 -> ~chi_10 t )
     1.00386582E-01    2     1000023         6   # BR(~t_1 -> ~chi_20 t )
     4.20766310E-02    2     1000025         6   # BR(~t_1 -> ~chi_30 t )
     1.19168315E-02    2     1000035         6   # BR(~t_1 -> ~chi_40 t )
     1.09281362E-01    2     1000024         5   # BR(~t_1 -> ~chi_1+ b )
     2.32424649E-02    2     1000037         5   # BR(~t_1 -> ~chi_2+ b )
     6.39017802E-01    2     1000021         6   # BR(~t_1 -> ~g      t )
#
#         PDG            Width
DECAY   2000006     2.43048809E+02   # stop2 decays
#          BR         NDA      ID1       ID2
     3.22886341E-02    2     1000022         6   # BR(~t_2 -> ~chi_10 t )
     9.97332219E-02    2     1000023         6   # BR(~t_2 -> ~chi_20 t )
     8.20958722E-02    2     1000025         6   # BR(~t_2 -> ~chi_30 t )
     2.02889493E-02    2     1000035         6   # BR(~t_2 -> ~chi_40 t )
     9.05635847E-02    2     1000024         5   # BR(~t_2 -> ~chi_1+ b )
     3.98386342E-02    2     1000037         5   # BR(~t_2 -> ~chi_2+ b )
     6.35191103E-01    2     1000021         6   # BR(~t_2 -> ~g      t )
#
#         PDG            Width
DECAY   1000005     1.92432693E+02   # sbottom1 decays
#          BR         NDA      ID1       ID2
     4.88078524E-03    2     1000022         5   # BR(~b_1 -> ~chi_10 b )
     8.04335725E-05    2     1000023         5   # BR(~b_1 -> ~chi_20 b )
     1.94857970E-03    2     1000025         5   # BR(~b_1 -> ~chi_30 b )
     1.79026752E-02    2     1000035         5   # BR(~b_1 -> ~chi_40 b )
     1.14890597E-01    2    -1000024         6   # BR(~b_1 -> ~chi_1- t )
     3.65681586E-02    2    -1000037         6   # BR(~b_1 -> ~chi_2- t )
     8.23728770E-01    2     1000021         5   # BR(~b_1 -> ~g      b )
#
#         PDG            Width
DECAY   2000005     1.99789997E+02   # sbottom2 decays
#          BR         NDA      ID1       ID2
     2.89748919E-03    2     1000022         5   # BR(~b_2 -> ~chi_10 b )
     9.79034837E-05    2     1000023         5   # BR(~b_2 -> ~chi_20 b )
     2.61776179E-03    2     1000025         5   # BR(~b_2 -> ~chi_30 b )
     2.11645069E-02    2     1000035         5   # BR(~b_2 -> ~chi_40 b )
     1.37098574E-01    2    -1000024         6   # BR(~b_2 -> ~chi_1- t )
     4.32410899E-02    2    -1000037         6   # BR(~b_2 -> ~chi_2- t )
     7.92882674E-01    2     1000021         5   # BR(~b_2 -> ~g      b )
#
#         PDG            Width
DECAY   1000002     1.82158358E+02   # sup_L decays
#          BR         NDA      ID1       ID2
     5.45770866E-04    2     1000022         2   # BR(~u_L -> ~chi_10 u)
     5.10592223E-07    2     1000023         2   # BR(~u_L -> ~chi_20 u)
     2.51961533E-03    2     1000025         2   # BR(~u_L -> ~chi_30 u)
     4.20010197E-02    2     1000035         2   # BR(~u_L -> ~chi_40 u)
     1.00946618E-03    2     1000024         1   # BR(~u_L -> ~chi_1+ d)
     8.40804379E-02    2     1000037         1   # BR(~u_L -> ~chi_2+ d)
     8.69843179E-01    2     1000021         2   # BR(~u_L -> ~g      u)
#
#         PDG            Width
DECAY   2000002     1.65835240E+02   # sup_R decays
#          BR         NDA      ID1       ID2
     2.45962819E-02    2     1000022         2   # BR(~u_R -> ~chi_10 u)
     2.02157600E-07    2     1000023         2   # BR(~u_R -> ~chi_20 u)
     1.99177188E-02    2     1000025         2   # BR(~u_R -> ~chi_30 u)
     3.52562500E-07    2     1000035         2   # BR(~u_R -> ~chi_40 u)
     9.55485445E-01    2     1000021         2   # BR(~u_R -> ~g      u)
#
#         PDG            Width
DECAY   1000001     1.82166803E+02   # sdown_L decays
#          BR         NDA      ID1       ID2
     2.64799324E-03    2     1000022         1   # BR(~d_L -> ~chi_10 d)
     8.63180231E-07    2     1000023         1   # BR(~d_L -> ~chi_20 d)
     2.93543807E-04    2     1000025         1   # BR(~d_L -> ~chi_30 d)
     4.21218330E-02    2     1000035         1   # BR(~d_L -> ~chi_40 d)
     8.67534816E-04    2    -1000024         2   # BR(~d_L -> ~chi_1- u)
     8.41734545E-02    2    -1000037         2   # BR(~d_L -> ~chi_2- u)
     8.69894778E-01    2     1000021         1   # BR(~d_L -> ~g      d)
#
#         PDG            Width
DECAY   2000001     1.60304033E+02   # sdown_R decays
#          BR         NDA      ID1       ID2
     6.36141194E-03    2     1000022         1   # BR(~d_R -> ~chi_10 d)
     5.22846802E-08    2     1000023         1   # BR(~d_R -> ~chi_20 d)
     5.15138714E-03    2     1000025         1   # BR(~d_R -> ~chi_30 d)
     9.11863834E-08    2     1000035         1   # BR(~d_R -> ~chi_40 d)
     9.88487057E-01    2     1000021         1   # BR(~d_R -> ~g      d)
#
#         PDG            Width
DECAY   1000004     1.82158358E+02   # scharm_L decays
#          BR         NDA      ID1       ID2
     5.45770866E-04    2     1000022         4   # BR(~c_L -> ~chi_10 c)
     5.10592223E-07    2     1000023         4   # BR(~c_L -> ~chi_20 c)
     2.51961533E-03    2     1000025         4   # BR(~c_L -> ~chi_30 c)
     4.20010197E-02    2     1000035         4   # BR(~c_L -> ~chi_40 c)
     1.00946618E-03    2     1000024         3   # BR(~c_L -> ~chi_1+ s)
     8.40804379E-02    2     1000037         3   # BR(~c_L -> ~chi_2+ s)
     8.69843179E-01    2     1000021         4   # BR(~c_L -> ~g      c)
#
#         PDG            Width
DECAY   2000004     1.65835240E+02   # scharm_R decays
#          BR         NDA      ID1       ID2
     2.45962819E-02    2     1000022         4   # BR(~c_R -> ~chi_10 c)
     2.02157600E-07    2     1000023         4   # BR(~c_R -> ~chi_20 c)
     1.99177188E-02    2     1000025         4   # BR(~c_R -> ~chi_30 c)
     3.52562500E-07    2     1000035         4   # BR(~c_R -> ~chi_40 c)
     9.55485445E-01    2     1000021         4   # BR(~c_R -> ~g      c)
#
#         PDG            Width
DECAY   1000003     1.82166803E+02   # sstrange_L decays
#          BR         NDA      ID1       ID2
     2.64799324E-03    2     1000022         3   # BR(~s_L -> ~chi_10 s)
     8.63180231E-07    2     1000023         3   # BR(~s_L -> ~chi_20 s)
     2.93543807E-04    2     1000025         3   # BR(~s_L -> ~chi_30 s)
     4.21218330E-02    2     1000035         3   # BR(~s_L -> ~chi_40 s)
     8.67534816E-04    2    -1000024         4   # BR(~s_L -> ~chi_1- c)
     8.41734545E-02    2    -1000037         4   # BR(~s_L -> ~chi_2- c)
     8.69894778E-01    2     1000021         3   # BR(~s_L -> ~g      s)
#
#         PDG            Width
DECAY   2000003     1.60304033E+02   # sstrange_R decays
#          BR         NDA      ID1       ID2
     6.36141194E-03    2     1000022         3   # BR(~s_R -> ~chi_10 s)
     5.22846802E-08    2     1000023         3   # BR(~s_R -> ~chi_20 s)
     5.15138714E-03    2     1000025         3   # BR(~s_R -> ~chi_30 s)
     9.11863834E-08    2     1000035         3   # BR(~s_R -> ~chi_40 s)
     9.88487057E-01    2     1000021         3   # BR(~s_R -> ~g      s)
#
#         PDG            Width
DECAY   1000011     2.82984471E+01   # selectron_L decays
#          BR         NDA      ID1       ID2
     6.43378538E-02    2     1000022        11   # BR(~e_L -> ~chi_10 e-)
     1.66876126E-06    2     1000023        11   # BR(~e_L -> ~chi_20 e-)
     9.21658211E-02    2     1000025        11   # BR(~e_L -> ~chi_30 e-)
     2.78361783E-01    2     1000035        11   # BR(~e_L -> ~chi_40 e-)
     5.78933043E-03    2    -1000024        12   # BR(~e_L -> ~chi_1- nu_e)
     5.59343543E-01    2    -1000037        12   # BR(~e_L -> ~chi_2- nu_e)
#
#         PDG            Width
DECAY   2000011     1.72199776E+01   # selectron_R decays
#          BR         NDA      ID1       ID2
     5.52599526E-01    2     1000022        11   # BR(~e_R -> ~chi_10 e-)
     4.54122010E-06    2     1000023        11   # BR(~e_R -> ~chi_20 e-)
     4.47388046E-01    2     1000025        11   # BR(~e_R -> ~chi_30 e-)
     7.88696330E-06    2     1000035        11   # BR(~e_R -> ~chi_40 e-)
#
#         PDG            Width
DECAY   1000013     2.82984471E+01   # smuon_L decays
#          BR         NDA      ID1       ID2
     6.43378538E-02    2     1000022        13   # BR(~mu_L -> ~chi_10 mu-)
     1.66876126E-06    2     1000023        13   # BR(~mu_L -> ~chi_20 mu-)
     9.21658211E-02    2     1000025        13   # BR(~mu_L -> ~chi_30 mu-)
     2.78361783E-01    2     1000035        13   # BR(~mu_L -> ~chi_40 mu-)
     5.78933043E-03    2    -1000024        14   # BR(~mu_L -> ~chi_1- nu_mu)
     5.59343543E-01    2    -1000037        14   # BR(~mu_L -> ~chi_2- nu_mu)
#
#         PDG            Width
DECAY   2000013     1.72199776E+01   # smuon_R decays
#          BR         NDA      ID1       ID2
     5.52599526E-01    2     1000022        13   # BR(~mu_R -> ~chi_10 mu-)
     4.54122010E-06    2     1000023        13   # BR(~mu_R -> ~chi_20 mu-)
     4.47388046E-01    2     1000025        13   # BR(~mu_R -> ~chi_30 mu-)
     7.88696330E-06    2     1000035        13   # BR(~mu_R -> ~chi_40 mu-)
#
#         PDG            Width
DECAY   1000015     2.28036039E+01   # stau_1 decays
#          BR         NDA      ID1       ID2
     2.55197489E-01    2     1000022        15   # BR(~tau_1 -> ~chi_10  tau-)
     4.17598909E-04    2     1000023        15   # BR(~tau_1 -> ~chi_20  tau-)
     2.23092116E-01    2     1000025        15   # BR(~tau_1 -> ~chi_30  tau-)
     1.70939327E-01    2     1000035        15   # BR(~tau_1 -> ~chi_40  tau-)
     6.70160195E-03    2    -1000024        16   # BR(~tau_1 -> ~chi_1-  nu_tau)
     3.43494168E-01    2    -1000037        16   # BR(~tau_1 -> ~chi_2-  nu_tau)
     1.57699340E-04    2     1000039        15   # BR(~tau_1 -> ~G       tau-)
#
#         PDG            Width
DECAY   2000015     2.27851189E+01   # stau_2 decays
#          BR         NDA      ID1       ID2
     2.42579310E-01    2     1000022        15   # BR(~tau_2 -> ~chi_10  tau-)
     5.63208367E-04    2     1000023        15   # BR(~tau_2 -> ~chi_20  tau-)
     2.29832900E-01    2     1000025        15   # BR(~tau_2 -> ~chi_30  tau-)
     1.74650039E-01    2     1000035        15   # BR(~tau_2 -> ~chi_40  tau-)
     1.45444142E-03    2    -1000024        16   # BR(~tau_2 -> ~chi_1-  nu_tau)
     3.50920102E-01    2    -1000037        16   # BR(~tau_2 -> ~chi_2-  nu_tau)
#
#         PDG            Width
DECAY   1000012     2.83011731E+01   # snu_eL decays
#          BR         NDA      ID1       ID2
     1.06409603E-01    2     1000022        12   # BR(~nu_eL -> ~chi_10 nu_e)
     8.72541824E-06    2     1000023        12   # BR(~nu_eL -> ~chi_20 nu_e)
     4.75937205E-02    2     1000025        12   # BR(~nu_eL -> ~chi_30 nu_e)
     2.80607152E-01    2     1000035        12   # BR(~nu_eL -> ~chi_40 nu_e)
     6.73552341E-03    2     1000024        11   # BR(~nu_eL -> ~chi_1+ e-)
     5.58645275E-01    2     1000037        11   # BR(~nu_eL -> ~chi_2+ e-)
#
#         PDG            Width
DECAY   1000014     2.83011731E+01   # snu_muL decays
#          BR         NDA      ID1       ID2
     1.06409603E-01    2     1000022        14   # BR(~nu_muL -> ~chi_10 nu_mu)
     8.72541824E-06    2     1000023        14   # BR(~nu_muL -> ~chi_20 nu_mu)
     4.75937205E-02    2     1000025        14   # BR(~nu_muL -> ~chi_30 nu_mu)
     2.80607152E-01    2     1000035        14   # BR(~nu_muL -> ~chi_40 nu_mu)
     6.73552341E-03    2     1000024        13   # BR(~nu_muL -> ~chi_1+ mu-)
     5.58645275E-01    2     1000037        13   # BR(~nu_muL -> ~chi_2+ mu-)
#
#         PDG            Width
DECAY   1000016     2.83233976E+01   # snu_tauL decays
#          BR         NDA      ID1       ID2
     1.06326107E-01    2     1000022        16   # BR(~nu_tauL -> ~chi_10 nu_tau)
     8.71857170E-06    2     1000023        16   # BR(~nu_tauL -> ~chi_20 nu_tau)
     4.75563753E-02    2     1000025        16   # BR(~nu_tauL -> ~chi_30 nu_tau)
     2.80386969E-01    2     1000035        16   # BR(~nu_tauL -> ~chi_40 nu_tau)
     7.51078323E-03    2     1000024        15   # BR(~nu_tauL -> ~chi_1+ tau-)
     5.58211047E-01    2     1000037        15   # BR(~nu_tauL -> ~chi_2+ tau-)
#
#         PDG            Width
DECAY   1000024     1.71874040E-04   # chargino1+ decays
#          BR         NDA      ID1       ID2
     1.19465919E-01    2     1000039        24   # BR(~chi_1+ -> ~G       W+)
     3.32335788E-07    2     1000039        37   # BR(~chi_1+ -> ~G       H+)
#           BR         NDA      ID1       ID2       ID3
     2.94162537E-01    3     1000022         2        -1   # BR(~chi_1+ -> ~chi_10 u    db)
     2.92883642E-01    3     1000022         4        -3   # BR(~chi_1+ -> ~chi_10 c    sb)
     9.80542860E-02    3     1000022       -11        12   # BR(~chi_1+ -> ~chi_10 e+   nu_e)
     9.80518912E-02    3     1000022       -13        14   # BR(~chi_1+ -> ~chi_10 mu+  nu_mu)
     9.73813932E-02    3     1000022       -15        16   # BR(~chi_1+ -> ~chi_10 tau+ nu_tau)
#
#         PDG            Width
DECAY   1000037     3.29609726E+01   # chargino2+ decays
#          BR         NDA      ID1       ID2
     2.54399800E-01    2     1000024        23   # BR(~chi_2+ -> ~chi_1+  Z )
     1.04212001E-01    2     1000022        24   # BR(~chi_2+ -> ~chi_10  W+)
     2.46007583E-01    2     1000023        24   # BR(~chi_2+ -> ~chi_20  W+)
     1.43950844E-01    2     1000025        24   # BR(~chi_2+ -> ~chi_30  W+)
     2.51421243E-01    2     1000024        25   # BR(~chi_2+ -> ~chi_1+  h )
     8.52679048E-06    2     1000039        24   # BR(~chi_2+ -> ~G       W+)
     2.61658155E-09    2     1000039        37   # BR(~chi_2+ -> ~G       H+)
#
#         PDG            Width
DECAY   1000022    1.0E-05    # neutralino1 decays
#          BR         NDA      ID1       ID2
     4.95301109E-01    2     1000039        22   # BR(~chi_10 -> ~G        gam)
     4.94084129E-01    2     1000039        23   # BR(~chi_10 -> ~G        Z)
     1.06147615E-02    2     1000039        25   # BR(~chi_10 -> ~G        h)
#
#         PDG            Width
DECAY   1000023     2.52109786E-04   # neutralino2 decays
#          BR         NDA      ID1       ID2
     2.24892831E-04    2     1000022        22   # BR(~chi_20 -> ~chi_10 gam)
#          BR         NDA      ID1       ID2
     2.08930865E-08    2     1000039        22   # BR(~chi_20 -> ~G        gam)
     3.15973096E-03    2     1000039        23   # BR(~chi_20 -> ~G        Z)
     7.83951290E-02    2     1000039        25   # BR(~chi_20 -> ~G        h)
     1.21296078E-08    2     1000039        35   # BR(~chi_20 -> ~G        H)
     4.30763964E-07    2     1000039        36   # BR(~chi_20 -> ~G        A)
#           BR         NDA      ID1       ID2       ID3
     1.08760197E-01    3     1000022        -2         2   # BR(~chi_20 -> ~chi_10 ub      u)
     1.40839464E-01    3     1000022        -1         1   # BR(~chi_20 -> ~chi_10 db      d)
     1.08147385E-01    3     1000022        -4         4   # BR(~chi_20 -> ~chi_10 cb      c)
     1.40823401E-01    3     1000022        -3         3   # BR(~chi_20 -> ~chi_10 sb      s)
     1.30586035E-01    3     1000022        -5         5   # BR(~chi_20 -> ~chi_10 bb      b)
     3.21707558E-02    3     1000022       -11        11   # BR(~chi_20 -> ~chi_10 e+      e-)
     3.21697757E-02    3     1000022       -13        13   # BR(~chi_20 -> ~chi_10 mu+     mu-)
     3.18943705E-02    3     1000022       -15        15   # BR(~chi_20 -> ~chi_10 tau+    tau-)
     6.42502662E-02    3     1000022       -12        12   # BR(~chi_20 -> ~chi_10 nu_eb   nu_e)
     6.42502662E-02    3     1000022       -14        14   # BR(~chi_20 -> ~chi_10 nu_mub  nu_mu)
     6.42502662E-02    3     1000022       -16        16   # BR(~chi_20 -> ~chi_10 nu_taub nu_tau)
     1.44833120E-05    3     1000024        -2         1   # BR(~chi_20 -> ~chi_1+ ub      d)
     1.44833120E-05    3    -1000024        -1         2   # BR(~chi_20 -> ~chi_1- db      u)
     1.13666353E-05    3     1000024        -4         3   # BR(~chi_20 -> ~chi_1+ cb      s)
     1.13666353E-05    3    -1000024        -3         4   # BR(~chi_20 -> ~chi_1- sb      c)
     4.82777107E-06    3     1000024       -12        11   # BR(~chi_20 -> ~chi_1+ nu_eb   e-)
     4.82777107E-06    3    -1000024        12       -11   # BR(~chi_20 -> ~chi_1- nu_e    e+)
     4.82100471E-06    3     1000024       -14        13   # BR(~chi_20 -> ~chi_1+ nu_mub  mu-)
     4.82100471E-06    3    -1000024        14       -13   # BR(~chi_20 -> ~chi_1- nu_mu   mu+)
     3.30185495E-06    3     1000024       -16        15   # BR(~chi_20 -> ~chi_1+ nu_taub tau-)
     3.30185495E-06    3    -1000024        16       -15   # BR(~chi_20 -> ~chi_1- nu_tau  tau+)
#
#         PDG            Width
DECAY   1000025     1.92180102E-04   # neutralino3 decays
#          BR         NDA      ID1       ID2
     4.31761503E-04    2     1000022        22   # BR(~chi_30 -> ~chi_10 gam)
     4.60949021E-06    2     1000023        22   # BR(~chi_30 -> ~chi_20 gam)
#          BR         NDA      ID1       ID2
     9.00932734E-02    2     1000039        22   # BR(~chi_30 -> ~G        gam)
     7.85733066E-02    2     1000039        23   # BR(~chi_30 -> ~G        Z)
     2.39514523E-03    2     1000039        25   # BR(~chi_30 -> ~G        h)
     1.92205578E-06    2     1000039        35   # BR(~chi_30 -> ~G        H)
     9.16165028E-08    2     1000039        36   # BR(~chi_30 -> ~G        A)
#           BR         NDA      ID1       ID2       ID3
     1.85672179E-05    3     1000022        -2         2   # BR(~chi_30 -> ~chi_10 ub      u)
     2.23021173E-05    3     1000022        -1         1   # BR(~chi_30 -> ~chi_10 db      d)
     3.50087068E-05    3     1000022        -4         4   # BR(~chi_30 -> ~chi_10 cb      c)
     2.26096366E-05    3     1000022        -3         3   # BR(~chi_30 -> ~chi_10 sb      s)
     8.11043731E-05    3     1000022        -5         5   # BR(~chi_30 -> ~chi_10 bb      b)
     3.96842679E-06    3     1000022       -11        11   # BR(~chi_30 -> ~chi_10 e+      e-)
     3.96838147E-06    3     1000022       -13        13   # BR(~chi_30 -> ~chi_10 mu+     mu-)
     1.29142967E-05    3     1000022       -15        15   # BR(~chi_30 -> ~chi_10 tau+    tau-)
     1.08083226E-05    3     1000022       -12        12   # BR(~chi_30 -> ~chi_10 nu_eb   nu_e)
     1.08083226E-05    3     1000022       -14        14   # BR(~chi_30 -> ~chi_10 nu_mub  nu_mu)
     1.08083226E-05    3     1000022       -16        16   # BR(~chi_30 -> ~chi_10 nu_taub nu_tau)
     1.37184473E-02    3     1000023        -2         2   # BR(~chi_30 -> ~chi_20 ub      u)
     1.77647765E-02    3     1000023        -1         1   # BR(~chi_30 -> ~chi_20 db      d)
     1.35489884E-02    3     1000023        -4         4   # BR(~chi_30 -> ~chi_20 cb      c)
     1.77598479E-02    3     1000023        -3         3   # BR(~chi_30 -> ~chi_20 sb      s)
     1.47163323E-02    3     1000023        -5         5   # BR(~chi_30 -> ~chi_20 bb      b)
     4.05785940E-03    3     1000023       -11        11   # BR(~chi_30 -> ~chi_20 e+      e-)
     4.05760837E-03    3     1000023       -13        13   # BR(~chi_30 -> ~chi_20 mu+     mu-)
     3.98650273E-03    3     1000023       -15        15   # BR(~chi_30 -> ~chi_20 tau+    tau-)
     8.10417427E-03    3     1000023       -12        12   # BR(~chi_30 -> ~chi_20 nu_eb   nu_e)
     8.10417427E-03    3     1000023       -14        14   # BR(~chi_30 -> ~chi_20 nu_mub  nu_mu)
     8.10417427E-03    3     1000023       -16        16   # BR(~chi_30 -> ~chi_20 nu_taub nu_tau)
     1.19437981E-01    3     1000024        -2         1   # BR(~chi_30 -> ~chi_1+ ub      d)
     1.19437981E-01    3    -1000024        -1         2   # BR(~chi_30 -> ~chi_1- db      u)
     1.18690532E-01    3     1000024        -4         3   # BR(~chi_30 -> ~chi_1+ cb      s)
     1.18690532E-01    3    -1000024        -3         4   # BR(~chi_30 -> ~chi_1- sb      c)
     3.98126046E-02    3     1000024       -12        11   # BR(~chi_30 -> ~chi_1+ nu_eb   e-)
     3.98126046E-02    3    -1000024        12       -11   # BR(~chi_30 -> ~chi_1- nu_e    e+)
     3.98112024E-02    3     1000024       -14        13   # BR(~chi_30 -> ~chi_1+ nu_mub  mu-)
     3.98112024E-02    3    -1000024        14       -13   # BR(~chi_30 -> ~chi_1- nu_mu   mu+)
     3.94197483E-02    3     1000024       -16        15   # BR(~chi_30 -> ~chi_1+ nu_taub tau-)
     3.94197483E-02    3    -1000024        16       -15   # BR(~chi_30 -> ~chi_1- nu_tau  tau+)
#
#         PDG            Width
DECAY   1000035     3.29592800E+01   # neutralino4 decays
#          BR         NDA      ID1       ID2
     1.65677291E-04    2     1000022        23   # BR(~chi_40 -> ~chi_10   Z )
     2.52632397E-01    2     1000023        23   # BR(~chi_40 -> ~chi_20   Z )
     2.00070516E-04    2     1000025        23   # BR(~chi_40 -> ~chi_30   Z )
     2.47386931E-01    2     1000024       -24   # BR(~chi_40 -> ~chi_1+   W-)
     2.47386931E-01    2    -1000024        24   # BR(~chi_40 -> ~chi_1-   W+)
     1.05730722E-01    2     1000022        25   # BR(~chi_40 -> ~chi_10   h )
     3.51608567E-04    2     1000023        25   # BR(~chi_40 -> ~chi_20   h )
     1.46137134E-01    2     1000025        25   # BR(~chi_40 -> ~chi_30   h )
     2.02337184E-06    2     1000039        22   # BR(~chi_40 -> ~G        gam)
     6.50204978E-06    2     1000039        23   # BR(~chi_40 -> ~G        Z)
     1.49120389E-09    2     1000039        25   # BR(~chi_40 -> ~G        h)
     2.54162354E-09    2     1000039        35   # BR(~chi_40 -> ~G        H)
     6.86630575E-11    2     1000039        36   # BR(~chi_40 -> ~G        A)
#
#         PDG            Width
DECAY        25     4.08904000E-03   # h decays
#          BR         NDA      ID1       ID2
     6.18111467E-01    2           5        -5   # BR(h -> b       bb     )
     6.36952026E-02    2         -15        15   # BR(h -> tau+    tau-   )
     2.25457558E-04    2         -13        13   # BR(h -> mu+     mu-    )
     4.77765070E-04    2           3        -3   # BR(h -> s       sb     )
     2.06123299E-02    2           4        -4   # BR(h -> c       cb     )
     6.69270005E-02    2          21        21   # BR(h -> g       g      )
     2.30096509E-03    2          22        22   # BR(h -> gam     gam    )
     1.53630261E-03    2          22        23   # BR(h -> Z       gam    )
     2.00517367E-01    2          24       -24   # BR(h -> W+      W-     )
     2.55961432E-02    2          23        23   # BR(h -> Z       Z      )
#
#         PDG            Width
DECAY        35     3.78087020E+01   # H decays
#          BR         NDA      ID1       ID2
     1.46467746E-03    2           5        -5   # BR(H -> b       bb     )
     2.46436219E-04    2         -15        15   # BR(H -> tau+    tau-   )
     8.71243783E-07    2         -13        13   # BR(H -> mu+     mu-    )
     1.11551215E-06    2           3        -3   # BR(H -> s       sb     )
     1.00669278E-05    2           4        -4   # BR(H -> c       cb     )
     9.96075361E-01    2           6        -6   # BR(H -> t       tb     )
     7.97648301E-04    2          21        21   # BR(H -> g       g      )
     2.71681867E-06    2          22        22   # BR(H -> gam     gam    )
     1.16040004E-06    2          23        22   # BR(H -> Z       gam    )
     3.32853439E-04    2          24       -24   # BR(H -> W+      W-     )
     1.65972820E-04    2          23        23   # BR(H -> Z       Z      )
     9.01119408E-04    2          25        25   # BR(H -> h       h      )
     7.17144236E-24    2          36        36   # BR(H -> A       A      )
     2.88318513E-11    2          23        36   # BR(H -> Z       A      )
     6.36208829E-12    2          24       -37   # BR(H -> W+      H-     )
     6.36208829E-12    2         -24        37   # BR(H -> W-      H+     )
#
#         PDG            Width
DECAY        36     3.82379217E+01   # A decays
#          BR         NDA      ID1       ID2
     1.46758753E-03    2           5        -5   # BR(A -> b       bb     )
     2.43899668E-04    2         -15        15   # BR(A -> tau+    tau-   )
     8.62273433E-07    2         -13        13   # BR(A -> mu+     mu-    )
     1.13678303E-06    2           3        -3   # BR(A -> s       sb     )
     9.96184437E-06    2           4        -4   # BR(A -> c       cb     )
     9.97003952E-01    2           6        -6   # BR(A -> t       tb     )
     9.43683182E-04    2          21        21   # BR(A -> g       g      )
     3.13337234E-06    2          22        22   # BR(A -> gam     gam    )
     1.35298815E-06    2          23        22   # BR(A -> Z       gam    )
     3.24429910E-04    2          23        25   # BR(A -> Z       h      )
#
#         PDG            Width
DECAY        37     3.74470821E+01   # H+ decays
#          BR         NDA      ID1       ID2
     2.34997773E-06    2           4        -5   # BR(H+ -> c       bb     )
     2.49240025E-04    2         -15        16   # BR(H+ -> tau+    nu_tau )
     8.81153522E-07    2         -13        14   # BR(H+ -> mu+     nu_mu  )
     1.49399706E-08    2           2        -5   # BR(H+ -> u       bb     )
     5.45699186E-08    2           2        -3   # BR(H+ -> u       sb     )
     1.08732632E-05    2           4        -3   # BR(H+ -> c       sb     )
     9.99404078E-01    2           6        -5   # BR(H+ -> t       bb     )
     3.32508441E-04    2          24        25   # BR(H+ -> W+      h      )
     2.86413722E-13    2          24        36   # BR(H+ -> W+      A      )
