#
#                              ======================
#                              | THE SUSYHIT OUTPUT |
#                              ======================
#
#
#              ------------------------------------------------------
#              |     This is the output of the SUSY-HIT package     |
#              |  created by A.Djouadi, M.Muehlleitner and M.Spira. |
#              |  In case of problems with SUSY-HIT email to        |
#              |           margarete.muehlleitner@kit.edu           |
#              |           michael.spira@psi.ch                     |
#              |           abdelhak.djouadi@cern.ch                 |
#              ------------------------------------------------------
#
#              ------------------------------------------------------
#              |  SUSY Les Houches Accord - MSSM Spectrum + Decays  |
#              |              based on the decay programs           |
#              |                                                    |
#              |                     SDECAY 1.5                     |
#              |                                                    |
#              |  Authors: M.Muhlleitner, A.Djouadi and Y.Mambrini  |
#              |  Ref.:    Comput.Phys.Commun.168(2005)46           |
#              |           [hep-ph/0311167]                         |
#              |                                                    |
#              |                     HDECAY 3.4                     |
#              |                                                    |
#              |  By: A.Djouadi,J.Kalinowski,M.Muhlleitner,M.Spira  |
#              |  Ref.:    Comput.Phys.Commun.108(1998)56           |
#              |           [hep-ph/9704448]                         |
#              |                                                    |
#              |                                                    |
#              |  If not stated otherwise all DRbar couplings and   |
#              |  soft SUSY breaking masses are given at the scale  |
#              |  Q=  0.91187600E+02
#              |                                                    |
#              ------------------------------------------------------
#
#
BLOCK DCINFO  # Decay Program information
     1   SDECAY/HDECAY # decay calculator
     2   1.5  /3.4    # version number
#
BLOCK SPINFO  # Spectrum calculator information
     1   SuSpect     # RGE +Spectrum calculator            
     2   2.43         # version number                     
#
BLOCK MODSEL  # Model selection
     1     2   # GMSB                                              
#
BLOCK SMINPUTS  # Standard Model inputs
         1     1.27932904E+02   # alpha_em^-1(M_Z)^MSbar
         2     1.16639000E-05   # G_F [GeV^-2]
         3     1.17200000E-01   # alpha_S(M_Z)^MSbar
         4     9.11870000E+01   # M_Z pole mass
         5     4.25000000E+00   # mb(mb)^MSbar
         6     1.72900000E+02   # mt pole mass
         7     1.77700000E+00   # mtau pole mass
#
BLOCK MINPAR  # Input parameters - minimal models
#
BLOCK EXTPAR  # Input parameters - non-minimal models
         0     9.11876000E+01   # EWSB                
         1     1.05200000E+03   # M_1                 
         2     3.00000000E+03   # M_2                 
         3     1.50000000E+03   # M_3                 
        11     0.00000000E+00   # A_t                 
        12     0.00000000E+00   # A_b                 
        13     0.00000000E+00   # A_tau               
        14     0.00000000E+00   # A_u                 
        15     0.00000000E+00   # A_d                 
        16     0.00000000E+00   # A_e                 
        23     1.05000000E+03   # mu(EWSB)            
        25     1.50000000E+00   # tanbeta(in)         
        26     2.00000000E+03   # MA_pole             
        31     5.00000000E+03   # M_eL                
        32     5.00000000E+03   # M_muL               
        33     5.00000000E+03   # M_tauL              
        34     5.00000000E+03   # M_eR                
        35     5.00000000E+03   # M_muR               
        36     5.00000000E+03   # M_tauR              
        41     5.00000000E+03   # M_q1L               
        42     5.00000000E+03   # M_q2L               
        43     5.00000000E+03   # M_q3L               
        44     5.00000000E+03   # M_uR                
        45     5.00000000E+03   # M_cR                
        46     5.00000000E+03   # M_tR                
        47     5.00000000E+03   # M_dR                
        48     5.00000000E+03   # M_sR                
        49     5.00000000E+03   # M_bR                
#
BLOCK MASS  # Mass Spectrum
# PDG code           mass       particle
        24     8.05405932E+01   # W+
        25     1.26000000E+02   # h
        35     2.00408569E+03   # H
        36     2.00000000E+03   # A
        37     2.00156062E+03   # H+
         5     4.87877839E+00   # b-quark pole mass calculated from mb(mb)_Msbar
   1000001     4.98868330E+03   # ~d_L
   2000001     4.98857376E+03   # ~d_R
   1000002     4.98843840E+03   # ~u_L
   2000002     4.98849631E+03   # ~u_R
   1000003     4.98868330E+03   # ~s_L
   2000003     4.98857376E+03   # ~s_R
   1000004     4.98843840E+03   # ~c_L
   2000004     4.98849631E+03   # ~c_R
   1000005     4.98819469E+03   # ~b_1
   2000005     4.98906380E+03   # ~b_2
   1000006     5.11202496E+03   # ~t_1
   2000006     5.40817815E+03   # ~t_2
   1000011     5.00008223E+03   # ~e_L
   2000011     5.00007607E+03   # ~e_R
   1000012     4.99984170E+03   # ~nu_eL
   1000013     5.00008223E+03   # ~mu_L
   2000013     5.00007607E+03   # ~mu_R
   1000014     4.99984170E+03   # ~nu_muL
   1000015     4.99979938E+03   # ~tau_1
   2000015     5.00035953E+03   # ~tau_2
   1000016     4.99984170E+03   # ~nu_tauL
   1000021     1.61386415E+03   # ~g
   1000022     1.07292803E+03   # ~chi_10
   1000023    -1.12043383E+03   # ~chi_20
   1000025     1.16009054E+03   # ~chi_30
   1000035     3.12881458E+03   # ~chi_40
   1000024     1.11740577E+03   # ~chi_1+
   1000037     3.12881324E+03   # ~chi_2+
   1000039     1.18590909E-07   # ~gravitino
#
BLOCK NMIX  # Neutralino Mixing Matrix
  1  1     7.13883020E-01   # N_11
  1  2    -2.64100087E-02   # N_12
  1  3     4.96944590E-01   # N_13
  1  4    -4.92665829E-01   # N_14
  2  1     3.90433285E-03   # N_21
  2  2    -3.65604910E-03   # N_22
  2  3    -7.06953459E-01   # N_23
  2  4    -7.07239843E-01   # N_24
  3  1     7.00253571E-01   # N_31
  3  2     2.81600645E-02   # N_32
  3  3    -5.02645163E-01   # N_33
  3  4     5.06161819E-01   # N_34
  4  1     8.51895291E-04   # N_41
  4  2    -9.99247795E-01   # N_42
  4  3    -2.47127637E-02   # N_43
  4  4     2.98730326E-02   # N_44
#
BLOCK UMIX  # Chargino Mixing Matrix U
  1  1    -3.49309543E-02   # U_11
  1  2     9.99389728E-01   # U_12
  2  1     9.99389728E-01   # U_21
  2  2     3.49309543E-02   # U_22
#
BLOCK VMIX  # Chargino Mixing Matrix V
  1  1    -4.22303323E-02   # V_11
  1  2     9.99107902E-01   # V_12
  2  1     9.99107902E-01   # V_21
  2  2     4.22303323E-02   # V_22
#
BLOCK STOPMIX  # Stop Mixing Matrix
  1  1     9.99999624E-01   # cos(theta_t)
  1  2     8.67179254E-04   # sin(theta_t)
  2  1    -8.67179254E-04   # -sin(theta_t)
  2  2     9.99999624E-01   # cos(theta_t)
#
BLOCK SBOTMIX  # Sbottom Mixing Matrix
  1  1     6.61046932E-01   # cos(theta_b)
  1  2     7.50344557E-01   # sin(theta_b)
  2  1    -7.50344557E-01   # -sin(theta_b)
  2  2     6.61046932E-01   # cos(theta_b)
#
BLOCK STAUMIX  # Stau Mixing Matrix
  1  1     7.03207502E-01   # cos(theta_tau)
  1  2     7.10984676E-01   # sin(theta_tau)
  2  1    -7.10984676E-01   # -sin(theta_tau)
  2  2     7.03207502E-01   # cos(theta_tau)
#
BLOCK ALPHA  # Higgs mixing
          -5.90204629E-01   # Mixing angle in the neutral Higgs boson sector
#
BLOCK HMIX Q=  9.11876000E+01  # DRbar Higgs Parameters
         1     1.05000000E+03   # mu(Q)               
         2     1.49999979E+00   # tanbeta(Q)          
         3     2.52098374E+02   # vev(Q)              
         4     3.51645206E+06   # MA^2(Q)             
#
BLOCK GAUGE Q=  9.11876000E+01  # The gauge couplings
     1     3.52813987E-01   # gprime(Q) DRbar
     2     6.27372639E-01   # g(Q) DRbar
     3     1.08507293E+00   # g3(Q) DRbar
#
BLOCK AU Q=  9.11876000E+01  # The trilinear couplings
  1  1     0.00000000E+00   # A_u(Q) DRbar
  2  2     0.00000000E+00   # A_c(Q) DRbar
  3  3     0.00000000E+00   # A_t(Q) DRbar
#
BLOCK AD Q=  9.11876000E+01  # The trilinear couplings
  1  1     0.00000000E+00   # A_d(Q) DRbar
  2  2     0.00000000E+00   # A_s(Q) DRbar
  3  3     0.00000000E+00   # A_b(Q) DRbar
#
BLOCK AE Q=  9.11876000E+01  # The trilinear couplings
  1  1     0.00000000E+00   # A_e(Q) DRbar
  2  2     0.00000000E+00   # A_mu(Q) DRbar
  3  3     0.00000000E+00   # A_tau(Q) DRbar
#
BLOCK Yu Q=  9.11876000E+01  # The Yukawa couplings
  1  1     0.00000000E+00   # y_u(Q) DRbar
  2  2     0.00000000E+00   # y_c(Q) DRbar
  3  3     1.02557036E+00   # y_t(Q) DRbar
#
BLOCK Yd Q=  9.11876000E+01  # The Yukawa couplings
  1  1     0.00000000E+00   # y_d(Q) DRbar
  2  2     0.00000000E+00   # y_s(Q) DRbar
  3  3     2.71868649E-02   # y_b(Q) DRbar
#
BLOCK Ye Q=  9.11876000E+01  # The Yukawa couplings
  1  1     0.00000000E+00   # y_e(Q) DRbar
  2  2     0.00000000E+00   # y_mu(Q) DRbar
  3  3     1.79828184E-02   # y_tau(Q) DRbar
#
BLOCK MSOFT Q=  9.11876000E+01  # The soft SUSY breaking masses at the scale Q
         1     1.05200000E+03   # M_1                 
         2     3.00000000E+03   # M_2                 
         3     1.50000000E+03   # M_3                 
        14     0.00000000E+00   # A_u                 
        15     0.00000000E+00   # A_d                 
        16     0.00000000E+00   # A_e                 
        21     1.81549431E+06   # M^2_Hd              
        22    -6.48924605E+06   # M^2_Hu              
        31     5.00000000E+03   # M_eL                
        32     5.00000000E+03   # M_muL               
        33     5.00000000E+03   # M_tauL              
        34     5.00000000E+03   # M_eR                
        35     5.00000000E+03   # M_muR               
        36     5.00000000E+03   # M_tauR              
        41     5.00000000E+03   # M_q1L               
        42     5.00000000E+03   # M_q2L               
        43     5.00000000E+03   # M_q3L               
        44     5.00000000E+03   # M_uR                
        45     5.00000000E+03   # M_cR                
        46     5.00000000E+03   # M_tR                
        47     5.00000000E+03   # M_dR                
        48     5.00000000E+03   # M_sR                
        49     5.00000000E+03   # M_bR                
#
#
#
#                             =================
#                             |The decay table|
#                             =================
#
# - The QCD corrections to the decays gluino -> squark  + quark
#                                     squark -> gaugino + quark_prime
#                                     squark -> squark_prime + Higgs
#                                     squark -> gluino  + quark
#   are included.
#
# - The multi-body decays for the inos, stops and sbottoms are included.
#
# - The loop induced decays for the gluino, neutralinos and stops
#   are included.
#
# - The SUSY decays of the top quark are included.
#
# - Possible decays of the NLSP in GMSB models are included.
#
#
#         PDG            Width
DECAY         6     1.37136910E+00   # top decays
#          BR         NDA      ID1       ID2
     1.00000000E+00    2           5        24   # BR(t ->  b    W+)
#
#         PDG            Width
DECAY   1000021     1.78337706E-05   # gluino decays
#          BR         NDA      ID1       ID2
     6.93017839E-02    2     1000022        21   # BR(~g -> ~chi_10 g)
     1.14159829E-01    2     1000023        21   # BR(~g -> ~chi_20 g)
     4.68318271E-02    2     1000025        21   # BR(~g -> ~chi_30 g)
#          BR         NDA      ID1       ID2
     5.02545405E-05    2     1000039        21   # BR(~g -> ~G      g)
#           BR         NDA      ID1       ID2       ID3
     1.24347160E-02    3     1000022         1        -1   # BR(~g -> ~chi_10 d  db)
     6.39227402E-07    3     1000023         1        -1   # BR(~g -> ~chi_20 d  db)
     4.74028177E-03    3     1000025         1        -1   # BR(~g -> ~chi_30 d  db)
     3.80933219E-02    3     1000022         2        -2   # BR(~g -> ~chi_10 u  ub)
     5.11592143E-07    3     1000023         2        -2   # BR(~g -> ~chi_20 u  ub)
     1.79433173E-02    3     1000025         2        -2   # BR(~g -> ~chi_30 u  ub)
     1.24347160E-02    3     1000022         3        -3   # BR(~g -> ~chi_10 s  sb)
     6.39227402E-07    3     1000023         3        -3   # BR(~g -> ~chi_20 s  sb)
     4.74028177E-03    3     1000025         3        -3   # BR(~g -> ~chi_30 s  sb)
     3.80933219E-02    3     1000022         4        -4   # BR(~g -> ~chi_10 c  cb)
     5.11592143E-07    3     1000023         4        -4   # BR(~g -> ~chi_20 c  cb)
     1.79433173E-02    3     1000025         4        -4   # BR(~g -> ~chi_30 c  cb)
     1.25487102E-02    3     1000022         5        -5   # BR(~g -> ~chi_10 b  bb)
     3.27169796E-04    3     1000023         5        -5   # BR(~g -> ~chi_20 b  bb)
     4.90461808E-03    3     1000025         5        -5   # BR(~g -> ~chi_30 b  bb)
     8.00771412E-02    3     1000022         6        -6   # BR(~g -> ~chi_10 t  tb)
     5.34087590E-02    3     1000023         6        -6   # BR(~g -> ~chi_20 t  tb)
     3.31573353E-02    3     1000025         6        -6   # BR(~g -> ~chi_30 t  tb)
     2.63759588E-04    3     1000024         1        -2   # BR(~g -> ~chi_1+ d  ub)
     2.63759588E-04    3    -1000024         2        -1   # BR(~g -> ~chi_1- u  db)
     2.63759588E-04    3     1000024         3        -4   # BR(~g -> ~chi_1+ s  cb)
     2.63759588E-04    3    -1000024         4        -3   # BR(~g -> ~chi_1- c  sb)
     2.18875979E-01    3     1000024         5        -6   # BR(~g -> ~chi_1+ b  tb)
     2.18875979E-01    3    -1000024         6        -5   # BR(~g -> ~chi_1- t  bb)
#
#         PDG            Width
DECAY   1000006     3.08716551E+02   # stop1 decays
#          BR         NDA      ID1       ID2
     5.24716762E-02    2     1000022         6   # BR(~t_1 -> ~chi_10 t )
     1.07709544E-01    2     1000023         6   # BR(~t_1 -> ~chi_20 t )
     5.70485757E-02    2     1000025         6   # BR(~t_1 -> ~chi_30 t )
     2.47424282E-02    2     1000035         6   # BR(~t_1 -> ~chi_40 t )
     2.72661580E-05    2     1000024         5   # BR(~t_1 -> ~chi_1+ b )
     4.91821647E-02    2     1000037         5   # BR(~t_1 -> ~chi_2+ b )
     6.95269348E-01    2     1000021         6   # BR(~t_1 -> ~g      t )
     6.04259394E-03    2     1000005        24   # BR(~t_1 -> ~b_1    W+)
     7.50640360E-03    2     2000005        24   # BR(~t_1 -> ~b_2    W+)
#
#         PDG            Width
DECAY   2000006     3.82913391E+02   # stop2 decays
#          BR         NDA      ID1       ID2
     6.01082153E-02    2     1000022         6   # BR(~t_2 -> ~chi_10 t )
     9.33167132E-02    2     1000023         6   # BR(~t_2 -> ~chi_20 t )
     6.05056050E-02    2     1000025         6   # BR(~t_2 -> ~chi_30 t )
     1.10660258E-05    2     1000035         6   # BR(~t_2 -> ~chi_40 t )
     1.86930330E-01    2     1000024         5   # BR(~t_2 -> ~chi_1+ b )
     2.26970812E-05    2     1000037         5   # BR(~t_2 -> ~chi_2+ b )
     5.99161328E-01    2     1000021         6   # BR(~t_2 -> ~g      t )
    -5.75160023E-05    2     1000006        25   # BR(~t_2 -> ~t_1    h )
     1.62395390E-07    2     1000006        23   # BR(~t_2 -> ~t_1    Z )
     6.15751165E-07    2     1000005        24   # BR(~t_2 -> ~b_1    W+)
     7.83176913E-07    2     2000005        24   # BR(~t_2 -> ~b_2    W+)
#
#         PDG            Width
DECAY   1000005     2.44113598E+02   # sbottom1 decays
#          BR         NDA      ID1       ID2
     4.55951579E-03    2     1000022         5   # BR(~b_1 -> ~chi_10 b )
     7.95145888E-05    2     1000023         5   # BR(~b_1 -> ~chi_20 b )
     2.54353631E-03    2     1000025         5   # BR(~b_1 -> ~chi_30 b )
     1.13784781E-02    2     1000035         5   # BR(~b_1 -> ~chi_40 b )
     1.02156943E-01    2    -1000024         6   # BR(~b_1 -> ~chi_1- t )
     2.28951611E-02    2    -1000037         6   # BR(~b_1 -> ~chi_2- t )
     8.56386851E-01    2     1000021         5   # BR(~b_1 -> ~g      b )
#
#         PDG            Width
DECAY   2000005     2.62603184E+02   # sbottom2 decays
#          BR         NDA      ID1       ID2
     2.20730836E-03    2     1000022         5   # BR(~b_2 -> ~chi_10 b )
     1.01679686E-04    2     1000023         5   # BR(~b_2 -> ~chi_20 b )
     2.83783653E-03    2     1000025         5   # BR(~b_2 -> ~chi_30 b )
     1.59325337E-02    2     1000035         5   # BR(~b_2 -> ~chi_40 b )
     1.51075908E-01    2    -1000024         6   # BR(~b_2 -> ~chi_1- t )
     3.20658622E-02    2    -1000037         6   # BR(~b_2 -> ~chi_2- t )
     7.95778872E-01    2     1000021         5   # BR(~b_2 -> ~g      b )
#
#         PDG            Width
DECAY   1000002     2.30559125E+02   # sup_L decays
#          BR         NDA      ID1       ID2
     8.58768638E-04    2     1000022         2   # BR(~u_L -> ~chi_10 u)
     6.30904149E-07    2     1000023         2   # BR(~u_L -> ~chi_20 u)
     1.86105577E-03    2     1000025         2   # BR(~u_L -> ~chi_30 u)
     3.01687941E-02    2     1000035         2   # BR(~u_L -> ~chi_40 u)
     2.63323058E-04    2     1000024         1   # BR(~u_L -> ~chi_1+ d)
     6.03400463E-02    2     1000037         1   # BR(~u_L -> ~chi_2+ d)
     9.06507381E-01    2     1000021         2   # BR(~u_L -> ~g      u)
#
#         PDG            Width
DECAY   2000002     2.18578951E+02   # sup_R decays
#          BR         NDA      ID1       ID2
     2.24970937E-02    2     1000022         2   # BR(~u_R -> ~chi_10 u)
     6.67041846E-07    2     1000023         2   # BR(~u_R -> ~chi_20 u)
     2.12934554E-02    2     1000025         2   # BR(~u_R -> ~chi_30 u)
     1.30086645E-08    2     1000035         2   # BR(~u_R -> ~chi_40 u)
     9.56208771E-01    2     1000021         2   # BR(~u_R -> ~g      u)
#
#         PDG            Width
DECAY   1000001     2.30564189E+02   # sdown_L decays
#          BR         NDA      ID1       ID2
     1.91111338E-03    2     1000022         1   # BR(~d_L -> ~chi_10 d)
     1.42068887E-06    2     1000023         1   # BR(~d_L -> ~chi_20 d)
     7.78442741E-04    2     1000025         1   # BR(~d_L -> ~chi_30 d)
     3.01927164E-02    2     1000035         1   # BR(~d_L -> ~chi_40 d)
     1.80167806E-04    2    -1000024         2   # BR(~d_L -> ~chi_1- u)
     6.03833533E-02    2    -1000037         2   # BR(~d_L -> ~chi_2- u)
     9.06552786E-01    2     1000021         1   # BR(~d_L -> ~g      d)
#
#         PDG            Width
DECAY   2000001     2.11404877E+02   # sdown_R decays
#          BR         NDA      ID1       ID2
     5.81524270E-03    2     1000022         1   # BR(~d_R -> ~chi_10 d)
     1.72422775E-07    2     1000023         1   # BR(~d_R -> ~chi_20 d)
     5.50411885E-03    2     1000025         1   # BR(~d_R -> ~chi_30 d)
     3.36271559E-09    2     1000035         1   # BR(~d_R -> ~chi_40 d)
     9.88680463E-01    2     1000021         1   # BR(~d_R -> ~g      d)
#
#         PDG            Width
DECAY   1000004     2.30559125E+02   # scharm_L decays
#          BR         NDA      ID1       ID2
     8.58768638E-04    2     1000022         4   # BR(~c_L -> ~chi_10 c)
     6.30904149E-07    2     1000023         4   # BR(~c_L -> ~chi_20 c)
     1.86105577E-03    2     1000025         4   # BR(~c_L -> ~chi_30 c)
     3.01687941E-02    2     1000035         4   # BR(~c_L -> ~chi_40 c)
     2.63323058E-04    2     1000024         3   # BR(~c_L -> ~chi_1+ s)
     6.03400463E-02    2     1000037         3   # BR(~c_L -> ~chi_2+ s)
     9.06507381E-01    2     1000021         4   # BR(~c_L -> ~g      c)
#
#         PDG            Width
DECAY   2000004     2.18578951E+02   # scharm_R decays
#          BR         NDA      ID1       ID2
     2.24970937E-02    2     1000022         4   # BR(~c_R -> ~chi_10 c)
     6.67041846E-07    2     1000023         4   # BR(~c_R -> ~chi_20 c)
     2.12934554E-02    2     1000025         4   # BR(~c_R -> ~chi_30 c)
     1.30086645E-08    2     1000035         4   # BR(~c_R -> ~chi_40 c)
     9.56208771E-01    2     1000021         4   # BR(~c_R -> ~g      c)
#
#         PDG            Width
DECAY   1000003     2.30564189E+02   # sstrange_L decays
#          BR         NDA      ID1       ID2
     1.91111338E-03    2     1000022         3   # BR(~s_L -> ~chi_10 s)
     1.42068887E-06    2     1000023         3   # BR(~s_L -> ~chi_20 s)
     7.78442741E-04    2     1000025         3   # BR(~s_L -> ~chi_30 s)
     3.01927164E-02    2     1000035         3   # BR(~s_L -> ~chi_40 s)
     1.80167806E-04    2    -1000024         4   # BR(~s_L -> ~chi_1- c)
     6.03833533E-02    2    -1000037         4   # BR(~s_L -> ~chi_2- c)
     9.06552786E-01    2     1000021         3   # BR(~s_L -> ~g      s)
#
#         PDG            Width
DECAY   2000003     2.11404877E+02   # sstrange_R decays
#          BR         NDA      ID1       ID2
     5.81524270E-03    2     1000022         3   # BR(~s_R -> ~chi_10 s)
     1.72422775E-07    2     1000023         3   # BR(~s_R -> ~chi_20 s)
     5.50411885E-03    2     1000025         3   # BR(~s_R -> ~chi_30 s)
     3.36271559E-09    2     1000035         3   # BR(~s_R -> ~chi_40 s)
     9.88680463E-01    2     1000021         3   # BR(~s_R -> ~g      s)
#
#         PDG            Width
DECAY   1000011     2.73748256E+01   # selectron_L decays
#          BR         NDA      ID1       ID2
     9.15422200E-02    2     1000022        11   # BR(~e_L -> ~chi_10 e-)
     1.37581670E-06    2     1000023        11   # BR(~e_L -> ~chi_20 e-)
     1.13987506E-01    2     1000025        11   # BR(~e_L -> ~chi_30 e-)
     2.64078715E-01    2     1000035        11   # BR(~e_L -> ~chi_40 e-)
     1.57517224E-03    2    -1000024        12   # BR(~e_L -> ~chi_1- nu_e)
     5.28815010E-01    2    -1000037        12   # BR(~e_L -> ~chi_2- nu_e)
#
#         PDG            Width
DECAY   2000011     2.23567033E+01   # selectron_R decays
#          BR         NDA      ID1       ID2
     5.13724088E-01    2     1000022        11   # BR(~e_R -> ~chi_10 e-)
     1.52323310E-05    2     1000023        11   # BR(~e_R -> ~chi_20 e-)
     4.86260382E-01    2     1000025        11   # BR(~e_R -> ~chi_30 e-)
     2.97589832E-07    2     1000035        11   # BR(~e_R -> ~chi_40 e-)
#
#         PDG            Width
DECAY   1000013     2.73748256E+01   # smuon_L decays
#          BR         NDA      ID1       ID2
     9.15422200E-02    2     1000022        13   # BR(~mu_L -> ~chi_10 mu-)
     1.37581670E-06    2     1000023        13   # BR(~mu_L -> ~chi_20 mu-)
     1.13987506E-01    2     1000025        13   # BR(~mu_L -> ~chi_30 mu-)
     2.64078715E-01    2     1000035        13   # BR(~mu_L -> ~chi_40 mu-)
     1.57517224E-03    2    -1000024        14   # BR(~mu_L -> ~chi_1- nu_mu)
     5.28815010E-01    2    -1000037        14   # BR(~mu_L -> ~chi_2- nu_mu)
#
#         PDG            Width
DECAY   2000013     2.23567033E+01   # smuon_R decays
#          BR         NDA      ID1       ID2
     5.13724088E-01    2     1000022        13   # BR(~mu_R -> ~chi_10 mu-)
     1.52323310E-05    2     1000023        13   # BR(~mu_R -> ~chi_20 mu-)
     4.86260382E-01    2     1000025        13   # BR(~mu_R -> ~chi_30 mu-)
     2.97589832E-07    2     1000035        13   # BR(~mu_R -> ~chi_40 mu-)
#
#         PDG            Width
DECAY   1000015     2.49142183E+01   # stau_1 decays
#          BR         NDA      ID1       ID2
     2.89235113E-01    2     1000022        15   # BR(~tau_1 -> ~chi_10  tau-)
     4.70960784E-04    2     1000023        15   # BR(~tau_1 -> ~chi_20  tau-)
     2.77579999E-01    2     1000025        15   # BR(~tau_1 -> ~chi_30  tau-)
     1.43164423E-01    2     1000035        15   # BR(~tau_1 -> ~chi_40  tau-)
     2.86330938E-03    2    -1000024        16   # BR(~tau_1 -> ~chi_1-  nu_tau)
     2.86686184E-01    2    -1000037        16   # BR(~tau_1 -> ~chi_2-  nu_tau)
     1.02659521E-08    2     1000039        15   # BR(~tau_1 -> ~G       tau-)
#
#         PDG            Width
DECAY   2000015     2.49043576E+01   # stau_2 decays
#          BR         NDA      ID1       ID2
     2.73022447E-01    2     1000022        15   # BR(~tau_2 -> ~chi_10  tau-)
     7.08706960E-04    2     1000023        15   # BR(~tau_2 -> ~chi_20  tau-)
     2.84708843E-01    2     1000025        15   # BR(~tau_2 -> ~chi_30  tau-)
     1.47055006E-01    2     1000035        15   # BR(~tau_2 -> ~chi_40  tau-)
     3.12299040E-05    2    -1000024        16   # BR(~tau_2 -> ~chi_1-  nu_tau)
     2.94473767E-01    2    -1000037        16   # BR(~tau_2 -> ~chi_2-  nu_tau)
#
#         PDG            Width
DECAY   1000012     2.73751082E+01   # snu_eL decays
#          BR         NDA      ID1       ID2
     1.19134099E-01    2     1000022        12   # BR(~nu_eL -> ~chi_10 nu_e)
     2.20885117E-05    2     1000023        12   # BR(~nu_eL -> ~chi_20 nu_e)
     8.55838113E-02    2     1000025        12   # BR(~nu_eL -> ~chi_30 nu_e)
     2.64537416E-01    2     1000035        12   # BR(~nu_eL -> ~chi_40 nu_e)
     2.30211162E-03    2     1000024        11   # BR(~nu_eL -> ~chi_1+ e-)
     5.28420474E-01    2     1000037        11   # BR(~nu_eL -> ~chi_2+ e-)
#
#         PDG            Width
DECAY   1000014     2.73751082E+01   # snu_muL decays
#          BR         NDA      ID1       ID2
     1.19134099E-01    2     1000022        14   # BR(~nu_muL -> ~chi_10 nu_mu)
     2.20885117E-05    2     1000023        14   # BR(~nu_muL -> ~chi_20 nu_mu)
     8.55838113E-02    2     1000025        14   # BR(~nu_muL -> ~chi_30 nu_mu)
     2.64537416E-01    2     1000035        14   # BR(~nu_muL -> ~chi_40 nu_mu)
     2.30211162E-03    2     1000024        13   # BR(~nu_muL -> ~chi_1+ mu-)
     5.28420474E-01    2     1000037        13   # BR(~nu_muL -> ~chi_2+ mu-)
#
#         PDG            Width
DECAY   1000016     2.74041177E+01   # snu_tauL decays
#          BR         NDA      ID1       ID2
     1.19007986E-01    2     1000022        16   # BR(~nu_tauL -> ~chi_10 nu_tau)
     2.20651292E-05    2     1000023        16   # BR(~nu_tauL -> ~chi_20 nu_tau)
     8.54932138E-02    2     1000025        16   # BR(~nu_tauL -> ~chi_30 nu_tau)
     2.64257382E-01    2     1000035        16   # BR(~nu_tauL -> ~chi_40 nu_tau)
     3.35731250E-03    2     1000024        15   # BR(~nu_tauL -> ~chi_1+ tau-)
     5.27862041E-01    2     1000037        15   # BR(~nu_tauL -> ~chi_2+ tau-)
#
#         PDG            Width
DECAY   1000024     1.09383999E-04   # chargino1+ decays
#          BR         NDA      ID1       ID2
     6.39788708E-07    2     1000039        24   # BR(~chi_1+ -> ~G       W+)
#           BR         NDA      ID1       ID2       ID3
     3.33624772E-01    3     1000022         2        -1   # BR(~chi_1+ -> ~chi_10 u    db)
     3.33624772E-01    3     1000022         4        -3   # BR(~chi_1+ -> ~chi_10 c    sb)
     1.11208388E-01    3     1000022       -11        12   # BR(~chi_1+ -> ~chi_10 e+   nu_e)
     1.11208388E-01    3     1000022       -13        14   # BR(~chi_1+ -> ~chi_10 mu+  nu_mu)
     1.10333040E-01    3     1000022       -15        16   # BR(~chi_1+ -> ~chi_10 tau+ nu_tau)
#
#         PDG            Width
DECAY   1000037     3.73836731E+01   # chargino2+ decays
#          BR         NDA      ID1       ID2
     2.52228098E-01    2     1000024        23   # BR(~chi_2+ -> ~chi_1+  Z )
     1.13850381E-01    2     1000022        24   # BR(~chi_2+ -> ~chi_10  W+)
     2.45571526E-01    2     1000023        24   # BR(~chi_2+ -> ~chi_20  W+)
     1.32026894E-01    2     1000025        24   # BR(~chi_2+ -> ~chi_30  W+)
     2.53244977E-01    2     1000024        25   # BR(~chi_2+ -> ~chi_1+  h )
     6.06144875E-04    2     1000024        35   # BR(~chi_2+ -> ~chi_1+  H )
     7.99096495E-04    2     1000024        36   # BR(~chi_2+ -> ~chi_1+  A )
     1.07400280E-03    2     1000022        37   # BR(~chi_2+ -> ~chi_10  H+)
     5.98879388E-04    2     1000023        37   # BR(~chi_2+ -> ~chi_20  H+)
     6.54465965E-10    2     1000039        24   # BR(~chi_2+ -> ~G       W+)
     5.57201575E-14    2     1000039        37   # BR(~chi_2+ -> ~G       H+)
#
#         PDG            Width
DECAY   1000022     8.64794636E-11   # neutralino1 decays
#          BR         NDA      ID1       ID2
     4.99661111E-01    2     1000039        22   # BR(~chi_10 -> ~G        gam)
     4.89119473E-01    2     1000039        23   # BR(~chi_10 -> ~G        Z)
     1.12194158E-02    2     1000039        25   # BR(~chi_10 -> ~G        h)
#
#         PDG            Width
DECAY   1000023     1.23157669E-04   # neutralino2 decays
#          BR         NDA      ID1       ID2
     1.25022878E-03    2     1000022        22   # BR(~chi_20 -> ~chi_10 gam)
#          BR         NDA      ID1       ID2
     3.04615857E-12    2     1000039        22   # BR(~chi_20 -> ~G        gam)
     2.20524828E-08    2     1000039        23   # BR(~chi_20 -> ~G        Z)
     5.36763927E-07    2     1000039        25   # BR(~chi_20 -> ~G        h)
#           BR         NDA      ID1       ID2       ID3
     1.18594358E-01    3     1000022        -2         2   # BR(~chi_20 -> ~chi_10 ub      u)
     1.53553204E-01    3     1000022        -1         1   # BR(~chi_20 -> ~chi_10 db      d)
     1.18594358E-01    3     1000022        -4         4   # BR(~chi_20 -> ~chi_10 cb      c)
     1.53553204E-01    3     1000022        -3         3   # BR(~chi_20 -> ~chi_10 sb      s)
     1.39541575E-01    3     1000022        -5         5   # BR(~chi_20 -> ~chi_10 bb      b)
     3.50649837E-02    3     1000022       -11        11   # BR(~chi_20 -> ~chi_10 e+      e-)
     3.50649837E-02    3     1000022       -13        13   # BR(~chi_20 -> ~chi_10 mu+     mu-)
     3.47059146E-02    3     1000022       -15        15   # BR(~chi_20 -> ~chi_10 tau+    tau-)
     7.00241575E-02    3     1000022       -12        12   # BR(~chi_20 -> ~chi_10 nu_eb   nu_e)
     7.00241575E-02    3     1000022       -14        14   # BR(~chi_20 -> ~chi_10 nu_mub  nu_mu)
     7.00241575E-02    3     1000022       -16        16   # BR(~chi_20 -> ~chi_10 nu_taub nu_tau)
     7.63399807E-07    3     1000024        -2         1   # BR(~chi_20 -> ~chi_1+ ub      d)
     7.63399807E-07    3    -1000024        -1         2   # BR(~chi_20 -> ~chi_1- db      u)
     7.63399807E-07    3     1000024        -4         3   # BR(~chi_20 -> ~chi_1+ cb      s)
     7.63399807E-07    3    -1000024        -3         4   # BR(~chi_20 -> ~chi_1- sb      c)
     2.54466618E-07    3     1000024       -12        11   # BR(~chi_20 -> ~chi_1+ nu_eb   e-)
     2.54466618E-07    3    -1000024        12       -11   # BR(~chi_20 -> ~chi_1- nu_e    e+)
     2.54466618E-07    3     1000024       -14        13   # BR(~chi_20 -> ~chi_1+ nu_mub  mu-)
     2.54466618E-07    3    -1000024        14       -13   # BR(~chi_20 -> ~chi_1- nu_mu   mu+)
     4.38815012E-08    3     1000024       -16        15   # BR(~chi_20 -> ~chi_1+ nu_taub tau-)
     4.38815012E-08    3    -1000024        16       -15   # BR(~chi_20 -> ~chi_1- nu_tau  tau+)
#
#         PDG            Width
DECAY   1000025     2.32030178E-04   # neutralino3 decays
#          BR         NDA      ID1       ID2
     3.61924704E-04    2     1000022        22   # BR(~chi_30 -> ~chi_10 gam)
     7.96610281E-06    2     1000023        22   # BR(~chi_30 -> ~chi_20 gam)
#          BR         NDA      ID1       ID2
     2.88797126E-07    2     1000039        22   # BR(~chi_30 -> ~G        gam)
     2.50608921E-07    2     1000039        23   # BR(~chi_30 -> ~G        Z)
     7.00695703E-09    2     1000039        25   # BR(~chi_30 -> ~G        h)
#           BR         NDA      ID1       ID2       ID3
     9.42687491E-06    3     1000022        -2         2   # BR(~chi_30 -> ~chi_10 ub      u)
     1.12037545E-05    3     1000022        -1         1   # BR(~chi_30 -> ~chi_10 db      d)
     9.42687491E-06    3     1000022        -4         4   # BR(~chi_30 -> ~chi_10 cb      c)
     1.12037545E-05    3     1000022        -3         3   # BR(~chi_30 -> ~chi_10 sb      s)
     1.74943260E-05    3     1000022        -5         5   # BR(~chi_30 -> ~chi_10 bb      b)
     1.95075382E-06    3     1000022       -11        11   # BR(~chi_30 -> ~chi_10 e+      e-)
     1.95075382E-06    3     1000022       -13        13   # BR(~chi_30 -> ~chi_10 mu+     mu-)
     2.92519641E-06    3     1000022       -15        15   # BR(~chi_30 -> ~chi_10 tau+    tau-)
     5.48684836E-06    3     1000022       -12        12   # BR(~chi_30 -> ~chi_10 nu_eb   nu_e)
     5.48684836E-06    3     1000022       -14        14   # BR(~chi_30 -> ~chi_10 nu_mub  nu_mu)
     5.48684836E-06    3     1000022       -16        16   # BR(~chi_30 -> ~chi_10 nu_taub nu_tau)
     2.53546199E-02    3     1000023        -2         2   # BR(~chi_30 -> ~chi_20 ub      u)
     3.28286228E-02    3     1000023        -1         1   # BR(~chi_30 -> ~chi_20 db      d)
     2.53546199E-02    3     1000023        -4         4   # BR(~chi_30 -> ~chi_20 cb      c)
     3.28286228E-02    3     1000023        -3         3   # BR(~chi_30 -> ~chi_20 sb      s)
     2.86829773E-02    3     1000023        -5         5   # BR(~chi_30 -> ~chi_20 bb      b)
     7.49667415E-03    3     1000023       -11        11   # BR(~chi_30 -> ~chi_20 e+      e-)
     7.49667415E-03    3     1000023       -13        13   # BR(~chi_30 -> ~chi_20 mu+     mu-)
     7.39624743E-03    3     1000023       -15        15   # BR(~chi_30 -> ~chi_20 tau+    tau-)
     1.49706207E-02    3     1000023       -12        12   # BR(~chi_30 -> ~chi_20 nu_eb   nu_e)
     1.49706207E-02    3     1000023       -14        14   # BR(~chi_30 -> ~chi_20 nu_mub  nu_mu)
     1.49706207E-02    3     1000023       -16        16   # BR(~chi_30 -> ~chi_20 nu_taub nu_tau)
     1.31324336E-01    3     1000024        -2         1   # BR(~chi_30 -> ~chi_1+ ub      d)
     1.31324336E-01    3    -1000024        -1         2   # BR(~chi_30 -> ~chi_1- db      u)
     1.31324336E-01    3     1000024        -4         3   # BR(~chi_30 -> ~chi_1+ cb      s)
     1.31324336E-01    3    -1000024        -3         4   # BR(~chi_30 -> ~chi_1- sb      c)
     4.37747126E-02    3     1000024       -12        11   # BR(~chi_30 -> ~chi_1+ nu_eb   e-)
     4.37747126E-02    3    -1000024        12       -11   # BR(~chi_30 -> ~chi_1- nu_e    e+)
     4.37747126E-02    3     1000024       -14        13   # BR(~chi_30 -> ~chi_1+ nu_mub  mu-)
     4.37747126E-02    3    -1000024        14       -13   # BR(~chi_30 -> ~chi_1- nu_mu   mu+)
     4.34002029E-02    3     1000024       -16        15   # BR(~chi_30 -> ~chi_1+ nu_taub tau-)
     4.34002029E-02    3    -1000024        16       -15   # BR(~chi_30 -> ~chi_1- nu_tau  tau+)
#
#         PDG            Width
DECAY   1000035     3.73871857E+01   # neutralino4 decays
#          BR         NDA      ID1       ID2
     1.03786443E-03    2     1000022        23   # BR(~chi_40 -> ~chi_10   Z )
     2.49975498E-01    2     1000023        23   # BR(~chi_40 -> ~chi_20   Z )
     1.18954198E-03    2     1000025        23   # BR(~chi_40 -> ~chi_30   Z )
     2.45545898E-01    2     1000024       -24   # BR(~chi_40 -> ~chi_1+   W-)
     2.45545898E-01    2    -1000024        24   # BR(~chi_40 -> ~chi_1-   W+)
     1.16371500E-01    2     1000022        25   # BR(~chi_40 -> ~chi_10   h )
     7.40888538E-04    2     1000022        35   # BR(~chi_40 -> ~chi_10   H )
     3.06641656E-04    2     1000022        36   # BR(~chi_40 -> ~chi_10   A )
     2.19779031E-03    2     1000023        25   # BR(~chi_40 -> ~chi_20   h )
     1.39377448E-05    2     1000023        35   # BR(~chi_40 -> ~chi_20   H )
     6.34808329E-04    2     1000023        36   # BR(~chi_40 -> ~chi_20   A )
     1.34973450E-01    2     1000025        25   # BR(~chi_40 -> ~chi_30   h )
     7.33141462E-04    2     1000024       -37   # BR(~chi_40 -> ~chi_1+   H-)
     7.33141462E-04    2    -1000024        37   # BR(~chi_40 -> ~chi_1-   H+)
     1.57032043E-10    2     1000039        22   # BR(~chi_40 -> ~G        gam)
     4.97314205E-10    2     1000039        23   # BR(~chi_40 -> ~G        Z)
     3.99377527E-14    2     1000039        25   # BR(~chi_40 -> ~G        h)
     5.48178867E-14    2     1000039        35   # BR(~chi_40 -> ~G        H)
     6.39825924E-16    2     1000039        36   # BR(~chi_40 -> ~G        A)
#
#         PDG            Width
DECAY        25     4.21873171E-03   # h decays
#          BR         NDA      ID1       ID2
     6.01897619E-01    2           5        -5   # BR(h -> b       bb     )
     6.22337537E-02    2         -15        15   # BR(h -> tau+    tau-   )
     2.20280356E-04    2         -13        13   # BR(h -> mu+     mu-    )
     4.66070581E-04    2           3        -3   # BR(h -> s       sb     )
     2.01069930E-02    2           4        -4   # BR(h -> c       cb     )
     6.64022152E-02    2          21        21   # BR(h -> g       g      )
     2.30760518E-03    2          22        22   # BR(h -> gam     gam    )
     1.62646471E-03    2          22        23   # BR(h -> Z       gam    )
     2.16660530E-01    2          24       -24   # BR(h -> W+      W-     )
     2.80784683E-02    2          23        23   # BR(h -> Z       Z      )
#
#         PDG            Width
DECAY        35     3.78118380E+01   # H decays
#          BR         NDA      ID1       ID2
     1.47145710E-03    2           5        -5   # BR(H -> b       bb     )
     2.46424859E-04    2         -15        15   # BR(H -> tau+    tau-   )
     8.71203621E-07    2         -13        13   # BR(H -> mu+     mu-    )
     1.11545302E-06    2           3        -3   # BR(H -> s       sb     )
     1.00667645E-05    2           4        -4   # BR(H -> c       cb     )
     9.96061869E-01    2           6        -6   # BR(H -> t       tb     )
     7.97743384E-04    2          21        21   # BR(H -> g       g      )
     2.70805983E-06    2          22        22   # BR(H -> gam     gam    )
     1.15984542E-06    2          23        22   # BR(H -> Z       gam    )
     3.35443947E-04    2          24       -24   # BR(H -> W+      W-     )
     1.67264520E-04    2          23        23   # BR(H -> Z       Z      )
     9.03875725E-04    2          25        25   # BR(H -> h       h      )
     8.13921844E-24    2          36        36   # BR(H -> A       A      )
     3.24883387E-11    2          23        36   # BR(H -> Z       A      )
     7.13755311E-12    2          24       -37   # BR(H -> W+      H-     )
     7.13755311E-12    2         -24        37   # BR(H -> W-      H+     )
#
#         PDG            Width
DECAY        36     3.82382780E+01   # A decays
#          BR         NDA      ID1       ID2
     1.47437366E-03    2           5        -5   # BR(A -> b       bb     )
     2.43897395E-04    2         -15        15   # BR(A -> tau+    tau-   )
     8.62265397E-07    2         -13        13   # BR(A -> mu+     mu-    )
     1.13677244E-06    2           3        -3   # BR(A -> s       sb     )
     9.96175153E-06    2           4        -4   # BR(A -> c       cb     )
     9.96994661E-01    2           6        -6   # BR(A -> t       tb     )
     9.43674387E-04    2          21        21   # BR(A -> g       g      )
     3.21132344E-06    2          22        22   # BR(A -> gam     gam    )
     1.35242957E-06    2          23        22   # BR(A -> Z       gam    )
     3.26869086E-04    2          23        25   # BR(A -> Z       h      )
#
#         PDG            Width
DECAY        37     3.74481752E+01   # H+ decays
#          BR         NDA      ID1       ID2
     2.36512513E-06    2           4        -5   # BR(H+ -> c       bb     )
     2.49237612E-04    2         -15        16   # BR(H+ -> tau+    nu_tau )
     8.81144992E-07    2         -13        14   # BR(H+ -> mu+     nu_mu  )
     1.50369149E-08    2           2        -5   # BR(H+ -> u       bb     )
     5.45692462E-08    2           2        -3   # BR(H+ -> u       sb     )
     1.08731291E-05    2           4        -3   # BR(H+ -> c       sb     )
     9.99401552E-01    2           6        -5   # BR(H+ -> t       bb     )
     3.35021778E-04    2          24        25   # BR(H+ -> W+      h      )
     3.25086861E-13    2          24        36   # BR(H+ -> W+      A      )
