#
#                              ======================
#                              | THE SUSYHIT OUTPUT |
#                              ======================
#
#
#              ------------------------------------------------------
#              |     This is the output of the SUSY-HIT package     |
#              |  created by A.Djouadi, M.Muehlleitner and M.Spira. |
#              |  In case of problems with SUSY-HIT email to        |
#              |           margarete.muehlleitner@kit.edu           |
#              |           michael.spira@psi.ch                     |
#              |           abdelhak.djouadi@cern.ch                 |
#              ------------------------------------------------------
#
#              ------------------------------------------------------
#              |  SUSY Les Houches Accord - MSSM Spectrum + Decays  |
#              |              based on the decay programs           |
#              |                                                    |
#              |                     SDECAY 1.5                     |
#              |                                                    |
#              |  Authors: M.Muhlleitner, A.Djouadi and Y.Mambrini  |
#              |  Ref.:    Comput.Phys.Commun.168(2005)46           |
#              |           [hep-ph/0311167]                         |
#              |                                                    |
#              |                     HDECAY 3.4                     |
#              |                                                    |
#              |  By: A.Djouadi,J.Kalinowski,M.Muhlleitner,M.Spira  |
#              |  Ref.:    Comput.Phys.Commun.108(1998)56           |
#              |           [hep-ph/9704448]                         |
#              |                                                    |
#              |                                                    |
#              |  If not stated otherwise all DRbar couplings and   |
#              |  soft SUSY breaking masses are given at the scale  |
#              |  Q=  0.91187600E+02
#              |                                                    |
#              ------------------------------------------------------
#
#
BLOCK DCINFO  # Decay Program information
     1   SDECAY/HDECAY # decay calculator
     2   1.5  /3.4    # version number
#
BLOCK SPINFO  # Spectrum calculator information
     1   SuSpect     # RGE +Spectrum calculator            
     2   2.43         # version number                     
#
BLOCK MODSEL  # Model selection
     1     2   # GMSB                                              
#
BLOCK SMINPUTS  # Standard Model inputs
         1     1.27932904E+02   # alpha_em^-1(M_Z)^MSbar
         2     1.16639000E-05   # G_F [GeV^-2]
         3     1.17200000E-01   # alpha_S(M_Z)^MSbar
         4     9.11870000E+01   # M_Z pole mass
         5     4.25000000E+00   # mb(mb)^MSbar
         6     1.72900000E+02   # mt pole mass
         7     1.77700000E+00   # mtau pole mass
#
BLOCK MINPAR  # Input parameters - minimal models
#
BLOCK EXTPAR  # Input parameters - non-minimal models
         0     9.11876000E+01   # EWSB                
         1     2.65000000E+02   # M_1                 
         2     3.00000000E+03   # M_2                 
         3     1.60000000E+03   # M_3                 
        11     0.00000000E+00   # A_t                 
        12     0.00000000E+00   # A_b                 
        13     0.00000000E+00   # A_tau               
        14     0.00000000E+00   # A_u                 
        15     0.00000000E+00   # A_d                 
        16     0.00000000E+00   # A_e                 
        23     1.50000000E+02   # mu(EWSB)            
        25     1.50000000E+00   # tanbeta(in)         
        26     2.00000000E+03   # MA_pole             
        31     5.00000000E+03   # M_eL                
        32     5.00000000E+03   # M_muL               
        33     5.00000000E+03   # M_tauL              
        34     5.00000000E+03   # M_eR                
        35     5.00000000E+03   # M_muR               
        36     5.00000000E+03   # M_tauR              
        41     5.00000000E+03   # M_q1L               
        42     5.00000000E+03   # M_q2L               
        43     5.00000000E+03   # M_q3L               
        44     5.00000000E+03   # M_uR                
        45     5.00000000E+03   # M_cR                
        46     5.00000000E+03   # M_tR                
        47     5.00000000E+03   # M_dR                
        48     5.00000000E+03   # M_sR                
        49     5.00000000E+03   # M_bR                
#
BLOCK MASS  # Mass Spectrum
# PDG code           mass       particle
        24     8.05376827E+01   # W+
        25     1.26000000E+02   # h
        35     2.00416207E+03   # H
        36     2.00000000E+03   # A
        37     2.00209637E+03   # H+
         5     4.87877839E+00   # b-quark pole mass calculated from mb(mb)_Msbar
   1000001     4.98044692E+03   # ~d_L
   2000001     4.98033674E+03   # ~d_R
   1000002     4.98020074E+03   # ~u_L
   2000002     4.98025928E+03   # ~u_R
   1000003     4.98044692E+03   # ~s_L
   2000003     4.98033674E+03   # ~s_R
   1000004     4.98020074E+03   # ~c_L
   2000004     4.98025928E+03   # ~c_R
   1000005     4.98030987E+03   # ~b_1
   2000005     4.98047527E+03   # ~b_2
   1000006     5.11177323E+03   # ~t_1
   2000006     5.41081901E+03   # ~t_2
   1000011     5.00008277E+03   # ~e_L
   2000011     5.00007600E+03   # ~e_R
   1000012     4.99984123E+03   # ~nu_eL
   1000013     5.00008277E+03   # ~mu_L
   2000013     5.00007600E+03   # ~mu_R
   1000014     4.99984123E+03   # ~nu_muL
   1000015     5.00003957E+03   # ~tau_1
   2000015     5.00011983E+03   # ~tau_2
   1000016     4.99984123E+03   # ~nu_tauL
   1000021     1.70500464E+03   # ~g
   1000022     1.46527525E+02   # ~chi_10
   1000023    -1.62952729E+02   # ~chi_20
   1000025     2.94798508E+02   # ~chi_30
   1000035     3.12909427E+03   # ~chi_40
   1000024     1.60740991E+02   # ~chi_1+
   1000037     3.12909388E+03   # ~chi_2+
   1000039     1.00000000E-09   # ~gravitino
#
BLOCK NMIX  # Neutralino Mixing Matrix
  1  1     3.08732154E-01   # N_11
  1  2    -2.47370274E-02   # N_12
  1  3     6.79333166E-01   # N_13
  1  4    -6.65266102E-01   # N_14
  2  1     2.00316556E-02   # N_21
  2  2    -4.81336100E-03   # N_22
  2  3    -7.04243464E-01   # N_23
  2  4    -7.09659572E-01   # N_24
  3  1     9.50937967E-01   # N_31
  3  2     8.56904395E-03   # N_32
  3  3    -2.05711131E-01   # N_33
  3  4     2.30925280E-01   # N_34
  4  1     4.15241017E-04   # N_41
  4  2    -9.99645678E-01   # N_42
  4  3    -1.51830325E-02   # N_43
  4  4     2.18591075E-02   # N_44
#
BLOCK UMIX  # Chargino Mixing Matrix U
  1  1    -2.14647837E-02   # U_11
  1  2     9.99769605E-01   # U_12
  2  1     9.99769605E-01   # U_21
  2  2     2.14647837E-02   # U_22
#
BLOCK VMIX  # Chargino Mixing Matrix V
  1  1    -3.09098242E-02   # V_11
  1  2     9.99522177E-01   # V_12
  2  1     9.99522177E-01   # V_21
  2  2     3.09098242E-02   # V_22
#
BLOCK STOPMIX  # Stop Mixing Matrix
  1  1     9.99767969E-01   # cos(theta_t)
  1  2    -2.15408487E-02   # sin(theta_t)
  2  1     2.15408487E-02   # -sin(theta_t)
  2  2     9.99767969E-01   # cos(theta_t)
#
BLOCK SBOTMIX  # Sbottom Mixing Matrix
  1  1     4.08569915E-01   # cos(theta_b)
  1  2     9.12727026E-01   # sin(theta_b)
  2  1    -9.12727026E-01   # -sin(theta_b)
  2  2     4.08569915E-01   # cos(theta_b)
#
BLOCK STAUMIX  # Stau Mixing Matrix
  1  1     6.76623845E-01   # cos(theta_tau)
  1  2     7.36328848E-01   # sin(theta_tau)
  2  1    -7.36328848E-01   # -sin(theta_tau)
  2  2     6.76623845E-01   # cos(theta_tau)
#
BLOCK ALPHA  # Higgs mixing
          -5.90209188E-01   # Mixing angle in the neutral Higgs boson sector
#
BLOCK HMIX Q=  9.11876000E+01  # DRbar Higgs Parameters
         1     1.50000000E+02   # mu(Q)               
         2     1.49999979E+00   # tanbeta(Q)          
         3     2.51747281E+02   # vev(Q)              
         4     3.88056847E+06   # MA^2(Q)             
#
BLOCK GAUGE Q=  9.11876000E+01  # The gauge couplings
     1     3.53146822E-01   # gprime(Q) DRbar
     2     6.29570063E-01   # g(Q) DRbar
     3     1.08402965E+00   # g3(Q) DRbar
#
BLOCK AU Q=  9.11876000E+01  # The trilinear couplings
  1  1     0.00000000E+00   # A_u(Q) DRbar
  2  2     0.00000000E+00   # A_c(Q) DRbar
  3  3     0.00000000E+00   # A_t(Q) DRbar
#
BLOCK AD Q=  9.11876000E+01  # The trilinear couplings
  1  1     0.00000000E+00   # A_d(Q) DRbar
  2  2     0.00000000E+00   # A_s(Q) DRbar
  3  3     0.00000000E+00   # A_b(Q) DRbar
#
BLOCK AE Q=  9.11876000E+01  # The trilinear couplings
  1  1     0.00000000E+00   # A_e(Q) DRbar
  2  2     0.00000000E+00   # A_mu(Q) DRbar
  3  3     0.00000000E+00   # A_tau(Q) DRbar
#
BLOCK Yu Q=  9.11876000E+01  # The Yukawa couplings
  1  1     0.00000000E+00   # y_u(Q) DRbar
  2  2     0.00000000E+00   # y_c(Q) DRbar
  3  3     1.02704719E+00   # y_t(Q) DRbar
#
BLOCK Yd Q=  9.11876000E+01  # The Yukawa couplings
  1  1     0.00000000E+00   # y_d(Q) DRbar
  2  2     0.00000000E+00   # y_s(Q) DRbar
  3  3     2.72386052E-02   # y_b(Q) DRbar
#
BLOCK Ye Q=  9.11876000E+01  # The Yukawa couplings
  1  1     0.00000000E+00   # y_e(Q) DRbar
  2  2     0.00000000E+00   # y_mu(Q) DRbar
  3  3     1.79973576E-02   # y_tau(Q) DRbar
#
BLOCK MSOFT Q=  9.11876000E+01  # The soft SUSY breaking masses at the scale Q
         1     2.65000000E+02   # M_1                 
         2     3.00000000E+03   # M_2                 
         3     1.60000000E+03   # M_3                 
        14     0.00000000E+00   # A_u                 
        15     0.00000000E+00   # A_d                 
        16     0.00000000E+00   # A_e                 
        21     3.04062026E+06   # M^2_Hd              
        22    -5.48583257E+06   # M^2_Hu              
        31     5.00000000E+03   # M_eL                
        32     5.00000000E+03   # M_muL               
        33     5.00000000E+03   # M_tauL              
        34     5.00000000E+03   # M_eR                
        35     5.00000000E+03   # M_muR               
        36     5.00000000E+03   # M_tauR              
        41     5.00000000E+03   # M_q1L               
        42     5.00000000E+03   # M_q2L               
        43     5.00000000E+03   # M_q3L               
        44     5.00000000E+03   # M_uR                
        45     5.00000000E+03   # M_cR                
        46     5.00000000E+03   # M_tR                
        47     5.00000000E+03   # M_dR                
        48     5.00000000E+03   # M_sR                
        49     5.00000000E+03   # M_bR                
#
#
#
#                             =================
#                             |The decay table|
#                             =================
#
# - The QCD corrections to the decays gluino -> squark  + quark
#                                     squark -> gaugino + quark_prime
#                                     squark -> squark_prime + Higgs
#                                     squark -> gluino  + quark
#   are included.
#
# - The multi-body decays for the inos, stops and sbottoms are included.
#
# - The loop induced decays for the gluino, neutralinos and stops
#   are included.
#
# - The SUSY decays of the top quark are included.
#
# - Possible decays of the NLSP in GMSB models are included.
#
#
#         PDG            Width
DECAY         6     1.38111752E+00   # top decays
#          BR         NDA      ID1       ID2
     1.00000000E+00    2           5        24   # BR(t ->  b    W+)
#
#         PDG            Width
DECAY   1000021     1.54301494E-03   # gluino decays
#          BR         NDA      ID1       ID2
     9.46662744E-03    2     1000022        21   # BR(~g -> ~chi_10 g)
     1.06996338E-02    2     1000023        21   # BR(~g -> ~chi_20 g)
     9.74344649E-04    2     1000025        21   # BR(~g -> ~chi_30 g)
#          BR         NDA      ID1       ID2
     1.07508822E-02    2     1000039        21   # BR(~g -> ~G      g)
#           BR         NDA      ID1       ID2       ID3
     8.95583210E-04    3     1000022         1        -1   # BR(~g -> ~chi_10 d  db)
     4.13678883E-06    3     1000023         1        -1   # BR(~g -> ~chi_20 d  db)
     6.42572297E-03    3     1000025         1        -1   # BR(~g -> ~chi_30 d  db)
     2.42079329E-03    3     1000022         2        -2   # BR(~g -> ~chi_10 u  ub)
     7.21477369E-06    3     1000023         2        -2   # BR(~g -> ~chi_20 u  ub)
     2.23975647E-02    3     1000025         2        -2   # BR(~g -> ~chi_30 u  ub)
     8.95583210E-04    3     1000022         3        -3   # BR(~g -> ~chi_10 s  sb)
     4.13678883E-06    3     1000023         3        -3   # BR(~g -> ~chi_20 s  sb)
     6.42572297E-03    3     1000025         3        -3   # BR(~g -> ~chi_30 s  sb)
     2.42079329E-03    3     1000022         4        -4   # BR(~g -> ~chi_10 c  cb)
     7.21477369E-06    3     1000023         4        -4   # BR(~g -> ~chi_20 c  cb)
     2.23975647E-02    3     1000025         4        -4   # BR(~g -> ~chi_30 c  cb)
     1.08398055E-03    3     1000022         5        -5   # BR(~g -> ~chi_10 b  bb)
     2.17773171E-04    3     1000023         5        -5   # BR(~g -> ~chi_20 b  bb)
     6.44963843E-03    3     1000025         5        -5   # BR(~g -> ~chi_30 b  bb)
     1.79259276E-01    3     1000022         6        -6   # BR(~g -> ~chi_10 t  tb)
     2.03206719E-01    3     1000023         6        -6   # BR(~g -> ~chi_20 t  tb)
     3.94025030E-02    3     1000025         6        -6   # BR(~g -> ~chi_30 t  tb)
     6.24289645E-05    3     1000024         1        -2   # BR(~g -> ~chi_1+ d  ub)
     6.24289645E-05    3    -1000024         2        -1   # BR(~g -> ~chi_1- u  db)
     6.24289645E-05    3     1000024         3        -4   # BR(~g -> ~chi_1+ s  cb)
     6.24289645E-05    3    -1000024         4        -3   # BR(~g -> ~chi_1- c  sb)
     2.36968437E-01    3     1000024         5        -6   # BR(~g -> ~chi_1+ b  tb)
     2.36968437E-01    3    -1000024         6        -5   # BR(~g -> ~chi_1- t  bb)
#
#         PDG            Width
DECAY   1000006     3.12366196E+02   # stop1 decays
#          BR         NDA      ID1       ID2
     1.02950135E-01    2     1000022         6   # BR(~t_1 -> ~chi_10 t )
     1.18427515E-01    2     1000023         6   # BR(~t_1 -> ~chi_20 t )
     1.59164947E-02    2     1000025         6   # BR(~t_1 -> ~chi_30 t )
     2.45492938E-02    2     1000035         6   # BR(~t_1 -> ~chi_40 t )
     1.94389241E-04    2     1000024         5   # BR(~t_1 -> ~chi_1+ b )
     4.89554375E-02    2     1000037         5   # BR(~t_1 -> ~chi_2+ b )
     6.70551728E-01    2     1000021         6   # BR(~t_1 -> ~g      t )
     3.09586461E-03    2     1000005        24   # BR(~t_1 -> ~b_1    W+)
     1.53591424E-02    2     2000005        24   # BR(~t_1 -> ~b_2    W+)
#
#         PDG            Width
DECAY   2000006     3.92920763E+02   # stop2 decays
#          BR         NDA      ID1       ID2
     9.19003812E-02    2     1000022         6   # BR(~t_2 -> ~chi_10 t )
     1.00222233E-01    2     1000023         6   # BR(~t_2 -> ~chi_20 t )
     3.58517876E-02    2     1000025         6   # BR(~t_2 -> ~chi_30 t )
    -1.55485046E-05    2     1000035         6   # BR(~t_2 -> ~chi_40 t )
     1.99184219E-01    2     1000024         5   # BR(~t_2 -> ~chi_1+ b )
    -3.11406601E-05    2     1000037         5   # BR(~t_2 -> ~chi_2+ b )
     5.72440813E-01    2     1000021         6   # BR(~t_2 -> ~g      t )
    -2.36071358E-05    2     1000006        25   # BR(~t_2 -> ~t_1    h )
     6.68341112E-05    2     1000006        23   # BR(~t_2 -> ~t_1    Z )
     6.74574643E-05    2     1000005        24   # BR(~t_2 -> ~b_1    W+)
     3.36571501E-04    2     2000005        24   # BR(~t_2 -> ~b_2    W+)
#
#         PDG            Width
DECAY   1000005     1.48187724E+02   # sbottom1 decays
#          BR         NDA      ID1       ID2
     1.75415214E-03    2     1000022         5   # BR(~b_1 -> ~chi_10 b )
     2.16214129E-04    2     1000023         5   # BR(~b_1 -> ~chi_20 b )
     2.19815766E-02    2     1000025         5   # BR(~b_1 -> ~chi_30 b )
    -2.07905404E-02    2     1000035         5   # BR(~b_1 -> ~chi_40 b )
    -3.33294642E-01    2    -1000024         6   # BR(~b_1 -> ~chi_1- t )
    -4.17249308E-02    2    -1000037         6   # BR(~b_1 -> ~chi_2- t )
     1.37185817E+00    2     1000021         5   # BR(~b_1 -> ~g      b )
#
#         PDG            Width
DECAY   2000005     3.54738807E+02   # sbottom2 decays
#          BR         NDA      ID1       ID2
     4.72350049E-04    2     1000022         5   # BR(~b_2 -> ~chi_10 b )
     5.86083931E-05    2     1000023         5   # BR(~b_2 -> ~chi_20 b )
    -9.44932254E-04    2     1000025         5   # BR(~b_2 -> ~chi_30 b )
     2.83417812E-02    2     1000035         5   # BR(~b_2 -> ~chi_40 b )
     3.41313171E-01    2    -1000024         6   # BR(~b_2 -> ~chi_1- t )
     5.68544196E-02    2    -1000037         6   # BR(~b_2 -> ~chi_2- t )
     5.73904602E-01    2     1000021         5   # BR(~b_2 -> ~g      b )
#
#         PDG            Width
DECAY   1000002     2.25044029E+02   # sup_L decays
#          BR         NDA      ID1       ID2
     9.14310272E-05    2     1000022         2   # BR(~u_L -> ~chi_10 u)
     9.57728724E-08    2     1000023         2   # BR(~u_L -> ~chi_20 u)
     2.90373466E-03    2     1000025         2   # BR(~u_L -> ~chi_30 u)
     3.09676659E-02    2     1000035         2   # BR(~u_L -> ~chi_40 u)
     1.60486404E-04    2     1000024         1   # BR(~u_L -> ~chi_1+ d)
     6.19296687E-02    2     1000037         1   # BR(~u_L -> ~chi_2+ d)
     9.03946918E-01    2     1000021         2   # BR(~u_L -> ~g      u)
#
#         PDG            Width
DECAY   2000002     2.13960097E+02   # sup_R decays
#          BR         NDA      ID1       ID2
     4.71148969E-03    2     1000022         2   # BR(~u_R -> ~chi_10 u)
     1.98273964E-05    2     1000023         2   # BR(~u_R -> ~chi_20 u)
     4.44768230E-02    2     1000025         2   # BR(~u_R -> ~chi_30 u)
     3.14439576E-09    2     1000035         2   # BR(~u_R -> ~chi_40 u)
     9.50791857E-01    2     1000021         2   # BR(~u_R -> ~g      u)
#
#         PDG            Width
DECAY   1000001     2.25048237E+02   # sdown_L decays
#          BR         NDA      ID1       ID2
     5.71330487E-04    2     1000022         1   # BR(~d_L -> ~chi_10 d)
     6.15226672E-06    2     1000023         1   # BR(~d_L -> ~chi_20 d)
     2.39433457E-03    2     1000025         1   # BR(~d_L -> ~chi_30 d)
     3.09822006E-02    2     1000035         1   # BR(~d_L -> ~chi_40 d)
     7.73948114E-05    2    -1000024         2   # BR(~d_L -> ~chi_1- u)
     6.19701591E-02    2    -1000037         2   # BR(~d_L -> ~chi_2- u)
     9.03998428E-01    2     1000021         1   # BR(~d_L -> ~g      d)
#
#         PDG            Width
DECAY   2000001     2.06068549E+02   # sdown_R decays
#          BR         NDA      ID1       ID2
     1.22299919E-03    2     1000022         1   # BR(~d_R -> ~chi_10 d)
     5.14675646E-06    2     1000023         1   # BR(~d_R -> ~chi_20 d)
     1.15452076E-02    2     1000025         1   # BR(~d_R -> ~chi_30 d)
     8.16248710E-10    2     1000035         1   # BR(~d_R -> ~chi_40 d)
     9.87226646E-01    2     1000021         1   # BR(~d_R -> ~g      d)
#
#         PDG            Width
DECAY   1000004     2.25044029E+02   # scharm_L decays
#          BR         NDA      ID1       ID2
     9.14310272E-05    2     1000022         4   # BR(~c_L -> ~chi_10 c)
     9.57728724E-08    2     1000023         4   # BR(~c_L -> ~chi_20 c)
     2.90373466E-03    2     1000025         4   # BR(~c_L -> ~chi_30 c)
     3.09676659E-02    2     1000035         4   # BR(~c_L -> ~chi_40 c)
     1.60486404E-04    2     1000024         3   # BR(~c_L -> ~chi_1+ s)
     6.19296687E-02    2     1000037         3   # BR(~c_L -> ~chi_2+ s)
     9.03946918E-01    2     1000021         4   # BR(~c_L -> ~g      c)
#
#         PDG            Width
DECAY   2000004     2.13960097E+02   # scharm_R decays
#          BR         NDA      ID1       ID2
     4.71148969E-03    2     1000022         4   # BR(~c_R -> ~chi_10 c)
     1.98273964E-05    2     1000023         4   # BR(~c_R -> ~chi_20 c)
     4.44768230E-02    2     1000025         4   # BR(~c_R -> ~chi_30 c)
     3.14439576E-09    2     1000035         4   # BR(~c_R -> ~chi_40 c)
     9.50791857E-01    2     1000021         4   # BR(~c_R -> ~g      c)
#
#         PDG            Width
DECAY   1000003     2.25048237E+02   # sstrange_L decays
#          BR         NDA      ID1       ID2
     5.71330487E-04    2     1000022         3   # BR(~s_L -> ~chi_10 s)
     6.15226672E-06    2     1000023         3   # BR(~s_L -> ~chi_20 s)
     2.39433457E-03    2     1000025         3   # BR(~s_L -> ~chi_30 s)
     3.09822006E-02    2     1000035         3   # BR(~s_L -> ~chi_40 s)
     7.73948114E-05    2    -1000024         4   # BR(~s_L -> ~chi_1- c)
     6.19701591E-02    2    -1000037         4   # BR(~s_L -> ~chi_2- c)
     9.03998428E-01    2     1000021         3   # BR(~s_L -> ~g      s)
#
#         PDG            Width
DECAY   2000003     2.06068549E+02   # sstrange_R decays
#          BR         NDA      ID1       ID2
     1.22299919E-03    2     1000022         3   # BR(~s_R -> ~chi_10 s)
     5.14675646E-06    2     1000023         3   # BR(~s_R -> ~chi_20 s)
     1.15452076E-02    2     1000025         3   # BR(~s_R -> ~chi_30 s)
     8.16248710E-10    2     1000035         3   # BR(~s_R -> ~chi_40 s)
     9.87226646E-01    2     1000021         3   # BR(~s_R -> ~g      s)
#
#         PDG            Width
DECAY   1000011     2.80762224E+01   # selectron_L decays
#          BR         NDA      ID1       ID2
     1.54450393E-02    2     1000022        11   # BR(~e_L -> ~chi_10 e-)
     2.89060004E-05    2     1000023        11   # BR(~e_L -> ~chi_20 e-)
     2.04819674E-01    2     1000025        11   # BR(~e_L -> ~chi_30 e-)
     2.59563253E-01    2     1000035        11   # BR(~e_L -> ~chi_40 e-)
     6.45671635E-04    2    -1000024        12   # BR(~e_L -> ~chi_1- nu_e)
     5.19497456E-01    2    -1000037        12   # BR(~e_L -> ~chi_2- nu_e)
#
#         PDG            Width
DECAY   2000011     2.46513796E+01   # selectron_R decays
#          BR         NDA      ID1       ID2
     9.57687006E-02    2     1000022        11   # BR(~e_R -> ~chi_10 e-)
     4.03010891E-04    2     1000023        11   # BR(~e_R -> ~chi_20 e-)
     9.03828224E-01    2     1000025        11   # BR(~e_R -> ~chi_30 e-)
     6.42290836E-08    2     1000035        11   # BR(~e_R -> ~chi_40 e-)
#
#         PDG            Width
DECAY   1000013     2.80762224E+01   # smuon_L decays
#          BR         NDA      ID1       ID2
     1.54450393E-02    2     1000022        13   # BR(~mu_L -> ~chi_10 mu-)
     2.89060004E-05    2     1000023        13   # BR(~mu_L -> ~chi_20 mu-)
     2.04819674E-01    2     1000025        13   # BR(~mu_L -> ~chi_30 mu-)
     2.59563253E-01    2     1000035        13   # BR(~mu_L -> ~chi_40 mu-)
     6.45671635E-04    2    -1000024        14   # BR(~mu_L -> ~chi_1- nu_mu)
     5.19497456E-01    2    -1000037        14   # BR(~mu_L -> ~chi_2- nu_mu)
#
#         PDG            Width
DECAY   2000013     2.46513796E+01   # smuon_R decays
#          BR         NDA      ID1       ID2
     9.57687006E-02    2     1000022        13   # BR(~mu_R -> ~chi_10 mu-)
     4.03010891E-04    2     1000023        13   # BR(~mu_R -> ~chi_20 mu-)
     9.03828224E-01    2     1000025        13   # BR(~mu_R -> ~chi_30 mu-)
     6.42290836E-08    2     1000035        13   # BR(~mu_R -> ~chi_40 mu-)
#
#         PDG            Width
DECAY   1000015     2.62957265E+01   # stau_1 decays
#          BR         NDA      ID1       ID2
     6.08449214E-02    2     1000022        15   # BR(~tau_1 -> ~chi_10  tau-)
     4.84747027E-04    2     1000023        15   # BR(~tau_1 -> ~chi_20  tau-)
     5.56341381E-01    2     1000025        15   # BR(~tau_1 -> ~chi_30  tau-)
     1.26705927E-01    2     1000035        15   # BR(~tau_1 -> ~chi_40  tau-)
     1.89289607E-03    2    -1000024        16   # BR(~tau_1 -> ~chi_1-  nu_tau)
     2.53593301E-01    2    -1000037        16   # BR(~tau_1 -> ~chi_2-  nu_tau)
     1.36825939E-04    2     1000039        15   # BR(~tau_1 -> ~G       tau-)
#
#         PDG            Width
DECAY   2000015     2.65319131E+01   # stau_2 decays
#          BR         NDA      ID1       ID2
     4.61402211E-02    2     1000022        15   # BR(~tau_2 -> ~chi_10  tau-)
     1.12660372E-03    2     1000023        15   # BR(~tau_2 -> ~chi_20  tau-)
     5.05221227E-01    2     1000025        15   # BR(~tau_2 -> ~chi_30  tau-)
     1.49093724E-01    2     1000035        15   # BR(~tau_2 -> ~chi_40  tau-)
     1.85092504E-05    2    -1000024        16   # BR(~tau_2 -> ~chi_1-  nu_tau)
     2.98399714E-01    2    -1000037        16   # BR(~tau_2 -> ~chi_2-  nu_tau)
#
#         PDG            Width
DECAY   1000012     2.80747338E+01   # snu_eL decays
#          BR         NDA      ID1       ID2
     2.74562191E-02    2     1000022        12   # BR(~nu_eL -> ~chi_10 nu_e)
     1.80486249E-04    2     1000023        12   # BR(~nu_eL -> ~chi_20 nu_e)
     1.92071981E-01    2     1000025        12   # BR(~nu_eL -> ~chi_30 nu_e)
     2.59774189E-01    2     1000035        12   # BR(~nu_eL -> ~chi_40 nu_e)
     1.33891715E-03    2     1000024        11   # BR(~nu_eL -> ~chi_1+ e-)
     5.19178207E-01    2     1000037        11   # BR(~nu_eL -> ~chi_2+ e-)
#
#         PDG            Width
DECAY   1000014     2.80747338E+01   # snu_muL decays
#          BR         NDA      ID1       ID2
     2.74562191E-02    2     1000022        14   # BR(~nu_muL -> ~chi_10 nu_mu)
     1.80486249E-04    2     1000023        14   # BR(~nu_muL -> ~chi_20 nu_mu)
     1.92071981E-01    2     1000025        14   # BR(~nu_muL -> ~chi_30 nu_mu)
     2.59774189E-01    2     1000035        14   # BR(~nu_muL -> ~chi_40 nu_mu)
     1.33891715E-03    2     1000024        13   # BR(~nu_muL -> ~chi_1+ mu-)
     5.19178207E-01    2     1000037        13   # BR(~nu_muL -> ~chi_2+ mu-)
#
#         PDG            Width
DECAY   1000016     2.81068778E+01   # snu_tauL decays
#          BR         NDA      ID1       ID2
     2.74248191E-02    2     1000022        16   # BR(~nu_tauL -> ~chi_10 nu_tau)
     1.80279839E-04    2     1000023        16   # BR(~nu_tauL -> ~chi_20 nu_tau)
     1.91852321E-01    2     1000025        16   # BR(~nu_tauL -> ~chi_30 nu_tau)
     2.59477102E-01    2     1000035        16   # BR(~nu_tauL -> ~chi_40 nu_tau)
     2.48071476E-03    2     1000024        15   # BR(~nu_tauL -> ~chi_1+ tau-)
     5.18584763E-01    2     1000037        15   # BR(~nu_tauL -> ~chi_2+ tau-)
#
#         PDG            Width
DECAY   1000024     5.23754680E-07   # chargino1+ decays
#          BR         NDA      ID1       ID2
     3.87422886E-05    2     1000039        24   # BR(~chi_1+ -> ~G       W+)
#           BR         NDA      ID1       ID2       ID3
     3.36073176E-01    3     1000022         2        -1   # BR(~chi_1+ -> ~chi_10 u    db)
     3.36073176E-01    3     1000022         4        -3   # BR(~chi_1+ -> ~chi_10 c    sb)
     1.12024447E-01    3     1000022       -11        12   # BR(~chi_1+ -> ~chi_10 e+   nu_e)
     1.12024447E-01    3     1000022       -13        14   # BR(~chi_1+ -> ~chi_10 mu+  nu_mu)
     1.03766012E-01    3     1000022       -15        16   # BR(~chi_1+ -> ~chi_10 tau+ nu_tau)
#
#         PDG            Width
DECAY   1000037     3.36657969E+01   # chargino2+ decays
#          BR         NDA      ID1       ID2
     1.99043726E-01    2     1000024        23   # BR(~chi_2+ -> ~chi_1+  Z )
     1.71247602E-01    2     1000022        24   # BR(~chi_2+ -> ~chi_10  W+)
     1.94614453E-01    2     1000023        24   # BR(~chi_2+ -> ~chi_20  W+)
     2.26226852E-02    2     1000025        24   # BR(~chi_2+ -> ~chi_30  W+)
     1.99430003E-01    2     1000024        25   # BR(~chi_2+ -> ~chi_1+  h )
     5.31590842E-02    2     1000024        35   # BR(~chi_2+ -> ~chi_1+  H )
     5.33907139E-02    2     1000024        36   # BR(~chi_2+ -> ~chi_1+  A )
     4.91646134E-02    2     1000022        37   # BR(~chi_2+ -> ~chi_10  H+)
     5.29745809E-02    2     1000023        37   # BR(~chi_2+ -> ~chi_20  H+)
     4.34230923E-03    2     1000025        37   # BR(~chi_2+ -> ~chi_30  H+)
     1.02291218E-05    2     1000039        24   # BR(~chi_2+ -> ~G       W+)
     3.82555108E-10    2     1000039        37   # BR(~chi_2+ -> ~G       H+)
#
#         PDG            Width
DECAY   1000022     1.02182624E-11   # neutralino1 decays
#          BR         NDA      ID1       ID2
     5.03289018E-01    2     1000039        22   # BR(~chi_10 -> ~G        gam)
     4.96176011E-01    2     1000039        23   # BR(~chi_10 -> ~G        Z)
     5.34970853E-04    2     1000039        25   # BR(~chi_10 -> ~G        h)
#
#         PDG            Width
DECAY   1000023     8.26340568E-07   # neutralino2 decays
#          BR         NDA      ID1       ID2
     8.50793782E-03    2     1000022        22   # BR(~chi_20 -> ~chi_10 gam)
#          BR         NDA      ID1       ID2
     3.65769943E-08    2     1000039        22   # BR(~chi_20 -> ~G        gam)
     7.18334783E-07    2     1000039        23   # BR(~chi_20 -> ~G        Z)
     2.01613821E-06    2     1000039        25   # BR(~chi_20 -> ~G        h)
#           BR         NDA      ID1       ID2       ID3
     1.27775584E-01    3     1000022        -2         2   # BR(~chi_20 -> ~chi_10 ub      u)
     1.65369684E-01    3     1000022        -1         1   # BR(~chi_20 -> ~chi_10 db      d)
     1.27775584E-01    3     1000022        -4         4   # BR(~chi_20 -> ~chi_10 cb      c)
     1.65369684E-01    3     1000022        -3         3   # BR(~chi_20 -> ~chi_10 sb      s)
     6.83695394E-02    3     1000022        -5         5   # BR(~chi_20 -> ~chi_10 bb      b)
     3.77311286E-02    3     1000022       -11        11   # BR(~chi_20 -> ~chi_10 e+      e-)
     3.77311286E-02    3     1000022       -13        13   # BR(~chi_20 -> ~chi_10 mu+     mu-)
     3.52635803E-02    3     1000022       -15        15   # BR(~chi_20 -> ~chi_10 tau+    tau-)
     7.53257404E-02    3     1000022       -12        12   # BR(~chi_20 -> ~chi_10 nu_eb   nu_e)
     7.53257404E-02    3     1000022       -14        14   # BR(~chi_20 -> ~chi_10 nu_mub  nu_mu)
     7.53257404E-02    3     1000022       -16        16   # BR(~chi_20 -> ~chi_10 nu_taub nu_tau)
     2.36033933E-05    3     1000024        -2         1   # BR(~chi_20 -> ~chi_1+ ub      d)
     2.36033933E-05    3    -1000024        -1         2   # BR(~chi_20 -> ~chi_1- db      u)
     2.36033933E-05    3     1000024        -4         3   # BR(~chi_20 -> ~chi_1+ cb      s)
     2.36033933E-05    3    -1000024        -3         4   # BR(~chi_20 -> ~chi_1- sb      c)
     7.86779939E-06    3     1000024       -12        11   # BR(~chi_20 -> ~chi_1+ nu_eb   e-)
     7.86779939E-06    3    -1000024        12       -11   # BR(~chi_20 -> ~chi_1- nu_e    e+)
     7.86779939E-06    3     1000024       -14        13   # BR(~chi_20 -> ~chi_1+ nu_mub  mu-)
     7.86779939E-06    3    -1000024        14       -13   # BR(~chi_20 -> ~chi_1- nu_mu   mu+)
     1.36105325E-07    3     1000024       -16        15   # BR(~chi_20 -> ~chi_1+ nu_taub tau-)
     1.36105325E-07    3    -1000024        16       -15   # BR(~chi_20 -> ~chi_1- nu_tau  tau+)
#
#         PDG            Width
DECAY   1000025     4.63840956E-01   # neutralino3 decays
#          BR         NDA      ID1       ID2
     1.83668960E-03    2     1000022        23   # BR(~chi_30 -> ~chi_10   Z )
     2.19036726E-01    2     1000023        23   # BR(~chi_30 -> ~chi_20   Z )
     2.99738275E-01    2     1000024       -24   # BR(~chi_30 -> ~chi_1+   W-)
     2.99738275E-01    2    -1000024        24   # BR(~chi_30 -> ~chi_1-   W+)
     1.79608305E-01    2     1000022        25   # BR(~chi_30 -> ~chi_10   h )
     4.17244148E-05    2     1000023        25   # BR(~chi_30 -> ~chi_20   h )
     3.83988807E-09    2     1000039        22   # BR(~chi_30 -> ~G        gam)
     9.47759348E-10    2     1000039        23   # BR(~chi_30 -> ~G        Z)
     7.38177174E-12    2     1000039        25   # BR(~chi_30 -> ~G        h)
#
#         PDG            Width
DECAY   1000035     3.36661524E+01   # neutralino4 decays
#          BR         NDA      ID1       ID2
     5.03765224E-03    2     1000022        23   # BR(~chi_40 -> ~chi_10   Z )
     1.93141351E-01    2     1000023        23   # BR(~chi_40 -> ~chi_20   Z )
     1.02327192E-03    2     1000025        23   # BR(~chi_40 -> ~chi_30   Z )
     1.94060475E-01    2     1000024       -24   # BR(~chi_40 -> ~chi_1+   W-)
     1.94060475E-01    2    -1000024        24   # BR(~chi_40 -> ~chi_1-   W+)
     1.71038426E-01    2     1000022        25   # BR(~chi_40 -> ~chi_10   h )
     2.76489229E-03    2     1000022        35   # BR(~chi_40 -> ~chi_10   H )
     4.63755780E-02    2     1000022        36   # BR(~chi_40 -> ~chi_10   A )
     6.36403092E-03    2     1000023        25   # BR(~chi_40 -> ~chi_20   h )
     5.01127820E-02    2     1000023        35   # BR(~chi_40 -> ~chi_20   H )
     2.77915688E-03    2     1000023        36   # BR(~chi_40 -> ~chi_20   A )
     2.22350813E-02    2     1000025        25   # BR(~chi_40 -> ~chi_30   h )
     1.48861637E-04    2     1000025        35   # BR(~chi_40 -> ~chi_30   H )
     4.19356954E-03    2     1000025        36   # BR(~chi_40 -> ~chi_30   A )
     5.33270829E-02    2     1000024       -37   # BR(~chi_40 -> ~chi_1+   H-)
     5.33270829E-02    2    -1000024        37   # BR(~chi_40 -> ~chi_1-   H+)
     2.44987558E-06    2     1000039        22   # BR(~chi_40 -> ~G        gam)
     7.77845991E-06    2     1000039        23   # BR(~chi_40 -> ~G        Z)
     4.80593233E-10    2     1000039        25   # BR(~chi_40 -> ~G        h)
     3.81043776E-10    2     1000039        35   # BR(~chi_40 -> ~G        H)
     1.61867901E-13    2     1000039        36   # BR(~chi_40 -> ~G        A)
#
#         PDG            Width
DECAY        25     4.21678298E-03   # h decays
#          BR         NDA      ID1       ID2
     6.01602598E-01    2           5        -5   # BR(h -> b       bb     )
     6.22633616E-02    2         -15        15   # BR(h -> tau+    tau-   )
     2.20385155E-04    2         -13        13   # BR(h -> mu+     mu-    )
     4.66292197E-04    2           3        -3   # BR(h -> s       sb     )
     2.01161623E-02    2           4        -4   # BR(h -> c       cb     )
     6.64324729E-02    2          21        21   # BR(h -> g       g      )
     2.32834548E-03    2          22        22   # BR(h -> gam     gam    )
     1.62704988E-03    2          22        23   # BR(h -> Z       gam    )
     2.16851889E-01    2          24       -24   # BR(h -> W+      W-     )
     2.80914438E-02    2          23        23   # BR(h -> Z       Z      )
#
#         PDG            Width
DECAY        35     4.01483139E+01   # H decays
#          BR         NDA      ID1       ID2
     1.38935106E-03    2           5        -5   # BR(H -> b       bb     )
     2.32091317E-04    2         -15        15   # BR(H -> tau+    tau-   )
     8.20529215E-07    2         -13        13   # BR(H -> mu+     mu-    )
     1.05056592E-06    2           3        -3   # BR(H -> s       sb     )
     9.48135829E-06    2           4        -4   # BR(H -> c       cb     )
     9.38140495E-01    2           6        -6   # BR(H -> t       tb     )
     7.51330252E-04    2          21        21   # BR(H -> g       g      )
     2.62940386E-06    2          22        22   # BR(H -> gam     gam    )
     1.09155930E-06    2          23        22   # BR(H -> Z       gam    )
     3.17268683E-04    2          24       -24   # BR(H -> W+      W-     )
     1.58201596E-04    2          23        23   # BR(H -> Z       Z      )
     8.52360051E-04    2          25        25   # BR(H -> h       h      )
     8.40132101E-24    2          36        36   # BR(H -> A       A      )
     3.35640557E-11    2          23        36   # BR(H -> Z       A      )
     2.46347154E-12    2          24       -37   # BR(H -> W+      H-     )
     2.46347154E-12    2         -24        37   # BR(H -> W-      H+     )
     7.71007512E-05    2     1000024  -1000024   # BR(H -> ~chi_1+ ~chi_1-)
     5.52152997E-04    2     1000022   1000022   # BR(H -> ~chi_10 ~chi_10)
     9.36046510E-05    2     1000023   1000023   # BR(H -> ~chi_20 ~chi_20)
     1.64286170E-04    2     1000025   1000025   # BR(H -> ~chi_30 ~chi_30)
     6.94680308E-03    2     1000022   1000023   # BR(H -> ~chi_10 ~chi_20)
     1.53633452E-03    2     1000022   1000025   # BR(H -> ~chi_10 ~chi_30)
     4.87735468E-02    2     1000023   1000025   # BR(H -> ~chi_20 ~chi_30)
#
#         PDG            Width
DECAY        36     4.05932778E+01   # A decays
#          BR         NDA      ID1       ID2
     1.39230016E-03    2           5        -5   # BR(A -> b       bb     )
     2.29747803E-04    2         -15        15   # BR(A -> tau+    tau-   )
     8.12241479E-07    2         -13        13   # BR(A -> mu+     mu-    )
     1.07082313E-06    2           3        -3   # BR(A -> s       sb     )
     9.38382524E-06    2           4        -4   # BR(A -> c       cb     )
     9.39154489E-01    2           6        -6   # BR(A -> t       tb     )
     8.88927565E-04    2          21        21   # BR(A -> g       g      )
     2.69762625E-06    2          22        22   # BR(A -> gam     gam    )
     1.27304543E-06    2          23        22   # BR(A -> Z       gam    )
     3.09182242E-04    2          23        25   # BR(A -> Z       h      )
     5.85766701E-04    2     1000024  -1000024   # BR(A -> ~chi_1+ ~chi_1-)
     1.28926645E-02    2     1000022   1000022   # BR(A -> ~chi_10 ~chi_10)
     3.65393777E-06    2     1000023   1000023   # BR(A -> ~chi_20 ~chi_20)
     8.84424666E-03    2     1000025   1000025   # BR(A -> ~chi_30 ~chi_30)
     9.65587443E-05    2     1000022   1000023   # BR(A -> ~chi_10 ~chi_20)
     3.36534344E-02    2     1000022   1000025   # BR(A -> ~chi_10 ~chi_30)
     1.93379109E-03    2     1000023   1000025   # BR(A -> ~chi_20 ~chi_30)
#
#         PDG            Width
DECAY        37     3.97902194E+01   # H+ decays
#          BR         NDA      ID1       ID2
     2.23411003E-06    2           4        -5   # BR(H+ -> c       bb     )
     2.34630323E-04    2         -15        16   # BR(H+ -> tau+    nu_tau )
     8.29502948E-07    2         -13        14   # BR(H+ -> mu+     nu_mu  )
     1.42042756E-08    2           2        -5   # BR(H+ -> u       bb     )
     5.13691971E-08    2           2        -3   # BR(H+ -> u       sb     )
     1.02355061E-05    2           4        -3   # BR(H+ -> c       sb     )
     9.40803835E-01    2           6        -5   # BR(H+ -> t       bb     )
     3.16866722E-04    2          24        25   # BR(H+ -> W+      h      )
     1.33785340E-12    2          24        36   # BR(H+ -> W+      A      )
     5.57959075E-03    2     1000024   1000022   # BR(H+ -> ~chi_1+ ~chi_10)
     1.23540446E-04    2     1000024   1000023   # BR(H+ -> ~chi_1+ ~chi_20)
     5.29281717E-02    2     1000024   1000025   # BR(H+ -> ~chi_1+ ~chi_30)
