# SUSY Les Houches Accord 2 - MSSM spectrum + Decays
# SPheno v3.1.12 
# W. Porod, Comput. Phys. Commun. 153 (2003) 275-315, hep-ph/0301101
# in case of problems send email to porod@physik.uni-wuerzburg.de
# Created: 09.12.2016,  15:23
Block SPINFO         # Program information
     1   SPheno      # spectrum calculator
     2   v3.1.12     # version number
#
Block SPhenoINFO     # SPheno specific information
    1      2         # using 2-loop RGEs
    2      1         # using running masses for boundary conditions at mZ
Block MODSEL  # Model selection
    1    2    # mGMSB model
Block MINPAR  # Input parameters
    1    1.40000000E+05  # Lambda, scale of SUSY breaking
    2    2.50000000E+05  # M_M, messenger mass scale
    3    5.00000000E+01  # tanb at m_Z   
    4    1.00000000E+00  # Sign(mu)
    5    3.00000000E+00  # N_5 number of effective five-plets
    6    1.00000000E+00  # c_grav, Gravitino mass factor
Block gauge Q=  2.50000000E+05  # (GMSB scale)
   1    4.93048148E-01  # g'(Q)^DRbar
   2    6.46712224E-01  # g(Q)^DRbar
   3    9.33239143E-01  # g3(Q)^DRbar
Block SMINPUTS  # SM parameters
         1     1.27932532E+02  # alpha_em^-1(MZ)^MSbar
         2     1.16639000E-05  # G_mu [GeV^-2]
         3     1.17200000E-01  # alpha_s(MZ)^MSbar
         4     9.11876000E+01  # m_Z(pole)
         5     4.20000000E+00  # m_b(m_b), MSbar
         6     1.72500000E+02  # m_t(pole)
         7     1.77700000E+00  # m_tau(pole)
         8     0.00000000E+00  # m_nu_3
        11     5.10998910E-04  # m_e(pole)
        12     0.00000000E+00  # m_nu_1
        13     1.05658000E-01  # m_muon(pole)
        14     0.00000000E+00  # m_nu_2
        21     5.00000000E-03  # m_d(2 GeV), MSbar
        22     3.00000000E-03  # m_u(2 GeV), MSbar
        23     1.05000000E-01  # m_s(2 GeV), MSbar
        24     1.27000000E+00  # m_c(m_c), MSbar
Block gauge Q=  2.61983995E+03  # (SUSY scale)
   1    3.65140606E-01  # g'(Q)^DRbar
   2    6.37765035E-01  # g(Q)^DRbar
   3    1.01018475E+00  # g3(Q)^DRbar
Block Yu Q=  2.61983995E+03  # (SUSY scale)
  1  1     8.30593176E-06   # Y_u(Q)^DRbar
  2  2     3.51618014E-03   # Y_c(Q)^DRbar
  3  3     8.36425020E-01   # Y_t(Q)^DRbar
Block Yd Q=  2.61983995E+03  # (SUSY scale)
  1  1     5.81586882E-04   # Y_d(Q)^DRbar
  2  2     1.22133141E-02   # Y_s(Q)^DRbar
  3  3     5.90118347E-01   # Y_b(Q)^DRbar
Block Ye Q=  2.61983995E+03  # (SUSY scale)
  1  1     1.58749032E-04   # Y_e(Q)^DRbar
  2  2     3.28246641E-02   # Y_mu(Q)^DRbar
  3  3     5.54324093E-01   # Y_tau(Q)^DRbar
Block Au Q=  2.61983995E+03  # (SUSY scale)
  1  1    -8.03482072E+02   # A_u(Q)^DRbar
  2  2    -8.03478242E+02   # A_c(Q)^DRbar
  3  3    -7.53714735E+02   # A_t(Q)^DRbar
Block Ad Q=  2.61983995E+03  # (SUSY scale)
  1  1    -8.26453669E+02   # A_d(Q)^DRbar
  2  2    -8.26444042E+02   # A_s(Q)^DRbar
  3  3    -7.90832569E+02   # A_b(Q)^DRbar
Block Ae Q=  2.61983995E+03  # (SUSY scale)
  1  1    -6.95541478E+01   # A_e(Q)^DRbar
  2  2    -6.95461370E+01   # A_mu(Q)^DRbar
  3  3    -6.72804354E+01   # A_tau(Q)^DRbar
Block MSOFT Q=  2.61983995E+03  # soft SUSY breaking masses at Q
   1    6.22849523E+02  # M_1
   2    1.13653522E+03  # M_2
   3    2.86329779E+03  # M_3
  21    2.90821864E+04  # M^2_(H,d)
  22   -6.42944327E+05  # M^2_(H,u)
  31    8.69708181E+02  # M_(L,11)
  32    8.69666449E+02  # M_(L,22)
  33    8.57830202E+02  # M_(L,33)
  34    4.23285360E+02  # M_(E,11)
  35    4.23110069E+02  # M_(E,22)
  36    3.70171972E+02  # M_(E,33)
  41    2.74175420E+03  # M_(Q,11)
  42    2.74173565E+03  # M_(Q,22)
  43    2.62151839E+03  # M_(Q,33)
  44    2.62769857E+03  # M_(U,11)
  45    2.62769561E+03  # M_(U,22)
  46    2.45758550E+03  # M_(U,33)
  47    2.61658586E+03  # M_(D,11)
  48    2.61654956E+03  # M_(D,22)
  49    2.53138879E+03  # M_(D,33)
Block MASS  # Mass spectrum
#   PDG code      mass          particle
         6     1.72500000E+02  # m_t(pole)
        23     9.11876000E+01  # m_Z(pole)
        24     8.03097479E+01  # W+
        15     1.77700000E+00  # m_tau(pole)
        25     1.20761833E+02  # h0
        35     8.54384620E+02  # H0
        36     8.54352290E+02  # A0
        37     8.58886395E+02  # H+
   1000001     2.85393493E+03  # ~d_L
   2000001     2.72195506E+03  # ~d_R
   1000002     2.85281127E+03  # ~u_L
   2000002     2.73247702E+03  # ~u_R
   1000003     2.85391311E+03  # ~s_L
   2000003     2.72190998E+03  # ~s_R
   1000004     2.85278872E+03  # ~c_L
   2000004     2.73247345E+03  # ~c_R
   1000005     2.61458589E+03  # ~b_1
   2000005     2.71041251E+03  # ~b_2
   1000006     2.52917515E+03  # ~t_1
   2000006     2.71375435E+03  # ~t_2
   1000011     8.89553675E+02  # ~e_L-
   2000011     4.39423429E+02  # ~e_R-
   1000012     8.85576705E+02  # ~nu_eL
   1000013     8.89518993E+02  # ~mu_L-
   2000013     4.39157180E+02  # ~mu_R-
   1000014     8.85516830E+02  # ~nu_muL
   1000015     3.58133522E+02  # ~tau_1-
   2000015     8.79533100E+02  # ~tau_2-
   1000016     8.68861575E+02  # ~nu_tauL
   1000021     2.99925436E+03  # ~g
   1000022     6.05982190E+02  # ~chi_10
   1000023     8.87051622E+02  # ~chi_20
   1000025    -8.96941927E+02  # ~chi_30
   1000035     1.17246905E+03  # ~chi_40
   1000024     8.84977475E+02  # ~chi_1+
   1000037     1.17265906E+03  # ~chi_2+
   1000039     8.40000000E-09  # ~G
# Higgs mixing
Block alpha # Effective Higgs mixing angle
          -2.09988498E-02   # alpha
Block Hmix Q=  2.61983995E+03  # Higgs mixing parameters
   1    8.88143366E+02  # mu
   2    4.91368010E+01  # tan[beta](Q)
   3    2.43417196E+02  # v(Q)
   4    6.64583344E+05  # m^2_A(Q)
Block stopmix # stop mixing matrix
   1  1     1.41508692E-01   # Re[R_st(1,1)]
   1  2     9.89937013E-01   # Re[R_st(1,2)]
   2  1    -9.89937013E-01   # Re[R_st(2,1)]
   2  2     1.41508692E-01   # Re[R_st(2,2)]
Block sbotmix # sbottom mixing matrix
   1  1     1.93176535E-01   # Re[R_sb(1,1)]
   1  2     9.81164016E-01   # Re[R_sb(1,2)]
   2  1    -9.81164016E-01   # Re[R_sb(2,1)]
   2  2     1.93176535E-01   # Re[R_sb(2,2)]
Block staumix # stau mixing matrix
   1  1     1.34168454E-01   # Re[R_sta(1,1)]
   1  2     9.90958539E-01   # Re[R_sta(1,2)]
   2  1    -9.90958539E-01   # Re[R_sta(2,1)]
   2  2     1.34168454E-01   # Re[R_sta(2,2)]
Block Nmix # neutralino mixing matrix
   1  1    -9.93281574E-01   # Re[N(1,1)]
   1  2     9.51050970E-03   # Re[N(1,2)]
   1  3    -9.48134357E-02   # Re[N(1,3)]
   1  4     6.56633611E-02   # Re[N(1,4)]
   2  1    -1.13182035E-01   # Re[N(2,1)]
   2  2    -2.00223397E-01   # Re[N(2,2)]
   2  3     6.91105495E-01   # Re[N(2,3)]
   2  4    -6.85181446E-01   # Re[N(2,4)]
   3  1    -2.03487257E-02   # Re[N(3,1)]
   3  2     2.66038158E-02   # Re[N(3,2)]
   3  3     7.05864520E-01   # Re[N(3,3)]
   3  4     7.07554554E-01   # Re[N(3,4)]
   4  1    -1.29410491E-02   # Re[N(4,1)]
   4  2     9.79342830E-01   # Re[N(4,2)]
   4  3     1.23040186E-01   # Re[N(4,3)]
   4  4    -1.59941437E-01   # Re[N(4,4)]
Block Umix # chargino mixing matrix
   1  1    -1.74091974E-01   # Re[U(1,1)]
   1  2     9.84729397E-01   # Re[U(1,2)]
   2  1     9.84729397E-01   # Re[U(2,1)]
   2  2     1.74091974E-01   # Re[U(2,2)]
Block Vmix # chargino mixing matrix
   1  1    -2.26194987E-01   # Re[V(1,1)]
   1  2     9.74082044E-01   # Re[V(1,2)]
   2  1     9.74082044E-01   # Re[V(2,1)]
   2  2     2.26194987E-01   # Re[V(2,2)]
DECAY   2000011     1.55657522E-06   # ~e^-_R
#    BR                NDA      ID1      ID2
     1.70938539E-04    2     1000039        11   # BR(~e^-_R -> ~G e^-)
#    BR                NDA      ID1      ID2       ID3
     6.27331918E-14    3     2000013        11       -13   # BR(~e^-_R -> ~mu^-_R e^- mu^+)
     2.29045953E-13    3    -2000013        11        13   # BR(~e^-_R -> ~mu^+_R e^- mu^-)
     1.86841338E-01    3     1000015        11       -15   # BR(~e^-_R -> ~tau^-_1 e^- tau^+)
     8.12987723E-01    3    -1000015        11        15   # BR(~e^-_R -> ~tau^+_1 e^- tau^-)
DECAY   1000011     3.23266468E-01   # ~e^-_L
#    BR                NDA      ID1      ID2
     9.99903237E-01    2     1000022        11   # BR(~e^-_L -> chi^0_1 e^-)
     2.46767883E-05    2     1000023        11   # BR(~e^-_L -> chi^0_2 e^-)
     7.10737271E-05    2    -1000024        12   # BR(~e^-_L -> chi^-_1 nu_e)
     4.84637357E-07    2     2000011        23   # BR(~e^-_L -> ~e^-_R Z)
     4.99951290E-07    2     2000011        25   # BR(~e^-_L -> ~e^-_R h^0)
     2.79829946E-08    2     1000039        11   # BR(~e^-_L -> ~G e^-)
DECAY   2000013     1.53639209E-06   # ~mu^-_R
#    BR                NDA      ID1      ID2
     1.72660038E-04    2     1000039        13   # BR(~mu^-_R -> ~G mu^-)
#    BR                NDA      ID1      ID2       ID3
     1.86258667E-01    3     1000015        13       -15   # BR(~mu^-_R -> ~tau^-_1 mu^- tau^+)
     8.13568673E-01    3    -1000015        13        15   # BR(~mu^-_R -> ~tau^+_1 mu^- tau^-)
DECAY   1000013     3.36872956E-01   # ~mu^-_L
#    BR                NDA      ID1      ID2
     9.59503343E-01    2     1000022        13   # BR(~mu^-_L -> chi^0_1 mu^-)
     2.34171678E-05    2     1000023        13   # BR(~mu^-_L -> chi^0_2 mu^-)
     6.68395330E-05    2    -1000024        14   # BR(~mu^-_L -> chi^-_1 nu_mu)
     1.98916431E-02    2     2000013        23   # BR(~mu^-_L -> ~mu^-_R Z)
     2.05147308E-02    2     2000013        25   # BR(~mu^-_L -> ~mu^-_R h^0)
     2.68475099E-08    2     1000039        13   # BR(~mu^-_L -> ~G mu^-)
DECAY   1000015     9.56700834E-11   # ~tau^-_1
#    BR                NDA      ID1      ID2
     1.00000000E+00    2     1000039        15   # BR(~tau^-_1 -> ~G tau^-)
DECAY   2000015     4.51744288E+00   # ~tau^-_2
#    BR                NDA      ID1      ID2
     7.08119426E-02    2     1000022        15   # BR(~tau^-_2 -> chi^0_1 tau^-)
     4.72665074E-01    2     1000015        23   # BR(~tau^-_2 -> ~tau^-_1 Z)
     4.56522981E-01    2     1000015        25   # BR(~tau^-_2 -> ~tau^-_1 h^0)
     1.89214858E-09    2     1000039        15   # BR(~tau^-_2 -> ~G tau^-)
DECAY   1000012     3.38713001E-01   # ~nu_e
#    BR                NDA      ID1      ID2
     9.99997101E-01    2     1000022        12   # BR(~nu_e -> chi^0_1 nu_e)
     1.98112716E-06    2     1000024        11   # BR(~nu_e -> chi^+_1 e^-)
     8.91803411E-07    2     2000011        24   # BR(~nu_e -> ~e^-_R W^+)
     2.61151851E-08    2     1000039        12   # BR(~nu_e -> ~G nu_e)
DECAY   1000014     3.51527949E-01   # ~nu_mu
#    BR                NDA      ID1      ID2
     9.63247620E-01    2     1000022        14   # BR(~nu_mu -> chi^0_1 nu_mu)
     1.45975215E-06    2     1000024        13   # BR(~nu_mu -> chi^+_1 mu^-)
     3.67508951E-02    2     2000013        24   # BR(~nu_mu -> ~mu^-_R W^+)
     2.51546509E-08    2     1000039        14   # BR(~nu_mu -> ~G nu_mu)
DECAY   1000016     4.36435647E+00   # ~nu_tau
#    BR                NDA      ID1      ID2
     7.10238411E-02    2     1000022        16   # BR(~nu_tau -> chi^0_1 nu_tau)
     9.28976157E-01    2     1000015        24   # BR(~nu_tau -> ~tau^-_1 W^+)
     1.84258188E-09    2     1000039        16   # BR(~nu_tau -> ~G nu_tau)
DECAY   2000001     1.44707255E+00   # ~d_R
#    BR                NDA      ID1      ID2
     9.88143544E-01    2     1000022         1   # BR(~d_R -> chi^0_1 d)
     1.13515143E-02    2     1000023         1   # BR(~d_R -> chi^0_2 d)
     3.69763860E-04    2     1000025         1   # BR(~d_R -> chi^0_3 d)
     1.23173954E-04    2     1000035         1   # BR(~d_R -> chi^0_4 d)
     1.03177909E-05    2    -1000024         2   # BR(~d_R -> chi^-_1 u)
     9.45428425E-09    2    -1000037         2   # BR(~d_R -> chi^-_2 u)
     1.67690516E-06    2     1000039         1   # BR(~d_R -> ~G d)
DECAY   1000001     2.44596087E+01   # ~d_L
#    BR                NDA      ID1      ID2
     1.70595186E-02    2     1000022         1   # BR(~d_L -> chi^0_1 d)
     1.22929449E-02    2     1000023         1   # BR(~d_L -> chi^0_2 d)
     3.56706964E-04    2     1000025         1   # BR(~d_L -> chi^0_3 d)
     3.14418324E-01    2     1000035         1   # BR(~d_L -> chi^0_4 d)
     2.33770662E-02    2    -1000024         2   # BR(~d_L -> chi^-_1 u)
     6.32495311E-01    2    -1000037         2   # BR(~d_L -> chi^-_2 u)
     7.26661343E-13    2     2000002       -24   # BR(~d_L -> ~u_R W^-)
     1.44838373E-09    2     2000001        23   # BR(~d_L -> ~d_R Z)
     1.41652303E-09    2     2000001        25   # BR(~d_L -> ~d_R h^0)
     1.25708570E-07    2     1000039         1   # BR(~d_L -> ~G d)
DECAY   2000003     1.46011375E+00   # ~s_R
#    BR                NDA      ID1      ID2
     9.79392607E-01    2     1000022         3   # BR(~s_R -> chi^0_1 s)
     1.34407715E-02    2     1000023         3   # BR(~s_R -> chi^0_2 s)
     2.52777815E-03    2     1000025         3   # BR(~s_R -> chi^0_3 s)
     1.23726763E-04    2     1000035         3   # BR(~s_R -> chi^0_4 s)
     4.50931685E-03    2    -1000024         4   # BR(~s_R -> chi^-_1 c)
     4.13751730E-06    2    -1000037         4   # BR(~s_R -> chi^-_2 c)
     1.66179004E-06    2     1000039         3   # BR(~s_R -> ~G s)
DECAY   1000003     2.44664875E+01   # ~s_L
#    BR                NDA      ID1      ID2
     1.70542439E-02    2     1000022         3   # BR(~s_L -> chi^0_1 s)
     1.24185031E-02    2     1000023         3   # BR(~s_L -> chi^0_2 s)
     4.97879390E-04    2     1000025         3   # BR(~s_L -> chi^0_3 s)
     3.14332763E-01    2     1000035         3   # BR(~s_L -> chi^0_4 s)
     2.33780511E-02    2    -1000024         4   # BR(~s_L -> chi^-_1 c)
     6.32317040E-01    2    -1000037         4   # BR(~s_L -> chi^-_2 c)
     1.30126414E-07    2     2000004       -24   # BR(~s_L -> ~c_R W^-)
     6.38981819E-07    2     2000003        23   # BR(~s_L -> ~s_R Z)
     6.25175122E-07    2     2000003        25   # BR(~s_L -> ~s_R h^0)
     1.25668422E-07    2     1000039         3   # BR(~s_L -> ~G s)
DECAY   1000005     3.06338626E+01   # ~b_1
#    BR                NDA      ID1      ID2
     5.63813300E-02    2     1000022         5   # BR(~b_1 -> chi^0_1 b)
     2.34426046E-01    2     1000023         5   # BR(~b_1 -> chi^0_2 b)
     2.25876206E-01    2     1000025         5   # BR(~b_1 -> chi^0_3 b)
     3.73945486E-04    2     1000035         5   # BR(~b_1 -> chi^0_4 b)
     4.80942410E-01    2    -1000024         6   # BR(~b_1 -> chi^-_1 t)
     1.99713523E-03    2    -1000037         6   # BR(~b_1 -> chi^-_2 t)
     2.86271822E-06    2     1000006       -24   # BR(~b_1 -> ~t_1 W^-)
     6.47742477E-08    2     1000039         5   # BR(~b_1 -> ~G b)
DECAY   2000005     6.58448688E+01   # ~b_2
#    BR                NDA      ID1      ID2
     4.76520981E-03    2     1000022         5   # BR(~b_2 -> chi^0_1 b)
     1.06516839E-01    2     1000023         5   # BR(~b_2 -> chi^0_2 b)
     1.14502632E-01    2     1000025         5   # BR(~b_2 -> chi^0_3 b)
     1.11659845E-01    2     1000035         5   # BR(~b_2 -> chi^0_4 b)
     4.13627409E-01    2    -1000024         6   # BR(~b_2 -> chi^-_1 t)
     2.43205566E-01    2    -1000037         6   # BR(~b_2 -> chi^-_2 t)
     5.68832626E-03    2     1000006       -24   # BR(~b_2 -> ~t_1 W^-)
     3.41376028E-05    2     1000005        23   # BR(~b_2 -> ~b_1 Z)
     3.60782043E-08    2     1000039         5   # BR(~b_2 -> ~G b)
DECAY   2000002     5.81526973E+00   # ~u_R
#    BR                NDA      ID1      ID2
     9.88152643E-01    2     1000022         2   # BR(~u_R -> chi^0_1 u)
     1.13582257E-02    2     1000023         2   # BR(~u_R -> chi^0_2 u)
     3.65201707E-04    2     1000025         2   # BR(~u_R -> chi^0_3 u)
     1.23504036E-04    2     1000035         2   # BR(~u_R -> chi^0_4 u)
     5.30121826E-10    2     1000024         1   # BR(~u_R -> chi^+_1 d)
     1.49559786E-12    2     1000037         1   # BR(~u_R -> chi^+_2 d)
     4.25409105E-07    2     1000039         2   # BR(~u_R -> ~G u)
DECAY   1000002     2.45091730E+01   # ~u_L
#    BR                NDA      ID1      ID2
     1.39205056E-02    2     1000022         2   # BR(~u_L -> chi^0_1 u)
     1.89086729E-02    2     1000023         2   # BR(~u_L -> chi^0_2 u)
     1.97419661E-04    2     1000025         2   # BR(~u_L -> chi^0_3 u)
     3.10411519E-01    2     1000035         2   # BR(~u_L -> chi^0_4 u)
     3.93625207E-02    2     1000024         1   # BR(~u_L -> chi^+_1 d)
     6.17199233E-01    2     1000037         1   # BR(~u_L -> chi^+_2 d)
     3.56605220E-09    2     2000001        24   # BR(~u_L -> ~d_R W^+)
     2.39079759E-13    2     2000002        23   # BR(~u_L -> ~u_R Z)
     1.25207576E-07    2     1000039         2   # BR(~u_L -> ~G u)
DECAY   2000004     5.81635440E+00   # ~c_R
#    BR                NDA      ID1      ID2
     9.87966723E-01    2     1000022         4   # BR(~c_R -> chi^0_1 c)
     1.14021284E-02    2     1000023         4   # BR(~c_R -> chi^0_2 c)
     4.11880594E-04    2     1000025         4   # BR(~c_R -> chi^0_3 c)
     1.23586656E-04    2     1000035         4   # BR(~c_R -> chi^0_4 c)
     9.49879698E-05    2     1000024         3   # BR(~c_R -> chi^+_1 s)
     2.67761616E-07    2     1000037         3   # BR(~c_R -> chi^+_2 s)
     4.25326629E-07    2     1000039         4   # BR(~c_R -> ~G c)
DECAY   1000004     2.45162733E+01   # ~c_L
#    BR                NDA      ID1      ID2
     1.39164114E-02    2     1000022         4   # BR(~c_L -> chi^0_1 c)
     1.89131145E-02    2     1000023         4   # BR(~c_L -> chi^0_2 c)
     2.08872829E-04    2     1000025         4   # BR(~c_L -> chi^0_3 c)
     3.10318330E-01    2     1000035         4   # BR(~c_L -> chi^0_4 c)
     3.96215886E-02    2     1000024         3   # BR(~c_L -> chi^+_1 s)
     6.17019942E-01    2     1000037         3   # BR(~c_L -> chi^+_2 s)
     1.57294124E-06    2     2000003        24   # BR(~c_L -> ~s_R W^+)
     4.27996931E-08    2     2000004        23   # BR(~c_L -> ~c_R Z)
     1.25166267E-07    2     1000039         4   # BR(~c_L -> ~G c)
DECAY   1000006     5.91255106E+01   # ~t_1
#    BR                NDA      ID1      ID2
     2.34346386E-04    2     1000022         4   # BR(~t_1 -> chi^0_1 c)
     9.03168178E-02    2     1000022         6   # BR(~t_1 -> chi^0_1 t)
     3.07893055E-04    2     1000023         4   # BR(~t_1 -> chi^0_2 c)
     2.18059175E-01    2     1000023         6   # BR(~t_1 -> chi^0_2 t)
     2.30714454E-01    2     1000025         6   # BR(~t_1 -> chi^0_3 t)
     2.56196859E-03    2     1000035         6   # BR(~t_1 -> chi^0_4 t)
     4.52501586E-01    2     1000024         5   # BR(~t_1 -> chi^+_1 b)
     5.28758154E-03    2     1000037         5   # BR(~t_1 -> chi^+_2 b)
     2.79006191E-08    2     1000039         6   # BR(~t_1 -> ~G t)
#    BR                NDA      ID1      ID2       ID3
     1.61499623E-05    3     1000022        24         5   # BR(~t_1 -> chi^0_1 W^+ b)
DECAY   2000006     6.68688367E+01   # ~t_2
#    BR                NDA      ID1      ID2
     5.66201040E-03    2     1000022         6   # BR(~t_2 -> chi^0_1 t)
     2.08810284E-01    2     1000023         6   # BR(~t_2 -> chi^0_2 t)
     2.17757385E-01    2     1000025         6   # BR(~t_2 -> chi^0_3 t)
     1.22916881E-01    2     1000035         6   # BR(~t_2 -> chi^0_4 t)
     2.13838194E-01    2     1000024         5   # BR(~t_2 -> chi^+_1 b)
     2.25570495E-01    2     1000037         5   # BR(~t_2 -> chi^+_2 b)
     5.11195377E-04    2     1000005        24   # BR(~t_2 -> ~b_1 W^+)
     2.82420191E-03    2     1000006        23   # BR(~t_2 -> ~t_1 Z)
     2.10931949E-03    2     1000006        25   # BR(~t_2 -> ~t_1 h^0)
     3.51713979E-08    2     1000039         6   # BR(~t_2 -> ~G t)
DECAY   1000024     2.30682808E+00   # chi^+_1
#    BR                NDA      ID1      ID2
     5.60956030E-08    2    -2000011        12   # BR(chi^+_1 -> ~e^+_R nu_e)
     2.40001409E-03    2    -2000013        14   # BR(chi^+_1 -> ~mu^+_R nu_mu)
     8.24406291E-01    2    -1000015        16   # BR(chi^+_1 -> ~tau^+_1 nu_tau)
     7.77077707E-07    2    -2000015        16   # BR(chi^+_1 -> ~tau^+_2 nu_tau)
     1.66146339E-03    2     1000016       -15   # BR(chi^+_1 -> ~nu_tau tau^+)
     1.71346122E-01    2     1000022        24   # BR(chi^+_1 -> chi^0_1 W^+)
#    BR                NDA      ID1      ID2       ID3
     5.33719659E-10    3     1000022        -1         2   # BR(chi^+_1 -> chi^0_1 d_bar u)
     2.33126669E-09    3     1000022        -3         4   # BR(chi^+_1 -> chi^0_1 s_bar c)
     1.67328449E-04    3     1000022        -5         6   # BR(chi^+_1 -> chi^0_1 b_bar t)
     3.38724177E-06    3     1000022       -11        12   # BR(chi^+_1 -> chi^0_1 e^+ nu_e)
     3.47375312E-06    3     1000022       -13        14   # BR(chi^+_1 -> chi^0_1 mu^+ nu_mu)
     1.10839489E-05    3     1000022       -15        16   # BR(chi^+_1 -> chi^0_1 tau^+ nu_tau)
DECAY   1000037     1.05308691E+01   # chi^+_2
#    BR                NDA      ID1      ID2
     2.26918753E-12    2    -2000011        12   # BR(chi^+_2 -> ~e^+_R nu_e)
     7.87479127E-02    2    -1000011        12   # BR(chi^+_2 -> ~e^+_L nu_e)
     9.77774643E-08    2    -2000013        14   # BR(chi^+_2 -> ~mu^+_R nu_mu)
     7.87710559E-02    2    -1000013        14   # BR(chi^+_2 -> ~mu^+_L nu_mu)
     1.17720140E-04    2    -1000015        16   # BR(chi^+_2 -> ~tau^+_1 nu_tau)
     8.55493469E-02    2    -2000015        16   # BR(chi^+_2 -> ~tau^+_2 nu_tau)
     7.89289585E-02    2     1000012       -11   # BR(chi^+_2 -> ~nu_e e^+)
     7.89633590E-02    2     1000014       -13   # BR(chi^+_2 -> ~nu_mu mu^+)
     8.88736219E-02    2     1000016       -15   # BR(chi^+_2 -> ~nu_tau tau^+)
     2.53375960E-04    2     1000022        24   # BR(chi^+_2 -> chi^0_1 W^+)
     1.32921139E-01    2     1000023        24   # BR(chi^+_2 -> chi^0_2 W^+)
     1.23424697E-01    2     1000025        24   # BR(chi^+_2 -> chi^0_3 W^+)
     1.32218453E-01    2     1000024        23   # BR(chi^+_2 -> chi^+_1 Z)
     1.20913234E-01    2     1000024        25   # BR(chi^+_2 -> chi^+_1 h^0)
#    BR                NDA      ID1      ID2       ID3
     2.45344232E-09    3     1000024         2        -2   # BR(chi^+_2 -> chi^+_1 u u_bar)
     2.45194419E-09    3     1000024         4        -4   # BR(chi^+_2 -> chi^+_1 c c_bar)
     4.06735792E-09    3     1000024         1        -1   # BR(chi^+_2 -> chi^+_1 d d_bar)
     7.28748628E-09    3     1000024         3        -3   # BR(chi^+_2 -> chi^+_1 s s_bar)
     7.62287464E-06    3     1000024         5        -5   # BR(chi^+_2 -> chi^+_1 b b_bar)
     1.64021857E-13    3     1000024        11       -11   # BR(chi^+_2 -> chi^+_1 e^- e^+)
     7.01261723E-09    3     1000024        13       -13   # BR(chi^+_2 -> chi^+_1 mu^- mu^+)
     1.84527817E-05    3     1000024        15       -15   # BR(chi^+_2 -> chi^+_1 tau^- tau^+)
     1.03727410E-07    3     1000024        12       -12   # BR(chi^+_2 -> chi^+_1 nu_e nu_bar_e)
     7.23733397E-08    3     1000022        -1         2   # BR(chi^+_2 -> chi^0_1 d_bar u)
     7.24366800E-08    3     1000022        -3         4   # BR(chi^+_2 -> chi^0_1 s_bar c)
     2.31322698E-06    3     1000022        -5         6   # BR(chi^+_2 -> chi^0_1 b_bar t)
     2.07719670E-10    3     1000022       -13        14   # BR(chi^+_2 -> chi^0_1 mu^+ nu_mu)
     7.84327054E-08    3     1000022       -15        16   # BR(chi^+_2 -> chi^0_1 tau^+ nu_tau)
     1.63795574E-09    3     1000023        -1         2   # BR(chi^+_2 -> chi^0_2 d_bar u)
     3.28866687E-09    3     1000023        -3         4   # BR(chi^+_2 -> chi^0_2 s_bar c)
     1.54654132E-04    3     1000023        -5         6   # BR(chi^+_2 -> chi^0_2 b_bar t)
     3.52962633E-07    3     1000023       -11        12   # BR(chi^+_2 -> chi^0_2 e^+ nu_e)
     3.55493749E-07    3     1000023       -13        14   # BR(chi^+_2 -> chi^0_2 mu^+ nu_mu)
     9.78517248E-06    3     1000023       -15        16   # BR(chi^+_2 -> chi^0_2 tau^+ nu_tau)
     7.35470461E-11    3     1000025        -1         2   # BR(chi^+_2 -> chi^0_3 d_bar u)
     1.37944409E-09    3     1000025        -3         4   # BR(chi^+_2 -> chi^0_3 s_bar c)
     1.16313474E-04    3     1000025        -5         6   # BR(chi^+_2 -> chi^0_3 b_bar t)
     2.54507963E-08    3     1000025       -11        12   # BR(chi^+_2 -> chi^0_3 e^+ nu_e)
     5.66888200E-08    3     1000025       -13        14   # BR(chi^+_2 -> chi^0_3 mu^+ nu_mu)
     6.73899559E-06    3     1000025       -15        16   # BR(chi^+_2 -> chi^0_3 tau^+ nu_tau)
DECAY   1000022     2.78636352E+00   # chi^0_1
#    BR                NDA      ID1      ID2
     1.27962417E-01    2     2000011       -11   # BR(chi^0_1 -> ~e^-_R e^+)
     1.27962417E-01    2    -2000011        11   # BR(chi^0_1 -> ~e^+_R e^-)
     1.28311180E-01    2     2000013       -13   # BR(chi^0_1 -> ~mu^-_R mu^+)
     1.28311180E-01    2    -2000013        13   # BR(chi^0_1 -> ~mu^+_R mu^-)
     2.43726403E-01    2     1000015       -15   # BR(chi^0_1 -> ~tau^-_1 tau^+)
     2.43726403E-01    2    -1000015        15   # BR(chi^0_1 -> ~tau^+_1 tau^-)
     3.50022172E-10    2     1000039        22   # BR(chi^0_1 -> ~G photon)
     1.04262833E-10    2     1000039        23   # BR(chi^0_1 -> ~G Z)
     2.17557257E-12    2     1000039        25   # BR(chi^0_1 -> ~G h^0)
DECAY   1000023     2.44196476E+00   # chi^0_2
#    BR                NDA      ID1      ID2
     7.02835946E-03    2     2000011       -11   # BR(chi^0_2 -> ~e^-_R e^+)
     7.02835946E-03    2    -2000011        11   # BR(chi^0_2 -> ~e^+_R e^-)
     8.14217547E-03    2     2000013       -13   # BR(chi^0_2 -> ~mu^-_R mu^+)
     8.14217547E-03    2    -2000013        13   # BR(chi^0_2 -> ~mu^+_R mu^-)
     3.96341402E-01    2     1000015       -15   # BR(chi^0_2 -> ~tau^-_1 tau^+)
     3.96341402E-01    2    -1000015        15   # BR(chi^0_2 -> ~tau^+_1 tau^-)
     1.67061478E-04    2     2000015       -15   # BR(chi^0_2 -> ~tau^-_2 tau^+)
     1.67061478E-04    2    -2000015        15   # BR(chi^0_2 -> ~tau^+_2 tau^-)
     1.48785927E-07    2     1000012       -12   # BR(chi^0_2 -> ~nu_e nu_bar_e)
     1.48785927E-07    2    -1000012        12   # BR(chi^0_2 -> ~nu^*_e nu_e)
     1.61100277E-07    2     1000014       -14   # BR(chi^0_2 -> ~nu_mu nu_bar_mu)
     1.61100277E-07    2    -1000014        14   # BR(chi^0_2 -> ~nu^*_mu nu_mu)
     2.22057182E-05    2     1000016       -16   # BR(chi^0_2 -> ~nu_tau nu_bar_tau)
     2.22057182E-05    2    -1000016        16   # BR(chi^0_2 -> ~nu^*_tau nu_tau)
     6.72476632E-03    2     1000022        23   # BR(chi^0_2 -> chi^0_1 Z)
     1.69850005E-01    2     1000022        25   # BR(chi^0_2 -> chi^0_1 h^0)
     1.42770457E-10    2     1000039        22   # BR(chi^0_2 -> ~G photon)
     1.96417675E-10    2     1000039        23   # BR(chi^0_2 -> ~G Z)
     1.78680516E-09    2     1000039        25   # BR(chi^0_2 -> ~G h^0)
     1.30163433E-07    2     1000022        22   # BR(chi^0_2 -> chi^0_1 photon)
#    BR                NDA      ID1      ID2       ID3
     1.23036184E-09    3     1000022         2        -2   # BR(chi^0_2 -> chi^0_1 u u_bar)
     1.23206893E-09    3     1000022         4        -4   # BR(chi^0_2 -> chi^0_1 c c_bar)
     2.93864425E-10    3     1000022         1        -1   # BR(chi^0_2 -> chi^0_1 d d_bar)
     2.26978830E-09    3     1000022         3        -3   # BR(chi^0_2 -> chi^0_1 s s_bar)
     4.66437996E-06    3     1000022         5        -5   # BR(chi^0_2 -> chi^0_1 b b_bar)
     3.24031759E-06    3     1000022        11       -11   # BR(chi^0_2 -> chi^0_1 e^- e^+)
     3.28362086E-06    3     1000022        13       -13   # BR(chi^0_2 -> chi^0_1 mu^- mu^+)
     1.08745863E-05    3     1000022        15       -15   # BR(chi^0_2 -> chi^0_1 tau^- tau^+)
     6.70726653E-12    3     1000024         1        -2   # BR(chi^0_2 -> chi^+_1 d u_bar)
     6.70726653E-12    3    -1000024        -1         2   # BR(chi^0_2 -> chi^-_1 d_bar u)
     9.21308363E-13    3     1000024         3        -4   # BR(chi^0_2 -> chi^+_1 s c_bar)
     9.21308363E-13    3    -1000024        -3         4   # BR(chi^0_2 -> chi^-_1 s_bar c)
     2.34396417E-12    3     1000024        11       -12   # BR(chi^0_2 -> chi^+_1 e^- nu_bar_e)
     2.34396417E-12    3    -1000024       -11        12   # BR(chi^0_2 -> chi^-_1 e^+ nu_e)
     2.31735487E-12    3     1000024        13       -14   # BR(chi^0_2 -> chi^+_1 mu^- nu_bar_mu)
     2.31735487E-12    3    -1000024       -13        14   # BR(chi^0_2 -> chi^-_1 mu^+ nu_mu)
     1.33152885E-14    3     1000024        15       -16   # BR(chi^0_2 -> chi^+_1 tau^- nu_bar_tau)
     1.33152885E-14    3    -1000024       -15        16   # BR(chi^0_2 -> chi^-_1 tau^+ nu_tau)
DECAY   1000025     2.34612994E+00   # chi^0_3
#    BR                NDA      ID1      ID2
     2.42547223E-04    2     2000011       -11   # BR(chi^0_3 -> ~e^-_R e^+)
     2.42547223E-04    2    -2000011        11   # BR(chi^0_3 -> ~e^+_R e^-)
     4.65632912E-08    2     1000011       -11   # BR(chi^0_3 -> ~e^-_L e^+)
     4.65632912E-08    2    -1000011        11   # BR(chi^0_3 -> ~e^+_L e^-)
     1.40804290E-03    2     2000013       -13   # BR(chi^0_3 -> ~mu^-_R mu^+)
     1.40804290E-03    2    -2000013        13   # BR(chi^0_3 -> ~mu^+_R mu^-)
     6.13431426E-07    2     1000013       -13   # BR(chi^0_3 -> ~mu^-_L mu^+)
     6.13431426E-07    2    -1000013        13   # BR(chi^0_3 -> ~mu^+_L mu^-)
     4.06428566E-01    2     1000015       -15   # BR(chi^0_3 -> ~tau^-_1 tau^+)
     4.06428566E-01    2    -1000015        15   # BR(chi^0_3 -> ~tau^+_1 tau^-)
     8.92794348E-04    2     2000015       -15   # BR(chi^0_3 -> ~tau^-_2 tau^+)
     8.92794348E-04    2    -2000015        15   # BR(chi^0_3 -> ~tau^+_2 tau^-)
     7.17672985E-07    2     1000012       -12   # BR(chi^0_3 -> ~nu_e nu_bar_e)
     7.17672985E-07    2    -1000012        12   # BR(chi^0_3 -> ~nu^*_e nu_e)
     7.25205940E-07    2     1000014       -14   # BR(chi^0_3 -> ~nu_mu nu_bar_mu)
     7.25205940E-07    2    -1000014        14   # BR(chi^0_3 -> ~nu^*_mu nu_mu)
     4.29924741E-06    2     1000016       -16   # BR(chi^0_3 -> ~nu_tau nu_bar_tau)
     4.29924741E-06    2    -1000016        16   # BR(chi^0_3 -> ~nu^*_tau nu_tau)
     1.76631267E-01    2     1000022        23   # BR(chi^0_3 -> chi^0_1 Z)
     5.39379190E-03    2     1000022        25   # BR(chi^0_3 -> chi^0_1 h^0)
     7.92498638E-14    2     1000039        22   # BR(chi^0_3 -> ~G photon)
     3.94781855E-10    2     1000039        23   # BR(chi^0_3 -> ~G Z)
     1.92689214E-09    2     1000039        25   # BR(chi^0_3 -> ~G h^0)
     1.10406027E-07    2     1000022        22   # BR(chi^0_3 -> chi^0_1 photon)
     4.28050007E-10    2     1000023        22   # BR(chi^0_3 -> chi^0_2 photon)
#    BR                NDA      ID1      ID2       ID3
     1.42780552E-11    3     1000022         2        -2   # BR(chi^0_3 -> chi^0_1 u u_bar)
     1.79018316E-11    3     1000022         4        -4   # BR(chi^0_3 -> chi^0_1 c c_bar)
     9.00082736E-12    3     1000022         1        -1   # BR(chi^0_3 -> chi^0_1 d d_bar)
     2.35027614E-09    3     1000022         3        -3   # BR(chi^0_3 -> chi^0_1 s s_bar)
     5.51338880E-06    3     1000022         5        -5   # BR(chi^0_3 -> chi^0_1 b b_bar)
     8.64979923E-09    3     1000022        11       -11   # BR(chi^0_3 -> chi^0_1 e^- e^+)
     7.22475335E-08    3     1000022        13       -13   # BR(chi^0_3 -> chi^0_1 mu^- mu^+)
     1.22606534E-05    3     1000022        15       -15   # BR(chi^0_3 -> chi^0_1 tau^- tau^+)
     4.48523541E-09    3     1000023         2        -2   # BR(chi^0_3 -> chi^0_2 u u_bar)
     4.02998514E-09    3     1000023         4        -4   # BR(chi^0_3 -> chi^0_2 c c_bar)
     5.82369239E-09    3     1000023         1        -1   # BR(chi^0_3 -> chi^0_2 d d_bar)
     5.81840074E-09    3     1000023         3        -3   # BR(chi^0_3 -> chi^0_2 s s_bar)
     4.58130446E-10    3     1000023         5        -5   # BR(chi^0_3 -> chi^0_2 b b_bar)
     1.33889518E-09    3     1000023        11       -11   # BR(chi^0_3 -> chi^0_2 e^- e^+)
     1.33802873E-09    3     1000023        13       -13   # BR(chi^0_3 -> chi^0_2 mu^- mu^+)
     7.27443940E-10    3     1000023        15       -15   # BR(chi^0_3 -> chi^0_2 tau^- tau^+)
     7.99398705E-09    3     1000023        12       -12   # BR(chi^0_3 -> chi^0_2 nu_e nu_bar_e)
     3.99618419E-08    3     1000024         1        -2   # BR(chi^0_3 -> chi^+_1 d u_bar)
     3.99618419E-08    3    -1000024        -1         2   # BR(chi^0_3 -> chi^-_1 d_bar u)
     3.78169871E-08    3     1000024         3        -4   # BR(chi^0_3 -> chi^+_1 s c_bar)
     3.78169871E-08    3    -1000024        -3         4   # BR(chi^0_3 -> chi^-_1 s_bar c)
     1.33206134E-08    3     1000024        11       -12   # BR(chi^0_3 -> chi^+_1 e^- nu_bar_e)
     1.33206134E-08    3    -1000024       -11        12   # BR(chi^0_3 -> chi^-_1 e^+ nu_e)
     1.33150051E-08    3     1000024        13       -14   # BR(chi^0_3 -> chi^+_1 mu^- nu_bar_mu)
     1.33150051E-08    3    -1000024       -13        14   # BR(chi^0_3 -> chi^-_1 mu^+ nu_mu)
     1.19647130E-08    3     1000024        15       -16   # BR(chi^0_3 -> chi^+_1 tau^- nu_bar_tau)
     1.19647130E-08    3    -1000024       -15        16   # BR(chi^0_3 -> chi^-_1 tau^+ nu_tau)
DECAY   1000035     1.05356237E+01   # chi^0_4
#    BR                NDA      ID1      ID2
     3.65223759E-05    2     2000011       -11   # BR(chi^0_4 -> ~e^-_R e^+)
     3.65223759E-05    2    -2000011        11   # BR(chi^0_4 -> ~e^+_R e^-)
     3.83001438E-02    2     1000011       -11   # BR(chi^0_4 -> ~e^-_L e^+)
     3.83001438E-02    2    -1000011        11   # BR(chi^0_4 -> ~e^+_L e^-)
     3.62265672E-05    2     2000013       -13   # BR(chi^0_4 -> ~mu^-_R mu^+)
     3.62265672E-05    2    -2000013        13   # BR(chi^0_4 -> ~mu^+_R mu^-)
     3.83145204E-02    2     1000013       -13   # BR(chi^0_4 -> ~mu^-_L mu^+)
     3.83145204E-02    2    -1000013        13   # BR(chi^0_4 -> ~mu^+_L mu^-)
     7.61082899E-05    2     1000015       -15   # BR(chi^0_4 -> ~tau^-_1 tau^+)
     7.61082899E-05    2    -1000015        15   # BR(chi^0_4 -> ~tau^+_1 tau^-)
     4.25344552E-02    2     2000015       -15   # BR(chi^0_4 -> ~tau^-_2 tau^+)
     4.25344552E-02    2    -2000015        15   # BR(chi^0_4 -> ~tau^+_2 tau^-)
     4.04381377E-02    2     1000012       -12   # BR(chi^0_4 -> ~nu_e nu_bar_e)
     4.04381377E-02    2    -1000012        12   # BR(chi^0_4 -> ~nu^*_e nu_e)
     4.04526645E-02    2     1000014       -14   # BR(chi^0_4 -> ~nu_mu nu_bar_mu)
     4.04526645E-02    2    -1000014        14   # BR(chi^0_4 -> ~nu^*_mu nu_mu)
     4.45548306E-02    2     1000016       -16   # BR(chi^0_4 -> ~nu_tau nu_bar_tau)
     4.45548306E-02    2    -1000016        16   # BR(chi^0_4 -> ~nu^*_tau nu_tau)
     1.33514694E-01    2     1000024       -24   # BR(chi^0_4 -> chi^+_1 W^-)
     1.33514694E-01    2    -1000024        24   # BR(chi^0_4 -> chi^-_1 W^+)
     2.72328753E-05    2     1000022        23   # BR(chi^0_4 -> chi^0_1 Z)
     2.65052797E-03    2     1000023        23   # BR(chi^0_4 -> chi^0_2 Z)
     1.18888874E-01    2     1000025        23   # BR(chi^0_4 -> chi^0_3 Z)
     2.72646820E-04    2     1000022        25   # BR(chi^0_4 -> chi^0_1 h^0)
     1.19572742E-01    2     1000023        25   # BR(chi^0_4 -> chi^0_2 h^0)
     1.71426355E-03    2     1000025        25   # BR(chi^0_4 -> chi^0_3 h^0)
     7.71786084E-10    2     1000039        22   # BR(chi^0_4 -> ~G photon)
     3.00181844E-09    2     1000039        23   # BR(chi^0_4 -> ~G Z)
     9.01661382E-11    2     1000039        25   # BR(chi^0_4 -> ~G h^0)
     1.65300940E-07    2     1000022        22   # BR(chi^0_4 -> chi^0_1 photon)
     7.82003163E-07    2     1000023        22   # BR(chi^0_4 -> chi^0_2 photon)
     7.90050550E-07    2     1000025        22   # BR(chi^0_4 -> chi^0_3 photon)
#    BR                NDA      ID1      ID2       ID3
     3.24598801E-08    3     1000022         2        -2   # BR(chi^0_4 -> chi^0_1 u u_bar)
     3.24583961E-08    3     1000022         4        -4   # BR(chi^0_4 -> chi^0_1 c c_bar)
     4.91063876E-07    3     1000022         6        -6   # BR(chi^0_4 -> chi^0_1 t t_bar)
     3.99293625E-08    3     1000022         1        -1   # BR(chi^0_4 -> chi^0_1 d d_bar)
     3.99842950E-08    3     1000022         3        -3   # BR(chi^0_4 -> chi^0_1 s s_bar)
     1.77601514E-07    3     1000022         5        -5   # BR(chi^0_4 -> chi^0_1 b b_bar)
     1.81817476E-08    3     1000022        11       -11   # BR(chi^0_4 -> chi^0_1 e^- e^+)
     1.81747537E-08    3     1000022        13       -13   # BR(chi^0_4 -> chi^0_1 mu^- mu^+)
     7.82352504E-08    3     1000022        15       -15   # BR(chi^0_4 -> chi^0_1 tau^- tau^+)
     2.82177662E-09    3     1000023         2        -2   # BR(chi^0_4 -> chi^0_2 u u_bar)
     2.82061497E-09    3     1000023         4        -4   # BR(chi^0_4 -> chi^0_2 c c_bar)
     1.84826555E-09    3     1000023         1        -1   # BR(chi^0_4 -> chi^0_2 d d_bar)
     3.33513160E-09    3     1000023         3        -3   # BR(chi^0_4 -> chi^0_2 s s_bar)
     3.51913756E-06    3     1000023         5        -5   # BR(chi^0_4 -> chi^0_2 b b_bar)
     5.12279068E-12    3     1000023        11       -11   # BR(chi^0_4 -> chi^0_2 e^- e^+)
     3.19680641E-09    3     1000023        13       -13   # BR(chi^0_4 -> chi^0_2 mu^- mu^+)
     1.03112561E-05    3     1000023        15       -15   # BR(chi^0_4 -> chi^0_2 tau^- tau^+)
     1.21420335E-06    3     1000023        12       -12   # BR(chi^0_4 -> chi^0_2 nu_e nu_bar_e)
     8.63649843E-12    3     1000025         2        -2   # BR(chi^0_4 -> chi^0_3 u u_bar)
     9.47228361E-12    3     1000025         4        -4   # BR(chi^0_4 -> chi^0_3 c c_bar)
     1.88511254E-11    3     1000025         1        -1   # BR(chi^0_4 -> chi^0_3 d d_bar)
     1.41475028E-09    3     1000025         3        -3   # BR(chi^0_4 -> chi^0_3 s s_bar)
     3.29843339E-06    3     1000025         5        -5   # BR(chi^0_4 -> chi^0_3 b b_bar)
     2.04069769E-09    3     1000025        11       -11   # BR(chi^0_4 -> chi^0_3 e^- e^+)
     3.17788241E-08    3     1000025        13       -13   # BR(chi^0_4 -> chi^0_3 mu^- mu^+)
     6.35724128E-06    3     1000025        15       -15   # BR(chi^0_4 -> chi^0_3 tau^- tau^+)
     3.13800794E-08    3     1000025        12       -12   # BR(chi^0_4 -> chi^0_3 nu_e nu_bar_e)
     1.71332399E-09    3     1000024         1        -2   # BR(chi^0_4 -> chi^+_1 d u_bar)
     1.71332399E-09    3    -1000024        -1         2   # BR(chi^0_4 -> chi^-_1 d_bar u)
     3.37417696E-09    3     1000024         3        -4   # BR(chi^0_4 -> chi^+_1 s c_bar)
     3.37417696E-09    3    -1000024        -3         4   # BR(chi^0_4 -> chi^-_1 s_bar c)
     1.56982615E-04    3     1000024         5        -6   # BR(chi^0_4 -> chi^+_1 b t_bar)
     1.56982615E-04    3    -1000024        -5         6   # BR(chi^0_4 -> chi^-_1 b_bar t)
     8.56111853E-14    3     1000024        11       -12   # BR(chi^0_4 -> chi^+_1 e^- nu_bar_e)
     8.56111853E-14    3    -1000024       -11        12   # BR(chi^0_4 -> chi^-_1 e^+ nu_e)
     3.65998076E-09    3     1000024        13       -14   # BR(chi^0_4 -> chi^+_1 mu^- nu_bar_mu)
     3.65998076E-09    3    -1000024       -13        14   # BR(chi^0_4 -> chi^-_1 mu^+ nu_mu)
     7.83605939E-06    3     1000024        15       -16   # BR(chi^0_4 -> chi^+_1 tau^- nu_bar_tau)
     7.83605939E-06    3    -1000024       -15        16   # BR(chi^0_4 -> chi^-_1 tau^+ nu_tau)
DECAY   1000021     2.14557638E+01   # ~g
#    BR                NDA      ID1      ID2
     4.10003370E-02    2     2000002        -2   # BR(~g -> ~u_R u_bar)
     4.10003370E-02    2    -2000002         2   # BR(~g -> ~u^*_R u)
     1.28787589E-02    2     1000002        -2   # BR(~g -> ~u_L u_bar)
     1.28787589E-02    2    -1000002         2   # BR(~g -> ~u^*_L u)
     4.10005731E-02    2     2000004        -4   # BR(~g -> ~c_R c_bar)
     4.10005731E-02    2    -2000004         4   # BR(~g -> ~c^*_R c)
     1.28823829E-02    2     1000004        -4   # BR(~g -> ~c_L c_bar)
     1.28823829E-02    2    -1000004         4   # BR(~g -> ~c^*_L c)
     5.56739610E-03    2     1000006        -4   # BR(~g -> ~t_1 c_bar)
     5.56739610E-03    2    -1000006         4   # BR(~g -> ~t^*_1 c)
     9.90919821E-02    2     1000006        -6   # BR(~g -> ~t_1 t_bar)
     9.90919821E-02    2    -1000006         6   # BR(~g -> ~t^*_1 t)
     4.44377873E-02    2     2000006        -6   # BR(~g -> ~t_2 t_bar)
     4.44377873E-02    2    -2000006         6   # BR(~g -> ~t^*_2 t)
     4.41358120E-02    2     2000001        -1   # BR(~g -> ~d_R d_bar)
     4.41358120E-02    2    -2000001         1   # BR(~g -> ~d^*_R d)
     1.26867495E-02    2     1000001        -1   # BR(~g -> ~d_L d_bar)
     1.26867495E-02    2    -1000001         1   # BR(~g -> ~d^*_L d)
     4.41493687E-02    2     2000003        -3   # BR(~g -> ~s_R s_bar)
     4.41493687E-02    2    -2000003         3   # BR(~g -> ~s^*_R s)
     1.26905139E-02    2     1000003        -3   # BR(~g -> ~s_L s_bar)
     1.26905139E-02    2    -1000003         3   # BR(~g -> ~s^*_L s)
     8.14073797E-02    2     1000005        -5   # BR(~g -> ~b_1 b_bar)
     8.14073797E-02    2    -1000005         5   # BR(~g -> ~b^*_1 b)
     4.79651659E-02    2     2000005        -5   # BR(~g -> ~b_2 b_bar)
     4.79651659E-02    2    -2000005         5   # BR(~g -> ~b^*_2 b)
     1.37229625E-06    2     1000022        21   # BR(~g -> chi^0_1 g)
     9.22893511E-05    2     1000023        21   # BR(~g -> chi^0_2 g)
     1.11049215E-04    2     1000025        21   # BR(~g -> chi^0_3 g)
     6.87493411E-06    2     1000035        21   # BR(~g -> chi^0_4 g)
DECAY        25     2.51135970E-03   # h^0
#    BR                NDA      ID1      ID2
     1.06828893E-08    2          11       -11   # BR(h^0 -> e^- e^+)
     4.56678413E-04    2          13       -13   # BR(h^0 -> mu^- mu^+)
     1.25588958E-01    2          15       -15   # BR(h^0 -> tau^- tau^+)
     5.93268219E-07    2           1        -1   # BR(h^0 -> d d_bar)
     2.61625681E-04    2           3        -3   # BR(h^0 -> s s_bar)
     5.66839266E-01    2           5        -5   # BR(h^0 -> b b_bar)
     2.66897065E-07    2           2        -2   # BR(h^0 -> u u_bar)
     4.78210404E-02    2           4        -4   # BR(h^0 -> c c_bar)
     7.19855592E-02    2          21        21   # BR(h^0 -> g g)
     3.60652972E-03    2          22        22   # BR(h^0 -> photon photon)
# writing decays into V V* as 3-body decays
#    BR                NDA      ID1      ID2       ID3
     8.36711740E-03    3          24        11        12   # BR(h^0 -> W^+ e^- nu_e)
     8.36711740E-03    3          24        13        14   # BR(h^0 -> W^+ mu^- nu_mu)
     8.36711740E-03    3          24        15        16   # BR(h^0 -> W^+ tau^- nu_tau)
     2.92849109E-02    3          24         1        -2   # BR(h^0 -> W^+ d u_bar)
     2.92849109E-02    3          24         3        -4   # BR(h^0 -> W^+ s c_bar)
     8.36711740E-03    3         -24       -11       -12   # BR(h^0 -> W^- e^+ nu_bar_e)
     8.36711740E-03    3         -24       -13       -14   # BR(h^0 -> W^- mu^+ nu_bar_mu)
     8.36711740E-03    3         -24       -15       -16   # BR(h^0 -> W^- tau^+ nu_bar_tau)
     2.92849109E-02    3         -24        -1         2   # BR(h^0 -> W^- d_bar u)
     2.92849109E-02    3         -24        -3         4   # BR(h^0 -> W^- s_bar c)
     5.63399327E-04    3          23        11       -11   # BR(h^0 -> Z e^- e^+)
     5.63399327E-04    3          23        13       -13   # BR(h^0 -> Z mu^- mu^+)
     4.82913709E-04    3          23        15       -15   # BR(h^0 -> Z tau^- tau^+)
     3.21942473E-03    3          23        12       -12   # BR(h^0 -> Z nu_e nu_bar_e)
     2.25359731E-03    3          23         1        -1   # BR(h^0 -> Z u u_bar)
     2.25359731E-03    3          23         3        -3   # BR(h^0 -> Z c c_bar)
     2.25359731E-03    3          23         5        -5   # BR(h^0 -> Z t t_bar)
     2.25359731E-03    3          23         2        -2   # BR(h^0 -> Z u u_bar)
     2.25359731E-03    3          23         4        -4   # BR(h^0 -> Z c c_bar)
DECAY        35     2.53540041E+01   # H^0
#    BR                NDA      ID1      ID2
     1.68875895E-08    2          11       -11   # BR(H^0 -> e^- e^+)
     7.22014693E-04    2          13       -13   # BR(H^0 -> mu^- mu^+)
     2.05902553E-01    2          15       -15   # BR(H^0 -> tau^- tau^+)
     7.69630607E-07    2           1        -1   # BR(H^0 -> d d_bar)
     3.39406540E-04    2           3        -3   # BR(H^0 -> s s_bar)
     7.92366470E-01    2           5        -5   # BR(H^0 -> b b_bar)
     6.92386551E-14    2           2        -2   # BR(H^0 -> u u_bar)
     1.24083677E-08    2           4        -4   # BR(H^0 -> c c_bar)
     5.87092175E-04    2           6        -6   # BR(H^0 -> t t_bar)
     8.83086592E-06    2     1000015  -1000015   # BR(H^0 -> ~tau^-_1 ~tau^+_1)
     3.91192887E-06    2          23        23   # BR(H^0 -> Z Z)
     7.49004492E-06    2          24       -24   # BR(H^0 -> W^+ W^-)
     8.10139514E-06    2          25        25   # BR(H^0 -> h^0 h^0)
     5.32578911E-05    2          21        21   # BR(H^0 -> g g)
     7.30430082E-08    2          22        22   # BR(H^0 -> photon photon)
DECAY        36     2.53536518E+01   # A^0
#    BR                NDA      ID1      ID2
     1.68878786E-08    2          11       -11   # BR(A^0 -> e^- e^+)
     7.22027094E-04    2          13       -13   # BR(A^0 -> mu^- mu^+)
     2.05909640E-01    2          15       -15   # BR(A^0 -> tau^- tau^+)
     7.69643531E-07    2           1        -1   # BR(A^0 -> d d_bar)
     3.39412218E-04    2           3        -3   # BR(A^0 -> s s_bar)
     7.92393114E-01    2           5        -5   # BR(A^0 -> b b_bar)
     6.27909747E-14    2           2        -2   # BR(A^0 -> u u_bar)
     1.12528669E-08    2           4        -4   # BR(A^0 -> c c_bar)
     6.10945612E-04    2           6        -6   # BR(A^0 -> t t_bar)
     7.23228287E-06    2          25        23   # BR(A^0 -> h^0 Z)
     1.67971619E-05    2          21        21   # BR(A^0 -> g g)
     3.44390033E-08    2          22        22   # BR(A^0 -> photon photon)
DECAY        37     2.17184156E+01   # H^+
#    BR                NDA      ID1      ID2
     1.98192044E-08    2         -11        12   # BR(H^+ -> e^+ nu_e)
     8.47353472E-04    2         -13        12   # BR(H^+ -> mu^+ nu_e)
     2.41650577E-01    2         -15        12   # BR(H^+ -> tau^+ nu_e)
     7.98021403E-07    2          -1         2   # BR(H^+ -> d_bar u)
     3.51936924E-04    2          -3         4   # BR(H^+ -> s_bar c)
     7.57140909E-01    2          -5         6   # BR(H^+ -> b_bar t)
     8.40589859E-06    2          25        24   # BR(H^+ -> h^0 W^+)
DECAY         6     2.43000000E+00   # top
#    BR                NDA      ID1      ID2
     1.00000000E+00    2           5        24   # BR(t -> b W)
Block HiggsBoundsInputHiggsCouplingsFermions
# ScalarNormEffCoupSq PseudoSNormEffCoupSq NP IP1 IP2 IP2
    1.10265809E+00    0.00000000E+00        3  25   5   5  # h0-b-b eff. coupling^2, normalised to SM
    2.49989734E+03    0.00000000E+00        3  35   5   5  # H0-b-b eff. coupling^2, normalised to SM
    0.00000000E+00    2.50000000E+03        3  36   5   5  # A0-b-b eff. coupling^2, normalised to SM
#
    9.99958937E-01    0.00000000E+00        3  25   6   6  # h0-t-t eff. coupling^2, normalised to SM
    4.41063238E-04    0.00000000E+00        3  35   6   6  # H0-t-t eff. coupling^2, normalised to SM
    0.00000000E+00    4.00000000E-04        3  36   6   6  # A0-t-t eff. coupling^2, normalised to SM
#
    1.10265809E+00    0.00000000E+00        3  25  15  15  # h0-tau-tau eff. coupling^2, normalised to SM
    2.49989734E+03    0.00000000E+00        3  35  15  15  # H0-tau-tau eff. coupling^2, normalised to SM
    0.00000000E+00    2.50000000E+03        3  36  15  15  # A0-tau-tau eff. coupling^2, normalised to SM
#
Block HiggsBoundsInputHiggsCouplingsBosons
    9.99998997E-01        3  25  24  24  # h0-W-W eff. coupling^2, normalised to SM
    1.00303357E-06        3  35  24  24  # H0-W-W eff. coupling^2, normalised to SM
    0.00000000E+00        3  36  24  24  # A0-W-W eff. coupling^2, normalised to SM
#
    9.99998997E-01        3  25  23  23  # h0-Z-Z eff. coupling^2, normalised to SM
    1.00303357E-06        3  35  23  23  # H0-Z-Z eff. coupling^2, normalised to SM
    0.00000000E+00        3  36  23  23  # A0-Z-Z eff. coupling^2, normalised to SM
#
    1.15922711E+00        3  25  21  21  # h0-g-g eff. coupling^2, normalised to SM
    4.15414375E-02        3  35  21  21  # H0-g-g eff. coupling^2, normalised to SM
    1.97520570E-01        3  36  21  21  # A0-g-g eff. coupling^2, normalised to SM
#
    0.00000000E+00        3  25  25  23  # h0-h0-Z eff. coupling^2, normalised to SM
    0.00000000E+00        3  35  25  23  # H0-h0-Z eff. coupling^2, normalised to SM
    1.00303357E-06        3  36  25  23  # A0-h0-Z eff. coupling^2, normalised to SM
    0.00000000E+00        3  35  35  23  # H0-H0-Z eff. coupling^2, normalised to SM
    9.99998997E-01        3  36  35  23  # A0-H0-Z eff. coupling^2, normalised to SM
    0.00000000E+00        3  36  36  23  # A0-A0-Z eff. coupling^2, normalised to SM
#
    0.00000000E+00        4  25  21  21  23  # h0-g-g-Z eff. coupling^2, normalised to SM
    0.00000000E+00        4  35  21  21  23  # H0-g-g-Z eff. coupling^2, normalised to SM
    0.00000000E+00        4  36  21  21  23  # A0-g-g-Z eff. coupling^2, normalised to SM
Block SPhenoLowEnergy  # low energy observables
    1    3.16615970E-04   # BR(b -> s gamma)
    2    1.59047701E-06   # BR(b -> s mu+ mu-)
    3    3.54003662E-05   # BR(b -> s nu nu)
    4    5.76397908E-11   # BR(Bd -> mu+ mu-)
    5    3.78224232E-09   # BR(Bs -> mu+ mu-)
    6    9.79137100E-05   # BR(B_u -> tau nu)
    7    8.85349188E-01   # BR(B_u -> tau nu)/BR(B_u -> tau nu)_SM
    8    2.73557223E-01   # |Delta(M_Bd)| [ps^-1] 
    9    2.02593975E+01   # |Delta(M_Bs)| [ps^-1] 
   20    2.75457614E-14   # Delta(g-2)_electron/2
   21    6.00043747E-10   # Delta(g-2)_muon/2
   22    5.36431499E-08   # Delta(g-2)_tau/2
   23    0.00000000E+00   # electric dipole moment of the electron
   24    0.00000000E+00   # electric dipole moment of the muon
   25    0.00000000E+00   # electric dipole moment of the tau
   26    0.00000000E+00   # Br(mu -> e gamma)
   27    0.00000000E+00   # Br(tau -> e gamma)
   28    0.00000000E+00   # Br(tau -> mu gamma)
   29    0.00000000E+00   # Br(mu -> 3 e)
   30    0.00000000E+00   # Br(tau -> 3 e)
   31    0.00000000E+00   # Br(tau -> 3 mu)
   39    1.68845313E-03   # Delta(rho_parameter)
   40    0.00000000E+00   # BR(Z -> e mu)
   41    0.00000000E+00   # BR(Z -> e tau)
   42    0.00000000E+00   # BR(Z -> mu tau)
Block FWCOEF Q=  9.11876000E+01  # Wilson coefficients at scale Q
#    id        order  M        value         comment
Block FWCOEF Q=  1.60000000E+02  # Wilson coefficients at scale Q
#    id        order  M        value         comment
     0305 4422   00   0    -1.87763092E-01   # C7
     0305 4422   00   1    -1.71572896E-02   # C7
     0305 4322   00   1    -3.66243495E-04   # C7'
     0305 6421   00   0    -9.48911979E-02   # C8
     0305 6421   00   1    -2.68775600E-02   # C8
     0305 6321   00   1    -5.70560592E-04   # C8'
 03051111 4133   00   0    -1.31907763E+00   # C9 e+e-
 03051111 4133   00   1     7.01937051E-04   # C9 e+e-
 03051111 4233   00   1    -1.11614563E-04   # C9' e+e-
 03051111 4137   00   0    -3.94509842E+00   # C10 e+e-
 03051111 4137   00   1     2.41745103E-03   # C10 e+e-
 03051111 4237   00   1     2.92625932E-03   # C10' e+e-
 03051313 4133   00   0    -1.31907763E+00   # C9 mu+mu-
 03051313 4133   00   1     7.01694628E-04   # C9 mu+mu-
 03051313 4233   00   1    -1.11670144E-04   # C9' mu+mu-
 03051313 4137   00   0    -3.94509842E+00   # C10 mu+mu-
 03051313 4137   00   1     2.41720836E-03   # C10 mu+mu-
 03051313 4237   00   1     2.92631492E-03   # C10' mu+mu-
 03051212 4237   00   0     1.49022732E+00   # C11 nu_1 nu_1
 03051212 4237   00   1    -5.82611812E-04   # C11 nu_1 nu_1
 03051212 4137   00   1    -7.03793087E-04   # C11' nu_1 nu_1
 03051414 4237   00   0     1.49022732E+00   # C11 nu_2 nu_2
 03051414 4237   00   1    -5.82611678E-04   # C11 nu_2 nu_2
 03051414 4137   00   1    -7.03779771E-04   # C11' nu_2 nu_2
 03051616 4237   00   0     1.49022732E+00   # C11 nu_3 nu_3
 03051616 4237   00   1    -5.82522755E-04   # C11 nu_3 nu_3
 03051616 4137   00   1    -7.00026477E-04   # C11' nu_3 nu_3
