#
#                              ======================
#                              | THE SUSYHIT OUTPUT |
#                              ======================
#
#
#              ------------------------------------------------------
#              |     This is the output of the SUSY-HIT package     |
#              |  created by A.Djouadi, M.Muehlleitner and M.Spira. |
#              |  In case of problems with SUSY-HIT email to        |
#              |           margarete.muehlleitner@cern.ch           |
#              |           michael.spira@psi.ch                     |
#              |           abdelhak.djouadi@cern.ch                 |
#              ------------------------------------------------------
#
#              ------------------------------------------------------
#              |  SUSY Les Houches Accord - MSSM Spectrum + Decays  |
#              |              based on the decay programs           |
#              |                                                    |
#              |                     SDECAY 1.3b                    |
#              |                                                    |
#              |  Authors: M.Muhlleitner, A.Djouadi and Y.Mambrini  |
#              |  Ref.:    Comput.Phys.Commun.168(2005)46           |
#              |           [hep-ph/0311167]                         |
#              |                                                    |
#              |                     HDECAY 3.4                     |
#              |                                                    |
#              |  By: A.Djouadi,J.Kalinowski,M.Muhlleitner,M.Spira  |
#              |  Ref.:    Comput.Phys.Commun.108(1998)56           |
#              |           [hep-ph/9704448]                         |
#              |                                                    |
#              |                                                    |
#              |  If not stated otherwise all DRbar couplings and   |
#              |  soft SUSY breaking masses are given at the scale  |
#              |  Q=  0.91187600E+02
#              |                                                    |
#              ------------------------------------------------------
#
#
BLOCK DCINFO  # Decay Program information
     1   SDECAY/HDECAY # decay calculator
     2   1.3b  /3.4    # version number
#
BLOCK SPINFO  # Spectrum calculator information
     1   SuSpect     # RGE +Spectrum calculator            
     2   2.41         # version number                     
#
BLOCK MODSEL  # Model selection
     1     0   # #general MSSM low scale                           
#
BLOCK SMINPUTS  # Standard Model inputs
         1     1.27934000E+02   # alpha_em^-1(M_Z)^MSbar
         2     1.16639000E-05   # G_F [GeV^-2]
         3     1.17200000E-01   # alpha_S(M_Z)^MSbar
         4     9.11870000E+01   # M_Z pole mass
         5     4.25000000E+00   # mb(mb)^MSbar
         6     1.72500000E+02   # mt pole mass
         7     1.77700000E+00   # mtau pole mass
#
BLOCK MINPAR  # Input parameters - minimal models
#
BLOCK EXTPAR  # Input parameters - non-minimal models
         0     9.11876000E+01   # EWSB                
         1     1.40000000E+03   # M_1                 
         2     1.00000000E+05   # M_2                 
         3     1.00000000E+05   # M_3                 
        11     0.00000000E+00   # A_t                 
        12     0.00000000E+00   # A_b                 
        13     0.00000000E+00   # A_tau               
        14     0.00000000E+00   # A_u                 
        15     0.00000000E+00   # A_d                 
        16     0.00000000E+00   # A_e                 
        23     3.50000000E+03   # mu(EWSB)            
        25     1.50000000E+00   # tanbeta(in)         
        26     2.00000000E+03   # MA_pole             
        31     1.00000000E+05   # M_eL                
        32     1.00000000E+05   # M_muL               
        33     1.00000000E+05   # M_tauL              
        34     1.00000000E+05   # M_eR                
        35     1.00000000E+05   # M_muR               
        36     1.00000000E+05   # M_tauR              
        41     1.60000000E+03   # M_q1L               
        42     1.60000000E+03   # M_q2L               
        43     1.60000000E+03   # M_q3L               
        44     1.00000000E+05   # M_uR                
        45     1.00000000E+05   # M_cR                
        46     1.00000000E+05   # M_tR                
        47     1.60000000E+03   # M_dR                
        48     1.60000000E+03   # M_sR                
        49     1.60000000E+03   # M_bR                
#
BLOCK MASS  # Mass Spectrum
# PDG code           mass       particle
        24     8.05830146E+01   # W+
        25     1.25000000E+02   # h
        35     2.00401751E+03   # H
        36     2.00000000E+03   # A
        37     2.02369372E+03   # H+
         5     4.87877839E+00   # b-quark pole mass calculated from mb(mb)_Msbar
   1000001     1.60041503E+03   # ~d_L
   2000001     1.60007997E+03   # ~d_R
   1000002     1.59966485E+03   # ~u_L
   2000002     9.99999974E+04   # ~u_R
   1000003     1.60041503E+03   # ~s_L
   2000003     1.60007997E+03   # ~s_R
   1000004     1.59966485E+03   # ~c_L
   2000004     9.99999974E+04   # ~c_R
   1000005     1.59600060E+03   # ~b_1
   2000005     1.60448734E+03   # ~b_2
   1000006     1.60644666E+03   # ~t_1
   2000006     1.00000106E+05   # ~t_2
   1000011     1.00000004E+05   # ~e_L
   2000011     1.00000004E+05   # ~e_R
   1000012     9.99999921E+04   # ~nu_eL
   1000013     1.00000004E+05   # ~mu_L
   2000013     1.00000004E+05   # ~mu_R
   1000014     9.99999921E+04   # ~nu_muL
   1000015     9.99999574E+04   # ~tau_1
   2000015     1.00000051E+05   # ~tau_2
   1000016     9.99999921E+04   # ~nu_tauL
   1000021     1.00000000E+05   # ~g
   1000022     1.39910204E+03   # ~chi_10
   1000023    -3.50001799E+03   # ~chi_20
   1000025     3.50085144E+03   # ~chi_30
   1000035     1.00000065E+05   # ~chi_40
   1000024     3.49994013E+03   # ~chi_1+
   1000037     1.00000065E+05   # ~chi_2+
   1000039     1.00000000E-09   # ~gravitino
#
BLOCK NMIX  # Neutralino Mixing Matrix
  1  1     9.99781028E-01   # N_11
  1  2    -1.61002059E-05   # N_12
  1  3     1.60072194E-02   # N_13
  1  4    -1.34783421E-02   # N_14
  2  1     1.78830462E-03   # N_21
  2  2    -1.49709296E-04   # N_22
  2  3    -7.07096557E-01   # N_23
  2  4    -7.07114728E-01   # N_24
  3  1     2.08494363E-02   # N_31
  3  2     8.02631497E-04   # N_32
  3  3    -7.06935651E-01   # N_33
  3  4     7.06970043E-01   # N_34
  4  1     3.70008338E-07   # N_41
  4  2    -9.99999667E-01   # N_42
  4  3    -4.61807766E-04   # N_43
  4  4     6.73515301E-04   # N_44
#
BLOCK UMIX  # Chargino Mixing Matrix U
  1  1    -6.53094599E-04   # U_11
  1  2     9.99999787E-01   # U_12
  2  1     9.99999787E-01   # U_21
  2  2     6.53094599E-04   # U_22
#
BLOCK VMIX  # Chargino Mixing Matrix V
  1  1    -9.52494382E-04   # V_11
  1  2     9.99999546E-01   # V_12
  2  1     9.99999546E-01   # V_21
  2  2     9.52494382E-04   # V_22
#
BLOCK STOPMIX  # Stop Mixing Matrix
  1  1     9.99999999E-01   # cos(theta_t)
  1  2     4.47213589E-05   # sin(theta_t)
  2  1    -4.47213589E-05   # -sin(theta_t)
  2  2     9.99999999E-01   # cos(theta_t)
#
BLOCK SBOTMIX  # Sbottom Mixing Matrix
  1  1     6.93007837E-01   # cos(theta_b)
  1  2     7.20930051E-01   # sin(theta_b)
  2  1    -7.20930051E-01   # -sin(theta_b)
  2  2     6.93007837E-01   # cos(theta_b)
#
BLOCK STAUMIX  # Stau Mixing Matrix
  1  1     7.06181978E-01   # cos(theta_tau)
  1  2     7.08030376E-01   # sin(theta_tau)
  2  1    -7.08030376E-01   # -sin(theta_tau)
  2  2     7.06181978E-01   # cos(theta_tau)
#
BLOCK ALPHA  # Higgs mixing
          -5.90304614E-01   # Mixing angle in the neutral Higgs boson sector
#
BLOCK HMIX Q=  9.11876000E+01  # DRbar Higgs Parameters
         1     3.50000000E+03   # mu(Q)               
         2     1.49999982E+00   # tanbeta(Q)          
         3     2.54880557E+02   # vev(Q)              
         4    -6.82375903E+07   # MA^2(Q)             
#
BLOCK GAUGE Q=  9.11876000E+01  # The gauge couplings
     1     3.50584042E-01   # gprime(Q) DRbar
     2     6.19929300E-01   # g(Q) DRbar
     3     1.02445357E+00   # g3(Q) DRbar
#
BLOCK AU Q=  9.11876000E+01  # The trilinear couplings
  1  1     0.00000000E+00   # A_u(Q) DRbar
  2  2     0.00000000E+00   # A_c(Q) DRbar
  3  3     0.00000000E+00   # A_t(Q) DRbar
#
BLOCK AD Q=  9.11876000E+01  # The trilinear couplings
  1  1     0.00000000E+00   # A_d(Q) DRbar
  2  2     0.00000000E+00   # A_s(Q) DRbar
  3  3     0.00000000E+00   # A_b(Q) DRbar
#
BLOCK AE Q=  9.11876000E+01  # The trilinear couplings
  1  1     0.00000000E+00   # A_e(Q) DRbar
  2  2     0.00000000E+00   # A_mu(Q) DRbar
  3  3     0.00000000E+00   # A_tau(Q) DRbar
#
BLOCK Yu Q=  9.11876000E+01  # The Yukawa couplings
  1  1     0.00000000E+00   # y_u(Q) DRbar
  2  2     0.00000000E+00   # y_c(Q) DRbar
  3  3     9.83578947E-01   # y_t(Q) DRbar
#
BLOCK Yd Q=  9.11876000E+01  # The Yukawa couplings
  1  1     0.00000000E+00   # y_d(Q) DRbar
  2  2     0.00000000E+00   # y_s(Q) DRbar
  3  3     2.58552866E-02   # y_b(Q) DRbar
#
BLOCK Ye Q=  9.11876000E+01  # The Yukawa couplings
  1  1     0.00000000E+00   # y_e(Q) DRbar
  2  2     0.00000000E+00   # y_mu(Q) DRbar
  3  3     1.77390614E-02   # y_tau(Q) DRbar
#
BLOCK MSOFT Q=  9.11876000E+01  # The soft SUSY breaking masses at the scale Q
         1     1.40000000E+03   # M_1                 
         2     1.00000000E+05   # M_2                 
         3     1.00000000E+05   # M_3                 
        14     0.00000000E+00   # A_u                 
        15     0.00000000E+00   # A_d                 
        16     0.00000000E+00   # A_e                 
        21     6.31613509E+08   # M^2_Hd              
        22    -1.14877890E+09   # M^2_Hu              
        31     1.00000000E+05   # M_eL                
        32     1.00000000E+05   # M_muL               
        33     1.00000000E+05   # M_tauL              
        34     1.00000000E+05   # M_eR                
        35     1.00000000E+05   # M_muR               
        36     1.00000000E+05   # M_tauR              
        41     1.60000000E+03   # M_q1L               
        42     1.60000000E+03   # M_q2L               
        43     1.60000000E+03   # M_q3L               
        44     1.00000000E+05   # M_uR                
        45     1.00000000E+05   # M_cR                
        46     1.00000000E+05   # M_tR                
        47     1.60000000E+03   # M_dR                
        48     1.60000000E+03   # M_sR                
        49     1.60000000E+03   # M_bR                
#
#
#
#                             =================
#                             |The decay table|
#                             =================
#
# - The QCD corrections to the decays gluino -> squark  + quark
#                                     squark -> gaugino + quark_prime
#                                     squark -> squark_prime + Higgs
#                                     squark -> gluino  + quark
#   are included.
#
# - The multi-body decays for the inos, stops and sbottoms are included.
#
# - The loop induced decays for the gluino, neutralinos and stops
#   are included.
#
# - The SUSY decays of the top quark are included.
#
# - Possible decays of the NLSP in GMSB models are included.
#
#
#         PDG            Width
DECAY         6     1.32644036E+00   # top decays
#          BR         NDA      ID1       ID2
     1.00000000E+00    2           5        24   # BR(t ->  b    W+)
#
#         PDG            Width
DECAY   1000021     1.E-04   # gluino decays (OJ Mods)
#          BR         NDA      ID1       ID2
    -4.81590638E-04    2     1000001        -1   # BR(~g -> ~d_L  db)
    -4.81590638E-04    2    -1000001         1   # BR(~g -> ~d_L* d )
    -4.81590741E-04    2     2000001        -1   # BR(~g -> ~d_R  db)
    -4.81590741E-04    2    -2000001         1   # BR(~g -> ~d_R* d )
    -4.81590869E-04    2     1000002        -2   # BR(~g -> ~u_L  ub)
    -4.81590869E-04    2    -1000002         2   # BR(~g -> ~u_L* u )
    -1.30288840E-18    2     2000002        -2   # BR(~g -> ~u_R  ub)
    -1.30288840E-18    2    -2000002         2   # BR(~g -> ~u_R* u )
    -4.81590638E-04    2     1000003        -3   # BR(~g -> ~s_L  sb)
    -4.81590638E-04    2    -1000003         3   # BR(~g -> ~s_L* s )
    -4.81590741E-04    2     2000003        -3   # BR(~g -> ~s_R  sb)
    -4.81590741E-04    2    -2000003         3   # BR(~g -> ~s_R* s )
    -4.81590869E-04    2     1000004        -4   # BR(~g -> ~c_L  cb)
    -4.81590869E-04    2    -1000004         4   # BR(~g -> ~c_L* c )
    -1.30288840E-18    2     2000004        -4   # BR(~g -> ~c_R  cb)
    -1.30288840E-18    2    -2000004         4   # BR(~g -> ~c_R* c )
     2.54380593E-01    2     1000005        -5   # BR(~g -> ~b_1  bb)
     2.54380593E-01    2    -1000005         5   # BR(~g -> ~b_1* b )
     2.55733313E-01    2     2000005        -5   # BR(~g -> ~b_2  bb)
     2.55733313E-01    2    -2000005         5   # BR(~g -> ~b_2* b )
    -4.73959082E-04    2     1000006        -6   # BR(~g -> ~t_1  tb)
    -4.73959082E-04    2    -1000006         6   # BR(~g -> ~t_1* t )
    -1.35008049E-02    2     1000039        21   # BR(~g -> ~G g)
#
#         PDG            Width
DECAY   1000006     1.01834035E-02   # stop1 decays
#          BR         NDA      ID1       ID2
     1.00000000E+00    2     1000022         6   # BR(~t_1 -> ~chi_10 t )
#
#         PDG            Width
DECAY   2000006    -4.24678927E+05   # stop2 decays
#          BR         NDA      ID1       ID2
    -4.90798882E-04    2     1000022         6   # BR(~t_2 -> ~chi_10 t )
    -1.17688699E-03    2     1000023         6   # BR(~t_2 -> ~chi_20 t )
    -1.17659129E-03    2     1000025         6   # BR(~t_2 -> ~chi_30 t )
     1.00280377E+00    2     1000024         5   # BR(~t_2 -> ~chi_1+ b )
     3.20187046E-05    2     1000006        25   # BR(~t_2 -> ~t_1    h )
    -3.35296441E-05    2     1000006        35   # BR(~t_2 -> ~t_1    H )
    -3.34708550E-05    2     1000006        36   # BR(~t_2 -> ~t_1    A )
    -3.15298144E-05    2     1000005        37   # BR(~t_2 -> ~b_1    H+)
    -3.54120010E-05    2     2000005        37   # BR(~t_2 -> ~b_2    H+)
     2.28409479E-05    2     1000006        23   # BR(~t_2 -> ~t_1    Z )
     5.74350508E-05    2     1000005        24   # BR(~t_2 -> ~b_1    W+)
     6.21540326E-05    2     2000005        24   # BR(~t_2 -> ~b_2    W+)
#
#         PDG            Width
DECAY   1000005    -5.83127631E+00   # sbottom1 decays
#          BR         NDA      ID1       ID2
     1.00000000E+00    2     1000022         5   # BR(~b_1 -> ~chi_10 b )
#
#         PDG            Width
DECAY   2000005    -6.18965190E+00   # sbottom2 decays
#          BR         NDA      ID1       ID2
     1.00000000E+00    2     1000022         5   # BR(~b_2 -> ~chi_10 b )
#
#         PDG            Width
DECAY   1000002     1.77096663E-02   # sup_L decays
#          BR         NDA      ID1       ID2
     1.00000000E+00    2     1000022         2   # BR(~u_L -> ~chi_10 u)
#
#         PDG            Width
DECAY   2000002     2.08389248E+02   # sup_R decays
#          BR         NDA      ID1       ID2
     9.99562586E-01    2     1000022         2   # BR(~u_R -> ~chi_10 u)
     3.19451014E-06    2     1000023         2   # BR(~u_R -> ~chi_20 u)
     4.34219765E-04    2     1000025         2   # BR(~u_R -> ~chi_30 u)
#
#         PDG            Width
DECAY   1000001     1.78196271E-02   # sdown_L decays
#          BR         NDA      ID1       ID2
     1.00000000E+00    2     1000022         1   # BR(~d_L -> ~chi_10 d)
#
#         PDG            Width
DECAY   2000001     7.10806250E-02   # sdown_R decays
#          BR         NDA      ID1       ID2
     1.00000000E+00    2     1000022         1   # BR(~d_R -> ~chi_10 d)
#
#         PDG            Width
DECAY   1000004     1.77096663E-02   # scharm_L decays
#          BR         NDA      ID1       ID2
     1.00000000E+00    2     1000022         4   # BR(~c_L -> ~chi_10 c)
#
#         PDG            Width
DECAY   2000004     2.08389248E+02   # scharm_R decays
#          BR         NDA      ID1       ID2
     9.99562586E-01    2     1000022         4   # BR(~c_R -> ~chi_10 c)
     3.19451014E-06    2     1000023         4   # BR(~c_R -> ~chi_20 c)
     4.34219765E-04    2     1000025         4   # BR(~c_R -> ~chi_30 c)
#
#         PDG            Width
DECAY   1000003     1.78196271E-02   # sstrange_L decays
#          BR         NDA      ID1       ID2
     1.00000000E+00    2     1000022         3   # BR(~s_L -> ~chi_10 s)
#
#         PDG            Width
DECAY   2000003     7.10806250E-02   # sstrange_R decays
#          BR         NDA      ID1       ID2
     1.00000000E+00    2     1000022         3   # BR(~s_R -> ~chi_10 s)
#
#         PDG            Width
DECAY   1000011     1.22212773E+02   # selectron_L decays
#          BR         NDA      ID1       ID2
     9.99500150E-01    2     1000022        11   # BR(~e_L -> ~chi_10 e-)
     2.31649918E-06    2     1000023        11   # BR(~e_L -> ~chi_20 e-)
     4.94871898E-04    2     1000025        11   # BR(~e_L -> ~chi_30 e-)
     2.66186140E-06    2    -1000024        12   # BR(~e_L -> ~chi_1- nu_e)
#
#         PDG            Width
DECAY   2000011     4.88848191E+02   # selectron_R decays
#          BR         NDA      ID1       ID2
     9.99563004E-01    2     1000022        11   # BR(~e_R -> ~chi_10 e-)
     3.19145515E-06    2     1000023        11   # BR(~e_R -> ~chi_20 e-)
     4.33804323E-04    2     1000025        11   # BR(~e_R -> ~chi_30 e-)
#
#         PDG            Width
DECAY   1000013     1.22212773E+02   # smuon_L decays
#          BR         NDA      ID1       ID2
     9.99500150E-01    2     1000022        13   # BR(~mu_L -> ~chi_10 mu-)
     2.31649918E-06    2     1000023        13   # BR(~mu_L -> ~chi_20 mu-)
     4.94871898E-04    2     1000025        13   # BR(~mu_L -> ~chi_30 mu-)
     2.66186140E-06    2    -1000024        14   # BR(~mu_L -> ~chi_1- nu_mu)
#
#         PDG            Width
DECAY   2000013     4.88848191E+02   # smuon_R decays
#          BR         NDA      ID1       ID2
     9.99563004E-01    2     1000022        13   # BR(~mu_R -> ~chi_10 mu-)
     3.19145515E-06    2     1000023        13   # BR(~mu_R -> ~chi_20 mu-)
     4.33804323E-04    2     1000025        13   # BR(~mu_R -> ~chi_30 mu-)
#
#         PDG            Width
DECAY   1000015     1.18198887E+04   # stau_1 decays
#          BR         NDA      ID1       ID2
     2.58896025E-02    2     1000022        15   # BR(~tau_1 -> ~chi_10  tau-)
     2.54225140E-05    2     1000023        15   # BR(~tau_1 -> ~chi_20  tau-)
     2.78081845E-05    2     1000025        15   # BR(~tau_1 -> ~chi_30  tau-)
     2.77056180E-05    2    -1000024        16   # BR(~tau_1 -> ~chi_1-  nu_tau)
     9.74029461E-01    2     1000039        15   # BR(~tau_1 -> ~G       tau-)
#
#         PDG            Width
DECAY   2000015     3.05965560E+02   # stau_2 decays
#          BR         NDA      ID1       ID2
     9.96106722E-01    2     1000022        15   # BR(~tau_2 -> ~chi_10  tau-)
     1.06490970E-03    2     1000023        15   # BR(~tau_2 -> ~chi_20  tau-)
     1.85656106E-03    2     1000025        15   # BR(~tau_2 -> ~chi_30  tau-)
     9.71807406E-04    2    -1000024        16   # BR(~tau_2 -> ~chi_1-  nu_tau)
#
#         PDG            Width
DECAY   1000012     1.22212834E+02   # snu_eL decays
#          BR         NDA      ID1       ID2
     9.99613380E-01    2     1000022        12   # BR(~nu_eL -> ~chi_10 nu_e)
     4.20624262E-06    2     1000023        12   # BR(~nu_eL -> ~chi_20 nu_e)
     3.76751730E-04    2     1000025        12   # BR(~nu_eL -> ~chi_30 nu_e)
     5.66184308E-06    2     1000024        11   # BR(~nu_eL -> ~chi_1+ e-)
#
#         PDG            Width
DECAY   1000014     1.22212834E+02   # snu_muL decays
#          BR         NDA      ID1       ID2
     9.99613380E-01    2     1000022        14   # BR(~nu_muL -> ~chi_10 nu_mu)
     4.20624262E-06    2     1000023        14   # BR(~nu_muL -> ~chi_20 nu_mu)
     3.76751730E-04    2     1000025        14   # BR(~nu_muL -> ~chi_30 nu_mu)
     5.66184308E-06    2     1000024        13   # BR(~nu_muL -> ~chi_1+ mu-)
#
#         PDG            Width
DECAY   1000016     1.22837326E+02   # snu_tauL decays
#          BR         NDA      ID1       ID2
     9.94531455E-01    2     1000022        16   # BR(~nu_tauL -> ~chi_10 nu_tau)
     4.18485855E-06    2     1000023        16   # BR(~nu_tauL -> ~chi_20 nu_tau)
     3.74836365E-04    2     1000025        16   # BR(~nu_tauL -> ~chi_30 nu_tau)
     5.08952338E-03    2     1000024        15   # BR(~nu_tauL -> ~chi_1+ tau-)
#
#         PDG            Width
DECAY   1000024     4.80215039E+01   # chargino1+ decays
#          BR         NDA      ID1       ID2
     5.63058339E-07    2     1000002        -1   # BR(~chi_1+ -> ~u_L     db)
     2.64592109E-07    2    -1000001         2   # BR(~chi_1+ -> ~d_L*    u )
     5.63058339E-07    2     1000004        -3   # BR(~chi_1+ -> ~c_L     sb)
     2.64592109E-07    2    -1000003         4   # BR(~chi_1+ -> ~s_L*    c )
    -1.76316280E-01    2     1000006        -5   # BR(~chi_1+ -> ~t_1     bb)
     1.04743775E-01    2    -1000005         6   # BR(~chi_1+ -> ~b_1*    t )
     1.00262980E+00    2    -2000005         6   # BR(~chi_1+ -> ~b_2*    t )
     6.81332095E-02    2     1000022        24   # BR(~chi_1+ -> ~chi_10  W+)
     8.00320674E-04    2     1000022        37   # BR(~chi_1+ -> ~chi_10  H+)
     6.28254100E-06    2     1000039        24   # BR(~chi_1+ -> ~G       W+)
     1.23614735E-06    2     1000039        37   # BR(~chi_1+ -> ~G       H+)
#
#         PDG            Width
DECAY   1000037    -2.46376565E+05   # chargino2+ decays
#          BR         NDA      ID1       ID2
    -4.68150279E-03    2     1000002        -1   # BR(~chi_2+ -> ~u_L     db)
    -4.68150421E-03    2    -1000001         2   # BR(~chi_2+ -> ~d_L*    u )
    -4.68150279E-03    2     1000004        -3   # BR(~chi_2+ -> ~c_L     sb)
    -4.68150421E-03    2    -1000003         4   # BR(~chi_2+ -> ~s_L*    c )
     1.07964766E+00    2     1000006        -5   # BR(~chi_2+ -> ~t_1     bb)
    -1.02315066E-03    2    -1000005         6   # BR(~chi_2+ -> ~b_1*    t )
    -4.44590236E-03    2    -2000005         6   # BR(~chi_2+ -> ~b_2*    t )
    -3.46005334E-15    2     1000012       -11   # BR(~chi_2+ -> ~nu_eL   e+  )
    -3.46005334E-15    2     1000014       -13   # BR(~chi_2+ -> ~nu_muL  mu+ )
    -2.42263322E-15    2    -1000011        12   # BR(~chi_2+ -> ~e_L+    nu_e)
    -2.42263322E-15    2    -1000013        14   # BR(~chi_2+ -> ~mu_L+   nu_mu)
    -3.75897402E-15    2    -1000015        16   # BR(~chi_2+ -> ~tau_1+  nu_tau)
    -6.39741087E-17    2    -2000015        16   # BR(~chi_2+ -> ~tau_2+  nu_tau)
    -8.58308284E-04    2     1000024        23   # BR(~chi_2+ -> ~chi_1+  Z )
    -3.13493588E-07    2     1000022        24   # BR(~chi_2+ -> ~chi_10  W+)
    -8.32743896E-04    2     1000023        24   # BR(~chi_2+ -> ~chi_20  W+)
    -8.32421534E-04    2     1000025        24   # BR(~chi_2+ -> ~chi_30  W+)
    -8.66455408E-04    2     1000024        25   # BR(~chi_2+ -> ~chi_1+  h )
    -7.60584037E-04    2     1000024        35   # BR(~chi_2+ -> ~chi_1+  H )
    -7.60684998E-04    2     1000024        36   # BR(~chi_2+ -> ~chi_1+  A )
    -3.56342461E-07    2     1000022        37   # BR(~chi_2+ -> ~chi_10  H+)
    -7.60660000E-04    2     1000023        37   # BR(~chi_2+ -> ~chi_20  H+)
    -7.60325620E-04    2     1000025        37   # BR(~chi_2+ -> ~chi_30  H+)
    -4.90197252E-02    2     1000039        24   # BR(~chi_2+ -> ~G       W+)
    -1.40565393E-08    2     1000039        37   # BR(~chi_2+ -> ~G       H+)
#
#         PDG            Width
DECAY   1000022     1.E-08   # neutralino1 decays (OJ Mods)
#          BR         NDA      ID1       ID2
     7.60626726E-01    2     1000039        22   # BR(~chi_10 -> ~G        gam)
     2.39370729E-01    2     1000039        23   # BR(~chi_10 -> ~G        Z)
     2.54496114E-06    2     1000039        25   # BR(~chi_10 -> ~G        h)
#
#         PDG            Width
DECAY   1000023     1.E-08   # neutralino2 decays (OJ Mods)
#          BR         NDA      ID1       ID2
     8.73304285E-02    2     1000022        23   # BR(~chi_20 -> ~chi_10   Z )
     6.31815209E-04    2     1000022        25   # BR(~chi_20 -> ~chi_10   h )
     4.01447076E-04    2     1000022        35   # BR(~chi_20 -> ~chi_10   H )
     8.22770885E-04    2     1000022        36   # BR(~chi_20 -> ~chi_10   A )
     1.58046366E-08    2     1000002        -2   # BR(~chi_20 -> ~u_L      ub)
     1.58046366E-08    2    -1000002         2   # BR(~chi_20 -> ~u_L*     u )
     1.06606873E-07    2     1000001        -1   # BR(~chi_20 -> ~d_L      db)
     1.06606873E-07    2    -1000001         1   # BR(~chi_20 -> ~d_L*     d )
     2.04521701E-07    2     2000001        -1   # BR(~chi_20 -> ~d_R      db)
     2.04521701E-07    2    -2000001         1   # BR(~chi_20 -> ~d_R*     d )
     1.58046366E-08    2     1000004        -4   # BR(~chi_20 -> ~c_L      cb)
     1.58046366E-08    2    -1000004         4   # BR(~chi_20 -> ~c_L*     c )
     1.06606873E-07    2     1000003        -3   # BR(~chi_20 -> ~s_L      sb)
     1.06606873E-07    2    -1000003         3   # BR(~chi_20 -> ~s_L*     s )
     2.04521701E-07    2     2000003        -3   # BR(~chi_20 -> ~s_R      sb)
     2.04521701E-07    2    -2000003         3   # BR(~chi_20 -> ~s_R*     s )
     6.92536010E-01    2     1000006        -6   # BR(~chi_20 -> ~t_1      tb)
     6.92536010E-01    2    -1000006         6   # BR(~chi_20 -> ~t_1*     t )
    -1.15525862E-01    2     1000005        -5   # BR(~chi_20 -> ~b_1      bb)
    -1.15525862E-01    2    -1000005         5   # BR(~chi_20 -> ~b_1*     b )
    -1.21608683E-01    2     2000005        -5   # BR(~chi_20 -> ~b_2      bb)
    -1.21608683E-01    2    -2000005         5   # BR(~chi_20 -> ~b_2*     b )
     3.47049146E-11    2     1000039        22   # BR(~chi_20 -> ~G        gam)
     3.02721081E-07    2     1000039        23   # BR(~chi_20 -> ~G        Z)
     7.55555092E-06    2     1000039        25   # BR(~chi_20 -> ~G        h)
     6.05227893E-08    2     1000039        35   # BR(~chi_20 -> ~G        H)
     1.56085112E-06    2     1000039        36   # BR(~chi_20 -> ~G        A)
#
#         PDG            Width
DECAY   1000025     3.80596201E+01   # neutralino3 decays
#          BR         NDA      ID1       ID2
     6.49707930E-04    2     1000022        23   # BR(~chi_30 -> ~chi_10   Z )
     8.86942971E-02    2     1000022        25   # BR(~chi_30 -> ~chi_10   h )
     7.94903268E-04    2     1000022        35   # BR(~chi_30 -> ~chi_10   H )
     4.33395689E-04    2     1000022        36   # BR(~chi_30 -> ~chi_10   A )
     1.01535728E-05    2     1000002        -2   # BR(~chi_30 -> ~u_L      ub)
     1.01535728E-05    2    -1000002         2   # BR(~chi_30 -> ~u_L*     u )
     4.43202471E-06    2     1000001        -1   # BR(~chi_30 -> ~d_L      db)
     4.43202471E-06    2    -1000001         1   # BR(~chi_30 -> ~d_L*     d )
     2.80001791E-05    2     2000001        -1   # BR(~chi_30 -> ~d_R      db)
     2.80001791E-05    2    -2000001         1   # BR(~chi_30 -> ~d_R*     d )
     1.01535728E-05    2     1000004        -4   # BR(~chi_30 -> ~c_L      cb)
     1.01535728E-05    2    -1000004         4   # BR(~chi_30 -> ~c_L*     c )
     4.43202471E-06    2     1000003        -3   # BR(~chi_30 -> ~s_L      sb)
     4.43202471E-06    2    -1000003         3   # BR(~chi_30 -> ~s_L*     s )
     2.80001791E-05    2     2000003        -3   # BR(~chi_30 -> ~s_R      sb)
     2.80001791E-05    2    -2000003         3   # BR(~chi_30 -> ~s_R*     s )
     6.97607192E-01    2     1000006        -6   # BR(~chi_30 -> ~t_1      tb)
     6.97607192E-01    2    -1000006         6   # BR(~chi_30 -> ~t_1*     t )
    -9.20997365E-02    2     1000005        -5   # BR(~chi_30 -> ~b_1      bb)
    -9.20997365E-02    2    -1000005         5   # BR(~chi_30 -> ~b_1*     b )
    -1.50871991E-01    2     2000005        -5   # BR(~chi_30 -> ~b_2      bb)
    -1.50871991E-01    2    -2000005         5   # BR(~chi_30 -> ~b_2*     b )
     5.46976143E-09    2     1000039        22   # BR(~chi_30 -> ~G        gam)
     7.62503225E-06    2     1000039        23   # BR(~chi_30 -> ~G        Z)
     2.97321796E-07    2     1000039        25   # BR(~chi_30 -> ~G        h)
     1.56321987E-06    2     1000039        35   # BR(~chi_30 -> ~G        H)
     6.29461128E-08    2     1000039        36   # BR(~chi_30 -> ~G        A)
#
#         PDG            Width
DECAY   1000035    -2.46377683E+05   # neutralino4 decays
#          BR         NDA      ID1       ID2
    -3.66813145E-09    2     1000022        23   # BR(~chi_40 -> ~chi_10   Z )
    -8.29463939E-04    2     1000023        23   # BR(~chi_40 -> ~chi_20   Z )
    -2.88372678E-05    2     1000025        23   # BR(~chi_40 -> ~chi_30   Z )
    -8.32734743E-04    2     1000024       -24   # BR(~chi_40 -> ~chi_1+   W-)
    -8.32734743E-04    2    -1000024        24   # BR(~chi_40 -> ~chi_1-   W+)
    -3.22884494E-07    2     1000022        25   # BR(~chi_40 -> ~chi_10   h )
    -2.80352481E-08    2     1000022        35   # BR(~chi_40 -> ~chi_10   H )
    -3.27872204E-07    2     1000022        36   # BR(~chi_40 -> ~chi_10   A )
    -2.84496718E-05    2     1000023        25   # BR(~chi_40 -> ~chi_20   h )
    -7.27875556E-04    2     1000023        35   # BR(~chi_40 -> ~chi_20   H )
    -3.34596856E-05    2     1000023        36   # BR(~chi_40 -> ~chi_20   A )
    -8.37679614E-04    2     1000025        25   # BR(~chi_40 -> ~chi_30   h )
    -3.26758870E-05    2     1000025        35   # BR(~chi_40 -> ~chi_30   H )
    -7.26893807E-04    2     1000025        36   # BR(~chi_40 -> ~chi_30   A )
    -7.60667833E-04    2     1000024       -37   # BR(~chi_40 -> ~chi_1+   H-)
    -7.60667833E-04    2    -1000024        37   # BR(~chi_40 -> ~chi_1-   H+)
    -2.24122397E-03    2     1000002        -2   # BR(~chi_40 -> ~u_L      ub)
    -2.24122397E-03    2    -1000002         2   # BR(~chi_40 -> ~u_L*     u )
    -3.64307007E-23    2     2000002        -2   # BR(~chi_40 -> ~u_R      ub)
    -3.64307007E-23    2    -2000002         2   # BR(~chi_40 -> ~u_R*     u )
    -2.24122493E-03    2     1000001        -1   # BR(~chi_40 -> ~d_L      db)
    -2.24122493E-03    2    -1000001         1   # BR(~chi_40 -> ~d_L*     d )
    -4.36140190E-17    2     2000001        -1   # BR(~chi_40 -> ~d_R      db)
    -4.36140190E-17    2    -2000001         1   # BR(~chi_40 -> ~d_R*     d )
    -2.24122397E-03    2     1000004        -4   # BR(~chi_40 -> ~c_L      cb)
    -2.24122397E-03    2    -1000004         4   # BR(~chi_40 -> ~c_L*     c )
    -3.64307007E-23    2     2000004        -4   # BR(~chi_40 -> ~c_R      cb)
    -3.64307007E-23    2    -2000004         4   # BR(~chi_40 -> ~c_R*     c )
    -2.24122493E-03    2     1000003        -3   # BR(~chi_40 -> ~s_L      sb)
    -2.24122493E-03    2    -1000003         3   # BR(~chi_40 -> ~s_L*     s )
    -4.36140190E-17    2     2000003        -3   # BR(~chi_40 -> ~s_R      sb)
    -4.36140190E-17    2    -2000003         3   # BR(~chi_40 -> ~s_R*     s )
    -2.73451920E-03    2     1000006        -6   # BR(~chi_40 -> ~t_1      tb)
    -2.73451920E-03    2    -1000006         6   # BR(~chi_40 -> ~t_1*     t )
     2.60043309E-01    2     1000005        -5   # BR(~chi_40 -> ~b_1      bb)
     2.60043309E-01    2    -1000005         5   # BR(~chi_40 -> ~b_1*     b )
     2.79780336E-01    2     2000005        -5   # BR(~chi_40 -> ~b_2      bb)
     2.79780336E-01    2    -2000005         5   # BR(~chi_40 -> ~b_2*     b )
    -1.21131004E-15    2     1000011       -11   # BR(~chi_40 -> ~e_L-     e+)
    -1.21131004E-15    2    -1000011        11   # BR(~chi_40 -> ~e_L+     e-)
    -2.12147913E-28    2     2000011       -11   # BR(~chi_40 -> ~e_R-     e+)
    -2.12147913E-28    2    -2000011        11   # BR(~chi_40 -> ~e_R+     e-)
    -1.21131004E-15    2     1000013       -13   # BR(~chi_40 -> ~mu_L-    mu+)
    -1.21131004E-15    2    -1000013        13   # BR(~chi_40 -> ~mu_L+    mu-)
    -2.12147913E-28    2     2000013       -13   # BR(~chi_40 -> ~mu_R-    mu+)
    -2.12147913E-28    2    -2000013        13   # BR(~chi_40 -> ~mu_R+    mu-)
    -1.73001957E-15    2     1000012       -12   # BR(~chi_40 -> ~nu_eL    nu_eb)
    -1.73001957E-15    2    -1000012        12   # BR(~chi_40 -> ~nu_eL*   nu_e )
    -1.73001957E-15    2     1000014       -14   # BR(~chi_40 -> ~nu_muL   nu_mub)
    -1.73001957E-15    2    -1000014        14   # BR(~chi_40 -> ~nu_muL*  nu_mu )
    -1.73001957E-15    2     1000016       -16   # BR(~chi_40 -> ~nu_tau1  nu_taub)
    -1.73001957E-15    2    -1000016        16   # BR(~chi_40 -> ~nu_tau1* nu_tau )
    -1.18783409E-02    2     1000039        22   # BR(~chi_40 -> ~G        gam)
    -3.71411476E-02    2     1000039        23   # BR(~chi_40 -> ~G        Z)
    -2.24261473E-09    2     1000039        25   # BR(~chi_40 -> ~G        h)
    -1.40800620E-08    2     1000039        35   # BR(~chi_40 -> ~G        H)
    -2.77456681E-12    2     1000039        36   # BR(~chi_40 -> ~G        A)
#
#
#
#
