#
#                              ======================
#                              | THE SUSYHIT OUTPUT |
#                              ======================
#
#
#              ------------------------------------------------------
#              |     This is the output of the SUSY-HIT package     |
#              |  created by A.Djouadi, M.Muehlleitner and M.Spira. |
#              |  In case of problems with SUSY-HIT email to        |
#              |           margarete.muehlleitner@cern.ch           |
#              |           michael.spira@psi.ch                     |
#              |           abdelhak.djouadi@cern.ch                 |
#              ------------------------------------------------------
#
#              ------------------------------------------------------
#              |  SUSY Les Houches Accord - MSSM Spectrum + Decays  |
#              |              based on the decay programs           |
#              |                                                    |
#              |                     SDECAY 1.3b                    |
#              |                                                    |
#              |  Authors: M.Muhlleitner, A.Djouadi and Y.Mambrini  |
#              |  Ref.:    Comput.Phys.Commun.168(2005)46           |
#              |           [hep-ph/0311167]                         |
#              |                                                    |
#              |                     HDECAY 3.4                     |
#              |                                                    |
#              |  By: A.Djouadi,J.Kalinowski,M.Muhlleitner,M.Spira  |
#              |  Ref.:    Comput.Phys.Commun.108(1998)56           |
#              |           [hep-ph/9704448]                         |
#              |                                                    |
#              |                                                    |
#              |  If not stated otherwise all DRbar couplings and   |
#              |  soft SUSY breaking masses are given at the scale  |
#              |  Q=  0.91187600E+02
#              |                                                    |
#              ------------------------------------------------------
#
#
BLOCK DCINFO  # Decay Program information
     1   SDECAY/HDECAY # decay calculator
     2   1.3b  /3.4    # version number
#
BLOCK SPINFO  # Spectrum calculator information
     1   SuSpect     # RGE +Spectrum calculator            
     2   2.41         # version number                     
#
BLOCK MODSEL  # Model selection
     1     0   # #general MSSM low scale                           
#
BLOCK SMINPUTS  # Standard Model inputs
         1     1.27934000E+02   # alpha_em^-1(M_Z)^MSbar
         2     1.16639000E-05   # G_F [GeV^-2]
         3     1.17200000E-01   # alpha_S(M_Z)^MSbar
         4     9.11870000E+01   # M_Z pole mass
         5     4.25000000E+00   # mb(mb)^MSbar
         6     1.72500000E+02   # mt pole mass
         7     1.77700000E+00   # mtau pole mass
#
BLOCK MINPAR  # Input parameters - minimal models
#
BLOCK EXTPAR  # Input parameters - non-minimal models
         0     9.11876000E+01   # EWSB                
         1     3.00000000E+02   # M_1                 
         2     1.00000000E+05   # M_2                 
         3     1.00000000E+05   # M_3                 
        11     0.00000000E+00   # A_t                 
        12     0.00000000E+00   # A_b                 
        13     0.00000000E+00   # A_tau               
        14     0.00000000E+00   # A_u                 
        15     0.00000000E+00   # A_d                 
        16     0.00000000E+00   # A_e                 
        23     3.50000000E+03   # mu(EWSB)            
        25     1.50000000E+00   # tanbeta(in)         
        26     2.00000000E+03   # MA_pole             
        31     1.00000000E+05   # M_eL                
        32     1.00000000E+05   # M_muL               
        33     1.00000000E+05   # M_tauL              
        34     1.00000000E+05   # M_eR                
        35     1.00000000E+05   # M_muR               
        36     1.00000000E+05   # M_tauR              
        41     1.00000000E+03   # M_q1L               
        42     1.00000000E+03   # M_q2L               
        43     1.00000000E+03   # M_q3L               
        44     1.00000000E+05   # M_uR                
        45     1.00000000E+05   # M_cR                
        46     1.00000000E+05   # M_tR                
        47     1.00000000E+03   # M_dR                
        48     1.00000000E+03   # M_sR                
        49     1.00000000E+03   # M_bR                
#
BLOCK MASS  # Mass Spectrum
# PDG code           mass       particle
        24     8.05806958E+01   # W+
        25     1.25000000E+02   # h
        35     2.00386862E+03   # H
        36     2.00000000E+03   # A
        37     2.02367907E+03   # H+
         5     4.87877839E+00   # b-quark pole mass calculated from mb(mb)_Msbar
   1000001     1.00066600E+03   # ~d_L
   2000001     1.00012796E+03   # ~d_R
   1000002     9.99461604E+02   # ~u_L
   2000002     9.99999974E+04   # ~u_R
   1000003     1.00066600E+03   # ~s_L
   2000003     1.00012796E+03   # ~s_R
   1000004     9.99461604E+02   # ~c_L
   2000004     9.99999974E+04   # ~c_R
   1000005     9.93601599E+02   # ~b_1
   2000005     1.00715319E+03   # ~b_2
   1000006     1.01027332E+03   # ~t_1
   2000006     1.00000106E+05   # ~t_2
   1000011     1.00000004E+05   # ~e_L
   2000011     1.00000004E+05   # ~e_R
   1000012     9.99999921E+04   # ~nu_eL
   1000013     1.00000004E+05   # ~mu_L
   2000013     1.00000004E+05   # ~mu_R
   1000014     9.99999921E+04   # ~nu_muL
   1000015     9.99999574E+04   # ~tau_1
   2000015     1.00000051E+05   # ~tau_2
   1000016     9.99999921E+04   # ~nu_tauL
   1000021     1.00000000E+05   # ~g
   1000022     2.99420453E+02   # ~chi_10
   1000023    -3.50002253E+03   # ~chi_20
   1000025     3.50053735E+03   # ~chi_30
   1000035     1.00000065E+05   # ~chi_40
   1000024     3.49993992E+03   # ~chi_1+
   1000037     1.00000065E+05   # ~chi_2+
   1000039     1.00000000E-09   # ~gravitino
#
BLOCK NMIX  # Neutralino Mixing Matrix
  1  1     9.99903658E-01   # N_11
  1  2    -1.02952032E-05   # N_12
  1  3     1.13094257E-02   # N_13
  1  4    -8.04811933E-03   # N_14
  2  1     2.30608480E-03   # N_21
  2  2    -1.49970734E-04   # N_22
  2  3    -7.07093511E-01   # N_23
  2  4    -7.07116275E-01   # N_24
  3  1     1.36878548E-02   # N_31
  3  2     8.04116382E-04   # N_32
  3  3    -7.07029454E-01   # N_33
  3  4     7.07051163E-01   # N_34
  4  1     3.66572708E-07   # N_41
  4  2    -9.99999665E-01   # N_42
  4  3    -4.62607221E-04   # N_43
  4  4     6.74681251E-04   # N_44
#
BLOCK UMIX  # Chargino Mixing Matrix U
  1  1    -6.54225200E-04   # U_11
  1  2     9.99999786E-01   # U_12
  2  1     9.99999786E-01   # U_21
  2  2     6.54225200E-04   # U_22
#
BLOCK VMIX  # Chargino Mixing Matrix V
  1  1    -9.54143289E-04   # V_11
  1  2     9.99999545E-01   # V_12
  2  1     9.99999545E-01   # V_21
  2  2     9.54143289E-04   # V_22
#
BLOCK STOPMIX  # Stop Mixing Matrix
  1  1     9.99999999E-01   # cos(theta_t)
  1  2     4.47213589E-05   # sin(theta_t)
  2  1    -4.47213589E-05   # -sin(theta_t)
  2  2     9.99999999E-01   # cos(theta_t)
#
BLOCK SBOTMIX  # Sbottom Mixing Matrix
  1  1     6.92927240E-01   # cos(theta_b)
  1  2     7.21007517E-01   # sin(theta_b)
  2  1    -7.21007517E-01   # -sin(theta_b)
  2  2     6.92927240E-01   # cos(theta_b)
#
BLOCK STAUMIX  # Stau Mixing Matrix
  1  1     7.06104420E-01   # cos(theta_tau)
  1  2     7.08107723E-01   # sin(theta_tau)
  2  1    -7.08107723E-01   # -sin(theta_tau)
  2  2     7.06104420E-01   # cos(theta_tau)
#
BLOCK ALPHA  # Higgs mixing
          -5.90224907E-01   # Mixing angle in the neutral Higgs boson sector
#
BLOCK HMIX Q=  9.11876000E+01  # DRbar Higgs Parameters
         1     3.50000000E+03   # mu(Q)               
         2     1.49999982E+00   # tanbeta(Q)          
         3     2.54853802E+02   # vev(Q)              
         4    -6.84587952E+07   # MA^2(Q)             
#
BLOCK GAUGE Q=  9.11876000E+01  # The gauge couplings
     1     3.50633461E-01   # gprime(Q) DRbar
     2     6.21067602E-01   # g(Q) DRbar
     3     1.02926413E+00   # g3(Q) DRbar
#
BLOCK AU Q=  9.11876000E+01  # The trilinear couplings
  1  1     0.00000000E+00   # A_u(Q) DRbar
  2  2     0.00000000E+00   # A_c(Q) DRbar
  3  3     0.00000000E+00   # A_t(Q) DRbar
#
BLOCK AD Q=  9.11876000E+01  # The trilinear couplings
  1  1     0.00000000E+00   # A_d(Q) DRbar
  2  2     0.00000000E+00   # A_s(Q) DRbar
  3  3     0.00000000E+00   # A_b(Q) DRbar
#
BLOCK AE Q=  9.11876000E+01  # The trilinear couplings
  1  1     0.00000000E+00   # A_e(Q) DRbar
  2  2     0.00000000E+00   # A_mu(Q) DRbar
  3  3     0.00000000E+00   # A_tau(Q) DRbar
#
BLOCK Yu Q=  9.11876000E+01  # The Yukawa couplings
  1  1     0.00000000E+00   # y_u(Q) DRbar
  2  2     0.00000000E+00   # y_c(Q) DRbar
  3  3     9.83352681E-01   # y_t(Q) DRbar
#
BLOCK Yd Q=  9.11876000E+01  # The Yukawa couplings
  1  1     0.00000000E+00   # y_d(Q) DRbar
  2  2     0.00000000E+00   # y_s(Q) DRbar
  3  3     2.58117832E-02   # y_b(Q) DRbar
#
BLOCK Ye Q=  9.11876000E+01  # The Yukawa couplings
  1  1     0.00000000E+00   # y_e(Q) DRbar
  2  2     0.00000000E+00   # y_mu(Q) DRbar
  3  3     1.77399191E-02   # y_tau(Q) DRbar
#
BLOCK MSOFT Q=  9.11876000E+01  # The soft SUSY breaking masses at the scale Q
         1     3.00000000E+02   # M_1                 
         2     1.00000000E+05   # M_2                 
         3     1.00000000E+05   # M_3                 
        14     0.00000000E+00   # A_u                 
        15     0.00000000E+00   # A_d                 
        16     0.00000000E+00   # A_e                 
        21     6.34930431E+08   # M^2_Hd              
        22    -1.14399949E+09   # M^2_Hu              
        31     1.00000000E+05   # M_eL                
        32     1.00000000E+05   # M_muL               
        33     1.00000000E+05   # M_tauL              
        34     1.00000000E+05   # M_eR                
        35     1.00000000E+05   # M_muR               
        36     1.00000000E+05   # M_tauR              
        41     1.00000000E+03   # M_q1L               
        42     1.00000000E+03   # M_q2L               
        43     1.00000000E+03   # M_q3L               
        44     1.00000000E+05   # M_uR                
        45     1.00000000E+05   # M_cR                
        46     1.00000000E+05   # M_tR                
        47     1.00000000E+03   # M_dR                
        48     1.00000000E+03   # M_sR                
        49     1.00000000E+03   # M_bR                
#
#
#
#                             =================
#                             |The decay table|
#                             =================
#
# - The QCD corrections to the decays gluino -> squark  + quark
#                                     squark -> gaugino + quark_prime
#                                     squark -> squark_prime + Higgs
#                                     squark -> gluino  + quark
#   are included.
#
# - The multi-body decays for the inos, stops and sbottoms are included.
#
# - The loop induced decays for the gluino, neutralinos and stops
#   are included.
#
# - The SUSY decays of the top quark are included.
#
# - Possible decays of the NLSP in GMSB models are included.
#
#
#         PDG            Width
DECAY         6     1.33141212E+00   # top decays
#          BR         NDA      ID1       ID2
     1.00000000E+00    2           5        24   # BR(t ->  b    W+)
#
#         PDG            Width
DECAY   1000021     1.E-04   # gluino decays (OJ Mods)
#          BR         NDA      ID1       ID2
     6.64840124E-04    2     1000001        -1   # BR(~g -> ~d_L  db)
     6.64840124E-04    2    -1000001         1   # BR(~g -> ~d_L* d )
     6.64840268E-04    2     2000001        -1   # BR(~g -> ~d_R  db)
     6.64840268E-04    2    -2000001         1   # BR(~g -> ~d_R* d )
     6.64840445E-04    2     1000002        -2   # BR(~g -> ~u_L  ub)
     6.64840445E-04    2    -1000002         2   # BR(~g -> ~u_L* u )
     1.79808774E-18    2     2000002        -2   # BR(~g -> ~u_R  ub)
     1.79808774E-18    2    -2000002         2   # BR(~g -> ~u_R* u )
     6.64840124E-04    2     1000003        -3   # BR(~g -> ~s_L  sb)
     6.64840124E-04    2    -1000003         3   # BR(~g -> ~s_L* s )
     6.64840268E-04    2     2000003        -3   # BR(~g -> ~s_R  sb)
     6.64840268E-04    2    -2000003         3   # BR(~g -> ~s_R* s )
     6.64840445E-04    2     1000004        -4   # BR(~g -> ~c_L  cb)
     6.64840445E-04    2    -1000004         4   # BR(~g -> ~c_L* c )
     1.79808774E-18    2     2000004        -4   # BR(~g -> ~c_R  cb)
     1.79808774E-18    2    -2000004         4   # BR(~g -> ~c_R* c )
     2.39617918E-01    2     1000005        -5   # BR(~g -> ~b_1  bb)
     2.39617918E-01    2    -1000005         5   # BR(~g -> ~b_1* b )
     2.46456097E-01    2     2000005        -5   # BR(~g -> ~b_2  bb)
     2.46456097E-01    2    -2000005         5   # BR(~g -> ~b_2* b )
     6.54215758E-04    2     1000006        -6   # BR(~g -> ~t_1  tb)
     6.54215758E-04    2    -1000006         6   # BR(~g -> ~t_1* t )
     1.85654563E-02    2     1000039        21   # BR(~g -> ~G g)
#
#         PDG            Width
DECAY   1000006     1.33109469E-01   # stop1 decays
#          BR         NDA      ID1       ID2
     1.00000000E+00    2     1000022         6   # BR(~t_1 -> ~chi_10 t )
#
#         PDG            Width
DECAY   2000006     3.72567320E+05   # stop2 decays
#          BR         NDA      ID1       ID2
     5.58955086E-04    2     1000022         6   # BR(~t_2 -> ~chi_10 t )
     1.32950498E-03    2     1000023         6   # BR(~t_2 -> ~chi_20 t )
     1.32934084E-03    2     1000025         6   # BR(~t_2 -> ~chi_30 t )
     9.96829750E-01    2     1000024         5   # BR(~t_2 -> ~chi_1+ b )
    -3.68366189E-05    2     1000006        25   # BR(~t_2 -> ~t_1    h )
     3.85447519E-05    2     1000006        35   # BR(~t_2 -> ~t_1    H )
     3.84793815E-05    2     1000006        36   # BR(~t_2 -> ~t_1    A )
     3.62340003E-05    2     1000005        37   # BR(~t_2 -> ~b_1    H+)
     4.07230768E-05    2     2000005        37   # BR(~t_2 -> ~b_2    H+)
    -2.64952703E-05    2     1000006        23   # BR(~t_2 -> ~t_1    Z )
    -6.63579672E-05    2     1000005        24   # BR(~t_2 -> ~b_1    W+)
    -7.18419836E-05    2     2000005        24   # BR(~t_2 -> ~b_2    W+)
#
#         PDG            Width
DECAY   1000005     3.22653278E+01   # sbottom1 decays
#          BR         NDA      ID1       ID2
     1.00000000E+00    2     1000022         5   # BR(~b_1 -> ~chi_10 b )
#
#         PDG            Width
DECAY   2000005     3.17443066E+01   # sbottom2 decays
#          BR         NDA      ID1       ID2
     1.00000000E+00    2     1000022         5   # BR(~b_2 -> ~chi_10 b )
#
#         PDG            Width
DECAY   1000002     1.39075385E-01   # sup_L decays
#          BR         NDA      ID1       ID2
     1.00000000E+00    2     1000022         2   # BR(~u_L -> ~chi_10 u)
#
#         PDG            Width
DECAY   2000002     2.08363858E+02   # sup_R decays
#          BR         NDA      ID1       ID2
     9.99807535E-01    2     1000022         2   # BR(~u_R -> ~chi_10 u)
     5.31223235E-06    2     1000023         2   # BR(~u_R -> ~chi_20 u)
     1.87153131E-04    2     1000025         2   # BR(~u_R -> ~chi_30 u)
#
#         PDG            Width
DECAY   1000001     1.39328640E-01   # sdown_L decays
#          BR         NDA      ID1       ID2
     1.00000000E+00    2     1000022         1   # BR(~d_L -> ~chi_10 d)
#
#         PDG            Width
DECAY   2000001     5.56855512E-01   # sdown_R decays
#          BR         NDA      ID1       ID2
     1.00000000E+00    2     1000022         1   # BR(~d_R -> ~chi_10 d)
#
#         PDG            Width
DECAY   1000004     1.39075385E-01   # scharm_L decays
#          BR         NDA      ID1       ID2
     1.00000000E+00    2     1000022         4   # BR(~c_L -> ~chi_10 c)
#
#         PDG            Width
DECAY   2000004     2.08363858E+02   # scharm_R decays
#          BR         NDA      ID1       ID2
     9.99807535E-01    2     1000022         4   # BR(~c_R -> ~chi_10 c)
     5.31223235E-06    2     1000023         4   # BR(~c_R -> ~chi_20 c)
     1.87153131E-04    2     1000025         4   # BR(~c_R -> ~chi_30 c)
#
#         PDG            Width
DECAY   1000003     1.39328640E-01   # sstrange_L decays
#          BR         NDA      ID1       ID2
     1.00000000E+00    2     1000022         3   # BR(~s_L -> ~chi_10 s)
#
#         PDG            Width
DECAY   2000003     5.56855512E-01   # sstrange_R decays
#          BR         NDA      ID1       ID2
     1.00000000E+00    2     1000022         3   # BR(~s_R -> ~chi_10 s)
#
#         PDG            Width
DECAY   1000011     1.22292969E+02   # selectron_L decays
#          BR         NDA      ID1       ID2
     9.99765347E-01    2     1000022        11   # BR(~e_L -> ~chi_10 e-)
     4.15327589E-06    2     1000023        11   # BR(~e_L -> ~chi_20 e-)
     2.27820991E-04    2     1000025        11   # BR(~e_L -> ~chi_30 e-)
     2.67914563E-06    2    -1000024        12   # BR(~e_L -> ~chi_1- nu_e)
#
#         PDG            Width
DECAY   2000011     4.89168952E+02   # selectron_R decays
#          BR         NDA      ID1       ID2
     9.99807793E-01    2     1000022        11   # BR(~e_R -> ~chi_10 e-)
     5.30510336E-06    2     1000023        11   # BR(~e_R -> ~chi_20 e-)
     1.86901923E-04    2     1000025        11   # BR(~e_R -> ~chi_30 e-)
#
#         PDG            Width
DECAY   1000013     1.22292969E+02   # smuon_L decays
#          BR         NDA      ID1       ID2
     9.99765347E-01    2     1000022        13   # BR(~mu_L -> ~chi_10 mu-)
     4.15327589E-06    2     1000023        13   # BR(~mu_L -> ~chi_20 mu-)
     2.27820991E-04    2     1000025        13   # BR(~mu_L -> ~chi_30 mu-)
     2.67914563E-06    2    -1000024        14   # BR(~mu_L -> ~chi_1- nu_mu)
#
#         PDG            Width
DECAY   2000013     4.89168952E+02   # smuon_R decays
#          BR         NDA      ID1       ID2
     9.99807793E-01    2     1000022        13   # BR(~mu_R -> ~chi_10 mu-)
     5.30510336E-06    2     1000023        13   # BR(~mu_R -> ~chi_20 mu-)
     1.86901923E-04    2     1000025        13   # BR(~mu_R -> ~chi_30 mu-)
#
#         PDG            Width
DECAY   1000015     1.18201298E+04   # stau_1 decays
#          BR         NDA      ID1       ID2
     2.59124160E-02    2     1000022        15   # BR(~tau_1 -> ~chi_10  tau-)
     2.52066791E-05    2     1000023        15   # BR(~tau_1 -> ~chi_20  tau-)
     2.50637277E-05    2     1000025        15   # BR(~tau_1 -> ~chi_30  tau-)
     2.77178601E-05    2    -1000024        16   # BR(~tau_1 -> ~chi_1-  nu_tau)
     9.74009596E-01    2     1000039        15   # BR(~tau_1 -> ~G       tau-)
#
#         PDG            Width
DECAY   2000015     3.06125627E+02   # stau_2 decays
#          BR         NDA      ID1       ID2
     9.96490386E-01    2     1000022        15   # BR(~tau_2 -> ~chi_10  tau-)
     1.07696154E-03    2     1000023        15   # BR(~tau_2 -> ~chi_20  tau-)
     1.46164317E-03    2     1000025        15   # BR(~tau_2 -> ~chi_30  tau-)
     9.71009630E-04    2    -1000024        16   # BR(~tau_2 -> ~chi_1-  nu_tau)
#
#         PDG            Width
DECAY   1000012     1.22293029E+02   # snu_eL decays
#          BR         NDA      ID1       ID2
     9.99837676E-01    2     1000022        12   # BR(~nu_eL -> ~chi_10 nu_e)
     6.59764785E-06    2     1000023        12   # BR(~nu_eL -> ~chi_20 nu_e)
     1.50027957E-04    2     1000025        12   # BR(~nu_eL -> ~chi_30 nu_e)
     5.69860718E-06    2     1000024        11   # BR(~nu_eL -> ~chi_1+ e-)
#
#         PDG            Width
DECAY   1000014     1.22293029E+02   # snu_muL decays
#          BR         NDA      ID1       ID2
     9.99837676E-01    2     1000022        14   # BR(~nu_muL -> ~chi_10 nu_mu)
     6.59764785E-06    2     1000023        14   # BR(~nu_muL -> ~chi_20 nu_mu)
     1.50027957E-04    2     1000025        14   # BR(~nu_muL -> ~chi_30 nu_mu)
     5.69860718E-06    2     1000024        13   # BR(~nu_muL -> ~chi_1+ mu-)
#
#         PDG            Width
DECAY   1000016     1.22917581E+02   # snu_tauL decays
#          BR         NDA      ID1       ID2
     9.94757438E-01    2     1000022        16   # BR(~nu_tauL -> ~chi_10 nu_tau)
     6.56412479E-06    2     1000023        16   # BR(~nu_tauL -> ~chi_20 nu_tau)
     1.49265656E-04    2     1000025        16   # BR(~nu_tauL -> ~chi_30 nu_tau)
     5.08673191E-03    2     1000024        15   # BR(~nu_tauL -> ~chi_1+ tau-)
#
#         PDG            Width
DECAY   1000024     7.77319690E+01   # chargino1+ decays
#          BR         NDA      ID1       ID2
     4.65139410E-07    2     1000002        -1   # BR(~chi_1+ -> ~u_L     db)
     2.18592851E-07    2    -1000001         2   # BR(~chi_1+ -> ~d_L*    u )
     4.65139410E-07    2     1000004        -3   # BR(~chi_1+ -> ~c_L     sb)
     2.18592851E-07    2    -1000003         4   # BR(~chi_1+ -> ~s_L*    c )
     7.01777358E-02    2     1000006        -5   # BR(~chi_1+ -> ~t_1     bb)
     6.49607371E-02    2    -1000005         6   # BR(~chi_1+ -> ~b_1*    t )
     8.24922395E-01    2    -2000005         6   # BR(~chi_1+ -> ~b_2*    t )
     3.07049600E-02    2     1000022        24   # BR(~chi_1+ -> ~chi_10  W+)
     9.22815992E-03    2     1000022        37   # BR(~chi_1+ -> ~chi_10  H+)
     3.88123080E-06    2     1000039        24   # BR(~chi_1+ -> ~G       W+)
     7.63695046E-07    2     1000039        37   # BR(~chi_1+ -> ~G       H+)
#
#         PDG            Width
DECAY   1000037     2.30634818E+05   # chargino2+ decays
#          BR         NDA      ID1       ID2
     4.55591891E-03    2     1000002        -1   # BR(~chi_2+ -> ~u_L     db)
     4.55592087E-03    2    -1000001         2   # BR(~chi_2+ -> ~d_L*    u )
     4.55591891E-03    2     1000004        -3   # BR(~chi_2+ -> ~c_L     sb)
     4.55592087E-03    2    -1000003         4   # BR(~chi_2+ -> ~s_L*    c )
     9.22630550E-01    2     1000006        -5   # BR(~chi_2+ -> ~t_1     bb)
     9.73177501E-04    2    -1000005         6   # BR(~chi_2+ -> ~b_1*    t )
     4.35724033E-03    2    -2000005         6   # BR(~chi_2+ -> ~b_2*    t )
     3.36830552E-15    2     1000012       -11   # BR(~chi_2+ -> ~nu_eL   e+  )
     3.36830552E-15    2     1000014       -13   # BR(~chi_2+ -> ~nu_muL  mu+ )
     2.35839394E-15    2    -1000011        12   # BR(~chi_2+ -> ~e_L+    nu_e)
     2.35839394E-15    2    -1000013        14   # BR(~chi_2+ -> ~mu_L+   nu_mu)
     3.65849616E-15    2    -1000015        16   # BR(~chi_2+ -> ~tau_1+  nu_tau)
     6.22913588E-17    2    -2000015        16   # BR(~chi_2+ -> ~tau_2+  nu_tau)
     8.37757548E-04    2     1000024        23   # BR(~chi_2+ -> ~chi_1+  Z )
     1.20323118E-07    2     1000022        24   # BR(~chi_2+ -> ~chi_10  W+)
     8.13518643E-04    2     1000023        24   # BR(~chi_2+ -> ~chi_20  W+)
     8.13389581E-04    2     1000025        24   # BR(~chi_2+ -> ~chi_30  W+)
     8.43476847E-04    2     1000024        25   # BR(~chi_2+ -> ~chi_1+  h )
     7.40419614E-04    2     1000024        35   # BR(~chi_2+ -> ~chi_1+  H )
     7.40514443E-04    2     1000024        36   # BR(~chi_2+ -> ~chi_1+  A )
     1.61688189E-07    2     1000022        37   # BR(~chi_2+ -> ~chi_10  H+)
     7.40486583E-04    2     1000023        37   # BR(~chi_2+ -> ~chi_20  H+)
     7.40353350E-04    2     1000025        37   # BR(~chi_2+ -> ~chi_30  H+)
     4.75451398E-02    2     1000039        24   # BR(~chi_2+ -> ~G       W+)
     1.36809430E-08    2     1000039        37   # BR(~chi_2+ -> ~G       H+)
#
#         PDG            Width
DECAY   1000022     1.E-08   # neutralino1 decays (OJ Mods)
#          BR         NDA      ID1       ID2
     8.22348330E-01    2     1000039        22   # BR(~chi_10 -> ~G        gam)
     1.77651631E-01    2     1000039        23   # BR(~chi_10 -> ~G        Z)
     3.87931644E-08    2     1000039        25   # BR(~chi_10 -> ~G        h)
#
#         PDG            Width
DECAY   1000023     1.E-08   # neutralino2 decays (OJ Mods)
#          BR         NDA      ID1       ID2
     2.68228580E-02    2     1000022        23   # BR(~chi_20 -> ~chi_10   Z )
     7.48049759E-04    2     1000022        25   # BR(~chi_20 -> ~chi_10   h )
     7.72756905E-03    2     1000022        35   # BR(~chi_20 -> ~chi_10   H )
     5.18223470E-04    2     1000022        36   # BR(~chi_20 -> ~chi_10   A )
     2.05711049E-08    2     1000002        -2   # BR(~chi_20 -> ~u_L      ub)
     2.05711049E-08    2    -1000002         2   # BR(~chi_20 -> ~u_L*     u )
     8.69322643E-08    2     1000001        -1   # BR(~chi_20 -> ~d_L      db)
     8.69322643E-08    2    -1000001         1   # BR(~chi_20 -> ~d_L*     d )
     1.92088573E-07    2     2000001        -1   # BR(~chi_20 -> ~d_R      db)
     1.92088573E-07    2    -2000001         1   # BR(~chi_20 -> ~d_R*     d )
     2.05711049E-08    2     1000004        -4   # BR(~chi_20 -> ~c_L      cb)
     2.05711049E-08    2    -1000004         4   # BR(~chi_20 -> ~c_L*     c )
     8.69322643E-08    2     1000003        -3   # BR(~chi_20 -> ~s_L      sb)
     8.69322643E-08    2    -1000003         3   # BR(~chi_20 -> ~s_L*     s )
     1.92088573E-07    2     2000003        -3   # BR(~chi_20 -> ~s_R      sb)
     1.92088573E-07    2    -2000003         3   # BR(~chi_20 -> ~s_R*     s )
     3.87553717E-01    2     1000006        -6   # BR(~chi_20 -> ~t_1      tb)
     3.87553717E-01    2    -1000006         6   # BR(~chi_20 -> ~t_1*     t )
     4.63582037E-02    2     1000005        -5   # BR(~chi_20 -> ~b_1      bb)
     4.63582037E-02    2    -1000005         5   # BR(~chi_20 -> ~b_1*     b )
     4.81771672E-02    2     2000005        -5   # BR(~chi_20 -> ~b_2      bb)
     4.81771672E-02    2    -2000005         5   # BR(~chi_20 -> ~b_2*     b )
     2.53953837E-11    2     1000039        22   # BR(~chi_20 -> ~G        gam)
     1.30188521E-07    2     1000039        23   # BR(~chi_20 -> ~G        Z)
     3.24904635E-06    2     1000039        25   # BR(~chi_20 -> ~G        h)
     2.60546923E-08    2     1000039        35   # BR(~chi_20 -> ~G        H)
     6.71221702E-07    2     1000039        36   # BR(~chi_20 -> ~G        A)
#
#         PDG            Width
DECAY   1000025     8.92207157E+01   # neutralino3 decays
#          BR         NDA      ID1       ID2
     7.60945965E-04    2     1000022        23   # BR(~chi_30 -> ~chi_10   Z )
     2.69258290E-02    2     1000022        25   # BR(~chi_30 -> ~chi_10   h )
     5.04315825E-04    2     1000022        35   # BR(~chi_30 -> ~chi_10   H )
     7.74524953E-03    2     1000022        36   # BR(~chi_30 -> ~chi_10   A )
     2.91027084E-06    2     1000002        -2   # BR(~chi_30 -> ~u_L      ub)
     2.91027084E-06    2    -1000002         2   # BR(~chi_30 -> ~u_L*     u )
     7.99375366E-07    2     1000001        -1   # BR(~chi_30 -> ~d_L      db)
     7.99375366E-07    2    -1000001         1   # BR(~chi_30 -> ~d_L*     d )
     6.75961348E-06    2     2000001        -1   # BR(~chi_30 -> ~d_R      db)
     6.75961348E-06    2    -2000001         1   # BR(~chi_30 -> ~d_R*     d )
     2.91027084E-06    2     1000004        -4   # BR(~chi_30 -> ~c_L      cb)
     2.91027084E-06    2    -1000004         4   # BR(~chi_30 -> ~c_L*     c )
     7.99375366E-07    2     1000003        -3   # BR(~chi_30 -> ~s_L      sb)
     7.99375366E-07    2    -1000003         3   # BR(~chi_30 -> ~s_L*     s )
     6.75961348E-06    2     2000003        -3   # BR(~chi_30 -> ~s_R      sb)
     6.75961348E-06    2    -2000003         3   # BR(~chi_30 -> ~s_R*     s )
     3.87118029E-01    2     1000006        -6   # BR(~chi_30 -> ~t_1      tb)
     3.87118029E-01    2    -1000006         6   # BR(~chi_30 -> ~t_1*     t )
     4.18480471E-02    2     1000005        -5   # BR(~chi_30 -> ~b_1      bb)
     4.18480471E-02    2    -1000005         5   # BR(~chi_30 -> ~b_1*     b )
     5.30454192E-02    2     2000005        -5   # BR(~chi_30 -> ~b_2      bb)
     5.30454192E-02    2    -2000005         5   # BR(~chi_30 -> ~b_2*     b )
     1.02859990E-09    2     1000039        22   # BR(~chi_30 -> ~G        gam)
     3.25165034E-06    2     1000039        23   # BR(~chi_30 -> ~G        Z)
     1.26896873E-07    2     1000039        25   # BR(~chi_30 -> ~G        h)
     6.66646421E-07    2     1000039        35   # BR(~chi_30 -> ~G        H)
     2.68392628E-08    2     1000039        36   # BR(~chi_30 -> ~G        A)
#
#         PDG            Width
DECAY   1000035     2.30635791E+05   # neutralino4 decays
#          BR         NDA      ID1       ID2
     4.93043890E-11    2     1000022        23   # BR(~chi_40 -> ~chi_10   Z )
     8.09603687E-04    2     1000023        23   # BR(~chi_40 -> ~chi_20   Z )
     2.81511036E-05    2     1000025        23   # BR(~chi_40 -> ~chi_30   Z )
     8.13510273E-04    2     1000024       -24   # BR(~chi_40 -> ~chi_1+   W-)
     8.13510273E-04    2    -1000024        24   # BR(~chi_40 -> ~chi_1-   W+)
     1.24909096E-07    2     1000022        25   # BR(~chi_40 -> ~chi_10   h )
     1.92135570E-08    2     1000022        35   # BR(~chi_40 -> ~chi_10   H )
     1.42258554E-07    2     1000022        36   # BR(~chi_40 -> ~chi_10   A )
     2.77184383E-05    2     1000023        25   # BR(~chi_40 -> ~chi_20   h )
     7.08550795E-04    2     1000023        35   # BR(~chi_40 -> ~chi_20   H )
     3.25714322E-05    2     1000023        36   # BR(~chi_40 -> ~chi_20   A )
     8.15630971E-04    2     1000025        25   # BR(~chi_40 -> ~chi_30   h )
     3.18457106E-05    2     1000025        35   # BR(~chi_40 -> ~chi_30   H )
     7.07797763E-04    2     1000025        36   # BR(~chi_40 -> ~chi_30   A )
     7.40498303E-04    2     1000024       -37   # BR(~chi_40 -> ~chi_1+   H-)
     7.40498303E-04    2    -1000024        37   # BR(~chi_40 -> ~chi_1-   H+)
     2.17960747E-03    2     1000002        -2   # BR(~chi_40 -> ~u_L      ub)
     2.17960747E-03    2    -1000002         2   # BR(~chi_40 -> ~u_L*     u )
     3.50180411E-23    2     2000002        -2   # BR(~chi_40 -> ~u_R      ub)
     3.50180411E-23    2    -2000002         2   # BR(~chi_40 -> ~u_R*     u )
     2.17960898E-03    2     1000001        -1   # BR(~chi_40 -> ~d_L      db)
     2.17960898E-03    2    -1000001         1   # BR(~chi_40 -> ~d_L*     d )
     4.14901919E-17    2     2000001        -1   # BR(~chi_40 -> ~d_R      db)
     4.14901919E-17    2    -2000001         1   # BR(~chi_40 -> ~d_R*     d )
     2.17960747E-03    2     1000004        -4   # BR(~chi_40 -> ~c_L      cb)
     2.17960747E-03    2    -1000004         4   # BR(~chi_40 -> ~c_L*     c )
     3.50180411E-23    2     2000004        -4   # BR(~chi_40 -> ~c_R      cb)
     3.50180411E-23    2    -2000004         4   # BR(~chi_40 -> ~c_R*     c )
     2.17960898E-03    2     1000003        -3   # BR(~chi_40 -> ~s_L      sb)
     2.17960898E-03    2    -1000003         3   # BR(~chi_40 -> ~s_L*     s )
     4.14901919E-17    2     2000003        -3   # BR(~chi_40 -> ~s_R      sb)
     4.14901919E-17    2    -2000003         3   # BR(~chi_40 -> ~s_R*     s )
     2.66519177E-03    2     1000006        -6   # BR(~chi_40 -> ~t_1      tb)
     2.66519177E-03    2    -1000006         6   # BR(~chi_40 -> ~t_1*     t )
     2.20694809E-01    2     1000005        -5   # BR(~chi_40 -> ~b_1      bb)
     2.20694809E-01    2    -1000005         5   # BR(~chi_40 -> ~b_1*     b )
     2.40620629E-01    2     2000005        -5   # BR(~chi_40 -> ~b_2      bb)
     2.40620629E-01    2    -2000005         5   # BR(~chi_40 -> ~b_2*     b )
     1.17919146E-15    2     1000011       -11   # BR(~chi_40 -> ~e_L-     e+)
     1.17919146E-15    2    -1000011        11   # BR(~chi_40 -> ~e_L+     e-)
     2.02019835E-28    2     2000011       -11   # BR(~chi_40 -> ~e_R-     e+)
     2.02019835E-28    2    -2000011        11   # BR(~chi_40 -> ~e_R+     e-)
     1.17919146E-15    2     1000013       -13   # BR(~chi_40 -> ~mu_L-    mu+)
     1.17919146E-15    2    -1000013        13   # BR(~chi_40 -> ~mu_L+    mu-)
     2.02019835E-28    2     2000013       -13   # BR(~chi_40 -> ~mu_R-    mu+)
     2.02019835E-28    2    -2000013        13   # BR(~chi_40 -> ~mu_R+    mu-)
     1.68414710E-15    2     1000012       -12   # BR(~chi_40 -> ~nu_eL    nu_eb)
     1.68414710E-15    2    -1000012        12   # BR(~chi_40 -> ~nu_eL*   nu_e )
     1.68414710E-15    2     1000014       -14   # BR(~chi_40 -> ~nu_muL   nu_mub)
     1.68414710E-15    2    -1000014        14   # BR(~chi_40 -> ~nu_muL*  nu_mu )
     1.68414710E-15    2     1000016       -16   # BR(~chi_40 -> ~nu_tau1  nu_taub)
     1.68414710E-15    2    -1000016        16   # BR(~chi_40 -> ~nu_tau1* nu_tau )
     1.14914907E-02    2     1000039        22   # BR(~chi_40 -> ~G        gam)
     3.60534552E-02    2     1000039        23   # BR(~chi_40 -> ~G        Z)
     2.18356537E-09    2     1000039        25   # BR(~chi_40 -> ~G        h)
     1.37029791E-08    2     1000039        35   # BR(~chi_40 -> ~G        H)
     2.70043149E-12    2     1000039        36   # BR(~chi_40 -> ~G        A)
#
#
#
#
