# SUSY Les Houches Accord 2 - MSSM spectrum + Decays
# SPheno v3.1.12 
# W. Porod, Comput. Phys. Commun. 153 (2003) 275-315, hep-ph/0301101
# in case of problems send email to porod@physik.uni-wuerzburg.de
# Created: 12.11.2012,  11:43
Block SPINFO         # Program information
     1   SPheno      # spectrum calculator
     2   v3.1.12     # version number
#
Block SPhenoINFO     # SPheno specific information
    1      2         # using 2-loop RGEs
    2      1         # using running masses for boundary conditions at mZ
Block MODSEL  # Model selection
    1    2    # mGMSB model
Block MINPAR  # Input parameters
    1    8.00000000E+04  # Lambda, scale of SUSY breaking
    2    2.50000000E+05  # M_M, messenger mass scale
    3    5.00000000E+00  # tanb at m_Z   
    4    1.00000000E+00  # Sign(mu)
    5    3.00000000E+00  # N_5 number of effective five-plets
    6    1.00000000E+00  # c_grav, Gravitino mass factor
Block gauge Q=  2.50000000E+05  # (GMSB scale)
   1    4.94050551E-01  # g'(Q)^DRbar
   2    6.50922834E-01  # g(Q)^DRbar
   3    9.45241998E-01  # g3(Q)^DRbar
Block SMINPUTS  # SM parameters
         1     1.27932441E+02  # alpha_em^-1(MZ)^MSbar
         2     1.16639000E-05  # G_mu [GeV^-2]
         3     1.17200000E-01  # alpha_s(MZ)^MSbar
         4     9.11876000E+01  # m_Z(pole)
         5     4.20000000E+00  # m_b(m_b), MSbar
         6     1.72500000E+02  # m_t(pole)
         7     1.77700000E+00  # m_tau(pole)
         8     0.00000000E+00  # m_nu_3
        11     5.10998910E-04  # m_e(pole)
        12     0.00000000E+00  # m_nu_1
        13     1.05658000E-01  # m_muon(pole)
        14     0.00000000E+00  # m_nu_2
        21     5.00000000E-03  # m_d(2 GeV), MSbar
        22     3.00000000E-03  # m_u(2 GeV), MSbar
        23     1.05000000E-01  # m_s(2 GeV), MSbar
        24     1.27000000E+00  # m_c(m_c), MSbar
Block gauge Q=  1.56048712E+03  # (SUSY scale)
   1    3.63999191E-01  # g'(Q)^DRbar
   2    6.40615731E-01  # g(Q)^DRbar
   3    1.03555649E+00  # g3(Q)^DRbar
Block Yu Q=  1.56048712E+03  # (SUSY scale)
  1  1     8.63548983E-06   # Y_u(Q)^DRbar
  2  2     3.65569092E-03   # Y_c(Q)^DRbar
  3  3     8.65964965E-01   # Y_t(Q)^DRbar
Block Yd Q=  1.56048712E+03  # (SUSY scale)
  1  1     6.80303197E-05   # Y_d(Q)^DRbar
  2  2     1.42863632E-03   # Y_s(Q)^DRbar
  3  3     6.71476579E-02   # Y_b(Q)^DRbar
Block Ye Q=  1.56048712E+03  # (SUSY scale)
  1  1     1.44012611E-05   # Y_e(Q)^DRbar
  2  2     2.97771403E-03   # Y_mu(Q)^DRbar
  3  3     5.00821367E-02   # Y_tau(Q)^DRbar
Block Au Q=  1.56048712E+03  # (SUSY scale)
  1  1    -5.20859175E+02   # A_u(Q)^DRbar
  2  2    -5.20858559E+02   # A_c(Q)^DRbar
  3  3    -4.88353802E+02   # A_t(Q)^DRbar
Block Ad Q=  1.56048712E+03  # (SUSY scale)
  1  1    -5.58940858E+02   # A_d(Q)^DRbar
  2  2    -5.58940574E+02   # A_s(Q)^DRbar
  3  3    -5.48173134E+02   # A_b(Q)^DRbar
Block Ae Q=  1.56048712E+03  # (SUSY scale)
  1  1    -6.00230940E+01   # A_e(Q)^DRbar
  2  2    -6.00230378E+01   # A_mu(Q)^DRbar
  3  3    -6.00072083E+01   # A_tau(Q)^DRbar
Block MSOFT Q=  1.56048712E+03  # soft SUSY breaking masses at Q
   1    3.39143555E+02  # M_1
   2    6.27925932E+02  # M_2
   3    1.64897619E+03  # M_3
  21    2.49870002E+05  # M^2_(H,d)
  22   -3.13957512E+05  # M^2_(H,u)
  31    5.03406770E+02  # M_(L,11)
  32    5.03406483E+02  # M_(L,22)
  33    5.03325526E+02  # M_(L,33)
  34    2.42120461E+02  # M_(E,11)
  35    2.42119247E+02  # M_(E,22)
  36    2.41776760E+02  # M_(E,33)
  41    1.62306104E+03  # M_(Q,11)
  42    1.62305993E+03  # M_(Q,22)
  43    1.56886114E+03  # M_(Q,33)
  44    1.55869086E+03  # M_(U,11)
  45    1.55868884E+03  # M_(U,22)
  46    1.44201346E+03  # M_(U,33)
  47    1.55250821E+03  # M_(D,11)
  48    1.55250789E+03  # M_(D,22)
  49    1.55180866E+03  # M_(D,33)
Block MASS  # Mass spectrum
#   PDG code      mass          particle
         6     1.72500000E+02  # m_t(pole)
        23     9.11876000E+01  # m_Z(pole)
        24     8.03162832E+01  # W+
        15     1.77700000E+00  # m_tau(pole)
        25     1.11738685E+02  # h0
        35     8.27911114E+02  # H0
        36     8.26870465E+02  # A0
        37     8.31175032E+02  # H+
   1000001     1.69109882E+03  # ~d_L
   2000001     1.61738380E+03  # ~d_R
   1000002     1.68943055E+03  # ~u_L
   2000002     1.62268878E+03  # ~u_R
   1000003     1.69109752E+03  # ~s_L
   2000003     1.61738337E+03  # ~s_R
   1000004     1.68942968E+03  # ~c_L
   2000004     1.62268620E+03  # ~c_R
   1000005     1.61579817E+03  # ~b_1
   2000005     1.62666356E+03  # ~b_2
   1000006     1.48515615E+03  # ~t_1
   2000006     1.63963767E+03  # ~t_2
   1000011     5.15063902E+02  # ~e_L-
   2000011     2.54308751E+02  # ~e_R-
   1000012     5.08992693E+02  # ~nu_eL
   1000013     5.15064041E+02  # ~mu_L-
   2000013     2.54306224E+02  # ~mu_R-
   1000014     5.08992290E+02  # ~nu_muL
   1000015     2.53593345E+02  # ~tau_1-
   2000015     5.15103107E+02  # ~tau_2-
   1000016     5.08878758E+02  # ~nu_tauL
   1000021     1.74303103E+03  # ~g
   1000022     3.27571942E+02  # ~chi_10
   1000023     5.74747246E+02  # ~chi_20
   1000025    -6.34340485E+02  # ~chi_30
   1000035     7.04278376E+02  # ~chi_40
   1000024     5.72845187E+02  # ~chi_1+
   1000037     7.03377373E+02  # ~chi_2+
   1000039     4.80000000E-09  # ~G
# Higgs mixing
Block alpha # Effective Higgs mixing angle
          -2.12294243E-01   # alpha
Block Hmix Q=  1.56048712E+03  # Higgs mixing parameters
   1    6.26620675E+02  # mu
   2    4.78377445E+00  # tan[beta](Q)
   3    2.43898458E+02  # v(Q)
   4    6.07281525E+05  # m^2_A(Q)
Block stopmix # stop mixing matrix
   1  1     2.25640370E-01   # Re[R_st(1,1)]
   1  2     9.74210667E-01   # Re[R_st(1,2)]
   2  1    -9.74210667E-01   # Re[R_st(2,1)]
   2  2     2.25640370E-01   # Re[R_st(2,2)]
Block sbotmix # sbottom mixing matrix
   1  1     2.63761176E-01   # Re[R_sb(1,1)]
   1  2     9.64588017E-01   # Re[R_sb(1,2)]
   2  1    -9.64588017E-01   # Re[R_sb(2,1)]
   2  2     2.63761176E-01   # Re[R_sb(2,2)]
Block staumix # stau mixing matrix
   1  1     2.75594322E-02   # Re[R_sta(1,1)]
   1  2     9.99620167E-01   # Re[R_sta(1,2)]
   2  1    -9.99620167E-01   # Re[R_sta(2,1)]
   2  2     2.75594322E-02   # Re[R_sta(2,2)]
Block Nmix # neutralino mixing matrix
   1  1    -9.91423228E-01   # Re[N(1,1)]
   1  2     2.26971085E-02   # Re[N(1,2)]
   1  3    -1.07583272E-01   # Re[N(1,3)]
   1  4     7.06446234E-02   # Re[N(1,4)]
   2  1     1.07285039E-01   # Re[N(2,1)]
   2  2     6.90566747E-01   # Re[N(2,2)]
   2  3    -5.21601102E-01   # Re[N(2,3)]
   2  4     4.89428012E-01   # Re[N(2,4)]
   3  1     2.52168822E-02   # Re[N(3,1)]
   3  2    -3.42131438E-02   # Re[N(3,2)]
   3  3    -7.04677169E-01   # Re[N(3,3)]
   3  4    -7.08253950E-01   # Re[N(3,4)]
   4  1    -7.02425183E-02   # Re[N(4,1)]
   4  2     7.22102396E-01   # Re[N(4,2)]
   4  3     4.68815761E-01   # Re[N(4,3)]
   4  4    -5.03831223E-01   # Re[N(4,4)]
Block Umix # chargino mixing matrix
   1  1    -6.58432989E-01   # Re[U(1,1)]
   1  2     7.52639356E-01   # Re[U(1,2)]
   2  1     7.52639356E-01   # Re[U(2,1)]
   2  2     6.58432989E-01   # Re[U(2,2)]
Block Vmix # chargino mixing matrix
   1  1    -7.08184253E-01   # Re[V(1,1)]
   1  2     7.06027665E-01   # Re[V(1,2)]
   2  1     7.06027665E-01   # Re[V(2,1)]
   2  2     7.08184253E-01   # Re[V(2,2)]
DECAY   2000011     5.29025588E-11   # ~e^-_R
#    BR                NDA      ID1      ID2
     1.00000000E+00    2     1000039        11   # BR(~e^-_R -> ~G e^-)
DECAY   1000011     2.17951606E-01   # ~e^-_L
#    BR                NDA      ID1      ID2
     9.99999982E-01    2     1000022        11   # BR(~e^-_L -> chi^0_1 e^-)
     4.46606849E-09    2     2000011        23   # BR(~e^-_L -> ~e^-_R Z)
     4.84695680E-09    2     2000011        25   # BR(~e^-_L -> ~e^-_R h^0)
     8.27209757E-09    2     1000039        11   # BR(~e^-_L -> ~G e^-)
DECAY   2000013     5.28998938E-11   # ~mu^-_R
#    BR                NDA      ID1      ID2
     1.00000000E+00    2     1000039        13   # BR(~mu^-_R -> ~G mu^-)
DECAY   1000013     2.18039469E-01   # ~mu^-_L
#    BR                NDA      ID1      ID2
     9.99601992E-01    2     1000022        13   # BR(~mu^-_L -> chi^0_1 mu^-)
     1.90862060E-04    2     2000013        23   # BR(~mu^-_L -> ~mu^-_R Z)
     2.07137174E-04    2     2000013        25   # BR(~mu^-_L -> ~mu^-_R h^0)
     8.26877397E-09    2     1000039        13   # BR(~mu^-_L -> ~G mu^-)
DECAY   1000015     5.21523780E-11   # ~tau^-_1
#    BR                NDA      ID1      ID2
     1.00000000E+00    2     1000039        15   # BR(~tau^-_1 -> ~G tau^-)
DECAY   2000015     2.42830426E-01   # ~tau^-_2
#    BR                NDA      ID1      ID2
     8.98805602E-01    2     1000022        15   # BR(~tau^-_2 -> chi^0_1 tau^-)
     4.86152884E-02    2     1000015        23   # BR(~tau^-_2 -> ~tau^-_1 Z)
     5.25791025E-02    2     1000015        25   # BR(~tau^-_2 -> ~tau^-_1 h^0)
     7.42706503E-09    2     1000039        15   # BR(~tau^-_2 -> ~G tau^-)
DECAY   1000012     2.44887815E-01   # ~nu_e
#    BR                NDA      ID1      ID2
     9.99999985E-01    2     1000022        12   # BR(~nu_e -> chi^0_1 nu_e)
     7.62491745E-09    2     2000011        24   # BR(~nu_e -> ~e^-_R W^+)
     6.93842207E-09    2     1000039        12   # BR(~nu_e -> ~G nu_e)
DECAY   1000014     2.44966902E-01   # ~nu_mu
#    BR                NDA      ID1      ID2
     9.99674109E-01    2     1000022        14   # BR(~nu_mu -> chi^0_1 nu_mu)
     3.25883722E-04    2     2000013        24   # BR(~nu_mu -> ~mu^-_R W^+)
     6.93615457E-09    2     1000039        14   # BR(~nu_mu -> ~G nu_mu)
DECAY   1000016     2.67301869E-01   # ~nu_tau
#    BR                NDA      ID1      ID2
     9.15362017E-01    2     1000022        16   # BR(~nu_tau -> chi^0_1 nu_tau)
     8.46379769E-02    2     1000015        24   # BR(~nu_tau -> ~tau^-_1 W^+)
     6.34950355E-09    2     1000039        16   # BR(~nu_tau -> ~G nu_tau)
DECAY   2000001     8.68212481E-01   # ~d_R
#    BR                NDA      ID1      ID2
     9.86378360E-01    2     1000022         1   # BR(~d_R -> chi^0_1 d)
     9.58811392E-03    2     1000023         1   # BR(~d_R -> chi^0_2 d)
     4.96893288E-04    2     1000025         1   # BR(~d_R -> chi^0_3 d)
     3.53585343E-03    2     1000035         1   # BR(~d_R -> chi^0_4 d)
     1.27723024E-07    2    -1000024         2   # BR(~d_R -> chi^-_1 u)
     1.72314391E-08    2    -1000037         2   # BR(~d_R -> chi^-_2 u)
     6.34029660E-07    2     1000039         1   # BR(~d_R -> ~G d)
DECAY   1000001     1.53079503E+01   # ~d_L
#    BR                NDA      ID1      ID2
     1.85064868E-02    2     1000022         1   # BR(~d_L -> chi^0_1 d)
     1.58490684E-01    2     1000023         1   # BR(~d_L -> chi^0_2 d)
     5.06203964E-04    2     1000025         1   # BR(~d_L -> chi^0_3 d)
     1.66628864E-01    2     1000035         1   # BR(~d_L -> chi^0_4 d)
     3.06433680E-01    2    -1000024         2   # BR(~d_L -> chi^-_1 u)
     3.49434037E-01    2    -1000037         2   # BR(~d_L -> chi^-_2 u)
     4.49363758E-08    2     1000039         1   # BR(~d_L -> ~G d)
DECAY   2000003     8.68318775E-01   # ~s_R
#    BR                NDA      ID1      ID2
     9.86259803E-01    2     1000022         3   # BR(~s_R -> chi^0_1 s)
     9.61380280E-03    2     1000023         3   # BR(~s_R -> chi^0_2 s)
     5.22724542E-04    2     1000025         3   # BR(~s_R -> chi^0_3 s)
     3.53911822E-03    2     1000035         3   # BR(~s_R -> chi^0_4 s)
     5.63191278E-05    2    -1000024         4   # BR(~s_R -> chi^-_1 c)
     7.59803215E-06    2    -1000037         4   # BR(~s_R -> chi^-_2 c)
     6.33951192E-07    2     1000039         3   # BR(~s_R -> ~G s)
DECAY   1000003     1.53082929E+01   # ~s_L
#    BR                NDA      ID1      ID2
     1.85059977E-02    2     1000022         3   # BR(~s_L -> chi^0_1 s)
     1.58487187E-01    2     1000023         3   # BR(~s_L -> chi^0_2 s)
     5.07886331E-04    2     1000025         3   # BR(~s_L -> chi^0_3 s)
     1.66626056E-01    2     1000035         3   # BR(~s_L -> chi^0_4 s)
     3.06433913E-01    2    -1000024         4   # BR(~s_L -> chi^-_1 c)
     3.49438915E-01    2    -1000037         4   # BR(~s_L -> chi^-_2 c)
     4.49351966E-08    2     1000039         3   # BR(~s_L -> ~G s)
DECAY   1000005     3.15847692E+00   # ~b_1
#    BR                NDA      ID1      ID2
     2.67410333E-01    2     1000022         5   # BR(~b_1 -> chi^0_1 b)
     1.01267917E-01    2     1000023         5   # BR(~b_1 -> chi^0_2 b)
     1.27453903E-02    2     1000025         5   # BR(~b_1 -> chi^0_3 b)
     2.21450207E-02    2     1000035         5   # BR(~b_1 -> chi^0_4 b)
     3.55409699E-01    2    -1000024         6   # BR(~b_1 -> chi^-_1 t)
     2.35539537E-01    2    -1000037         6   # BR(~b_1 -> chi^-_2 t)
     5.48192998E-03    2     1000006       -24   # BR(~b_1 -> ~t_1 W^-)
     1.73426821E-07    2     1000039         5   # BR(~b_1 -> ~G b)
DECAY   2000005     2.94783382E+01   # ~b_2
#    BR                NDA      ID1      ID2
     9.65557961E-03    2     1000022         5   # BR(~b_2 -> chi^0_1 b)
     6.88515162E-02    2     1000023         5   # BR(~b_2 -> chi^0_2 b)
     2.40995067E-03    2     1000025         5   # BR(~b_2 -> chi^0_3 b)
     7.96141998E-02    2     1000035         5   # BR(~b_2 -> chi^0_4 b)
     3.78313822E-01    2    -1000024         6   # BR(~b_2 -> chi^-_1 t)
     4.49907231E-01    2    -1000037         6   # BR(~b_2 -> chi^-_2 t)
     1.12476807E-02    2     1000006       -24   # BR(~b_2 -> ~t_1 W^-)
     1.92151713E-08    2     1000039         5   # BR(~b_2 -> ~G b)
DECAY   2000002     3.48626250E+00   # ~u_R
#    BR                NDA      ID1      ID2
     9.86356933E-01    2     1000022         2   # BR(~u_R -> chi^0_1 u)
     9.60058276E-03    2     1000023         2   # BR(~u_R -> chi^0_2 u)
     4.97725733E-04    2     1000025         2   # BR(~u_R -> chi^0_3 u)
     3.54459746E-03    2     1000035         2   # BR(~u_R -> chi^0_4 u)
     5.11859794E-10    2     1000024         1   # BR(~u_R -> chi^+_1 d)
     8.48018967E-11    2     1000037         1   # BR(~u_R -> chi^+_2 d)
     1.60504139E-07    2     1000039         2   # BR(~u_R -> ~G u)
DECAY   1000002     1.53858578E+01   # ~u_L
#    BR                NDA      ID1      ID2
     1.13139407E-02    2     1000022         2   # BR(~u_L -> chi^0_1 u)
     1.77123960E-01    2     1000023         2   # BR(~u_L -> chi^0_2 u)
     2.86620311E-04    2     1000025         2   # BR(~u_L -> chi^0_3 u)
     1.53726024E-01    2     1000035         2   # BR(~u_L -> chi^0_4 u)
     3.52168145E-01    2     1000024         1   # BR(~u_L -> chi^+_1 d)
     3.05381265E-01    2     1000037         1   # BR(~u_L -> chi^+_2 d)
     4.44887446E-08    2     1000039         2   # BR(~u_L -> ~G u)
DECAY   2000004     3.48695466E+00   # ~c_R
#    BR                NDA      ID1      ID2
     9.86156308E-01    2     1000022         4   # BR(~c_R -> chi^0_1 c)
     9.64191661E-03    2     1000023         4   # BR(~c_R -> chi^0_2 c)
     5.44081206E-04    2     1000025         4   # BR(~c_R -> chi^0_3 c)
     3.55062762E-03    2     1000035         4   # BR(~c_R -> chi^0_4 c)
     9.17108415E-05    2     1000024         3   # BR(~c_R -> chi^+_1 s)
     1.51948069E-05    2     1000037         3   # BR(~c_R -> chi^+_2 s)
     1.60470610E-07    2     1000039         4   # BR(~c_R -> ~G c)
DECAY   1000004     1.53861339E+01   # ~c_L
#    BR                NDA      ID1      ID2
     1.13143003E-02    2     1000022         4   # BR(~c_L -> chi^0_1 c)
     1.77119893E-01    2     1000023         4   # BR(~c_L -> chi^0_2 c)
     2.97081658E-04    2     1000025         4   # BR(~c_L -> chi^0_3 c)
     1.53732777E-01    2     1000035         4   # BR(~c_L -> chi^0_4 c)
     3.52152722E-01    2     1000024         3   # BR(~c_L -> chi^+_1 s)
     3.05383181E-01    2     1000037         3   # BR(~c_L -> chi^+_2 s)
     4.44877315E-08    2     1000039         4   # BR(~c_L -> ~G c)
DECAY   1000006     3.24209005E+01   # ~t_1
#    BR                NDA      ID1      ID2
     1.82026121E-09    2     1000022         4   # BR(~t_1 -> chi^0_1 c)
     9.55859425E-02    2     1000022         6   # BR(~t_1 -> chi^0_1 t)
     2.69605347E-08    2     1000023         4   # BR(~t_1 -> chi^0_2 c)
     1.47873198E-01    2     1000023         6   # BR(~t_1 -> chi^0_2 t)
     2.36184344E-01    2     1000025         6   # BR(~t_1 -> chi^0_3 t)
     6.39745400E-02    2     1000035         6   # BR(~t_1 -> chi^0_4 t)
     3.21766093E-01    2     1000024         5   # BR(~t_1 -> chi^+_1 b)
     1.34606011E-01    2     1000037         5   # BR(~t_1 -> chi^+_2 b)
     1.04980935E-08    2     1000039         6   # BR(~t_1 -> ~G t)
#    BR                NDA      ID1      ID2       ID3
     9.83236567E-06    3     1000022        24         5   # BR(~t_1 -> chi^0_1 W^+ b)
DECAY   2000006     3.18247206E+01   # ~t_2
#    BR                NDA      ID1      ID2
     7.07521141E-03    2     1000022         6   # BR(~t_2 -> chi^0_1 t)
     1.60344512E-01    2     1000023         6   # BR(~t_2 -> chi^0_2 t)
     2.55743269E-01    2     1000025         6   # BR(~t_2 -> chi^0_3 t)
     2.59819590E-01    2     1000035         6   # BR(~t_2 -> chi^0_4 t)
     7.48855750E-02    2     1000024         5   # BR(~t_2 -> chi^+_1 b)
     2.30139393E-01    2     1000037         5   # BR(~t_2 -> chi^+_2 b)
     6.60867866E-03    2     1000006        23   # BR(~t_2 -> ~t_1 Z)
     5.38375384E-03    2     1000006        25   # BR(~t_2 -> ~t_1 h^0)
     1.77137340E-08    2     1000039         6   # BR(~t_2 -> ~G t)
DECAY   1000024     5.22266698E-01   # chi^+_1
#    BR                NDA      ID1      ID2
     1.41575340E-09    2    -2000011        12   # BR(chi^+_1 -> ~e^+_R nu_e)
     7.12318081E-02    2    -1000011        12   # BR(chi^+_1 -> ~e^+_L nu_e)
     6.05277669E-05    2    -2000013        14   # BR(chi^+_1 -> ~mu^+_R nu_mu)
     7.12300488E-02    2    -1000013        14   # BR(chi^+_1 -> ~mu^+_L nu_mu)
     1.71455001E-02    2    -1000015        16   # BR(chi^+_1 -> ~tau^+_1 nu_tau)
     7.07364266E-02    2    -2000015        16   # BR(chi^+_1 -> ~tau^+_2 nu_tau)
     9.95093387E-02    2     1000012       -11   # BR(chi^+_1 -> ~nu_e e^+)
     9.95145508E-02    2     1000014       -13   # BR(chi^+_1 -> ~nu_mu mu^+)
     1.00986605E-01    2     1000016       -15   # BR(chi^+_1 -> ~nu_tau tau^+)
     4.69395531E-01    2     1000022        24   # BR(chi^+_1 -> chi^0_1 W^+)
#    BR                NDA      ID1      ID2       ID3
     9.27619745E-08    3     1000022        -1         2   # BR(chi^+_1 -> chi^0_1 d_bar u)
     9.28209359E-08    3     1000022        -3         4   # BR(chi^+_1 -> chi^0_1 s_bar c)
     1.87414693E-04    3     1000022        -5         6   # BR(chi^+_1 -> chi^0_1 b_bar t)
     1.71455839E-13    3     1000022       -11        12   # BR(chi^+_1 -> chi^0_1 e^+ nu_e)
     7.32999546E-09    3     1000022       -13        14   # BR(chi^+_1 -> chi^0_1 mu^+ nu_mu)
     2.05420486E-06    3     1000022       -15        16   # BR(chi^+_1 -> chi^0_1 tau^+ nu_tau)
DECAY   1000037     3.10398146E+00   # chi^+_2
#    BR                NDA      ID1      ID2
     5.44661501E-11    2    -2000011        12   # BR(chi^+_2 -> ~e^+_R nu_e)
     1.12708553E-01    2    -1000011        12   # BR(chi^+_2 -> ~e^+_L nu_e)
     2.32860466E-06    2    -2000013        14   # BR(chi^+_2 -> ~mu^+_R nu_mu)
     1.12709613E-01    2    -1000013        14   # BR(chi^+_2 -> ~mu^+_L nu_mu)
     6.60490070E-04    2    -1000015        16   # BR(chi^+_2 -> ~tau^+_1 nu_tau)
     1.13008274E-01    2    -2000015        16   # BR(chi^+_2 -> ~tau^+_2 nu_tau)
     1.04628251E-01    2     1000012       -11   # BR(chi^+_2 -> ~nu_e e^+)
     1.04629998E-01    2     1000014       -13   # BR(chi^+_2 -> ~nu_mu mu^+)
     1.05122956E-01    2     1000016       -15   # BR(chi^+_2 -> ~nu_tau tau^+)
     4.72891752E-02    2     1000022        24   # BR(chi^+_2 -> chi^0_1 W^+)
     1.70464264E-01    2     1000023        24   # BR(chi^+_2 -> chi^0_2 W^+)
     1.27128519E-01    2     1000024        23   # BR(chi^+_2 -> chi^+_1 Z)
     9.99705496E-04    2     1000024        25   # BR(chi^+_2 -> chi^+_1 h^0)
#    BR                NDA      ID1      ID2       ID3
     1.26026657E-08    3     1000024         2        -2   # BR(chi^+_2 -> chi^+_1 u u_bar)
     1.25832164E-08    3     1000024         4        -4   # BR(chi^+_2 -> chi^+_1 c c_bar)
     1.28885349E-08    3     1000024         1        -1   # BR(chi^+_2 -> chi^+_1 d d_bar)
     1.28891417E-08    3     1000024         3        -3   # BR(chi^+_2 -> chi^+_1 s s_bar)
     2.88646456E-08    3     1000024         5        -5   # BR(chi^+_2 -> chi^+_1 b b_bar)
     1.32223195E-06    3     1000024        11       -11   # BR(chi^+_2 -> chi^+_1 e^- e^+)
     1.32227325E-06    3     1000024        13       -13   # BR(chi^+_2 -> chi^+_1 mu^- mu^+)
     1.31703336E-06    3     1000024        15       -15   # BR(chi^+_2 -> chi^+_1 tau^- tau^+)
     4.29574511E-06    3     1000024        12       -12   # BR(chi^+_2 -> chi^+_1 nu_e nu_bar_e)
     1.25835467E-07    3     1000022        -1         2   # BR(chi^+_2 -> chi^0_1 d_bar u)
     1.25840862E-07    3     1000022        -3         4   # BR(chi^+_2 -> chi^0_1 s_bar c)
     1.58903426E-04    3     1000022        -5         6   # BR(chi^+_2 -> chi^0_1 b_bar t)
     1.53597520E-14    3     1000022       -11        12   # BR(chi^+_2 -> chi^0_1 e^+ nu_e)
     6.56661435E-10    3     1000022       -13        14   # BR(chi^+_2 -> chi^0_1 mu^+ nu_mu)
     1.84778692E-07    3     1000022       -15        16   # BR(chi^+_2 -> chi^0_1 tau^+ nu_tau)
     6.15093547E-09    3     1000023        -1         2   # BR(chi^+_2 -> chi^0_2 d_bar u)
     6.14867452E-09    3     1000023        -3         4   # BR(chi^+_2 -> chi^0_2 s_bar c)
     7.37366808E-07    3     1000023       -11        12   # BR(chi^+_2 -> chi^0_2 e^+ nu_e)
     7.37370310E-07    3     1000023       -13        14   # BR(chi^+_2 -> chi^0_2 mu^+ nu_mu)
     7.29556769E-07    3     1000023       -15        16   # BR(chi^+_2 -> chi^0_2 tau^+ nu_tau)
     1.59412025E-04    3     1000025        -1         2   # BR(chi^+_2 -> chi^0_3 d_bar u)
     1.59261580E-04    3     1000025        -3         4   # BR(chi^+_2 -> chi^0_3 s_bar c)
     5.31579886E-05    3     1000025       -11        12   # BR(chi^+_2 -> chi^0_3 e^+ nu_e)
     5.31577099E-05    3     1000025       -13        14   # BR(chi^+_2 -> chi^0_3 mu^+ nu_mu)
     5.29881985E-05    3     1000025       -15        16   # BR(chi^+_2 -> chi^0_3 tau^+ nu_tau)
DECAY   1000022     8.08204393E-01   # chi^0_1
#    BR                NDA      ID1      ID2
     1.65747668E-01    2     2000011       -11   # BR(chi^0_1 -> ~e^-_R e^+)
     1.65747668E-01    2    -2000011        11   # BR(chi^0_1 -> ~e^+_R e^-)
     1.65757344E-01    2     2000013       -13   # BR(chi^0_1 -> ~mu^-_R mu^+)
     1.65757344E-01    2    -2000013        13   # BR(chi^0_1 -> ~mu^+_R mu^-)
     1.68494988E-01    2     1000015       -15   # BR(chi^0_1 -> ~tau^-_1 tau^+)
     1.68494988E-01    2    -1000015        15   # BR(chi^0_1 -> ~tau^+_1 tau^-)
     1.68002594E-10    2     1000039        22   # BR(chi^0_1 -> ~G photon)
     4.97424532E-11    2     1000039        23   # BR(chi^0_1 -> ~G Z)
     1.92643688E-12    2     1000039        25   # BR(chi^0_1 -> ~G h^0)
DECAY   1000023     6.46611632E-01   # chi^0_2
#    BR                NDA      ID1      ID2
     1.74418362E-02    2     2000011       -11   # BR(chi^0_2 -> ~e^-_R e^+)
     1.74418362E-02    2    -2000011        11   # BR(chi^0_2 -> ~e^+_R e^-)
     3.97272335E-02    2     1000011       -11   # BR(chi^0_2 -> ~e^-_L e^+)
     3.97272335E-02    2    -1000011        11   # BR(chi^0_2 -> ~e^+_L e^-)
     1.74652436E-02    2     2000013       -13   # BR(chi^0_2 -> ~mu^-_R mu^+)
     1.74652436E-02    2    -2000013        13   # BR(chi^0_2 -> ~mu^+_R mu^-)
     3.97279433E-02    2     1000013       -13   # BR(chi^0_2 -> ~mu^-_L mu^+)
     3.97279433E-02    2    -1000013        13   # BR(chi^0_2 -> ~mu^+_L mu^-)
     2.40774704E-02    2     1000015       -15   # BR(chi^0_2 -> ~tau^-_1 tau^+)
     2.40774704E-02    2    -1000015        15   # BR(chi^0_2 -> ~tau^+_1 tau^-)
     3.99277313E-02    2     2000015       -15   # BR(chi^0_2 -> ~tau^-_2 tau^+)
     3.99277313E-02    2    -2000015        15   # BR(chi^0_2 -> ~tau^+_2 tau^-)
     3.34681943E-02    2     1000012       -12   # BR(chi^0_2 -> ~nu_e nu_bar_e)
     3.34681943E-02    2    -1000012        12   # BR(chi^0_2 -> ~nu^*_e nu_e)
     3.34685795E-02    2     1000014       -14   # BR(chi^0_2 -> ~nu_mu nu_bar_mu)
     3.34685795E-02    2    -1000014        14   # BR(chi^0_2 -> ~nu^*_mu nu_mu)
     3.35772163E-02    2     1000016       -16   # BR(chi^0_2 -> ~nu_tau nu_bar_tau)
     3.35772163E-02    2    -1000016        16   # BR(chi^0_2 -> ~nu^*_tau nu_tau)
     1.58534084E-02    2     1000022        23   # BR(chi^0_2 -> chi^0_1 Z)
     4.26361259E-01    2     1000022        25   # BR(chi^0_2 -> chi^0_1 h^0)
     9.10457790E-10    2     1000039        22   # BR(chi^0_2 -> ~G photon)
     3.16694738E-10    2     1000039        23   # BR(chi^0_2 -> ~G Z)
     1.66744704E-09    2     1000039        25   # BR(chi^0_2 -> ~G h^0)
     1.04433190E-06    2     1000022        22   # BR(chi^0_2 -> chi^0_1 photon)
#    BR                NDA      ID1      ID2       ID3
     4.32846517E-08    3     1000022         2        -2   # BR(chi^0_2 -> chi^0_1 u u_bar)
     4.32996888E-08    3     1000022         4        -4   # BR(chi^0_2 -> chi^0_1 c c_bar)
     4.77721357E-08    3     1000022         1        -1   # BR(chi^0_2 -> chi^0_1 d d_bar)
     4.78043567E-08    3     1000022         3        -3   # BR(chi^0_2 -> chi^0_1 s s_bar)
     1.27947079E-07    3     1000022         5        -5   # BR(chi^0_2 -> chi^0_1 b b_bar)
     6.55639785E-06    3     1000022        11       -11   # BR(chi^0_2 -> chi^0_1 e^- e^+)
     6.56187208E-06    3     1000022        13       -13   # BR(chi^0_2 -> chi^0_1 mu^- mu^+)
     7.95955688E-06    3     1000022        15       -15   # BR(chi^0_2 -> chi^0_1 tau^- tau^+)
     3.36360078E-11    3     1000024         1        -2   # BR(chi^0_2 -> chi^+_1 d u_bar)
     3.36360078E-11    3    -1000024        -1         2   # BR(chi^0_2 -> chi^-_1 d_bar u)
     2.84709058E-12    3     1000024         3        -4   # BR(chi^0_2 -> chi^+_1 s c_bar)
     2.84709058E-12    3    -1000024        -3         4   # BR(chi^0_2 -> chi^-_1 s_bar c)
     1.05111550E-11    3     1000024        11       -12   # BR(chi^0_2 -> chi^+_1 e^- nu_bar_e)
     1.05111550E-11    3    -1000024       -11        12   # BR(chi^0_2 -> chi^-_1 e^+ nu_e)
     1.03514413E-11    3     1000024        13       -14   # BR(chi^0_2 -> chi^+_1 mu^- nu_bar_mu)
     1.03514413E-11    3    -1000024       -13        14   # BR(chi^0_2 -> chi^-_1 mu^+ nu_mu)
DECAY   1000025     4.97150544E-01   # chi^0_3
#    BR                NDA      ID1      ID2
     1.50646581E-03    2     2000011       -11   # BR(chi^0_3 -> ~e^-_R e^+)
     1.50646581E-03    2    -2000011        11   # BR(chi^0_3 -> ~e^+_R e^-)
     1.19539607E-04    2     1000011       -11   # BR(chi^0_3 -> ~e^-_L e^+)
     1.19539607E-04    2    -1000011        11   # BR(chi^0_3 -> ~e^+_L e^-)
     1.54467569E-03    2     2000013       -13   # BR(chi^0_3 -> ~mu^-_R mu^+)
     1.54467569E-03    2    -2000013        13   # BR(chi^0_3 -> ~mu^+_R mu^-)
     1.26304725E-04    2     1000013       -13   # BR(chi^0_3 -> ~mu^-_L mu^+)
     1.26304725E-04    2    -1000013        13   # BR(chi^0_3 -> ~mu^+_L mu^-)
     1.23352454E-02    2     1000015       -15   # BR(chi^0_3 -> ~tau^-_1 tau^+)
     1.23352454E-02    2    -1000015        15   # BR(chi^0_3 -> ~tau^+_1 tau^-)
     2.03353058E-03    2     2000015       -15   # BR(chi^0_3 -> ~tau^-_2 tau^+)
     2.03353058E-03    2    -2000015        15   # BR(chi^0_3 -> ~tau^+_2 tau^-)
     7.78420464E-04    2     1000012       -12   # BR(chi^0_3 -> ~nu_e nu_bar_e)
     7.78420464E-04    2    -1000012        12   # BR(chi^0_3 -> ~nu^*_e nu_e)
     7.78424919E-04    2     1000014       -14   # BR(chi^0_3 -> ~nu_mu nu_bar_mu)
     7.78424919E-04    2    -1000014        14   # BR(chi^0_3 -> ~nu^*_mu nu_mu)
     7.79680781E-04    2     1000016       -16   # BR(chi^0_3 -> ~nu_tau nu_bar_tau)
     7.79680781E-04    2    -1000016        16   # BR(chi^0_3 -> ~nu^*_tau nu_tau)
     9.18499709E-01    2     1000022        23   # BR(chi^0_3 -> chi^0_1 Z)
     3.74270048E-02    2     1000022        25   # BR(chi^0_3 -> chi^0_1 h^0)
     2.59222511E-13    2     1000039        22   # BR(chi^0_3 -> ~G photon)
     5.71789182E-10    2     1000039        23   # BR(chi^0_3 -> ~G Z)
     3.03651767E-09    2     1000039        25   # BR(chi^0_3 -> ~G h^0)
     1.15232854E-06    2     1000022        22   # BR(chi^0_3 -> chi^0_1 photon)
     2.67898862E-08    2     1000023        22   # BR(chi^0_3 -> chi^0_2 photon)
#    BR                NDA      ID1      ID2       ID3
     8.41309254E-10    3     1000022         2        -2   # BR(chi^0_3 -> chi^0_1 u u_bar)
     9.80299126E-10    3     1000022         4        -4   # BR(chi^0_3 -> chi^0_1 c c_bar)
     2.58188129E-10    3     1000022         1        -1   # BR(chi^0_3 -> chi^0_1 d d_bar)
     3.93049998E-10    3     1000022         3        -3   # BR(chi^0_3 -> chi^0_1 s s_bar)
     3.01528684E-07    3     1000022         5        -5   # BR(chi^0_3 -> chi^0_1 b b_bar)
     3.63472108E-07    3     1000022        11       -11   # BR(chi^0_3 -> chi^0_1 e^- e^+)
     3.78144592E-07    3     1000022        13       -13   # BR(chi^0_3 -> chi^0_1 mu^- mu^+)
     4.50294774E-06    3     1000022        15       -15   # BR(chi^0_3 -> chi^0_1 tau^- tau^+)
     1.08407854E-04    3     1000023         2        -2   # BR(chi^0_3 -> chi^0_2 u u_bar)
     1.08156211E-04    3     1000023         4        -4   # BR(chi^0_3 -> chi^0_2 c c_bar)
     1.40552483E-04    3     1000023         1        -1   # BR(chi^0_3 -> chi^0_2 d d_bar)
     1.40549691E-04    3     1000023         3        -3   # BR(chi^0_3 -> chi^0_2 s s_bar)
     1.35747744E-04    3     1000023         5        -5   # BR(chi^0_3 -> chi^0_2 b b_bar)
     3.22917652E-05    3     1000023        11       -11   # BR(chi^0_3 -> chi^0_2 e^- e^+)
     3.22909482E-05    3     1000023        13       -13   # BR(chi^0_3 -> chi^0_2 mu^- mu^+)
     3.20589962E-05    3     1000023        15       -15   # BR(chi^0_3 -> chi^0_2 tau^- tau^+)
     1.92383330E-04    3     1000023        12       -12   # BR(chi^0_3 -> chi^0_2 nu_e nu_bar_e)
     5.24038327E-04    3     1000024         1        -2   # BR(chi^0_3 -> chi^+_1 d u_bar)
     5.24038327E-04    3    -1000024        -1         2   # BR(chi^0_3 -> chi^-_1 d_bar u)
     5.23275080E-04    3     1000024         3        -4   # BR(chi^0_3 -> chi^+_1 s c_bar)
     5.23275080E-04    3    -1000024        -3         4   # BR(chi^0_3 -> chi^-_1 s_bar c)
     1.74375578E-04    3     1000024        11       -12   # BR(chi^0_3 -> chi^+_1 e^- nu_bar_e)
     1.74375578E-04    3    -1000024       -11        12   # BR(chi^0_3 -> chi^-_1 e^+ nu_e)
     1.74374828E-04    3     1000024        13       -14   # BR(chi^0_3 -> chi^+_1 mu^- nu_bar_mu)
     1.74374828E-04    3    -1000024       -13        14   # BR(chi^0_3 -> chi^-_1 mu^+ nu_mu)
     1.73706066E-04    3     1000024        15       -16   # BR(chi^0_3 -> chi^+_1 tau^- nu_bar_tau)
     1.73706066E-04    3    -1000024       -15        16   # BR(chi^0_3 -> chi^-_1 tau^+ nu_tau)
DECAY   1000035     3.27185789E+00   # chi^0_4
#    BR                NDA      ID1      ID2
     2.11706025E-03    2     2000011       -11   # BR(chi^0_4 -> ~e^-_R e^+)
     2.11706025E-03    2    -2000011        11   # BR(chi^0_4 -> ~e^+_R e^-)
     4.42393870E-02    2     1000011       -11   # BR(chi^0_4 -> ~e^-_L e^+)
     4.42393870E-02    2    -1000011        11   # BR(chi^0_4 -> ~e^+_L e^-)
     2.11804199E-03    2     2000013       -13   # BR(chi^0_4 -> ~mu^-_R mu^+)
     2.11804199E-03    2    -2000013        13   # BR(chi^0_4 -> ~mu^+_R mu^-)
     4.42405764E-02    2     1000013       -13   # BR(chi^0_4 -> ~mu^-_L mu^+)
     4.42405764E-02    2    -1000013        13   # BR(chi^0_4 -> ~mu^+_L mu^-)
     2.39653517E-03    2     1000015       -15   # BR(chi^0_4 -> ~tau^-_1 tau^+)
     2.39653517E-03    2    -1000015        15   # BR(chi^0_4 -> ~tau^+_1 tau^-)
     4.45753493E-02    2     2000015       -15   # BR(chi^0_4 -> ~tau^-_2 tau^+)
     4.45753493E-02    2    -2000015        15   # BR(chi^0_4 -> ~tau^+_2 tau^-)
     5.82130882E-02    2     1000012       -12   # BR(chi^0_4 -> ~nu_e nu_bar_e)
     5.82130882E-02    2    -1000012        12   # BR(chi^0_4 -> ~nu^*_e nu_e)
     5.82132897E-02    2     1000014       -14   # BR(chi^0_4 -> ~nu_mu nu_bar_mu)
     5.82132897E-02    2    -1000014        14   # BR(chi^0_4 -> ~nu^*_mu nu_mu)
     5.82700886E-02    2     1000016       -16   # BR(chi^0_4 -> ~nu_tau nu_bar_tau)
     5.82700886E-02    2    -1000016        16   # BR(chi^0_4 -> ~nu^*_tau nu_tau)
     1.56235648E-01    2     1000024       -24   # BR(chi^0_4 -> chi^+_1 W^-)
     1.56235648E-01    2    -1000024        24   # BR(chi^0_4 -> chi^-_1 W^+)
     3.93852497E-03    2     1000022        23   # BR(chi^0_4 -> chi^0_1 Z)
     7.65150879E-06    2     1000023        23   # BR(chi^0_4 -> chi^0_2 Z)
     5.30612225E-02    2     1000022        25   # BR(chi^0_4 -> chi^0_1 h^0)
     1.39933732E-03    2     1000023        25   # BR(chi^0_4 -> chi^0_2 h^0)
     2.30245200E-10    2     1000039        22   # BR(chi^0_4 -> ~G photon)
     2.40415056E-09    2     1000039        23   # BR(chi^0_4 -> ~G Z)
     9.20321961E-10    2     1000039        25   # BR(chi^0_4 -> ~G h^0)
     2.75801703E-07    2     1000022        22   # BR(chi^0_4 -> chi^0_1 photon)
     1.49216633E-06    2     1000023        22   # BR(chi^0_4 -> chi^0_2 photon)
     6.97269980E-07    2     1000025        22   # BR(chi^0_4 -> chi^0_3 photon)
#    BR                NDA      ID1      ID2       ID3
     4.94918455E-08    3     1000022         2        -2   # BR(chi^0_4 -> chi^0_1 u u_bar)
     4.94810934E-08    3     1000022         4        -4   # BR(chi^0_4 -> chi^0_1 c c_bar)
     8.64547026E-07    3     1000022         6        -6   # BR(chi^0_4 -> chi^0_1 t t_bar)
     7.60460401E-08    3     1000022         1        -1   # BR(chi^0_4 -> chi^0_1 d d_bar)
     7.60565786E-08    3     1000022         3        -3   # BR(chi^0_4 -> chi^0_1 s s_bar)
     1.12224706E-07    3     1000022         5        -5   # BR(chi^0_4 -> chi^0_1 b b_bar)
     1.84621883E-06    3     1000022        11       -11   # BR(chi^0_4 -> chi^0_1 e^- e^+)
     1.84666260E-06    3     1000022        13       -13   # BR(chi^0_4 -> chi^0_1 mu^- mu^+)
     1.95654928E-06    3     1000022        15       -15   # BR(chi^0_4 -> chi^0_1 tau^- tau^+)
     8.96741267E-09    3     1000023         2        -2   # BR(chi^0_4 -> chi^0_2 u u_bar)
     8.95377699E-09    3     1000023         4        -4   # BR(chi^0_4 -> chi^0_2 c c_bar)
     8.54096000E-09    3     1000023         1        -1   # BR(chi^0_4 -> chi^0_2 d d_bar)
     8.54101691E-09    3     1000023         3        -3   # BR(chi^0_4 -> chi^0_2 s s_bar)
     9.91094538E-09    3     1000023         5        -5   # BR(chi^0_4 -> chi^0_2 b b_bar)
     9.96480324E-07    3     1000023        11       -11   # BR(chi^0_4 -> chi^0_2 e^- e^+)
     9.96507286E-07    3     1000023        13       -13   # BR(chi^0_4 -> chi^0_2 mu^- mu^+)
     9.90461758E-07    3     1000023        15       -15   # BR(chi^0_4 -> chi^0_2 tau^- tau^+)
     2.37900000E-06    3     1000023        12       -12   # BR(chi^0_4 -> chi^0_2 nu_e nu_bar_e)
     3.93582242E-05    3     1000025         2        -2   # BR(chi^0_4 -> chi^0_3 u u_bar)
     3.93001062E-05    3     1000025         4        -4   # BR(chi^0_4 -> chi^0_3 c c_bar)
     5.10631713E-05    3     1000025         1        -1   # BR(chi^0_4 -> chi^0_3 d d_bar)
     5.10628973E-05    3     1000025         3        -3   # BR(chi^0_4 -> chi^0_3 s s_bar)
     4.99133720E-05    3     1000025         5        -5   # BR(chi^0_4 -> chi^0_3 b b_bar)
     1.16883042E-05    3     1000025        11       -11   # BR(chi^0_4 -> chi^0_3 e^- e^+)
     1.16881288E-05    3     1000025        13       -13   # BR(chi^0_4 -> chi^0_3 mu^- mu^+)
     1.16151660E-05    3     1000025        15       -15   # BR(chi^0_4 -> chi^0_3 tau^- tau^+)
     7.03704163E-05    3     1000025        12       -12   # BR(chi^0_4 -> chi^0_3 nu_e nu_bar_e)
     6.20890564E-09    3     1000024         1        -2   # BR(chi^0_4 -> chi^+_1 d u_bar)
     6.20890564E-09    3    -1000024        -1         2   # BR(chi^0_4 -> chi^-_1 d_bar u)
     6.20701709E-09    3     1000024         3        -4   # BR(chi^0_4 -> chi^+_1 s c_bar)
     6.20701709E-09    3    -1000024        -3         4   # BR(chi^0_4 -> chi^-_1 s_bar c)
     7.17310801E-07    3     1000024        11       -12   # BR(chi^0_4 -> chi^+_1 e^- nu_bar_e)
     7.17310801E-07    3    -1000024       -11        12   # BR(chi^0_4 -> chi^-_1 e^+ nu_e)
     7.17312092E-07    3     1000024        13       -14   # BR(chi^0_4 -> chi^+_1 mu^- nu_bar_mu)
     7.17312092E-07    3    -1000024       -13        14   # BR(chi^0_4 -> chi^-_1 mu^+ nu_mu)
     7.13213741E-07    3     1000024        15       -16   # BR(chi^0_4 -> chi^+_1 tau^- nu_bar_tau)
     7.13213741E-07    3    -1000024       -15        16   # BR(chi^0_4 -> chi^-_1 tau^+ nu_tau)
     1.71886205E-13    3     1000037         1        -2   # BR(chi^0_4 -> chi^+_2 d u_bar)
     1.71886205E-13    3    -1000037        -1         2   # BR(chi^0_4 -> chi^-_2 d_bar u)
     5.61129285E-14    3     1000037        11       -12   # BR(chi^0_4 -> chi^+_2 e^- nu_bar_e)
     5.61129285E-14    3    -1000037       -11        12   # BR(chi^0_4 -> chi^-_2 e^+ nu_e)
     5.24605752E-14    3     1000037        13       -14   # BR(chi^0_4 -> chi^+_2 mu^- nu_bar_mu)
     5.24605752E-14    3    -1000037       -13        14   # BR(chi^0_4 -> chi^-_2 mu^+ nu_mu)
DECAY   1000021     6.26340487E+00   # ~g
#    BR                NDA      ID1      ID2
     5.27611311E-02    2     2000002        -2   # BR(~g -> ~u_R u_bar)
     5.27611311E-02    2    -2000002         2   # BR(~g -> ~u^*_R u)
     1.08860604E-02    2     1000002        -2   # BR(~g -> ~u_L u_bar)
     1.08860604E-02    2    -1000002         2   # BR(~g -> ~u^*_L u)
     5.27580005E-02    2     2000004        -4   # BR(~g -> ~c_R c_bar)
     5.27580005E-02    2    -2000004         4   # BR(~g -> ~c^*_R c)
     1.08846176E-02    2     1000004        -4   # BR(~g -> ~c_L c_bar)
     1.08846176E-02    2    -1000004         4   # BR(~g -> ~c^*_L c)
     8.79572873E-08    2     1000006        -4   # BR(~g -> ~t_1 c_bar)
     8.79572873E-08    2    -1000006         4   # BR(~g -> ~t^*_1 c)
     1.18806070E-01    2     1000006        -6   # BR(~g -> ~t_1 t_bar)
     1.18806070E-01    2    -1000006         6   # BR(~g -> ~t^*_1 t)
     5.73341711E-02    2     2000001        -1   # BR(~g -> ~d_R d_bar)
     5.73341711E-02    2    -2000001         1   # BR(~g -> ~d^*_R d)
     1.02289012E-02    2     1000001        -1   # BR(~g -> ~d_L d_bar)
     1.02289012E-02    2    -1000001         1   # BR(~g -> ~d^*_L d)
     5.73344517E-02    2     2000003        -3   # BR(~g -> ~s_R s_bar)
     5.73344517E-02    2    -2000003         3   # BR(~g -> ~s^*_R s)
     1.02294190E-02    2     1000003        -3   # BR(~g -> ~s_L s_bar)
     1.02294190E-02    2    -1000003         3   # BR(~g -> ~s^*_L s)
     5.76818999E-02    2     1000005        -5   # BR(~g -> ~b_1 b_bar)
     5.76818999E-02    2    -1000005         5   # BR(~g -> ~b^*_1 b)
     5.03588738E-02    2     2000005        -5   # BR(~g -> ~b_2 b_bar)
     5.03588738E-02    2    -2000005         5   # BR(~g -> ~b^*_2 b)
     3.65190946E-06    2     1000022        21   # BR(~g -> chi^0_1 g)
     1.50962440E-04    2     1000023        21   # BR(~g -> chi^0_2 g)
     2.27315190E-04    2     1000025        21   # BR(~g -> chi^0_3 g)
     9.35828445E-05    2     1000035        21   # BR(~g -> chi^0_4 g)
#    BR                NDA      ID1      ID2       ID3
     1.80034172E-04    3     1000022         6        -6   # BR(~g -> chi^0_1 t t_bar)
     3.00216049E-03    3     1000023         6        -6   # BR(~g -> chi^0_2 t t_bar)
     5.06647652E-03    3     1000025         6        -6   # BR(~g -> chi^0_3 t t_bar)
     6.57972262E-03    3     1000035         6        -6   # BR(~g -> chi^0_4 t t_bar)
     8.19418879E-04    3     1000024         5        -6   # BR(~g -> chi^+_1 b t_bar)
     8.19418879E-04    3    -1000024        -5         6   # BR(~g -> chi^-_1 b_bar t)
     2.26494438E-03    3     1000037         5        -6   # BR(~g -> chi^+_2 b t_bar)
     2.26494438E-03    3    -1000037        -5         6   # BR(~g -> chi^-_2 b_bar t)
DECAY        25     2.51608015E-03   # h^0
#    BR                NDA      ID1      ID2
     8.57506442E-09    2          11       -11   # BR(h^0 -> e^- e^+)
     3.66606015E-04    2          13       -13   # BR(h^0 -> mu^- mu^+)
     1.03521383E-01    2          15       -15   # BR(h^0 -> tau^- tau^+)
     7.76612219E-07    2           1        -1   # BR(h^0 -> d d_bar)
     3.42485648E-04    2           3        -3   # BR(h^0 -> s s_bar)
     7.34230251E-01    2           5        -5   # BR(h^0 -> b b_bar)
     2.49364727E-07    2           2        -2   # BR(h^0 -> u u_bar)
     4.46786504E-02    2           4        -4   # BR(h^0 -> c c_bar)
     6.07946236E-02    2          21        21   # BR(h^0 -> g g)
     2.63519896E-03    2          22        22   # BR(h^0 -> photon photon)
# writing decays into V V* as 3-body decays
#    BR                NDA      ID1      ID2       ID3
     2.52399080E-03    3          24        11        12   # BR(h^0 -> W^+ e^- nu_e)
     2.52399080E-03    3          24        13        14   # BR(h^0 -> W^+ mu^- nu_mu)
     2.52399080E-03    3          24        15        16   # BR(h^0 -> W^+ tau^- nu_tau)
     8.83396780E-03    3          24         1        -2   # BR(h^0 -> W^+ d u_bar)
     8.83396780E-03    3          24         3        -4   # BR(h^0 -> W^+ s c_bar)
     2.52399080E-03    3         -24       -11       -12   # BR(h^0 -> W^- e^+ nu_bar_e)
     2.52399080E-03    3         -24       -13       -14   # BR(h^0 -> W^- mu^+ nu_bar_mu)
     2.52399080E-03    3         -24       -15       -16   # BR(h^0 -> W^- tau^+ nu_bar_tau)
     8.83396780E-03    3         -24        -1         2   # BR(h^0 -> W^- d_bar u)
     8.83396780E-03    3         -24        -3         4   # BR(h^0 -> W^- s_bar c)
     1.03248281E-04    3          23        11       -11   # BR(h^0 -> Z e^- e^+)
     1.03248281E-04    3          23        13       -13   # BR(h^0 -> Z mu^- mu^+)
     8.84985264E-05    3          23        15       -15   # BR(h^0 -> Z tau^- tau^+)
     5.89990176E-04    3          23        12       -12   # BR(h^0 -> Z nu_e nu_bar_e)
     4.12993123E-04    3          23         1        -1   # BR(h^0 -> Z u u_bar)
     4.12993123E-04    3          23         3        -3   # BR(h^0 -> Z c c_bar)
     4.12993123E-04    3          23         5        -5   # BR(h^0 -> Z t t_bar)
     4.12993123E-04    3          23         2        -2   # BR(h^0 -> Z u u_bar)
     4.12993123E-04    3          23         4        -4   # BR(h^0 -> Z c c_bar)
DECAY        35     1.91091968E+00   # H^0
#    BR                NDA      ID1      ID2
     1.70824638E-09    2          11       -11   # BR(H^0 -> e^- e^+)
     7.30323691E-05    2          13       -13   # BR(H^0 -> mu^- mu^+)
     2.06587077E-02    2          15       -15   # BR(H^0 -> tau^- tau^+)
     1.29979811E-07    2           1        -1   # BR(H^0 -> d d_bar)
     5.73210662E-05    2           3        -3   # BR(H^0 -> s s_bar)
     1.26627660E-01    2           5        -5   # BR(H^0 -> b b_bar)
     9.72991518E-11    2           2        -2   # BR(H^0 -> u u_bar)
     1.74371219E-05    2           4        -4   # BR(H^0 -> c c_bar)
     8.08752112E-01    2           6        -6   # BR(H^0 -> t t_bar)
     4.42158604E-04    2     2000011  -2000011   # BR(H^0 -> ~e^-_R ~e^+_R)
     2.44273710E-12    2     2000011  -1000011   # BR(H^0 -> ~e^-_R ~e^+_L)
     2.44273710E-12    2    -2000011   1000011   # BR(H^0 -> ~e^+_R ~e^-_L)
     4.42037262E-04    2     2000013  -2000013   # BR(H^0 -> ~mu^-_R ~mu^+_R)
     1.04434904E-07    2     2000013  -1000013   # BR(H^0 -> ~mu^-_R ~mu^+_L)
     1.04434904E-07    2    -2000013   1000013   # BR(H^0 -> ~mu^+_R ~mu^-_L)
     4.08500307E-04    2     1000015  -1000015   # BR(H^0 -> ~tau^-_1 ~tau^+_1)
     2.96190065E-05    2     1000015  -2000015   # BR(H^0 -> ~tau^-_1 ~tau^+_2)
     2.96190065E-05    2    -1000015   2000015   # BR(H^0 -> ~tau^+_1 ~tau^-_2)
     2.26302227E-03    2     1000022   1000022   # BR(H^0 -> chi^0_1 chi^0_1)
     1.03939829E-02    2          23        23   # BR(H^0 -> Z Z)
     2.00631175E-02    2          24       -24   # BR(H^0 -> W^+ W^-)
     8.93097719E-03    2          25        25   # BR(H^0 -> h^0 h^0)
     8.04486233E-04    2          21        21   # BR(H^0 -> g g)
     5.86869662E-06    2          22        22   # BR(H^0 -> photon photon)
DECAY        36     1.89011493E+00   # A^0
#    BR                NDA      ID1      ID2
     1.73558993E-09    2          11       -11   # BR(A^0 -> e^- e^+)
     7.42013883E-05    2          13       -13   # BR(A^0 -> mu^- mu^+)
     2.09897738E-02    2          15       -15   # BR(A^0 -> tau^- tau^+)
     1.32058677E-07    2           1        -1   # BR(A^0 -> d d_bar)
     5.82378433E-05    2           3        -3   # BR(A^0 -> s s_bar)
     1.28654944E-01    2           5        -5   # BR(A^0 -> b b_bar)
     8.51130061E-11    2           2        -2   # BR(A^0 -> u u_bar)
     1.52532183E-05    2           4        -4   # BR(A^0 -> c c_bar)
     8.19600894E-01    2           6        -6   # BR(A^0 -> t t_bar)
     1.88180562E-12    2     2000011  -1000011   # BR(A^0 -> ~e^-_R ~e^+_L)
     1.88180562E-12    2    -2000011   1000011   # BR(A^0 -> ~e^+_R ~e^-_L)
     8.04541839E-08    2     2000013  -1000013   # BR(A^0 -> ~mu^-_R ~mu^+_L)
     8.04541839E-08    2    -2000013   1000013   # BR(A^0 -> ~mu^+_R ~mu^-_L)
     2.28906693E-05    2     1000015  -2000015   # BR(A^0 -> ~tau^-_1 ~tau^+_2)
     2.28906693E-05    2    -1000015   2000015   # BR(A^0 -> ~tau^+_1 ~tau^-_2)
     1.06598355E-02    2     1000022   1000022   # BR(A^0 -> chi^0_1 chi^0_1)
     1.96211455E-02    2          25        23   # BR(A^0 -> h^0 Z)
     2.77595778E-04    2          21        21   # BR(A^0 -> g g)
     2.04310936E-06    2          22        22   # BR(A^0 -> photon photon)
DECAY        37     1.58208225E+00   # H^+
#    BR                NDA      ID1      ID2
     2.08430508E-09    2         -11        12   # BR(H^+ -> e^+ nu_e)
     8.91099492E-05    2         -13        12   # BR(H^+ -> mu^+ nu_e)
     2.52070466E-02    2         -15        12   # BR(H^+ -> tau^+ nu_e)
     1.39626011E-07    2          -1         2   # BR(H^+ -> d_bar u)
     7.76518467E-05    2          -3         4   # BR(H^+ -> s_bar c)
     9.51154506E-01    2          -5         6   # BR(H^+ -> b_bar t)
     3.74050528E-12    2    -2000011   1000012   # BR(H^+ -> ~e^+_R ~nu_e)
     1.59921417E-07    2    -2000013   1000014   # BR(H^+ -> ~mu^+_R ~nu_mu)
     4.55736405E-05    2    -1000015   1000016   # BR(H^+ -> ~tau^+_1 ~nu_tau)
     2.34258099E-02    2          25        24   # BR(H^+ -> h^0 W^+)
DECAY         6     2.43000000E+00   # top
#    BR                NDA      ID1      ID2
     1.00000000E+00    2           5        24   # BR(t -> b W)
Block HiggsBoundsInputHiggsCouplingsFermions
# ScalarNormEffCoupSq PseudoSNormEffCoupSq NP IP1 IP2 IP2
    1.15429169E+00    0.00000000E+00        3  25   5   5  # h0-b-b eff. coupling^2, normalised to SM
    2.48457083E+01    0.00000000E+00        3  35   5   5  # H0-b-b eff. coupling^2, normalised to SM
    0.00000000E+00    2.50000000E+01        3  36   5   5  # A0-b-b eff. coupling^2, normalised to SM
#
    9.93828332E-01    0.00000000E+00        3  25   6   6  # h0-t-t eff. coupling^2, normalised to SM
    4.61716678E-02    0.00000000E+00        3  35   6   6  # H0-t-t eff. coupling^2, normalised to SM
    0.00000000E+00    4.00000000E-02        3  36   6   6  # A0-t-t eff. coupling^2, normalised to SM
#
    1.15429169E+00    0.00000000E+00        3  25  15  15  # h0-tau-tau eff. coupling^2, normalised to SM
    2.48457083E+01    0.00000000E+00        3  35  15  15  # H0-tau-tau eff. coupling^2, normalised to SM
    0.00000000E+00    2.50000000E+01        3  36  15  15  # A0-tau-tau eff. coupling^2, normalised to SM
#
Block HiggsBoundsInputHiggsCouplingsBosons
    9.99778046E-01        3  25  24  24  # h0-W-W eff. coupling^2, normalised to SM
    2.21954349E-04        3  35  24  24  # H0-W-W eff. coupling^2, normalised to SM
    0.00000000E+00        3  36  24  24  # A0-W-W eff. coupling^2, normalised to SM
#
    9.99778046E-01        3  25  23  23  # h0-Z-Z eff. coupling^2, normalised to SM
    2.21954349E-04        3  35  23  23  # H0-Z-Z eff. coupling^2, normalised to SM
    0.00000000E+00        3  36  23  23  # A0-Z-Z eff. coupling^2, normalised to SM
#
    1.16073228E+00        3  25  21  21  # h0-g-g eff. coupling^2, normalised to SM
    4.38409122E-02        3  35  21  21  # H0-g-g eff. coupling^2, normalised to SM
    2.09995751E-01        3  36  21  21  # A0-g-g eff. coupling^2, normalised to SM
#
    0.00000000E+00        3  25  25  23  # h0-h0-Z eff. coupling^2, normalised to SM
    0.00000000E+00        3  35  25  23  # H0-h0-Z eff. coupling^2, normalised to SM
    2.21954349E-04        3  36  25  23  # A0-h0-Z eff. coupling^2, normalised to SM
    0.00000000E+00        3  35  35  23  # H0-H0-Z eff. coupling^2, normalised to SM
    9.99778046E-01        3  36  35  23  # A0-H0-Z eff. coupling^2, normalised to SM
    0.00000000E+00        3  36  36  23  # A0-A0-Z eff. coupling^2, normalised to SM
#
    0.00000000E+00        4  25  21  21  23  # h0-g-g-Z eff. coupling^2, normalised to SM
    0.00000000E+00        4  35  21  21  23  # H0-g-g-Z eff. coupling^2, normalised to SM
    0.00000000E+00        4  36  21  21  23  # A0-g-g-Z eff. coupling^2, normalised to SM
Block SPhenoLowEnergy  # low energy observables
    1    3.26288192E-04   # BR(b -> s gamma)
    2    1.59176442E-06   # BR(b -> s mu+ mu-)
    3    3.54359945E-05   # BR(b -> s nu nu)
    4    5.18795776E-11   # BR(Bd -> mu+ mu-)
    5    3.38901776E-09   # BR(Bs -> mu+ mu-)
    6    1.10438693E-04   # BR(B_u -> tau nu)
    7    9.98601805E-01   # BR(B_u -> tau nu)/BR(B_u -> tau nu)_SM
    8    2.72919222E-01   # |Delta(M_Bd)| [ps^-1] 
    9    2.02557351E+01   # |Delta(M_Bs)| [ps^-1] 
   20    7.88007609E-15   # Delta(g-2)_electron/2
   21    1.62359786E-10   # Delta(g-2)_muon/2
   22    6.84584472E-09   # Delta(g-2)_tau/2
   23    0.00000000E+00   # electric dipole moment of the electron
   24    0.00000000E+00   # electric dipole moment of the muon
   25    0.00000000E+00   # electric dipole moment of the tau
   26    0.00000000E+00   # Br(mu -> e gamma)
   27    0.00000000E+00   # Br(tau -> e gamma)
   28    0.00000000E+00   # Br(tau -> mu gamma)
   29    0.00000000E+00   # Br(mu -> 3 e)
   30    0.00000000E+00   # Br(tau -> 3 e)
   31    0.00000000E+00   # Br(tau -> 3 mu)
   39    5.37448951E-04   # Delta(rho_parameter)
   40    0.00000000E+00   # BR(Z -> e mu)
   41    0.00000000E+00   # BR(Z -> e tau)
   42    0.00000000E+00   # BR(Z -> mu tau)
Block FWCOEF Q=  9.11876000E+01  # Wilson coefficients at scale Q
#    id        order  M        value         comment
Block FWCOEF Q=  1.60000000E+02  # Wilson coefficients at scale Q
#    id        order  M        value         comment
     0305 4422   00   0    -1.87753491E-01   # C7
     0305 4422   00   1    -2.76896024E-02   # C7
     0305 4322   00   1    -6.07348014E-04   # C7'
     0305 6421   00   0    -9.48881302E-02   # C8
     0305 6421   00   1    -3.46167952E-02   # C8
     0305 6321   00   1    -7.49998785E-04   # C8'
 03051111 4133   00   0    -8.33248110E-01   # C9 e+e-
 03051111 4133   00   1     1.64766320E-03   # C9 e+e-
 03051111 4233   00   1    -1.38302110E-06   # C9' e+e-
 03051111 4137   00   0    -3.96990436E+00   # C10 e+e-
 03051111 4137   00   1    -1.41020072E-03   # C10 e+e-
 03051111 4237   00   1     3.07170976E-05   # C10' e+e-
 03051313 4133   00   0    -8.33248110E-01   # C9 mu+mu-
 03051313 4133   00   1     1.64765657E-03   # C9 mu+mu-
 03051313 4233   00   1    -1.38302742E-06   # C9' mu+mu-
 03051313 4137   00   0    -3.96990436E+00   # C10 mu+mu-
 03051313 4137   00   1    -1.41020736E-03   # C10 mu+mu-
 03051313 4237   00   1     3.07171040E-05   # C10' mu+mu-
 03051212 4237   00   0     1.49009075E+00   # C11 nu_1 nu_1
 03051212 4237   00   1     3.31402350E-04   # C11 nu_1 nu_1
 03051212 4137   00   1    -7.34067104E-06   # C11' nu_1 nu_1
 03051414 4237   00   0     1.49009075E+00   # C11 nu_2 nu_2
 03051414 4237   00   1     3.31402359E-04   # C11 nu_2 nu_2
 03051414 4137   00   1    -7.34066955E-06   # C11' nu_2 nu_2
 03051616 4237   00   0     1.49009075E+00   # C11 nu_3 nu_3
 03051616 4237   00   1     3.31404951E-04   # C11 nu_3 nu_3
 03051616 4137   00   1    -7.34025102E-06   # C11' nu_3 nu_3
