#
#                              ======================
#                              | THE SUSYHIT OUTPUT |
#                              ======================
#
#
#              ------------------------------------------------------
#              |     This is the output of the SUSY-HIT package     |
#              |  created by A.Djouadi, M.Muehlleitner and M.Spira. |
#              |  In case of problems with SUSY-HIT email to        |
#              |           margarete.muehlleitner@cern.ch           |
#              |           michael.spira@psi.ch                     |
#              |           abdelhak.djouadi@cern.ch                 |
#              ------------------------------------------------------
#
#              ------------------------------------------------------
#              |  SUSY Les Houches Accord - MSSM Spectrum + Decays  |
#              |              based on the decay programs           |
#              |                                                    |
#              |                     SDECAY 1.3b                    |
#              |                                                    |
#              |  Authors: M.Muhlleitner, A.Djouadi and Y.Mambrini  |
#              |  Ref.:    Comput.Phys.Commun.168(2005)46           |
#              |           [hep-ph/0311167]                         |
#              |                                                    |
#              |                     HDECAY 3.4                     |
#              |                                                    |
#              |  By: A.Djouadi,J.Kalinowski,M.Muhlleitner,M.Spira  |
#              |  Ref.:    Comput.Phys.Commun.108(1998)56           |
#              |           [hep-ph/9704448]                         |
#              |                                                    |
#              |                                                    |
#              |  If not stated otherwise all DRbar couplings and   |
#              |  soft SUSY breaking masses are given at the scale  |
#              |  Q=  0.91187600E+02
#              |                                                    |
#              ------------------------------------------------------
#
#
BLOCK DCINFO  # Decay Program information
     1   SDECAY/HDECAY # decay calculator
     2   1.3b  /3.4    # version number
#
BLOCK SPINFO  # Spectrum calculator information
     1   SuSpect     # RGE +Spectrum calculator            
     2   2.41         # version number                     
#
BLOCK MODSEL  # Model selection
     1     0   # #general MSSM low scale                           
#
BLOCK SMINPUTS  # Standard Model inputs
         1     1.27934000E+02   # alpha_em^-1(M_Z)^MSbar
         2     1.16639000E-05   # G_F [GeV^-2]
         3     1.17200000E-01   # alpha_S(M_Z)^MSbar
         4     9.11870000E+01   # M_Z pole mass
         5     4.25000000E+00   # mb(mb)^MSbar
         6     1.72500000E+02   # mt pole mass
         7     1.77700000E+00   # mtau pole mass
#
BLOCK MINPAR  # Input parameters - minimal models
#
BLOCK EXTPAR  # Input parameters - non-minimal models
         0     9.11876000E+01   # EWSB                
         1     6.00000000E+02   # M_1                 
         2     1.00000000E+05   # M_2                 
         3     1.00000000E+05   # M_3                 
        11     0.00000000E+00   # A_t                 
        12     0.00000000E+00   # A_b                 
        13     0.00000000E+00   # A_tau               
        14     0.00000000E+00   # A_u                 
        15     0.00000000E+00   # A_d                 
        16     0.00000000E+00   # A_e                 
        23     3.50000000E+03   # mu(EWSB)            
        25     1.50000000E+00   # tanbeta(in)         
        26     2.00000000E+03   # MA_pole             
        31     1.00000000E+05   # M_eL                
        32     1.00000000E+05   # M_muL               
        33     1.00000000E+05   # M_tauL              
        34     1.00000000E+05   # M_eR                
        35     1.00000000E+05   # M_muR               
        36     1.00000000E+05   # M_tauR              
        41     8.00000000E+02   # M_q1L               
        42     8.00000000E+02   # M_q2L               
        43     8.00000000E+02   # M_q3L               
        44     1.00000000E+05   # M_uR                
        45     1.00000000E+05   # M_cR                
        46     1.00000000E+05   # M_tR                
        47     8.00000000E+02   # M_dR                
        48     8.00000000E+02   # M_sR                
        49     8.00000000E+02   # M_bR                
#
BLOCK MASS  # Mass Spectrum
# PDG code           mass       particle
        24     8.05803643E+01   # W+
        25     1.25000000E+02   # h
        35     2.00386958E+03   # H
        36     2.00000000E+03   # A
        37     2.02370801E+03   # H+
         5     4.87877839E+00   # b-quark pole mass calculated from mb(mb)_Msbar
   1000001     8.00833668E+02   # ~d_L
   2000001     8.00159965E+02   # ~d_R
   1000002     7.99325594E+02   # ~u_L
   2000002     9.99999974E+04   # ~u_R
   1000003     8.00833668E+02   # ~s_L
   2000003     8.00159965E+02   # ~s_R
   1000004     7.99325594E+02   # ~c_L
   2000004     9.99999974E+04   # ~c_R
   1000005     7.91995461E+02   # ~b_1
   2000005     8.08917187E+02   # ~b_2
   1000006     8.12793563E+02   # ~t_1
   2000006     1.00000106E+05   # ~t_2
   1000011     1.00000004E+05   # ~e_L
   2000011     1.00000004E+05   # ~e_R
   1000012     9.99999920E+04   # ~nu_eL
   1000013     1.00000004E+05   # ~mu_L
   2000013     1.00000004E+05   # ~mu_R
   1000014     9.99999920E+04   # ~nu_muL
   1000015     9.99999574E+04   # ~tau_1
   2000015     1.00000051E+05   # ~tau_2
   1000016     9.99999920E+04   # ~nu_tauL
   1000021     1.00000000E+05   # ~g
   1000022     5.99356875E+02   # ~chi_10
   1000023    -3.50002106E+03   # ~chi_20
   1000025     3.50059934E+03   # ~chi_30
   1000035     1.00000065E+05   # ~chi_40
   1000024     3.49993981E+03   # ~chi_1+
   1000037     1.00000065E+05   # ~chi_2+
   1000039     1.00000000E-09   # ~gravitino
#
BLOCK NMIX  # Neutralino Mixing Matrix
  1  1     9.99883645E-01   # N_11
  1  2    -1.14681576E-05   # N_12
  1  3     1.21914811E-02   # N_13
  1  4    -9.16865864E-03   # N_14
  2  1     2.13747243E-03   # N_21
  2  2    -1.50101201E-04   # N_22
  2  3    -7.07094520E-01   # N_23
  2  4    -7.07115796E-01   # N_24
  3  1     1.51039009E-02   # N_31
  3  2     8.04804234E-04   # N_32
  3  3    -7.07013786E-01   # N_33
  3  4     7.07037998E-01   # N_34
  4  1     3.68023838E-07   # N_41
  4  2    -9.99999665E-01   # N_42
  4  3    -4.63011921E-04   # N_43
  4  4     6.75271478E-04   # N_44
#
BLOCK UMIX  # Chargino Mixing Matrix U
  1  1    -6.54797531E-04   # U_11
  1  2     9.99999786E-01   # U_12
  2  1     9.99999786E-01   # U_21
  2  2     6.54797531E-04   # U_22
#
BLOCK VMIX  # Chargino Mixing Matrix V
  1  1    -9.54977995E-04   # V_11
  1  2     9.99999544E-01   # V_12
  2  1     9.99999544E-01   # V_21
  2  2     9.54977995E-04   # V_22
#
BLOCK STOPMIX  # Stop Mixing Matrix
  1  1     9.99999999E-01   # cos(theta_t)
  1  2     4.47213589E-05   # sin(theta_t)
  2  1    -4.47213589E-05   # -sin(theta_t)
  2  2     9.99999999E-01   # cos(theta_t)
#
BLOCK SBOTMIX  # Sbottom Mixing Matrix
  1  1     6.92887100E-01   # cos(theta_b)
  1  2     7.21046092E-01   # sin(theta_b)
  2  1    -7.21046092E-01   # -sin(theta_b)
  2  2     6.92887100E-01   # cos(theta_b)
#
BLOCK STAUMIX  # Stau Mixing Matrix
  1  1     7.06067058E-01   # cos(theta_tau)
  1  2     7.08144978E-01   # sin(theta_tau)
  2  1    -7.08144978E-01   # -sin(theta_tau)
  2  2     7.06067058E-01   # cos(theta_tau)
#
BLOCK ALPHA  # Higgs mixing
          -5.90187534E-01   # Mixing angle in the neutral Higgs boson sector
#
BLOCK HMIX Q=  9.11876000E+01  # DRbar Higgs Parameters
         1     3.50000000E+03   # mu(Q)               
         2     1.49999982E+00   # tanbeta(Q)          
         3     2.54853505E+02   # vev(Q)              
         4    -6.85969038E+07   # MA^2(Q)             
#
BLOCK GAUGE Q=  9.11876000E+01  # The gauge couplings
     1     3.50655945E-01   # gprime(Q) DRbar
     2     6.21611732E-01   # g(Q) DRbar
     3     1.03156192E+00   # g3(Q) DRbar
#
BLOCK AU Q=  9.11876000E+01  # The trilinear couplings
  1  1     0.00000000E+00   # A_u(Q) DRbar
  2  2     0.00000000E+00   # A_c(Q) DRbar
  3  3     0.00000000E+00   # A_t(Q) DRbar
#
BLOCK AD Q=  9.11876000E+01  # The trilinear couplings
  1  1     0.00000000E+00   # A_d(Q) DRbar
  2  2     0.00000000E+00   # A_s(Q) DRbar
  3  3     0.00000000E+00   # A_b(Q) DRbar
#
BLOCK AE Q=  9.11876000E+01  # The trilinear couplings
  1  1     0.00000000E+00   # A_e(Q) DRbar
  2  2     0.00000000E+00   # A_mu(Q) DRbar
  3  3     0.00000000E+00   # A_tau(Q) DRbar
#
BLOCK Yu Q=  9.11876000E+01  # The Yukawa couplings
  1  1     0.00000000E+00   # y_u(Q) DRbar
  2  2     0.00000000E+00   # y_c(Q) DRbar
  3  3     9.82975741E-01   # y_t(Q) DRbar
#
BLOCK Yd Q=  9.11876000E+01  # The Yukawa couplings
  1  1     0.00000000E+00   # y_d(Q) DRbar
  2  2     0.00000000E+00   # y_s(Q) DRbar
  3  3     2.57896038E-02   # y_b(Q) DRbar
#
BLOCK Ye Q=  9.11876000E+01  # The Yukawa couplings
  1  1     0.00000000E+00   # y_e(Q) DRbar
  2  2     0.00000000E+00   # y_mu(Q) DRbar
  3  3     1.77395290E-02   # y_tau(Q) DRbar
#
BLOCK MSOFT Q=  9.11876000E+01  # The soft SUSY breaking masses at the scale Q
         1     6.00000000E+02   # M_1                 
         2     1.00000000E+05   # M_2                 
         3     1.00000000E+05   # M_3                 
        14     0.00000000E+00   # A_u                 
        15     0.00000000E+00   # A_d                 
        16     0.00000000E+00   # A_e                 
        21     6.36534381E+08   # M^2_Hd              
        22    -1.14045048E+09   # M^2_Hu              
        31     1.00000000E+05   # M_eL                
        32     1.00000000E+05   # M_muL               
        33     1.00000000E+05   # M_tauL              
        34     1.00000000E+05   # M_eR                
        35     1.00000000E+05   # M_muR               
        36     1.00000000E+05   # M_tauR              
        41     8.00000000E+02   # M_q1L               
        42     8.00000000E+02   # M_q2L               
        43     8.00000000E+02   # M_q3L               
        44     1.00000000E+05   # M_uR                
        45     1.00000000E+05   # M_cR                
        46     1.00000000E+05   # M_tR                
        47     8.00000000E+02   # M_dR                
        48     8.00000000E+02   # M_sR                
        49     8.00000000E+02   # M_bR                
#
#
#
#                             =================
#                             |The decay table|
#                             =================
#
# - The QCD corrections to the decays gluino -> squark  + quark
#                                     squark -> gaugino + quark_prime
#                                     squark -> squark_prime + Higgs
#                                     squark -> gluino  + quark
#   are included.
#
# - The multi-body decays for the inos, stops and sbottoms are included.
#
# - The loop induced decays for the gluino, neutralinos and stops
#   are included.
#
# - The SUSY decays of the top quark are included.
#
# - Possible decays of the NLSP in GMSB models are included.
#
#
#         PDG            Width
DECAY         6     1.33375986E+00   # top decays
#          BR         NDA      ID1       ID2
     1.00000000E+00    2           5        24   # BR(t ->  b    W+)
#
#         PDG            Width
DECAY   1000021     1.E-04   # gluino decays (OJ Mods)
#          BR         NDA      ID1       ID2
    -1.58949304E-04    2     1000001        -1   # BR(~g -> ~d_L  db)
    -1.58949304E-04    2    -1000001         1   # BR(~g -> ~d_L* d )
    -1.58949338E-04    2     2000001        -1   # BR(~g -> ~d_R  db)
    -1.58949338E-04    2    -2000001         1   # BR(~g -> ~d_R* d )
    -1.58949380E-04    2     1000002        -2   # BR(~g -> ~u_L  ub)
    -1.58949380E-04    2    -1000002         2   # BR(~g -> ~u_L* u )
    -4.29854042E-19    2     2000002        -2   # BR(~g -> ~u_R  ub)
    -4.29854042E-19    2    -2000002         2   # BR(~g -> ~u_R* u )
    -1.58949304E-04    2     1000003        -3   # BR(~g -> ~s_L  sb)
    -1.58949304E-04    2    -1000003         3   # BR(~g -> ~s_L* s )
    -1.58949338E-04    2     2000003        -3   # BR(~g -> ~s_R  sb)
    -1.58949338E-04    2    -2000003         3   # BR(~g -> ~s_R* s )
    -1.58949380E-04    2     1000004        -4   # BR(~g -> ~c_L  cb)
    -1.58949380E-04    2    -1000004         4   # BR(~g -> ~c_L* c )
    -4.29854042E-19    2     2000004        -4   # BR(~g -> ~c_R  cb)
    -4.29854042E-19    2    -2000004         4   # BR(~g -> ~c_R* c )
     2.51342910E-01    2     1000005        -5   # BR(~g -> ~b_1  bb)
     2.51342910E-01    2    -1000005         5   # BR(~g -> ~b_1* b )
     2.51982849E-01    2     2000005        -5   # BR(~g -> ~b_2  bb)
     2.51982849E-01    2    -2000005         5   # BR(~g -> ~b_2* b )
    -1.56398333E-04    2     1000006        -6   # BR(~g -> ~t_1  tb)
    -1.56398333E-04    2    -1000006         6   # BR(~g -> ~t_1* t )
    -4.43132930E-03    2     1000039        21   # BR(~g -> ~G g)
#
#         PDG            Width
DECAY   1000006     1.74064842E-02   # stop1 decays
#          BR         NDA      ID1       ID2
     1.00000000E+00    2     1000022         6   # BR(~t_1 -> ~chi_10 t )
#
#         PDG            Width
DECAY   2000006    -1.21822427E+06   # stop2 decays
#          BR         NDA      ID1       ID2
    -1.71061484E-04    2     1000022         6   # BR(~t_2 -> ~chi_10 t )
    -4.04601110E-04    2     1000023         6   # BR(~t_2 -> ~chi_20 t )
    -4.04543349E-04    2     1000025         6   # BR(~t_2 -> ~chi_30 t )
     1.00096545E+00    2     1000024         5   # BR(~t_2 -> ~chi_1+ b )
     1.13087793E-05    2     1000006        25   # BR(~t_2 -> ~t_1    h )
    -1.18288016E-05    2     1000006        35   # BR(~t_2 -> ~t_1    H )
    -1.18090603E-05    2     1000006        36   # BR(~t_2 -> ~t_1    A )
    -1.11186025E-05    2     1000005        37   # BR(~t_2 -> ~b_1    H+)
    -1.24996402E-05    2     2000005        37   # BR(~t_2 -> ~b_2    H+)
     8.17007304E-06    2     1000006        23   # BR(~t_2 -> ~t_1    Z )
     2.04226244E-05    2     1000005        24   # BR(~t_2 -> ~b_1    W+)
     2.21154685E-05    2     2000005        24   # BR(~t_2 -> ~b_2    W+)
#
#         PDG            Width
DECAY   1000005    -3.00270986E+01   # sbottom1 decays
#          BR         NDA      ID1       ID2
     1.00000000E+00    2     1000022         5   # BR(~b_1 -> ~chi_10 b )
#
#         PDG            Width
DECAY   2000005    -3.34848826E+01   # sbottom2 decays
#          BR         NDA      ID1       ID2
     1.00000000E+00    2     1000022         5   # BR(~b_2 -> ~chi_10 b )
#
#         PDG            Width
DECAY   1000002     2.82431053E-02   # sup_L decays
#          BR         NDA      ID1       ID2
     1.00000000E+00    2     1000022         2   # BR(~u_L -> ~chi_10 u)
#
#         PDG            Width
DECAY   2000002     2.08357979E+02   # sup_R decays
#          BR         NDA      ID1       ID2
     9.99767564E-01    2     1000022         2   # BR(~u_R -> ~chi_10 u)
     4.56366708E-06    2     1000023         2   # BR(~u_R -> ~chi_20 u)
     2.27871991E-04    2     1000025         2   # BR(~u_R -> ~chi_30 u)
#
#         PDG            Width
DECAY   1000001     2.85558270E-02   # sdown_L decays
#          BR         NDA      ID1       ID2
     1.00000000E+00    2     1000022         1   # BR(~d_L -> ~chi_10 d)
#
#         PDG            Width
DECAY   2000001     1.13662651E-01   # sdown_R decays
#          BR         NDA      ID1       ID2
     1.00000000E+00    2     1000022         1   # BR(~d_R -> ~chi_10 d)
#
#         PDG            Width
DECAY   1000004     2.82431053E-02   # scharm_L decays
#          BR         NDA      ID1       ID2
     1.00000000E+00    2     1000022         4   # BR(~c_L -> ~chi_10 c)
#
#         PDG            Width
DECAY   2000004     2.08357979E+02   # scharm_R decays
#          BR         NDA      ID1       ID2
     9.99767564E-01    2     1000022         4   # BR(~c_R -> ~chi_10 c)
     4.56366708E-06    2     1000023         4   # BR(~c_R -> ~chi_20 c)
     2.27871991E-04    2     1000025         4   # BR(~c_R -> ~chi_30 c)
#
#         PDG            Width
DECAY   1000003     2.85558270E-02   # sstrange_L decays
#          BR         NDA      ID1       ID2
     1.00000000E+00    2     1000022         3   # BR(~s_L -> ~chi_10 s)
#
#         PDG            Width
DECAY   2000003     1.13662651E-01   # sstrange_R decays
#          BR         NDA      ID1       ID2
     1.00000000E+00    2     1000022         3   # BR(~s_R -> ~chi_10 s)
#
#         PDG            Width
DECAY   1000011     1.22302051E+02   # selectron_L decays
#          BR         NDA      ID1       ID2
     9.99721209E-01    2     1000022        11   # BR(~e_L -> ~chi_10 e-)
     3.49374389E-06    2     1000023        11   # BR(~e_L -> ~chi_20 e-)
     2.72609082E-04    2     1000025        11   # BR(~e_L -> ~chi_30 e-)
     2.68834039E-06    2    -1000024        12   # BR(~e_L -> ~chi_1- nu_e)
#
#         PDG            Width
DECAY   2000011     4.89205271E+02   # selectron_R decays
#          BR         NDA      ID1       ID2
     9.99767857E-01    2     1000022        11   # BR(~e_R -> ~chi_10 e-)
     4.55793156E-06    2     1000023        11   # BR(~e_R -> ~chi_20 e-)
     2.27585537E-04    2     1000025        11   # BR(~e_R -> ~chi_30 e-)
#
#         PDG            Width
DECAY   1000013     1.22302051E+02   # smuon_L decays
#          BR         NDA      ID1       ID2
     9.99721209E-01    2     1000022        13   # BR(~mu_L -> ~chi_10 mu-)
     3.49374389E-06    2     1000023        13   # BR(~mu_L -> ~chi_20 mu-)
     2.72609082E-04    2     1000025        13   # BR(~mu_L -> ~chi_30 mu-)
     2.68834039E-06    2    -1000024        14   # BR(~mu_L -> ~chi_1- nu_mu)
#
#         PDG            Width
DECAY   2000013     4.89205271E+02   # smuon_R decays
#          BR         NDA      ID1       ID2
     9.99767857E-01    2     1000022        13   # BR(~mu_R -> ~chi_10 mu-)
     4.55793156E-06    2     1000023        13   # BR(~mu_R -> ~chi_20 mu-)
     2.27585537E-04    2     1000025        13   # BR(~mu_R -> ~chi_30 mu-)
#
#         PDG            Width
DECAY   1000015     1.18201720E+04   # stau_1 decays
#          BR         NDA      ID1       ID2
     2.59154837E-02    2     1000022        15   # BR(~tau_1 -> ~chi_10  tau-)
     2.52743684E-05    2     1000023        15   # BR(~tau_1 -> ~chi_20  tau-)
     2.53991196E-05    2     1000025        15   # BR(~tau_1 -> ~chi_30  tau-)
     2.77215236E-05    2    -1000024        16   # BR(~tau_1 -> ~chi_1-  nu_tau)
     9.74006121E-01    2     1000039        15   # BR(~tau_1 -> ~G       tau-)
#
#         PDG            Width
DECAY   2000015     3.06128779E+02   # stau_2 decays
#          BR         NDA      ID1       ID2
     9.96425008E-01    2     1000022        15   # BR(~tau_2 -> ~chi_10  tau-)
     1.07279274E-03    2     1000023        15   # BR(~tau_2 -> ~chi_20  tau-)
     1.53143065E-03    2     1000025        15   # BR(~tau_2 -> ~chi_30  tau-)
     9.70768386E-04    2    -1000024        16   # BR(~tau_2 -> ~chi_1-  nu_tau)
#
#         PDG            Width
DECAY   1000012     1.22302112E+02   # snu_eL decays
#          BR         NDA      ID1       ID2
     9.99801898E-01    2     1000022        12   # BR(~nu_eL -> ~chi_10 nu_e)
     5.76332728E-06    2     1000023        12   # BR(~nu_eL -> ~chi_20 nu_e)
     1.86620309E-04    2     1000025        12   # BR(~nu_eL -> ~chi_30 nu_e)
     5.71816457E-06    2     1000024        11   # BR(~nu_eL -> ~chi_1+ e-)
#
#         PDG            Width
DECAY   1000014     1.22302112E+02   # snu_muL decays
#          BR         NDA      ID1       ID2
     9.99801898E-01    2     1000022        14   # BR(~nu_muL -> ~chi_10 nu_mu)
     5.76332728E-06    2     1000023        14   # BR(~nu_muL -> ~chi_20 nu_mu)
     1.86620309E-04    2     1000025        14   # BR(~nu_muL -> ~chi_30 nu_mu)
     5.71816457E-06    2     1000024        13   # BR(~nu_muL -> ~chi_1+ mu-)
#
#         PDG            Width
DECAY   1000016     1.22926636E+02   # snu_tauL decays
#          BR         NDA      ID1       ID2
     9.94722440E-01    2     1000022        16   # BR(~nu_tauL -> ~chi_10 nu_tau)
     5.73404690E-06    2     1000023        16   # BR(~nu_tauL -> ~chi_20 nu_tau)
     1.85672191E-04    2     1000025        16   # BR(~nu_tauL -> ~chi_30 nu_tau)
     5.08615362E-03    2     1000024        15   # BR(~nu_tauL -> ~chi_1+ tau-)
#
#         PDG            Width
DECAY   1000024     3.88675025E+01   # chargino1+ decays
#          BR         NDA      ID1       ID2
     9.90735936E-07    2     1000002        -1   # BR(~chi_1+ -> ~u_L     db)
     4.65604724E-07    2    -1000001         2   # BR(~chi_1+ -> ~d_L*    u )
     9.90735936E-07    2     1000004        -3   # BR(~chi_1+ -> ~c_L     sb)
     4.65604724E-07    2    -1000003         4   # BR(~chi_1+ -> ~s_L*    c )
    -9.59092368E-01    2     1000006        -5   # BR(~chi_1+ -> ~t_1     bb)
     1.23602215E-01    2    -1000005         6   # BR(~chi_1+ -> ~b_1*    t )
     1.75342425E+00    2    -2000005         6   # BR(~chi_1+ -> ~b_2*    t )
     6.94401620E-02    2     1000022        24   # BR(~chi_1+ -> ~chi_10  W+)
     1.26135434E-02    2     1000022        37   # BR(~chi_1+ -> ~chi_10  H+)
     7.76209336E-06    2     1000039        24   # BR(~chi_1+ -> ~G       W+)
     1.52723515E-06    2     1000039        37   # BR(~chi_1+ -> ~G       H+)
#
#         PDG            Width
DECAY   1000037    -7.25221400E+05   # chargino2+ decays
#          BR         NDA      ID1       ID2
    -1.54815086E-03    2     1000002        -1   # BR(~chi_2+ -> ~u_L     db)
    -1.54815166E-03    2    -1000001         2   # BR(~chi_2+ -> ~d_L*    u )
    -1.54815086E-03    2     1000004        -3   # BR(~chi_2+ -> ~c_L     sb)
    -1.54815166E-03    2    -1000003         4   # BR(~chi_2+ -> ~s_L*    c )
     1.02626886E+00    2     1000006        -5   # BR(~chi_2+ -> ~t_1     bb)
    -3.26944772E-04    2    -1000005         6   # BR(~chi_2+ -> ~b_1*    t )
    -1.48569350E-03    2    -2000005         6   # BR(~chi_2+ -> ~b_2*    t )
    -1.14794858E-15    2     1000012       -11   # BR(~chi_2+ -> ~nu_eL   e+  )
    -1.14794858E-15    2     1000014       -13   # BR(~chi_2+ -> ~nu_muL  mu+ )
    -8.01561124E-16    2    -1000011        12   # BR(~chi_2+ -> ~e_L+    nu_e)
    -8.01561124E-16    2    -1000013        14   # BR(~chi_2+ -> ~mu_L+   nu_mu)
    -1.24330287E-15    2    -1000015        16   # BR(~chi_2+ -> ~tau_1+  nu_tau)
    -2.11735556E-17    2    -2000015        16   # BR(~chi_2+ -> ~tau_2+  nu_tau)
    -2.85120136E-04    2     1000024        23   # BR(~chi_2+ -> ~chi_1+  Z )
    -5.12146878E-08    2     1000022        24   # BR(~chi_2+ -> ~chi_10  W+)
    -2.76981605E-04    2     1000023        24   # BR(~chi_2+ -> ~chi_20  W+)
    -2.76927388E-04    2     1000025        24   # BR(~chi_2+ -> ~chi_30  W+)
    -2.86676865E-04    2     1000024        25   # BR(~chi_2+ -> ~chi_1+  h )
    -2.51651274E-04    2     1000024        35   # BR(~chi_2+ -> ~chi_1+  H )
    -2.51682968E-04    2     1000024        36   # BR(~chi_2+ -> ~chi_1+  A )
    -6.51848089E-08    2     1000022        37   # BR(~chi_2+ -> ~chi_10  H+)
    -2.51673899E-04    2     1000023        37   # BR(~chi_2+ -> ~chi_20  H+)
    -2.51617576E-04    2     1000025        37   # BR(~chi_2+ -> ~chi_30  H+)
    -1.61311662E-02    2     1000039        24   # BR(~chi_2+ -> ~G       W+)
    -4.64980973E-09    2     1000039        37   # BR(~chi_2+ -> ~G       H+)
#
#         PDG            Width
DECAY   1000022     1.E-08   # neutralino1 decays (OJ Mods)
#          BR         NDA      ID1       ID2
     7.75252777E-01    2     1000039        22   # BR(~chi_10 -> ~G        gam)
     2.24746927E-01    2     1000039        23   # BR(~chi_10 -> ~G        Z)
     2.96776633E-07    2     1000039        25   # BR(~chi_10 -> ~G        h)
#
#         PDG            Width
DECAY   1000023     1.E-08   # neutralino2 decays (OJ Mods)
#          BR         NDA      ID1       ID2
    -2.96311574E+00    2     1000022        23   # BR(~chi_20 -> ~chi_10   Z )
    -5.82464275E-02    2     1000022        25   # BR(~chi_20 -> ~chi_10   h )
    -4.92560412E-01    2     1000022        35   # BR(~chi_20 -> ~chi_10   H )
    -5.74168731E-02    2     1000022        36   # BR(~chi_20 -> ~chi_10   A )
    -1.66251468E-06    2     1000002        -2   # BR(~chi_20 -> ~u_L      ub)
    -1.66251468E-06    2    -1000002         2   # BR(~chi_20 -> ~u_L*     u )
    -7.98618753E-06    2     1000001        -1   # BR(~chi_20 -> ~d_L      db)
    -7.98618753E-06    2    -1000001         1   # BR(~chi_20 -> ~d_L*     d )
    -1.69370938E-05    2     2000001        -1   # BR(~chi_20 -> ~d_R      db)
    -1.69370938E-05    2    -2000001         1   # BR(~chi_20 -> ~d_R*     d )
    -1.66251468E-06    2     1000004        -4   # BR(~chi_20 -> ~c_L      cb)
    -1.66251468E-06    2    -1000004         4   # BR(~chi_20 -> ~c_L*     c )
    -7.98618753E-06    2     1000003        -3   # BR(~chi_20 -> ~s_L      sb)
    -7.98618753E-06    2    -1000003         3   # BR(~chi_20 -> ~s_L*     s )
    -1.69370938E-05    2     2000003        -3   # BR(~chi_20 -> ~s_R      sb)
    -1.69370938E-05    2    -2000003         3   # BR(~chi_20 -> ~s_R*     s )
    -3.96303992E+01    2     1000006        -6   # BR(~chi_20 -> ~t_1      tb)
    -3.96303992E+01    2    -1000006         6   # BR(~chi_20 -> ~t_1*     t )
     2.02899789E+01    2     1000005        -5   # BR(~chi_20 -> ~b_1      bb)
     2.02899789E+01    2    -1000005         5   # BR(~chi_20 -> ~b_1*     b )
     2.16263342E+01    2     2000005        -5   # BR(~chi_20 -> ~b_2      bb)
     2.16263342E+01    2    -2000005         5   # BR(~chi_20 -> ~b_2*     b )
    -2.10318675E-09    2     1000039        22   # BR(~chi_20 -> ~G        gam)
    -1.26207062E-05    2     1000039        23   # BR(~chi_20 -> ~G        Z)
    -3.14970185E-04    2     1000039        25   # BR(~chi_20 -> ~G        h)
    -2.52681467E-06    2     1000039        35   # BR(~chi_20 -> ~G        H)
    -6.50707188E-05    2     1000039        36   # BR(~chi_20 -> ~G        A)
#
#         PDG            Width
DECAY   1000025    -1.58307957E+00   # neutralino3 decays
#          BR         NDA      ID1       ID2
    -3.45144003E-02    2     1000022        23   # BR(~chi_30 -> ~chi_10   Z )
    -1.72784382E+00    2     1000022        25   # BR(~chi_30 -> ~chi_10   h )
    -3.24973253E-02    2     1000022        35   # BR(~chi_30 -> ~chi_10   H )
    -2.87533797E-01    2     1000022        36   # BR(~chi_30 -> ~chi_10   A )
    -2.02299536E-04    2     1000002        -2   # BR(~chi_30 -> ~u_L      ub)
    -2.02299536E-04    2    -1000002         2   # BR(~chi_30 -> ~u_L*     u )
    -6.30543127E-05    2     1000001        -1   # BR(~chi_30 -> ~d_L      db)
    -6.30543127E-05    2    -1000001         1   # BR(~chi_30 -> ~d_L*     d )
    -4.91202665E-04    2     2000001        -1   # BR(~chi_30 -> ~d_R      db)
    -4.91202665E-04    2    -2000001         1   # BR(~chi_30 -> ~d_R*     d )
    -2.02299536E-04    2     1000004        -4   # BR(~chi_30 -> ~c_L      cb)
    -2.02299536E-04    2    -1000004         4   # BR(~chi_30 -> ~c_L*     c )
    -6.30543127E-05    2     1000003        -3   # BR(~chi_30 -> ~s_L      sb)
    -6.30543127E-05    2    -1000003         3   # BR(~chi_30 -> ~s_L*     s )
    -4.91202665E-04    2     2000003        -3   # BR(~chi_30 -> ~s_R      sb)
    -4.91202665E-04    2    -2000003         3   # BR(~chi_30 -> ~s_R*     s )
    -2.30189001E+01    2     1000006        -6   # BR(~chi_30 -> ~t_1      tb)
    -2.30189001E+01    2    -1000006         6   # BR(~chi_30 -> ~t_1*     t )
     1.01345803E+01    2     1000005        -5   # BR(~chi_30 -> ~b_1      bb)
     1.01345803E+01    2    -1000005         5   # BR(~chi_30 -> ~b_1*     b )
     1.44269551E+01    2     2000005        -5   # BR(~chi_30 -> ~b_2      bb)
     1.44269551E+01    2    -2000005         5   # BR(~chi_30 -> ~b_2*     b )
    -7.02118063E-08    2     1000039        22   # BR(~chi_30 -> ~G        gam)
    -1.83314718E-04    2     1000039        23   # BR(~chi_30 -> ~G        Z)
    -7.15662300E-06    2     1000039        25   # BR(~chi_30 -> ~G        h)
    -3.75840170E-05    2     1000039        35   # BR(~chi_30 -> ~G        H)
    -1.51313577E-06    2     1000039        36   # BR(~chi_30 -> ~G        A)
#
#         PDG            Width
DECAY   1000035    -7.25224611E+05   # neutralino4 decays
#          BR         NDA      ID1       ID2
    -1.27495000E-10    2     1000022        23   # BR(~chi_40 -> ~chi_10   Z )
    -2.75538295E-04    2     1000023        23   # BR(~chi_40 -> ~chi_20   Z )
    -9.58065574E-06    2     1000025        23   # BR(~chi_40 -> ~chi_30   Z )
    -2.76978608E-04    2     1000024       -24   # BR(~chi_40 -> ~chi_1+   W-)
    -2.76978608E-04    2    -1000024        24   # BR(~chi_40 -> ~chi_1-   W+)
    -5.29570293E-08    2     1000022        25   # BR(~chi_40 -> ~chi_10   h )
    -6.86590999E-09    2     1000022        35   # BR(~chi_40 -> ~chi_10   H )
    -5.82362037E-08    2     1000022        36   # BR(~chi_40 -> ~chi_10   A )
    -9.42429959E-06    2     1000023        25   # BR(~chi_40 -> ~chi_20   h )
    -2.40815909E-04    2     1000023        35   # BR(~chi_40 -> ~chi_20   H )
    -1.10703539E-05    2     1000023        36   # BR(~chi_40 -> ~chi_20   A )
    -2.77198611E-04    2     1000025        25   # BR(~chi_40 -> ~chi_30   h )
    -1.08270534E-05    2     1000025        35   # BR(~chi_40 -> ~chi_30   H )
    -2.40553241E-04    2     1000025        36   # BR(~chi_40 -> ~chi_30   A )
    -2.51677356E-04    2     1000024       -37   # BR(~chi_40 -> ~chi_1+   H-)
    -2.51677356E-04    2    -1000024        37   # BR(~chi_40 -> ~chi_1-   H+)
    -7.40441499E-04    2     1000002        -2   # BR(~chi_40 -> ~u_L      ub)
    -7.40441499E-04    2    -1000002         2   # BR(~chi_40 -> ~u_L*     u )
    -1.20302742E-23    2     2000002        -2   # BR(~chi_40 -> ~u_R      ub)
    -1.20302742E-23    2    -2000002         2   # BR(~chi_40 -> ~u_R*     u )
    -7.40442143E-04    2     1000001        -1   # BR(~chi_40 -> ~d_L      db)
    -7.40442143E-04    2    -1000001         1   # BR(~chi_40 -> ~d_L*     d )
    -1.41835399E-17    2     2000001        -1   # BR(~chi_40 -> ~d_R      db)
    -1.41835399E-17    2    -2000001         1   # BR(~chi_40 -> ~d_R*     d )
    -7.40441499E-04    2     1000004        -4   # BR(~chi_40 -> ~c_L      cb)
    -7.40441499E-04    2    -1000004         4   # BR(~chi_40 -> ~c_L*     c )
    -1.20302742E-23    2     2000004        -4   # BR(~chi_40 -> ~c_R      cb)
    -1.20302742E-23    2    -2000004         4   # BR(~chi_40 -> ~c_R*     c )
    -7.40442143E-04    2     1000003        -3   # BR(~chi_40 -> ~s_L      sb)
    -7.40442143E-04    2    -1000003         3   # BR(~chi_40 -> ~s_L*     s )
    -1.41835399E-17    2     2000003        -3   # BR(~chi_40 -> ~s_R      sb)
    -1.41835399E-17    2    -2000003         3   # BR(~chi_40 -> ~s_R*     s )
    -9.06308347E-04    2     1000006        -6   # BR(~chi_40 -> ~t_1      tb)
    -9.06308347E-04    2    -1000006         6   # BR(~chi_40 -> ~t_1*     t )
     2.46610365E-01    2     1000005        -5   # BR(~chi_40 -> ~b_1      bb)
     2.46610365E-01    2    -1000005         5   # BR(~chi_40 -> ~b_1*     b )
     2.66524001E-01    2     2000005        -5   # BR(~chi_40 -> ~b_2      bb)
     2.66524001E-01    2    -2000005         5   # BR(~chi_40 -> ~b_2*     b )
    -4.00778495E-16    2     1000011       -11   # BR(~chi_40 -> ~e_L-     e+)
    -4.00778495E-16    2    -1000011        11   # BR(~chi_40 -> ~e_L+     e-)
    -6.90940708E-29    2     2000011       -11   # BR(~chi_40 -> ~e_R-     e+)
    -6.90940708E-29    2    -2000011        11   # BR(~chi_40 -> ~e_R+     e-)
    -4.00778495E-16    2     1000013       -13   # BR(~chi_40 -> ~mu_L-    mu+)
    -4.00778495E-16    2    -1000013        13   # BR(~chi_40 -> ~mu_L+    mu-)
    -6.90940708E-29    2     2000013       -13   # BR(~chi_40 -> ~mu_R-    mu+)
    -6.90940708E-29    2    -2000013        13   # BR(~chi_40 -> ~mu_R+    mu-)
    -5.73972082E-16    2     1000012       -12   # BR(~chi_40 -> ~nu_eL    nu_eb)
    -5.73972082E-16    2    -1000012        12   # BR(~chi_40 -> ~nu_eL*   nu_e )
    -5.73972082E-16    2     1000014       -14   # BR(~chi_40 -> ~nu_muL   nu_mub)
    -5.73972082E-16    2    -1000014        14   # BR(~chi_40 -> ~nu_muL*  nu_mu )
    -5.73972082E-16    2     1000016       -16   # BR(~chi_40 -> ~nu_tau1  nu_taub)
    -5.73972082E-16    2    -1000016        16   # BR(~chi_40 -> ~nu_tau1* nu_tau )
    -3.89404635E-03    2     1000039        22   # BR(~chi_40 -> ~G        gam)
    -1.22370463E-02    2     1000039        23   # BR(~chi_40 -> ~G        Z)
    -7.42277909E-10    2     1000039        25   # BR(~chi_40 -> ~G        h)
    -4.65715834E-09    2     1000039        35   # BR(~chi_40 -> ~G        H)
    -9.17808647E-13    2     1000039        36   # BR(~chi_40 -> ~G        A)
#
#
#
#
