# SUSY Les Houches Accord 2 - MSSM spectrum + Decays
# SPheno v3.1.12 
# W. Porod, Comput. Phys. Commun. 153 (2003) 275-315, hep-ph/0301101
# in case of problems send email to porod@physik.uni-wuerzburg.de
# Created: 23.11.2012,  13:30
Block SPINFO         # Program information
     1   SPheno      # spectrum calculator
     2   v3.1.12     # version number
#
Block SPhenoINFO     # SPheno specific information
    1      2         # using 2-loop RGEs
    2      1         # using running masses for boundary conditions at mZ
Block MODSEL  # Model selection
    1    2    # mGMSB model
Block MINPAR  # Input parameters
    1    1.20000000E+05  # Lambda, scale of SUSY breaking
    2    2.50000000E+05  # M_M, messenger mass scale
    3    4.00000000E+01  # tanb at m_Z   
    4    1.00000000E+00  # Sign(mu)
    5    3.00000000E+00  # N_5 number of effective five-plets
    6    1.00000000E+00  # c_grav, Gravitino mass factor
Block gauge Q=  2.50000000E+05  # (GMSB scale)
   1    4.93342364E-01  # g'(Q)^DRbar
   2    6.47896330E-01  # g(Q)^DRbar
   3    9.36609552E-01  # g3(Q)^DRbar
Block SMINPUTS  # SM parameters
         1     1.27932521E+02  # alpha_em^-1(MZ)^MSbar
         2     1.16639000E-05  # G_mu [GeV^-2]
         3     1.17200000E-01  # alpha_s(MZ)^MSbar
         4     9.11876000E+01  # m_Z(pole)
         5     4.20000000E+00  # m_b(m_b), MSbar
         6     1.72500000E+02  # m_t(pole)
         7     1.77700000E+00  # m_tau(pole)
         8     0.00000000E+00  # m_nu_3
        11     5.10998910E-04  # m_e(pole)
        12     0.00000000E+00  # m_nu_1
        13     1.05658000E-01  # m_muon(pole)
        14     0.00000000E+00  # m_nu_2
        21     5.00000000E-03  # m_d(2 GeV), MSbar
        22     3.00000000E-03  # m_u(2 GeV), MSbar
        23     1.05000000E-01  # m_s(2 GeV), MSbar
        24     1.27000000E+00  # m_c(m_c), MSbar
Block gauge Q=  2.27038706E+03  # (SUSY scale)
   1    3.64832715E-01  # g'(Q)^DRbar
   2    6.38565328E-01  # g(Q)^DRbar
   3    1.01711526E+00  # g3(Q)^DRbar
Block Yu Q=  2.27038706E+03  # (SUSY scale)
  1  1     8.34830971E-06   # Y_u(Q)^DRbar
  2  2     3.53411925E-03   # Y_c(Q)^DRbar
  3  3     8.39426234E-01   # Y_t(Q)^DRbar
Block Yd Q=  2.27038706E+03  # (SUSY scale)
  1  1     4.76345527E-04   # Y_d(Q)^DRbar
  2  2     1.00032505E-02   # Y_s(Q)^DRbar
  3  3     4.80671868E-01   # Y_b(Q)^DRbar
Block Ye Q=  2.27038706E+03  # (SUSY scale)
  1  1     1.23061264E-04   # Y_e(Q)^DRbar
  2  2     2.54452897E-02   # Y_mu(Q)^DRbar
  3  3     4.28888206E-01   # Y_tau(Q)^DRbar
Block Au Q=  2.27038706E+03  # (SUSY scale)
  1  1    -7.10663205E+02   # A_u(Q)^DRbar
  2  2    -7.10660628E+02   # A_c(Q)^DRbar
  3  3    -6.67339553E+02   # A_t(Q)^DRbar
Block Ad Q=  2.27038706E+03  # (SUSY scale)
  1  1    -7.40264827E+02   # A_d(Q)^DRbar
  2  2    -7.40258864E+02   # A_s(Q)^DRbar
  3  3    -7.14392693E+02   # A_b(Q)^DRbar
Block Ae Q=  2.27038706E+03  # (SUSY scale)
  1  1    -6.82790357E+01   # A_e(Q)^DRbar
  2  2    -6.82743614E+01   # A_mu(Q)^DRbar
  3  3    -6.69547532E+01   # A_tau(Q)^DRbar
Block MSOFT Q=  2.27038706E+03  # soft SUSY breaking masses at Q
   1    5.23879596E+02  # M_1
   2    9.59800480E+02  # M_2
   3    2.44572842E+03  # M_3
  21    1.90167514E+05  # M^2_(H,d)
  22   -5.19303029E+05  # M^2_(H,u)
  31    7.47769376E+02  # M_(L,11)
  32    7.47744881E+02  # M_(L,22)
  33    7.40812501E+02  # M_(L,33)
  34    3.62847154E+02  # M_(E,11)
  35    3.62744186E+02  # M_(E,22)
  36    3.32386359E+02  # M_(E,33)
  41    2.36996161E+03  # M_(Q,11)
  42    2.36995015E+03  # M_(Q,22)
  43    2.27529459E+03  # M_(Q,33)
  44    2.27246653E+03  # M_(U,11)
  45    2.27246389E+03  # M_(U,22)
  46    2.12069126E+03  # M_(U,33)
  47    2.26299482E+03  # M_(D,11)
  48    2.26297324E+03  # M_(D,22)
  49    2.21307077E+03  # M_(D,33)
Block MASS  # Mass spectrum
#   PDG code      mass          particle
         6     1.72500000E+02  # m_t(pole)
        23     9.11876000E+01  # m_Z(pole)
        24     8.03105437E+01  # W+
        15     1.77700000E+00  # m_tau(pole)
        25     1.19751102E+02  # h0
        35     8.84124931E+02  # H0
        36     8.84080090E+02  # A0
        37     8.88322341E+02  # H+
   1000001     2.46768874E+03  # ~d_L
   2000001     2.35494642E+03  # ~d_R
   1000002     2.46639531E+03  # ~u_L
   2000002     2.36371957E+03  # ~u_R
   1000003     2.46767553E+03  # ~s_L
   2000003     2.35491941E+03  # ~s_R
   1000004     2.46638156E+03  # ~c_L
   2000004     2.36371639E+03  # ~c_R
   1000005     2.29051320E+03  # ~b_1
   2000005     2.35578294E+03  # ~b_2
   1000006     2.18384899E+03  # ~t_1
   2000006     2.36035314E+03  # ~t_2
   1000011     7.64668104E+02  # ~e_L-
   2000011     3.77718127E+02  # ~e_R-
   1000012     7.60114588E+02  # ~nu_eL
   1000013     7.64652204E+02  # ~mu_L-
   2000013     3.77552724E+02  # ~mu_R-
   1000014     7.60079643E+02  # ~nu_muL
   1000015     3.28482342E+02  # ~tau_1-
   2000015     7.60004957E+02  # ~tau_2-
   1000016     7.50308352E+02  # ~nu_tauL
   1000021     2.57048480E+03  # ~g
   1000022     5.09380262E+02  # ~chi_10
   1000023     7.87114029E+02  # ~chi_20
   1000025    -8.02229698E+02  # ~chi_30
   1000035     9.97774150E+02  # ~chi_40
   1000024     7.84936880E+02  # ~chi_1+
   1000037     9.97940515E+02  # ~chi_2+
   1000039     7.20000000E-09  # ~G
# Higgs mixing
Block alpha # Effective Higgs mixing angle
          -2.64406350E-02   # alpha
Block Hmix Q=  2.27038706E+03  # Higgs mixing parameters
   1    7.92247351E+02  # mu
   2    3.89199479E+01  # tan[beta](Q)
   3    2.43514734E+02  # v(Q)
   4    7.02389605E+05  # m^2_A(Q)
Block stopmix # stop mixing matrix
   1  1     1.52818049E-01   # Re[R_st(1,1)]
   1  2     9.88254342E-01   # Re[R_st(1,2)]
   2  1    -9.88254342E-01   # Re[R_st(2,1)]
   2  2     1.52818049E-01   # Re[R_st(2,2)]
Block sbotmix # sbottom mixing matrix
   1  1     2.39032484E-01   # Re[R_sb(1,1)]
   1  2     9.71011571E-01   # Re[R_sb(1,2)]
   2  1    -9.71011571E-01   # Re[R_sb(2,1)]
   2  2     2.39032484E-01   # Re[R_sb(2,2)]
Block staumix # stau mixing matrix
   1  1     1.27803267E-01   # Re[R_sta(1,1)]
   1  2     9.91799539E-01   # Re[R_sta(1,2)]
   2  1    -9.91799539E-01   # Re[R_sta(2,1)]
   2  2     1.27803267E-01   # Re[R_sta(2,2)]
Block Nmix # neutralino mixing matrix
   1  1    -9.93208341E-01   # Re[N(1,1)]
   1  2     1.09227107E-02   # Re[N(1,2)]
   1  3    -9.68533679E-02   # Re[N(1,3)]
   1  4     6.35398396E-02   # Re[N(1,4)]
   2  1     1.12176446E-01   # Re[N(2,1)]
   2  2     2.77605257E-01   # Re[N(2,2)]
   2  3    -6.79857132E-01   # Re[N(2,3)]
   2  4     6.69437111E-01   # Re[N(2,4)]
   3  1     2.31871528E-02   # Re[N(3,1)]
   3  2    -3.05859720E-02   # Re[N(3,2)]
   3  3    -7.05493336E-01   # Re[N(3,3)]
   3  4    -7.07676485E-01   # Re[N(3,4)]
   4  1    -2.03958984E-02   # Re[N(4,1)]
   4  2     9.60146090E-01   # Re[N(4,2)]
   4  3     1.75193773E-01   # Re[N(4,3)]
   4  4    -2.16819361E-01   # Re[N(4,4)]
Block Umix # chargino mixing matrix
   1  1    -2.47416828E-01   # Re[U(1,1)]
   1  2     9.68909136E-01   # Re[U(1,2)]
   2  1     9.68909136E-01   # Re[U(2,1)]
   2  2     2.47416828E-01   # Re[U(2,2)]
Block Vmix # chargino mixing matrix
   1  1    -3.06123111E-01   # Re[V(1,1)]
   1  2     9.51991933E-01   # Re[V(1,2)]
   2  1     9.51991933E-01   # Re[V(2,1)]
   2  2     3.06123111E-01   # Re[V(2,2)]
DECAY   2000011     2.90924308E-07   # ~e^-_R
#    BR                NDA      ID1      ID2
     5.84180103E-04    2     1000039        11   # BR(~e^-_R -> ~G e^-)
#    BR                NDA      ID1      ID2       ID3
     1.50856050E-14    3     2000013        11       -13   # BR(~e^-_R -> ~mu^-_R e^- mu^+)
     5.03708772E-14    3    -2000013        11        13   # BR(~e^-_R -> ~mu^+_R e^- mu^-)
     2.09481651E-01    3     1000015        11       -15   # BR(~e^-_R -> ~tau^-_1 e^- tau^+)
     7.89934168E-01    3    -1000015        11        15   # BR(~e^-_R -> ~tau^+_1 e^- tau^-)
DECAY   1000011     2.97234779E-01   # ~e^-_L
#    BR                NDA      ID1      ID2
     9.99999394E-01    2     1000022        11   # BR(~e^-_L -> chi^0_1 e^-)
     2.87826540E-07    2     2000011        23   # BR(~e^-_L -> ~e^-_R Z)
     2.98376717E-07    2     2000011        25   # BR(~e^-_L -> ~e^-_R h^0)
     1.94425349E-08    2     1000039        11   # BR(~e^-_L -> ~G e^-)
DECAY   2000013     2.86452925E-07   # ~mu^-_R
#    BR                NDA      ID1      ID2
     5.92000776E-04    2     1000039        13   # BR(~mu^-_R -> ~G mu^-)
#    BR                NDA      ID1      ID2       ID3
     2.09151105E-01    3     1000015        13       -15   # BR(~mu^-_R -> ~tau^-_1 mu^- tau^+)
     7.90256894E-01    3    -1000015        13        15   # BR(~mu^-_R -> ~tau^+_1 mu^- tau^-)
DECAY   1000013     3.04698606E-01   # ~mu^-_L
#    BR                NDA      ID1      ID2
     9.75546847E-01    2     1000022        13   # BR(~mu^-_L -> chi^0_1 mu^-)
     1.20080692E-02    2     2000013        23   # BR(~mu^-_L -> ~mu^-_R Z)
     1.24450651E-02    2     2000013        25   # BR(~mu^-_L -> ~mu^-_R h^0)
     1.89643018E-08    2     1000039        13   # BR(~mu^-_L -> ~G mu^-)
DECAY   1000015     8.45272886E-11   # ~tau^-_1
#    BR                NDA      ID1      ID2
     1.00000000E+00    2     1000039        15   # BR(~tau^-_1 -> ~G tau^-)
DECAY   2000015     2.53475609E+00   # ~tau^-_2
#    BR                NDA      ID1      ID2
     1.18180381E-01    2     1000022        15   # BR(~tau^-_2 -> chi^0_1 tau^-)
     4.47270321E-01    2     1000015        23   # BR(~tau^-_2 -> ~tau^-_1 Z)
     4.34549296E-01    2     1000015        25   # BR(~tau^-_2 -> ~tau^-_1 h^0)
     2.21117995E-09    2     1000039        15   # BR(~tau^-_2 -> ~G tau^-)
DECAY   1000012     3.13026614E-01   # ~nu_e
#    BR                NDA      ID1      ID2
     9.99999456E-01    2     1000022        12   # BR(~nu_e -> chi^0_1 nu_e)
     5.26288958E-07    2     2000011        24   # BR(~nu_e -> ~e^-_R W^+)
     1.79185024E-08    2     1000039        12   # BR(~nu_e -> ~G nu_e)
DECAY   1000014     3.20010266E-01   # ~nu_mu
#    BR                NDA      ID1      ID2
     9.77984656E-01    2     1000022        14   # BR(~nu_mu -> chi^0_1 nu_mu)
     2.20153268E-02    2     2000013        24   # BR(~nu_mu -> ~mu^-_R W^+)
     1.75234345E-08    2     1000039        14   # BR(~nu_mu -> ~G nu_mu)
DECAY   1000016     2.44603175E+00   # ~nu_tau
#    BR                NDA      ID1      ID2
     1.20961902E-01    2     1000022        16   # BR(~nu_tau -> chi^0_1 nu_tau)
     8.79038096E-01    2     1000015        24   # BR(~nu_tau -> ~tau^-_1 W^+)
     2.14894079E-09    2     1000039        16   # BR(~nu_tau -> ~G nu_tau)
DECAY   2000001     1.25682123E+00   # ~d_R
#    BR                NDA      ID1      ID2
     9.88265658E-01    2     1000022         1   # BR(~d_R -> chi^0_1 d)
     1.09509640E-02    2     1000023         1   # BR(~d_R -> chi^0_2 d)
     4.66435955E-04    2     1000025         1   # BR(~d_R -> chi^0_3 d)
     3.08789116E-04    2     1000035         1   # BR(~d_R -> chi^0_4 d)
     6.84365303E-06    2    -1000024         2   # BR(~d_R -> chi^-_1 u)
     3.54893838E-08    2    -1000037         2   # BR(~d_R -> chi^-_2 u)
     1.27385290E-06    2     1000039         1   # BR(~d_R -> ~G d)
DECAY   1000001     2.15553426E+01   # ~d_L
#    BR                NDA      ID1      ID2
     1.70373758E-02    2     1000022         1   # BR(~d_L -> chi^0_1 d)
     2.46010294E-02    2     1000023         1   # BR(~d_L -> chi^0_2 d)
     4.55205144E-04    2     1000025         1   # BR(~d_L -> chi^0_3 d)
     3.01976338E-01    2     1000035         1   # BR(~d_L -> chi^0_4 d)
     4.59283872E-02    2    -1000024         2   # BR(~d_L -> chi^-_1 u)
     6.10001570E-01    2    -1000037         2   # BR(~d_L -> chi^-_2 u)
     4.64872016E-13    2     2000002       -24   # BR(~d_L -> ~u_R W^-)
     5.48907689E-10    2     2000001        23   # BR(~d_L -> ~d_R Z)
     9.38392666E-08    2     1000039         1   # BR(~d_L -> ~G d)
DECAY   2000003     1.26434118E+00   # ~s_R
#    BR                NDA      ID1      ID2
     9.82446555E-01    2     1000022         3   # BR(~s_R -> chi^0_1 s)
     1.23421019E-02    2     1000023         3   # BR(~s_R -> chi^0_2 s)
     1.88040135E-03    2     1000025         3   # BR(~s_R -> chi^0_3 s)
     3.14117506E-04    2     1000035         3   # BR(~s_R -> chi^0_4 s)
     2.99999376E-03    2    -1000024         4   # BR(~s_R -> chi^-_1 c)
     1.55645879E-05    2    -1000037         4   # BR(~s_R -> chi^-_2 c)
     1.26620376E-06    2     1000039         3   # BR(~s_R -> ~G s)
DECAY   1000003     2.15593367E+01   # ~s_L
#    BR                NDA      ID1      ID2
     1.70335179E-02    2     1000022         3   # BR(~s_L -> chi^0_1 s)
     2.46742535E-02    2     1000023         3   # BR(~s_L -> chi^0_2 s)
     5.46983009E-04    2     1000025         3   # BR(~s_L -> chi^0_3 s)
     3.01926920E-01    2     1000035         3   # BR(~s_L -> chi^0_4 s)
     4.59239556E-02    2    -1000024         4   # BR(~s_L -> chi^-_1 c)
     6.09893951E-01    2    -1000037         4   # BR(~s_L -> chi^-_2 c)
     8.32521305E-08    2     2000004       -24   # BR(~s_L -> ~c_R W^-)
     2.42222021E-07    2     2000003        23   # BR(~s_L -> ~s_R Z)
     9.38193701E-08    2     1000039         3   # BR(~s_L -> ~G s)
DECAY   1000005     1.92066284E+01   # ~b_1
#    BR                NDA      ID1      ID2
     7.66740913E-02    2     1000022         5   # BR(~b_1 -> chi^0_1 b)
     2.25994196E-01    2     1000023         5   # BR(~b_1 -> chi^0_2 b)
     2.04498009E-01    2     1000025         5   # BR(~b_1 -> chi^0_3 b)
     1.21098502E-03    2     1000035         5   # BR(~b_1 -> chi^0_4 b)
     4.83630791E-01    2    -1000024         6   # BR(~b_1 -> chi^-_1 t)
     7.87926534E-03    2    -1000037         6   # BR(~b_1 -> chi^-_2 t)
     1.12589723E-04    2     1000006       -24   # BR(~b_1 -> ~t_1 W^-)
     7.25595625E-08    2     1000039         5   # BR(~b_1 -> ~G b)
DECAY   2000005     5.21155153E+01   # ~b_2
#    BR                NDA      ID1      ID2
     4.80903392E-03    2     1000022         5   # BR(~b_2 -> chi^0_1 b)
     7.43621472E-02    2     1000023         5   # BR(~b_2 -> chi^0_2 b)
     8.31140450E-02    2     1000025         5   # BR(~b_2 -> chi^0_3 b)
     1.22952373E-01    2     1000035         5   # BR(~b_2 -> chi^0_4 b)
     4.20842411E-01    2    -1000024         6   # BR(~b_2 -> chi^-_1 t)
     2.87242810E-01    2    -1000037         6   # BR(~b_2 -> chi^-_2 t)
     6.67714964E-03    2     1000006       -24   # BR(~b_2 -> ~t_1 W^-)
     3.07745308E-08    2     1000039         5   # BR(~b_2 -> ~G b)
DECAY   2000002     5.04968049E+00   # ~u_R
#    BR                NDA      ID1      ID2
     9.88266283E-01    2     1000022         2   # BR(~u_R -> chi^0_1 u)
     1.09600823E-02    2     1000023         2   # BR(~u_R -> chi^0_2 u)
     4.63761569E-04    2     1000025         2   # BR(~u_R -> chi^0_3 u)
     3.09549712E-04    2     1000035         2   # BR(~u_R -> chi^0_4 u)
     5.29922048E-10    2     1000024         1   # BR(~u_R -> chi^+_1 d)
     5.14308415E-12    2     1000037         1   # BR(~u_R -> chi^+_2 d)
     3.23000722E-07    2     1000039         2   # BR(~u_R -> ~G u)
DECAY   1000002     2.16129720E+01   # ~u_L
#    BR                NDA      ID1      ID2
     1.34755933E-02    2     1000022         2   # BR(~u_L -> chi^0_1 u)
     3.33741632E-02    2     1000023         2   # BR(~u_L -> chi^0_2 u)
     2.53479624E-04    2     1000025         2   # BR(~u_L -> chi^0_3 u)
     2.96059988E-01    2     1000035         2   # BR(~u_L -> chi^0_4 u)
     7.00693158E-02    2     1000024         1   # BR(~u_L -> chi^+_1 d)
     5.86767365E-01    2     1000037         1   # BR(~u_L -> chi^+_2 d)
     1.68633677E-09    2     2000001        24   # BR(~u_L -> ~d_R W^+)
     8.71361026E-14    2     2000002        23   # BR(~u_L -> ~u_R Z)
     9.33440363E-08    2     1000039         2   # BR(~u_L -> ~G u)
DECAY   2000004     5.05062247E+00   # ~c_R
#    BR                NDA      ID1      ID2
     9.88079895E-01    2     1000022         4   # BR(~c_R -> chi^0_1 c)
     1.10038062E-02    2     1000023         4   # BR(~c_R -> chi^0_2 c)
     5.10219416E-04    2     1000025         4   # BR(~c_R -> chi^0_3 c)
     3.09883326E-04    2     1000035         4   # BR(~c_R -> chi^0_4 c)
     9.49520939E-05    2     1000024         3   # BR(~c_R -> chi^+_1 s)
     9.21224954E-07    2     1000037         3   # BR(~c_R -> chi^+_2 s)
     3.22937933E-07    2     1000039         4   # BR(~c_R -> ~G c)
DECAY   1000004     2.16171546E+01   # ~c_L
#    BR                NDA      ID1      ID2
     1.34730047E-02    2     1000022         4   # BR(~c_L -> chi^0_1 c)
     3.33762251E-02    2     1000023         4   # BR(~c_L -> chi^0_2 c)
     2.64614066E-04    2     1000025         4   # BR(~c_L -> chi^0_3 c)
     2.96001835E-01    2     1000035         4   # BR(~c_L -> chi^0_4 c)
     7.02239458E-02    2     1000024         3   # BR(~c_L -> chi^+_1 s)
     5.86659523E-01    2     1000037         3   # BR(~c_L -> chi^+_2 s)
     7.43907689E-07    2     2000003        24   # BR(~c_L -> ~s_R W^+)
     1.55932099E-08    2     2000004        23   # BR(~c_L -> ~c_R Z)
     9.33232745E-08    2     1000039         4   # BR(~c_L -> ~G c)
DECAY   1000006     5.03193628E+01   # ~t_1
#    BR                NDA      ID1      ID2
     1.67156332E-04    2     1000022         4   # BR(~t_1 -> chi^0_1 c)
     9.14245894E-02    2     1000022         6   # BR(~t_1 -> chi^0_1 t)
     3.98221231E-04    2     1000023         4   # BR(~t_1 -> chi^0_2 c)
     2.12417991E-01    2     1000023         6   # BR(~t_1 -> chi^0_2 t)
     2.31499271E-01    2     1000025         6   # BR(~t_1 -> chi^0_3 t)
     6.87058146E-03    2     1000035         6   # BR(~t_1 -> chi^0_4 t)
     4.43020098E-01    2     1000024         5   # BR(~t_1 -> chi^+_1 b)
     1.41895799E-02    2     1000037         5   # BR(~t_1 -> chi^+_2 b)
     2.12810412E-08    2     1000039         6   # BR(~t_1 -> ~G t)
#    BR                NDA      ID1      ID2       ID3
     1.24906750E-05    3     1000022        24         5   # BR(~t_1 -> chi^0_1 W^+ b)
DECAY   2000006     5.39399983E+01   # ~t_2
#    BR                NDA      ID1      ID2
     6.01516626E-03    2     1000022         6   # BR(~t_2 -> chi^0_1 t)
     2.13232943E-01    2     1000023         6   # BR(~t_2 -> chi^0_2 t)
     2.31246897E-01    2     1000025         6   # BR(~t_2 -> chi^0_3 t)
     1.45520890E-01    2     1000035         6   # BR(~t_2 -> chi^0_4 t)
     1.49298336E-01    2     1000024         5   # BR(~t_2 -> chi^+_1 b)
     2.48791635E-01    2     1000037         5   # BR(~t_2 -> chi^+_2 b)
     3.36703897E-03    2     1000006        23   # BR(~t_2 -> ~t_1 Z)
     2.52706503E-03    2     1000006        25   # BR(~t_2 -> ~t_1 h^0)
     2.93872169E-08    2     1000039         6   # BR(~t_2 -> ~G t)
DECAY   1000024     1.37464070E+00   # chi^+_1
#    BR                NDA      ID1      ID2
     5.27135459E-08    2    -2000011        12   # BR(chi^+_1 -> ~e^+_R nu_e)
     3.68445214E-04    2    -1000011        12   # BR(chi^+_1 -> ~e^+_L nu_e)
     2.25469564E-03    2    -2000013        14   # BR(chi^+_1 -> ~mu^+_R nu_mu)
     3.68068981E-04    2    -1000013        14   # BR(chi^+_1 -> ~mu^+_L nu_mu)
     7.22380024E-01    2    -1000015        16   # BR(chi^+_1 -> ~tau^+_1 nu_tau)
     2.38206588E-04    2    -2000015        16   # BR(chi^+_1 -> ~tau^+_2 nu_tau)
     8.40968039E-04    2     1000012       -11   # BR(chi^+_1 -> ~nu_e e^+)
     8.57624365E-04    2     1000014       -13   # BR(chi^+_1 -> ~nu_mu mu^+)
     9.26750645E-03    2     1000016       -15   # BR(chi^+_1 -> ~nu_tau tau^+)
     2.63166634E-01    2     1000022        24   # BR(chi^+_1 -> chi^0_1 W^+)
#    BR                NDA      ID1      ID2       ID3
     2.66778165E-09    3     1000022        -1         2   # BR(chi^+_1 -> chi^0_1 d_bar u)
     4.19903899E-09    3     1000022        -3         4   # BR(chi^+_1 -> chi^0_1 s_bar c)
     2.37384932E-04    3     1000022        -5         6   # BR(chi^+_1 -> chi^0_1 b_bar t)
     2.28225274E-12    3     1000022       -11        12   # BR(chi^+_1 -> chi^0_1 e^+ nu_e)
     9.74558180E-08    3     1000022       -13        14   # BR(chi^+_1 -> chi^0_1 mu^+ nu_mu)
     2.02846861E-05    3     1000022       -15        16   # BR(chi^+_1 -> chi^0_1 tau^+ nu_tau)
DECAY   1000037     7.53959550E+00   # chi^+_2
#    BR                NDA      ID1      ID2
     4.00709245E-11    2    -2000011        12   # BR(chi^+_2 -> ~e^+_R nu_e)
     8.59119236E-02    2    -1000011        12   # BR(chi^+_2 -> ~e^+_L nu_e)
     1.71584329E-06    2    -2000013        14   # BR(chi^+_2 -> ~mu^+_R nu_mu)
     8.59305831E-02    2    -1000013        14   # BR(chi^+_2 -> ~mu^+_L nu_mu)
     7.16928698E-04    2    -1000015        16   # BR(chi^+_2 -> ~tau^+_1 nu_tau)
     9.13649142E-02    2    -2000015        16   # BR(chi^+_2 -> ~tau^+_2 nu_tau)
     8.57627515E-02    2     1000012       -11   # BR(chi^+_2 -> ~nu_e e^+)
     8.57928443E-02    2     1000014       -13   # BR(chi^+_2 -> ~nu_mu mu^+)
     9.44834904E-02    2     1000016       -15   # BR(chi^+_2 -> ~nu_tau tau^+)
     1.68188196E-03    2     1000022        24   # BR(chi^+_2 -> chi^0_1 W^+)
     1.31204808E-01    2     1000023        24   # BR(chi^+_2 -> chi^0_2 W^+)
     1.09074674E-01    2     1000025        24   # BR(chi^+_2 -> chi^0_3 W^+)
     1.25522473E-01    2     1000024        23   # BR(chi^+_2 -> chi^+_1 Z)
     1.02511676E-01    2     1000024        25   # BR(chi^+_2 -> chi^+_1 h^0)
#    BR                NDA      ID1      ID2       ID3
     2.83727744E-09    3     1000024         2        -2   # BR(chi^+_2 -> chi^+_1 u u_bar)
     2.83429840E-09    3     1000024         4        -4   # BR(chi^+_2 -> chi^+_1 c c_bar)
     4.20453175E-09    3     1000024         1        -1   # BR(chi^+_2 -> chi^+_1 d d_bar)
     4.76671014E-09    3     1000024         3        -3   # BR(chi^+_2 -> chi^+_1 s s_bar)
     1.32573002E-06    3     1000024         5        -5   # BR(chi^+_2 -> chi^+_1 b b_bar)
     1.22228000E-06    3     1000024        11       -11   # BR(chi^+_2 -> chi^+_1 e^- e^+)
     1.23777676E-06    3     1000024        13       -13   # BR(chi^+_2 -> chi^+_1 mu^- mu^+)
     5.18232764E-06    3     1000024        15       -15   # BR(chi^+_2 -> chi^+_1 tau^- tau^+)
     2.17267046E-06    3     1000024        12       -12   # BR(chi^+_2 -> chi^+_1 nu_e nu_bar_e)
     8.10495560E-08    3     1000022        -1         2   # BR(chi^+_2 -> chi^0_1 d_bar u)
     8.10435675E-08    3     1000022        -3         4   # BR(chi^+_2 -> chi^0_1 s_bar c)
     1.10132553E-05    3     1000022        -5         6   # BR(chi^+_2 -> chi^0_1 b_bar t)
     3.24318933E-10    3     1000022       -13        14   # BR(chi^+_2 -> chi^0_1 mu^+ nu_mu)
     1.02027905E-07    3     1000022       -15        16   # BR(chi^+_2 -> chi^0_1 tau^+ nu_tau)
     1.72344091E-09    3     1000023        -1         2   # BR(chi^+_2 -> chi^0_2 d_bar u)
     2.03423971E-09    3     1000023        -3         4   # BR(chi^+_2 -> chi^0_2 s_bar c)
     9.82256642E-06    3     1000023        -5         6   # BR(chi^+_2 -> chi^0_2 b_bar t)
     7.10188103E-07    3     1000023       -11        12   # BR(chi^+_2 -> chi^0_2 e^+ nu_e)
     7.17253938E-07    3     1000023       -13        14   # BR(chi^+_2 -> chi^0_2 mu^+ nu_mu)
     2.49877843E-06    3     1000023       -15        16   # BR(chi^+_2 -> chi^0_2 tau^+ nu_tau)
     4.41319965E-11    3     1000025        -1         2   # BR(chi^+_2 -> chi^0_3 d_bar u)
     2.35175349E-10    3     1000025        -3         4   # BR(chi^+_2 -> chi^0_3 s_bar c)
     1.75019828E-06    3     1000025        -5         6   # BR(chi^+_2 -> chi^0_3 b_bar t)
     9.93157306E-09    3     1000025       -11        12   # BR(chi^+_2 -> chi^0_3 e^+ nu_e)
     1.51088273E-08    3     1000025       -13        14   # BR(chi^+_2 -> chi^0_3 mu^+ nu_mu)
     1.37485037E-06    3     1000025       -15        16   # BR(chi^+_2 -> chi^0_3 tau^+ nu_tau)
DECAY   1000022     1.99223572E+00   # chi^0_1
#    BR                NDA      ID1      ID2
     1.35330822E-01    2     2000011       -11   # BR(chi^0_1 -> ~e^-_R e^+)
     1.35330822E-01    2    -2000011        11   # BR(chi^0_1 -> ~e^+_R e^-)
     1.35622499E-01    2     2000013       -13   # BR(chi^0_1 -> ~mu^-_R mu^+)
     1.35622499E-01    2    -2000013        13   # BR(chi^0_1 -> ~mu^+_R mu^-)
     2.29046678E-01    2     1000015       -15   # BR(chi^0_1 -> ~tau^-_1 tau^+)
     2.29046678E-01    2    -1000015        15   # BR(chi^0_1 -> ~tau^+_1 tau^-)
     2.79436025E-10    2     1000039        22   # BR(chi^0_1 -> ~G photon)
     8.36882528E-11    2     1000039        23   # BR(chi^0_1 -> ~G Z)
     1.65632374E-12    2     1000039        25   # BR(chi^0_1 -> ~G h^0)
DECAY   1000023     1.49940816E+00   # chi^0_2
#    BR                NDA      ID1      ID2
     1.03634150E-02    2     2000011       -11   # BR(chi^0_2 -> ~e^-_R e^+)
     1.03634150E-02    2    -2000011        11   # BR(chi^0_2 -> ~e^+_R e^-)
     3.92882291E-04    2     1000011       -11   # BR(chi^0_2 -> ~e^-_L e^+)
     3.92882291E-04    2    -1000011        11   # BR(chi^0_2 -> ~e^+_L e^-)
     1.13797200E-02    2     2000013       -13   # BR(chi^0_2 -> ~mu^-_R mu^+)
     1.13797200E-02    2    -2000013        13   # BR(chi^0_2 -> ~mu^+_R mu^-)
     3.98340640E-04    2     1000013       -13   # BR(chi^0_2 -> ~mu^-_L mu^+)
     3.98340640E-04    2    -1000013        13   # BR(chi^0_2 -> ~mu^+_L mu^-)
     3.41040278E-01    2     1000015       -15   # BR(chi^0_2 -> ~tau^-_1 tau^+)
     3.41040278E-01    2    -1000015        15   # BR(chi^0_2 -> ~tau^+_1 tau^-)
     2.52997893E-03    2     2000015       -15   # BR(chi^0_2 -> ~tau^-_2 tau^+)
     2.52997893E-03    2    -2000015        15   # BR(chi^0_2 -> ~tau^+_2 tau^-)
     2.20660411E-04    2     1000012       -12   # BR(chi^0_2 -> ~nu_e nu_bar_e)
     2.20660411E-04    2    -1000012        12   # BR(chi^0_2 -> ~nu^*_e nu_e)
     2.21221993E-04    2     1000014       -14   # BR(chi^0_2 -> ~nu_mu nu_bar_mu)
     2.21221993E-04    2    -1000014        14   # BR(chi^0_2 -> ~nu^*_mu nu_mu)
     4.04875890E-04    2     1000016       -16   # BR(chi^0_2 -> ~nu_tau nu_bar_tau)
     4.04875890E-04    2    -1000016        16   # BR(chi^0_2 -> ~nu^*_tau nu_tau)
     1.27923467E-02    2     1000022        23   # BR(chi^0_2 -> chi^0_1 Z)
     2.53277876E-01    2     1000022        25   # BR(chi^0_2 -> chi^0_1 h^0)
     2.46213504E-10    2     1000039        22   # BR(chi^0_2 -> ~G photon)
     1.10775564E-10    2     1000039        23   # BR(chi^0_2 -> ~G Z)
     2.10213388E-09    2     1000039        25   # BR(chi^0_2 -> ~G h^0)
     2.90393241E-07    2     1000022        22   # BR(chi^0_2 -> chi^0_1 photon)
#    BR                NDA      ID1      ID2       ID3
     3.67785451E-09    3     1000022         2        -2   # BR(chi^0_2 -> chi^0_1 u u_bar)
     3.68265795E-09    3     1000022         4        -4   # BR(chi^0_2 -> chi^0_1 c c_bar)
     1.37994849E-09    3     1000022         1        -1   # BR(chi^0_2 -> chi^0_1 d d_bar)
     3.08637632E-09    3     1000022         3        -3   # BR(chi^0_2 -> chi^0_1 s s_bar)
     3.99104088E-06    3     1000022         5        -5   # BR(chi^0_2 -> chi^0_1 b b_bar)
     1.54251361E-06    3     1000022        11       -11   # BR(chi^0_2 -> chi^0_1 e^- e^+)
     1.62735698E-06    3     1000022        13       -13   # BR(chi^0_2 -> chi^0_1 mu^- mu^+)
     1.95648630E-05    3     1000022        15       -15   # BR(chi^0_2 -> chi^0_1 tau^- tau^+)
     1.49944792E-11    3     1000024         1        -2   # BR(chi^0_2 -> chi^+_1 d u_bar)
     1.49944792E-11    3    -1000024        -1         2   # BR(chi^0_2 -> chi^-_1 d_bar u)
     2.55912910E-12    3     1000024         3        -4   # BR(chi^0_2 -> chi^+_1 s c_bar)
     2.55912910E-12    3    -1000024        -3         4   # BR(chi^0_2 -> chi^-_1 s_bar c)
     4.87244046E-12    3     1000024        11       -12   # BR(chi^0_2 -> chi^+_1 e^- nu_bar_e)
     4.87244046E-12    3    -1000024       -11        12   # BR(chi^0_2 -> chi^-_1 e^+ nu_e)
     4.81569945E-12    3     1000024        13       -14   # BR(chi^0_2 -> chi^+_1 mu^- nu_bar_mu)
     4.81569945E-12    3    -1000024       -13        14   # BR(chi^0_2 -> chi^-_1 mu^+ nu_mu)
     6.80762070E-14    3     1000024        15       -16   # BR(chi^0_2 -> chi^+_1 tau^- nu_bar_tau)
     6.80762070E-14    3    -1000024       -15        16   # BR(chi^0_2 -> chi^-_1 tau^+ nu_tau)
DECAY   1000025     1.42782520E+00   # chi^0_3
#    BR                NDA      ID1      ID2
     4.84583298E-04    2     2000011       -11   # BR(chi^0_3 -> ~e^-_R e^+)
     4.84583298E-04    2    -2000011        11   # BR(chi^0_3 -> ~e^+_R e^-)
     2.86518134E-06    2     1000011       -11   # BR(chi^0_3 -> ~e^-_L e^+)
     2.86518134E-06    2    -1000011        11   # BR(chi^0_3 -> ~e^+_L e^-)
     1.55752713E-03    2     2000013       -13   # BR(chi^0_3 -> ~mu^-_R mu^+)
     1.55752713E-03    2    -2000013        13   # BR(chi^0_3 -> ~mu^+_R mu^-)
     1.82477840E-05    2     1000013       -13   # BR(chi^0_3 -> ~mu^-_L mu^+)
     1.82477840E-05    2    -1000013        13   # BR(chi^0_3 -> ~mu^+_L mu^-)
     3.48826566E-01    2     1000015       -15   # BR(chi^0_3 -> ~tau^-_1 tau^+)
     3.48826566E-01    2    -1000015        15   # BR(chi^0_3 -> ~tau^+_1 tau^-)
     5.53489034E-03    2     2000015       -15   # BR(chi^0_3 -> ~tau^-_2 tau^+)
     5.53489034E-03    2    -2000015        15   # BR(chi^0_3 -> ~tau^+_2 tau^-)
     2.28850494E-05    2     1000012       -12   # BR(chi^0_3 -> ~nu_e nu_bar_e)
     2.28850494E-05    2    -1000012        12   # BR(chi^0_3 -> ~nu^*_e nu_e)
     2.29220181E-05    2     1000014       -14   # BR(chi^0_3 -> ~nu_mu nu_bar_mu)
     2.29220181E-05    2    -1000014        14   # BR(chi^0_3 -> ~nu^*_mu nu_mu)
     3.43477959E-05    2     1000016       -16   # BR(chi^0_3 -> ~nu_tau nu_bar_tau)
     3.43477959E-05    2    -1000016        16   # BR(chi^0_3 -> ~nu^*_tau nu_tau)
     2.75915695E-01    2     1000022        23   # BR(chi^0_3 -> chi^0_1 Z)
     1.10433031E-02    2     1000022        25   # BR(chi^0_3 -> chi^0_1 h^0)
     1.26550632E-13    2     1000039        22   # BR(chi^0_3 -> ~G photon)
     4.84274774E-10    2     1000039        23   # BR(chi^0_3 -> ~G Z)
     2.43920683E-09    2     1000039        25   # BR(chi^0_3 -> ~G h^0)
     2.16625281E-07    2     1000022        22   # BR(chi^0_3 -> chi^0_1 photon)
     1.35693346E-09    2     1000023        22   # BR(chi^0_3 -> chi^0_2 photon)
#    BR                NDA      ID1      ID2       ID3
     5.26092893E-11    3     1000022         2        -2   # BR(chi^0_3 -> chi^0_1 u u_bar)
     6.29004872E-11    3     1000022         4        -4   # BR(chi^0_3 -> chi^0_1 c c_bar)
     1.89118722E-11    3     1000022         1        -1   # BR(chi^0_3 -> chi^0_1 d d_bar)
     2.21672838E-09    3     1000022         3        -3   # BR(chi^0_3 -> chi^0_1 s s_bar)
     5.12116346E-06    3     1000022         5        -5   # BR(chi^0_3 -> chi^0_1 b b_bar)
     3.09222850E-08    3     1000022        11       -11   # BR(chi^0_3 -> chi^0_1 e^- e^+)
     1.39111660E-07    3     1000022        13       -13   # BR(chi^0_3 -> chi^0_1 mu^- mu^+)
     2.29848509E-05    3     1000022        15       -15   # BR(chi^0_3 -> chi^0_1 tau^- tau^+)
     5.91379877E-08    3     1000023         2        -2   # BR(chi^0_3 -> chi^0_2 u u_bar)
     5.65948321E-08    3     1000023         4        -4   # BR(chi^0_3 -> chi^0_2 c c_bar)
     7.67596631E-08    3     1000023         1        -1   # BR(chi^0_3 -> chi^0_2 d d_bar)
     7.67299664E-08    3     1000023         3        -3   # BR(chi^0_3 -> chi^0_2 s s_bar)
     3.68381773E-08    3     1000023         5        -5   # BR(chi^0_3 -> chi^0_2 b b_bar)
     1.76616457E-08    3     1000023        11       -11   # BR(chi^0_3 -> chi^0_2 e^- e^+)
     1.76515375E-08    3     1000023        13       -13   # BR(chi^0_3 -> chi^0_2 mu^- mu^+)
     1.47834118E-08    3     1000023        15       -15   # BR(chi^0_3 -> chi^0_2 tau^- tau^+)
     1.05550259E-07    3     1000023        12       -12   # BR(chi^0_3 -> chi^0_2 nu_e nu_bar_e)
     4.01297696E-07    3     1000024         1        -2   # BR(chi^0_3 -> chi^+_1 d u_bar)
     4.01297696E-07    3    -1000024        -1         2   # BR(chi^0_3 -> chi^-_1 d_bar u)
     3.90887177E-07    3     1000024         3        -4   # BR(chi^0_3 -> chi^+_1 s c_bar)
     3.90887177E-07    3    -1000024        -3         4   # BR(chi^0_3 -> chi^-_1 s_bar c)
     1.33611535E-07    3     1000024        11       -12   # BR(chi^0_3 -> chi^+_1 e^- nu_bar_e)
     1.33611535E-07    3    -1000024       -11        12   # BR(chi^0_3 -> chi^-_1 e^+ nu_e)
     1.33611207E-07    3     1000024        13       -14   # BR(chi^0_3 -> chi^+_1 mu^- nu_bar_mu)
     1.33611207E-07    3    -1000024       -13        14   # BR(chi^0_3 -> chi^-_1 mu^+ nu_mu)
     1.26789364E-07    3     1000024        15       -16   # BR(chi^0_3 -> chi^+_1 tau^- nu_bar_tau)
     1.26789364E-07    3    -1000024       -15        16   # BR(chi^0_3 -> chi^-_1 tau^+ nu_tau)
DECAY   1000035     7.53823783E+00   # chi^0_4
#    BR                NDA      ID1      ID2
     1.07007691E-04    2     2000011       -11   # BR(chi^0_4 -> ~e^-_R e^+)
     1.07007691E-04    2    -2000011        11   # BR(chi^0_4 -> ~e^+_R e^-)
     4.11262975E-02    2     1000011       -11   # BR(chi^0_4 -> ~e^-_L e^+)
     4.11262975E-02    2    -1000011        11   # BR(chi^0_4 -> ~e^+_L e^-)
     1.07310828E-04    2     2000013       -13   # BR(chi^0_4 -> ~mu^-_R mu^+)
     1.07310828E-04    2    -2000013        13   # BR(chi^0_4 -> ~mu^+_R mu^-)
     4.11395633E-02    2     1000013       -13   # BR(chi^0_4 -> ~mu^-_L mu^+)
     4.11395633E-02    2    -1000013        13   # BR(chi^0_4 -> ~mu^+_L mu^-)
     4.10404898E-04    2     1000015       -15   # BR(chi^0_4 -> ~tau^-_1 tau^+)
     4.10404898E-04    2    -1000015        15   # BR(chi^0_4 -> ~tau^+_1 tau^-)
     4.49861952E-02    2     2000015       -15   # BR(chi^0_4 -> ~tau^-_2 tau^+)
     4.49861952E-02    2    -2000015        15   # BR(chi^0_4 -> ~tau^+_2 tau^-)
     4.46437240E-02    2     1000012       -12   # BR(chi^0_4 -> ~nu_e nu_bar_e)
     4.46437240E-02    2    -1000012        12   # BR(chi^0_4 -> ~nu^*_e nu_e)
     4.46550784E-02    2     1000014       -14   # BR(chi^0_4 -> ~nu_mu nu_bar_mu)
     4.46550784E-02    2    -1000014        14   # BR(chi^0_4 -> ~nu^*_mu nu_mu)
     4.78653546E-02    2     1000016       -16   # BR(chi^0_4 -> ~nu_tau nu_bar_tau)
     4.78653546E-02    2    -1000016        16   # BR(chi^0_4 -> ~nu^*_tau nu_tau)
     1.31325872E-01    2     1000024       -24   # BR(chi^0_4 -> chi^+_1 W^-)
     1.31325872E-01    2    -1000024        24   # BR(chi^0_4 -> chi^-_1 W^+)
     1.83424476E-04    2     1000022        23   # BR(chi^0_4 -> chi^0_1 Z)
     1.92246161E-03    2     1000023        23   # BR(chi^0_4 -> chi^0_2 Z)
     1.00479566E-01    2     1000025        23   # BR(chi^0_4 -> chi^0_3 Z)
     1.77142703E-03    2     1000022        25   # BR(chi^0_4 -> chi^0_1 h^0)
     1.02085914E-01    2     1000023        25   # BR(chi^0_4 -> chi^0_2 h^0)
     7.81942057E-04    2     1000025        25   # BR(chi^0_4 -> chi^0_3 h^0)
     6.09872538E-10    2     1000039        22   # BR(chi^0_4 -> ~G photon)
     2.64101785E-09    2     1000039        23   # BR(chi^0_4 -> ~G Z)
     1.42084640E-10    2     1000039        25   # BR(chi^0_4 -> ~G h^0)
     2.20925173E-07    2     1000022        22   # BR(chi^0_4 -> chi^0_1 photon)
     9.13382586E-07    2     1000023        22   # BR(chi^0_4 -> chi^0_2 photon)
     8.36053406E-07    2     1000025        22   # BR(chi^0_4 -> chi^0_3 photon)
#    BR                NDA      ID1      ID2       ID3
     3.57710700E-08    3     1000022         2        -2   # BR(chi^0_4 -> chi^0_1 u u_bar)
     3.57675136E-08    3     1000022         4        -4   # BR(chi^0_4 -> chi^0_1 c c_bar)
     1.32223612E-06    3     1000022         6        -6   # BR(chi^0_4 -> chi^0_1 t t_bar)
     4.54582002E-08    3     1000022         1        -1   # BR(chi^0_4 -> chi^0_1 d d_bar)
     4.54573734E-08    3     1000022         3        -3   # BR(chi^0_4 -> chi^0_1 s s_bar)
     5.11072866E-08    3     1000022         5        -5   # BR(chi^0_4 -> chi^0_1 b b_bar)
     5.91277031E-08    3     1000022        11       -11   # BR(chi^0_4 -> chi^0_1 e^- e^+)
     5.90484116E-08    3     1000022        13       -13   # BR(chi^0_4 -> chi^0_1 mu^- mu^+)
     1.12535544E-07    3     1000022        15       -15   # BR(chi^0_4 -> chi^0_1 tau^- tau^+)
     2.87043603E-09    3     1000023         2        -2   # BR(chi^0_4 -> chi^0_2 u u_bar)
     2.86824359E-09    3     1000023         4        -4   # BR(chi^0_4 -> chi^0_2 c c_bar)
     2.13834253E-09    3     1000023         1        -1   # BR(chi^0_4 -> chi^0_2 d d_bar)
     2.38018899E-09    3     1000023         3        -3   # BR(chi^0_4 -> chi^0_2 s s_bar)
     5.70003548E-07    3     1000023         5        -5   # BR(chi^0_4 -> chi^0_2 b b_bar)
     1.06384531E-06    3     1000023        11       -11   # BR(chi^0_4 -> chi^0_2 e^- e^+)
     1.07101696E-06    3     1000023        13       -13   # BR(chi^0_4 -> chi^0_2 mu^- mu^+)
     2.92122170E-06    3     1000023        15       -15   # BR(chi^0_4 -> chi^0_2 tau^- tau^+)
     1.12205313E-06    3     1000023        12       -12   # BR(chi^0_4 -> chi^0_2 nu_e nu_bar_e)
     5.30352599E-12    3     1000025         2        -2   # BR(chi^0_4 -> chi^0_3 u u_bar)
     5.70613838E-12    3     1000025         4        -4   # BR(chi^0_4 -> chi^0_3 c c_bar)
     1.00953214E-11    3     1000025         1        -1   # BR(chi^0_4 -> chi^0_3 d d_bar)
     2.20479713E-10    3     1000025         3        -3   # BR(chi^0_4 -> chi^0_3 s s_bar)
     4.91789398E-07    3     1000025         5        -5   # BR(chi^0_4 -> chi^0_3 b b_bar)
     6.35106619E-10    3     1000025        11       -11   # BR(chi^0_4 -> chi^0_3 e^- e^+)
     5.36764733E-09    3     1000025        13       -13   # BR(chi^0_4 -> chi^0_3 mu^- mu^+)
     1.24444708E-06    3     1000025        15       -15   # BR(chi^0_4 -> chi^0_3 tau^- tau^+)
     1.09774494E-08    3     1000025        12       -12   # BR(chi^0_4 -> chi^0_3 nu_e nu_bar_e)
     1.81937420E-09    3     1000024         1        -2   # BR(chi^0_4 -> chi^+_1 d u_bar)
     1.81937420E-09    3    -1000024        -1         2   # BR(chi^0_4 -> chi^-_1 d_bar u)
     2.12689900E-09    3     1000024         3        -4   # BR(chi^0_4 -> chi^+_1 s c_bar)
     2.12689900E-09    3    -1000024        -3         4   # BR(chi^0_4 -> chi^-_1 s_bar c)
     1.11261998E-05    3     1000024         5        -6   # BR(chi^0_4 -> chi^+_1 b t_bar)
     1.11261998E-05    3    -1000024        -5         6   # BR(chi^0_4 -> chi^-_1 b_bar t)
     6.68461739E-07    3     1000024        11       -12   # BR(chi^0_4 -> chi^+_1 e^- nu_bar_e)
     6.68461739E-07    3    -1000024       -11        12   # BR(chi^0_4 -> chi^-_1 e^+ nu_e)
     6.75259421E-07    3     1000024        13       -14   # BR(chi^0_4 -> chi^+_1 mu^- nu_bar_mu)
     6.75259421E-07    3    -1000024       -13        14   # BR(chi^0_4 -> chi^-_1 mu^+ nu_mu)
     2.22379306E-06    3     1000024        15       -16   # BR(chi^0_4 -> chi^+_1 tau^- nu_bar_tau)
     2.22379306E-06    3    -1000024       -15        16   # BR(chi^0_4 -> chi^-_1 tau^+ nu_tau)
DECAY   1000021     1.44516669E+01   # ~g
#    BR                NDA      ID1      ID2
     4.36381879E-02    2     2000002        -2   # BR(~g -> ~u_R u_bar)
     4.36381879E-02    2    -2000002         2   # BR(~g -> ~u^*_R u)
     1.15242960E-02    2     1000002        -2   # BR(~g -> ~u_L u_bar)
     1.15242960E-02    2    -1000002         2   # BR(~g -> ~u^*_L u)
     4.36380767E-02    2     2000004        -4   # BR(~g -> ~c_R c_bar)
     4.36380767E-02    2    -2000004         4   # BR(~g -> ~c^*_R c)
     1.15267863E-02    2     1000004        -4   # BR(~g -> ~c_L c_bar)
     1.15267863E-02    2    -1000004         4   # BR(~g -> ~c^*_L c)
     4.73608793E-03    2     1000006        -4   # BR(~g -> ~t_1 c_bar)
     4.73608793E-03    2    -1000006         4   # BR(~g -> ~t^*_1 c)
     1.10288274E-01    2     1000006        -6   # BR(~g -> ~t_1 t_bar)
     1.10288274E-01    2    -1000006         6   # BR(~g -> ~t^*_1 t)
     3.30651846E-02    2     2000006        -6   # BR(~g -> ~t_2 t_bar)
     3.30651846E-02    2    -2000006         6   # BR(~g -> ~t^*_2 t)
     4.72514537E-02    2     2000001        -1   # BR(~g -> ~d_R d_bar)
     4.72514537E-02    2    -2000001         1   # BR(~g -> ~d^*_R d)
     1.12454442E-02    2     1000001        -1   # BR(~g -> ~d_L d_bar)
     1.12454442E-02    2    -1000001         1   # BR(~g -> ~d^*_L d)
     4.72626416E-02    2     2000003        -3   # BR(~g -> ~s_R s_bar)
     4.72626416E-02    2    -2000003         3   # BR(~g -> ~s^*_R s)
     1.12483332E-02    2     1000003        -3   # BR(~g -> ~s_L s_bar)
     1.12483332E-02    2    -1000003         3   # BR(~g -> ~s^*_L s)
     7.70730484E-02    2     1000005        -5   # BR(~g -> ~b_1 b_bar)
     7.70730484E-02    2    -1000005         5   # BR(~g -> ~b^*_1 b)
     4.73374898E-02    2     2000005        -5   # BR(~g -> ~b_2 b_bar)
     4.73374898E-02    2    -2000005         5   # BR(~g -> ~b^*_2 b)
     2.31678237E-06    2     1000022        21   # BR(~g -> chi^0_1 g)
     1.37260120E-04    2     1000023        21   # BR(~g -> chi^0_2 g)
     1.69954945E-04    2     1000025        21   # BR(~g -> chi^0_3 g)
     1.98589520E-05    2     1000035        21   # BR(~g -> chi^0_4 g)
DECAY        25     2.55286649E-03   # h^0
#    BR                NDA      ID1      ID2
     1.01109497E-08    2          11       -11   # BR(h^0 -> e^- e^+)
     4.32245207E-04    2          13       -13   # BR(h^0 -> mu^- mu^+)
     1.20153578E-01    2          15       -15   # BR(h^0 -> tau^- tau^+)
     6.23092846E-07    2           1        -1   # BR(h^0 -> d d_bar)
     2.74780114E-04    2           3        -3   # BR(h^0 -> s s_bar)
     5.98493151E-01    2           5        -5   # BR(h^0 -> b b_bar)
     2.61475944E-07    2           2        -2   # BR(h^0 -> u u_bar)
     4.68497736E-02    2           4        -4   # BR(h^0 -> c c_bar)
     7.05559621E-02    2          21        21   # BR(h^0 -> g g)
     3.42911082E-03    2          22        22   # BR(h^0 -> photon photon)
# writing decays into V V* as 3-body decays
#    BR                NDA      ID1      ID2       ID3
     7.31464206E-03    3          24        11        12   # BR(h^0 -> W^+ e^- nu_e)
     7.31464206E-03    3          24        13        14   # BR(h^0 -> W^+ mu^- nu_mu)
     7.31464206E-03    3          24        15        16   # BR(h^0 -> W^+ tau^- nu_tau)
     2.56012472E-02    3          24         1        -2   # BR(h^0 -> W^+ d u_bar)
     2.56012472E-02    3          24         3        -4   # BR(h^0 -> W^+ s c_bar)
     7.31464206E-03    3         -24       -11       -12   # BR(h^0 -> W^- e^+ nu_bar_e)
     7.31464206E-03    3         -24       -13       -14   # BR(h^0 -> W^- mu^+ nu_bar_mu)
     7.31464206E-03    3         -24       -15       -16   # BR(h^0 -> W^- tau^+ nu_bar_tau)
     2.56012472E-02    3         -24        -1         2   # BR(h^0 -> W^- d_bar u)
     2.56012472E-02    3         -24        -3         4   # BR(h^0 -> W^- s_bar c)
     4.73118227E-04    3          23        11       -11   # BR(h^0 -> Z e^- e^+)
     4.73118227E-04    3          23        13       -13   # BR(h^0 -> Z mu^- mu^+)
     4.05529908E-04    3          23        15       -15   # BR(h^0 -> Z tau^- tau^+)
     2.70353272E-03    3          23        12       -12   # BR(h^0 -> Z nu_e nu_bar_e)
     1.89247291E-03    3          23         1        -1   # BR(h^0 -> Z u u_bar)
     1.89247291E-03    3          23         3        -3   # BR(h^0 -> Z c c_bar)
     1.89247291E-03    3          23         5        -5   # BR(h^0 -> Z t t_bar)
     1.89247291E-03    3          23         2        -2   # BR(h^0 -> Z u u_bar)
     1.89247291E-03    3          23         4        -4   # BR(h^0 -> Z c c_bar)
DECAY        35     1.70883609E+01   # H^0
#    BR                NDA      ID1      ID2
     1.55769514E-08    2          11       -11   # BR(H^0 -> e^- e^+)
     6.65969723E-04    2          13       -13   # BR(H^0 -> mu^- mu^+)
     1.89198375E-01    2          15       -15   # BR(H^0 -> tau^- tau^+)
     7.93727519E-07    2           1        -1   # BR(H^0 -> d d_bar)
     3.50033458E-04    2           3        -3   # BR(H^0 -> s s_bar)
     8.08203420E-01    2           5        -5   # BR(H^0 -> b b_bar)
     1.70518161E-13    2           2        -2   # BR(H^0 -> u u_bar)
     3.05588147E-08    2           4        -4   # BR(H^0 -> c c_bar)
     1.46363973E-03    2           6        -6   # BR(H^0 -> t t_bar)
     5.16787537E-07    2     2000011  -2000011   # BR(H^0 -> ~e^-_R ~e^+_R)
     5.28828760E-07    2     2000013  -2000013   # BR(H^0 -> ~mu^-_R ~mu^+_R)
     9.23786178E-06    2     1000015  -1000015   # BR(H^0 -> ~tau^-_1 ~tau^+_1)
     1.34620111E-05    2          23        23   # BR(H^0 -> Z Z)
     2.58014730E-05    2          24       -24   # BR(H^0 -> W^+ W^-)
     1.84095717E-05    2          25        25   # BR(H^0 -> h^0 h^0)
     4.97073519E-05    2          21        21   # BR(H^0 -> g g)
     5.83439847E-08    2          22        22   # BR(H^0 -> photon photon)
DECAY        36     1.70880700E+01   # A^0
#    BR                NDA      ID1      ID2
     1.55775852E-08    2          11       -11   # BR(A^0 -> e^- e^+)
     6.65996859E-04    2          13       -13   # BR(A^0 -> mu^- mu^+)
     1.89209131E-01    2          15       -15   # BR(A^0 -> tau^- tau^+)
     7.93759480E-07    2           1        -1   # BR(A^0 -> d d_bar)
     3.50047518E-04    2           3        -3   # BR(A^0 -> s s_bar)
     8.08247530E-01    2           5        -5   # BR(A^0 -> b b_bar)
     1.52377870E-13    2           2        -2   # BR(A^0 -> u u_bar)
     2.73078599E-08    2           4        -4   # BR(A^0 -> c c_bar)
     1.48389807E-03    2           6        -6   # BR(A^0 -> t t_bar)
     2.50063188E-05    2          25        23   # BR(A^0 -> h^0 Z)
     1.75126075E-05    2          21        21   # BR(A^0 -> g g)
     4.10348865E-08    2          22        22   # BR(A^0 -> photon photon)
DECAY        37     1.46211229E+01   # H^+
#    BR                NDA      ID1      ID2
     1.82932721E-08    2         -11        12   # BR(H^+ -> e^+ nu_e)
     7.82102078E-04    2         -13        12   # BR(H^+ -> mu^+ nu_e)
     2.22194540E-01    2         -15        12   # BR(H^+ -> tau^+ nu_e)
     8.22269481E-07    2          -1         2   # BR(H^+ -> d_bar u)
     3.62647162E-04    2          -3         4   # BR(H^+ -> s_bar c)
     7.76630809E-01    2          -5         6   # BR(H^+ -> b_bar t)
     2.90611769E-05    2          25        24   # BR(H^+ -> h^0 W^+)
DECAY         6     2.43000000E+00   # top
#    BR                NDA      ID1      ID2
     1.00000000E+00    2           5        24   # BR(t -> b W)
Block HiggsBoundsInputHiggsCouplingsFermions
# ScalarNormEffCoupSq PseudoSNormEffCoupSq NP IP1 IP2 IP2
    1.11900979E+00    0.00000000E+00        3  25   5   5  # h0-b-b eff. coupling^2, normalised to SM
    1.59988099E+03    0.00000000E+00        3  35   5   5  # H0-b-b eff. coupling^2, normalised to SM
    0.00000000E+00    1.60000000E+03        3  36   5   5  # A0-b-b eff. coupling^2, normalised to SM
#
    9.99925619E-01    0.00000000E+00        3  25   6   6  # h0-t-t eff. coupling^2, normalised to SM
    6.99381118E-04    0.00000000E+00        3  35   6   6  # H0-t-t eff. coupling^2, normalised to SM
    0.00000000E+00    6.25000000E-04        3  36   6   6  # A0-t-t eff. coupling^2, normalised to SM
#
    1.11900979E+00    0.00000000E+00        3  25  15  15  # h0-tau-tau eff. coupling^2, normalised to SM
    1.59988099E+03    0.00000000E+00        3  35  15  15  # H0-tau-tau eff. coupling^2, normalised to SM
    0.00000000E+00    1.60000000E+03        3  36  15  15  # A0-tau-tau eff. coupling^2, normalised to SM
#
Block HiggsBoundsInputHiggsCouplingsBosons
    9.99997910E-01        3  25  24  24  # h0-W-W eff. coupling^2, normalised to SM
    2.09045585E-06        3  35  24  24  # H0-W-W eff. coupling^2, normalised to SM
    0.00000000E+00        3  36  24  24  # A0-W-W eff. coupling^2, normalised to SM
#
    9.99997910E-01        3  25  23  23  # h0-Z-Z eff. coupling^2, normalised to SM
    2.09045585E-06        3  35  23  23  # H0-Z-Z eff. coupling^2, normalised to SM
    0.00000000E+00        3  36  23  23  # A0-Z-Z eff. coupling^2, normalised to SM
#
    1.16101141E+00        3  25  21  21  # h0-g-g eff. coupling^2, normalised to SM
    2.48152826E-02        3  35  21  21  # H0-g-g eff. coupling^2, normalised to SM
    1.62241501E-01        3  36  21  21  # A0-g-g eff. coupling^2, normalised to SM
#
    0.00000000E+00        3  25  25  23  # h0-h0-Z eff. coupling^2, normalised to SM
    0.00000000E+00        3  35  25  23  # H0-h0-Z eff. coupling^2, normalised to SM
    2.09045585E-06        3  36  25  23  # A0-h0-Z eff. coupling^2, normalised to SM
    0.00000000E+00        3  35  35  23  # H0-H0-Z eff. coupling^2, normalised to SM
    9.99997910E-01        3  36  35  23  # A0-H0-Z eff. coupling^2, normalised to SM
    0.00000000E+00        3  36  36  23  # A0-A0-Z eff. coupling^2, normalised to SM
#
    0.00000000E+00        4  25  21  21  23  # h0-g-g-Z eff. coupling^2, normalised to SM
    0.00000000E+00        4  35  21  21  23  # H0-g-g-Z eff. coupling^2, normalised to SM
    0.00000000E+00        4  36  21  21  23  # A0-g-g-Z eff. coupling^2, normalised to SM
Block SPhenoLowEnergy  # low energy observables
    1    3.15505304E-04   # BR(b -> s gamma)
    2    1.58995762E-06   # BR(b -> s mu+ mu-)
    3    3.53896462E-05   # BR(b -> s nu nu)
    4    5.32689762E-11   # BR(Bd -> mu+ mu-)
    5    3.48556851E-09   # BR(Bs -> mu+ mu-)
    6    1.02743222E-04   # BR(B_u -> tau nu)
    7    9.29018297E-01   # BR(B_u -> tau nu)/BR(B_u -> tau nu)_SM
    8    2.73611678E-01   # |Delta(M_Bd)| [ps^-1] 
    9    2.02830449E+01   # |Delta(M_Bs)| [ps^-1] 
   20    2.96574677E-14   # Delta(g-2)_electron/2
   21    6.42809193E-10   # Delta(g-2)_muon/2
   22    5.57429336E-08   # Delta(g-2)_tau/2
   23    0.00000000E+00   # electric dipole moment of the electron
   24    0.00000000E+00   # electric dipole moment of the muon
   25    0.00000000E+00   # electric dipole moment of the tau
   26    0.00000000E+00   # Br(mu -> e gamma)
   27    0.00000000E+00   # Br(tau -> e gamma)
   28    0.00000000E+00   # Br(tau -> mu gamma)
   29    0.00000000E+00   # Br(mu -> 3 e)
   30    0.00000000E+00   # Br(tau -> 3 e)
   31    0.00000000E+00   # Br(tau -> 3 mu)
   39    1.11554136E-03   # Delta(rho_parameter)
   40    0.00000000E+00   # BR(Z -> e mu)
   41    0.00000000E+00   # BR(Z -> e tau)
   42    0.00000000E+00   # BR(Z -> mu tau)
Block FWCOEF Q=  9.11876000E+01  # Wilson coefficients at scale Q
#    id        order  M        value         comment
Block FWCOEF Q=  1.60000000E+02  # Wilson coefficients at scale Q
#    id        order  M        value         comment
     0305 4422   00   0    -1.87761923E-01   # C7
     0305 4422   00   1    -1.58808047E-02   # C7
     0305 4322   00   1    -3.41932965E-04   # C7'
     0305 6421   00   0    -9.48908243E-02   # C8
     0305 6421   00   1    -2.61610944E-02   # C8
     0305 6321   00   1    -5.57382577E-04   # C8'
 03051111 4133   00   0    -1.18492715E+00   # C9 e+e-
 03051111 4133   00   1     9.38607261E-04   # C9 e+e-
 03051111 4233   00   1    -7.16217649E-05   # C9' e+e-
 03051111 4137   00   0    -3.95193493E+00   # C10 e+e-
 03051111 4137   00   1     3.24328339E-03   # C10 e+e-
 03051111 4237   00   1     1.79304144E-03   # C10' e+e-
 03051313 4133   00   0    -1.18492715E+00   # C9 mu+mu-
 03051313 4133   00   1     9.38404852E-04   # C9 mu+mu-
 03051313 4233   00   1    -7.16422073E-05   # C9' mu+mu-
 03051313 4137   00   0    -3.95193493E+00   # C10 mu+mu-
 03051313 4137   00   1     3.24308070E-03   # C10 mu+mu-
 03051313 4237   00   1     1.79306188E-03   # C10' mu+mu-
 03051212 4237   00   0     1.49021069E+00   # C11 nu_1 nu_1
 03051212 4237   00   1    -7.80543269E-04   # C11 nu_1 nu_1
 03051212 4137   00   1    -4.30490863E-04   # C11' nu_1 nu_1
 03051414 4237   00   0     1.49021069E+00   # C11 nu_2 nu_2
 03051414 4237   00   1    -7.80543124E-04   # C11 nu_2 nu_2
 03051414 4137   00   1    -4.30485989E-04   # C11' nu_2 nu_2
 03051616 4237   00   0     1.49021069E+00   # C11 nu_3 nu_3
 03051616 4237   00   1    -7.80466811E-04   # C11 nu_3 nu_3
 03051616 4137   00   1    -4.29112167E-04   # C11' nu_3 nu_3
