# SUSY Les Houches Accord 2 - MSSM spectrum + Decays
# SPheno v3.1.12 
# W. Porod, Comput. Phys. Commun. 153 (2003) 275-315, hep-ph/0301101
# in case of problems send email to porod@physik.uni-wuerzburg.de
# Created: 09.12.2016,  15:23
Block SPINFO         # Program information
     1   SPheno      # spectrum calculator
     2   v3.1.12     # version number
#
Block SPhenoINFO     # SPheno specific information
    1      2         # using 2-loop RGEs
    2      1         # using running masses for boundary conditions at mZ
Block MODSEL  # Model selection
    1    2    # mGMSB model
Block MINPAR  # Input parameters
    1    1.40000000E+05  # Lambda, scale of SUSY breaking
    2    2.50000000E+05  # M_M, messenger mass scale
    3    1.50000000E+01  # tanb at m_Z   
    4    1.00000000E+00  # Sign(mu)
    5    3.00000000E+00  # N_5 number of effective five-plets
    6    1.00000000E+00  # c_grav, Gravitino mass factor
Block gauge Q=  2.50000000E+05  # (GMSB scale)
   1    4.93037080E-01  # g'(Q)^DRbar
   2    6.46809020E-01  # g(Q)^DRbar
   3    9.33464766E-01  # g3(Q)^DRbar
Block SMINPUTS  # SM parameters
         1     1.27932472E+02  # alpha_em^-1(MZ)^MSbar
         2     1.16639000E-05  # G_mu [GeV^-2]
         3     1.17200000E-01  # alpha_s(MZ)^MSbar
         4     9.11876000E+01  # m_Z(pole)
         5     4.20000000E+00  # m_b(m_b), MSbar
         6     1.72500000E+02  # m_t(pole)
         7     1.77700000E+00  # m_tau(pole)
         8     0.00000000E+00  # m_nu_3
        11     5.10998910E-04  # m_e(pole)
        12     0.00000000E+00  # m_nu_1
        13     1.05658000E-01  # m_muon(pole)
        14     0.00000000E+00  # m_nu_2
        21     5.00000000E-03  # m_d(2 GeV), MSbar
        22     3.00000000E-03  # m_u(2 GeV), MSbar
        23     1.05000000E-01  # m_s(2 GeV), MSbar
        24     1.27000000E+00  # m_c(m_c), MSbar
Block gauge Q=  2.64276138E+03  # (SUSY scale)
   1    3.65135181E-01  # g'(Q)^DRbar
   2    6.37764005E-01  # g(Q)^DRbar
   3    1.01008549E+00  # g3(Q)^DRbar
Block Yu Q=  2.64276138E+03  # (SUSY scale)
  1  1     8.31328728E-06   # Y_u(Q)^DRbar
  2  2     3.51929208E-03   # Y_c(Q)^DRbar
  3  3     8.35947743E-01   # Y_t(Q)^DRbar
Block Yd Q=  2.64276138E+03  # (SUSY scale)
  1  1     1.89690950E-04   # Y_d(Q)^DRbar
  2  2     3.98350898E-03   # Y_s(Q)^DRbar
  3  3     1.88051963E-01   # Y_b(Q)^DRbar
Block Ye Q=  2.64276138E+03  # (SUSY scale)
  1  1     4.32268153E-05   # Y_e(Q)^DRbar
  2  2     8.93791219E-03   # Y_mu(Q)^DRbar
  3  3     1.50363776E-01   # Y_tau(Q)^DRbar
Block Au Q=  2.64276138E+03  # (SUSY scale)
  1  1    -8.02199747E+02   # A_u(Q)^DRbar
  2  2    -8.02198654E+02   # A_c(Q)^DRbar
  3  3    -7.58876720E+02   # A_t(Q)^DRbar
Block Ad Q=  2.64276138E+03  # (SUSY scale)
  1  1    -8.49702715E+02   # A_d(Q)^DRbar
  2  2    -8.49701458E+02   # A_s(Q)^DRbar
  3  3    -8.33610770E+02   # A_b(Q)^DRbar
Block Ae Q=  2.64276138E+03  # (SUSY scale)
  1  1    -9.40344836E+01   # A_e(Q)^DRbar
  2  2    -9.40337580E+01   # A_mu(Q)^DRbar
  3  3    -9.38292037E+01   # A_tau(Q)^DRbar
Block MSOFT Q=  2.64276138E+03  # soft SUSY breaking masses at Q
   1    6.22807948E+02  # M_1
   2    1.13644385E+03  # M_2
   3    2.86258878E+03  # M_3
  21    6.82894830E+05  # M^2_(H,d)
  22   -6.44690912E+05  # M^2_(H,u)
  31    8.69899752E+02  # M_(L,11)
  32    8.69895791E+02  # M_(L,22)
  33    8.68778457E+02  # M_(L,33)
  34    4.22841181E+02  # M_(E,11)
  35    4.22824593E+02  # M_(E,22)
  36    4.18121375E+02  # M_(E,33)
  41    2.74199678E+03  # M_(Q,11)
  42    2.74199354E+03  # M_(Q,22)
  43    2.65895812E+03  # M_(Q,33)
  44    2.62795970E+03  # M_(U,11)
  45    2.62795675E+03  # M_(U,22)
  46    2.45752949E+03  # M_(U,33)
  47    2.61678765E+03  # M_(D,11)
  48    2.61678377E+03  # M_(D,22)
  49    2.60816621E+03  # M_(D,33)
Block MASS  # Mass spectrum
#   PDG code      mass          particle
         6     1.72500000E+02  # m_t(pole)
        23     9.11876000E+01  # m_Z(pole)
        24     8.03140564E+01  # W+
        15     1.77700000E+00  # m_tau(pole)
        25     1.20165792E+02  # h0
        35     1.23397538E+03  # H0
        36     1.23383075E+03  # A0
        37     1.23671000E+03  # H+
   1000001     2.85510274E+03  # ~d_L
   2000001     2.72313579E+03  # ~d_R
   1000002     2.85398961E+03  # ~u_L
   2000002     2.73352846E+03  # ~u_R
   1000003     2.85509888E+03  # ~s_L
   2000003     2.72313090E+03  # ~s_R
   1000004     2.85398582E+03  # ~c_L
   2000004     2.73352487E+03  # ~c_R
   1000005     2.71167655E+03  # ~b_1
   2000005     2.75491185E+03  # ~b_2
   1000006     2.53029778E+03  # ~t_1
   2000006     2.76021935E+03  # ~t_2
   1000011     8.89548214E+02  # ~e_L-
   2000011     4.40116281E+02  # ~e_R-
   1000012     8.85601276E+02  # ~nu_eL
   1000013     8.89544475E+02  # ~mu_L-
   2000013     4.40091497E+02  # ~mu_R-
   1000014     8.85595608E+02  # ~nu_muL
   1000015     4.33060742E+02  # ~tau_1-
   2000015     8.88488643E+02  # ~tau_2-
   1000016     8.83998983E+02  # ~nu_tauL
   1000021     3.00186450E+03  # ~g
   1000022     6.05719035E+02  # ~chi_10
   1000023     8.95821703E+02  # ~chi_20
   1000025    -9.06477687E+02  # ~chi_30
   1000035     1.17438085E+03  # ~chi_40
   1000024     8.93222855E+02  # ~chi_1+
   1000037     1.17455212E+03  # ~chi_2+
   1000039     8.40000000E-09  # ~G
# Higgs mixing
Block alpha # Effective Higgs mixing angle
          -7.07645074E-02   # alpha
Block Hmix Q=  2.64276138E+03  # Higgs mixing parameters
   1    8.93017999E+02  # mu
   2    1.43206154E+01  # tan[beta](Q)
   3    2.43500972E+02  # v(Q)
   4    1.33259068E+06  # m^2_A(Q)
Block stopmix # stop mixing matrix
   1  1     1.18654523E-01   # Re[R_st(1,1)]
   1  2     9.92935599E-01   # Re[R_st(1,2)]
   2  1    -9.92935599E-01   # Re[R_st(2,1)]
   2  2     1.18654523E-01   # Re[R_st(2,2)]
Block sbotmix # sbottom mixing matrix
   1  1     1.42174207E-01   # Re[R_sb(1,1)]
   1  2     9.89841651E-01   # Re[R_sb(1,2)]
   2  1    -9.89841651E-01   # Re[R_sb(2,1)]
   2  2     1.42174207E-01   # Re[R_sb(2,2)]
Block staumix # stau mixing matrix
   1  1     3.95488452E-02   # Re[R_sta(1,1)]
   1  2     9.99217638E-01   # Re[R_sta(1,2)]
   2  1    -9.99217638E-01   # Re[R_sta(2,1)]
   2  2     3.95488452E-02   # Re[R_sta(2,2)]
Block Nmix # neutralino mixing matrix
   1  1    -9.93177503E-01   # Re[N(1,1)]
   1  2     1.03256276E-02   # Re[N(1,2)]
   1  3    -9.47307721E-02   # Re[N(1,3)]
   1  4     6.72154029E-02   # Re[N(1,4)]
   2  1    -1.14156340E-01   # Re[N(2,1)]
   2  2    -2.14620525E-01   # Re[N(2,2)]
   2  3     6.88953115E-01   # Re[N(2,3)]
   2  4    -6.82824989E-01   # Re[N(2,4)]
   3  1    -1.91846640E-02   # Re[N(3,1)]
   3  2     2.51181242E-02   # Re[N(3,2)]
   3  3     7.05929087E-01   # Re[N(3,3)]
   3  4     7.07576959E-01   # Re[N(3,4)]
   4  1    -1.40970497E-02   # Re[N(4,1)]
   4  2     9.76319872E-01   # Re[N(4,2)]
   4  3     1.34290024E-01   # Re[N(4,3)]
   4  4    -1.69017665E-01   # Re[N(4,4)]
Block Umix # chargino mixing matrix
   1  1    -1.90083542E-01   # Re[U(1,1)]
   1  2     9.81767919E-01   # Re[U(1,2)]
   2  1     9.81767919E-01   # Re[U(2,1)]
   2  2     1.90083542E-01   # Re[U(2,2)]
Block Vmix # chargino mixing matrix
   1  1    -2.39111837E-01   # Re[V(1,1)]
   1  2     9.70992034E-01   # Re[V(1,2)]
   2  1     9.70992034E-01   # Re[V(2,1)]
   2  2     2.39111837E-01   # Re[V(2,2)]
DECAY   2000011     2.77180068E-10   # ~e^-_R
#    BR                NDA      ID1      ID2
     9.67540678E-01    2     1000039        11   # BR(~e^-_R -> ~G e^-)
#    BR                NDA      ID1      ID2       ID3
     6.95032406E-03    3     1000015        11       -15   # BR(~e^-_R -> ~tau^-_1 e^- tau^+)
     2.55089978E-02    3    -1000015        11        15   # BR(~e^-_R -> ~tau^+_1 e^- tau^-)
DECAY   1000011     3.22690906E-01   # ~e^-_L
#    BR                NDA      ID1      ID2
     9.99999897E-01    2     1000022        11   # BR(~e^-_L -> chi^0_1 e^-)
     3.70852039E-08    2     2000011        23   # BR(~e^-_L -> ~e^-_R Z)
     3.77814401E-08    2     2000011        25   # BR(~e^-_L -> ~e^-_R h^0)
     2.80320455E-08    2     1000039        11   # BR(~e^-_L -> ~G e^-)
DECAY   2000013     2.76905627E-10   # ~mu^-_R
#    BR                NDA      ID1      ID2
     9.68226719E-01    2     1000039        13   # BR(~mu^-_R -> ~G mu^-)
#    BR                NDA      ID1      ID2       ID3
     6.80252774E-03    3     1000015        13       -15   # BR(~mu^-_R -> ~tau^-_1 mu^- tau^+)
     2.49707534E-02    3    -1000015        13        15   # BR(~mu^-_R -> ~tau^+_1 mu^- tau^-)
DECAY   1000013     3.23721425E-01   # ~mu^-_L
#    BR                NDA      ID1      ID2
     9.96809301E-01    2     1000022        13   # BR(~mu^-_L -> chi^0_1 mu^-)
     1.58051600E-03    2     2000013        23   # BR(~mu^-_L -> ~mu^-_R Z)
     1.61015499E-03    2     2000013        25   # BR(~mu^-_L -> ~mu^-_R h^0)
     2.79422209E-08    2     1000039        13   # BR(~mu^-_L -> ~G mu^-)
DECAY   1000015     2.47348275E-10   # ~tau^-_1
#    BR                NDA      ID1      ID2
     1.00000000E+00    2     1000039        15   # BR(~tau^-_1 -> ~G tau^-)
DECAY   2000015     6.16750032E-01   # ~tau^-_2
#    BR                NDA      ID1      ID2
     5.22108409E-01    2     1000022        15   # BR(~tau^-_2 -> chi^0_1 tau^-)
     2.37418758E-01    2     1000015        23   # BR(~tau^-_2 -> ~tau^-_1 Z)
     2.40472818E-01    2     1000015        25   # BR(~tau^-_2 -> ~tau^-_1 h^0)
     1.45793221E-08    2     1000039        15   # BR(~tau^-_2 -> ~G tau^-)
DECAY   1000012     3.40150016E-01   # ~nu_e
#    BR                NDA      ID1      ID2
     9.99999906E-01    2     1000022        12   # BR(~nu_e -> chi^0_1 nu_e)
     6.78378046E-08    2     2000011        24   # BR(~nu_e -> ~e^-_R W^+)
     2.60084654E-08    2     1000039        12   # BR(~nu_e -> ~G nu_e)
DECAY   1000014     3.41126720E-01   # ~nu_mu
#    BR                NDA      ID1      ID2
     9.97107916E-01    2     1000022        14   # BR(~nu_mu -> chi^0_1 nu_mu)
     2.89205787E-03    2     2000013        24   # BR(~nu_mu -> ~mu^-_R W^+)
     2.59331689E-08    2     1000039        14   # BR(~nu_mu -> ~G nu_mu)
DECAY   1000016     6.19269358E-01   # ~nu_tau
#    BR                NDA      ID1      ID2
     5.44790703E-01    2     1000022        16   # BR(~nu_tau -> chi^0_1 nu_tau)
     4.55209283E-01    2     1000015        24   # BR(~nu_tau -> ~tau^-_1 W^+)
     1.41570672E-08    2     1000039        16   # BR(~nu_tau -> ~G nu_tau)
DECAY   2000001     1.44777041E+00   # ~d_R
#    BR                NDA      ID1      ID2
     9.88037800E-01    2     1000022         1   # BR(~d_R -> chi^0_1 d)
     1.14902896E-02    2     1000023         1   # BR(~d_R -> chi^0_2 d)
     3.23145906E-04    2     1000025         1   # BR(~d_R -> chi^0_3 d)
     1.45987971E-04    2     1000035         1   # BR(~d_R -> chi^0_4 d)
     1.09526027E-06    2    -1000024         2   # BR(~d_R -> chi^-_1 u)
     1.49465633E-09    2    -1000037         2   # BR(~d_R -> chi^-_2 u)
     1.67973532E-06    2     1000039         1   # BR(~d_R -> ~G d)
DECAY   1000001     2.44681440E+01   # ~d_L
#    BR                NDA      ID1      ID2
     1.71993758E-02    2     1000022         1   # BR(~d_L -> chi^0_1 d)
     1.42690699E-02    2     1000023         1   # BR(~d_L -> chi^0_2 d)
     3.16198561E-04    2     1000025         1   # BR(~d_L -> chi^0_3 d)
     3.12333677E-01    2     1000035         1   # BR(~d_L -> chi^0_4 d)
     2.77646576E-02    2    -1000024         2   # BR(~d_L -> chi^-_1 u)
     6.28116895E-01    2    -1000037         2   # BR(~d_L -> chi^-_2 u)
     7.94064993E-13    2     2000002       -24   # BR(~d_L -> ~u_R W^-)
     1.74450565E-10    2     2000001        23   # BR(~d_L -> ~d_R Z)
     1.70090566E-10    2     2000001        25   # BR(~d_L -> ~d_R h^0)
     1.25922035E-07    2     1000039         1   # BR(~d_L -> ~G d)
DECAY   2000003     1.44915480E+00   # ~s_R
#    BR                NDA      ID1      ID2
     9.87102139E-01    2     1000022         3   # BR(~s_R -> chi^0_1 s)
     1.17133885E-02    2     1000023         3   # BR(~s_R -> chi^0_2 s)
     5.53469289E-04    2     1000025         3   # BR(~s_R -> chi^0_3 s)
     1.46120161E-04    2     1000035         3   # BR(~s_R -> chi^0_4 s)
     4.82546036E-04    2    -1000024         4   # BR(~s_R -> chi^-_1 c)
     6.58549597E-07    2    -1000037         4   # BR(~s_R -> chi^-_2 c)
     1.67811558E-06    2     1000039         3   # BR(~s_R -> ~G s)
DECAY   1000003     2.44693534E+01   # ~s_L
#    BR                NDA      ID1      ID2
     1.71984426E-02    2     1000022         3   # BR(~s_L -> chi^0_1 s)
     1.42818202E-02    2     1000023         3   # BR(~s_L -> chi^0_2 s)
     3.31149547E-04    2     1000025         3   # BR(~s_L -> chi^0_3 s)
     3.12318396E-01    2     1000035         3   # BR(~s_L -> chi^0_4 s)
     2.77830739E-02    2    -1000024         4   # BR(~s_L -> chi^-_1 c)
     6.28086698E-01    2    -1000037         4   # BR(~s_L -> chi^-_2 c)
     1.42296707E-07    2     2000004       -24   # BR(~s_L -> ~c_R W^-)
     7.69312487E-08    2     2000003        23   # BR(~s_L -> ~s_R Z)
     7.50095219E-08    2     2000003        25   # BR(~s_L -> ~s_R h^0)
     1.25914958E-07    2     1000039         3   # BR(~s_L -> ~G s)
DECAY   1000005     5.41603358E+00   # ~b_1
#    BR                NDA      ID1      ID2
     2.73490003E-01    2     1000022         5   # BR(~b_1 -> chi^0_1 b)
     1.56296555E-01    2     1000023         5   # BR(~b_1 -> chi^0_2 b)
     1.33862304E-01    2     1000025         5   # BR(~b_1 -> chi^0_3 b)
     9.39089007E-03    2     1000035         5   # BR(~b_1 -> chi^0_4 b)
     4.00661348E-01    2    -1000024         6   # BR(~b_1 -> chi^-_1 t)
     2.52747651E-02    2    -1000037         6   # BR(~b_1 -> chi^-_2 t)
     1.02369615E-03    2     1000006       -24   # BR(~b_1 -> ~t_1 W^-)
     4.39640778E-07    2     1000039         5   # BR(~b_1 -> ~G b)
DECAY   2000005     5.41477086E+01   # ~b_2
#    BR                NDA      ID1      ID2
     6.92961134E-03    2     1000022         5   # BR(~b_2 -> chi^0_1 b)
     1.75880552E-02    2     1000023         5   # BR(~b_2 -> chi^0_2 b)
     1.47991606E-02    2     1000025         5   # BR(~b_2 -> chi^0_3 b)
     1.32030694E-01    2     1000035         5   # BR(~b_2 -> chi^0_4 b)
     5.19673660E-01    2    -1000024         6   # BR(~b_2 -> chi^-_1 t)
     2.98568407E-01    2    -1000037         6   # BR(~b_2 -> chi^-_2 t)
     1.04103635E-02    2     1000006       -24   # BR(~b_2 -> ~t_1 W^-)
     4.75935907E-08    2     1000039         5   # BR(~b_2 -> ~G b)
DECAY   2000002     5.81783145E+00   # ~u_R
#    BR                NDA      ID1      ID2
     9.88028489E-01    2     1000022         2   # BR(~u_R -> chi^0_1 u)
     1.15017334E-02    2     1000023         2   # BR(~u_R -> chi^0_2 u)
     3.22973772E-04    2     1000025         2   # BR(~u_R -> chi^0_3 u)
     1.46377030E-04    2     1000035         2   # BR(~u_R -> chi^0_4 u)
     5.29693228E-10    2     1000024         1   # BR(~u_R -> chi^+_1 d)
     1.84051106E-12    2     1000037         1   # BR(~u_R -> chi^+_2 d)
     4.26040532E-07    2     1000039         2   # BR(~u_R -> ~G u)
DECAY   1000002     2.45171446E+01   # ~u_L
#    BR                NDA      ID1      ID2
     1.37946802E-02    2     1000022         2   # BR(~u_L -> chi^0_1 u)
     2.13909356E-02    2     1000023         2   # BR(~u_L -> chi^0_2 u)
     1.75295593E-04    2     1000025         2   # BR(~u_L -> chi^0_3 u)
     3.08074451E-01    2     1000035         2   # BR(~u_L -> chi^0_4 u)
     4.38222230E-02    2     1000024         1   # BR(~u_L -> chi^+_1 d)
     6.12742289E-01    2     1000037         1   # BR(~u_L -> chi^+_2 d)
     4.29639434E-10    2     2000001        24   # BR(~u_L -> ~d_R W^+)
     2.61925617E-13    2     2000002        23   # BR(~u_L -> ~u_R Z)
     4.27923625E-14    2     2000002        25   # BR(~u_L -> ~u_R h^0)
     1.25425575E-07    2     1000039         2   # BR(~u_L -> ~G u)
DECAY   2000004     5.81891514E+00   # ~c_R
#    BR                NDA      ID1      ID2
     9.87842847E-01    2     1000022         4   # BR(~c_R -> chi^0_1 c)
     1.15455105E-02    2     1000023         4   # BR(~c_R -> chi^0_2 c)
     3.69497046E-04    2     1000025         4   # BR(~c_R -> chi^0_3 c)
     1.46480650E-04    2     1000035         4   # BR(~c_R -> chi^0_4 c)
     9.49090993E-05    2     1000024         3   # BR(~c_R -> chi^+_1 s)
     3.29778209E-07    2     1000037         3   # BR(~c_R -> chi^+_2 s)
     4.25958029E-07    2     1000039         4   # BR(~c_R -> ~G c)
DECAY   1000004     2.45183558E+01   # ~c_L
#    BR                NDA      ID1      ID2
     1.37940519E-02    2     1000022         4   # BR(~c_L -> chi^0_1 c)
     2.13997727E-02    2     1000023         4   # BR(~c_L -> chi^0_2 c)
     1.86773509E-04    2     1000025         4   # BR(~c_L -> chi^0_3 c)
     3.08059783E-01    2     1000035         4   # BR(~c_L -> chi^0_4 c)
     4.38466917E-02    2     1000024         3   # BR(~c_L -> chi^+_1 s)
     6.12712557E-01    2     1000037         3   # BR(~c_L -> chi^+_2 s)
     1.89466654E-07    2     2000003        24   # BR(~c_L -> ~s_R W^+)
     4.69371808E-08    2     2000004        23   # BR(~c_L -> ~c_R Z)
     7.66585553E-09    2     2000004        25   # BR(~c_L -> ~c_R h^0)
     1.25418449E-07    2     1000039         4   # BR(~c_L -> ~G c)
DECAY   1000006     5.85137496E+01   # ~t_1
#    BR                NDA      ID1      ID2
     2.15498003E-06    2     1000022         4   # BR(~t_1 -> chi^0_1 c)
     9.14239210E-02    2     1000022         6   # BR(~t_1 -> chi^0_1 t)
     3.22798163E-06    2     1000023         4   # BR(~t_1 -> chi^0_2 c)
     2.17615977E-01    2     1000023         6   # BR(~t_1 -> chi^0_2 t)
     2.30674360E-01    2     1000025         6   # BR(~t_1 -> chi^0_3 t)
     4.04224536E-03    2     1000035         6   # BR(~t_1 -> chi^0_4 t)
     4.47950064E-01    2     1000024         5   # BR(~t_1 -> chi^+_1 b)
     8.28084666E-03    2     1000037         5   # BR(~t_1 -> chi^+_2 b)
     2.82554126E-08    2     1000039         6   # BR(~t_1 -> ~G t)
#    BR                NDA      ID1      ID2       ID3
     7.17462120E-06    3     1000022        24         5   # BR(~t_1 -> chi^0_1 W^+ b)
DECAY   2000006     5.51651651E+01   # ~t_2
#    BR                NDA      ID1      ID2
     7.02998961E-03    2     1000022         6   # BR(~t_2 -> chi^0_1 t)
     2.57224609E-01    2     1000023         6   # BR(~t_2 -> chi^0_2 t)
     2.70198190E-01    2     1000025         6   # BR(~t_2 -> chi^0_3 t)
     1.53846317E-01    2     1000035         6   # BR(~t_2 -> chi^0_4 t)
     2.92178599E-02    2     1000024         5   # BR(~t_2 -> chi^+_1 b)
     2.73134484E-01    2     1000037         5   # BR(~t_2 -> chi^+_2 b)
     5.37916765E-03    2     1000006        23   # BR(~t_2 -> ~t_1 Z)
     3.96933703E-03    2     1000006        25   # BR(~t_2 -> ~t_1 h^0)
     4.64353856E-08    2     1000039         6   # BR(~t_2 -> ~G t)
DECAY   1000024     5.59960983E-01   # chi^+_1
#    BR                NDA      ID1      ID2
     1.74751071E-08    2    -2000011        12   # BR(chi^+_1 -> ~e^+_R nu_e)
     1.57214603E-05    2    -1000011        12   # BR(chi^+_1 -> ~e^+_L nu_e)
     7.47160429E-04    2    -2000013        14   # BR(chi^+_1 -> ~mu^+_R nu_mu)
     1.57479149E-05    2    -1000013        14   # BR(chi^+_1 -> ~mu^+_L nu_mu)
     2.15359748E-01    2    -1000015        16   # BR(chi^+_1 -> ~tau^+_1 nu_tau)
     2.35752473E-05    2    -2000015        16   # BR(chi^+_1 -> ~tau^+_2 nu_tau)
     1.06546944E-04    2     1000012       -11   # BR(chi^+_1 -> ~nu_e e^+)
     1.07218736E-04    2     1000014       -13   # BR(chi^+_1 -> ~nu_mu mu^+)
     3.53461927E-04    2     1000016       -15   # BR(chi^+_1 -> ~nu_tau tau^+)
     7.82360395E-01    2     1000022        24   # BR(chi^+_1 -> chi^0_1 W^+)
#    BR                NDA      ID1      ID2       ID3
     2.87459157E-09    3     1000022        -1         2   # BR(chi^+_1 -> chi^0_1 d_bar u)
     3.04768051E-09    3     1000022        -3         4   # BR(chi^+_1 -> chi^0_1 s_bar c)
     9.04398905E-04    3     1000022        -5         6   # BR(chi^+_1 -> chi^0_1 b_bar t)
     5.15297408E-13    3     1000022       -11        12   # BR(chi^+_1 -> chi^0_1 e^+ nu_e)
     2.20272225E-08    3     1000022       -13        14   # BR(chi^+_1 -> chi^0_1 mu^+ nu_mu)
     5.97979871E-06    3     1000022       -15        16   # BR(chi^+_1 -> chi^0_1 tau^+ nu_tau)
DECAY   1000037     1.06958625E+01   # chi^+_2
#    BR                NDA      ID1      ID2
     8.87248528E-13    2    -2000011        12   # BR(chi^+_2 -> ~e^+_R nu_e)
     7.78696790E-02    2    -1000011        12   # BR(chi^+_2 -> ~e^+_L nu_e)
     3.79449280E-08    2    -2000013        14   # BR(chi^+_2 -> ~mu^+_R nu_mu)
     7.78720038E-02    2    -1000013        14   # BR(chi^+_2 -> ~mu^+_L nu_mu)
     1.17537301E-05    2    -1000015        16   # BR(chi^+_2 -> ~tau^+_1 nu_tau)
     7.85296509E-02    2    -2000015        16   # BR(chi^+_2 -> ~tau^+_2 nu_tau)
     7.79948384E-02    2     1000012       -11   # BR(chi^+_2 -> ~nu_e e^+)
     7.79978740E-02    2     1000014       -13   # BR(chi^+_2 -> ~nu_mu mu^+)
     7.88555269E-02    2     1000016       -15   # BR(chi^+_2 -> ~nu_tau tau^+)
     3.13492072E-04    2     1000022        24   # BR(chi^+_2 -> chi^0_1 W^+)
     1.38772572E-01    2     1000023        24   # BR(chi^+_2 -> chi^0_2 W^+)
     1.28237919E-01    2     1000025        24   # BR(chi^+_2 -> chi^0_3 W^+)
     1.38776469E-01    2     1000024        23   # BR(chi^+_2 -> chi^+_1 Z)
     1.24508093E-01    2     1000024        25   # BR(chi^+_2 -> chi^+_1 h^0)
#    BR                NDA      ID1      ID2       ID3
     2.58912913E-09    3     1000024         2        -2   # BR(chi^+_2 -> chi^+_1 u u_bar)
     2.58889981E-09    3     1000024         4        -4   # BR(chi^+_2 -> chi^+_1 c c_bar)
     4.01493115E-09    3     1000024         1        -1   # BR(chi^+_2 -> chi^+_1 d d_bar)
     4.08111374E-09    3     1000024         3        -3   # BR(chi^+_2 -> chi^+_1 s s_bar)
     1.56369786E-07    3     1000024         5        -5   # BR(chi^+_2 -> chi^+_1 b b_bar)
     1.59658183E-06    3     1000024        11       -11   # BR(chi^+_2 -> chi^+_1 e^- e^+)
     1.60109698E-06    3     1000024        13       -13   # BR(chi^+_2 -> chi^+_1 mu^- mu^+)
     2.77219276E-06    3     1000024        15       -15   # BR(chi^+_2 -> chi^+_1 tau^- tau^+)
     3.41215366E-06    3     1000024        12       -12   # BR(chi^+_2 -> chi^+_1 nu_e nu_bar_e)
     7.18941502E-08    3     1000022        -1         2   # BR(chi^+_2 -> chi^0_1 d_bar u)
     7.18923342E-08    3     1000022        -3         4   # BR(chi^+_2 -> chi^0_1 s_bar c)
     2.66665101E-06    3     1000022        -5         6   # BR(chi^+_2 -> chi^0_1 b_bar t)
     1.03529733E-11    3     1000022       -13        14   # BR(chi^+_2 -> chi^0_1 mu^+ nu_mu)
     3.05354819E-09    3     1000022       -15        16   # BR(chi^+_2 -> chi^0_1 tau^+ nu_tau)
     1.63881236E-09    3     1000023        -1         2   # BR(chi^+_2 -> chi^0_2 d_bar u)
     1.67143361E-09    3     1000023        -3         4   # BR(chi^+_2 -> chi^0_2 s_bar c)
     1.42019813E-04    3     1000023        -5         6   # BR(chi^+_2 -> chi^0_2 b_bar t)
     1.05095985E-06    3     1000023       -11        12   # BR(chi^+_2 -> chi^0_2 e^+ nu_e)
     1.05309461E-06    3     1000023       -13        14   # BR(chi^+_2 -> chi^0_2 mu^+ nu_mu)
     1.56343647E-06    3     1000023       -15        16   # BR(chi^+_2 -> chi^0_2 tau^+ nu_tau)
     5.42420554E-11    3     1000025        -1         2   # BR(chi^+_2 -> chi^0_3 d_bar u)
     7.84136647E-11    3     1000025        -3         4   # BR(chi^+_2 -> chi^0_3 s_bar c)
     1.01521548E-04    3     1000025        -5         6   # BR(chi^+_2 -> chi^0_3 b_bar t)
     1.61472803E-08    3     1000025       -11        12   # BR(chi^+_2 -> chi^0_3 e^+ nu_e)
     1.78331821E-08    3     1000025       -13        14   # BR(chi^+_2 -> chi^0_3 mu^+ nu_mu)
     4.78037709E-07    3     1000025       -15        16   # BR(chi^+_2 -> chi^0_3 tau^+ nu_tau)
DECAY   1000022     2.17077776E+00   # chi^0_1
#    BR                NDA      ID1      ID2
     1.62676170E-01    2     2000011       -11   # BR(chi^0_1 -> ~e^-_R e^+)
     1.62676170E-01    2    -2000011        11   # BR(chi^0_1 -> ~e^+_R e^-)
     1.62717647E-01    2     2000013       -13   # BR(chi^0_1 -> ~mu^-_R mu^+)
     1.62717647E-01    2    -2000013        13   # BR(chi^0_1 -> ~mu^+_R mu^-)
     1.74606183E-01    2     1000015       -15   # BR(chi^0_1 -> ~tau^-_1 tau^+)
     1.74606183E-01    2    -1000015        15   # BR(chi^0_1 -> ~tau^+_1 tau^-)
     4.47791336E-10    2     1000039        22   # BR(chi^0_1 -> ~G photon)
     1.32252389E-10    2     1000039        23   # BR(chi^0_1 -> ~G Z)
     3.31229222E-12    2     1000039        25   # BR(chi^0_1 -> ~G h^0)
DECAY   1000023     7.10108055E-01   # chi^0_2
#    BR                NDA      ID1      ID2
     2.50951331E-02    2     2000011       -11   # BR(chi^0_2 -> ~e^-_R e^+)
     2.50951331E-02    2    -2000011        11   # BR(chi^0_2 -> ~e^+_R e^-)
     3.89693225E-05    2     1000011       -11   # BR(chi^0_2 -> ~e^-_L e^+)
     3.89693225E-05    2    -1000011        11   # BR(chi^0_2 -> ~e^+_L e^-)
     2.53837566E-02    2     2000013       -13   # BR(chi^0_2 -> ~mu^-_R mu^+)
     2.53837566E-02    2    -2000013        13   # BR(chi^0_2 -> ~mu^+_R mu^-)
     3.91636637E-05    2     1000013       -13   # BR(chi^0_2 -> ~mu^-_L mu^+)
     3.91636637E-05    2    -1000013        13   # BR(chi^0_2 -> ~mu^+_L mu^-)
     1.08435794E-01    2     1000015       -15   # BR(chi^0_2 -> ~tau^-_1 tau^+)
     1.08435794E-01    2    -1000015        15   # BR(chi^0_2 -> ~tau^+_1 tau^-)
     1.04852481E-04    2     2000015       -15   # BR(chi^0_2 -> ~tau^-_2 tau^+)
     1.04852481E-04    2    -2000015        15   # BR(chi^0_2 -> ~tau^+_2 tau^-)
     2.92670633E-05    2     1000012       -12   # BR(chi^0_2 -> ~nu_e nu_bar_e)
     2.92670633E-05    2    -1000012        12   # BR(chi^0_2 -> ~nu^*_e nu_e)
     2.92993489E-05    2     1000014       -14   # BR(chi^0_2 -> ~nu_mu nu_bar_mu)
     2.92993489E-05    2    -1000014        14   # BR(chi^0_2 -> ~nu^*_mu nu_mu)
     3.90925719E-05    2     1000016       -16   # BR(chi^0_2 -> ~nu_tau nu_bar_tau)
     3.90925719E-05    2    -1000016        16   # BR(chi^0_2 -> ~nu^*_tau nu_tau)
     2.21840583E-02    2     1000022        23   # BR(chi^0_2 -> chi^0_1 Z)
     6.59412536E-01    2     1000022        25   # BR(chi^0_2 -> chi^0_1 h^0)
     5.58294278E-10    2     1000039        22   # BR(chi^0_2 -> ~G photon)
     7.22590347E-10    2     1000039        23   # BR(chi^0_2 -> ~G Z)
     7.02552628E-09    2     1000039        25   # BR(chi^0_2 -> ~G h^0)
     4.95136197E-07    2     1000022        22   # BR(chi^0_2 -> chi^0_1 photon)
#    BR                NDA      ID1      ID2       ID3
     5.09707709E-09    3     1000022         2        -2   # BR(chi^0_2 -> chi^0_1 u u_bar)
     5.10371921E-09    3     1000022         4        -4   # BR(chi^0_2 -> chi^0_1 c c_bar)
     1.31354055E-09    3     1000022         1        -1   # BR(chi^0_2 -> chi^0_1 d d_bar)
     1.49638907E-09    3     1000022         3        -3   # BR(chi^0_2 -> chi^0_1 s s_bar)
     4.11608950E-07    3     1000022         5        -5   # BR(chi^0_2 -> chi^0_1 b b_bar)
     2.45584376E-06    3     1000022        11       -11   # BR(chi^0_2 -> chi^0_1 e^- e^+)
     2.47256818E-06    3     1000022        13       -13   # BR(chi^0_2 -> chi^0_1 mu^- mu^+)
     6.89237945E-06    3     1000022        15       -15   # BR(chi^0_2 -> chi^0_1 tau^- tau^+)
     7.19884949E-11    3     1000024         1        -2   # BR(chi^0_2 -> chi^+_1 d u_bar)
     7.19884949E-11    3    -1000024        -1         2   # BR(chi^0_2 -> chi^-_1 d_bar u)
     2.19683968E-11    3     1000024         3        -4   # BR(chi^0_2 -> chi^+_1 s c_bar)
     2.19683968E-11    3    -1000024        -3         4   # BR(chi^0_2 -> chi^-_1 s_bar c)
     2.27857097E-11    3     1000024        11       -12   # BR(chi^0_2 -> chi^+_1 e^- nu_bar_e)
     2.27857097E-11    3    -1000024       -11        12   # BR(chi^0_2 -> chi^-_1 e^+ nu_e)
     2.25977068E-11    3     1000024        13       -14   # BR(chi^0_2 -> chi^+_1 mu^- nu_bar_mu)
     2.25977068E-11    3    -1000024       -13        14   # BR(chi^0_2 -> chi^-_1 mu^+ nu_mu)
     1.76736094E-12    3     1000024        15       -16   # BR(chi^0_2 -> chi^+_1 tau^- nu_bar_tau)
     1.76736094E-12    3    -1000024       -15        16   # BR(chi^0_2 -> chi^-_1 tau^+ nu_tau)
DECAY   1000025     6.00898576E-01   # chi^0_3
#    BR                NDA      ID1      ID2
     8.60193143E-04    2     2000011       -11   # BR(chi^0_3 -> ~e^-_R e^+)
     8.60193143E-04    2    -2000011        11   # BR(chi^0_3 -> ~e^+_R e^-)
     8.34828684E-07    2     1000011       -11   # BR(chi^0_3 -> ~e^-_L e^+)
     8.34828684E-07    2    -1000011        11   # BR(chi^0_3 -> ~e^+_L e^-)
     1.20526813E-03    2     2000013       -13   # BR(chi^0_3 -> ~mu^-_R mu^+)
     1.20526813E-03    2    -2000013        13   # BR(chi^0_3 -> ~mu^+_R mu^-)
     1.67394416E-06    2     1000013       -13   # BR(chi^0_3 -> ~mu^-_L mu^+)
     1.67394416E-06    2    -1000013        13   # BR(chi^0_3 -> ~mu^+_L mu^-)
     1.00411159E-01    2     1000015       -15   # BR(chi^0_3 -> ~tau^-_1 tau^+)
     1.00411159E-01    2    -1000015        15   # BR(chi^0_3 -> ~tau^+_1 tau^-)
     2.69087893E-04    2     2000015       -15   # BR(chi^0_3 -> ~tau^-_2 tau^+)
     2.69087893E-04    2    -2000015        15   # BR(chi^0_3 -> ~tau^+_2 tau^-)
     8.24520363E-06    2     1000012       -12   # BR(chi^0_3 -> ~nu_e nu_bar_e)
     8.24520363E-06    2    -1000012        12   # BR(chi^0_3 -> ~nu^*_e nu_e)
     8.24962944E-06    2     1000014       -14   # BR(chi^0_3 -> ~nu_mu nu_bar_mu)
     8.24962944E-06    2    -1000014        14   # BR(chi^0_3 -> ~nu^*_mu nu_mu)
     9.54234866E-06    2     1000016       -16   # BR(chi^0_3 -> ~nu_tau nu_bar_tau)
     9.54234866E-06    2    -1000016        16   # BR(chi^0_3 -> ~nu^*_tau nu_tau)
     7.73562842E-01    2     1000022        23   # BR(chi^0_3 -> chi^0_1 Z)
     2.08792330E-02    2     1000022        25   # BR(chi^0_3 -> chi^0_1 h^0)
     2.87505079E-13    2     1000039        22   # BR(chi^0_3 -> ~G photon)
     1.47074279E-09    2     1000039        23   # BR(chi^0_3 -> ~G Z)
     7.11394254E-09    2     1000039        25   # BR(chi^0_3 -> ~G h^0)
     7.56931346E-07    2     1000022        22   # BR(chi^0_3 -> chi^0_1 photon)
     7.99841480E-10    2     1000023        22   # BR(chi^0_3 -> chi^0_2 photon)
#    BR                NDA      ID1      ID2       ID3
     5.77545622E-11    3     1000022         2        -2   # BR(chi^0_3 -> chi^0_1 u u_bar)
     7.39209780E-11    3     1000022         4        -4   # BR(chi^0_3 -> chi^0_1 c c_bar)
     1.55751861E-11    3     1000022         1        -1   # BR(chi^0_3 -> chi^0_1 d d_bar)
     2.62988606E-10    3     1000022         3        -3   # BR(chi^0_3 -> chi^0_1 s s_bar)
     5.54800399E-07    3     1000022         5        -5   # BR(chi^0_3 -> chi^0_1 b b_bar)
     3.40152732E-08    3     1000022        11       -11   # BR(chi^0_3 -> chi^0_1 e^- e^+)
     5.70479478E-08    3     1000022        13       -13   # BR(chi^0_3 -> chi^0_1 mu^- mu^+)
     6.30144007E-06    3     1000022        15       -15   # BR(chi^0_3 -> chi^0_1 tau^- tau^+)
     2.52610377E-08    3     1000023         2        -2   # BR(chi^0_3 -> chi^0_2 u u_bar)
     2.30555082E-08    3     1000023         4        -4   # BR(chi^0_3 -> chi^0_2 c c_bar)
     3.27992059E-08    3     1000023         1        -1   # BR(chi^0_3 -> chi^0_2 d d_bar)
     3.27735628E-08    3     1000023         3        -3   # BR(chi^0_3 -> chi^0_2 s s_bar)
     4.74761667E-09    3     1000023         5        -5   # BR(chi^0_3 -> chi^0_2 b b_bar)
     7.56001879E-09    3     1000023        11       -11   # BR(chi^0_3 -> chi^0_2 e^- e^+)
     7.55628518E-09    3     1000023        13       -13   # BR(chi^0_3 -> chi^0_2 mu^- mu^+)
     6.33351367E-09    3     1000023        15       -15   # BR(chi^0_3 -> chi^0_2 tau^- tau^+)
     4.51286331E-08    3     1000023        12       -12   # BR(chi^0_3 -> chi^0_2 nu_e nu_bar_e)
     2.58926259E-07    3     1000024         1        -2   # BR(chi^0_3 -> chi^+_1 d u_bar)
     2.58926259E-07    3    -1000024        -1         2   # BR(chi^0_3 -> chi^-_1 d_bar u)
     2.47546290E-07    3     1000024         3        -4   # BR(chi^0_3 -> chi^+_1 s c_bar)
     2.47546290E-07    3    -1000024        -3         4   # BR(chi^0_3 -> chi^-_1 s_bar c)
     8.61937425E-08    3     1000024        11       -12   # BR(chi^0_3 -> chi^+_1 e^- nu_bar_e)
     8.61937425E-08    3    -1000024       -11        12   # BR(chi^0_3 -> chi^-_1 e^+ nu_e)
     8.61683627E-08    3     1000024        13       -14   # BR(chi^0_3 -> chi^+_1 mu^- nu_bar_mu)
     8.61683627E-08    3    -1000024       -13        14   # BR(chi^0_3 -> chi^-_1 mu^+ nu_mu)
     7.93262564E-08    3     1000024        15       -16   # BR(chi^0_3 -> chi^+_1 tau^- nu_bar_tau)
     7.93262564E-08    3    -1000024       -15        16   # BR(chi^0_3 -> chi^-_1 tau^+ nu_tau)
DECAY   1000035     1.07180911E+01   # chi^0_4
#    BR                NDA      ID1      ID2
     4.26706580E-05    2     2000011       -11   # BR(chi^0_4 -> ~e^-_R e^+)
     4.26706580E-05    2    -2000011        11   # BR(chi^0_4 -> ~e^+_R e^-)
     3.77562594E-02    2     1000011       -11   # BR(chi^0_4 -> ~e^-_L e^+)
     3.77562594E-02    2    -1000011        11   # BR(chi^0_4 -> ~e^+_L e^-)
     4.26606497E-05    2     2000013       -13   # BR(chi^0_4 -> ~mu^-_R mu^+)
     4.26606497E-05    2    -2000013        13   # BR(chi^0_4 -> ~mu^+_R mu^-)
     3.77575963E-02    2     1000013       -13   # BR(chi^0_4 -> ~mu^-_L mu^+)
     3.77575963E-02    2    -1000013        13   # BR(chi^0_4 -> ~mu^+_L mu^-)
     4.08857184E-05    2     1000015       -15   # BR(chi^0_4 -> ~tau^-_1 tau^+)
     4.08857184E-05    2    -1000015        15   # BR(chi^0_4 -> ~tau^+_1 tau^-)
     3.81359020E-02    2     2000015       -15   # BR(chi^0_4 -> ~tau^-_2 tau^+)
     3.81359020E-02    2    -2000015        15   # BR(chi^0_4 -> ~tau^+_2 tau^-)
     3.99614053E-02    2     1000012       -12   # BR(chi^0_4 -> ~nu_e nu_bar_e)
     3.99614053E-02    2    -1000012        12   # BR(chi^0_4 -> ~nu^*_e nu_e)
     3.99627541E-02    2     1000014       -14   # BR(chi^0_4 -> ~nu_mu nu_bar_mu)
     3.99627541E-02    2    -1000014        14   # BR(chi^0_4 -> ~nu^*_mu nu_mu)
     4.03432542E-02    2     1000016       -16   # BR(chi^0_4 -> ~nu_tau nu_bar_tau)
     4.03432542E-02    2    -1000016        16   # BR(chi^0_4 -> ~nu^*_tau nu_tau)
     1.40224976E-01    2     1000024       -24   # BR(chi^0_4 -> chi^+_1 W^-)
     1.40224976E-01    2    -1000024        24   # BR(chi^0_4 -> chi^-_1 W^+)
     3.69488551E-05    2     1000022        23   # BR(chi^0_4 -> chi^0_1 Z)
     2.13913176E-03    2     1000023        23   # BR(chi^0_4 -> chi^0_2 Z)
     1.23541640E-01    2     1000025        23   # BR(chi^0_4 -> chi^0_3 Z)
     3.37767246E-04    2     1000022        25   # BR(chi^0_4 -> chi^0_1 h^0)
     1.23742946E-01    2     1000023        25   # BR(chi^0_4 -> chi^0_2 h^0)
     1.35790804E-03    2     1000025        25   # BR(chi^0_4 -> chi^0_3 h^0)
     7.56796391E-10    2     1000039        22   # BR(chi^0_4 -> ~G photon)
     3.01022040E-09    2     1000039        23   # BR(chi^0_4 -> ~G Z)
     1.07337475E-10    2     1000039        25   # BR(chi^0_4 -> ~G h^0)
     1.57164285E-07    2     1000022        22   # BR(chi^0_4 -> chi^0_1 photon)
     6.67348279E-07    2     1000023        22   # BR(chi^0_4 -> chi^0_2 photon)
     8.19467642E-07    2     1000025        22   # BR(chi^0_4 -> chi^0_3 photon)
#    BR                NDA      ID1      ID2       ID3
     3.18979380E-08    3     1000022         2        -2   # BR(chi^0_4 -> chi^0_1 u u_bar)
     3.18955078E-08    3     1000022         4        -4   # BR(chi^0_4 -> chi^0_1 c c_bar)
     6.23682430E-07    3     1000022         6        -6   # BR(chi^0_4 -> chi^0_1 t t_bar)
     3.99424652E-08    3     1000022         1        -1   # BR(chi^0_4 -> chi^0_1 d d_bar)
     3.99430666E-08    3     1000022         3        -3   # BR(chi^0_4 -> chi^0_1 s s_bar)
     4.75969581E-08    3     1000022         5        -5   # BR(chi^0_4 -> chi^0_1 b b_bar)
     2.15306004E-08    3     1000022        11       -11   # BR(chi^0_4 -> chi^0_1 e^- e^+)
     2.15230281E-08    3     1000022        13       -13   # BR(chi^0_4 -> chi^0_1 mu^- mu^+)
     1.98240520E-08    3     1000022        15       -15   # BR(chi^0_4 -> chi^0_1 tau^- tau^+)
     2.80616407E-09    3     1000023         2        -2   # BR(chi^0_4 -> chi^0_2 u u_bar)
     2.80479961E-09    3     1000023         4        -4   # BR(chi^0_4 -> chi^0_2 c c_bar)
     1.88442774E-09    3     1000023         1        -1   # BR(chi^0_4 -> chi^0_2 d d_bar)
     1.91441820E-09    3     1000023         3        -3   # BR(chi^0_4 -> chi^0_2 s s_bar)
     7.03060103E-08    3     1000023         5        -5   # BR(chi^0_4 -> chi^0_2 b b_bar)
     1.44577290E-06    3     1000023        11       -11   # BR(chi^0_4 -> chi^0_2 e^- e^+)
     1.44786902E-06    3     1000023        13       -13   # BR(chi^0_4 -> chi^0_2 mu^- mu^+)
     1.93697182E-06    3     1000023        15       -15   # BR(chi^0_4 -> chi^0_2 tau^- tau^+)
     1.12582950E-06    3     1000023        12       -12   # BR(chi^0_4 -> chi^0_2 nu_e nu_bar_e)
     6.61772335E-12    3     1000025         2        -2   # BR(chi^0_4 -> chi^0_3 u u_bar)
     7.28962148E-12    3     1000025         4        -4   # BR(chi^0_4 -> chi^0_3 c c_bar)
     1.20793187E-11    3     1000025         1        -1   # BR(chi^0_4 -> chi^0_3 d d_bar)
     4.05445937E-11    3     1000025         3        -3   # BR(chi^0_4 -> chi^0_3 s s_bar)
     6.47175539E-08    3     1000025         5        -5   # BR(chi^0_4 -> chi^0_3 b b_bar)
     1.17008891E-09    3     1000025        11       -11   # BR(chi^0_4 -> chi^0_3 e^- e^+)
     2.76944862E-09    3     1000025        13       -13   # BR(chi^0_4 -> chi^0_3 mu^- mu^+)
     4.39623802E-07    3     1000025        15       -15   # BR(chi^0_4 -> chi^0_3 tau^- tau^+)
     2.09893972E-08    3     1000025        12       -12   # BR(chi^0_4 -> chi^0_3 nu_e nu_bar_e)
     1.71671728E-09    3     1000024         1        -2   # BR(chi^0_4 -> chi^+_1 d u_bar)
     1.71671728E-09    3    -1000024        -1         2   # BR(chi^0_4 -> chi^-_1 d_bar u)
     1.75221615E-09    3     1000024         3        -4   # BR(chi^0_4 -> chi^+_1 s c_bar)
     1.75221615E-09    3    -1000024        -3         4   # BR(chi^0_4 -> chi^-_1 s_bar c)
     1.45496475E-04    3     1000024         5        -6   # BR(chi^0_4 -> chi^+_1 b t_bar)
     1.45496475E-04    3    -1000024        -5         6   # BR(chi^0_4 -> chi^-_1 b_bar t)
     9.70133111E-07    3     1000024        11       -12   # BR(chi^0_4 -> chi^+_1 e^- nu_bar_e)
     9.70133111E-07    3    -1000024       -11        12   # BR(chi^0_4 -> chi^-_1 e^+ nu_e)
     9.72191645E-07    3     1000024        13       -14   # BR(chi^0_4 -> chi^+_1 mu^- nu_bar_mu)
     9.72191645E-07    3    -1000024       -13        14   # BR(chi^0_4 -> chi^-_1 mu^+ nu_mu)
     1.47732152E-06    3     1000024        15       -16   # BR(chi^0_4 -> chi^+_1 tau^- nu_bar_tau)
     1.47732152E-06    3    -1000024       -15        16   # BR(chi^0_4 -> chi^-_1 tau^+ nu_tau)
DECAY   1000021     1.87734410E+01   # ~g
#    BR                NDA      ID1      ID2
     4.73351393E-02    2     2000002        -2   # BR(~g -> ~u_R u_bar)
     4.73351393E-02    2    -2000002         2   # BR(~g -> ~u^*_R u)
     1.49854118E-02    2     1000002        -2   # BR(~g -> ~u_L u_bar)
     1.49854118E-02    2    -1000002         2   # BR(~g -> ~u^*_L u)
     4.73353995E-02    2     2000004        -4   # BR(~g -> ~c_R c_bar)
     4.73353995E-02    2    -2000004         4   # BR(~g -> ~c^*_R c)
     1.49858944E-02    2     1000004        -4   # BR(~g -> ~c_L c_bar)
     1.49858944E-02    2    -1000004         4   # BR(~g -> ~c^*_L c)
     5.86944835E-05    2     1000006        -4   # BR(~g -> ~t_1 c_bar)
     5.86944835E-05    2    -1000006         4   # BR(~g -> ~t^*_1 c)
     1.16131178E-01    2     1000006        -6   # BR(~g -> ~t_1 t_bar)
     1.16131178E-01    2    -1000006         6   # BR(~g -> ~t^*_1 t)
     3.24533769E-02    2     2000006        -6   # BR(~g -> ~t_2 t_bar)
     3.24533769E-02    2    -2000006         6   # BR(~g -> ~t^*_2 t)
     5.08878030E-02    2     2000001        -1   # BR(~g -> ~d_R d_bar)
     5.08878030E-02    2    -2000001         1   # BR(~g -> ~d^*_R d)
     1.47662665E-02    2     1000001        -1   # BR(~g -> ~d_L d_bar)
     1.47662665E-02    2    -1000001         1   # BR(~g -> ~d^*_L d)
     5.08894605E-02    2     2000003        -3   # BR(~g -> ~s_R s_bar)
     5.08894605E-02    2    -2000003         3   # BR(~g -> ~s^*_R s)
     1.47670414E-02    2     1000003        -3   # BR(~g -> ~s_L s_bar)
     1.47670414E-02    2    -1000003         3   # BR(~g -> ~s^*_L s)
     5.46971555E-02    2     1000005        -5   # BR(~g -> ~b_1 b_bar)
     5.46971555E-02    2    -1000005         5   # BR(~g -> ~b^*_1 b)
     4.05873319E-02    2     2000005        -5   # BR(~g -> ~b_2 b_bar)
     4.05873319E-02    2    -2000005         5   # BR(~g -> ~b^*_2 b)
     2.90800109E-06    2     1000022        21   # BR(~g -> chi^0_1 g)
     1.08585532E-04    2     1000023        21   # BR(~g -> chi^0_2 g)
     1.19204044E-04    2     1000025        21   # BR(~g -> chi^0_3 g)
     8.99552477E-06    2     1000035        21   # BR(~g -> chi^0_4 g)
DECAY        25     2.80455387E-03   # h^0
#    BR                NDA      ID1      ID2
     8.42377790E-09    2          11       -11   # BR(h^0 -> e^- e^+)
     3.60135862E-04    2          13       -13   # BR(h^0 -> mu^- mu^+)
     1.01514301E-01    2          15       -15   # BR(h^0 -> tau^- tau^+)
     6.71779913E-07    2           1        -1   # BR(h^0 -> d d_bar)
     2.96254058E-04    2           3        -3   # BR(h^0 -> s s_bar)
     6.36693572E-01    2           5        -5   # BR(h^0 -> b b_bar)
     2.37182759E-07    2           2        -2   # BR(h^0 -> u u_bar)
     4.24970889E-02    2           4        -4   # BR(h^0 -> c c_bar)
     6.33017507E-02    2          21        21   # BR(h^0 -> g g)
     3.14192054E-03    2          22        22   # BR(h^0 -> photon photon)
# writing decays into V V* as 3-body decays
#    BR                NDA      ID1      ID2       ID3
     6.95538035E-03    3          24        11        12   # BR(h^0 -> W^+ e^- nu_e)
     6.95538035E-03    3          24        13        14   # BR(h^0 -> W^+ mu^- nu_mu)
     6.95538035E-03    3          24        15        16   # BR(h^0 -> W^+ tau^- nu_tau)
     2.43438312E-02    3          24         1        -2   # BR(h^0 -> W^+ d u_bar)
     2.43438312E-02    3          24         3        -4   # BR(h^0 -> W^+ s c_bar)
     6.95538035E-03    3         -24       -11       -12   # BR(h^0 -> W^- e^+ nu_bar_e)
     6.95538035E-03    3         -24       -13       -14   # BR(h^0 -> W^- mu^+ nu_bar_mu)
     6.95538035E-03    3         -24       -15       -16   # BR(h^0 -> W^- tau^+ nu_bar_tau)
     2.43438312E-02    3         -24        -1         2   # BR(h^0 -> W^- d_bar u)
     2.43438312E-02    3         -24        -3         4   # BR(h^0 -> W^- s_bar c)
     4.58025841E-04    3          23        11       -11   # BR(h^0 -> Z e^- e^+)
     4.58025841E-04    3          23        13       -13   # BR(h^0 -> Z mu^- mu^+)
     3.92593578E-04    3          23        15       -15   # BR(h^0 -> Z tau^- tau^+)
     2.61729052E-03    3          23        12       -12   # BR(h^0 -> Z nu_e nu_bar_e)
     1.83210336E-03    3          23         1        -1   # BR(h^0 -> Z u u_bar)
     1.83210336E-03    3          23         3        -3   # BR(h^0 -> Z c c_bar)
     1.83210336E-03    3          23         5        -5   # BR(h^0 -> Z t t_bar)
     1.83210336E-03    3          23         2        -2   # BR(h^0 -> Z u u_bar)
     1.83210336E-03    3          23         4        -4   # BR(h^0 -> Z c c_bar)
DECAY        35     3.78866769E+00   # H^0
#    BR                NDA      ID1      ID2
     1.20470305E-08    2          11       -11   # BR(H^0 -> e^- e^+)
     5.15045596E-04    2          13       -13   # BR(H^0 -> mu^- mu^+)
     1.45765441E-01    2          15       -15   # BR(H^0 -> tau^- tau^+)
     7.90553866E-07    2           1        -1   # BR(H^0 -> d d_bar)
     3.48634097E-04    2           3        -3   # BR(H^0 -> s s_bar)
     7.76951623E-01    2           5        -5   # BR(H^0 -> b b_bar)
     7.62898117E-12    2           2        -2   # BR(H^0 -> u u_bar)
     1.36719960E-06    2           4        -4   # BR(H^0 -> c c_bar)
     7.16966895E-02    2           6        -6   # BR(H^0 -> t t_bar)
     1.60843002E-05    2     2000011  -2000011   # BR(H^0 -> ~e^-_R ~e^+_R)
     1.60792650E-05    2     2000013  -2000013   # BR(H^0 -> ~mu^-_R ~mu^+_R)
     1.46246743E-05    2     1000015  -1000015   # BR(H^0 -> ~tau^-_1 ~tau^+_1)
     4.89878454E-05    2     1000022   1000022   # BR(H^0 -> chi^0_1 chi^0_1)
     1.43535437E-03    2          23        23   # BR(H^0 -> Z Z)
     2.72585037E-03    2          24       -24   # BR(H^0 -> W^+ W^-)
     4.24271818E-04    2          25        25   # BR(H^0 -> h^0 h^0)
     3.88253695E-05    2          21        21   # BR(H^0 -> g g)
     3.18508419E-07    2          22        22   # BR(H^0 -> photon photon)
DECAY        36     3.77183026E+00   # A^0
#    BR                NDA      ID1      ID2
     1.21063759E-08    2          11       -11   # BR(A^0 -> e^- e^+)
     5.17582797E-04    2          13       -13   # BR(A^0 -> mu^- mu^+)
     1.46484717E-01    2          15       -15   # BR(A^0 -> tau^- tau^+)
     7.94447443E-07    2           1        -1   # BR(A^0 -> d d_bar)
     3.50351096E-04    2           3        -3   # BR(A^0 -> s s_bar)
     7.80781450E-01    2           5        -5   # BR(A^0 -> b b_bar)
     6.78164636E-12    2           2        -2   # BR(A^0 -> u u_bar)
     1.21534710E-06    2           4        -4   # BR(A^0 -> c c_bar)
     6.74708302E-02    2           6        -6   # BR(A^0 -> t t_bar)
     1.64887413E-03    2     1000022   1000022   # BR(A^0 -> chi^0_1 chi^0_1)
     2.70669428E-03    2          25        23   # BR(A^0 -> h^0 Z)
     3.72606375E-05    2          21        21   # BR(A^0 -> g g)
     2.17140857E-07    2          22        22   # BR(A^0 -> photon photon)
DECAY        37     3.28341867E+00   # H^+
#    BR                NDA      ID1      ID2
     1.39396642E-08    2         -11        12   # BR(H^+ -> e^+ nu_e)
     5.95961209E-04    2         -13        12   # BR(H^+ -> mu^+ nu_e)
     1.68667141E-01    2         -15        12   # BR(H^+ -> tau^+ nu_e)
     8.05311710E-07    2          -1         2   # BR(H^+ -> d_bar u)
     3.56370454E-04    2          -3         4   # BR(H^+ -> s_bar c)
     8.27327606E-01    2          -5         6   # BR(H^+ -> b_bar t)
     3.05210208E-03    2          25        24   # BR(H^+ -> h^0 W^+)
DECAY         6     2.43000000E+00   # top
#    BR                NDA      ID1      ID2
     1.00000000E+00    2           5        24   # BR(t -> b W)
Block HiggsBoundsInputHiggsCouplingsFermions
# ScalarNormEffCoupSq PseudoSNormEffCoupSq NP IP1 IP2 IP2
    1.12983329E+00    0.00000000E+00        3  25   5   5  # h0-b-b eff. coupling^2, normalised to SM
    2.24870167E+02    0.00000000E+00        3  35   5   5  # H0-b-b eff. coupling^2, normalised to SM
    0.00000000E+00    2.25000000E+02        3  36   5   5  # A0-b-b eff. coupling^2, normalised to SM
#
    9.99422963E-01    0.00000000E+00        3  25   6   6  # h0-t-t eff. coupling^2, normalised to SM
    5.02148129E-03    0.00000000E+00        3  35   6   6  # H0-t-t eff. coupling^2, normalised to SM
    0.00000000E+00    4.44444444E-03        3  36   6   6  # A0-t-t eff. coupling^2, normalised to SM
#
    1.12983329E+00    0.00000000E+00        3  25  15  15  # h0-tau-tau eff. coupling^2, normalised to SM
    2.24870167E+02    0.00000000E+00        3  35  15  15  # H0-tau-tau eff. coupling^2, normalised to SM
    0.00000000E+00    2.25000000E+02        3  36  15  15  # A0-tau-tau eff. coupling^2, normalised to SM
#
Block HiggsBoundsInputHiggsCouplingsBosons
    9.99982391E-01        3  25  24  24  # h0-W-W eff. coupling^2, normalised to SM
    1.76091963E-05        3  35  24  24  # H0-W-W eff. coupling^2, normalised to SM
    0.00000000E+00        3  36  24  24  # A0-W-W eff. coupling^2, normalised to SM
#
    9.99982391E-01        3  25  23  23  # h0-Z-Z eff. coupling^2, normalised to SM
    1.76091963E-05        3  35  23  23  # H0-Z-Z eff. coupling^2, normalised to SM
    0.00000000E+00        3  36  23  23  # A0-Z-Z eff. coupling^2, normalised to SM
#
    1.15702174E+00        3  25  21  21  # h0-g-g eff. coupling^2, normalised to SM
    3.65359371E-03        3  35  21  21  # H0-g-g eff. coupling^2, normalised to SM
    1.06512353E-01        3  36  21  21  # A0-g-g eff. coupling^2, normalised to SM
#
    0.00000000E+00        3  25  25  23  # h0-h0-Z eff. coupling^2, normalised to SM
    0.00000000E+00        3  35  25  23  # H0-h0-Z eff. coupling^2, normalised to SM
    1.76091963E-05        3  36  25  23  # A0-h0-Z eff. coupling^2, normalised to SM
    0.00000000E+00        3  35  35  23  # H0-H0-Z eff. coupling^2, normalised to SM
    9.99982391E-01        3  36  35  23  # A0-H0-Z eff. coupling^2, normalised to SM
    0.00000000E+00        3  36  36  23  # A0-A0-Z eff. coupling^2, normalised to SM
#
    0.00000000E+00        4  25  21  21  23  # h0-g-g-Z eff. coupling^2, normalised to SM
    0.00000000E+00        4  35  21  21  23  # H0-g-g-Z eff. coupling^2, normalised to SM
    0.00000000E+00        4  36  21  21  23  # A0-g-g-Z eff. coupling^2, normalised to SM
Block SPhenoLowEnergy  # low energy observables
    1    3.12861143E-04   # BR(b -> s gamma)
    2    1.59147043E-06   # BR(b -> s mu+ mu-)
    3    3.54014579E-05   # BR(b -> s nu nu)
    4    5.17936714E-11   # BR(Bd -> mu+ mu-)
    5    3.38360721E-09   # BR(Bs -> mu+ mu-)
    6    1.09987016E-04   # BR(B_u -> tau nu)
    7    9.94517679E-01   # BR(B_u -> tau nu)/BR(B_u -> tau nu)_SM
    8    2.73825689E-01   # |Delta(M_Bd)| [ps^-1] 
    9    2.03217907E+01   # |Delta(M_Bs)| [ps^-1] 
   20    7.69505267E-15   # Delta(g-2)_electron/2
   21    1.65792927E-10   # Delta(g-2)_muon/2
   22    1.05594985E-08   # Delta(g-2)_tau/2
   23    0.00000000E+00   # electric dipole moment of the electron
   24    0.00000000E+00   # electric dipole moment of the muon
   25    0.00000000E+00   # electric dipole moment of the tau
   26    0.00000000E+00   # Br(mu -> e gamma)
   27    0.00000000E+00   # Br(tau -> e gamma)
   28    0.00000000E+00   # Br(tau -> mu gamma)
   29    0.00000000E+00   # Br(mu -> 3 e)
   30    0.00000000E+00   # Br(tau -> 3 e)
   31    0.00000000E+00   # Br(tau -> 3 mu)
   39    6.33843753E-04   # Delta(rho_parameter)
   40    0.00000000E+00   # BR(Z -> e mu)
   41    0.00000000E+00   # BR(Z -> e tau)
   42    0.00000000E+00   # BR(Z -> mu tau)
Block FWCOEF Q=  9.11876000E+01  # Wilson coefficients at scale Q
#    id        order  M        value         comment
Block FWCOEF Q=  1.60000000E+02  # Wilson coefficients at scale Q
#    id        order  M        value         comment
     0305 4422   00   0    -1.87756762E-01   # C7
     0305 4422   00   1    -1.43213549E-02   # C7
     0305 4322   00   1    -3.12334789E-04   # C7'
     0305 6421   00   0    -9.48891754E-02   # C8
     0305 6421   00   1    -1.96660061E-02   # C8
     0305 6321   00   1    -4.24890700E-04   # C8'
 03051111 4133   00   0    -1.32685819E+00   # C9 e+e-
 03051111 4133   00   1     6.70793339E-04   # C9 e+e-
 03051111 4233   00   1    -6.10997273E-06   # C9' e+e-
 03051111 4137   00   0    -3.94474676E+00   # C10 e+e-
 03051111 4137   00   1     1.83476374E-03   # C10 e+e-
 03051111 4237   00   1     1.59003433E-04   # C10' e+e-
 03051313 4133   00   0    -1.32685819E+00   # C9 mu+mu-
 03051313 4133   00   1     6.70774320E-04   # C9 mu+mu-
 03051313 4233   00   1    -6.11010597E-06   # C9' mu+mu-
 03051313 4137   00   0    -3.94474676E+00   # C10 mu+mu-
 03051313 4137   00   1     1.83474468E-03   # C10 mu+mu-
 03051313 4237   00   1     1.59003566E-04   # C10' mu+mu-
 03051212 4237   00   0     1.49013728E+00   # C11 nu_1 nu_1
 03051212 4237   00   1    -4.42836334E-04   # C11 nu_1 nu_1
 03051212 4137   00   1    -3.82420601E-05   # C11' nu_1 nu_1
 03051414 4237   00   0     1.49013728E+00   # C11 nu_2 nu_2
 03051414 4237   00   1    -4.42836324E-04   # C11 nu_2 nu_2
 03051414 4137   00   1    -3.82420287E-05   # C11' nu_2 nu_2
 03051616 4237   00   0     1.49013728E+00   # C11 nu_3 nu_3
 03051616 4237   00   1    -4.42833105E-04   # C11 nu_3 nu_3
 03051616 4137   00   1    -3.82331718E-05   # C11' nu_3 nu_3
