#
#                              ======================
#                              | THE SUSYHIT OUTPUT |
#                              ======================
#
#
#              ------------------------------------------------------
#              |     This is the output of the SUSY-HIT package     |
#              |  created by A.Djouadi, M.Muehlleitner and M.Spira. |
#              |  In case of problems with SUSY-HIT email to        |
#              |           margarete.muehlleitner@cern.ch           |
#              |           michael.spira@psi.ch                     |
#              |           abdelhak.djouadi@cern.ch                 |
#              ------------------------------------------------------
#
#              ------------------------------------------------------
#              |  SUSY Les Houches Accord - MSSM Spectrum + Decays  |
#              |              based on the decay programs           |
#              |                                                    |
#              |                     SDECAY 1.3b                    |
#              |                                                    |
#              |  Authors: M.Muhlleitner, A.Djouadi and Y.Mambrini  |
#              |  Ref.:    Comput.Phys.Commun.168(2005)46           |
#              |           [hep-ph/0311167]                         |
#              |                                                    |
#              |                     HDECAY 3.4                     |
#              |                                                    |
#              |  By: A.Djouadi,J.Kalinowski,M.Muhlleitner,M.Spira  |
#              |  Ref.:    Comput.Phys.Commun.108(1998)56           |
#              |           [hep-ph/9704448]                         |
#              |                                                    |
#              |                                                    |
#              |  If not stated otherwise all DRbar couplings and   |
#              |  soft SUSY breaking masses are given at the scale  |
#              |  Q=  0.91187600E+02
#              |                                                    |
#              ------------------------------------------------------
#
#
BLOCK DCINFO  # Decay Program information
     1   SDECAY/HDECAY # decay calculator
     2   1.3b  /3.4    # version number
#
BLOCK SPINFO  # Spectrum calculator information
     1   SuSpect     # RGE +Spectrum calculator            
     2   2.41         # version number                     
#
BLOCK MODSEL  # Model selection
     1     0   # #general MSSM low scale                           
#
BLOCK SMINPUTS  # Standard Model inputs
         1     1.27934000E+02   # alpha_em^-1(M_Z)^MSbar
         2     1.16639000E-05   # G_F [GeV^-2]
         3     1.17200000E-01   # alpha_S(M_Z)^MSbar
         4     9.11870000E+01   # M_Z pole mass
         5     4.25000000E+00   # mb(mb)^MSbar
         6     1.72500000E+02   # mt pole mass
         7     1.77700000E+00   # mtau pole mass
#
BLOCK MINPAR  # Input parameters - minimal models
#
BLOCK EXTPAR  # Input parameters - non-minimal models
         0     9.11876000E+01   # EWSB                
         1     2.00000000E+02   # M_1                 
         2     1.00000000E+05   # M_2                 
         3     1.00000000E+05   # M_3                 
        11     0.00000000E+00   # A_t                 
        12     0.00000000E+00   # A_b                 
        13     0.00000000E+00   # A_tau               
        14     0.00000000E+00   # A_u                 
        15     0.00000000E+00   # A_d                 
        16     0.00000000E+00   # A_e                 
        23     3.50000000E+03   # mu(EWSB)            
        25     1.50000000E+00   # tanbeta(in)         
        26     2.00000000E+03   # MA_pole             
        31     1.00000000E+05   # M_eL                
        32     1.00000000E+05   # M_muL               
        33     1.00000000E+05   # M_tauL              
        34     1.00000000E+05   # M_eR                
        35     1.00000000E+05   # M_muR               
        36     1.00000000E+05   # M_tauR              
        41     1.20000000E+03   # M_q1L               
        42     1.20000000E+03   # M_q2L               
        43     1.20000000E+03   # M_q3L               
        44     1.00000000E+05   # M_uR                
        45     1.00000000E+05   # M_cR                
        46     1.00000000E+05   # M_tR                
        47     1.20000000E+03   # M_dR                
        48     1.20000000E+03   # M_sR                
        49     1.20000000E+03   # M_bR                
#
BLOCK MASS  # Mass Spectrum
# PDG code           mass       particle
        24     8.05813948E+01   # W+
        25     1.25000000E+02   # h
        35     2.00395957E+03   # H
        36     2.00000000E+03   # A
        37     2.02369966E+03   # H+
         5     4.87877839E+00   # b-quark pole mass calculated from mb(mb)_Msbar
   1000001     1.20055434E+03   # ~d_L
   2000001     1.20010663E+03   # ~d_R
   1000002     1.19955208E+03   # ~u_L
   2000002     9.99999974E+04   # ~u_R
   1000003     1.20055434E+03   # ~s_L
   2000003     1.20010663E+03   # ~s_R
   1000004     1.19955208E+03   # ~c_L
   2000004     9.99999974E+04   # ~c_R
   1000005     1.19466893E+03   # ~b_1
   2000005     1.20597103E+03   # ~b_2
   1000006     1.20857915E+03   # ~t_1
   2000006     1.00000106E+05   # ~t_2
   1000011     1.00000004E+05   # ~e_L
   2000011     1.00000004E+05   # ~e_R
   1000012     9.99999921E+04   # ~nu_eL
   1000013     1.00000004E+05   # ~mu_L
   2000013     1.00000004E+05   # ~mu_R
   1000014     9.99999921E+04   # ~nu_muL
   1000015     9.99999574E+04   # ~tau_1
   2000015     1.00000051E+05   # ~tau_2
   1000016     9.99999921E+04   # ~nu_tauL
   1000021     1.00000000E+05   # ~g
   1000022     1.99439220E+02   # ~chi_10
   1000023    -3.50002308E+03   # ~chi_20
   1000025     3.50051921E+03   # ~chi_30
   1000035     1.00000065E+05   # ~chi_40
   1000024     3.49994000E+03   # ~chi_1+
   1000037     1.00000065E+05   # ~chi_2+
   1000039     1.00000000E-09   # ~gravitino
#
BLOCK NMIX  # Neutralino Mixing Matrix
  1  1     9.99909110E-01   # N_11
  1  2    -9.94533283E-06   # N_12
  1  3     1.10598342E-02   # N_13
  1  4    -7.71052995E-03   # N_14
  2  1     2.36830275E-03   # N_21
  2  2    -1.49865144E-04   # N_22
  2  3    -7.07093135E-01   # N_23
  2  4    -7.07116445E-01   # N_24
  3  1     1.32726561E-02   # N_31
  3  2     8.03553061E-04   # N_32
  3  3    -7.07033779E-01   # N_33
  3  4     7.07054755E-01   # N_34
  4  1     3.65929584E-07   # N_41
  4  2    -9.99999666E-01   # N_42
  4  3    -4.62280691E-04   # N_43
  4  4     6.74205028E-04   # N_44
#
BLOCK UMIX  # Chargino Mixing Matrix U
  1  1    -6.53763417E-04   # U_11
  1  2     9.99999786E-01   # U_12
  2  1     9.99999786E-01   # U_21
  2  2     6.53763417E-04   # U_22
#
BLOCK VMIX  # Chargino Mixing Matrix V
  1  1    -9.53469809E-04   # V_11
  1  2     9.99999545E-01   # V_12
  2  1     9.99999545E-01   # V_21
  2  2     9.53469809E-04   # V_22
#
BLOCK STOPMIX  # Stop Mixing Matrix
  1  1     9.99999999E-01   # cos(theta_t)
  1  2     4.47213589E-05   # sin(theta_t)
  2  1    -4.47213589E-05   # -sin(theta_t)
  2  2     9.99999999E-01   # cos(theta_t)
#
BLOCK SBOTMIX  # Sbottom Mixing Matrix
  1  1     6.92959640E-01   # cos(theta_b)
  1  2     7.20976378E-01   # sin(theta_b)
  2  1    -7.20976378E-01   # -sin(theta_b)
  2  2     6.92959640E-01   # cos(theta_b)
#
BLOCK STAUMIX  # Stau Mixing Matrix
  1  1     7.06134686E-01   # cos(theta_tau)
  1  2     7.08077542E-01   # sin(theta_tau)
  2  1    -7.08077542E-01   # -sin(theta_tau)
  2  2     7.06134686E-01   # cos(theta_tau)
#
BLOCK ALPHA  # Higgs mixing
          -5.90256525E-01   # Mixing angle in the neutral Higgs boson sector
#
BLOCK HMIX Q=  9.11876000E+01  # DRbar Higgs Parameters
         1     3.50000000E+03   # mu(Q)               
         2     1.49999982E+00   # tanbeta(Q)          
         3     2.54855503E+02   # vev(Q)              
         4    -6.83520902E+07   # MA^2(Q)             
#
BLOCK GAUGE Q=  9.11876000E+01  # The gauge couplings
     1     3.50614513E-01   # gprime(Q) DRbar
     2     6.20625076E-01   # g(Q) DRbar
     3     1.02739236E+00   # g3(Q) DRbar
#
BLOCK AU Q=  9.11876000E+01  # The trilinear couplings
  1  1     0.00000000E+00   # A_u(Q) DRbar
  2  2     0.00000000E+00   # A_c(Q) DRbar
  3  3     0.00000000E+00   # A_t(Q) DRbar
#
BLOCK AD Q=  9.11876000E+01  # The trilinear couplings
  1  1     0.00000000E+00   # A_d(Q) DRbar
  2  2     0.00000000E+00   # A_s(Q) DRbar
  3  3     0.00000000E+00   # A_b(Q) DRbar
#
BLOCK AE Q=  9.11876000E+01  # The trilinear couplings
  1  1     0.00000000E+00   # A_e(Q) DRbar
  2  2     0.00000000E+00   # A_mu(Q) DRbar
  3  3     0.00000000E+00   # A_tau(Q) DRbar
#
BLOCK Yu Q=  9.11876000E+01  # The Yukawa couplings
  1  1     0.00000000E+00   # y_u(Q) DRbar
  2  2     0.00000000E+00   # y_c(Q) DRbar
  3  3     9.83565473E-01   # y_t(Q) DRbar
#
BLOCK Yd Q=  9.11876000E+01  # The Yukawa couplings
  1  1     0.00000000E+00   # y_d(Q) DRbar
  2  2     0.00000000E+00   # y_s(Q) DRbar
  3  3     2.58296615E-02   # y_b(Q) DRbar
#
BLOCK Ye Q=  9.11876000E+01  # The Yukawa couplings
  1  1     0.00000000E+00   # y_e(Q) DRbar
  2  2     0.00000000E+00   # y_mu(Q) DRbar
  3  3     1.77401756E-02   # y_tau(Q) DRbar
#
BLOCK MSOFT Q=  9.11876000E+01  # The soft SUSY breaking masses at the scale Q
         1     2.00000000E+02   # M_1                 
         2     1.00000000E+05   # M_2                 
         3     1.00000000E+05   # M_3                 
        14     0.00000000E+00   # A_u                 
        15     0.00000000E+00   # A_d                 
        16     0.00000000E+00   # A_e                 
        21     6.33633037E+08   # M^2_Hd              
        22    -1.14644620E+09   # M^2_Hu              
        31     1.00000000E+05   # M_eL                
        32     1.00000000E+05   # M_muL               
        33     1.00000000E+05   # M_tauL              
        34     1.00000000E+05   # M_eR                
        35     1.00000000E+05   # M_muR               
        36     1.00000000E+05   # M_tauR              
        41     1.20000000E+03   # M_q1L               
        42     1.20000000E+03   # M_q2L               
        43     1.20000000E+03   # M_q3L               
        44     1.00000000E+05   # M_uR                
        45     1.00000000E+05   # M_cR                
        46     1.00000000E+05   # M_tR                
        47     1.20000000E+03   # M_dR                
        48     1.20000000E+03   # M_sR                
        49     1.20000000E+03   # M_bR                
#
#
#
#                             =================
#                             |The decay table|
#                             =================
#
# - The QCD corrections to the decays gluino -> squark  + quark
#                                     squark -> gaugino + quark_prime
#                                     squark -> squark_prime + Higgs
#                                     squark -> gluino  + quark
#   are included.
#
# - The multi-body decays for the inos, stops and sbottoms are included.
#
# - The loop induced decays for the gluino, neutralinos and stops
#   are included.
#
# - The SUSY decays of the top quark are included.
#
# - Possible decays of the NLSP in GMSB models are included.
#
#
#         PDG            Width
DECAY         6     1.32948653E+00   # top decays
#          BR         NDA      ID1       ID2
     1.00000000E+00    2           5        24   # BR(t ->  b    W+)
#
#         PDG            Width
DECAY   1000021     1.E-04   # gluino decays (OJ Mods)
#          BR         NDA      ID1       ID2
    -2.60335915E-04    2     1000001        -1   # BR(~g -> ~d_L  db)
    -2.60335915E-04    2    -1000001         1   # BR(~g -> ~d_L* d )
    -2.60335971E-04    2     2000001        -1   # BR(~g -> ~d_R  db)
    -2.60335971E-04    2    -2000001         1   # BR(~g -> ~d_R* d )
    -2.60336040E-04    2     1000002        -2   # BR(~g -> ~u_L  ub)
    -2.60336040E-04    2    -1000002         2   # BR(~g -> ~u_L* u )
    -7.04151266E-19    2     2000002        -2   # BR(~g -> ~u_R  ub)
    -7.04151266E-19    2    -2000002         2   # BR(~g -> ~u_R* u )
    -2.60335915E-04    2     1000003        -3   # BR(~g -> ~s_L  sb)
    -2.60335915E-04    2    -1000003         3   # BR(~g -> ~s_L* s )
    -2.60335971E-04    2     2000003        -3   # BR(~g -> ~s_R  sb)
    -2.60335971E-04    2    -2000003         3   # BR(~g -> ~s_R* s )
    -2.60336040E-04    2     1000004        -4   # BR(~g -> ~c_L  cb)
    -2.60336040E-04    2    -1000004         4   # BR(~g -> ~c_L* c )
    -7.04151266E-19    2     2000004        -4   # BR(~g -> ~c_R  cb)
    -7.04151266E-19    2    -2000004         4   # BR(~g -> ~c_R* c )
     2.52559625E-01    2     1000005        -5   # BR(~g -> ~b_1  bb)
     2.52559625E-01    2    -1000005         5   # BR(~g -> ~b_1* b )
     2.52898682E-01    2     2000005        -5   # BR(~g -> ~b_2  bb)
     2.52898682E-01    2    -2000005         5   # BR(~g -> ~b_2* b )
    -2.56189462E-04    2     1000006        -6   # BR(~g -> ~t_1  tb)
    -2.56189462E-04    2    -1000006         6   # BR(~g -> ~t_1* t )
    -7.28020391E-03    2     1000039        21   # BR(~g -> ~G g)
#
#         PDG            Width
DECAY   1000006     1.82603238E-01   # stop1 decays
#          BR         NDA      ID1       ID2
     1.00000000E+00    2     1000022         6   # BR(~t_1 -> ~chi_10 t )
#
#         PDG            Width
DECAY   2000006    -7.40196959E+05   # stop2 decays
#          BR         NDA      ID1       ID2
    -2.81479711E-04    2     1000022         6   # BR(~t_2 -> ~chi_10 t )
    -6.71725136E-04    2     1000023         6   # BR(~t_2 -> ~chi_20 t )
    -6.71645624E-04    2     1000025         6   # BR(~t_2 -> ~chi_30 t )
     1.00160120E+00    2     1000024         5   # BR(~t_2 -> ~chi_1+ b )
     1.84796320E-05    2     1000006        25   # BR(~t_2 -> ~t_1    h )
    -1.93423989E-05    2     1000006        35   # BR(~t_2 -> ~t_1    H )
    -1.93091542E-05    2     1000006        36   # BR(~t_2 -> ~t_1    A )
    -1.81852522E-05    2     1000005        37   # BR(~t_2 -> ~b_1    H+)
    -2.04322321E-05    2     2000005        37   # BR(~t_2 -> ~b_2    H+)
     1.32462041E-05    2     1000006        23   # BR(~t_2 -> ~t_1    Z )
     3.32271468E-05    2     1000005        24   # BR(~t_2 -> ~b_1    W+)
     3.59668646E-05    2     2000005        24   # BR(~t_2 -> ~b_2    W+)
#
#         PDG            Width
DECAY   1000005    -1.48063610E+02   # sbottom1 decays
#          BR         NDA      ID1       ID2
     1.00000000E+00    2     1000022         5   # BR(~b_1 -> ~chi_10 b )
#
#         PDG            Width
DECAY   2000005    -1.42217346E+02   # sbottom2 decays
#          BR         NDA      ID1       ID2
     1.00000000E+00    2     1000022         5   # BR(~b_2 -> ~chi_10 b )
#
#         PDG            Width
DECAY   1000002     1.87251782E-01   # sup_L decays
#          BR         NDA      ID1       ID2
     1.00000000E+00    2     1000022         2   # BR(~u_L -> ~chi_10 u)
#
#         PDG            Width
DECAY   2000002     2.08370467E+02   # sup_R decays
#          BR         NDA      ID1       ID2
     9.99818424E-01    2     1000022         2   # BR(~u_R -> ~chi_10 u)
     5.60281818E-06    2     1000023         2   # BR(~u_R -> ~chi_20 u)
     1.75973626E-04    2     1000025         2   # BR(~u_R -> ~chi_30 u)
#
#         PDG            Width
DECAY   1000001     1.87457386E-01   # sdown_L decays
#          BR         NDA      ID1       ID2
     1.00000000E+00    2     1000022         1   # BR(~d_L -> ~chi_10 d)
#
#         PDG            Width
DECAY   2000001     7.49453705E-01   # sdown_R decays
#          BR         NDA      ID1       ID2
     1.00000000E+00    2     1000022         1   # BR(~d_R -> ~chi_10 d)
#
#         PDG            Width
DECAY   1000004     1.87251782E-01   # scharm_L decays
#          BR         NDA      ID1       ID2
     1.00000000E+00    2     1000022         4   # BR(~c_L -> ~chi_10 c)
#
#         PDG            Width
DECAY   2000004     2.08370467E+02   # scharm_R decays
#          BR         NDA      ID1       ID2
     9.99818424E-01    2     1000022         4   # BR(~c_R -> ~chi_10 c)
     5.60281818E-06    2     1000023         4   # BR(~c_R -> ~chi_20 c)
     1.75973626E-04    2     1000025         4   # BR(~c_R -> ~chi_30 c)
#
#         PDG            Width
DECAY   1000003     1.87457386E-01   # sstrange_L decays
#          BR         NDA      ID1       ID2
     1.00000000E+00    2     1000022         3   # BR(~s_L -> ~chi_10 s)
#
#         PDG            Width
DECAY   2000003     7.49453705E-01   # sstrange_R decays
#          BR         NDA      ID1       ID2
     1.00000000E+00    2     1000022         3   # BR(~s_R -> ~chi_10 s)
#
#         PDG            Width
DECAY   1000011     1.22280974E+02   # selectron_L decays
#          BR         NDA      ID1       ID2
     9.99777501E-01    2     1000022        11   # BR(~e_L -> ~chi_10 e-)
     4.41189767E-06    2     1000023        11   # BR(~e_L -> ~chi_20 e-)
     2.15415556E-04    2     1000025        11   # BR(~e_L -> ~chi_30 e-)
     2.67181574E-06    2    -1000024        12   # BR(~e_L -> ~chi_1- nu_e)
#
#         PDG            Width
DECAY   2000011     4.89120976E+02   # selectron_R decays
#          BR         NDA      ID1       ID2
     9.99818671E-01    2     1000022        11   # BR(~e_R -> ~chi_10 e-)
     5.59517144E-06    2     1000023        11   # BR(~e_R -> ~chi_20 e-)
     1.75733412E-04    2     1000025        11   # BR(~e_R -> ~chi_30 e-)
#
#         PDG            Width
DECAY   1000013     1.22280974E+02   # smuon_L decays
#          BR         NDA      ID1       ID2
     9.99777501E-01    2     1000022        13   # BR(~mu_L -> ~chi_10 mu-)
     4.41189767E-06    2     1000023        13   # BR(~mu_L -> ~chi_20 mu-)
     2.15415556E-04    2     1000025        13   # BR(~mu_L -> ~chi_30 mu-)
     2.67181574E-06    2    -1000024        14   # BR(~mu_L -> ~chi_1- nu_mu)
#
#         PDG            Width
DECAY   2000013     4.89120976E+02   # smuon_R decays
#          BR         NDA      ID1       ID2
     9.99818671E-01    2     1000022        13   # BR(~mu_R -> ~chi_10 mu-)
     5.59517144E-06    2     1000023        13   # BR(~mu_R -> ~chi_20 mu-)
     1.75733412E-04    2     1000025        13   # BR(~mu_R -> ~chi_30 mu-)
#
#         PDG            Width
DECAY   1000015     1.18200840E+04   # stau_1 decays
#          BR         NDA      ID1       ID2
     2.59087517E-02    2     1000022        15   # BR(~tau_1 -> ~chi_10  tau-)
     2.51825997E-05    2     1000023        15   # BR(~tau_1 -> ~chi_20  tau-)
     2.49844589E-05    2     1000025        15   # BR(~tau_1 -> ~chi_30  tau-)
     2.77147389E-05    2    -1000024        16   # BR(~tau_1 -> ~chi_1-  nu_tau)
     9.74013366E-01    2     1000039        15   # BR(~tau_1 -> ~G       tau-)
#
#         PDG            Width
DECAY   2000015     3.06111468E+02   # stau_2 decays
#          BR         NDA      ID1       ID2
     9.96508177E-01    2     1000022        15   # BR(~tau_2 -> ~chi_10  tau-)
     1.07856754E-03    2     1000023        15   # BR(~tau_2 -> ~chi_20  tau-)
     1.44201995E-03    2     1000025        15   # BR(~tau_2 -> ~chi_30  tau-)
     9.71235174E-04    2    -1000024        16   # BR(~tau_2 -> ~chi_1-  nu_tau)
#
#         PDG            Width
DECAY   1000012     1.22281032E+02   # snu_eL decays
#          BR         NDA      ID1       ID2
     9.99847313E-01    2     1000022        12   # BR(~nu_eL -> ~chi_10 nu_e)
     6.91877410E-06    2     1000023        12   # BR(~nu_eL -> ~chi_20 nu_e)
     1.40085486E-04    2     1000025        12   # BR(~nu_eL -> ~chi_30 nu_e)
     5.68301636E-06    2     1000024        11   # BR(~nu_eL -> ~chi_1+ e-)
#
#         PDG            Width
DECAY   1000014     1.22281032E+02   # snu_muL decays
#          BR         NDA      ID1       ID2
     9.99847313E-01    2     1000022        14   # BR(~nu_muL -> ~chi_10 nu_mu)
     6.91877410E-06    2     1000023        14   # BR(~nu_muL -> ~chi_20 nu_mu)
     1.40085486E-04    2     1000025        14   # BR(~nu_muL -> ~chi_30 nu_mu)
     5.68301636E-06    2     1000024        13   # BR(~nu_muL -> ~chi_1+ mu-)
#
#         PDG            Width
DECAY   1000016     1.22905602E+02   # snu_tauL decays
#          BR         NDA      ID1       ID2
     9.94766384E-01    2     1000022        16   # BR(~nu_tauL -> ~chi_10 nu_tau)
     6.88361493E-06    2     1000023        16   # BR(~nu_tauL -> ~chi_20 nu_tau)
     1.39373613E-04    2     1000025        16   # BR(~nu_tauL -> ~chi_30 nu_tau)
     5.08735855E-03    2     1000024        15   # BR(~nu_tauL -> ~chi_1+ tau-)
#
#         PDG            Width
DECAY   1000024     4.74119844E+01   # chargino1+ decays
#          BR         NDA      ID1       ID2
     7.05045107E-07    2     1000002        -1   # BR(~chi_1+ -> ~u_L     db)
     3.31330853E-07    2    -1000001         2   # BR(~chi_1+ -> ~d_L*    u )
     7.05045107E-07    2     1000004        -3   # BR(~chi_1+ -> ~c_L     sb)
     3.31330853E-07    2    -1000003         4   # BR(~chi_1+ -> ~s_L*    c )
    -4.27602606E-01    2     1000006        -5   # BR(~chi_1+ -> ~t_1     bb)
     1.09569037E-01    2    -1000005         6   # BR(~chi_1+ -> ~b_1*    t )
     1.25324288E+00    2    -2000005         6   # BR(~chi_1+ -> ~b_2*    t )
     4.80137468E-02    2     1000022        24   # BR(~chi_1+ -> ~chi_10  W+)
     1.67672501E-02    2     1000022        37   # BR(~chi_1+ -> ~chi_10  H+)
     6.36327978E-06    2     1000039        24   # BR(~chi_1+ -> ~G       W+)
     1.25202371E-06    2     1000039        37   # BR(~chi_1+ -> ~G       H+)
#
#         PDG            Width
DECAY   1000037    -4.35830275E+05   # chargino2+ decays
#          BR         NDA      ID1       ID2
    -2.59661880E-03    2     1000002        -1   # BR(~chi_2+ -> ~u_L     db)
    -2.59661977E-03    2    -1000001         2   # BR(~chi_2+ -> ~d_L*    u )
    -2.59661880E-03    2     1000004        -3   # BR(~chi_2+ -> ~c_L     sb)
    -2.59661977E-03    2    -1000003         4   # BR(~chi_2+ -> ~s_L*    c )
     1.04412694E+00    2     1000006        -5   # BR(~chi_2+ -> ~t_1     bb)
    -5.59734877E-04    2    -1000005         6   # BR(~chi_2+ -> ~b_1*    t )
    -2.47652956E-03    2    -2000005         6   # BR(~chi_2+ -> ~b_2*    t )
    -1.91947332E-15    2     1000012       -11   # BR(~chi_2+ -> ~nu_eL   e+  )
    -1.91947332E-15    2     1000014       -13   # BR(~chi_2+ -> ~nu_muL  mu+ )
    -1.34396189E-15    2    -1000011        12   # BR(~chi_2+ -> ~e_L+    nu_e)
    -1.34396189E-15    2    -1000013        14   # BR(~chi_2+ -> ~mu_L+   nu_mu)
    -2.08502102E-15    2    -1000015        16   # BR(~chi_2+ -> ~tau_1+  nu_tau)
    -3.54945264E-17    2    -2000015        16   # BR(~chi_2+ -> ~tau_2+  nu_tau)
    -4.76885376E-04    2     1000024        23   # BR(~chi_2+ -> ~chi_1+  Z )
    -6.38085278E-08    2     1000022        24   # BR(~chi_2+ -> ~chi_10  W+)
    -4.62932056E-04    2     1000023        24   # BR(~chi_2+ -> ~chi_20  W+)
    -4.62863304E-04    2     1000025        24   # BR(~chi_2+ -> ~chi_30  W+)
    -4.80667165E-04    2     1000024        25   # BR(~chi_2+ -> ~chi_1+  h )
    -4.21937088E-04    2     1000024        35   # BR(~chi_2+ -> ~chi_1+  H )
    -4.21991920E-04    2     1000024        36   # BR(~chi_2+ -> ~chi_1+  A )
    -8.74885832E-08    2     1000022        37   # BR(~chi_2+ -> ~chi_10  H+)
    -4.21975781E-04    2     1000023        37   # BR(~chi_2+ -> ~chi_20  H+)
    -4.21905019E-04    2     1000025        37   # BR(~chi_2+ -> ~chi_30  H+)
    -2.71328769E-02    2     1000039        24   # BR(~chi_2+ -> ~G       W+)
    -7.79636972E-09    2     1000039        37   # BR(~chi_2+ -> ~G       H+)
#
#         PDG            Width
DECAY   1000022     1.E-08   # neutralino1 decays (OJ Mods)
#          BR         NDA      ID1       ID2
     8.88921957E-01    2     1000039        22   # BR(~chi_10 -> ~G        gam)
     1.11078038E-01    2     1000039        23   # BR(~chi_10 -> ~G        Z)
     4.99231621E-09    2     1000039        25   # BR(~chi_10 -> ~G        h)
#
#         PDG            Width
DECAY   1000023     1.E-08   # neutralino2 decays (OJ Mods)
#          BR         NDA      ID1       ID2
     8.61461339E-02    2     1000022        23   # BR(~chi_20 -> ~chi_10   Z )
     2.69695114E-03    2     1000022        25   # BR(~chi_20 -> ~chi_10   h )
     2.91740245E-02    2     1000022        35   # BR(~chi_20 -> ~chi_10   H )
     1.64433829E-03    2     1000022        36   # BR(~chi_20 -> ~chi_10   A )
     7.01434911E-08    2     1000002        -2   # BR(~chi_20 -> ~u_L      ub)
     7.01434911E-08    2    -1000002         2   # BR(~chi_20 -> ~u_L*     u )
     2.83895044E-07    2     1000001        -1   # BR(~chi_20 -> ~d_L      db)
     2.83895044E-07    2    -1000001         1   # BR(~chi_20 -> ~d_L*     d )
     6.36297468E-07    2     2000001        -1   # BR(~chi_20 -> ~d_R      db)
     6.36297468E-07    2    -2000001         1   # BR(~chi_20 -> ~d_R*     d )
     7.01434911E-08    2     1000004        -4   # BR(~chi_20 -> ~c_L      cb)
     7.01434911E-08    2    -1000004         4   # BR(~chi_20 -> ~c_L*     c )
     2.83895044E-07    2     1000003        -3   # BR(~chi_20 -> ~s_L      sb)
     2.83895044E-07    2    -1000003         3   # BR(~chi_20 -> ~s_L*     s )
     6.36297468E-07    2     2000003        -3   # BR(~chi_20 -> ~s_R      sb)
     6.36297468E-07    2    -2000003         3   # BR(~chi_20 -> ~s_R*     s )
     1.22251317E+00    2     1000006        -6   # BR(~chi_20 -> ~t_1      tb)
     1.22251317E+00    2    -1000006         6   # BR(~chi_20 -> ~t_1*     t )
    -3.77229513E-01    2     1000005        -5   # BR(~chi_20 -> ~b_1      bb)
    -3.77229513E-01    2    -1000005         5   # BR(~chi_20 -> ~b_1*     b )
    -4.05122995E-01    2     2000005        -5   # BR(~chi_20 -> ~b_2      bb)
    -4.05122995E-01    2    -2000005         5   # BR(~chi_20 -> ~b_2*     b )
     9.06135635E-11    2     1000039        22   # BR(~chi_20 -> ~G        gam)
     4.39701731E-07    2     1000039        23   # BR(~chi_20 -> ~G        Z)
     1.09734557E-05    2     1000039        25   # BR(~chi_20 -> ~G        h)
     8.79530060E-08    2     1000039        35   # BR(~chi_20 -> ~G        H)
     2.26698266E-06    2     1000039        36   # BR(~chi_20 -> ~G        A)
#
#         PDG            Width
DECAY   1000025     2.61380337E+01   # neutralino3 decays
#          BR         NDA      ID1       ID2
     2.76994971E-03    2     1000022        23   # BR(~chi_30 -> ~chi_10   Z )
     8.74844373E-02    2     1000022        25   # BR(~chi_30 -> ~chi_10   h )
     1.61659340E-03    2     1000022        35   # BR(~chi_30 -> ~chi_10   H )
     2.95456282E-02    2     1000022        36   # BR(~chi_30 -> ~chi_10   A )
     8.81017338E-06    2     1000002        -2   # BR(~chi_30 -> ~u_L      ub)
     8.81017338E-06    2    -1000002         2   # BR(~chi_30 -> ~u_L*     u )
     2.32156459E-06    2     1000001        -1   # BR(~chi_30 -> ~d_L      db)
     2.32156459E-06    2    -1000001         1   # BR(~chi_30 -> ~d_L*     d )
     2.01750909E-05    2     2000001        -1   # BR(~chi_30 -> ~d_R      db)
     2.01750909E-05    2    -2000001         1   # BR(~chi_30 -> ~d_R*     d )
     8.81017338E-06    2     1000004        -4   # BR(~chi_30 -> ~c_L      cb)
     8.81017338E-06    2    -1000004         4   # BR(~chi_30 -> ~c_L*     c )
     2.32156459E-06    2     1000003        -3   # BR(~chi_30 -> ~s_L      sb)
     2.32156459E-06    2    -1000003         3   # BR(~chi_30 -> ~s_L*     s )
     2.01750909E-05    2     2000003        -3   # BR(~chi_30 -> ~s_R      sb)
     2.01750909E-05    2    -2000003         3   # BR(~chi_30 -> ~s_R*     s )
     1.23419108E+00    2     1000006        -6   # BR(~chi_30 -> ~t_1      tb)
     1.23419108E+00    2    -1000006         6   # BR(~chi_30 -> ~t_1*     t )
    -3.37092174E-01    2     1000005        -5   # BR(~chi_30 -> ~b_1      bb)
    -3.37092174E-01    2    -1000005         5   # BR(~chi_30 -> ~b_1*     b )
    -4.57868708E-01    2     2000005        -5   # BR(~chi_30 -> ~b_2      bb)
    -4.57868708E-01    2    -2000005         5   # BR(~chi_30 -> ~b_2*     b )
     3.30674641E-09    2     1000039        22   # BR(~chi_30 -> ~G        gam)
     1.10989967E-05    2     1000039        23   # BR(~chi_30 -> ~G        Z)
     4.33003920E-07    2     1000039        25   # BR(~chi_30 -> ~G        h)
     2.27508464E-06    2     1000039        35   # BR(~chi_30 -> ~G        H)
     9.16107080E-08    2     1000039        36   # BR(~chi_30 -> ~G        A)
#
#         PDG            Width
DECAY   1000035    -4.35832223E+05   # neutralino4 decays
#          BR         NDA      ID1       ID2
    -5.26416969E-12    2     1000022        23   # BR(~chi_40 -> ~chi_10   Z )
    -4.60858730E-04    2     1000023        23   # BR(~chi_40 -> ~chi_20   Z )
    -1.60248249E-05    2     1000025        23   # BR(~chi_40 -> ~chi_30   Z )
    -4.62927045E-04    2     1000024       -24   # BR(~chi_40 -> ~chi_1+   W-)
    -4.62927045E-04    2    -1000024        24   # BR(~chi_40 -> ~chi_1-   W+)
    -6.63615661E-08    2     1000022        25   # BR(~chi_40 -> ~chi_10   h )
    -1.08391249E-08    2     1000022        35   # BR(~chi_40 -> ~chi_10   H )
    -7.65294082E-08    2     1000022        36   # BR(~chi_40 -> ~chi_10   A )
    -1.57907089E-05    2     1000023        25   # BR(~chi_40 -> ~chi_20   h )
    -4.03781616E-04    2     1000023        35   # BR(~chi_40 -> ~chi_20   H )
    -1.85611776E-05    2     1000023        36   # BR(~chi_40 -> ~chi_20   A )
    -4.64808379E-04    2     1000025        25   # BR(~chi_40 -> ~chi_30   h )
    -1.81421732E-05    2     1000025        35   # BR(~chi_40 -> ~chi_30   H )
    -4.03352268E-04    2     1000025        36   # BR(~chi_40 -> ~chi_30   A )
    -4.21982472E-04    2     1000024       -37   # BR(~chi_40 -> ~chi_1+   H-)
    -4.21982472E-04    2    -1000024        37   # BR(~chi_40 -> ~chi_1-   H+)
    -1.24256485E-03    2     1000002        -2   # BR(~chi_40 -> ~u_L      ub)
    -1.24256485E-03    2    -1000002         2   # BR(~chi_40 -> ~u_L*     u )
    -1.98393832E-23    2     2000002        -2   # BR(~chi_40 -> ~u_R      ub)
    -1.98393832E-23    2    -2000002         2   # BR(~chi_40 -> ~u_R*     u )
    -1.24256557E-03    2     1000001        -1   # BR(~chi_40 -> ~d_L      db)
    -1.24256557E-03    2    -1000001         1   # BR(~chi_40 -> ~d_L*     d )
    -2.36011494E-17    2     2000001        -1   # BR(~chi_40 -> ~d_R      db)
    -2.36011494E-17    2    -2000001         1   # BR(~chi_40 -> ~d_R*     d )
    -1.24256485E-03    2     1000004        -4   # BR(~chi_40 -> ~c_L      cb)
    -1.24256485E-03    2    -1000004         4   # BR(~chi_40 -> ~c_L*     c )
    -1.98393832E-23    2     2000004        -4   # BR(~chi_40 -> ~c_R      cb)
    -1.98393832E-23    2    -2000004         4   # BR(~chi_40 -> ~c_R*     c )
    -1.24256557E-03    2     1000003        -3   # BR(~chi_40 -> ~s_L      sb)
    -1.24256557E-03    2    -1000003         3   # BR(~chi_40 -> ~s_L*     s )
    -2.36011494E-17    2     2000003        -3   # BR(~chi_40 -> ~s_R      sb)
    -2.36011494E-17    2    -2000003         3   # BR(~chi_40 -> ~s_R*     s )
    -1.51812001E-03    2     1000006        -6   # BR(~chi_40 -> ~t_1      tb)
    -1.51812001E-03    2    -1000006         6   # BR(~chi_40 -> ~t_1*     t )
     2.51126809E-01    2     1000005        -5   # BR(~chi_40 -> ~b_1      bb)
     2.51126809E-01    2    -1000005         5   # BR(~chi_40 -> ~b_1*     b )
     2.70936552E-01    2     2000005        -5   # BR(~chi_40 -> ~b_2      bb)
     2.70936552E-01    2    -2000005         5   # BR(~chi_40 -> ~b_2*     b )
    -6.71977420E-16    2     1000011       -11   # BR(~chi_40 -> ~e_L-     e+)
    -6.71977420E-16    2    -1000011        11   # BR(~chi_40 -> ~e_L+     e-)
    -1.14871244E-28    2     2000011       -11   # BR(~chi_40 -> ~e_R-     e+)
    -1.14871244E-28    2    -2000011        11   # BR(~chi_40 -> ~e_R+     e-)
    -6.71977420E-16    2     1000013       -13   # BR(~chi_40 -> ~mu_L-    mu+)
    -6.71977420E-16    2    -1000013        13   # BR(~chi_40 -> ~mu_L+    mu-)
    -1.14871244E-28    2     2000013       -13   # BR(~chi_40 -> ~mu_R-    mu+)
    -1.14871244E-28    2    -2000013        13   # BR(~chi_40 -> ~mu_R+    mu-)
    -9.59732881E-16    2     1000012       -12   # BR(~chi_40 -> ~nu_eL    nu_eb)
    -9.59732881E-16    2    -1000012        12   # BR(~chi_40 -> ~nu_eL*   nu_e )
    -9.59732881E-16    2     1000014       -14   # BR(~chi_40 -> ~nu_muL   nu_mub)
    -9.59732881E-16    2    -1000014        14   # BR(~chi_40 -> ~nu_muL*  nu_mu )
    -9.59732881E-16    2     1000016       -16   # BR(~chi_40 -> ~nu_tau1  nu_taub)
    -9.59732881E-16    2    -1000016        16   # BR(~chi_40 -> ~nu_tau1* nu_tau )
    -6.56446966E-03    2     1000039        22   # BR(~chi_40 -> ~G        gam)
    -2.05682809E-02    2     1000039        23   # BR(~chi_40 -> ~G        Z)
    -1.24415215E-09    2     1000039        25   # BR(~chi_40 -> ~G        h)
    -7.80911900E-09    2     1000039        35   # BR(~chi_40 -> ~G        H)
    -1.53889636E-12    2     1000039        36   # BR(~chi_40 -> ~G        A)
#
#
#
#
