# SUSY Les Houches Accord 2 - MSSM spectrum + Decays
# SPheno v3.1.12 
# W. Porod, Comput. Phys. Commun. 153 (2003) 275-315, hep-ph/0301101
# in case of problems send email to porod@physik.uni-wuerzburg.de
# Created: 09.12.2016,  15:23
Block SPINFO         # Program information
     1   SPheno      # spectrum calculator
     2   v3.1.12     # version number
#
Block SPhenoINFO     # SPheno specific information
    1      2         # using 2-loop RGEs
    2      1         # using running masses for boundary conditions at mZ
Block MODSEL  # Model selection
    1    2    # mGMSB model
Block MINPAR  # Input parameters
    1    1.30000000E+05  # Lambda, scale of SUSY breaking
    2    2.50000000E+05  # M_M, messenger mass scale
    3    2.00000000E+01  # tanb at m_Z   
    4    1.00000000E+00  # Sign(mu)
    5    3.00000000E+00  # N_5 number of effective five-plets
    6    1.00000000E+00  # c_grav, Gravitino mass factor
Block gauge Q=  2.50000000E+05  # (GMSB scale)
   1    4.93181214E-01  # g'(Q)^DRbar
   2    6.47356971E-01  # g(Q)^DRbar
   3    9.35032957E-01  # g3(Q)^DRbar
Block SMINPUTS  # SM parameters
         1     1.27932484E+02  # alpha_em^-1(MZ)^MSbar
         2     1.16639000E-05  # G_mu [GeV^-2]
         3     1.17200000E-01  # alpha_s(MZ)^MSbar
         4     9.11876000E+01  # m_Z(pole)
         5     4.20000000E+00  # m_b(m_b), MSbar
         6     1.72500000E+02  # m_t(pole)
         7     1.77700000E+00  # m_tau(pole)
         8     0.00000000E+00  # m_nu_3
        11     5.10998910E-04  # m_e(pole)
        12     0.00000000E+00  # m_nu_1
        13     1.05658000E-01  # m_muon(pole)
        14     0.00000000E+00  # m_nu_2
        21     5.00000000E-03  # m_d(2 GeV), MSbar
        22     3.00000000E-03  # m_u(2 GeV), MSbar
        23     1.05000000E-01  # m_s(2 GeV), MSbar
        24     1.27000000E+00  # m_c(m_c), MSbar
Block gauge Q=  2.46106837E+03  # (SUSY scale)
   1    3.64988029E-01  # g'(Q)^DRbar
   2    6.38152803E-01  # g(Q)^DRbar
   3    1.01344000E+00  # g3(Q)^DRbar
Block Yu Q=  2.46106837E+03  # (SUSY scale)
  1  1     8.32745301E-06   # Y_u(Q)^DRbar
  2  2     3.52528900E-03   # Y_c(Q)^DRbar
  3  3     8.37102084E-01   # Y_t(Q)^DRbar
Block Yd Q=  2.46106837E+03  # (SUSY scale)
  1  1     2.49789817E-04   # Y_d(Q)^DRbar
  2  2     5.24558501E-03   # Y_s(Q)^DRbar
  3  3     2.48645649E-01   # Y_b(Q)^DRbar
Block Ye Q=  2.46106837E+03  # (SUSY scale)
  1  1     5.83007958E-05   # Y_e(Q)^DRbar
  2  2     1.20547351E-02   # Y_mu(Q)^DRbar
  3  3     2.02843379E-01   # Y_tau(Q)^DRbar
Block Au Q=  2.46106837E+03  # (SUSY scale)
  1  1    -7.56133243E+02   # A_u(Q)^DRbar
  2  2    -7.56131966E+02   # A_c(Q)^DRbar
  3  3    -7.14152125E+02   # A_t(Q)^DRbar
Block Ad Q=  2.46106837E+03  # (SUSY scale)
  1  1    -7.99608488E+02   # A_d(Q)^DRbar
  2  2    -7.99606583E+02   # A_s(Q)^DRbar
  3  3    -7.82615454E+02   # A_b(Q)^DRbar
Block Ae Q=  2.46106837E+03  # (SUSY scale)
  1  1    -8.60819259E+01   # A_e(Q)^DRbar
  2  2    -8.60806920E+01   # A_mu(Q)^DRbar
  3  3    -8.57327335E+01   # A_tau(Q)^DRbar
Block MSOFT Q=  2.46106837E+03  # soft SUSY breaking masses at Q
   1    5.72645791E+02  # M_1
   2    1.04695739E+03  # M_2
   3    2.65175142E+03  # M_3
  21    5.40815536E+05  # M^2_(H,d)
  22   -5.80458368E+05  # M^2_(H,u)
  31    8.08886317E+02  # M_(L,11)
  32    8.08879641E+02  # M_(L,22)
  33    8.06996022E+02  # M_(L,33)
  34    3.92756904E+02  # M_(E,11)
  35    3.92728920E+02  # M_(E,22)
  36    3.84755836E+02  # M_(E,33)
  41    2.55600760E+03  # M_(Q,11)
  42    2.55600328E+03  # M_(Q,22)
  43    2.47451134E+03  # M_(Q,33)
  44    2.45023725E+03  # M_(U,11)
  45    2.45023446E+03  # M_(U,22)
  46    2.28910656E+03  # M_(U,33)
  47    2.43990309E+03  # M_(D,11)
  48    2.43989674E+03  # M_(D,22)
  49    2.42568939E+03  # M_(D,33)
Block MASS  # Mass spectrum
#   PDG code      mass          particle
         6     1.72500000E+02  # m_t(pole)
        23     9.11876000E+01  # m_Z(pole)
        24     8.03132204E+01  # W+
        15     1.77700000E+00  # m_tau(pole)
        25     1.19972049E+02  # h0
        35     1.12815888E+03  # H0
        36     1.12806494E+03  # A0
        37     1.13133071E+03  # H+
   1000001     2.66156204E+03  # ~d_L
   2000001     2.53922082E+03  # ~d_R
   1000002     2.66036608E+03  # ~u_L
   2000002     2.54878113E+03  # ~u_R
   1000003     2.66155694E+03  # ~s_L
   2000003     2.53921284E+03  # ~s_R
   1000004     2.66036099E+03  # ~c_L
   2000004     2.54877775E+03  # ~c_R
   1000005     2.52032119E+03  # ~b_1
   2000005     2.56400631E+03  # ~b_2
   1000006     2.35739981E+03  # ~t_1
   2000006     2.56929197E+03  # ~t_2
   1000011     8.27092585E+02  # ~e_L-
   2000011     4.09022405E+02  # ~e_R-
   1000012     8.22865276E+02  # ~nu_eL
   1000013     8.27086929E+02  # ~mu_L-
   2000013     4.08979555E+02  # ~mu_R-
   1000014     8.22855754E+02  # ~nu_muL
   1000015     3.96758346E+02  # ~tau_1-
   2000015     8.25484501E+02  # ~tau_2-
   1000016     8.20175341E+02  # ~nu_tauL
   1000021     2.78479593E+03  # ~g
   1000022     5.56870615E+02  # ~chi_10
   1000023     8.42251626E+02  # ~chi_20
   1000025    -8.55154367E+02  # ~chi_30
   1000035     1.08501888E+03  # ~chi_40
   1000024     8.40102089E+02  # ~chi_1+
   1000037     1.08518539E+03  # ~chi_2+
   1000039     7.80000000E-09  # ~G
# Higgs mixing
Block alpha # Effective Higgs mixing angle
          -5.30917939E-02   # alpha
Block Hmix Q=  2.46106837E+03  # Higgs mixing parameters
   1    8.42478350E+02  # mu
   2    1.91562911E+01  # tan[beta](Q)
   3    2.43520780E+02  # v(Q)
   4    1.11938913E+06  # m^2_A(Q)
Block stopmix # stop mixing matrix
   1  1     1.28367699E-01   # Re[R_st(1,1)]
   1  2     9.91726643E-01   # Re[R_st(1,2)]
   2  1    -9.91726643E-01   # Re[R_st(2,1)]
   2  2     1.28367699E-01   # Re[R_st(2,2)]
Block sbotmix # sbottom mixing matrix
   1  1     1.86317949E-01   # Re[R_sb(1,1)]
   1  2     9.82489502E-01   # Re[R_sb(1,2)]
   2  1    -9.82489502E-01   # Re[R_sb(2,1)]
   2  2     1.86317949E-01   # Re[R_sb(2,2)]
Block staumix # stau mixing matrix
   1  1     5.77314654E-02   # Re[R_sta(1,1)]
   1  2     9.98332148E-01   # Re[R_sta(1,2)]
   2  1    -9.98332148E-01   # Re[R_sta(2,1)]
   2  2     5.77314654E-02   # Re[R_sta(2,2)]
Block Nmix # neutralino mixing matrix
   1  1    -9.93216758E-01   # Re[N(1,1)]
   1  2     1.06780254E-02   # Re[N(1,2)]
   1  3    -9.55161962E-02   # Re[N(1,3)]
   1  4     6.54454601E-02   # Re[N(1,4)]
   2  1    -1.13107426E-01   # Re[N(2,1)]
   2  2    -2.44390232E-01   # Re[N(2,2)]
   2  3     6.84965373E-01   # Re[N(2,3)]
   2  4    -6.76980474E-01   # Re[N(2,4)]
   3  1    -2.09468421E-02   # Re[N(3,1)]
   3  2     2.75294807E-02   # Re[N(3,2)]
   3  3     7.05740107E-01   # Re[N(3,3)]
   3  4     7.07625790E-01   # Re[N(3,4)]
   4  1    -1.69827045E-02   # Re[N(4,1)]
   4  2     9.69227281E-01   # Re[N(4,2)]
   4  3     1.53720510E-01   # Re[N(4,3)]
   4  4    -1.91520418E-01   # Re[N(4,4)]
Block Umix # chargino mixing matrix
   1  1    -2.17489909E-01   # Re[U(1,1)]
   1  2     9.76062569E-01   # Re[U(1,2)]
   2  1     9.76062569E-01   # Re[U(2,1)]
   2  2     2.17489909E-01   # Re[U(2,2)]
Block Vmix # chargino mixing matrix
   1  1    -2.70829128E-01   # Re[V(1,1)]
   1  2     9.62627437E-01   # Re[V(1,2)]
   2  1     9.62627437E-01   # Re[V(2,1)]
   2  2     2.70829128E-01   # Re[V(2,2)]
DECAY   2000011     4.50690994E-10   # ~e^-_R
#    BR                NDA      ID1      ID2
     4.78431791E-01    2     1000039        11   # BR(~e^-_R -> ~G e^-)
#    BR                NDA      ID1      ID2       ID3
     1.14298773E-01    3     1000015        11       -15   # BR(~e^-_R -> ~tau^-_1 e^- tau^+)
     4.07269435E-01    3    -1000015        11        15   # BR(~e^-_R -> ~tau^+_1 e^- tau^-)
DECAY   1000011     3.11093627E-01   # ~e^-_L
#    BR                NDA      ID1      ID2
     9.99999843E-01    2     1000022        11   # BR(~e^-_L -> chi^0_1 e^-)
     6.60601308E-08    2     2000011        23   # BR(~e^-_L -> ~e^-_R Z)
     6.76834398E-08    2     2000011        25   # BR(~e^-_L -> ~e^-_R h^0)
     2.34338122E-08    2     1000039        11   # BR(~e^-_L -> ~G e^-)
DECAY   2000013     4.46379218E-10   # ~mu^-_R
#    BR                NDA      ID1      ID2
     4.82800077E-01    2     1000039        13   # BR(~mu^-_R -> ~G mu^-)
#    BR                NDA      ID1      ID2       ID3
     1.13310349E-01    3     1000015        13       -15   # BR(~mu^-_R -> ~tau^-_1 mu^- tau^+)
     4.03889574E-01    3    -1000015        13        15   # BR(~mu^-_R -> ~tau^+_1 mu^- tau^-)
DECAY   1000013     3.12870882E-01   # ~mu^-_L
#    BR                NDA      ID1      ID2
     9.94314224E-01    2     1000022        13   # BR(~mu^-_L -> chi^0_1 mu^-)
     2.80843726E-03    2     2000013        23   # BR(~mu^-_L -> ~mu^-_R Z)
     2.87731572E-03    2     2000013        25   # BR(~mu^-_L -> ~mu^-_R h^0)
     2.32998988E-08    2     1000039        13   # BR(~mu^-_L -> ~G mu^-)
DECAY   1000015     1.85165013E-10   # ~tau^-_1
#    BR                NDA      ID1      ID2
     1.00000000E+00    2     1000039        15   # BR(~tau^-_1 -> ~G tau^-)
DECAY   2000015     8.21716527E-01   # ~tau^-_2
#    BR                NDA      ID1      ID2
     3.77952280E-01    2     1000022        15   # BR(~tau^-_2 -> chi^0_1 tau^-)
     3.09245369E-01    2     1000015        23   # BR(~tau^-_2 -> ~tau^-_1 Z)
     3.12802342E-01    2     1000015        25   # BR(~tau^-_2 -> ~tau^-_1 h^0)
     8.78573235E-09    2     1000039        15   # BR(~tau^-_2 -> ~G tau^-)
DECAY   1000012     3.27999033E-01   # ~nu_e
#    BR                NDA      ID1      ID2
     9.99999858E-01    2     1000022        12   # BR(~nu_e -> chi^0_1 nu_e)
     1.20745704E-07    2     2000011        24   # BR(~nu_e -> ~e^-_R W^+)
     2.16637951E-08    2     1000039        12   # BR(~nu_e -> ~G nu_e)
DECAY   1000014     3.29675685E-01   # ~nu_mu
#    BR                NDA      ID1      ID2
     9.94863669E-01    2     1000022        14   # BR(~nu_mu -> chi^0_1 nu_mu)
     5.13630951E-03    2     2000013        24   # BR(~nu_mu -> ~mu^-_R W^+)
     2.15523711E-08    2     1000039        14   # BR(~nu_mu -> ~G nu_mu)
DECAY   1000016     8.11366561E-01   # ~nu_tau
#    BR                NDA      ID1      ID2
     3.98472077E-01    2     1000022        16   # BR(~nu_tau -> chi^0_1 nu_tau)
     6.01527915E-01    2     1000015        24   # BR(~nu_tau -> ~tau^-_1 W^+)
     8.61548749E-09    2     1000039        16   # BR(~nu_tau -> ~G nu_tau)
DECAY   2000001     1.35271357E+00   # ~d_R
#    BR                NDA      ID1      ID2
     9.88198132E-01    2     1000022         1   # BR(~d_R -> chi^0_1 d)
     1.12032784E-02    2     1000023         1   # BR(~d_R -> chi^0_2 d)
     3.82179413E-04    2     1000025         1   # BR(~d_R -> chi^0_3 d)
     2.13044039E-04    2     1000035         1   # BR(~d_R -> chi^0_4 d)
     1.89061000E-06    2    -1000024         2   # BR(~d_R -> chi^-_1 u)
     5.32713322E-09    2    -1000037         2   # BR(~d_R -> chi^-_2 u)
     1.46980571E-06    2     1000039         1   # BR(~d_R -> ~G d)
DECAY   1000001     2.30330277E+01   # ~d_L
#    BR                NDA      ID1      ID2
     1.71260699E-02    2     1000022         1   # BR(~d_L -> chi^0_1 d)
     1.88199815E-02    2     1000023         1   # BR(~d_L -> chi^0_2 d)
     3.74124723E-04    2     1000025         1   # BR(~d_L -> chi^0_3 d)
     3.07764576E-01    2     1000035         1   # BR(~d_L -> chi^0_4 d)
     3.58992231E-02    2    -1000024         2   # BR(~d_L -> chi^-_1 u)
     6.20015915E-01    2    -1000037         2   # BR(~d_L -> chi^-_2 u)
     6.42498106E-13    2     2000002       -24   # BR(~d_L -> ~u_R W^-)
     2.30855361E-10    2     2000001        23   # BR(~d_L -> ~d_R Z)
     1.36453200E-10    2     2000001        25   # BR(~d_L -> ~d_R h^0)
     1.09218287E-07    2     1000039         1   # BR(~d_L -> ~G d)
DECAY   2000003     1.35494716E+00   # ~s_R
#    BR                NDA      ID1      ID2
     9.86584248E-01    2     1000022         3   # BR(~s_R -> chi^0_1 s)
     1.15887575E-02    2     1000023         3   # BR(~s_R -> chi^0_2 s)
     7.77078998E-04    2     1000025         3   # BR(~s_R -> chi^0_3 s)
     2.13725770E-04    2     1000035         3   # BR(~s_R -> chi^0_4 s)
     8.32377232E-04    2    -1000024         4   # BR(~s_R -> chi^-_1 c)
     2.34565411E-06    2    -1000037         4   # BR(~s_R -> chi^-_2 c)
     1.46735970E-06    2     1000039         3   # BR(~s_R -> ~G s)
DECAY   1000003     2.30345936E+01   # ~s_L
#    BR                NDA      ID1      ID2
     1.71247359E-02    2     1000022         3   # BR(~s_L -> chi^0_1 s)
     1.88411070E-02    2     1000023         3   # BR(~s_L -> chi^0_2 s)
     3.99695733E-04    2     1000025         3   # BR(~s_L -> chi^0_3 s)
     3.07744646E-01    2     1000035         3   # BR(~s_L -> chi^0_4 s)
     3.59139340E-02    2    -1000024         4   # BR(~s_L -> chi^-_1 c)
     6.19975495E-01    2    -1000037         4   # BR(~s_L -> chi^-_2 c)
     1.15127639E-07    2     2000004       -24   # BR(~s_L -> ~c_R W^-)
     1.01811904E-07    2     2000003        23   # BR(~s_L -> ~s_R Z)
     6.02085332E-08    2     2000003        25   # BR(~s_L -> ~s_R h^0)
     1.09209816E-07    2     1000039         3   # BR(~s_L -> ~G s)
DECAY   1000005     7.69184352E+00   # ~b_1
#    BR                NDA      ID1      ID2
     1.84575468E-01    2     1000022         5   # BR(~b_1 -> chi^0_1 b)
     1.78871439E-01    2     1000023         5   # BR(~b_1 -> chi^0_2 b)
     1.51486856E-01    2     1000025         5   # BR(~b_1 -> chi^0_3 b)
     8.53551475E-03    2     1000035         5   # BR(~b_1 -> chi^0_4 b)
     4.49422687E-01    2    -1000024         6   # BR(~b_1 -> chi^-_1 t)
     2.61438573E-02    2    -1000037         6   # BR(~b_1 -> chi^-_2 t)
     9.63928754E-04    2     1000006       -24   # BR(~b_1 -> ~t_1 W^-)
     2.49004738E-07    2     1000039         5   # BR(~b_1 -> ~G b)
DECAY   2000005     5.08280541E+01   # ~b_2
#    BR                NDA      ID1      ID2
     6.53524802E-03    2     1000022         5   # BR(~b_2 -> chi^0_1 b)
     2.69111330E-02    2     1000023         5   # BR(~b_2 -> chi^0_2 b)
     2.54572833E-02    2     1000025         5   # BR(~b_2 -> chi^0_3 b)
     1.30917559E-01    2     1000035         5   # BR(~b_2 -> chi^0_4 b)
     4.96445468E-01    2    -1000024         6   # BR(~b_2 -> chi^-_1 t)
     3.04150585E-01    2    -1000037         6   # BR(~b_2 -> chi^-_2 t)
     9.58268315E-03    2     1000006       -24   # BR(~b_2 -> ~t_1 W^-)
     4.10630049E-08    2     1000039         5   # BR(~b_2 -> ~G b)
DECAY   2000002     5.43538243E+00   # ~u_R
#    BR                NDA      ID1      ID2
     9.88189791E-01    2     1000022         2   # BR(~u_R -> chi^0_1 u)
     1.12145267E-02    2     1000023         2   # BR(~u_R -> chi^0_2 u)
     3.81717968E-04    2     1000025         2   # BR(~u_R -> chi^0_3 u)
     2.13591500E-04    2     1000035         2   # BR(~u_R -> chi^0_4 u)
     5.29369133E-10    2     1000024         1   # BR(~u_R -> chi^+_1 d)
     3.15048072E-12    2     1000037         1   # BR(~u_R -> chi^+_2 d)
     3.72731446E-07    2     1000039         2   # BR(~u_R -> ~G u)
DECAY   1000002     2.30860322E+01   # ~u_L
#    BR                NDA      ID1      ID2
     1.36258079E-02    2     1000022         2   # BR(~u_L -> chi^0_1 u)
     2.67311006E-02    2     1000023         2   # BR(~u_L -> chi^0_2 u)
     2.07910829E-04    2     1000025         2   # BR(~u_L -> chi^0_3 u)
     3.02737603E-01    2     1000035         2   # BR(~u_L -> chi^0_4 u)
     5.55032778E-02    2     1000024         1   # BR(~u_L -> chi^+_1 d)
     6.01194191E-01    2     1000037         1   # BR(~u_L -> chi^+_2 d)
     6.15774936E-10    2     2000001        24   # BR(~u_L -> ~d_R W^+)
     1.76905664E-13    2     2000002        23   # BR(~u_L -> ~u_R Z)
     1.08722926E-07    2     1000039         2   # BR(~u_L -> ~G u)
DECAY   2000004     5.43639439E+00   # ~c_R
#    BR                NDA      ID1      ID2
     9.88004015E-01    2     1000022         4   # BR(~c_R -> chi^0_1 c)
     1.12582599E-02    2     1000023         4   # BR(~c_R -> chi^0_2 c)
     4.28152489E-04    2     1000025         4   # BR(~c_R -> chi^0_3 c)
     2.13784370E-04    2     1000035         4   # BR(~c_R -> chi^0_4 c)
     9.48512663E-05    2     1000024         3   # BR(~c_R -> chi^+_1 s)
     5.64465606E-07    2     1000037         3   # BR(~c_R -> chi^+_2 s)
     3.72659221E-07    2     1000039         4   # BR(~c_R -> ~G c)
DECAY   1000004     2.30876245E+01   # ~c_L
#    BR                NDA      ID1      ID2
     1.36249259E-02    2     1000022         4   # BR(~c_L -> chi^0_1 c)
     2.67385829E-02    2     1000023         4   # BR(~c_L -> chi^0_2 c)
     2.19224143E-04    2     1000025         4   # BR(~c_L -> chi^0_3 c)
     3.02717320E-01    2     1000035         4   # BR(~c_L -> chi^0_4 c)
     5.55454175E-02    2     1000024         3   # BR(~c_L -> chi^+_1 s)
     6.01154118E-01    2     1000037         3   # BR(~c_L -> chi^+_2 s)
     2.71560591E-07    2     2000003        24   # BR(~c_L -> ~s_R W^+)
     3.16978197E-08    2     2000004        23   # BR(~c_L -> ~c_R Z)
     1.08714288E-07    2     1000039         4   # BR(~c_L -> ~G c)
DECAY   1000006     5.42798595E+01   # ~t_1
#    BR                NDA      ID1      ID2
     1.38146557E-05    2     1000022         4   # BR(~t_1 -> chi^0_1 c)
     9.17219840E-02    2     1000022         6   # BR(~t_1 -> chi^0_1 t)
     2.61246418E-05    2     1000023         4   # BR(~t_1 -> chi^0_2 c)
     2.15361454E-01    2     1000023         6   # BR(~t_1 -> chi^0_2 t)
     2.31026613E-01    2     1000025         6   # BR(~t_1 -> chi^0_3 t)
     5.57764851E-03    2     1000035         6   # BR(~t_1 -> chi^0_4 t)
     4.44805396E-01    2     1000024         5   # BR(~t_1 -> chi^+_1 b)
     1.14592112E-02    2     1000037         5   # BR(~t_1 -> chi^+_2 b)
     2.47265980E-08    2     1000039         6   # BR(~t_1 -> ~G t)
#    BR                NDA      ID1      ID2       ID3
     7.72920865E-06    3     1000022        24         5   # BR(~t_1 -> chi^0_1 W^+ b)
DECAY   2000006     5.23962345E+01   # ~t_2
#    BR                NDA      ID1      ID2
     6.78368670E-03    2     1000022         6   # BR(~t_2 -> chi^0_1 t)
     2.46674025E-01    2     1000023         6   # BR(~t_2 -> chi^0_2 t)
     2.62656378E-01    2     1000025         6   # BR(~t_2 -> chi^0_3 t)
     1.56382178E-01    2     1000035         6   # BR(~t_2 -> chi^0_4 t)
     4.86372647E-02    2     1000024         5   # BR(~t_2 -> chi^+_1 b)
     2.70287107E-01    2     1000037         5   # BR(~t_2 -> chi^+_2 b)
     4.93034495E-03    2     1000006        23   # BR(~t_2 -> ~t_1 Z)
     3.64897674E-03    2     1000006        25   # BR(~t_2 -> ~t_1 h^0)
     3.95259517E-08    2     1000039         6   # BR(~t_2 -> ~G t)
DECAY   1000024     6.22022757E-01   # chi^+_1
#    BR                NDA      ID1      ID2
     2.74433324E-08    2    -2000011        12   # BR(chi^+_1 -> ~e^+_R nu_e)
     2.44410243E-04    2    -1000011        12   # BR(chi^+_1 -> ~e^+_L nu_e)
     1.17341896E-03    2    -2000013        14   # BR(chi^+_1 -> ~mu^+_R nu_mu)
     2.44474040E-04    2    -1000013        14   # BR(chi^+_1 -> ~mu^+_L nu_mu)
     3.43054624E-01    2    -1000015        16   # BR(chi^+_1 -> ~tau^+_1 nu_tau)
     2.58393100E-04    2    -2000015        16   # BR(chi^+_1 -> ~tau^+_2 nu_tau)
     6.61940942E-04    2     1000012       -11   # BR(chi^+_1 -> ~nu_e e^+)
     6.66282400E-04    2     1000014       -13   # BR(chi^+_1 -> ~nu_mu mu^+)
     2.21267529E-03    2     1000016       -15   # BR(chi^+_1 -> ~nu_tau tau^+)
     6.50782297E-01    2     1000022        24   # BR(chi^+_1 -> chi^0_1 W^+)
#    BR                NDA      ID1      ID2       ID3
     3.99468206E-09    3     1000022        -1         2   # BR(chi^+_1 -> chi^0_1 d_bar u)
     4.36457269E-09    3     1000022        -3         4   # BR(chi^+_1 -> chi^0_1 s_bar c)
     6.90056939E-04    3     1000022        -5         6   # BR(chi^+_1 -> chi^0_1 b_bar t)
     1.01351379E-12    3     1000022       -11        12   # BR(chi^+_1 -> chi^0_1 e^+ nu_e)
     4.33186108E-08    3     1000022       -13        14   # BR(chi^+_1 -> chi^0_1 mu^+ nu_mu)
     1.13479281E-05    3     1000022       -15        16   # BR(chi^+_1 -> chi^0_1 tau^+ nu_tau)
DECAY   1000037     9.03485181E+00   # chi^+_2
#    BR                NDA      ID1      ID2
     4.28372523E-12    2    -2000011        12   # BR(chi^+_2 -> ~e^+_R nu_e)
     8.14190126E-02    2    -1000011        12   # BR(chi^+_2 -> ~e^+_L nu_e)
     1.83224048E-07    2    -2000013        14   # BR(chi^+_2 -> ~mu^+_R nu_mu)
     8.14234984E-02    2    -1000013        14   # BR(chi^+_2 -> ~mu^+_L nu_mu)
     5.85886553E-05    2    -1000015        16   # BR(chi^+_2 -> ~tau^+_1 nu_tau)
     8.26971544E-02    2    -2000015        16   # BR(chi^+_2 -> ~tau^+_2 nu_tau)
     8.14471954E-02    2     1000012       -11   # BR(chi^+_2 -> ~nu_e e^+)
     8.14534557E-02    2     1000014       -13   # BR(chi^+_2 -> ~nu_mu mu^+)
     8.32271165E-02    2     1000016       -15   # BR(chi^+_2 -> ~nu_tau tau^+)
     8.05779640E-04    2     1000022        24   # BR(chi^+_2 -> chi^0_1 W^+)
     1.36639294E-01    2     1000023        24   # BR(chi^+_2 -> chi^0_2 W^+)
     1.21138178E-01    2     1000025        24   # BR(chi^+_2 -> chi^0_3 W^+)
     1.34041244E-01    2     1000024        23   # BR(chi^+_2 -> chi^+_1 Z)
     1.15550007E-01    2     1000024        25   # BR(chi^+_2 -> chi^+_1 h^0)
#    BR                NDA      ID1      ID2       ID3
     2.70328271E-09    3     1000024         2        -2   # BR(chi^+_2 -> chi^+_1 u u_bar)
     2.70208721E-09    3     1000024         4        -4   # BR(chi^+_2 -> chi^+_1 c c_bar)
     4.08591396E-09    3     1000024         1        -1   # BR(chi^+_2 -> chi^+_1 d d_bar)
     4.18539710E-09    3     1000024         3        -3   # BR(chi^+_2 -> chi^+_1 s s_bar)
     2.34228950E-07    3     1000024         5        -5   # BR(chi^+_2 -> chi^+_1 b b_bar)
     1.34767294E-06    3     1000024        11       -11   # BR(chi^+_2 -> chi^+_1 e^- e^+)
     1.35292735E-06    3     1000024        13       -13   # BR(chi^+_2 -> chi^+_1 mu^- mu^+)
     2.74393530E-06    3     1000024        15       -15   # BR(chi^+_2 -> chi^+_1 tau^- tau^+)
     2.79533094E-06    3     1000024        12       -12   # BR(chi^+_2 -> chi^+_1 nu_e nu_bar_e)
     7.60220683E-08    3     1000022        -1         2   # BR(chi^+_2 -> chi^0_1 d_bar u)
     7.60190497E-08    3     1000022        -3         4   # BR(chi^+_2 -> chi^0_1 s_bar c)
     6.09145347E-06    3     1000022        -5         6   # BR(chi^+_2 -> chi^0_1 b_bar t)
     3.86034582E-11    3     1000022       -13        14   # BR(chi^+_2 -> chi^0_1 mu^+ nu_mu)
     1.14640370E-08    3     1000022       -15        16   # BR(chi^+_2 -> chi^0_1 tau^+ nu_tau)
     1.67679181E-09    3     1000023        -1         2   # BR(chi^+_2 -> chi^0_2 d_bar u)
     1.72880017E-09    3     1000023        -3         4   # BR(chi^+_2 -> chi^0_2 s_bar c)
     5.32631226E-05    3     1000023        -5         6   # BR(chi^+_2 -> chi^0_2 b_bar t)
     8.31371433E-07    3     1000023       -11        12   # BR(chi^+_2 -> chi^0_2 e^+ nu_e)
     8.33844140E-07    3     1000023       -13        14   # BR(chi^+_2 -> chi^0_2 mu^+ nu_mu)
     1.44610006E-06    3     1000023       -15        16   # BR(chi^+_2 -> chi^0_2 tau^+ nu_tau)
     4.83938268E-11    3     1000025        -1         2   # BR(chi^+_2 -> chi^0_3 d_bar u)
     8.35179769E-11    3     1000025        -3         4   # BR(chi^+_2 -> chi^0_3 s_bar c)
     2.76148709E-05    3     1000025        -5         6   # BR(chi^+_2 -> chi^0_3 b_bar t)
     1.24385206E-08    3     1000025       -11        12   # BR(chi^+_2 -> chi^0_3 e^+ nu_e)
     1.43404324E-08    3     1000025       -13        14   # BR(chi^+_2 -> chi^0_3 mu^+ nu_mu)
     5.30981392E-07    3     1000025       -15        16   # BR(chi^+_2 -> chi^0_3 tau^+ nu_tau)
DECAY   1000022     1.94213642E+00   # chi^0_1
#    BR                NDA      ID1      ID2
     1.58972874E-01    2     2000011       -11   # BR(chi^0_1 -> ~e^-_R e^+)
     1.58972874E-01    2    -2000011        11   # BR(chi^0_1 -> ~e^+_R e^-)
     1.59051643E-01    2     2000013       -13   # BR(chi^0_1 -> ~mu^-_R mu^+)
     1.59051643E-01    2    -2000013        13   # BR(chi^0_1 -> ~mu^+_R mu^-)
     1.81975482E-01    2     1000015       -15   # BR(chi^0_1 -> ~tau^-_1 tau^+)
     1.81975482E-01    2    -1000015        15   # BR(chi^0_1 -> ~tau^+_1 tau^-)
     3.81307628E-10    2     1000039        22   # BR(chi^0_1 -> ~G photon)
     1.13332630E-10    2     1000039        23   # BR(chi^0_1 -> ~G Z)
     2.57001213E-12    2     1000039        25   # BR(chi^0_1 -> ~G h^0)
DECAY   1000023     7.60163292E-01   # chi^0_2
#    BR                NDA      ID1      ID2
     2.19370244E-02    2     2000011       -11   # BR(chi^0_2 -> ~e^-_R e^+)
     2.19370244E-02    2    -2000011        11   # BR(chi^0_2 -> ~e^+_R e^-)
     2.72814926E-04    2     1000011       -11   # BR(chi^0_2 -> ~e^-_L e^+)
     2.72814926E-04    2    -1000011        11   # BR(chi^0_2 -> ~e^+_L e^-)
     2.24077565E-02    2     2000013       -13   # BR(chi^0_2 -> ~mu^-_R mu^+)
     2.24077565E-02    2    -2000013        13   # BR(chi^0_2 -> ~mu^+_R mu^-)
     2.74131820E-04    2     1000013       -13   # BR(chi^0_2 -> ~mu^-_L mu^+)
     2.74131820E-04    2    -1000013        13   # BR(chi^0_2 -> ~mu^+_L mu^-)
     1.60044837E-01    2     1000015       -15   # BR(chi^0_2 -> ~tau^-_1 tau^+)
     1.60044837E-01    2    -1000015        15   # BR(chi^0_2 -> ~tau^+_1 tau^-)
     7.04996549E-04    2     2000015       -15   # BR(chi^0_2 -> ~tau^-_2 tau^+)
     7.04996549E-04    2    -2000015        15   # BR(chi^0_2 -> ~tau^+_2 tau^-)
     1.50058357E-04    2     1000012       -12   # BR(chi^0_2 -> ~nu_e nu_bar_e)
     1.50058357E-04    2    -1000012        12   # BR(chi^0_2 -> ~nu^*_e nu_e)
     1.50204087E-04    2     1000014       -14   # BR(chi^0_2 -> ~nu_mu nu_bar_mu)
     1.50204087E-04    2    -1000014        14   # BR(chi^0_2 -> ~nu^*_mu nu_mu)
     1.93961614E-04    2     1000016       -16   # BR(chi^0_2 -> ~nu_tau nu_bar_tau)
     1.93961614E-04    2    -1000016        16   # BR(chi^0_2 -> ~nu^*_tau nu_tau)
     2.29136601E-02    2     1000022        23   # BR(chi^0_2 -> chi^0_1 Z)
     5.64796481E-01    2     1000022        25   # BR(chi^0_2 -> chi^0_1 h^0)
     5.06059854E-10    2     1000039        22   # BR(chi^0_2 -> ~G photon)
     4.16591342E-10    2     1000039        23   # BR(chi^0_2 -> ~G Z)
     5.32727352E-09    2     1000039        25   # BR(chi^0_2 -> ~G h^0)
     5.35032081E-07    2     1000022        22   # BR(chi^0_2 -> chi^0_1 photon)
#    BR                NDA      ID1      ID2       ID3
     5.92462025E-09    3     1000022         2        -2   # BR(chi^0_2 -> chi^0_1 u u_bar)
     5.93240149E-09    3     1000022         4        -4   # BR(chi^0_2 -> chi^0_1 c c_bar)
     1.85128147E-09    3     1000022         1        -1   # BR(chi^0_2 -> chi^0_1 d d_bar)
     2.24718814E-09    3     1000022         3        -3   # BR(chi^0_2 -> chi^0_1 s s_bar)
     8.98726731E-07    3     1000022         5        -5   # BR(chi^0_2 -> chi^0_1 b b_bar)
     2.68213777E-06    3     1000022        11       -11   # BR(chi^0_2 -> chi^0_1 e^- e^+)
     2.71597350E-06    3     1000022        13       -13   # BR(chi^0_2 -> chi^0_1 mu^- mu^+)
     1.14333794E-05    3     1000022        15       -15   # BR(chi^0_2 -> chi^0_1 tau^- tau^+)
     2.67972983E-11    3     1000024         1        -2   # BR(chi^0_2 -> chi^+_1 d u_bar)
     2.67972983E-11    3    -1000024        -1         2   # BR(chi^0_2 -> chi^-_1 d_bar u)
     4.33247278E-12    3     1000024         3        -4   # BR(chi^0_2 -> chi^+_1 s c_bar)
     4.33247278E-12    3    -1000024        -3         4   # BR(chi^0_2 -> chi^-_1 s_bar c)
     8.68996431E-12    3     1000024        11       -12   # BR(chi^0_2 -> chi^+_1 e^- nu_bar_e)
     8.68996431E-12    3    -1000024       -11        12   # BR(chi^0_2 -> chi^-_1 e^+ nu_e)
     8.58606457E-12    3     1000024        13       -14   # BR(chi^0_2 -> chi^+_1 mu^- nu_bar_mu)
     8.58606457E-12    3    -1000024       -13        14   # BR(chi^0_2 -> chi^-_1 mu^+ nu_mu)
     9.94807808E-14    3     1000024        15       -16   # BR(chi^0_2 -> chi^+_1 tau^- nu_bar_tau)
     9.94807808E-14    3    -1000024       -15        16   # BR(chi^0_2 -> chi^-_1 tau^+ nu_tau)
DECAY   1000025     6.65686905E-01   # chi^0_3
#    BR                NDA      ID1      ID2
     8.88524549E-04    2     2000011       -11   # BR(chi^0_3 -> ~e^-_R e^+)
     8.88524549E-04    2    -2000011        11   # BR(chi^0_3 -> ~e^+_R e^-)
     2.62149365E-06    2     1000011       -11   # BR(chi^0_3 -> ~e^-_L e^+)
     2.62149365E-06    2    -1000011        11   # BR(chi^0_3 -> ~e^+_L e^-)
     1.43121667E-03    2     2000013       -13   # BR(chi^0_3 -> ~mu^-_R mu^+)
     1.43121667E-03    2    -2000013        13   # BR(chi^0_3 -> ~mu^+_R mu^-)
     6.55869079E-06    2     1000013       -13   # BR(chi^0_3 -> ~mu^-_L mu^+)
     6.55869079E-06    2    -1000013        13   # BR(chi^0_3 -> ~mu^+_L mu^-)
     1.59896710E-01    2     1000015       -15   # BR(chi^0_3 -> ~tau^-_1 tau^+)
     1.59896710E-01    2    -1000015        15   # BR(chi^0_3 -> ~tau^+_1 tau^-)
     1.25167014E-03    2     2000015       -15   # BR(chi^0_3 -> ~tau^-_2 tau^+)
     1.25167014E-03    2    -2000015        15   # BR(chi^0_3 -> ~tau^+_2 tau^-)
     2.22963522E-05    2     1000012       -12   # BR(chi^0_3 -> ~nu_e nu_bar_e)
     2.22963522E-05    2    -1000012        12   # BR(chi^0_3 -> ~nu^*_e nu_e)
     2.23092515E-05    2     1000014       -14   # BR(chi^0_3 -> ~nu_mu nu_bar_mu)
     2.23092515E-05    2    -1000014        14   # BR(chi^0_3 -> ~nu^*_mu nu_mu)
     2.60821937E-05    2     1000016       -16   # BR(chi^0_3 -> ~nu_tau nu_bar_tau)
     2.60821937E-05    2    -1000016        16   # BR(chi^0_3 -> ~nu^*_tau nu_tau)
     6.51674467E-01    2     1000022        23   # BR(chi^0_3 -> chi^0_1 Z)
     2.12123889E-02    2     1000022        25   # BR(chi^0_3 -> chi^0_1 h^0)
     2.63793254E-13    2     1000039        22   # BR(chi^0_3 -> ~G photon)
     1.17570987E-09    2     1000039        23   # BR(chi^0_3 -> ~G Z)
     5.79202117E-09    2     1000039        25   # BR(chi^0_3 -> ~G h^0)
     6.61354881E-07    2     1000022        22   # BR(chi^0_3 -> chi^0_1 photon)
     1.30399296E-09    2     1000023        22   # BR(chi^0_3 -> chi^0_2 photon)
#    BR                NDA      ID1      ID2       ID3
     7.67131680E-11    3     1000022         2        -2   # BR(chi^0_3 -> chi^0_1 u u_bar)
     9.48752749E-11    3     1000022         4        -4   # BR(chi^0_3 -> chi^0_1 c c_bar)
     2.13379492E-11    3     1000022         1        -1   # BR(chi^0_3 -> chi^0_1 d d_bar)
     5.55003282E-10    3     1000022         3        -3   # BR(chi^0_3 -> chi^0_1 s s_bar)
     1.20696662E-06    3     1000022         5        -5   # BR(chi^0_3 -> chi^0_1 b b_bar)
     4.52057369E-08    3     1000022        11       -11   # BR(chi^0_3 -> chi^0_1 e^- e^+)
     9.11743360E-08    3     1000022        13       -13   # BR(chi^0_3 -> chi^0_1 mu^- mu^+)
     1.21377377E-05    3     1000022        15       -15   # BR(chi^0_3 -> chi^0_1 tau^- tau^+)
     5.85329613E-08    3     1000023         2        -2   # BR(chi^0_3 -> chi^0_2 u u_bar)
     5.50642013E-08    3     1000023         4        -4   # BR(chi^0_3 -> chi^0_2 c c_bar)
     7.59876786E-08    3     1000023         1        -1   # BR(chi^0_3 -> chi^0_2 d d_bar)
     7.59472628E-08    3     1000023         3        -3   # BR(chi^0_3 -> chi^0_2 s s_bar)
     2.53834222E-08    3     1000023         5        -5   # BR(chi^0_3 -> chi^0_2 b b_bar)
     1.74931996E-08    3     1000023        11       -11   # BR(chi^0_3 -> chi^0_2 e^- e^+)
     1.74864412E-08    3     1000023        13       -13   # BR(chi^0_3 -> chi^0_2 mu^- mu^+)
     1.53790224E-08    3     1000023        15       -15   # BR(chi^0_3 -> chi^0_2 tau^- tau^+)
     1.04543537E-07    3     1000023        12       -12   # BR(chi^0_3 -> chi^0_2 nu_e nu_bar_e)
     4.36374638E-07    3     1000024         1        -2   # BR(chi^0_3 -> chi^+_1 d u_bar)
     4.36374638E-07    3    -1000024        -1         2   # BR(chi^0_3 -> chi^-_1 d_bar u)
     4.21445572E-07    3     1000024         3        -4   # BR(chi^0_3 -> chi^+_1 s c_bar)
     4.21445572E-07    3    -1000024        -3         4   # BR(chi^0_3 -> chi^-_1 s_bar c)
     1.45295443E-07    3     1000024        11       -12   # BR(chi^0_3 -> chi^+_1 e^- nu_bar_e)
     1.45295443E-07    3    -1000024       -11        12   # BR(chi^0_3 -> chi^-_1 e^+ nu_e)
     1.45262287E-07    3     1000024        13       -14   # BR(chi^0_3 -> chi^+_1 mu^- nu_bar_mu)
     1.45262287E-07    3    -1000024       -13        14   # BR(chi^0_3 -> chi^-_1 mu^+ nu_mu)
     1.36076323E-07    3     1000024        15       -16   # BR(chi^0_3 -> chi^+_1 tau^- nu_bar_tau)
     1.36076323E-07    3    -1000024       -15        16   # BR(chi^0_3 -> chi^-_1 tau^+ nu_tau)
DECAY   1000035     9.04795458E+00   # chi^0_4
#    BR                NDA      ID1      ID2
     6.74610125E-05    2     2000011       -11   # BR(chi^0_4 -> ~e^-_R e^+)
     6.74610125E-05    2    -2000011        11   # BR(chi^0_4 -> ~e^+_R e^-)
     3.92443923E-02    2     1000011       -11   # BR(chi^0_4 -> ~e^-_L e^+)
     3.92443923E-02    2    -1000011        11   # BR(chi^0_4 -> ~e^+_L e^-)
     6.74708022E-05    2     2000013       -13   # BR(chi^0_4 -> ~mu^-_R mu^+)
     6.74708022E-05    2    -2000013        13   # BR(chi^0_4 -> ~mu^+_R mu^-)
     3.92471564E-02    2     1000013       -13   # BR(chi^0_4 -> ~mu^-_L mu^+)
     3.92471564E-02    2    -1000013        13   # BR(chi^0_4 -> ~mu^+_L mu^-)
     7.66368749E-05    2     1000015       -15   # BR(chi^0_4 -> ~tau^-_1 tau^+)
     7.66368749E-05    2    -1000015        15   # BR(chi^0_4 -> ~tau^+_1 tau^-)
     4.00321150E-02    2     2000015       -15   # BR(chi^0_4 -> ~tau^-_2 tau^+)
     4.00321150E-02    2    -2000015        15   # BR(chi^0_4 -> ~tau^+_2 tau^-)
     4.20131683E-02    2     1000012       -12   # BR(chi^0_4 -> ~nu_e nu_bar_e)
     4.20131683E-02    2    -1000012        12   # BR(chi^0_4 -> ~nu^*_e nu_e)
     4.20158010E-02    2     1000014       -14   # BR(chi^0_4 -> ~nu_mu nu_bar_mu)
     4.20158010E-02    2    -1000014        14   # BR(chi^0_4 -> ~nu^*_mu nu_mu)
     4.27589511E-02    2     1000016       -16   # BR(chi^0_4 -> ~nu_tau nu_bar_tau)
     4.27589511E-02    2    -1000016        16   # BR(chi^0_4 -> ~nu^*_tau nu_tau)
     1.37478911E-01    2     1000024       -24   # BR(chi^0_4 -> chi^+_1 W^-)
     1.37478911E-01    2    -1000024        24   # BR(chi^0_4 -> chi^-_1 W^+)
     8.74772977E-05    2     1000022        23   # BR(chi^0_4 -> chi^0_1 Z)
     2.01370177E-03    2     1000023        23   # BR(chi^0_4 -> chi^0_2 Z)
     1.14641545E-01    2     1000025        23   # BR(chi^0_4 -> chi^0_3 Z)
     8.54561809E-04    2     1000022        25   # BR(chi^0_4 -> chi^0_1 h^0)
     1.15200921E-01    2     1000023        25   # BR(chi^0_4 -> chi^0_2 h^0)
     1.07152120E-03    2     1000025        25   # BR(chi^0_4 -> chi^0_3 h^0)
     6.81117937E-10    2     1000039        22   # BR(chi^0_4 -> ~G photon)
     2.82057407E-09    2     1000039        23   # BR(chi^0_4 -> ~G Z)
     1.24457141E-10    2     1000039        25   # BR(chi^0_4 -> ~G h^0)
     1.83633402E-07    2     1000022        22   # BR(chi^0_4 -> chi^0_1 photon)
     7.69411437E-07    2     1000023        22   # BR(chi^0_4 -> chi^0_2 photon)
     8.39207636E-07    2     1000025        22   # BR(chi^0_4 -> chi^0_3 photon)
#    BR                NDA      ID1      ID2       ID3
     3.36041878E-08    3     1000022         2        -2   # BR(chi^0_4 -> chi^0_1 u u_bar)
     3.36010858E-08    3     1000022         4        -4   # BR(chi^0_4 -> chi^0_1 c c_bar)
     1.06735590E-06    3     1000022         6        -6   # BR(chi^0_4 -> chi^0_1 t t_bar)
     4.24410415E-08    3     1000022         1        -1   # BR(chi^0_4 -> chi^0_1 d d_bar)
     4.24409778E-08    3     1000022         3        -3   # BR(chi^0_4 -> chi^0_1 s s_bar)
     4.90161078E-08    3     1000022         5        -5   # BR(chi^0_4 -> chi^0_1 b b_bar)
     3.56476327E-08    3     1000022        11       -11   # BR(chi^0_4 -> chi^0_1 e^- e^+)
     3.56317568E-08    3     1000022        13       -13   # BR(chi^0_4 -> chi^0_1 mu^- mu^+)
     3.37813091E-08    3     1000022        15       -15   # BR(chi^0_4 -> chi^0_1 tau^- tau^+)
     2.82982315E-09    3     1000023         2        -2   # BR(chi^0_4 -> chi^0_2 u u_bar)
     2.82805788E-09    3     1000023         4        -4   # BR(chi^0_4 -> chi^0_2 c c_bar)
     2.00907543E-09    3     1000023         1        -1   # BR(chi^0_4 -> chi^0_2 d d_bar)
     2.05338705E-09    3     1000023         3        -3   # BR(chi^0_4 -> chi^0_2 s s_bar)
     1.03724980E-07    3     1000023         5        -5   # BR(chi^0_4 -> chi^0_2 b b_bar)
     1.20626593E-06    3     1000023        11       -11   # BR(chi^0_4 -> chi^0_2 e^- e^+)
     1.20870745E-06    3     1000023        13       -13   # BR(chi^0_4 -> chi^0_2 mu^- mu^+)
     1.80080470E-06    3     1000023        15       -15   # BR(chi^0_4 -> chi^0_2 tau^- tau^+)
     1.13524141E-06    3     1000023        12       -12   # BR(chi^0_4 -> chi^0_2 nu_e nu_bar_e)
     5.88113757E-12    3     1000025         2        -2   # BR(chi^0_4 -> chi^0_3 u u_bar)
     6.39987139E-12    3     1000025         4        -4   # BR(chi^0_4 -> chi^0_3 c c_bar)
     1.07606068E-11    3     1000025         1        -1   # BR(chi^0_4 -> chi^0_3 d d_bar)
     5.12465949E-11    3     1000025         3        -3   # BR(chi^0_4 -> chi^0_3 s s_bar)
     9.26355260E-08    3     1000025         5        -5   # BR(chi^0_4 -> chi^0_3 b b_bar)
     8.36252181E-10    3     1000025        11       -11   # BR(chi^0_4 -> chi^0_3 e^- e^+)
     2.61342778E-09    3     1000025        13       -13   # BR(chi^0_4 -> chi^0_3 mu^- mu^+)
     4.85526011E-07    3     1000025        15       -15   # BR(chi^0_4 -> chi^0_3 tau^- tau^+)
     1.50227777E-08    3     1000025        12       -12   # BR(chi^0_4 -> chi^0_3 nu_e nu_bar_e)
     1.75772461E-09    3     1000024         1        -2   # BR(chi^0_4 -> chi^+_1 d u_bar)
     1.75772461E-09    3    -1000024        -1         2   # BR(chi^0_4 -> chi^-_1 d_bar u)
     1.81137986E-09    3     1000024         3        -4   # BR(chi^0_4 -> chi^+_1 s c_bar)
     1.81137986E-09    3    -1000024        -3         4   # BR(chi^0_4 -> chi^-_1 s_bar c)
     5.55645384E-05    3     1000024         5        -6   # BR(chi^0_4 -> chi^+_1 b t_bar)
     5.55645384E-05    3    -1000024        -5         6   # BR(chi^0_4 -> chi^-_1 b_bar t)
     7.63941519E-07    3     1000024        11       -12   # BR(chi^0_4 -> chi^+_1 e^- nu_bar_e)
     7.63941519E-07    3    -1000024       -11        12   # BR(chi^0_4 -> chi^-_1 e^+ nu_e)
     7.66326878E-07    3     1000024        13       -14   # BR(chi^0_4 -> chi^+_1 mu^- nu_bar_mu)
     7.66326878E-07    3    -1000024       -13        14   # BR(chi^0_4 -> chi^-_1 mu^+ nu_mu)
     1.35868436E-06    3     1000024        15       -16   # BR(chi^0_4 -> chi^+_1 tau^- nu_bar_tau)
     1.35868436E-06    3    -1000024       -15        16   # BR(chi^0_4 -> chi^-_1 tau^+ nu_tau)
DECAY   1000021     1.58555856E+01   # ~g
#    BR                NDA      ID1      ID2
     4.72769480E-02    2     2000002        -2   # BR(~g -> ~u_R u_bar)
     4.72769480E-02    2    -2000002         2   # BR(~g -> ~u^*_R u)
     1.36963419E-02    2     1000002        -2   # BR(~g -> ~u_L u_bar)
     1.36963419E-02    2    -1000002         2   # BR(~g -> ~u^*_L u)
     4.72770521E-02    2     2000004        -4   # BR(~g -> ~c_R c_bar)
     4.72770521E-02    2    -2000004         4   # BR(~g -> ~c^*_R c)
     1.36970609E-02    2     1000004        -4   # BR(~g -> ~c_L c_bar)
     1.36970609E-02    2    -1000004         4   # BR(~g -> ~c^*_L c)
     3.97575955E-04    2     1000006        -4   # BR(~g -> ~t_1 c_bar)
     3.97575955E-04    2    -1000006         4   # BR(~g -> ~t^*_1 c)
     1.18893079E-01    2     1000006        -6   # BR(~g -> ~t_1 t_bar)
     1.18893079E-01    2    -1000006         6   # BR(~g -> ~t^*_1 t)
     2.94547822E-02    2     2000006        -6   # BR(~g -> ~t_2 t_bar)
     2.94547822E-02    2    -2000006         6   # BR(~g -> ~t^*_2 t)
     5.10013095E-02    2     2000001        -1   # BR(~g -> ~d_R d_bar)
     5.10013095E-02    2    -2000001         1   # BR(~g -> ~d^*_R d)
     1.34402238E-02    2     1000001        -1   # BR(~g -> ~d_L d_bar)
     1.34402238E-02    2    -1000001         1   # BR(~g -> ~d^*_L d)
     5.10044079E-02    2     2000003        -3   # BR(~g -> ~s_R s_bar)
     5.10044079E-02    2    -2000003         3   # BR(~g -> ~s^*_R s)
     1.34413371E-02    2     1000003        -3   # BR(~g -> ~s_L s_bar)
     1.34413371E-02    2    -1000003         3   # BR(~g -> ~s^*_L s)
     5.83692017E-02    2     1000005        -5   # BR(~g -> ~b_1 b_bar)
     5.83692017E-02    2    -1000005         5   # BR(~g -> ~b^*_1 b)
     4.19054007E-02    2     2000005        -5   # BR(~g -> ~b_2 b_bar)
     4.19054007E-02    2    -2000005         5   # BR(~g -> ~b^*_2 b)
     3.15739975E-06    2     1000022        21   # BR(~g -> chi^0_1 g)
     1.27895407E-04    2     1000023        21   # BR(~g -> chi^0_2 g)
     1.45464552E-04    2     1000025        21   # BR(~g -> chi^0_3 g)
     1.40401693E-05    2     1000035        21   # BR(~g -> chi^0_4 g)
DECAY        25     2.75180559E-03   # h^0
#    BR                NDA      ID1      ID2
     8.73545145E-09    2          11       -11   # BR(h^0 -> e^- e^+)
     3.73458414E-04    2          13       -13   # BR(h^0 -> mu^- mu^+)
     1.05094430E-01    2          15       -15   # BR(h^0 -> tau^- tau^+)
     6.61987377E-07    2           1        -1   # BR(h^0 -> d d_bar)
     2.91935154E-04    2           3        -3   # BR(h^0 -> s s_bar)
     6.30873784E-01    2           5        -5   # BR(h^0 -> b b_bar)
     2.42038721E-07    2           2        -2   # BR(h^0 -> u u_bar)
     4.33671797E-02    2           4        -4   # BR(h^0 -> c c_bar)
     6.49545246E-02    2          21        21   # BR(h^0 -> g g)
     3.18563921E-03    2          22        22   # BR(h^0 -> photon photon)
# writing decays into V V* as 3-body decays
#    BR                NDA      ID1      ID2       ID3
     6.94489876E-03    3          24        11        12   # BR(h^0 -> W^+ e^- nu_e)
     6.94489876E-03    3          24        13        14   # BR(h^0 -> W^+ mu^- nu_mu)
     6.94489876E-03    3          24        15        16   # BR(h^0 -> W^+ tau^- nu_tau)
     2.43071457E-02    3          24         1        -2   # BR(h^0 -> W^+ d u_bar)
     2.43071457E-02    3          24         3        -4   # BR(h^0 -> W^+ s c_bar)
     6.94489876E-03    3         -24       -11       -12   # BR(h^0 -> W^- e^+ nu_bar_e)
     6.94489876E-03    3         -24       -13       -14   # BR(h^0 -> W^- mu^+ nu_bar_mu)
     6.94489876E-03    3         -24       -15       -16   # BR(h^0 -> W^- tau^+ nu_bar_tau)
     2.43071457E-02    3         -24        -1         2   # BR(h^0 -> W^- d_bar u)
     2.43071457E-02    3         -24        -3         4   # BR(h^0 -> W^- s_bar c)
     4.53605618E-04    3          23        11       -11   # BR(h^0 -> Z e^- e^+)
     4.53605618E-04    3          23        13       -13   # BR(h^0 -> Z mu^- mu^+)
     3.88804815E-04    3          23        15       -15   # BR(h^0 -> Z tau^- tau^+)
     2.59203210E-03    3          23        12       -12   # BR(h^0 -> Z nu_e nu_bar_e)
     1.81442247E-03    3          23         1        -1   # BR(h^0 -> Z u u_bar)
     1.81442247E-03    3          23         3        -3   # BR(h^0 -> Z c c_bar)
     1.81442247E-03    3          23         5        -5   # BR(h^0 -> Z t t_bar)
     1.81442247E-03    3          23         2        -2   # BR(h^0 -> Z u u_bar)
     1.81442247E-03    3          23         4        -4   # BR(h^0 -> Z c c_bar)
DECAY        35     5.78602058E+00   # H^0
#    BR                NDA      ID1      ID2
     1.31475450E-08    2          11       -11   # BR(H^0 -> e^- e^+)
     5.62096679E-04    2          13       -13   # BR(H^0 -> mu^- mu^+)
     1.59151563E-01    2          15       -15   # BR(H^0 -> tau^- tau^+)
     8.22224915E-07    2           1        -1   # BR(H^0 -> d d_bar)
     3.62601042E-04    2           3        -3   # BR(H^0 -> s s_bar)
     8.14708605E-01    2           5        -5   # BR(H^0 -> b b_bar)
     2.58069690E-12    2           2        -2   # BR(H^0 -> u u_bar)
     4.62490320E-07    2           4        -4   # BR(H^0 -> c c_bar)
     2.38188533E-02    2           6        -6   # BR(H^0 -> t t_bar)
     6.37006524E-06    2     2000011  -2000011   # BR(H^0 -> ~e^-_R ~e^+_R)
     6.37521459E-06    2     2000013  -2000013   # BR(H^0 -> ~mu^-_R ~mu^+_R)
     7.79540868E-06    2     1000015  -1000015   # BR(H^0 -> ~tau^-_1 ~tau^+_1)
     1.80887762E-05    2     1000022   1000022   # BR(H^0 -> chi^0_1 chi^0_1)
     3.97795613E-04    2          23        23   # BR(H^0 -> Z Z)
     7.57323455E-04    2          24       -24   # BR(H^0 -> W^+ W^-)
     1.72313222E-04    2          25        25   # BR(H^0 -> h^0 h^0)
     2.88269838E-05    2          21        21   # BR(H^0 -> g g)
     9.40124583E-08    2          22        22   # BR(H^0 -> photon photon)
DECAY        36     5.78163784E+00   # A^0
#    BR                NDA      ID1      ID2
     1.31606684E-08    2          11       -11   # BR(A^0 -> e^- e^+)
     5.62657762E-04    2          13       -13   # BR(A^0 -> mu^- mu^+)
     1.59312003E-01    2          15       -15   # BR(A^0 -> tau^- tau^+)
     8.23044948E-07    2           1        -1   # BR(A^0 -> d d_bar)
     3.62962666E-04    2           3        -3   # BR(A^0 -> s s_bar)
     8.15526086E-01    2           5        -5   # BR(A^0 -> b b_bar)
     2.28685390E-12    2           2        -2   # BR(A^0 -> u u_bar)
     4.09830191E-07    2           4        -4   # BR(A^0 -> c c_bar)
     2.26456621E-02    2           6        -6   # BR(A^0 -> t t_bar)
     8.18756806E-04    2     1000022   1000022   # BR(A^0 -> chi^0_1 chi^0_1)
     7.46242103E-04    2          25        23   # BR(A^0 -> h^0 Z)
     2.42739333E-05    2          21        21   # BR(A^0 -> g g)
     1.09970826E-07    2          22        22   # BR(A^0 -> photon photon)
DECAY        37     5.01672750E+00   # H^+
#    BR                NDA      ID1      ID2
     1.52112111E-08    2         -11        12   # BR(H^+ -> e^+ nu_e)
     6.50324569E-04    2         -13        12   # BR(H^+ -> mu^+ nu_e)
     1.84134157E-01    2         -15        12   # BR(H^+ -> tau^+ nu_e)
     8.37696589E-07    2          -1         2   # BR(H^+ -> d_bar u)
     3.69839189E-04    2          -3         4   # BR(H^+ -> s_bar c)
     8.13998031E-01    2          -5         6   # BR(H^+ -> b_bar t)
     8.46795359E-04    2          25        24   # BR(H^+ -> h^0 W^+)
DECAY         6     2.43000000E+00   # top
#    BR                NDA      ID1      ID2
     1.00000000E+00    2           5        24   # BR(t -> b W)
Block HiggsBoundsInputHiggsCouplingsFermions
# ScalarNormEffCoupSq PseudoSNormEffCoupSq NP IP1 IP2 IP2
    1.12925255E+00    0.00000000E+00        3  25   5   5  # h0-b-b eff. coupling^2, normalised to SM
    3.99870747E+02    0.00000000E+00        3  35   5   5  # H0-b-b eff. coupling^2, normalised to SM
    0.00000000E+00    4.00000000E+02        3  36   5   5  # A0-b-b eff. coupling^2, normalised to SM
#
    9.99676869E-01    0.00000000E+00        3  25   6   6  # h0-t-t eff. coupling^2, normalised to SM
    2.82313137E-03    0.00000000E+00        3  35   6   6  # H0-t-t eff. coupling^2, normalised to SM
    0.00000000E+00    2.50000000E-03        3  36   6   6  # A0-t-t eff. coupling^2, normalised to SM
#
    1.12925255E+00    0.00000000E+00        3  25  15  15  # h0-tau-tau eff. coupling^2, normalised to SM
    3.99870747E+02    0.00000000E+00        3  35  15  15  # H0-tau-tau eff. coupling^2, normalised to SM
    0.00000000E+00    4.00000000E+02        3  36  15  15  # A0-tau-tau eff. coupling^2, normalised to SM
#
Block HiggsBoundsInputHiggsCouplingsBosons
    9.99990182E-01        3  25  24  24  # h0-W-W eff. coupling^2, normalised to SM
    9.81815210E-06        3  35  24  24  # H0-W-W eff. coupling^2, normalised to SM
    0.00000000E+00        3  36  24  24  # A0-W-W eff. coupling^2, normalised to SM
#
    9.99990182E-01        3  25  23  23  # h0-Z-Z eff. coupling^2, normalised to SM
    9.81815210E-06        3  35  23  23  # H0-Z-Z eff. coupling^2, normalised to SM
    0.00000000E+00        3  36  23  23  # A0-Z-Z eff. coupling^2, normalised to SM
#
    1.15865057E+00        3  25  21  21  # h0-g-g eff. coupling^2, normalised to SM
    4.27146267E-03        3  35  21  21  # H0-g-g eff. coupling^2, normalised to SM
    1.07205940E-01        3  36  21  21  # A0-g-g eff. coupling^2, normalised to SM
#
    0.00000000E+00        3  25  25  23  # h0-h0-Z eff. coupling^2, normalised to SM
    0.00000000E+00        3  35  25  23  # H0-h0-Z eff. coupling^2, normalised to SM
    9.81815210E-06        3  36  25  23  # A0-h0-Z eff. coupling^2, normalised to SM
    0.00000000E+00        3  35  35  23  # H0-H0-Z eff. coupling^2, normalised to SM
    9.99990182E-01        3  36  35  23  # A0-H0-Z eff. coupling^2, normalised to SM
    0.00000000E+00        3  36  36  23  # A0-A0-Z eff. coupling^2, normalised to SM
#
    0.00000000E+00        4  25  21  21  23  # h0-g-g-Z eff. coupling^2, normalised to SM
    0.00000000E+00        4  35  21  21  23  # H0-g-g-Z eff. coupling^2, normalised to SM
    0.00000000E+00        4  36  21  21  23  # A0-g-g-Z eff. coupling^2, normalised to SM
Block SPhenoLowEnergy  # low energy observables
    1    3.13741737E-04   # BR(b -> s gamma)
    2    1.59091879E-06   # BR(b -> s mu+ mu-)
    3    3.53954629E-05   # BR(b -> s nu nu)
    4    5.17903119E-11   # BR(Bd -> mu+ mu-)
    5    3.38364442E-09   # BR(Bs -> mu+ mu-)
    6    1.09316754E-04   # BR(B_u -> tau nu)
    7    9.88457078E-01   # BR(B_u -> tau nu)/BR(B_u -> tau nu)_SM
    8    2.73792478E-01   # |Delta(M_Bd)| [ps^-1] 
    9    2.03175042E+01   # |Delta(M_Bs)| [ps^-1] 
   20    1.20831818E-14   # Delta(g-2)_electron/2
   21    2.60744398E-10   # Delta(g-2)_muon/2
   22    1.79081371E-08   # Delta(g-2)_tau/2
   23    0.00000000E+00   # electric dipole moment of the electron
   24    0.00000000E+00   # electric dipole moment of the muon
   25    0.00000000E+00   # electric dipole moment of the tau
   26    0.00000000E+00   # Br(mu -> e gamma)
   27    0.00000000E+00   # Br(tau -> e gamma)
   28    0.00000000E+00   # Br(tau -> mu gamma)
   29    0.00000000E+00   # Br(mu -> 3 e)
   30    0.00000000E+00   # Br(tau -> 3 e)
   31    0.00000000E+00   # Br(tau -> 3 mu)
   39    6.30089943E-04   # Delta(rho_parameter)
   40    0.00000000E+00   # BR(Z -> e mu)
   41    0.00000000E+00   # BR(Z -> e tau)
   42    0.00000000E+00   # BR(Z -> mu tau)
Block FWCOEF Q=  9.11876000E+01  # Wilson coefficients at scale Q
#    id        order  M        value         comment
Block FWCOEF Q=  1.60000000E+02  # Wilson coefficients at scale Q
#    id        order  M        value         comment
     0305 4422   00   0    -1.87757990E-01   # C7
     0305 4422   00   1    -1.49631360E-02   # C7
     0305 4322   00   1    -3.25743584E-04   # C7'
     0305 6421   00   0    -9.48895678E-02   # C8
     0305 6421   00   1    -2.14423336E-02   # C8
     0305 6321   00   1    -4.61859648E-04   # C8'
 03051111 4133   00   0    -1.26017901E+00   # C9 e+e-
 03051111 4133   00   1     7.88560887E-04   # C9 e+e-
 03051111 4233   00   1    -1.25958680E-05   # C9' e+e-
 03051111 4137   00   0    -3.94817245E+00   # C10 e+e-
 03051111 4137   00   1     2.43945171E-03   # C10 e+e-
 03051111 4237   00   1     3.21035639E-04   # C10' e+e-
 03051313 4133   00   0    -1.26017901E+00   # C9 mu+mu-
 03051313 4133   00   1     7.88521019E-04   # C9 mu+mu-
 03051313 4233   00   1    -1.25964375E-05   # C9' mu+mu-
 03051313 4137   00   0    -3.94817245E+00   # C10 mu+mu-
 03051313 4137   00   1     2.43941177E-03   # C10 mu+mu-
 03051313 4237   00   1     3.21036209E-04   # C10' mu+mu-
 03051212 4237   00   0     1.49015475E+00   # C11 nu_1 nu_1
 03051212 4237   00   1    -5.88006988E-04   # C11 nu_1 nu_1
 03051212 4137   00   1    -7.71468287E-05   # C11' nu_1 nu_1
 03051414 4237   00   0     1.49015475E+00   # C11 nu_2 nu_2
 03051414 4237   00   1    -5.88006962E-04   # C11 nu_2 nu_2
 03051414 4137   00   1    -7.71466940E-05   # C11' nu_2 nu_2
 03051616 4237   00   0     1.49015475E+00   # C11 nu_3 nu_3
 03051616 4237   00   1    -5.87998800E-04   # C11 nu_3 nu_3
 03051616 4137   00   1    -7.71087371E-05   # C11' nu_3 nu_3
