# SUSY Les Houches Accord 2 - MSSM spectrum + Decays
# SPheno v3.1.12 
# W. Porod, Comput. Phys. Commun. 153 (2003) 275-315, hep-ph/0301101
# in case of problems send email to porod@physik.uni-wuerzburg.de
# Created: 12.11.2012,  11:43
Block SPINFO         # Program information
     1   SPheno      # spectrum calculator
     2   v3.1.12     # version number
#
Block SPhenoINFO     # SPheno specific information
    1      2         # using 2-loop RGEs
    2      1         # using running masses for boundary conditions at mZ
Block MODSEL  # Model selection
    1    2    # mGMSB model
Block MINPAR  # Input parameters
    1    9.00000000E+04  # Lambda, scale of SUSY breaking
    2    2.50000000E+05  # M_M, messenger mass scale
    3    1.50000000E+01  # tanb at m_Z   
    4    1.00000000E+00  # Sign(mu)
    5    3.00000000E+00  # N_5 number of effective five-plets
    6    1.00000000E+00  # c_grav, Gravitino mass factor
Block gauge Q=  2.50000000E+05  # (GMSB scale)
   1    4.93867468E-01  # g'(Q)^DRbar
   2    6.50080813E-01  # g(Q)^DRbar
   3    9.42779623E-01  # g3(Q)^DRbar
Block SMINPUTS  # SM parameters
         1     1.27932484E+02  # alpha_em^-1(MZ)^MSbar
         2     1.16639000E-05  # G_mu [GeV^-2]
         3     1.17200000E-01  # alpha_s(MZ)^MSbar
         4     9.11876000E+01  # m_Z(pole)
         5     4.20000000E+00  # m_b(m_b), MSbar
         6     1.72500000E+02  # m_t(pole)
         7     1.77700000E+00  # m_tau(pole)
         8     0.00000000E+00  # m_nu_3
        11     5.10998910E-04  # m_e(pole)
        12     0.00000000E+00  # m_nu_1
        13     1.05658000E-01  # m_muon(pole)
        14     0.00000000E+00  # m_nu_2
        21     5.00000000E-03  # m_d(2 GeV), MSbar
        22     3.00000000E-03  # m_u(2 GeV), MSbar
        23     1.05000000E-01  # m_s(2 GeV), MSbar
        24     1.27000000E+00  # m_c(m_c), MSbar
Block gauge Q=  1.74321285E+03  # (SUSY scale)
   1    3.64257664E-01  # g'(Q)^DRbar
   2    6.40043442E-01  # g(Q)^DRbar
   3    1.03011007E+00  # g3(Q)^DRbar
Block Yu Q=  1.74321285E+03  # (SUSY scale)
  1  1     8.44466862E-06   # Y_u(Q)^DRbar
  2  2     3.57491009E-03   # Y_c(Q)^DRbar
  3  3     8.47197185E-01   # Y_t(Q)^DRbar
Block Yd Q=  1.74321285E+03  # (SUSY scale)
  1  1     1.93096235E-04   # Y_d(Q)^DRbar
  2  2     4.05502026E-03   # Y_s(Q)^DRbar
  3  3     1.91935929E-01   # Y_b(Q)^DRbar
Block Ye Q=  1.74321285E+03  # (SUSY scale)
  1  1     4.33425728E-05   # Y_e(Q)^DRbar
  2  2     8.96184757E-03   # Y_mu(Q)^DRbar
  3  3     1.50768535E-01   # Y_tau(Q)^DRbar
Block Au Q=  1.74321285E+03  # (SUSY scale)
  1  1    -5.70128526E+02   # A_u(Q)^DRbar
  2  2    -5.70127664E+02   # A_c(Q)^DRbar
  3  3    -5.36183066E+02   # A_t(Q)^DRbar
Block Ad Q=  1.74321285E+03  # (SUSY scale)
  1  1    -6.07263592E+02   # A_d(Q)^DRbar
  2  2    -6.07262598E+02   # A_s(Q)^DRbar
  3  3    -5.94617021E+02   # A_b(Q)^DRbar
Block Ae Q=  1.74321285E+03  # (SUSY scale)
  1  1    -6.42477700E+01   # A_e(Q)^DRbar
  2  2    -6.42472309E+01   # A_mu(Q)^DRbar
  3  3    -6.40952146E+01   # A_tau(Q)^DRbar
Block MSOFT Q=  1.74321285E+03  # soft SUSY breaking masses at Q
   1    3.84051731E+02  # M_1
   2    7.08888753E+02  # M_2
   3    1.84503886E+03  # M_3
  21    2.83187163E+05  # M^2_(H,d)
  22   -3.47996776E+05  # M^2_(H,u)
  31    5.64636399E+02  # M_(L,11)
  32    5.64633604E+02  # M_(L,22)
  33    5.63845116E+02  # M_(L,33)
  34    2.72287658E+02  # M_(E,11)
  35    2.72275867E+02  # M_(E,22)
  36    2.68930550E+02  # M_(E,33)
  41    1.81067011E+03  # M_(Q,11)
  42    1.81066776E+03  # M_(Q,22)
  43    1.75077652E+03  # M_(Q,33)
  44    1.73802079E+03  # M_(U,11)
  45    1.73801866E+03  # M_(U,22)
  46    1.61516789E+03  # M_(U,33)
  47    1.73101658E+03  # M_(D,11)
  48    1.73101376E+03  # M_(D,22)
  49    1.72472206E+03  # M_(D,33)
Block MASS  # Mass spectrum
#   PDG code      mass          particle
         6     1.72500000E+02  # m_t(pole)
        23     9.11876000E+01  # m_Z(pole)
        24     8.03132429E+01  # W+
        15     1.77700000E+00  # m_tau(pole)
        25     1.17301467E+02  # h0
        35     8.43079503E+02  # H0
        36     8.42911362E+02  # A0
        37     8.47143613E+02  # H+
   1000001     1.88648343E+03  # ~d_L
   2000001     1.80287176E+03  # ~d_R
   1000002     1.88474262E+03  # ~u_L
   2000002     1.80899560E+03  # ~u_R
   1000003     1.88648075E+03  # ~s_L
   2000003     1.80286812E+03  # ~s_R
   1000004     1.88474009E+03  # ~c_L
   2000004     1.80899298E+03  # ~c_R
   1000005     1.79320527E+03  # ~b_1
   2000005     1.81611145E+03  # ~b_2
   1000006     1.66526067E+03  # ~t_1
   2000006     1.82481220E+03  # ~t_2
   1000011     5.77617656E+02  # ~e_L-
   2000011     2.85363592E+02  # ~e_R-
   1000012     5.71764976E+02  # ~nu_eL
   1000013     5.77617358E+02  # ~mu_L-
   2000013     2.85341853E+02  # ~mu_R-
   1000014     5.71761040E+02  # ~nu_muL
   1000015     2.79169692E+02  # ~tau_1-
   2000015     5.77525238E+02  # ~tau_2-
   1000016     5.70652646E+02  # ~nu_tauL
   1000021     1.94802008E+03  # ~g
   1000022     3.72333757E+02  # ~chi_10
   1000023     6.20770475E+02  # ~chi_20
   1000025    -6.52446597E+02  # ~chi_30
   1000035     7.58403215E+02  # ~chi_40
   1000024     6.19075453E+02  # ~chi_1+
   1000037     7.58360134E+02  # ~chi_2+
   1000039     5.40000000E-09  # ~G
# Higgs mixing
Block alpha # Effective Higgs mixing angle
          -7.15588644E-02   # alpha
Block Hmix Q=  1.74321285E+03  # Higgs mixing parameters
   1    6.42443478E+02  # mu
   2    1.43893330E+01  # tan[beta](Q)
   3    2.43724301E+02  # v(Q)
   4    6.29256419E+05  # m^2_A(Q)
Block stopmix # stop mixing matrix
   1  1     1.85913522E-01   # Re[R_st(1,1)]
   1  2     9.82566111E-01   # Re[R_st(1,2)]
   2  1    -9.82566111E-01   # Re[R_st(2,1)]
   2  2     1.85913522E-01   # Re[R_st(2,2)]
Block sbotmix # sbottom mixing matrix
   1  1     3.00961268E-01   # Re[R_sb(1,1)]
   1  2     9.53636364E-01   # Re[R_sb(1,2)]
   2  1    -9.53636364E-01   # Re[R_sb(2,1)]
   2  2     3.00961268E-01   # Re[R_sb(2,2)]
Block staumix # stau mixing matrix
   1  1     6.72096014E-02   # Re[R_sta(1,1)]
   1  2     9.97738878E-01   # Re[R_sta(1,2)]
   2  1    -9.97738878E-01   # Re[R_sta(2,1)]
   2  2     6.72096014E-02   # Re[R_sta(2,2)]
Block Nmix # neutralino mixing matrix
   1  1    -9.91728663E-01   # Re[N(1,1)]
   1  2     1.64891287E-02   # Re[N(1,2)]
   1  3    -1.08151074E-01   # Re[N(1,3)]
   1  4     6.71246032E-02   # Re[N(1,4)]
   2  1     1.16821983E-01   # Re[N(2,1)]
   2  2     4.85655776E-01   # Re[N(2,2)]
   2  3    -6.24633470E-01   # Re[N(2,3)]
   2  4     6.00270039E-01   # Re[N(2,4)]
   3  1     2.82838928E-02   # Re[N(3,1)]
   3  2    -3.78749088E-02   # Re[N(3,2)]
   3  3    -7.04584892E-01   # Re[N(3,3)]
   3  4    -7.08043531E-01   # Re[N(3,4)]
   4  1    -4.50211518E-02   # Re[N(4,1)]
   4  2     8.73173561E-01   # Re[N(4,2)]
   4  3     3.18898892E-01   # Re[N(4,3)]
   4  4    -3.65847680E-01   # Re[N(4,4)]
Block Umix # chargino mixing matrix
   1  1    -4.48995188E-01   # Re[U(1,1)]
   1  2     8.93534175E-01   # Re[U(1,2)]
   2  1     8.93534175E-01   # Re[U(2,1)]
   2  2     4.48995188E-01   # Re[U(2,2)]
Block Vmix # chargino mixing matrix
   1  1    -5.15186419E-01   # Re[V(1,1)]
   1  2     8.57078149E-01   # Re[V(1,2)]
   2  1     8.57078149E-01   # Re[V(2,1)]
   2  2     5.15186419E-01   # Re[V(2,2)]
DECAY   2000011     1.05746319E-10   # ~e^-_R
#    BR                NDA      ID1      ID2
     7.03222350E-01    2     1000039        11   # BR(~e^-_R -> ~G e^-)
#    BR                NDA      ID1      ID2       ID3
     7.45638020E-02    3     1000015        11       -15   # BR(~e^-_R -> ~tau^-_1 e^- tau^+)
     2.22213848E-01    3    -1000015        11        15   # BR(~e^-_R -> ~tau^+_1 e^- tau^-)
DECAY   1000011     2.41401870E-01   # ~e^-_L
#    BR                NDA      ID1      ID2
     9.99999915E-01    2     1000022        11   # BR(~e^-_L -> chi^0_1 e^-)
     3.60427582E-08    2     2000011        23   # BR(~e^-_L -> ~e^-_R Z)
     3.82348493E-08    2     2000011        25   # BR(~e^-_L -> ~e^-_R h^0)
     1.04671098E-08    2     1000039        11   # BR(~e^-_L -> ~G e^-)
DECAY   2000013     1.05196641E-10   # ~mu^-_R
#    BR                NDA      ID1      ID2
     7.06627255E-01    2     1000039        13   # BR(~mu^-_R -> ~G mu^-)
#    BR                NDA      ID1      ID2       ID3
     7.36912101E-02    3     1000015        13       -15   # BR(~mu^-_R -> ~tau^-_1 mu^- tau^+)
     2.19681535E-01    3    -1000015        13        15   # BR(~mu^-_R -> ~tau^+_1 mu^- tau^-)
DECAY   1000013     2.42175477E-01   # ~mu^-_L
#    BR                NDA      ID1      ID2
     9.96834448E-01    2     1000022        13   # BR(~mu^-_L -> chi^0_1 mu^-)
     1.53611577E-03    2     2000013        23   # BR(~mu^-_L -> ~mu^-_R Z)
     1.62942553E-03    2     2000013        25   # BR(~mu^-_L -> ~mu^-_R h^0)
     1.04336453E-08    2     1000039        13   # BR(~mu^-_L -> ~G mu^-)
DECAY   1000015     6.66248215E-11   # ~tau^-_1
#    BR                NDA      ID1      ID2
     1.00000000E+00    2     1000039        15   # BR(~tau^-_1 -> ~G tau^-)
DECAY   2000015     4.62246228E-01   # ~tau^-_2
#    BR                NDA      ID1      ID2
     5.26394444E-01    2     1000022        15   # BR(~tau^-_2 -> chi^0_1 tau^-)
     2.32141493E-01    2     1000015        23   # BR(~tau^-_2 -> ~tau^-_1 Z)
     2.41464058E-01    2     1000015        25   # BR(~tau^-_2 -> ~tau^-_1 h^0)
     5.46172872E-09    2     1000039        15   # BR(~tau^-_2 -> ~G tau^-)
DECAY   1000012     2.60785823E-01   # ~nu_e
#    BR                NDA      ID1      ID2
     9.99999927E-01    2     1000022        12   # BR(~nu_e -> chi^0_1 nu_e)
     6.39345271E-08    2     2000011        24   # BR(~nu_e -> ~e^-_R W^+)
     9.20807557E-09    2     1000039        12   # BR(~nu_e -> ~G nu_e)
DECAY   1000014     2.61491587E-01   # ~nu_mu
#    BR                NDA      ID1      ID2
     9.97273846E-01    2     1000022        14   # BR(~nu_mu -> chi^0_1 nu_mu)
     2.72614435E-03    2     2000013        24   # BR(~nu_mu -> ~mu^-_R W^+)
     9.18290694E-09    2     1000039        14   # BR(~nu_mu -> ~G nu_mu)
DECAY   1000016     4.63352486E-01   # ~nu_tau
#    BR                NDA      ID1      ID2
     5.58505552E-01    2     1000022        16   # BR(~nu_tau -> chi^0_1 nu_tau)
     4.41494443E-01    2     1000015        24   # BR(~nu_tau -> ~tau^-_1 W^+)
     5.13230891E-09    2     1000039        16   # BR(~nu_tau -> ~G nu_tau)
DECAY   2000001     9.66598565E-01   # ~d_R
#    BR                NDA      ID1      ID2
     9.86232958E-01    2     1000022         1   # BR(~d_R -> chi^0_1 d)
     1.16013839E-02    2     1000023         1   # BR(~d_R -> chi^0_2 d)
     6.61509645E-04    2     1000025         1   # BR(~d_R -> chi^0_3 d)
     1.50223146E-03    2     1000035         1   # BR(~d_R -> chi^0_4 d)
     1.09859750E-06    2    -1000024         2   # BR(~d_R -> chi^-_1 u)
     4.40589003E-08    2    -1000037         2   # BR(~d_R -> chi^-_2 u)
     7.74360412E-07    2     1000039         1   # BR(~d_R -> ~G d)
DECAY   1000001     1.69183065E+01   # ~d_L
#    BR                NDA      ID1      ID2
     1.75719091E-02    2     1000022         1   # BR(~d_L -> chi^0_1 d)
     7.76173466E-02    2     1000023         1   # BR(~d_L -> chi^0_2 d)
     6.58512114E-04    2     1000025         1   # BR(~d_L -> chi^0_3 d)
     2.48286465E-01    2     1000035         1   # BR(~d_L -> chi^0_4 d)
     1.45867522E-01    2    -1000024         2   # BR(~d_L -> chi^-_1 u)
     5.09998190E-01    2    -1000037         2   # BR(~d_L -> chi^-_2 u)
     5.54974715E-08    2     1000039         1   # BR(~d_L -> ~G d)
DECAY   2000003     9.67548210E-01   # ~s_R
#    BR                NDA      ID1      ID2
     9.85279965E-01    2     1000022         3   # BR(~s_R -> chi^0_1 s)
     1.18233265E-02    2     1000023         3   # BR(~s_R -> chi^0_2 s)
     8.82443603E-04    2     1000025         3   # BR(~s_R -> chi^0_3 s)
     1.51007843E-03    2     1000035         3   # BR(~s_R -> chi^0_4 s)
     4.84001573E-04    2    -1000024         4   # BR(~s_R -> chi^-_1 c)
     1.94112151E-05    2    -1000037         4   # BR(~s_R -> chi^-_2 c)
     7.73592564E-07    2     1000039         3   # BR(~s_R -> ~G s)
DECAY   1000003     1.69190472E+01   # ~s_L
#    BR                NDA      ID1      ID2
     1.75708396E-02    2     1000022         3   # BR(~s_L -> chi^0_1 s)
     7.76220046E-02    2     1000023         3   # BR(~s_L -> chi^0_2 s)
     6.72868842E-04    2     1000025         3   # BR(~s_L -> chi^0_3 s)
     2.48279679E-01    2     1000035         3   # BR(~s_L -> chi^0_4 s)
     1.45869268E-01    2    -1000024         4   # BR(~s_L -> chi^-_1 c)
     5.09985285E-01    2    -1000037         4   # BR(~s_L -> chi^-_2 c)
     5.54946470E-08    2     1000039         3   # BR(~s_L -> ~G s)
DECAY   1000005     5.83456415E+00   # ~b_1
#    BR                NDA      ID1      ID2
     1.71854477E-01    2     1000022         5   # BR(~b_1 -> chi^0_1 b)
     1.50479791E-01    2     1000023         5   # BR(~b_1 -> chi^0_2 b)
     7.57861217E-02    2     1000025         5   # BR(~b_1 -> chi^0_3 b)
     1.62246795E-02    2     1000035         5   # BR(~b_1 -> chi^0_4 b)
     4.72125986E-01    2    -1000024         6   # BR(~b_1 -> chi^-_1 t)
     1.11128163E-01    2    -1000037         6   # BR(~b_1 -> chi^-_2 t)
     2.40065667E-03    2     1000006       -24   # BR(~b_1 -> ~t_1 W^-)
     1.24881238E-07    2     1000039         5   # BR(~b_1 -> ~G b)
DECAY   2000005     3.33322294E+01   # ~b_2
#    BR                NDA      ID1      ID2
     7.68896170E-03    2     1000022         5   # BR(~b_2 -> chi^0_1 b)
     3.49174816E-02    2     1000023         5   # BR(~b_2 -> chi^0_2 b)
     1.68595787E-02    2     1000025         5   # BR(~b_2 -> chi^0_3 b)
     1.20410418E-01    2     1000035         5   # BR(~b_2 -> chi^0_4 b)
     4.18697186E-01    2    -1000024         6   # BR(~b_2 -> chi^-_1 t)
     3.92695516E-01    2    -1000037         6   # BR(~b_2 -> chi^-_2 t)
     8.73083485E-03    2     1000006       -24   # BR(~b_2 -> ~t_1 W^-)
     2.32918476E-08    2     1000039         5   # BR(~b_2 -> ~G b)
DECAY   2000002     3.88192504E+00   # ~u_R
#    BR                NDA      ID1      ID2
     9.86217433E-01    2     1000022         2   # BR(~u_R -> chi^0_1 u)
     1.16147774E-02    2     1000023         2   # BR(~u_R -> chi^0_2 u)
     6.61943980E-04    2     1000025         2   # BR(~u_R -> chi^0_3 u)
     1.50564892E-03    2     1000035         2   # BR(~u_R -> chi^0_4 u)
     5.30476866E-10    2     1000024         1   # BR(~u_R -> chi^+_1 d)
     2.87879575E-11    2     1000037         1   # BR(~u_R -> chi^+_2 d)
     1.96112608E-07    2     1000039         2   # BR(~u_R -> ~G u)
DECAY   1000002     1.69924708E+01   # ~u_L
#    BR                NDA      ID1      ID2
     1.22972156E-02    2     1000022         2   # BR(~u_L -> chi^0_1 u)
     9.26381699E-02    2     1000023         2   # BR(~u_L -> chi^0_2 u)
     3.70048020E-04    2     1000025         2   # BR(~u_L -> chi^0_3 u)
     2.37328900E-01    2     1000035         2   # BR(~u_L -> chi^0_4 u)
     1.90945690E-01    2     1000024         1   # BR(~u_L -> chi^+_1 d)
     4.66419922E-01    2     1000037         1   # BR(~u_L -> chi^+_2 d)
     6.86631778E-12    2     2000001        24   # BR(~u_L -> ~d_R W^+)
     5.50007776E-08    2     1000039         2   # BR(~u_L -> ~G u)
DECAY   2000004     3.88266590E+00   # ~c_R
#    BR                NDA      ID1      ID2
     9.86025919E-01    2     1000022         4   # BR(~c_R -> chi^0_1 c)
     1.16576532E-02    2     1000023         4   # BR(~c_R -> chi^0_2 c)
     7.08442571E-04    2     1000025         4   # BR(~c_R -> chi^0_3 c)
     1.50758182E-03    2     1000035         4   # BR(~c_R -> chi^0_4 c)
     9.50489394E-05    2     1000024         3   # BR(~c_R -> chi^+_1 s)
     5.15819055E-06    2     1000037         3   # BR(~c_R -> chi^+_2 s)
     1.96073383E-07    2     1000039         4   # BR(~c_R -> ~G c)
DECAY   1000004     1.69932198E+01   # ~c_L
#    BR                NDA      ID1      ID2
     1.22969440E-02    2     1000022         4   # BR(~c_L -> chi^0_1 c)
     9.26382831E-02    2     1000023         4   # BR(~c_L -> chi^0_2 c)
     3.80687667E-04    2     1000025         4   # BR(~c_L -> chi^0_3 c)
     2.37323391E-01    2     1000035         4   # BR(~c_L -> chi^0_4 c)
     1.90953106E-01    2     1000024         3   # BR(~c_L -> chi^+_1 s)
     4.66407530E-01    2     1000037         3   # BR(~c_L -> chi^+_2 s)
     3.03112161E-09    2     2000003        24   # BR(~c_L -> ~s_R W^+)
     5.49978849E-08    2     1000039         4   # BR(~c_L -> ~G c)
DECAY   1000006     3.72727310E+01   # ~t_1
#    BR                NDA      ID1      ID2
     5.59508862E-06    2     1000022         4   # BR(~t_1 -> chi^0_1 c)
     9.35803636E-02    2     1000022         6   # BR(~t_1 -> chi^0_1 t)
     4.02275661E-05    2     1000023         4   # BR(~t_1 -> chi^0_2 c)
     1.86759085E-01    2     1000023         6   # BR(~t_1 -> chi^0_2 t)
     2.34313626E-01    2     1000025         6   # BR(~t_1 -> chi^0_3 t)
     2.86696843E-02    2     1000035         6   # BR(~t_1 -> chi^0_4 t)
     3.96836954E-01    2     1000024         5   # BR(~t_1 -> chi^+_1 b)
     5.97859327E-02    2     1000037         5   # BR(~t_1 -> chi^+_2 b)
     1.29313471E-08    2     1000039         6   # BR(~t_1 -> ~G t)
#    BR                NDA      ID1      ID2       ID3
     8.51896078E-06    3     1000022        24         5   # BR(~t_1 -> chi^0_1 W^+ b)
DECAY   2000006     3.64217508E+01   # ~t_2
#    BR                NDA      ID1      ID2
     6.78229133E-03    2     1000022         6   # BR(~t_2 -> chi^0_1 t)
     2.01568184E-01    2     1000023         6   # BR(~t_2 -> chi^0_2 t)
     2.56014599E-01    2     1000025         6   # BR(~t_2 -> chi^0_3 t)
     2.10002147E-01    2     1000035         6   # BR(~t_2 -> chi^0_4 t)
     4.99556235E-02    2     1000024         5   # BR(~t_2 -> chi^+_1 b)
     2.67411404E-01    2     1000037         5   # BR(~t_2 -> chi^+_2 b)
     4.66156850E-03    2     1000006        23   # BR(~t_2 -> ~t_1 Z)
     3.60416153E-03    2     1000006        25   # BR(~t_2 -> ~t_1 h^0)
     2.10621169E-08    2     1000039         6   # BR(~t_2 -> ~G t)
DECAY   1000024     4.40067200E-01   # chi^+_1
#    BR                NDA      ID1      ID2
     1.70667192E-08    2    -2000011        12   # BR(chi^+_1 -> ~e^+_R nu_e)
     1.93655878E-02    2    -1000011        12   # BR(chi^+_1 -> ~e^+_L nu_e)
     7.29693889E-04    2    -2000013        14   # BR(chi^+_1 -> ~mu^+_R nu_mu)
     1.93611789E-02    2    -1000013        14   # BR(chi^+_1 -> ~mu^+_L nu_mu)
     2.09872585E-01    2    -1000015        16   # BR(chi^+_1 -> ~tau^+_1 nu_tau)
     1.81576973E-02    2    -2000015        16   # BR(chi^+_1 -> ~tau^+_2 nu_tau)
     3.28790988E-02    2     1000012       -11   # BR(chi^+_1 -> ~nu_e e^+)
     3.29073786E-02    2     1000014       -13   # BR(chi^+_1 -> ~nu_mu mu^+)
     4.11646470E-02    2     1000016       -15   # BR(chi^+_1 -> ~nu_tau tau^+)
     6.25287670E-01    2     1000022        24   # BR(chi^+_1 -> chi^0_1 W^+)
#    BR                NDA      ID1      ID2       ID3
     3.85164038E-08    3     1000022        -1         2   # BR(chi^+_1 -> chi^0_1 d_bar u)
     3.89307599E-08    3     1000022        -3         4   # BR(chi^+_1 -> chi^0_1 s_bar c)
     2.57791105E-04    3     1000022        -5         6   # BR(chi^+_1 -> chi^0_1 b_bar t)
     1.45415659E-12    3     1000022       -11        12   # BR(chi^+_1 -> chi^0_1 e^+ nu_e)
     6.21553455E-08    3     1000022       -13        14   # BR(chi^+_1 -> chi^0_1 mu^+ nu_mu)
     1.65145108E-05    3     1000022       -15        16   # BR(chi^+_1 -> chi^0_1 tau^+ nu_tau)
DECAY   1000037     3.87704889E+00   # chi^+_2
#    BR                NDA      ID1      ID2
     9.83312976E-11    2    -2000011        12   # BR(chi^+_2 -> ~e^+_R nu_e)
     1.12184425E-01    2    -1000011        12   # BR(chi^+_2 -> ~e^+_L nu_e)
     4.20447110E-06    2    -2000013        14   # BR(chi^+_2 -> ~mu^+_R nu_mu)
     1.12189293E-01    2    -1000013        14   # BR(chi^+_2 -> ~mu^+_L nu_mu)
     1.23167787E-03    2    -1000015        16   # BR(chi^+_2 -> ~tau^+_1 nu_tau)
     1.13566037E-01    2    -2000015        16   # BR(chi^+_2 -> ~tau^+_2 nu_tau)
     1.09048039E-01    2     1000012       -11   # BR(chi^+_2 -> ~nu_e e^+)
     1.09056816E-01    2     1000014       -13   # BR(chi^+_2 -> ~nu_mu mu^+)
     1.11547739E-01    2     1000016       -15   # BR(chi^+_2 -> ~nu_tau tau^+)
     1.45257017E-02    2     1000022        24   # BR(chi^+_2 -> chi^0_1 W^+)
     1.31382281E-01    2     1000023        24   # BR(chi^+_2 -> chi^0_2 W^+)
     4.13735565E-02    2     1000025        24   # BR(chi^+_2 -> chi^0_3 W^+)
     1.05345825E-01    2     1000024        23   # BR(chi^+_2 -> chi^+_1 Z)
     3.84830848E-02    2     1000024        25   # BR(chi^+_2 -> chi^+_1 h^0)
#    BR                NDA      ID1      ID2       ID3
     5.78074498E-09    3     1000024         2        -2   # BR(chi^+_2 -> chi^+_1 u u_bar)
     5.77235843E-09    3     1000024         4        -4   # BR(chi^+_2 -> chi^+_1 c c_bar)
     7.03239674E-09    3     1000024         1        -1   # BR(chi^+_2 -> chi^+_1 d d_bar)
     7.05208291E-09    3     1000024         3        -3   # BR(chi^+_2 -> chi^+_1 s s_bar)
     5.76023332E-08    3     1000024         5        -5   # BR(chi^+_2 -> chi^+_1 b b_bar)
     1.21662872E-06    3     1000024        11       -11   # BR(chi^+_2 -> chi^+_1 e^- e^+)
     1.21721080E-06    3     1000024        13       -13   # BR(chi^+_2 -> chi^+_1 mu^- mu^+)
     1.33930932E-06    3     1000024        15       -15   # BR(chi^+_2 -> chi^+_1 tau^- tau^+)
     3.29911940E-06    3     1000024        12       -12   # BR(chi^+_2 -> chi^+_1 nu_e nu_bar_e)
     1.12276344E-07    3     1000022        -1         2   # BR(chi^+_2 -> chi^0_1 d_bar u)
     1.12279067E-07    3     1000022        -3         4   # BR(chi^+_2 -> chi^0_1 s_bar c)
     5.16053265E-05    3     1000022        -5         6   # BR(chi^+_2 -> chi^0_1 b_bar t)
     2.14850729E-14    3     1000022       -11        12   # BR(chi^+_2 -> chi^0_1 e^+ nu_e)
     9.18471331E-10    3     1000022       -13        14   # BR(chi^+_2 -> chi^0_1 mu^+ nu_mu)
     2.53830939E-07    3     1000022       -15        16   # BR(chi^+_2 -> chi^0_1 tau^+ nu_tau)
     3.10565718E-09    3     1000023        -1         2   # BR(chi^+_2 -> chi^0_2 d_bar u)
     3.12089087E-09    3     1000023        -3         4   # BR(chi^+_2 -> chi^0_2 s_bar c)
     6.72608720E-07    3     1000023       -11        12   # BR(chi^+_2 -> chi^0_2 e^+ nu_e)
     6.72788357E-07    3     1000023       -13        14   # BR(chi^+_2 -> chi^0_2 mu^+ nu_mu)
     6.96809410E-07    3     1000023       -15        16   # BR(chi^+_2 -> chi^0_2 tau^+ nu_tau)
     1.66862688E-11    3     1000025        -1         2   # BR(chi^+_2 -> chi^0_3 d_bar u)
     1.94541753E-11    3     1000025        -3         4   # BR(chi^+_2 -> chi^0_3 s_bar c)
     1.98121573E-09    3     1000025       -11        12   # BR(chi^+_2 -> chi^0_3 e^+ nu_e)
     2.07091809E-09    3     1000025       -13        14   # BR(chi^+_2 -> chi^0_3 mu^+ nu_mu)
     2.71116371E-08    3     1000025       -15        16   # BR(chi^+_2 -> chi^0_3 tau^+ nu_tau)
DECAY   1000022     1.02883350E+00   # chi^0_1
#    BR                NDA      ID1      ID2
     1.59949800E-01    2     2000011       -11   # BR(chi^0_1 -> ~e^-_R e^+)
     1.59949800E-01    2    -2000011        11   # BR(chi^0_1 -> ~e^+_R e^-)
     1.60018916E-01    2     2000013       -13   # BR(chi^0_1 -> ~mu^-_R mu^+)
     1.60018916E-01    2    -2000013        13   # BR(chi^0_1 -> ~mu^+_R mu^-)
     1.80031284E-01    2     1000015       -15   # BR(chi^0_1 -> ~tau^-_1 tau^+)
     1.80031284E-01    2    -1000015        15   # BR(chi^0_1 -> ~tau^+_1 tau^-)
     1.99231289E-10    2     1000039        22   # BR(chi^0_1 -> ~G photon)
     5.95927410E-11    2     1000039        23   # BR(chi^0_1 -> ~G Z)
     1.50957179E-12    2     1000039        25   # BR(chi^0_1 -> ~G h^0)
DECAY   1000023     5.60201879E-01   # chi^0_2
#    BR                NDA      ID1      ID2
     2.48306416E-02    2     2000011       -11   # BR(chi^0_2 -> ~e^-_R e^+)
     2.48306416E-02    2    -2000011        11   # BR(chi^0_2 -> ~e^+_R e^-)
     1.23955089E-02    2     1000011       -11   # BR(chi^0_2 -> ~e^-_L e^+)
     1.23955089E-02    2    -1000011        11   # BR(chi^0_2 -> ~e^+_L e^-)
     2.51106238E-02    2     2000013       -13   # BR(chi^0_2 -> ~mu^-_R mu^+)
     2.51106238E-02    2    -2000013        13   # BR(chi^0_2 -> ~mu^+_R mu^-)
     1.24014349E-02    2     1000013       -13   # BR(chi^0_2 -> ~mu^-_L mu^+)
     1.24014349E-02    2    -1000013        13   # BR(chi^0_2 -> ~mu^+_L mu^-)
     1.05693696E-01    2     1000015       -15   # BR(chi^0_2 -> ~tau^-_1 tau^+)
     1.05693696E-01    2    -1000015        15   # BR(chi^0_2 -> ~tau^+_1 tau^-)
     1.40771132E-02    2     2000015       -15   # BR(chi^0_2 -> ~tau^-_2 tau^+)
     1.40771132E-02    2    -2000015        15   # BR(chi^0_2 -> ~tau^+_2 tau^-)
     9.12358474E-03    2     1000012       -12   # BR(chi^0_2 -> ~nu_e nu_bar_e)
     9.12358474E-03    2    -1000012        12   # BR(chi^0_2 -> ~nu^*_e nu_e)
     9.12499023E-03    2     1000014       -14   # BR(chi^0_2 -> ~nu_mu nu_bar_mu)
     9.12499023E-03    2    -1000014        14   # BR(chi^0_2 -> ~nu^*_mu nu_mu)
     9.52466773E-03    2     1000016       -16   # BR(chi^0_2 -> ~nu_tau nu_bar_tau)
     9.52466773E-03    2    -1000016        16   # BR(chi^0_2 -> ~nu^*_tau nu_tau)
     3.15029843E-02    2     1000022        23   # BR(chi^0_2 -> chi^0_1 Z)
     5.23898078E-01    2     1000022        25   # BR(chi^0_2 -> chi^0_1 h^0)
     7.55239799E-10    2     1000039        22   # BR(chi^0_2 -> ~G photon)
     1.25473933E-11    2     1000039        23   # BR(chi^0_2 -> ~G Z)
     2.67347055E-09    2     1000039        25   # BR(chi^0_2 -> ~G h^0)
     1.12612460E-06    2     1000022        22   # BR(chi^0_2 -> chi^0_1 photon)
#    BR                NDA      ID1      ID2       ID3
     2.48406728E-08    3     1000022         2        -2   # BR(chi^0_2 -> chi^0_1 u u_bar)
     2.48565839E-08    3     1000022         4        -4   # BR(chi^0_2 -> chi^0_1 c c_bar)
     1.78875712E-08    3     1000022         1        -1   # BR(chi^0_2 -> chi^0_1 d d_bar)
     1.83439312E-08    3     1000022         3        -3   # BR(chi^0_2 -> chi^0_1 s s_bar)
     1.05172665E-06    3     1000022         5        -5   # BR(chi^0_2 -> chi^0_1 b b_bar)
     6.78357049E-06    3     1000022        11       -11   # BR(chi^0_2 -> chi^0_1 e^- e^+)
     6.82881324E-06    3     1000022        13       -13   # BR(chi^0_2 -> chi^0_1 mu^- mu^+)
     1.85362493E-05    3     1000022        15       -15   # BR(chi^0_2 -> chi^0_1 tau^- tau^+)
     1.52317902E-11    3     1000024         1        -2   # BR(chi^0_2 -> chi^+_1 d u_bar)
     1.52317902E-11    3    -1000024        -1         2   # BR(chi^0_2 -> chi^-_1 d_bar u)
     4.97076466E-13    3     1000024         3        -4   # BR(chi^0_2 -> chi^+_1 s c_bar)
     4.97076466E-13    3    -1000024        -3         4   # BR(chi^0_2 -> chi^-_1 s_bar c)
     4.84555689E-12    3     1000024        11       -12   # BR(chi^0_2 -> chi^+_1 e^- nu_bar_e)
     4.84555689E-12    3    -1000024       -11        12   # BR(chi^0_2 -> chi^-_1 e^+ nu_e)
     4.75312383E-12    3     1000024        13       -14   # BR(chi^0_2 -> chi^+_1 mu^- nu_bar_mu)
     4.75312383E-12    3    -1000024       -13        14   # BR(chi^0_2 -> chi^-_1 mu^+ nu_mu)
DECAY   1000025     4.89256581E-01   # chi^0_3
#    BR                NDA      ID1      ID2
     1.84168190E-03    2     2000011       -11   # BR(chi^0_3 -> ~e^-_R e^+)
     1.84168190E-03    2    -2000011        11   # BR(chi^0_3 -> ~e^+_R e^-)
     6.02502087E-05    2     1000011       -11   # BR(chi^0_3 -> ~e^-_L e^+)
     6.02502087E-05    2    -1000011        11   # BR(chi^0_3 -> ~e^+_L e^-)
     2.17753174E-03    2     2000013       -13   # BR(chi^0_3 -> ~mu^-_R mu^+)
     2.17753174E-03    2    -2000013        13   # BR(chi^0_3 -> ~mu^+_R mu^-)
     8.58693236E-05    2     1000013       -13   # BR(chi^0_3 -> ~mu^-_L mu^+)
     8.58693236E-05    2    -1000013        13   # BR(chi^0_3 -> ~mu^+_L mu^-)
     9.87827021E-02    2     1000015       -15   # BR(chi^0_3 -> ~tau^-_1 tau^+)
     9.87827021E-02    2    -1000015        15   # BR(chi^0_3 -> ~tau^+_1 tau^-)
     7.34686415E-03    2     2000015       -15   # BR(chi^0_3 -> ~tau^-_2 tau^+)
     7.34686415E-03    2    -2000015        15   # BR(chi^0_3 -> ~tau^+_2 tau^-)
     4.26099792E-04    2     1000012       -12   # BR(chi^0_3 -> ~nu_e nu_bar_e)
     4.26099792E-04    2    -1000012        12   # BR(chi^0_3 -> ~nu^*_e nu_e)
     4.26138630E-04    2     1000014       -14   # BR(chi^0_3 -> ~nu_mu nu_bar_mu)
     4.26138630E-04    2    -1000014        14   # BR(chi^0_3 -> ~nu^*_mu nu_mu)
     4.37134317E-04    2     1000016       -16   # BR(chi^0_3 -> ~nu_tau nu_bar_tau)
     4.37134317E-04    2    -1000016        16   # BR(chi^0_3 -> ~nu^*_tau nu_tau)
     7.39353569E-01    2     1000022        23   # BR(chi^0_3 -> chi^0_1 Z)
     3.72417990E-02    2     1000022        25   # BR(chi^0_3 -> chi^0_1 h^0)
     3.24765836E-13    2     1000039        22   # BR(chi^0_3 -> ~G photon)
     7.59699862E-10    2     1000039        23   # BR(chi^0_3 -> ~G Z)
     4.08051733E-09    2     1000039        25   # BR(chi^0_3 -> ~G h^0)
     9.95684791E-07    2     1000022        22   # BR(chi^0_3 -> chi^0_1 photon)
     6.18390520E-09    2     1000023        22   # BR(chi^0_3 -> chi^0_2 photon)
#    BR                NDA      ID1      ID2       ID3
     4.78067448E-10    3     1000022         2        -2   # BR(chi^0_3 -> chi^0_1 u u_bar)
     5.38552160E-10    3     1000022         4        -4   # BR(chi^0_3 -> chi^0_1 c c_bar)
     1.38233060E-10    3     1000022         1        -1   # BR(chi^0_3 -> chi^0_1 d d_bar)
     1.03099966E-09    3     1000022         3        -3   # BR(chi^0_3 -> chi^0_1 s s_bar)
     2.01414266E-06    3     1000022         5        -5   # BR(chi^0_3 -> chi^0_1 b b_bar)
     2.59363068E-07    3     1000022        11       -11   # BR(chi^0_3 -> chi^0_1 e^- e^+)
     3.35446849E-07    3     1000022        13       -13   # BR(chi^0_3 -> chi^0_1 mu^- mu^+)
     2.06678833E-05    3     1000022        15       -15   # BR(chi^0_3 -> chi^0_1 tau^- tau^+)
     5.85489873E-06    3     1000023         2        -2   # BR(chi^0_3 -> chi^0_2 u u_bar)
     5.79954996E-06    3     1000023         4        -4   # BR(chi^0_3 -> chi^0_2 c c_bar)
     7.59394547E-06    3     1000023         1        -1   # BR(chi^0_3 -> chi^0_2 d d_bar)
     7.59330206E-06    3     1000023         3        -3   # BR(chi^0_3 -> chi^0_2 s s_bar)
     6.58377696E-06    3     1000023         5        -5   # BR(chi^0_3 -> chi^0_2 b b_bar)
     1.74580251E-06    3     1000023        11       -11   # BR(chi^0_3 -> chi^0_2 e^- e^+)
     1.74565916E-06    3     1000023        13       -13   # BR(chi^0_3 -> chi^0_2 mu^- mu^+)
     1.70367798E-06    3     1000023        15       -15   # BR(chi^0_3 -> chi^0_2 tau^- tau^+)
     1.04044024E-05    3     1000023        12       -12   # BR(chi^0_3 -> chi^0_2 nu_e nu_bar_e)
     2.72466113E-05    3     1000024         1        -2   # BR(chi^0_3 -> chi^+_1 d u_bar)
     2.72466113E-05    3    -1000024        -1         2   # BR(chi^0_3 -> chi^-_1 d_bar u)
     2.70654551E-05    3     1000024         3        -4   # BR(chi^0_3 -> chi^+_1 s c_bar)
     2.70654551E-05    3    -1000024        -3         4   # BR(chi^0_3 -> chi^-_1 s_bar c)
     9.06591876E-06    3     1000024        11       -12   # BR(chi^0_3 -> chi^+_1 e^- nu_bar_e)
     9.06591876E-06    3    -1000024       -11        12   # BR(chi^0_3 -> chi^-_1 e^+ nu_e)
     9.06588836E-06    3     1000024        13       -14   # BR(chi^0_3 -> chi^+_1 mu^- nu_bar_mu)
     9.06588836E-06    3    -1000024       -13        14   # BR(chi^0_3 -> chi^-_1 mu^+ nu_mu)
     8.94444393E-06    3     1000024        15       -16   # BR(chi^0_3 -> chi^+_1 tau^- nu_bar_tau)
     8.94444393E-06    3    -1000024       -15        16   # BR(chi^0_3 -> chi^-_1 tau^+ nu_tau)
DECAY   1000035     3.90958301E+00   # chi^0_4
#    BR                NDA      ID1      ID2
     7.64806961E-04    2     2000011       -11   # BR(chi^0_4 -> ~e^-_R e^+)
     7.64806961E-04    2    -2000011        11   # BR(chi^0_4 -> ~e^+_R e^-)
     5.00661464E-02    2     1000011       -11   # BR(chi^0_4 -> ~e^-_L e^+)
     5.00661464E-02    2    -1000011        11   # BR(chi^0_4 -> ~e^+_L e^-)
     7.66474689E-04    2     2000013       -13   # BR(chi^0_4 -> ~mu^-_R mu^+)
     7.66474689E-04    2    -2000013        13   # BR(chi^0_4 -> ~mu^+_R mu^-)
     5.00709333E-02    2     1000013       -13   # BR(chi^0_4 -> ~mu^-_L mu^+)
     5.00709333E-02    2    -1000013        13   # BR(chi^0_4 -> ~mu^+_L mu^-)
     1.27479336E-03    2     1000015       -15   # BR(chi^0_4 -> ~tau^-_1 tau^+)
     1.27479336E-03    2    -1000015        15   # BR(chi^0_4 -> ~tau^+_1 tau^-)
     5.14183982E-02    2     2000015       -15   # BR(chi^0_4 -> ~tau^-_2 tau^+)
     5.14183982E-02    2    -2000015        15   # BR(chi^0_4 -> ~tau^+_2 tau^-)
     5.94832228E-02    2     1000012       -12   # BR(chi^0_4 -> ~nu_e nu_bar_e)
     5.94832228E-02    2    -1000012        12   # BR(chi^0_4 -> ~nu^*_e nu_e)
     5.94853798E-02    2     1000014       -14   # BR(chi^0_4 -> ~nu_mu nu_bar_mu)
     5.94853798E-02    2    -1000014        14   # BR(chi^0_4 -> ~nu^*_mu nu_mu)
     6.00937233E-02    2     1000016       -16   # BR(chi^0_4 -> ~nu_tau nu_bar_tau)
     6.00937233E-02    2    -1000016        16   # BR(chi^0_4 -> ~nu^*_tau nu_tau)
     1.28373653E-01    2     1000024       -24   # BR(chi^0_4 -> chi^+_1 W^-)
     1.28373653E-01    2    -1000024        24   # BR(chi^0_4 -> chi^-_1 W^+)
     1.66957483E-03    2     1000022        23   # BR(chi^0_4 -> chi^0_1 Z)
     7.57482477E-04    2     1000023        23   # BR(chi^0_4 -> chi^0_2 Z)
     1.97601552E-02    2     1000025        23   # BR(chi^0_4 -> chi^0_3 Z)
     1.56226317E-02    2     1000022        25   # BR(chi^0_4 -> chi^0_1 h^0)
     3.85808171E-02    2     1000023        25   # BR(chi^0_4 -> chi^0_2 h^0)
     3.89040829E-10    2     1000039        22   # BR(chi^0_4 -> ~G photon)
     2.39336387E-09    2     1000039        23   # BR(chi^0_4 -> ~G Z)
     3.78883139E-10    2     1000039        25   # BR(chi^0_4 -> ~G h^0)
     3.55751108E-07    2     1000022        22   # BR(chi^0_4 -> chi^0_1 photon)
     1.46614051E-06    2     1000023        22   # BR(chi^0_4 -> chi^0_2 photon)
     9.57144539E-07    2     1000025        22   # BR(chi^0_4 -> chi^0_3 photon)
#    BR                NDA      ID1      ID2       ID3
     4.65959027E-08    3     1000022         2        -2   # BR(chi^0_4 -> chi^0_1 u u_bar)
     4.65851348E-08    3     1000022         4        -4   # BR(chi^0_4 -> chi^0_1 c c_bar)
     5.34925399E-07    3     1000022         6        -6   # BR(chi^0_4 -> chi^0_1 t t_bar)
     6.63027013E-08    3     1000022         1        -1   # BR(chi^0_4 -> chi^0_1 d d_bar)
     6.63236193E-08    3     1000022         3        -3   # BR(chi^0_4 -> chi^0_1 s s_bar)
     1.23190395E-07    3     1000022         5        -5   # BR(chi^0_4 -> chi^0_1 b b_bar)
     5.33106861E-07    3     1000022        11       -11   # BR(chi^0_4 -> chi^0_1 e^- e^+)
     5.33544413E-07    3     1000022        13       -13   # BR(chi^0_4 -> chi^0_1 mu^- mu^+)
     6.59568750E-07    3     1000022        15       -15   # BR(chi^0_4 -> chi^0_1 tau^- tau^+)
     4.87714123E-09    3     1000023         2        -2   # BR(chi^0_4 -> chi^0_2 u u_bar)
     4.87027387E-09    3     1000023         4        -4   # BR(chi^0_4 -> chi^0_2 c c_bar)
     4.20684244E-09    3     1000023         1        -1   # BR(chi^0_4 -> chi^0_2 d d_bar)
     4.21224640E-09    3     1000023         3        -3   # BR(chi^0_4 -> chi^0_2 s s_bar)
     1.68545956E-08    3     1000023         5        -5   # BR(chi^0_4 -> chi^0_2 b b_bar)
     1.01271921E-06    3     1000023        11       -11   # BR(chi^0_4 -> chi^0_2 e^- e^+)
     1.01300086E-06    3     1000023        13       -13   # BR(chi^0_4 -> chi^0_2 mu^- mu^+)
     1.05340159E-06    3     1000023        15       -15   # BR(chi^0_4 -> chi^0_2 tau^- tau^+)
     1.75319294E-06    3     1000023        12       -12   # BR(chi^0_4 -> chi^0_2 nu_e nu_bar_e)
     1.97958247E-12    3     1000025         2        -2   # BR(chi^0_4 -> chi^0_3 u u_bar)
     4.87796398E-11    3     1000025         4        -4   # BR(chi^0_4 -> chi^0_3 c c_bar)
     3.63160225E-12    3     1000025         1        -1   # BR(chi^0_4 -> chi^0_3 d d_bar)
     7.44328045E-12    3     1000025         3        -3   # BR(chi^0_4 -> chi^0_3 s s_bar)
     8.52605505E-09    3     1000025         5        -5   # BR(chi^0_4 -> chi^0_3 b b_bar)
     1.11103540E-10    3     1000025        11       -11   # BR(chi^0_4 -> chi^0_3 e^- e^+)
     1.82317972E-10    3     1000025        13       -13   # BR(chi^0_4 -> chi^0_3 mu^- mu^+)
     2.01927548E-08    3     1000025        15       -15   # BR(chi^0_4 -> chi^0_3 tau^- tau^+)
     2.08668559E-09    3     1000025        12       -12   # BR(chi^0_4 -> chi^0_3 nu_e nu_bar_e)
     3.23151696E-09    3     1000024         1        -2   # BR(chi^0_4 -> chi^+_1 d u_bar)
     3.23151696E-09    3    -1000024        -1         2   # BR(chi^0_4 -> chi^-_1 d_bar u)
     3.24358238E-09    3     1000024         3        -4   # BR(chi^0_4 -> chi^+_1 s c_bar)
     3.24358238E-09    3    -1000024        -3         4   # BR(chi^0_4 -> chi^-_1 s_bar c)
     6.52581550E-07    3     1000024        11       -12   # BR(chi^0_4 -> chi^+_1 e^- nu_bar_e)
     6.52581550E-07    3    -1000024       -11        12   # BR(chi^0_4 -> chi^-_1 e^+ nu_e)
     6.52732501E-07    3     1000024        13       -14   # BR(chi^0_4 -> chi^+_1 mu^- nu_bar_mu)
     6.52732501E-07    3    -1000024       -13        14   # BR(chi^0_4 -> chi^-_1 mu^+ nu_mu)
     6.80238948E-07    3     1000024        15       -16   # BR(chi^0_4 -> chi^+_1 tau^- nu_bar_tau)
     6.80238948E-07    3    -1000024       -15        16   # BR(chi^0_4 -> chi^-_1 tau^+ nu_tau)
DECAY   1000021     7.62564262E+00   # ~g
#    BR                NDA      ID1      ID2
     5.10833403E-02    2     2000002        -2   # BR(~g -> ~u_R u_bar)
     5.10833403E-02    2    -2000002         2   # BR(~g -> ~u^*_R u)
     1.10136874E-02    2     1000002        -2   # BR(~g -> ~u_L u_bar)
     1.10136874E-02    2    -1000002         2   # BR(~g -> ~u^*_L u)
     5.10815630E-02    2     2000004        -4   # BR(~g -> ~c_R c_bar)
     5.10815630E-02    2    -2000004         4   # BR(~g -> ~c^*_R c)
     1.10131731E-02    2     1000004        -4   # BR(~g -> ~c_L c_bar)
     1.10131731E-02    2    -1000004         4   # BR(~g -> ~c^*_L c)
     2.25898515E-04    2     1000006        -4   # BR(~g -> ~t_1 c_bar)
     2.25898515E-04    2    -1000006         4   # BR(~g -> ~t^*_1 c)
     1.22022635E-01    2     1000006        -6   # BR(~g -> ~t_1 t_bar)
     1.22022635E-01    2    -1000006         6   # BR(~g -> ~t^*_1 t)
     5.55013846E-02    2     2000001        -1   # BR(~g -> ~d_R d_bar)
     5.55013846E-02    2    -2000001         1   # BR(~g -> ~d^*_R d)
     1.04254957E-02    2     1000001        -1   # BR(~g -> ~d_L d_bar)
     1.04254957E-02    2    -1000001         1   # BR(~g -> ~d^*_L d)
     5.55039089E-02    2     2000003        -3   # BR(~g -> ~s_R s_bar)
     5.55039089E-02    2    -2000003         3   # BR(~g -> ~s^*_R s)
     1.04264340E-02    2     1000003        -3   # BR(~g -> ~s_L s_bar)
     1.04264340E-02    2    -1000003         3   # BR(~g -> ~s^*_L s)
     6.17754701E-02    2     1000005        -5   # BR(~g -> ~b_1 b_bar)
     6.17754701E-02    2    -1000005         5   # BR(~g -> ~b^*_1 b)
     4.70132465E-02    2     2000005        -5   # BR(~g -> ~b_2 b_bar)
     4.70132465E-02    2    -2000005         5   # BR(~g -> ~b^*_2 b)
     3.69711947E-06    2     1000022        21   # BR(~g -> chi^0_1 g)
     1.68301891E-04    2     1000023        21   # BR(~g -> chi^0_2 g)
     2.08748128E-04    2     1000025        21   # BR(~g -> chi^0_3 g)
     4.30411786E-05    2     1000035        21   # BR(~g -> chi^0_4 g)
#    BR                NDA      ID1      ID2       ID3
     2.05495811E-04    3     1000022         6        -6   # BR(~g -> chi^0_1 t t_bar)
     4.88304390E-03    3     1000023         6        -6   # BR(~g -> chi^0_2 t t_bar)
     6.33622516E-03    3     1000025         6        -6   # BR(~g -> chi^0_3 t t_bar)
     6.28054975E-03    3     1000035         6        -6   # BR(~g -> chi^0_4 t t_bar)
     6.47332778E-04    3     1000024         5        -6   # BR(~g -> chi^+_1 b t_bar)
     6.47332778E-04    3    -1000024        -5         6   # BR(~g -> chi^-_1 b_bar t)
     3.20187869E-03    3     1000037         5        -6   # BR(~g -> chi^+_2 b t_bar)
     3.20187869E-03    3    -1000037        -5         6   # BR(~g -> chi^-_2 b_bar t)
DECAY        25     2.70416226E-03   # h^0
#    BR                NDA      ID1      ID2
     8.70654906E-09    2          11       -11   # BR(h^0 -> e^- e^+)
     3.72225384E-04    2          13       -13   # BR(h^0 -> mu^- mu^+)
     1.04954011E-01    2          15       -15   # BR(h^0 -> tau^- tau^+)
     7.02850722E-07    2           1        -1   # BR(h^0 -> d d_bar)
     3.09956410E-04    2           3        -3   # BR(h^0 -> s s_bar)
     6.71971510E-01    2           5        -5   # BR(h^0 -> b b_bar)
     2.43675812E-07    2           2        -2   # BR(h^0 -> u u_bar)
     4.36604166E-02    2           4        -4   # BR(h^0 -> c c_bar)
     6.50905473E-02    2          21        21   # BR(h^0 -> g g)
     2.96725237E-03    2          22        22   # BR(h^0 -> photon photon)
# writing decays into V V* as 3-body decays
#    BR                NDA      ID1      ID2       ID3
     5.11096421E-03    3          24        11        12   # BR(h^0 -> W^+ e^- nu_e)
     5.11096421E-03    3          24        13        14   # BR(h^0 -> W^+ mu^- nu_mu)
     5.11096421E-03    3          24        15        16   # BR(h^0 -> W^+ tau^- nu_tau)
     1.78883747E-02    3          24         1        -2   # BR(h^0 -> W^+ d u_bar)
     1.78883747E-02    3          24         3        -4   # BR(h^0 -> W^+ s c_bar)
     5.11096421E-03    3         -24       -11       -12   # BR(h^0 -> W^- e^+ nu_bar_e)
     5.11096421E-03    3         -24       -13       -14   # BR(h^0 -> W^- mu^+ nu_bar_mu)
     5.11096421E-03    3         -24       -15       -16   # BR(h^0 -> W^- tau^+ nu_bar_tau)
     1.78883747E-02    3         -24        -1         2   # BR(h^0 -> W^- d_bar u)
     1.78883747E-02    3         -24        -3         4   # BR(h^0 -> W^- s_bar c)
     2.95884484E-04    3          23        11       -11   # BR(h^0 -> Z e^- e^+)
     2.95884484E-04    3          23        13       -13   # BR(h^0 -> Z mu^- mu^+)
     2.53615272E-04    3          23        15       -15   # BR(h^0 -> Z tau^- tau^+)
     1.69076848E-03    3          23        12       -12   # BR(h^0 -> Z nu_e nu_bar_e)
     1.18353794E-03    3          23         1        -1   # BR(h^0 -> Z u u_bar)
     1.18353794E-03    3          23         3        -3   # BR(h^0 -> Z c c_bar)
     1.18353794E-03    3          23         5        -5   # BR(h^0 -> Z t t_bar)
     1.18353794E-03    3          23         2        -2   # BR(h^0 -> Z u u_bar)
     1.18353794E-03    3          23         4        -4   # BR(h^0 -> Z c c_bar)
DECAY        35     2.66296336E+00   # H^0
#    BR                NDA      ID1      ID2
     1.17716429E-08    2          11       -11   # BR(H^0 -> e^- e^+)
     5.03272000E-04    2          13       -13   # BR(H^0 -> mu^- mu^+)
     1.42435274E-01    2          15       -15   # BR(H^0 -> tau^- tau^+)
     7.96050826E-07    2           1        -1   # BR(H^0 -> d d_bar)
     3.51058315E-04    2           3        -3   # BR(H^0 -> s s_bar)
     7.86505397E-01    2           5        -5   # BR(H^0 -> b b_bar)
     7.82293381E-12    2           2        -2   # BR(H^0 -> u u_bar)
     1.40195938E-06    2           4        -4   # BR(H^0 -> c c_bar)
     6.55915609E-02    2           6        -6   # BR(H^0 -> t t_bar)
     3.49081118E-05    2     2000011  -2000011   # BR(H^0 -> ~e^-_R ~e^+_R)
     3.48977379E-05    2     2000013  -2000013   # BR(H^0 -> ~mu^-_R ~mu^+_R)
     3.18236550E-05    2     1000015  -1000015   # BR(H^0 -> ~tau^-_1 ~tau^+_1)
     9.53441613E-04    2     1000022   1000022   # BR(H^0 -> chi^0_1 chi^0_1)
     8.86412538E-04    2          23        23   # BR(H^0 -> Z Z)
     1.70760377E-03    2          24       -24   # BR(H^0 -> W^+ W^-)
     8.80273657E-04    2          25        25   # BR(H^0 -> h^0 h^0)
     8.14934896E-05    2          21        21   # BR(H^0 -> g g)
     3.73255124E-07    2          22        22   # BR(H^0 -> photon photon)
DECAY        36     2.66957586E+00   # A^0
#    BR                NDA      ID1      ID2
     1.17482516E-08    2          11       -11   # BR(A^0 -> e^- e^+)
     5.02271987E-04    2          13       -13   # BR(A^0 -> mu^- mu^+)
     1.42154769E-01    2          15       -15   # BR(A^0 -> tau^- tau^+)
     7.94467426E-07    2           1        -1   # BR(A^0 -> d d_bar)
     3.50360018E-04    2           3        -3   # BR(A^0 -> s s_bar)
     7.84953074E-01    2           5        -5   # BR(A^0 -> b b_bar)
     6.75322445E-12    2           2        -2   # BR(A^0 -> u u_bar)
     1.21025482E-06    2           4        -4   # BR(A^0 -> c c_bar)
     6.52023736E-02    2           6        -6   # BR(A^0 -> t t_bar)
     5.13777764E-03    2     1000022   1000022   # BR(A^0 -> chi^0_1 chi^0_1)
     1.64642182E-03    2          25        23   # BR(A^0 -> h^0 Z)
     5.06720868E-05    2          21        21   # BR(A^0 -> g g)
     2.63218014E-07    2          22        22   # BR(A^0 -> photon photon)
DECAY        37     2.23706102E+00   # H^+
#    BR                NDA      ID1      ID2
     1.40900589E-08    2         -11        12   # BR(H^+ -> e^+ nu_e)
     6.02391073E-04    2         -13        12   # BR(H^+ -> mu^+ nu_e)
     1.70490836E-01    2         -15        12   # BR(H^+ -> tau^+ nu_e)
     8.38988471E-07    2          -1         2   # BR(H^+ -> d_bar u)
     3.71267015E-04    2          -3         4   # BR(H^+ -> s_bar c)
     8.26574297E-01    2          -5         6   # BR(H^+ -> b_bar t)
     1.96035500E-03    2          25        24   # BR(H^+ -> h^0 W^+)
DECAY         6     2.43000000E+00   # top
#    BR                NDA      ID1      ID2
     1.00000000E+00    2           5        24   # BR(t -> b W)
Block HiggsBoundsInputHiggsCouplingsFermions
# ScalarNormEffCoupSq PseudoSNormEffCoupSq NP IP1 IP2 IP2
    1.15529767E+00    0.00000000E+00        3  25   5   5  # h0-b-b eff. coupling^2, normalised to SM
    2.24844702E+02    0.00000000E+00        3  35   5   5  # H0-b-b eff. coupling^2, normalised to SM
    0.00000000E+00    2.25000000E+02        3  36   5   5  # A0-b-b eff. coupling^2, normalised to SM
#
    9.99309788E-01    0.00000000E+00        3  25   6   6  # h0-t-t eff. coupling^2, normalised to SM
    5.13465633E-03    0.00000000E+00        3  35   6   6  # H0-t-t eff. coupling^2, normalised to SM
    0.00000000E+00    4.44444444E-03        3  36   6   6  # A0-t-t eff. coupling^2, normalised to SM
#
    1.15529767E+00    0.00000000E+00        3  25  15  15  # h0-tau-tau eff. coupling^2, normalised to SM
    2.24844702E+02    0.00000000E+00        3  35  15  15  # H0-tau-tau eff. coupling^2, normalised to SM
    0.00000000E+00    2.25000000E+02        3  36  15  15  # A0-tau-tau eff. coupling^2, normalised to SM
#
Block HiggsBoundsInputHiggsCouplingsBosons
    9.99975093E-01        3  25  24  24  # h0-W-W eff. coupling^2, normalised to SM
    2.49068858E-05        3  35  24  24  # H0-W-W eff. coupling^2, normalised to SM
    0.00000000E+00        3  36  24  24  # A0-W-W eff. coupling^2, normalised to SM
#
    9.99975093E-01        3  25  23  23  # h0-Z-Z eff. coupling^2, normalised to SM
    2.49068858E-05        3  35  23  23  # H0-Z-Z eff. coupling^2, normalised to SM
    0.00000000E+00        3  36  23  23  # A0-Z-Z eff. coupling^2, normalised to SM
#
    1.16447221E+00        3  25  21  21  # h0-g-g eff. coupling^2, normalised to SM
    6.23526919E-03        3  35  21  21  # H0-g-g eff. coupling^2, normalised to SM
    1.07343084E-01        3  36  21  21  # A0-g-g eff. coupling^2, normalised to SM
#
    0.00000000E+00        3  25  25  23  # h0-h0-Z eff. coupling^2, normalised to SM
    0.00000000E+00        3  35  25  23  # H0-h0-Z eff. coupling^2, normalised to SM
    2.49068858E-05        3  36  25  23  # A0-h0-Z eff. coupling^2, normalised to SM
    0.00000000E+00        3  35  35  23  # H0-H0-Z eff. coupling^2, normalised to SM
    9.99975093E-01        3  36  35  23  # A0-H0-Z eff. coupling^2, normalised to SM
    0.00000000E+00        3  36  36  23  # A0-A0-Z eff. coupling^2, normalised to SM
#
    0.00000000E+00        4  25  21  21  23  # h0-g-g-Z eff. coupling^2, normalised to SM
    0.00000000E+00        4  35  21  21  23  # H0-g-g-Z eff. coupling^2, normalised to SM
    0.00000000E+00        4  36  21  21  23  # A0-g-g-Z eff. coupling^2, normalised to SM
Block SPhenoLowEnergy  # low energy observables
    1    3.21700291E-04   # BR(b -> s gamma)
    2    1.58860928E-06   # BR(b -> s mu+ mu-)
    3    3.53676172E-05   # BR(b -> s nu nu)
    4    5.17278343E-11   # BR(Bd -> mu+ mu-)
    5    3.37944560E-09   # BR(Bs -> mu+ mu-)
    6    1.09286631E-04   # BR(B_u -> tau nu)
    7    9.88184696E-01   # BR(B_u -> tau nu)/BR(B_u -> tau nu)_SM
    8    2.73504472E-01   # |Delta(M_Bd)| [ps^-1] 
    9    2.02963020E+01   # |Delta(M_Bs)| [ps^-1] 
   20    1.89581795E-14   # Delta(g-2)_electron/2
   21    4.05473114E-10   # Delta(g-2)_muon/2
   22    2.75717176E-08   # Delta(g-2)_tau/2
   23    0.00000000E+00   # electric dipole moment of the electron
   24    0.00000000E+00   # electric dipole moment of the muon
   25    0.00000000E+00   # electric dipole moment of the tau
   26    0.00000000E+00   # Br(mu -> e gamma)
   27    0.00000000E+00   # Br(tau -> e gamma)
   28    0.00000000E+00   # Br(tau -> mu gamma)
   29    0.00000000E+00   # Br(mu -> 3 e)
   30    0.00000000E+00   # Br(tau -> 3 e)
   31    0.00000000E+00   # Br(tau -> 3 mu)
   39    5.87547758E-04   # Delta(rho_parameter)
   40    0.00000000E+00   # BR(Z -> e mu)
   41    0.00000000E+00   # BR(Z -> e tau)
   42    0.00000000E+00   # BR(Z -> mu tau)
Block FWCOEF Q=  9.11876000E+01  # Wilson coefficients at scale Q
#    id        order  M        value         comment
Block FWCOEF Q=  1.60000000E+02  # Wilson coefficients at scale Q
#    id        order  M        value         comment
     0305 4422   00   0    -1.87757957E-01   # C7
     0305 4422   00   1    -2.25575463E-02   # C7
     0305 4322   00   1    -4.93092361E-04   # C7'
     0305 6421   00   0    -9.48895573E-02   # C8
     0305 6421   00   1    -3.14655364E-02   # C8
     0305 6321   00   1    -6.78164118E-04   # C8'
 03051111 4133   00   0    -9.37075855E-01   # C9 e+e-
 03051111 4133   00   1     1.57132652E-03   # C9 e+e-
 03051111 4233   00   1    -1.17119137E-05   # C9' e+e-
 03051111 4137   00   0    -3.96472669E+00   # C10 e+e-
 03051111 4137   00   1     4.88502426E-03   # C10 e+e-
 03051111 4237   00   1     2.69336782E-04   # C10' e+e-
 03051313 4133   00   0    -9.37075855E-01   # C9 mu+mu-
 03051313 4133   00   1     1.57128077E-03   # C9 mu+mu-
 03051313 4233   00   1    -1.17123919E-05   # C9' mu+mu-
 03051313 4137   00   0    -3.96472669E+00   # C10 mu+mu-
 03051313 4137   00   1     4.88497842E-03   # C10 mu+mu-
 03051313 4237   00   1     2.69337260E-04   # C10' mu+mu-
 03051212 4237   00   0     1.49015428E+00   # C11 nu_1 nu_1
 03051212 4237   00   1    -1.17307135E-03   # C11 nu_1 nu_1
 03051212 4137   00   1    -6.44530398E-05   # C11' nu_1 nu_1
 03051414 4237   00   0     1.49015428E+00   # C11 nu_2 nu_2
 03051414 4237   00   1    -1.17307129E-03   # C11 nu_2 nu_2
 03051414 4137   00   1    -6.44529269E-05   # C11' nu_2 nu_2
 03051616 4237   00   0     1.49015428E+00   # C11 nu_3 nu_3
 03051616 4237   00   1    -1.17305503E-03   # C11 nu_3 nu_3
 03051616 4137   00   1    -6.44211021E-05   # C11' nu_3 nu_3
