#
#                              ======================
#                              | THE SUSYHIT OUTPUT |
#                              ======================
#
#
#              ------------------------------------------------------
#              |     This is the output of the SUSY-HIT package     |
#              |  created by A.Djouadi, M.Muehlleitner and M.Spira. |
#              |  In case of problems with SUSY-HIT email to        |
#              |           margarete.muehlleitner@cern.ch           |
#              |           michael.spira@psi.ch                     |
#              |           abdelhak.djouadi@cern.ch                 |
#              ------------------------------------------------------
#
#              ------------------------------------------------------
#              |  SUSY Les Houches Accord - MSSM Spectrum + Decays  |
#              |              based on the decay programs           |
#              |                                                    |
#              |                     SDECAY 1.3b                    |
#              |                                                    |
#              |  Authors: M.Muhlleitner, A.Djouadi and Y.Mambrini  |
#              |  Ref.:    Comput.Phys.Commun.168(2005)46           |
#              |           [hep-ph/0311167]                         |
#              |                                                    |
#              |                     HDECAY 3.4                     |
#              |                                                    |
#              |  By: A.Djouadi,J.Kalinowski,M.Muhlleitner,M.Spira  |
#              |  Ref.:    Comput.Phys.Commun.108(1998)56           |
#              |           [hep-ph/9704448]                         |
#              |                                                    |
#              |                                                    |
#              |  If not stated otherwise all DRbar couplings and   |
#              |  soft SUSY breaking masses are given at the scale  |
#              |  Q=  0.91187600E+02
#              |                                                    |
#              ------------------------------------------------------
#
#
BLOCK DCINFO  # Decay Program information
     1   SDECAY/HDECAY # decay calculator
     2   1.3b  /3.4    # version number
#
BLOCK SPINFO  # Spectrum calculator information
     1   SuSpect     # RGE +Spectrum calculator            
     2   2.41         # version number                     
#
BLOCK MODSEL  # Model selection
     1     0   # #general MSSM low scale                           
#
BLOCK SMINPUTS  # Standard Model inputs
         1     1.27934000E+02   # alpha_em^-1(M_Z)^MSbar
         2     1.16639000E-05   # G_F [GeV^-2]
         3     1.17200000E-01   # alpha_S(M_Z)^MSbar
         4     9.11870000E+01   # M_Z pole mass
         5     4.25000000E+00   # mb(mb)^MSbar
         6     1.72500000E+02   # mt pole mass
         7     1.77700000E+00   # mtau pole mass
#
BLOCK MINPAR  # Input parameters - minimal models
#
BLOCK EXTPAR  # Input parameters - non-minimal models
         0     9.11876000E+01   # EWSB                
         1     7.00000000E+02   # M_1                 
         2     1.00000000E+05   # M_2                 
         3     1.00000000E+05   # M_3                 
        11     0.00000000E+00   # A_t                 
        12     0.00000000E+00   # A_b                 
        13     0.00000000E+00   # A_tau               
        14     0.00000000E+00   # A_u                 
        15     0.00000000E+00   # A_d                 
        16     0.00000000E+00   # A_e                 
        23     3.50000000E+03   # mu(EWSB)            
        25     1.50000000E+00   # tanbeta(in)         
        26     2.00000000E+03   # MA_pole             
        31     1.00000000E+05   # M_eL                
        32     1.00000000E+05   # M_muL               
        33     1.00000000E+05   # M_tauL              
        34     1.00000000E+05   # M_eR                
        35     1.00000000E+05   # M_muR               
        36     1.00000000E+05   # M_tauR              
        41     1.70000000E+03   # M_q1L               
        42     1.70000000E+03   # M_q2L               
        43     1.70000000E+03   # M_q3L               
        44     1.00000000E+05   # M_uR                
        45     1.00000000E+05   # M_cR                
        46     1.00000000E+05   # M_tR                
        47     1.70000000E+03   # M_dR                
        48     1.70000000E+03   # M_sR                
        49     1.70000000E+03   # M_bR                
#
BLOCK MASS  # Mass Spectrum
# PDG code           mass       particle
        24     8.05834224E+01   # W+
        25     1.25000000E+02   # h
        35     2.00402934E+03   # H
        36     2.00000000E+03   # A
        37     2.02369312E+03   # H+
         5     4.87877839E+00   # b-quark pole mass calculated from mb(mb)_Msbar
   1000001     1.70039042E+03   # ~d_L
   2000001     1.70007526E+03   # ~d_R
   1000002     1.69968477E+03   # ~u_L
   2000002     9.99999974E+04   # ~u_R
   1000003     1.70039042E+03   # ~s_L
   2000003     1.70007526E+03   # ~s_R
   1000004     1.69968477E+03   # ~c_L
   2000004     9.99999974E+04   # ~c_R
   1000005     1.69623538E+03   # ~b_1
   2000005     1.70422486E+03   # ~b_2
   1000006     1.70606962E+03   # ~t_1
   2000006     1.00000106E+05   # ~t_2
   1000011     1.00000004E+05   # ~e_L
   2000011     1.00000004E+05   # ~e_R
   1000012     9.99999921E+04   # ~nu_eL
   1000013     1.00000004E+05   # ~mu_L
   2000013     1.00000004E+05   # ~mu_R
   1000014     9.99999921E+04   # ~nu_muL
   1000015     9.99999574E+04   # ~tau_1
   2000015     1.00000051E+05   # ~tau_2
   1000016     9.99999921E+04   # ~nu_tauL
   1000021     1.00000000E+05   # ~g
   1000022     6.99333023E+02   # ~chi_10
   1000023    -3.50002060E+03   # ~chi_20
   1000025     3.50062310E+03   # ~chi_30
   1000035     1.00000064E+05   # ~chi_40
   1000024     3.49994016E+03   # ~chi_1+
   1000037     1.00000064E+05   # ~chi_2+
   1000039     1.00000000E-09   # ~gravitino
#
BLOCK NMIX  # Neutralino Mixing Matrix
  1  1     9.99875506E-01   # N_11
  1  2    -1.18729961E-05   # N_12
  1  3     1.25345752E-02   # N_13
  1  4    -9.58423032E-03   # N_14
  2  1     2.08623160E-03   # N_21
  2  2    -1.49668143E-04   # N_22
  2  3    -7.07094831E-01   # N_23
  2  4    -7.07115637E-01   # N_24
  3  1     1.56403579E-02   # N_31
  3  2     8.02477220E-04   # N_32
  3  3    -7.07007476E-01   # N_33
  3  4     7.07032647E-01   # N_34
  4  1     3.67271281E-07   # N_41
  4  2    -9.99999667E-01   # N_42
  4  3    -4.61676800E-04   # N_43
  4  4     6.73324295E-04   # N_44
#
BLOCK UMIX  # Chargino Mixing Matrix U
  1  1    -6.52909386E-04   # U_11
  1  2     9.99999787E-01   # U_12
  2  1     9.99999787E-01   # U_21
  2  2     6.52909386E-04   # U_22
#
BLOCK VMIX  # Chargino Mixing Matrix V
  1  1    -9.52224262E-04   # V_11
  1  2     9.99999547E-01   # V_12
  2  1     9.99999547E-01   # V_21
  2  2     9.52224262E-04   # V_22
#
BLOCK STOPMIX  # Stop Mixing Matrix
  1  1     9.99999999E-01   # cos(theta_t)
  1  2     4.47213589E-05   # sin(theta_t)
  2  1    -4.47213589E-05   # -sin(theta_t)
  2  2     9.99999999E-01   # cos(theta_t)
#
BLOCK SBOTMIX  # Sbottom Mixing Matrix
  1  1     6.93019882E-01   # cos(theta_b)
  1  2     7.20918472E-01   # sin(theta_b)
  2  1    -7.20918472E-01   # -sin(theta_b)
  2  2     6.93019882E-01   # cos(theta_b)
#
BLOCK STAUMIX  # Stau Mixing Matrix
  1  1     7.06192000E-01   # cos(theta_tau)
  1  2     7.08020380E-01   # sin(theta_tau)
  2  1    -7.08020380E-01   # -sin(theta_tau)
  2  2     7.06192000E-01   # cos(theta_tau)
#
BLOCK ALPHA  # Higgs mixing
          -5.90314857E-01   # Mixing angle in the neutral Higgs boson sector
#
BLOCK HMIX Q=  9.11876000E+01  # DRbar Higgs Parameters
         1     3.50000000E+03   # mu(Q)               
         2     1.49999982E+00   # tanbeta(Q)          
         3     2.54868255E+02   # vev(Q)              
         4    -6.81752608E+07   # MA^2(Q)             
#
BLOCK GAUGE Q=  9.11876000E+01  # The gauge couplings
     1     3.50577506E-01   # gprime(Q) DRbar
     2     6.19783363E-01   # g(Q) DRbar
     3     1.02383660E+00   # g3(Q) DRbar
#
BLOCK AU Q=  9.11876000E+01  # The trilinear couplings
  1  1     0.00000000E+00   # A_u(Q) DRbar
  2  2     0.00000000E+00   # A_c(Q) DRbar
  3  3     0.00000000E+00   # A_t(Q) DRbar
#
BLOCK AD Q=  9.11876000E+01  # The trilinear couplings
  1  1     0.00000000E+00   # A_d(Q) DRbar
  2  2     0.00000000E+00   # A_s(Q) DRbar
  3  3     0.00000000E+00   # A_b(Q) DRbar
#
BLOCK AE Q=  9.11876000E+01  # The trilinear couplings
  1  1     0.00000000E+00   # A_e(Q) DRbar
  2  2     0.00000000E+00   # A_mu(Q) DRbar
  3  3     0.00000000E+00   # A_tau(Q) DRbar
#
BLOCK Yu Q=  9.11876000E+01  # The Yukawa couplings
  1  1     0.00000000E+00   # y_u(Q) DRbar
  2  2     0.00000000E+00   # y_c(Q) DRbar
  3  3     9.83671231E-01   # y_t(Q) DRbar
#
BLOCK Yd Q=  9.11876000E+01  # The Yukawa couplings
  1  1     0.00000000E+00   # y_d(Q) DRbar
  2  2     0.00000000E+00   # y_s(Q) DRbar
  3  3     2.58624393E-02   # y_b(Q) DRbar
#
BLOCK Ye Q=  9.11876000E+01  # The Yukawa couplings
  1  1     0.00000000E+00   # y_e(Q) DRbar
  2  2     0.00000000E+00   # y_mu(Q) DRbar
  3  3     1.77400751E-02   # y_tau(Q) DRbar
#
BLOCK MSOFT Q=  9.11876000E+01  # The soft SUSY breaking masses at the scale Q
         1     7.00000000E+02   # M_1                 
         2     1.00000000E+05   # M_2                 
         3     1.00000000E+05   # M_3                 
        14     0.00000000E+00   # A_u                 
        15     0.00000000E+00   # A_d                 
        16     0.00000000E+00   # A_e                 
        21     6.31184922E+08   # M^2_Hd              
        22    -1.14972228E+09   # M^2_Hu              
        31     1.00000000E+05   # M_eL                
        32     1.00000000E+05   # M_muL               
        33     1.00000000E+05   # M_tauL              
        34     1.00000000E+05   # M_eR                
        35     1.00000000E+05   # M_muR               
        36     1.00000000E+05   # M_tauR              
        41     1.70000000E+03   # M_q1L               
        42     1.70000000E+03   # M_q2L               
        43     1.70000000E+03   # M_q3L               
        44     1.00000000E+05   # M_uR                
        45     1.00000000E+05   # M_cR                
        46     1.00000000E+05   # M_tR                
        47     1.70000000E+03   # M_dR                
        48     1.70000000E+03   # M_sR                
        49     1.70000000E+03   # M_bR                
#
#
#
#                             =================
#                             |The decay table|
#                             =================
#
# - The QCD corrections to the decays gluino -> squark  + quark
#                                     squark -> gaugino + quark_prime
#                                     squark -> squark_prime + Higgs
#                                     squark -> gluino  + quark
#   are included.
#
# - The multi-body decays for the inos, stops and sbottoms are included.
#
# - The loop induced decays for the gluino, neutralinos and stops
#   are included.
#
# - The SUSY decays of the top quark are included.
#
# - Possible decays of the NLSP in GMSB models are included.
#
#
#         PDG            Width
DECAY         6     1.32579909E+00   # top decays
#          BR         NDA      ID1       ID2
     1.00000000E+00    2           5        24   # BR(t ->  b    W+)
#
#         PDG            Width
DECAY   1000021     1.E-04   # gluino decays (OJ Mods)
#          BR         NDA      ID1       ID2
     2.88693493E-03    2     1000001        -1   # BR(~g -> ~d_L  db)
     2.88693493E-03    2    -1000001         1   # BR(~g -> ~d_L* d )
     2.88693555E-03    2     2000001        -1   # BR(~g -> ~d_R  db)
     2.88693555E-03    2    -2000001         1   # BR(~g -> ~d_R* d )
     2.88693631E-03    2     1000002        -2   # BR(~g -> ~u_L  ub)
     2.88693631E-03    2    -1000002         2   # BR(~g -> ~u_L* u )
     7.81078793E-18    2     2000002        -2   # BR(~g -> ~u_R  ub)
     7.81078793E-18    2    -2000002         2   # BR(~g -> ~u_R* u )
     2.88693493E-03    2     1000003        -3   # BR(~g -> ~s_L  sb)
     2.88693493E-03    2    -1000003         3   # BR(~g -> ~s_L* s )
     2.88693555E-03    2     2000003        -3   # BR(~g -> ~s_R  sb)
     2.88693555E-03    2    -2000003         3   # BR(~g -> ~s_R* s )
     2.88693631E-03    2     1000004        -4   # BR(~g -> ~c_L  cb)
     2.88693631E-03    2    -1000004         4   # BR(~g -> ~c_L* c )
     7.81078793E-18    2     2000004        -4   # BR(~g -> ~c_R  cb)
     7.81078793E-18    2    -2000004         4   # BR(~g -> ~c_R* c )
     2.20101404E-01    2     1000005        -5   # BR(~g -> ~b_1  bb)
     2.20101404E-01    2    -1000005         5   # BR(~g -> ~b_1* b )
     2.19247177E-01    2     2000005        -5   # BR(~g -> ~b_2  bb)
     2.19247177E-01    2    -2000005         5   # BR(~g -> ~b_2* b )
     2.84123741E-03    2     1000006        -6   # BR(~g -> ~t_1  tb)
     2.84123741E-03    2    -1000006         6   # BR(~g -> ~t_1* t )
     8.09771352E-02    2     1000039        21   # BR(~g -> ~G g)
#
#         PDG            Width
DECAY   1000006     1.89858740E-01   # stop1 decays
#          BR         NDA      ID1       ID2
     1.00000000E+00    2     1000022         6   # BR(~t_1 -> ~chi_10 t )
#
#         PDG            Width
DECAY   2000006     5.60276797E+04   # stop2 decays
#          BR         NDA      ID1       ID2
     3.72133689E-03    2     1000022         6   # BR(~t_2 -> ~chi_10 t )
     8.93181791E-03    2     1000023         6   # BR(~t_2 -> ~chi_20 t )
     8.93046273E-03    2     1000025         6   # BR(~t_2 -> ~chi_30 t )
     9.78722136E-01    2     1000024         5   # BR(~t_2 -> ~chi_1+ b )
    -2.42434732E-04    2     1000006        25   # BR(~t_2 -> ~t_1    h )
     2.53900753E-04    2     1000006        35   # BR(~t_2 -> ~t_1    H )
     2.53453707E-04    2     1000006        36   # BR(~t_2 -> ~t_1    A )
     2.38761304E-04    2     1000005        37   # BR(~t_2 -> ~b_1    H+)
     2.68136287E-04    2     2000005        37   # BR(~t_2 -> ~b_2    H+)
    -1.72735776E-04    2     1000006        23   # BR(~t_2 -> ~t_1    Z )
    -4.34579801E-04    2     1000005        24   # BR(~t_2 -> ~b_1    W+)
    -4.70255143E-04    2     2000005        24   # BR(~t_2 -> ~b_2    W+)
#
#         PDG            Width
DECAY   1000005     1.30759822E+01   # sbottom1 decays
#          BR         NDA      ID1       ID2
     1.00000000E+00    2     1000022         5   # BR(~b_1 -> ~chi_10 b )
#
#         PDG            Width
DECAY   2000005     1.21799675E+01   # sbottom2 decays
#          BR         NDA      ID1       ID2
     1.00000000E+00    2     1000022         5   # BR(~b_2 -> ~chi_10 b )
#
#         PDG            Width
DECAY   1000002     1.93931946E-01   # sup_L decays
#          BR         NDA      ID1       ID2
     1.00000000E+00    2     1000022         2   # BR(~u_L -> ~chi_10 u)
#
#         PDG            Width
DECAY   2000002     2.08401286E+02   # sup_R decays
#          BR         NDA      ID1       ID2
     9.99751312E-01    2     1000022         2   # BR(~u_R -> ~chi_10 u)
     4.34737180E-06    2     1000023         2   # BR(~u_R -> ~chi_20 u)
     2.44340178E-04    2     1000025         2   # BR(~u_R -> ~chi_30 u)
#
#         PDG            Width
DECAY   1000001     1.94120180E-01   # sdown_L decays
#          BR         NDA      ID1       ID2
     1.00000000E+00    2     1000022         1   # BR(~d_L -> ~chi_10 d)
#
#         PDG            Width
DECAY   2000001     7.76133977E-01   # sdown_R decays
#          BR         NDA      ID1       ID2
     1.00000000E+00    2     1000022         1   # BR(~d_R -> ~chi_10 d)
#
#         PDG            Width
DECAY   1000004     1.93931946E-01   # scharm_L decays
#          BR         NDA      ID1       ID2
     1.00000000E+00    2     1000022         4   # BR(~c_L -> ~chi_10 c)
#
#         PDG            Width
DECAY   2000004     2.08401286E+02   # scharm_R decays
#          BR         NDA      ID1       ID2
     9.99751312E-01    2     1000022         4   # BR(~c_R -> ~chi_10 c)
     4.34737180E-06    2     1000023         4   # BR(~c_R -> ~chi_20 c)
     2.44340178E-04    2     1000025         4   # BR(~c_R -> ~chi_30 c)
#
#         PDG            Width
DECAY   1000003     1.94120180E-01   # sstrange_L decays
#          BR         NDA      ID1       ID2
     1.00000000E+00    2     1000022         3   # BR(~s_L -> ~chi_10 s)
#
#         PDG            Width
DECAY   2000003     7.76133977E-01   # sstrange_R decays
#          BR         NDA      ID1       ID2
     1.00000000E+00    2     1000022         3   # BR(~s_R -> ~chi_10 s)
#
#         PDG            Width
DECAY   1000011     1.22244155E+02   # selectron_L decays
#          BR         NDA      ID1       ID2
     9.99703706E-01    2     1000022        11   # BR(~e_L -> ~chi_10 e-)
     3.31053293E-06    2     1000023        11   # BR(~e_L -> ~chi_20 e-)
     2.90325285E-04    2     1000025        11   # BR(~e_L -> ~chi_30 e-)
     2.65841681E-06    2    -1000024        12   # BR(~e_L -> ~chi_1- nu_e)
#
#         PDG            Width
DECAY   2000011     4.88973718E+02   # selectron_R decays
#          BR         NDA      ID1       ID2
     9.99751612E-01    2     1000022        11   # BR(~e_R -> ~chi_10 e-)
     4.34213266E-06    2     1000023        11   # BR(~e_R -> ~chi_20 e-)
     2.44045641E-04    2     1000025        11   # BR(~e_R -> ~chi_30 e-)
#
#         PDG            Width
DECAY   1000013     1.22244155E+02   # smuon_L decays
#          BR         NDA      ID1       ID2
     9.99703706E-01    2     1000022        13   # BR(~mu_L -> ~chi_10 mu-)
     3.31053293E-06    2     1000023        13   # BR(~mu_L -> ~chi_20 mu-)
     2.90325285E-04    2     1000025        13   # BR(~mu_L -> ~chi_30 mu-)
     2.65841681E-06    2    -1000024        14   # BR(~mu_L -> ~chi_1- nu_mu)
#
#         PDG            Width
DECAY   2000013     4.88973718E+02   # smuon_R decays
#          BR         NDA      ID1       ID2
     9.99751612E-01    2     1000022        13   # BR(~mu_R -> ~chi_10 mu-)
     4.34213266E-06    2     1000023        13   # BR(~mu_R -> ~chi_20 mu-)
     2.44045641E-04    2     1000025        13   # BR(~mu_R -> ~chi_30 mu-)
#
#         PDG            Width
DECAY   1000015     1.18199621E+04   # stau_1 decays
#          BR         NDA      ID1       ID2
     2.58980336E-02    2     1000022        15   # BR(~tau_1 -> ~chi_10  tau-)
     2.52987369E-05    2     1000023        15   # BR(~tau_1 -> ~chi_20  tau-)
     2.55465955E-05    2     1000025        15   # BR(~tau_1 -> ~chi_30  tau-)
     2.77071545E-05    2    -1000024        16   # BR(~tau_1 -> ~chi_1-  nu_tau)
     9.74023414E-01    2     1000039        15   # BR(~tau_1 -> ~G       tau-)
#
#         PDG            Width
DECAY   2000015     3.06049299E+02   # stau_2 decays
#          BR         NDA      ID1       ID2
     9.96397049E-01    2     1000022        15   # BR(~tau_2 -> ~chi_10  tau-)
     1.07185290E-03    2     1000023        15   # BR(~tau_2 -> ~chi_20  tau-)
     1.55939005E-03    2     1000025        15   # BR(~tau_2 -> ~chi_30  tau-)
     9.71707631E-04    2    -1000024        16   # BR(~tau_2 -> ~chi_1-  nu_tau)
#
#         PDG            Width
DECAY   1000012     1.22244214E+02   # snu_eL decays
#          BR         NDA      ID1       ID2
     9.99787053E-01    2     1000022        12   # BR(~nu_eL -> ~chi_10 nu_e)
     5.51337095E-06    2     1000023        12   # BR(~nu_eL -> ~chi_20 nu_e)
     2.01778874E-04    2     1000025        12   # BR(~nu_eL -> ~chi_30 nu_e)
     5.65451648E-06    2     1000024        11   # BR(~nu_eL -> ~chi_1+ e-)
#
#         PDG            Width
DECAY   1000014     1.22244214E+02   # snu_muL decays
#          BR         NDA      ID1       ID2
     9.99787053E-01    2     1000022        14   # BR(~nu_muL -> ~chi_10 nu_mu)
     5.51337095E-06    2     1000023        14   # BR(~nu_muL -> ~chi_20 nu_mu)
     2.01778874E-04    2     1000025        14   # BR(~nu_muL -> ~chi_30 nu_mu)
     5.65451648E-06    2     1000024        13   # BR(~nu_muL -> ~chi_1+ mu-)
#
#         PDG            Width
DECAY   1000016     1.22868777E+02   # snu_tauL decays
#          BR         NDA      ID1       ID2
     9.94704966E-01    2     1000022        16   # BR(~nu_tauL -> ~chi_10 nu_tau)
     5.48534555E-06    2     1000023        16   # BR(~nu_tauL -> ~chi_20 nu_tau)
     2.00753198E-04    2     1000025        16   # BR(~nu_tauL -> ~chi_30 nu_tau)
     5.08879566E-03    2     1000024        15   # BR(~nu_tauL -> ~chi_1+ tau-)
#
#         PDG            Width
DECAY   1000024     5.44725149E+01   # chargino1+ decays
#          BR         NDA      ID1       ID2
     4.64272317E-07    2     1000002        -1   # BR(~chi_1+ -> ~u_L     db)
     2.18167089E-07    2    -1000001         2   # BR(~chi_1+ -> ~d_L*    u )
     4.64272317E-07    2     1000004        -3   # BR(~chi_1+ -> ~c_L     sb)
     2.18167089E-07    2    -1000003         4   # BR(~chi_1+ -> ~s_L*    c )
     2.38704112E-02    2     1000006        -5   # BR(~chi_1+ -> ~t_1     bb)
     9.03214650E-02    2    -1000005         6   # BR(~chi_1+ -> ~b_1*    t )
     8.27127017E-01    2    -2000005         6   # BR(~chi_1+ -> ~b_2*    t )
     5.09846116E-02    2     1000022        24   # BR(~chi_1+ -> ~chi_10  W+)
     7.68850185E-03    2     1000022        37   # BR(~chi_1+ -> ~chi_10  H+)
     5.53853073E-06    2     1000039        24   # BR(~chi_1+ -> ~G       W+)
     1.08975660E-06    2     1000039        37   # BR(~chi_1+ -> ~G       H+)
#
#         PDG            Width
DECAY   1000037     4.05909800E+04   # chargino2+ decays
#          BR         NDA      ID1       ID2
     2.10929423E-02    2     1000002        -1   # BR(~chi_2+ -> ~u_L     db)
     2.10929484E-02    2    -1000001         2   # BR(~chi_2+ -> ~d_L*    u )
     2.10929423E-02    2     1000004        -3   # BR(~chi_2+ -> ~c_L     sb)
     2.10929484E-02    2    -1000003         4   # BR(~chi_2+ -> ~s_L*    c )
     6.41053488E-01    2     1000006        -5   # BR(~chi_2+ -> ~t_1     bb)
     4.62413658E-03    2    -1000005         6   # BR(~chi_2+ -> ~b_1*    t )
     2.00123450E-02    2    -2000005         6   # BR(~chi_2+ -> ~b_2*    t )
     1.51644360E-14    2     1000012       -11   # BR(~chi_2+ -> ~nu_eL   e+  )
     1.51644360E-14    2     1000014       -13   # BR(~chi_2+ -> ~nu_muL  mu+ )
     1.05601781E-14    2    -1000011        12   # BR(~chi_2+ -> ~e_L+    nu_e)
     1.05601781E-14    2    -1000013        14   # BR(~chi_2+ -> ~mu_L+   nu_mu)
     1.66231094E-14    2    -1000015        16   # BR(~chi_2+ -> ~tau_1+  nu_tau)
     2.48521153E-16    2    -2000015        16   # BR(~chi_2+ -> ~tau_2+  nu_tau)
     3.86530087E-03    2     1000024        23   # BR(~chi_2+ -> ~chi_1+  Z )
     7.49912866E-07    2     1000022        24   # BR(~chi_2+ -> ~chi_10  W+)
     3.74974265E-03    2     1000023        24   # BR(~chi_2+ -> ~chi_20  W+)
     3.74895215E-03    2     1000025        24   # BR(~chi_2+ -> ~chi_30  W+)
     3.90379652E-03    2     1000024        25   # BR(~chi_2+ -> ~chi_1+  h )
     3.42679150E-03    2     1000024        35   # BR(~chi_2+ -> ~chi_1+  H )
     3.42724841E-03    2     1000024        36   # BR(~chi_2+ -> ~chi_1+  A )
     9.44447258E-07    2     1000022        37   # BR(~chi_2+ -> ~chi_10  H+)
     3.42712660E-03    2     1000023        37   # BR(~chi_2+ -> ~chi_20  H+)
     3.42629946E-03    2     1000025        37   # BR(~chi_2+ -> ~chi_30  H+)
     2.20961234E-01    2     1000039        24   # BR(~chi_2+ -> ~G       W+)
     6.33253010E-08    2     1000039        37   # BR(~chi_2+ -> ~G       H+)
#
#         PDG            Width
DECAY   1000022     1.E-08   # neutralino1 decays (OJ Mods)
#          BR         NDA      ID1       ID2
     7.69883211E-01    2     1000039        22   # BR(~chi_10 -> ~G        gam)
     2.30116355E-01    2     1000039        23   # BR(~chi_10 -> ~G        Z)
     4.33238839E-07    2     1000039        25   # BR(~chi_10 -> ~G        h)
#
#         PDG            Width
DECAY   1000023     1.E-08   # neutralino2 decays (OJ Mods)
#          BR         NDA      ID1       ID2
     5.05358394E-02    2     1000022        23   # BR(~chi_20 -> ~chi_10   Z )
     8.85292064E-04    2     1000022        25   # BR(~chi_20 -> ~chi_10   h )
     6.81211532E-03    2     1000022        35   # BR(~chi_20 -> ~chi_10   H )
     9.71851138E-04    2     1000022        36   # BR(~chi_20 -> ~chi_10   A )
     1.72634183E-08    2     1000002        -2   # BR(~chi_20 -> ~u_L      ub)
     1.72634183E-08    2    -1000002         2   # BR(~chi_20 -> ~u_L*     u )
     8.56831881E-08    2     1000001        -1   # BR(~chi_20 -> ~d_L      db)
     8.56831881E-08    2    -1000001         1   # BR(~chi_20 -> ~d_L*     d )
     1.79878423E-07    2     2000001        -1   # BR(~chi_20 -> ~d_R      db)
     1.79878423E-07    2    -2000001         1   # BR(~chi_20 -> ~d_R*     d )
     1.72634183E-08    2     1000004        -4   # BR(~chi_20 -> ~c_L      cb)
     1.72634183E-08    2    -1000004         4   # BR(~chi_20 -> ~c_L*     c )
     8.56831881E-08    2     1000003        -3   # BR(~chi_20 -> ~s_L      sb)
     8.56831881E-08    2    -1000003         3   # BR(~chi_20 -> ~s_L*     s )
     1.79878423E-07    2     2000003        -3   # BR(~chi_20 -> ~s_R      sb)
     1.79878423E-07    2    -2000003         3   # BR(~chi_20 -> ~s_R*     s )
     4.48073204E-01    2     1000006        -6   # BR(~chi_20 -> ~t_1      tb)
     4.48073204E-01    2    -1000006         6   # BR(~chi_20 -> ~t_1*     t )
     1.07691302E-02    2     1000005        -5   # BR(~chi_20 -> ~b_1      bb)
     1.07691302E-02    2    -1000005         5   # BR(~chi_20 -> ~b_1*     b )
     1.15513659E-02    2     2000005        -5   # BR(~chi_20 -> ~b_2      bb)
     1.15513659E-02    2    -2000005         5   # BR(~chi_20 -> ~b_2*     b )
     3.29795103E-11    2     1000039        22   # BR(~chi_20 -> ~G        gam)
     2.08434505E-07    2     1000039        23   # BR(~chi_20 -> ~G        Z)
     5.20211429E-06    2     1000039        25   # BR(~chi_20 -> ~G        h)
     4.16647373E-08    2     1000039        35   # BR(~chi_20 -> ~G        H)
     1.07466742E-06    2     1000039        36   # BR(~chi_20 -> ~G        A)
#
#         PDG            Width
DECAY   1000025     5.57303715E+01   # neutralino3 decays
#          BR         NDA      ID1       ID2
     8.99489144E-04    2     1000022        23   # BR(~chi_30 -> ~chi_10   Z )
     5.09065927E-02    2     1000022        25   # BR(~chi_30 -> ~chi_10   h )
     9.44337037E-04    2     1000022        35   # BR(~chi_30 -> ~chi_10   H )
     6.84540288E-03    2     1000022        36   # BR(~chi_30 -> ~chi_10   A )
     4.08689846E-06    2     1000002        -2   # BR(~chi_30 -> ~u_L      ub)
     4.08689846E-06    2    -1000002         2   # BR(~chi_30 -> ~u_L*     u )
     1.33737080E-06    2     1000001        -1   # BR(~chi_30 -> ~d_L      db)
     1.33737080E-06    2    -1000001         1   # BR(~chi_30 -> ~d_L*     d )
     1.00991452E-05    2     2000001        -1   # BR(~chi_30 -> ~d_R      db)
     1.00991452E-05    2    -2000001         1   # BR(~chi_30 -> ~d_R*     d )
     4.08689846E-06    2     1000004        -4   # BR(~chi_30 -> ~c_L      cb)
     4.08689846E-06    2    -1000004         4   # BR(~chi_30 -> ~c_L*     c )
     1.33737080E-06    2     1000003        -3   # BR(~chi_30 -> ~s_L      sb)
     1.33737080E-06    2    -1000003         3   # BR(~chi_30 -> ~s_L*     s )
     1.00991452E-05    2     2000003        -3   # BR(~chi_30 -> ~s_R      sb)
     1.00991452E-05    2    -2000003         3   # BR(~chi_30 -> ~s_R*     s )
     4.47649014E-01    2     1000006        -6   # BR(~chi_30 -> ~t_1      tb)
     4.47649014E-01    2    -1000006         6   # BR(~chi_30 -> ~t_1*     t )
     9.10600570E-03    2     1000005        -5   # BR(~chi_30 -> ~b_1      bb)
     9.10600570E-03    2    -1000005         5   # BR(~chi_30 -> ~b_1*     b )
     1.34170446E-02    2     2000005        -5   # BR(~chi_30 -> ~b_2      bb)
     1.34170446E-02    2    -2000005         5   # BR(~chi_30 -> ~b_2*     b )
     2.13109244E-09    2     1000039        22   # BR(~chi_30 -> ~G        gam)
     5.20615142E-06    2     1000039        23   # BR(~chi_30 -> ~G        Z)
     2.02986678E-07    2     1000039        25   # BR(~chi_30 -> ~G        h)
     1.06712981E-06    2     1000039        35   # BR(~chi_30 -> ~G        H)
     4.29736469E-08    2     1000039        36   # BR(~chi_30 -> ~G        A)
#
#         PDG            Width
DECAY   1000035     4.05911208E+04   # neutralino4 decays
#          BR         NDA      ID1       ID2
     2.58429898E-09    2     1000022        23   # BR(~chi_40 -> ~chi_10   Z )
     3.73540935E-03    2     1000023        23   # BR(~chi_40 -> ~chi_20   Z )
     1.29881533E-04    2     1000025        23   # BR(~chi_40 -> ~chi_30   Z )
     3.74970887E-03    2     1000024       -24   # BR(~chi_40 -> ~chi_1+   W-)
     3.74970887E-03    2    -1000024        24   # BR(~chi_40 -> ~chi_1-   W+)
     7.79290906E-07    2     1000022        25   # BR(~chi_40 -> ~chi_10   h )
     9.56282060E-08    2     1000022        35   # BR(~chi_40 -> ~chi_10   H )
     8.47567014E-07    2     1000022        36   # BR(~chi_40 -> ~chi_10   A )
     1.28168385E-04    2     1000023        25   # BR(~chi_40 -> ~chi_20   h )
     3.27943986E-03    2     1000023        35   # BR(~chi_40 -> ~chi_20   H )
     1.50749359E-04    2     1000023        36   # BR(~chi_40 -> ~chi_20   A )
     3.77484230E-03    2     1000025        25   # BR(~chi_40 -> ~chi_30   h )
     1.47242530E-04    2     1000025        35   # BR(~chi_40 -> ~chi_30   H )
     3.27564217E-03    2     1000025        36   # BR(~chi_40 -> ~chi_30   A )
     3.42717815E-03    2     1000024       -37   # BR(~chi_40 -> ~chi_1+   H-)
     3.42717815E-03    2    -1000024        37   # BR(~chi_40 -> ~chi_1-   H+)
     1.00990700E-02    2     1000002        -2   # BR(~chi_40 -> ~u_L      ub)
     1.00990700E-02    2    -1000002         2   # BR(~chi_40 -> ~u_L*     u )
     1.59203471E-22    2     2000002        -2   # BR(~chi_40 -> ~u_R      ub)
     1.59203471E-22    2    -2000002         2   # BR(~chi_40 -> ~u_R*     u )
     1.00990740E-02    2     1000001        -1   # BR(~chi_40 -> ~d_L      db)
     1.00990740E-02    2    -1000001         1   # BR(~chi_40 -> ~d_L*     d )
     1.93714196E-16    2     2000001        -1   # BR(~chi_40 -> ~d_R      db)
     1.93714196E-16    2    -2000001         1   # BR(~chi_40 -> ~d_R*     d )
     1.00990700E-02    2     1000004        -4   # BR(~chi_40 -> ~c_L      cb)
     1.00990700E-02    2    -1000004         4   # BR(~chi_40 -> ~c_L*     c )
     1.59203471E-22    2     2000004        -4   # BR(~chi_40 -> ~c_R      cb)
     1.59203471E-22    2    -2000004         4   # BR(~chi_40 -> ~c_R*     c )
     1.00990740E-02    2     1000003        -3   # BR(~chi_40 -> ~s_L      sb)
     1.00990740E-02    2    -1000003         3   # BR(~chi_40 -> ~s_L*     s )
     1.93714196E-16    2     2000003        -3   # BR(~chi_40 -> ~s_R      sb)
     1.93714196E-16    2    -2000003         3   # BR(~chi_40 -> ~s_R*     s )
     1.23182480E-02    2     1000006        -6   # BR(~chi_40 -> ~t_1      tb)
     1.23182480E-02    2    -1000006         6   # BR(~chi_40 -> ~t_1*     t )
     1.50329610E-01    2     1000005        -5   # BR(~chi_40 -> ~b_1      bb)
     1.50329610E-01    2    -1000005         5   # BR(~chi_40 -> ~b_1*     b )
     1.70197581E-01    2     2000005        -5   # BR(~chi_40 -> ~b_2      bb)
     1.70197581E-01    2    -2000005         5   # BR(~chi_40 -> ~b_2*     b )
     5.28007136E-15    2     1000011       -11   # BR(~chi_40 -> ~e_L-     e+)
     5.28007136E-15    2    -1000011        11   # BR(~chi_40 -> ~e_L+     e-)
     9.11512143E-28    2     2000011       -11   # BR(~chi_40 -> ~e_R-     e+)
     9.11512143E-28    2    -2000011        11   # BR(~chi_40 -> ~e_R+     e-)
     5.28007136E-15    2     1000013       -13   # BR(~chi_40 -> ~mu_L-    mu+)
     5.28007136E-15    2    -1000013        13   # BR(~chi_40 -> ~mu_L+    mu-)
     9.11512143E-28    2     2000013       -13   # BR(~chi_40 -> ~mu_R-    mu+)
     9.11512143E-28    2    -2000013        13   # BR(~chi_40 -> ~mu_R+    mu-)
     7.58220253E-15    2     1000012       -12   # BR(~chi_40 -> ~nu_eL    nu_eb)
     7.58220253E-15    2    -1000012        12   # BR(~chi_40 -> ~nu_eL*   nu_e )
     7.58220253E-15    2     1000014       -14   # BR(~chi_40 -> ~nu_muL   nu_mub)
     7.58220253E-15    2    -1000014        14   # BR(~chi_40 -> ~nu_muL*  nu_mu )
     7.58220253E-15    2     1000016       -16   # BR(~chi_40 -> ~nu_tau1  nu_taub)
     7.58220253E-15    2    -1000016        16   # BR(~chi_40 -> ~nu_tau1* nu_tau )
     5.35604927E-02    2     1000039        22   # BR(~chi_40 -> ~G        gam)
     1.67400129E-01    2     1000039        23   # BR(~chi_40 -> ~G        Z)
     1.01025755E-08    2     1000039        25   # BR(~chi_40 -> ~G        h)
     6.34319194E-08    2     1000039        35   # BR(~chi_40 -> ~G        H)
     1.24995673E-11    2     1000039        36   # BR(~chi_40 -> ~G        A)
#
#
#
#
