#
#                              ======================
#                              | THE SUSYHIT OUTPUT |
#                              ======================
#
#
#              ------------------------------------------------------
#              |     This is the output of the SUSY-HIT package     |
#              |  created by A.Djouadi, M.Muehlleitner and M.Spira. |
#              |  In case of problems with SUSY-HIT email to        |
#              |           margarete.muehlleitner@cern.ch           |
#              |           michael.spira@psi.ch                     |
#              |           abdelhak.djouadi@cern.ch                 |
#              ------------------------------------------------------
#
#              ------------------------------------------------------
#              |  SUSY Les Houches Accord - MSSM Spectrum + Decays  |
#              |              based on the decay programs           |
#              |                                                    |
#              |                     SDECAY 1.3b                    |
#              |                                                    |
#              |  Authors: M.Muhlleitner, A.Djouadi and Y.Mambrini  |
#              |  Ref.:    Comput.Phys.Commun.168(2005)46           |
#              |           [hep-ph/0311167]                         |
#              |                                                    |
#              |                     HDECAY 3.4                     |
#              |                                                    |
#              |  By: A.Djouadi,J.Kalinowski,M.Muhlleitner,M.Spira  |
#              |  Ref.:    Comput.Phys.Commun.108(1998)56           |
#              |           [hep-ph/9704448]                         |
#              |                                                    |
#              |                                                    |
#              |  If not stated otherwise all DRbar couplings and   |
#              |  soft SUSY breaking masses are given at the scale  |
#              |  Q=  0.91187600E+02
#              |                                                    |
#              ------------------------------------------------------
#
#
BLOCK DCINFO  # Decay Program information
     1   SDECAY/HDECAY # decay calculator
     2   1.3b  /3.4    # version number
#
BLOCK SPINFO  # Spectrum calculator information
     1   SuSpect     # RGE +Spectrum calculator            
     2   2.41         # version number                     
#
BLOCK MODSEL  # Model selection
     1     0   # #general MSSM low scale                           
#
BLOCK SMINPUTS  # Standard Model inputs
         1     1.27934000E+02   # alpha_em^-1(M_Z)^MSbar
         2     1.16639000E-05   # G_F [GeV^-2]
         3     1.17200000E-01   # alpha_S(M_Z)^MSbar
         4     9.11870000E+01   # M_Z pole mass
         5     4.25000000E+00   # mb(mb)^MSbar
         6     1.72500000E+02   # mt pole mass
         7     1.77700000E+00   # mtau pole mass
#
BLOCK MINPAR  # Input parameters - minimal models
#
BLOCK EXTPAR  # Input parameters - non-minimal models
         0     9.11876000E+01   # EWSB                
         1     7.00000000E+02   # M_1                 
         2     1.00000000E+05   # M_2                 
         3     2.00000000E+03   # M_3                 
        11     0.00000000E+00   # A_t                 
        12     0.00000000E+00   # A_b                 
        13     0.00000000E+00   # A_tau               
        14     0.00000000E+00   # A_u                 
        15     0.00000000E+00   # A_d                 
        16     0.00000000E+00   # A_e                 
        23     1.00000000E+05   # mu(EWSB)            
        25     1.50000000E+00   # tanbeta(in)         
        26     2.00000000E+03   # MA_pole             
        31     1.00000000E+05   # M_eL                
        32     1.00000000E+05   # M_muL               
        33     1.00000000E+05   # M_tauL              
        34     1.00000000E+05   # M_eR                
        35     1.00000000E+05   # M_muR               
        36     1.00000000E+05   # M_tauR              
        41     3.00000000E+03   # M_q1L               
        42     3.00000000E+03   # M_q2L               
        43     3.00000000E+03   # M_q3L               
        44     1.00000000E+05   # M_uR                
        45     1.00000000E+05   # M_cR                
        46     1.00000000E+05   # M_tR                
        47     3.00000000E+03   # M_dR                
        48     3.00000000E+03   # M_sR                
        49     3.00000000E+03   # M_bR                
#
BLOCK MASS  # Mass Spectrum
# PDG code           mass       particle
        24     8.06330556E+01   # W+
        25     1.25000000E+02   # h
        35     2.01315128E+03   # H
        36     2.00000000E+03   # A
        37     2.02306095E+03   # H+
         5     4.87877839E+00   # b-quark pole mass calculated from mb(mb)_Msbar
   1000001     3.00021881E+03   # ~d_L
   2000001     3.00004251E+03   # ~d_R
   1000002     2.99982369E+03   # ~u_L
   2000002     9.99999974E+04   # ~u_R
   1000003     3.00021881E+03   # ~s_L
   2000003     3.00004251E+03   # ~s_R
   1000004     2.99982369E+03   # ~c_L
   2000004     9.99999974E+04   # ~c_R
   1000005     2.95058244E+03   # ~b_1
   2000005     3.04887504E+03   # ~b_2
   1000006     3.00183286E+03   # ~t_1
   2000006     1.00000154E+05   # ~t_2
   1000011     1.00000004E+05   # ~e_L
   2000011     1.00000004E+05   # ~e_R
   1000012     9.99999922E+04   # ~nu_eL
   1000013     1.00000004E+05   # ~mu_L
   2000013     1.00000004E+05   # ~mu_R
   1000014     9.99999922E+04   # ~nu_muL
   1000015     9.99986725E+04   # ~tau_1
   2000015     1.00001335E+05   # ~tau_2
   1000016     9.99999922E+04   # ~nu_tauL
   1000021     2.00000000E+03   # ~g
   1000022     6.99981493E+02   # ~chi_10
   1000023     9.99230240E+04   # ~chi_20
   1000025    -1.00000002E+05   # ~chi_30
   1000035     1.00076996E+05   # ~chi_40
   1000024     9.99230150E+04   # ~chi_1+
   1000037     1.00076987E+05   # ~chi_2+
   1000039     5.00000000E-09   # ~gravitino
#
BLOCK NMIX  # Neutralino Mixing Matrix
  1  1     9.99999899E-01   # N_11
  1  2    -3.28030545E-07   # N_12
  1  3     3.72895139E-04   # N_13
  1  4    -2.50040114E-04   # N_14
  2  1     3.11685997E-04   # N_21
  2  2     7.07148299E-01   # N_22
  2  3    -5.00009091E-01   # N_23
  2  4     4.99932090E-01   # N_24
  3  1     8.68715311E-05   # N_31
  3  2    -7.69862106E-05   # N_32
  3  3    -7.07106742E-01   # N_33
  3  4    -7.07106811E-01   # N_34
  4  1     3.11249210E-04   # N_41
  4  2    -7.07065262E-01   # N_42
  4  3    -4.99990821E-01   # N_43
  4  4     5.00067792E-01   # N_44
#
BLOCK UMIX  # Chargino Mixing Matrix U
  1  1    -7.07052342E-01   # U_11
  1  2     7.07161217E-01   # U_12
  2  1     7.07161217E-01   # U_21
  2  2     7.07052342E-01   # U_22
#
BLOCK VMIX  # Chargino Mixing Matrix V
  1  1    -7.07161217E-01   # V_11
  1  2     7.07052342E-01   # V_12
  2  1     7.07052342E-01   # V_21
  2  2     7.07161217E-01   # V_22
#
BLOCK STOPMIX  # Stop Mixing Matrix
  1  1     9.99999516E-01   # cos(theta_t)
  1  2     9.83869791E-04   # sin(theta_t)
  2  1    -9.83869791E-04   # -sin(theta_t)
  2  2     9.99999516E-01   # cos(theta_t)
#
BLOCK SBOTMIX  # Sbottom Mixing Matrix
  1  1     7.06472279E-01   # cos(theta_b)
  1  2     7.07740715E-01   # sin(theta_b)
  2  1    -7.07740715E-01   # -sin(theta_b)
  2  2     7.06472279E-01   # cos(theta_b)
#
BLOCK STAUMIX  # Stau Mixing Matrix
  1  1     7.07081904E-01   # cos(theta_tau)
  1  2     7.07131657E-01   # sin(theta_tau)
  2  1    -7.07131657E-01   # -sin(theta_tau)
  2  2     7.07081904E-01   # cos(theta_tau)
#
BLOCK ALPHA  # Higgs mixing
          -6.52017130E-01   # Mixing angle in the neutral Higgs boson sector
#
BLOCK HMIX Q=  9.11876000E+01  # DRbar Higgs Parameters
         1     1.00000000E+05   # mu(Q)               
         2     1.49999982E+00   # tanbeta(Q)          
         3     2.55008647E+02   # vev(Q)              
         4    -2.18129987E+09   # MA^2(Q)             
#
BLOCK GAUGE Q=  9.11876000E+01  # The gauge couplings
     1     3.49801381E-01   # gprime(Q) DRbar
     2     6.15683490E-01   # g(Q) DRbar
     3     1.07480275E+00   # g3(Q) DRbar
#
BLOCK AU Q=  9.11876000E+01  # The trilinear couplings
  1  1     0.00000000E+00   # A_u(Q) DRbar
  2  2     0.00000000E+00   # A_c(Q) DRbar
  3  3     0.00000000E+00   # A_t(Q) DRbar
#
BLOCK AD Q=  9.11876000E+01  # The trilinear couplings
  1  1     0.00000000E+00   # A_d(Q) DRbar
  2  2     0.00000000E+00   # A_s(Q) DRbar
  3  3     0.00000000E+00   # A_b(Q) DRbar
#
BLOCK AE Q=  9.11876000E+01  # The trilinear couplings
  1  1     0.00000000E+00   # A_e(Q) DRbar
  2  2     0.00000000E+00   # A_mu(Q) DRbar
  3  3     0.00000000E+00   # A_tau(Q) DRbar
#
BLOCK Yu Q=  9.11876000E+01  # The Yukawa couplings
  1  1     0.00000000E+00   # y_u(Q) DRbar
  2  2     0.00000000E+00   # y_c(Q) DRbar
  3  3     9.82199960E-01   # y_t(Q) DRbar
#
BLOCK Yd Q=  9.11876000E+01  # The Yukawa couplings
  1  1     0.00000000E+00   # y_d(Q) DRbar
  2  2     0.00000000E+00   # y_s(Q) DRbar
  3  3     1.96501280E-02   # y_b(Q) DRbar
#
BLOCK Ye Q=  9.11876000E+01  # The Yukawa couplings
  1  1     0.00000000E+00   # y_e(Q) DRbar
  2  2     0.00000000E+00   # y_mu(Q) DRbar
  3  3     1.77465533E-02   # y_tau(Q) DRbar
#
BLOCK MSOFT Q=  9.11876000E+01  # The soft SUSY breaking masses at the scale Q
         1     7.00000000E+02   # M_1                 
         2     1.00000000E+05   # M_2                 
         3     2.00000000E+03   # M_3                 
        14     0.00000000E+00   # A_u                 
        15     0.00000000E+00   # A_d                 
        16     0.00000000E+00   # A_e                 
        21    -1.06401015E+10   # M^2_Hd              
        22    -1.00405316E+10   # M^2_Hu              
        31     1.00000000E+05   # M_eL                
        32     1.00000000E+05   # M_muL               
        33     1.00000000E+05   # M_tauL              
        34     1.00000000E+05   # M_eR                
        35     1.00000000E+05   # M_muR               
        36     1.00000000E+05   # M_tauR              
        41     3.00000000E+03   # M_q1L               
        42     3.00000000E+03   # M_q2L               
        43     3.00000000E+03   # M_q3L               
        44     1.00000000E+05   # M_uR                
        45     1.00000000E+05   # M_cR                
        46     1.00000000E+05   # M_tR                
        47     3.00000000E+03   # M_dR                
        48     3.00000000E+03   # M_sR                
        49     3.00000000E+03   # M_bR                
#
#
#
#                             =================
#                             |The decay table|
#                             =================
#
# - The QCD corrections to the decays gluino -> squark  + quark
#                                     squark -> gaugino + quark_prime
#                                     squark -> squark_prime + Higgs
#                                     squark -> gluino  + quark
#   are included.
#
# - The multi-body decays for the inos, stops and sbottoms are included.
#
# - The loop induced decays for the gluino, neutralinos and stops
#   are included.
#
# - The SUSY decays of the top quark are included.
#
# - Possible decays of the NLSP in GMSB models are included.
#
#
#         PDG            Width
DECAY         6     1.30629671E+00   # top decays
#          BR         NDA      ID1       ID2
     1.00000000E+00    2           5        24   # BR(t ->  b    W+)
#
#         PDG            Width
DECAY   1000021     1.E-04   # gluino decays (OJ Mods)
#          BR         NDA      ID1       ID2
     2.34589454E-02    2     1000022        21   # BR(~g -> ~chi_10 g)
#          BR         NDA      ID1       ID2
     2.57192600E-03    2     1000039        21   # BR(~g -> ~G      g)
#           BR         NDA      ID1       ID2       ID3
     2.73339710E-01    3     1000022         1        -1   # BR(~g -> ~chi_10 d  db)
     5.46924069E-02    3     1000022         2        -2   # BR(~g -> ~chi_10 u  ub)
     2.73339710E-01    3     1000022         3        -3   # BR(~g -> ~chi_10 s  sb)
     5.46924069E-02    3     1000022         4        -4   # BR(~g -> ~chi_10 c  cb)
     2.74465057E-01    3     1000022         5        -5   # BR(~g -> ~chi_10 b  bb)
     4.34398372E-02    3     1000022         6        -6   # BR(~g -> ~chi_10 t  tb)
#
#         PDG            Width
DECAY   1000006     6.11357002E+01   # stop1 decays
#          BR         NDA      ID1       ID2
     5.64562348E-03    2     1000022         6   # BR(~t_1 -> ~chi_10 t )
     9.94354377E-01    2     1000021         6   # BR(~t_1 -> ~g      t )
#
#         PDG            Width
DECAY   2000006     4.82535627E+03   # stop2 decays
#          BR         NDA      ID1       ID2
     4.34556636E-02    2     1000022         6   # BR(~t_2 -> ~chi_10 t )
     3.21508642E-07    2     1000024         5   # BR(~t_2 -> ~chi_1+ b )
     5.57932193E-01    2     1000021         6   # BR(~t_2 -> ~g      t )
     2.53189851E-02    2     1000006        25   # BR(~t_2 -> ~t_1    h )
     4.67353918E-02    2     1000006        35   # BR(~t_2 -> ~t_1    H )
     5.10412381E-02    2     1000006        36   # BR(~t_2 -> ~t_1    A )
     5.07565635E-02    2     1000005        37   # BR(~t_2 -> ~b_1    H+)
     5.13579081E-02    2     2000005        37   # BR(~t_2 -> ~b_2    H+)
     5.72636319E-02    2     1000006        23   # BR(~t_2 -> ~t_1    Z )
     5.78369528E-02    2     1000005        24   # BR(~t_2 -> ~b_1    W+)
     5.83011503E-02    2     2000005        24   # BR(~t_2 -> ~b_2    W+)
#
#         PDG            Width
DECAY   1000005     5.84870936E+01   # sbottom1 decays
#          BR         NDA      ID1       ID2
     1.45426226E-02    2     1000022         5   # BR(~b_1 -> ~chi_10 b )
     9.85457377E-01    2     1000021         5   # BR(~b_1 -> ~g      b )
#
#         PDG            Width
DECAY   2000005     6.59417021E+01   # sbottom2 decays
#          BR         NDA      ID1       ID2
     1.33860728E-02    2     1000022         5   # BR(~b_2 -> ~chi_10 b )
     9.86040427E-01    2     1000021         5   # BR(~b_2 -> ~g      b )
     5.73499821E-04    2     1000005        23   # BR(~b_2 -> ~b_1    Z )
#
#         PDG            Width
DECAY   1000002     3.53881012E+01   # sup_L decays
#          BR         NDA      ID1       ID2
     9.93860539E-03    2     1000022         2   # BR(~u_L -> ~chi_10 u)
     9.90061395E-01    2     1000021         2   # BR(~u_L -> ~g      u)
#
#         PDG            Width
DECAY   2000002     3.99153631E+03   # sup_R decays
#          BR         NDA      ID1       ID2
     5.25359232E-02    2     1000022         2   # BR(~u_R -> ~chi_10 u)
     6.47553656E-13    2     1000023         2   # BR(~u_R -> ~chi_20 u)
     9.47464077E-01    2     1000021         2   # BR(~u_R -> ~g      u)
#
#         PDG            Width
DECAY   1000001     3.54075467E+01   # sdown_L decays
#          BR         NDA      ID1       ID2
     9.93483072E-03    2     1000022         1   # BR(~d_L -> ~chi_10 d)
     9.90065169E-01    2     1000021         1   # BR(~d_L -> ~g      d)
#
#         PDG            Width
DECAY   2000001     3.64540937E+01   # sdown_R decays
#          BR         NDA      ID1       ID2
     3.85955286E-02    2     1000022         1   # BR(~d_R -> ~chi_10 d)
     9.61404471E-01    2     1000021         1   # BR(~d_R -> ~g      d)
#
#         PDG            Width
DECAY   1000004     3.53881012E+01   # scharm_L decays
#          BR         NDA      ID1       ID2
     9.93860539E-03    2     1000022         4   # BR(~c_L -> ~chi_10 c)
     9.90061395E-01    2     1000021         4   # BR(~c_L -> ~g      c)
#
#         PDG            Width
DECAY   2000004     3.99153631E+03   # scharm_R decays
#          BR         NDA      ID1       ID2
     5.25359232E-02    2     1000022         4   # BR(~c_R -> ~chi_10 c)
     6.47553656E-13    2     1000023         4   # BR(~c_R -> ~chi_20 c)
     9.47464077E-01    2     1000021         4   # BR(~c_R -> ~g      c)
#
#         PDG            Width
DECAY   1000003     3.54075467E+01   # sstrange_L decays
#          BR         NDA      ID1       ID2
     9.93483072E-03    2     1000022         3   # BR(~s_L -> ~chi_10 s)
     9.90065169E-01    2     1000021         3   # BR(~s_L -> ~g      s)
#
#         PDG            Width
DECAY   2000003     3.64540937E+01   # sstrange_R decays
#          BR         NDA      ID1       ID2
     3.85955286E-02    2     1000022         3   # BR(~s_R -> ~chi_10 s)
     9.61404471E-01    2     1000021         3   # BR(~s_R -> ~g      s)
#
#         PDG            Width
DECAY   1000011     1.21703996E+02   # selectron_L decays
#          BR         NDA      ID1       ID2
     9.99988990E-01    2     1000022        11   # BR(~e_L -> ~chi_10 e-)
     3.67138743E-06    2     1000023        11   # BR(~e_L -> ~chi_20 e-)
     3.78436661E-24    2     1000025        11   # BR(~e_L -> ~chi_30 e-)
     7.33882210E-06    2    -1000024        12   # BR(~e_L -> ~chi_1- nu_e)
#
#         PDG            Width
DECAY   2000011     4.86811187E+02   # selectron_R decays
#          BR         NDA      ID1       ID2
     1.00000000E+00    2     1000022        11   # BR(~e_R -> ~chi_10 e-)
     2.30122252E-13    2     1000023        11   # BR(~e_R -> ~chi_20 e-)
     1.20758453E-23    2     1000025        11   # BR(~e_R -> ~chi_30 e-)
#
#         PDG            Width
DECAY   1000013     1.21703996E+02   # smuon_L decays
#          BR         NDA      ID1       ID2
     9.99988990E-01    2     1000022        13   # BR(~mu_L -> ~chi_10 mu-)
     3.67138743E-06    2     1000023        13   # BR(~mu_L -> ~chi_20 mu-)
     3.78436661E-24    2     1000025        13   # BR(~mu_L -> ~chi_30 mu-)
     7.33882210E-06    2    -1000024        14   # BR(~mu_L -> ~chi_1- nu_mu)
#
#         PDG            Width
DECAY   2000013     4.86811187E+02   # smuon_R decays
#          BR         NDA      ID1       ID2
     1.00000000E+00    2     1000022        13   # BR(~mu_R -> ~chi_10 mu-)
     2.30122252E-13    2     1000023        13   # BR(~mu_R -> ~chi_20 mu-)
     1.20758453E-23    2     1000025        13   # BR(~mu_R -> ~chi_30 mu-)
#
#         PDG            Width
DECAY   1000015     7.64756925E+02   # stau_1 decays
#          BR         NDA      ID1       ID2
     3.97863715E-01    2     1000022        15   # BR(~tau_1 -> ~chi_10  tau-)
     2.98354117E-07    2     1000023        15   # BR(~tau_1 -> ~chi_20  tau-)
     5.96888436E-07    2    -1000024        16   # BR(~tau_1 -> ~chi_1-  nu_tau)
     6.02135390E-01    2     1000039        15   # BR(~tau_1 -> ~G       tau-)
#
#         PDG            Width
DECAY   2000015     3.04245464E+02   # stau_2 decays
#          BR         NDA      ID1       ID2
     9.99997851E-01    2     1000022        15   # BR(~tau_2 -> ~chi_10  tau-)
     7.16281551E-07    2     1000023        15   # BR(~tau_2 -> ~chi_20  tau-)
     1.43277397E-06    2    -1000024        16   # BR(~tau_2 -> ~chi_1-  nu_tau)
#
#         PDG            Width
DECAY   1000012     1.21704262E+02   # snu_eL decays
#          BR         NDA      ID1       ID2
     9.99988995E-01    2     1000022        12   # BR(~nu_eL -> ~chi_10 nu_e)
     3.66658022E-06    2     1000023        12   # BR(~nu_eL -> ~chi_20 nu_e)
     7.33881794E-06    2     1000024        11   # BR(~nu_eL -> ~chi_1+ e-)
#
#         PDG            Width
DECAY   1000014     1.21704262E+02   # snu_muL decays
#          BR         NDA      ID1       ID2
     9.99988995E-01    2     1000022        14   # BR(~nu_muL -> ~chi_10 nu_mu)
     3.66658022E-06    2     1000023        14   # BR(~nu_muL -> ~chi_20 nu_mu)
     7.33881794E-06    2     1000024        13   # BR(~nu_muL -> ~chi_1+ mu-)
#
#         PDG            Width
DECAY   1000016     1.21704262E+02   # snu_tauL decays
#          BR         NDA      ID1       ID2
     9.99989000E-01    2     1000022        16   # BR(~nu_tauL -> ~chi_10 nu_tau)
     3.66658024E-06    2     1000023        16   # BR(~nu_tauL -> ~chi_20 nu_tau)
     7.33319635E-06    2     1000024        15   # BR(~nu_tauL -> ~chi_1+ tau-)
#
#         PDG            Width
DECAY   1000024     3.92104616E+03   # chargino1+ decays
#          BR         NDA      ID1       ID2
     1.24921598E-01    2     1000002        -1   # BR(~chi_1+ -> ~u_L     db)
     1.24883089E-01    2    -1000001         2   # BR(~chi_1+ -> ~d_L*    u )
     1.24921598E-01    2     1000004        -3   # BR(~chi_1+ -> ~c_L     sb)
     1.24883089E-01    2    -1000003         4   # BR(~chi_1+ -> ~s_L*    c )
     1.11990211E-01    2     1000006        -5   # BR(~chi_1+ -> ~t_1     bb)
     1.37147318E-01    2    -1000005         6   # BR(~chi_1+ -> ~b_1*    t )
     1.33014818E-01    2    -2000005         6   # BR(~chi_1+ -> ~b_2*    t )
     6.67611856E-03    2     1000022        24   # BR(~chi_1+ -> ~chi_10  W+)
     6.85887093E-03    2     1000022        37   # BR(~chi_1+ -> ~chi_10  H+)
     7.85580509E-02    2     1000039        24   # BR(~chi_1+ -> ~G       W+)
     2.61452367E-02    2     1000039        37   # BR(~chi_1+ -> ~G       H+)
#
#         PDG            Width
DECAY   1000037     3.92535561E+03   # chargino2+ decays
#          BR         NDA      ID1       ID2
     1.24852205E-01    2     1000002        -1   # BR(~chi_2+ -> ~u_L     db)
     1.24890613E-01    2    -1000001         2   # BR(~chi_2+ -> ~d_L*    u )
     1.24852205E-01    2     1000004        -3   # BR(~chi_2+ -> ~c_L     sb)
     1.24890613E-01    2    -1000003         4   # BR(~chi_2+ -> ~s_L*    c )
     1.11623760E-01    2     1000006        -5   # BR(~chi_2+ -> ~t_1     bb)
     8.25359398E-07    2     2000006        -5   # BR(~chi_2+ -> ~t_2     bb)
     1.31548547E-01    2    -1000005         6   # BR(~chi_2+ -> ~b_1*    t )
     1.37969162E-01    2    -2000005         6   # BR(~chi_2+ -> ~b_2*    t )
     1.01723097E-07    2     1000012       -11   # BR(~chi_2+ -> ~nu_eL   e+  )
     1.01723097E-07    2     1000014       -13   # BR(~chi_2+ -> ~nu_muL  mu+ )
     1.01645157E-07    2     1000016       -15   # BR(~chi_2+ -> ~nu_tau1 tau+)
     1.01723253E-07    2    -1000011        12   # BR(~chi_2+ -> ~e_L+    nu_e)
     1.01723253E-07    2    -1000013        14   # BR(~chi_2+ -> ~mu_L+   nu_mu)
     4.96416837E-08    2    -1000015        16   # BR(~chi_2+ -> ~tau_1+  nu_tau)
     5.19941621E-08    2    -2000015        16   # BR(~chi_2+ -> ~tau_2+  nu_tau)
     2.60484657E-04    2     1000024        23   # BR(~chi_2+ -> ~chi_1+  Z )
     6.65596299E-03    2     1000022        24   # BR(~chi_2+ -> ~chi_10  W+)
     2.97666215E-04    2     1000023        24   # BR(~chi_2+ -> ~chi_20  W+)
     1.10184156E-12    2     1000024        25   # BR(~chi_2+ -> ~chi_1+  h )
     6.83361694E-03    2     1000022        37   # BR(~chi_2+ -> ~chi_10  H+)
     7.90265797E-02    2     1000039        24   # BR(~chi_2+ -> ~G       W+)
     2.62971490E-02    2     1000039        37   # BR(~chi_2+ -> ~G       H+)
#
#         PDG            Width
DECAY   1000022     1.E-08   # neutralino1 decays (OJ Mods)
#          BR         NDA      ID1       ID2
     7.68381979E-01    2     1000039        22   # BR(~chi_10 -> ~G        gam)
     2.31618021E-01    2     1000039        23   # BR(~chi_10 -> ~G        Z)
     3.38146702E-10    2     1000039        25   # BR(~chi_10 -> ~G        h)
#
#         PDG            Width
DECAY   1000023     1.E-08   # neutralino2 decays (OJ Mods)
#          BR         NDA      ID1       ID2
     2.57855676E-04    2     1000022        23   # BR(~chi_20 -> ~chi_10   Z )
     6.92235263E-03    2     1000022        25   # BR(~chi_20 -> ~chi_10   h )
     1.24961976E-04    2     1000022        35   # BR(~chi_20 -> ~chi_10   H )
     6.58442307E-03    2     1000022        36   # BR(~chi_20 -> ~chi_10   A )
     6.04934562E-02    2     1000002        -2   # BR(~chi_20 -> ~u_L      ub)
     6.04934562E-02    2    -1000002         2   # BR(~chi_20 -> ~u_L*     u )
     6.04732461E-02    2     1000001        -1   # BR(~chi_20 -> ~d_L      db)
     6.04732461E-02    2    -1000001         1   # BR(~chi_20 -> ~d_L*     d )
     1.68575681E-09    2     2000001        -1   # BR(~chi_20 -> ~d_R      db)
     1.68575681E-09    2    -2000001         1   # BR(~chi_20 -> ~d_R*     d )
     6.04934562E-02    2     1000004        -4   # BR(~chi_20 -> ~c_L      cb)
     6.04934562E-02    2    -1000004         4   # BR(~chi_20 -> ~c_L*     c )
     6.04732461E-02    2     1000003        -3   # BR(~chi_20 -> ~s_L      sb)
     6.04732461E-02    2    -1000003         3   # BR(~chi_20 -> ~s_L*     s )
     1.68575681E-09    2     2000003        -3   # BR(~chi_20 -> ~s_R      sb)
     1.68575681E-09    2    -2000003         3   # BR(~chi_20 -> ~s_R*     s )
     1.35047597E-01    2     1000006        -6   # BR(~chi_20 -> ~t_1      tb)
     1.35047597E-01    2    -1000006         6   # BR(~chi_20 -> ~t_1*     t )
     2.91856834E-02    2     1000005        -5   # BR(~chi_20 -> ~b_1      bb)
     2.91856834E-02    2    -1000005         5   # BR(~chi_20 -> ~b_1*     b )
     2.67387898E-02    2     2000005        -5   # BR(~chi_20 -> ~b_2      bb)
     2.67387898E-02    2    -2000005         5   # BR(~chi_20 -> ~b_2*     b )
     1.27974049E-02    2     1000039        22   # BR(~chi_20 -> ~G        gam)
     6.47311878E-02    2     1000039        23   # BR(~chi_20 -> ~G        Z)
     4.62371339E-04    2     1000039        25   # BR(~chi_20 -> ~G        h)
     2.56705658E-02    2     1000039        35   # BR(~chi_20 -> ~G        H)
     1.00587905E-03    2     1000039        36   # BR(~chi_20 -> ~G        A)
#
#         PDG            Width
DECAY   1000025     1.50596017E+03   # neutralino3 decays
#          BR         NDA      ID1       ID2
     2.95934104E-02    2     1000022        23   # BR(~chi_30 -> ~chi_10   Z )
     5.39749966E-04    2     1000022        25   # BR(~chi_30 -> ~chi_10   h )
     2.99555910E-02    2     1000022        35   # BR(~chi_30 -> ~chi_10   H )
     1.20620917E-03    2     1000022        36   # BR(~chi_30 -> ~chi_10   A )
     9.88379828E-10    2     1000002        -2   # BR(~chi_30 -> ~u_L      ub)
     9.88379828E-10    2    -1000002         2   # BR(~chi_30 -> ~u_L*     u )
     1.78854252E-17    2     2000002        -2   # BR(~chi_30 -> ~u_R      ub)
     1.78854252E-17    2    -2000002         2   # BR(~chi_30 -> ~u_R*     u )
     2.35489961E-09    2     1000001        -1   # BR(~chi_30 -> ~d_L      db)
     2.35489961E-09    2    -1000001         1   # BR(~chi_30 -> ~d_L*     d )
     2.92027222E-10    2     2000001        -1   # BR(~chi_30 -> ~d_R      db)
     2.92027222E-10    2    -2000001         1   # BR(~chi_30 -> ~d_R*     d )
     9.88379828E-10    2     1000004        -4   # BR(~chi_30 -> ~c_L      cb)
     9.88379828E-10    2    -1000004         4   # BR(~chi_30 -> ~c_L*     c )
     1.78854252E-17    2     2000004        -4   # BR(~chi_30 -> ~c_R      cb)
     1.78854252E-17    2    -2000004         4   # BR(~chi_30 -> ~c_R*     c )
     2.35489961E-09    2     1000003        -3   # BR(~chi_30 -> ~s_L      sb)
     2.35489961E-09    2    -1000003         3   # BR(~chi_30 -> ~s_L*     s )
     2.92027222E-10    2     2000003        -3   # BR(~chi_30 -> ~s_R      sb)
     2.92027222E-10    2    -2000003         3   # BR(~chi_30 -> ~s_R*     s )
     3.52087287E-01    2     1000006        -6   # BR(~chi_30 -> ~t_1      tb)
     3.52087287E-01    2    -1000006         6   # BR(~chi_30 -> ~t_1*     t )
     1.20750561E-04    2     1000005        -5   # BR(~chi_30 -> ~b_1      bb)
     1.20750561E-04    2    -1000005         5   # BR(~chi_30 -> ~b_1*     b )
     1.22953728E-04    2     2000005        -5   # BR(~chi_30 -> ~b_2      bb)
     1.22953728E-04    2    -2000005         5   # BR(~chi_30 -> ~b_2*     b )
     5.88012124E-23    2     1000012       -12   # BR(~chi_30 -> ~nu_eL    nu_eb)
     5.88012124E-23    2    -1000012        12   # BR(~chi_30 -> ~nu_eL*   nu_e )
     5.88012124E-23    2     1000014       -14   # BR(~chi_30 -> ~nu_muL   nu_mub)
     5.88012124E-23    2    -1000014        14   # BR(~chi_30 -> ~nu_muL*  nu_mu )
     5.88012124E-23    2     1000016       -16   # BR(~chi_30 -> ~nu_tau1  nu_taub)
     5.88012124E-23    2    -1000016        16   # BR(~chi_30 -> ~nu_tau1* nu_tau )
     3.29410871E-10    2     1000039        22   # BR(~chi_30 -> ~G        gam)
     4.50435667E-03    2     1000039        23   # BR(~chi_30 -> ~G        Z)
     1.15041696E-01    2     1000039        25   # BR(~chi_30 -> ~G        h)
     2.06782609E-03    2     1000039        35   # BR(~chi_30 -> ~G        H)
     1.12429162E-01    2     1000039        36   # BR(~chi_30 -> ~G        A)
#
#         PDG            Width
DECAY   1000035     3.92644348E+03   # neutralino4 decays
#          BR         NDA      ID1       ID2
     2.58266673E-04    2     1000022        23   # BR(~chi_40 -> ~chi_10   Z )
     1.04019112E-18    2     1000023        23   # BR(~chi_40 -> ~chi_20   Z )
     2.97526609E-04    2     1000024       -24   # BR(~chi_40 -> ~chi_1+   W-)
     2.97526609E-04    2    -1000024        24   # BR(~chi_40 -> ~chi_1-   W+)
     6.90213536E-03    2     1000022        25   # BR(~chi_40 -> ~chi_10   h )
     1.23731074E-04    2     1000022        35   # BR(~chi_40 -> ~chi_10   H )
     6.56347487E-03    2     1000022        36   # BR(~chi_40 -> ~chi_10   A )
     4.54394315E-12    2     1000023        25   # BR(~chi_40 -> ~chi_20   h )
     6.04495342E-02    2     1000002        -2   # BR(~chi_40 -> ~u_L      ub)
     6.04495342E-02    2    -1000002         2   # BR(~chi_40 -> ~u_L*     u )
     1.74556412E-12    2     2000002        -2   # BR(~chi_40 -> ~u_R      ub)
     1.74556412E-12    2    -2000002         2   # BR(~chi_40 -> ~u_R*     u )
     6.04696805E-02    2     1000001        -1   # BR(~chi_40 -> ~d_L      db)
     6.04696805E-02    2    -1000001         1   # BR(~chi_40 -> ~d_L*     d )
     1.68077018E-09    2     2000001        -1   # BR(~chi_40 -> ~d_R      db)
     1.68077018E-09    2    -2000001         1   # BR(~chi_40 -> ~d_R*     d )
     6.04495342E-02    2     1000004        -4   # BR(~chi_40 -> ~c_L      cb)
     6.04495342E-02    2    -1000004         4   # BR(~chi_40 -> ~c_L*     c )
     1.74556412E-12    2     2000004        -4   # BR(~chi_40 -> ~c_R      cb)
     1.74556412E-12    2    -2000004         4   # BR(~chi_40 -> ~c_R*     c )
     6.04696805E-02    2     1000003        -3   # BR(~chi_40 -> ~s_L      sb)
     6.04696805E-02    2    -1000003         3   # BR(~chi_40 -> ~s_L*     s )
     1.68077018E-09    2     2000003        -3   # BR(~chi_40 -> ~s_R      sb)
     1.68077018E-09    2    -2000003         3   # BR(~chi_40 -> ~s_R*     s )
     1.34552215E-01    2     1000006        -6   # BR(~chi_40 -> ~t_1      tb)
     1.34552215E-01    2    -1000006         6   # BR(~chi_40 -> ~t_1*     t )
     2.65472655E-02    2     1000005        -5   # BR(~chi_40 -> ~b_1      bb)
     2.65472655E-02    2    -1000005         5   # BR(~chi_40 -> ~b_1*     b )
     2.93785407E-02    2     2000005        -5   # BR(~chi_40 -> ~b_2      bb)
     2.93785407E-02    2    -2000005         5   # BR(~chi_40 -> ~b_2*     b )
     5.08216888E-08    2     1000011       -11   # BR(~chi_40 -> ~e_L-     e+)
     5.08216888E-08    2    -1000011        11   # BR(~chi_40 -> ~e_L+     e-)
     1.27218972E-14    2     2000011       -11   # BR(~chi_40 -> ~e_R-     e+)
     1.27218972E-14    2    -2000011        11   # BR(~chi_40 -> ~e_R+     e-)
     5.08216888E-08    2     1000013       -13   # BR(~chi_40 -> ~mu_L-    mu+)
     5.08216888E-08    2    -1000013        13   # BR(~chi_40 -> ~mu_L+    mu-)
     1.27218972E-14    2     2000013       -13   # BR(~chi_40 -> ~mu_R-    mu+)
     1.27218972E-14    2    -2000013        13   # BR(~chi_40 -> ~mu_R+    mu-)
     2.47824876E-08    2     1000015       -15   # BR(~chi_40 -> ~tau_1-   tau+)
     2.47824876E-08    2    -1000015        15   # BR(~chi_40 -> ~tau_1+   tau-)
     2.59565783E-08    2     2000015       -15   # BR(~chi_40 -> ~tau_2-   tau+)
     2.59565783E-08    2    -2000015        15   # BR(~chi_40 -> ~tau_2+   tau-)
     5.08881450E-08    2     1000012       -12   # BR(~chi_40 -> ~nu_eL    nu_eb)
     5.08881450E-08    2    -1000012        12   # BR(~chi_40 -> ~nu_eL*   nu_e )
     5.08881450E-08    2     1000014       -14   # BR(~chi_40 -> ~nu_muL   nu_mub)
     5.08881450E-08    2    -1000014        14   # BR(~chi_40 -> ~nu_muL*  nu_mu )
     5.08881450E-08    2     1000016       -16   # BR(~chi_40 -> ~nu_tau1  nu_taub)
     5.08881450E-08    2    -1000016        16   # BR(~chi_40 -> ~nu_tau1* nu_tau )
     1.28315191E-02    2     1000039        22   # BR(~chi_40 -> ~G        gam)
     6.51586389E-02    2     1000039        23   # BR(~chi_40 -> ~G        Z)
     4.66331357E-04    2     1000039        25   # BR(~chi_40 -> ~G        h)
     2.58301331E-02    2     1000039        35   # BR(~chi_40 -> ~G        H)
     1.01061605E-03    2     1000039        36   # BR(~chi_40 -> ~G        A)
#
#
#
#
