# SUSY Les Houches Accord 2 - MSSM spectrum + Decays
# SPheno v3.1.12 
# W. Porod, Comput. Phys. Commun. 153 (2003) 275-315, hep-ph/0301101
# in case of problems send email to porod@physik.uni-wuerzburg.de
# Created: 09.12.2016,  15:23
Block SPINFO         # Program information
     1   SPheno      # spectrum calculator
     2   v3.1.12     # version number
#
Block SPhenoINFO     # SPheno specific information
    1      2         # using 2-loop RGEs
    2      1         # using running masses for boundary conditions at mZ
Block MODSEL  # Model selection
    1    2    # mGMSB model
Block MINPAR  # Input parameters
    1    1.50000000E+05  # Lambda, scale of SUSY breaking
    2    2.50000000E+05  # M_M, messenger mass scale
    3    4.00000000E+01  # tanb at m_Z   
    4    1.00000000E+00  # Sign(mu)
    5    3.00000000E+00  # N_5 number of effective five-plets
    6    1.00000000E+00  # c_grav, Gravitino mass factor
Block gauge Q=  2.50000000E+05  # (GMSB scale)
   1    4.92913777E-01  # g'(Q)^DRbar
   2    6.46224751E-01  # g(Q)^DRbar
   3    9.31837481E-01  # g3(Q)^DRbar
Block SMINPUTS  # SM parameters
         1     1.27932511E+02  # alpha_em^-1(MZ)^MSbar
         2     1.16639000E-05  # G_mu [GeV^-2]
         3     1.17200000E-01  # alpha_s(MZ)^MSbar
         4     9.11876000E+01  # m_Z(pole)
         5     4.20000000E+00  # m_b(m_b), MSbar
         6     1.72500000E+02  # m_t(pole)
         7     1.77700000E+00  # m_tau(pole)
         8     0.00000000E+00  # m_nu_3
        11     5.10998910E-04  # m_e(pole)
        12     0.00000000E+00  # m_nu_1
        13     1.05658000E-01  # m_muon(pole)
        14     0.00000000E+00  # m_nu_2
        21     5.00000000E-03  # m_d(2 GeV), MSbar
        22     3.00000000E-03  # m_u(2 GeV), MSbar
        23     1.05000000E-01  # m_s(2 GeV), MSbar
        24     1.27000000E+00  # m_c(m_c), MSbar
Block gauge Q=  2.80868960E+03  # (SUSY scale)
   1    3.65278406E-01  # g'(Q)^DRbar
   2    6.37391110E-01  # g(Q)^DRbar
   3    1.00701762E+00  # g3(Q)^DRbar
Block Yu Q=  2.80868960E+03  # (SUSY scale)
  1  1     8.28255019E-06   # Y_u(Q)^DRbar
  2  2     3.50628100E-03   # Y_c(Q)^DRbar
  3  3     8.33744592E-01   # Y_t(Q)^DRbar
Block Yd Q=  2.80868960E+03  # (SUSY scale)
  1  1     4.73354133E-04   # Y_d(Q)^DRbar
  2  2     9.94043116E-03   # Y_s(Q)^DRbar
  3  3     4.77167153E-01   # Y_b(Q)^DRbar
Block Ye Q=  2.80868960E+03  # (SUSY scale)
  1  1     1.23068500E-04   # Y_e(Q)^DRbar
  2  2     2.54467844E-02   # Y_mu(Q)^DRbar
  3  3     4.28925454E-01   # Y_tau(Q)^DRbar
Block Au Q=  2.80868960E+03  # (SUSY scale)
  1  1    -8.49801825E+02   # A_u(Q)^DRbar
  2  2    -8.49798900E+02   # A_c(Q)^DRbar
  3  3    -8.00598476E+02   # A_t(Q)^DRbar
Block Ad Q=  2.80868960E+03  # (SUSY scale)
  1  1    -8.83392003E+02   # A_d(Q)^DRbar
  2  2    -8.83385227E+02   # A_s(Q)^DRbar
  3  3    -8.54036654E+02   # A_b(Q)^DRbar
Block Ae Q=  2.80868960E+03  # (SUSY scale)
  1  1    -8.43685601E+01   # A_e(Q)^DRbar
  2  2    -8.43630498E+01   # A_mu(Q)^DRbar
  3  3    -8.28072844E+01   # A_tau(Q)^DRbar
Block MSOFT Q=  2.80868960E+03  # soft SUSY breaking masses at Q
   1    6.74605077E+02  # M_1
   2    1.22866834E+03  # M_2
   3    3.07939075E+03  # M_3
  21    3.29596230E+05  # M^2_(H,d)
  22   -7.03554439E+05  # M^2_(H,u)
  31    9.30727097E+02  # M_(L,11)
  32    9.30697633E+02  # M_(L,22)
  33    9.22360028E+02  # M_(L,33)
  34    4.53236795E+02  # M_(E,11)
  35    4.53113327E+02  # M_(E,22)
  36    4.16775760E+02  # M_(E,33)
  41    2.92795255E+03  # M_(Q,11)
  42    2.92793906E+03  # M_(Q,22)
  43    2.81658178E+03  # M_(Q,33)
  44    2.80566302E+03  # M_(U,11)
  45    2.80565993E+03  # M_(U,22)
  46    2.62701907E+03  # M_(U,33)
  47    2.79369945E+03  # M_(D,11)
  48    2.79367400E+03  # M_(D,22)
  49    2.73497462E+03  # M_(D,33)
Block MASS  # Mass spectrum
#   PDG code      mass          particle
         6     1.72500000E+02  # m_t(pole)
        23     9.11876000E+01  # m_Z(pole)
        24     8.03112810E+01  # W+
        15     1.77700000E+00  # m_tau(pole)
        25     1.21146233E+02  # h0
        35     1.07197357E+03  # H0
        36     1.07193667E+03  # A0
        37     1.07547672E+03  # H+
   1000001     3.04805087E+03  # ~d_L
   2000001     2.90644911E+03  # ~d_R
   1000002     3.04699747E+03  # ~u_L
   2000002     2.91775350E+03  # ~u_R
   1000003     3.04803477E+03  # ~s_L
   2000003     2.90641737E+03  # ~s_R
   1000004     3.04698098E+03  # ~c_L
   2000004     2.91774974E+03  # ~c_R
   1000005     2.83176596E+03  # ~b_1
   2000005     2.91422103E+03  # ~b_2
   1000006     2.70384167E+03  # ~t_1
   2000006     2.91760208E+03  # ~t_2
   1000011     9.52028361E+02  # ~e_L-
   2000011     4.70810453E+02  # ~e_R-
   1000012     9.48284926E+02  # ~nu_eL
   1000013     9.51999581E+02  # ~mu_L-
   2000013     4.70628178E+02  # ~mu_R-
   1000014     9.48242411E+02  # ~nu_muL
   1000015     4.16769388E+02  # ~tau_1-
   2000015     9.43819568E+02  # ~tau_2-
   1000016     9.36339195E+02  # ~nu_tauL
   1000021     3.22168781E+03  # ~g
   1000022     6.56479062E+02  # ~chi_10
   1000023     9.36171861E+02  # ~chi_20
   1000025    -9.44116206E+02  # ~chi_30
   1000035     1.26519652E+03  # ~chi_40
   1000024     9.33795691E+02  # ~chi_1+
   1000037     1.26538731E+03  # ~chi_2+
   1000039     9.00000000E-09  # ~G
# Higgs mixing
Block alpha # Effective Higgs mixing angle
          -2.62455659E-02   # alpha
Block Hmix Q=  2.80868960E+03  # Higgs mixing parameters
   1    9.32683026E+02  # mu
   2    3.88658056E+01  # tan[beta](Q)
   3    2.43425069E+02  # v(Q)
   4    1.02652447E+06  # m^2_A(Q)
Block stopmix # stop mixing matrix
   1  1     1.21166649E-01   # Re[R_st(1,1)]
   1  2     9.92632179E-01   # Re[R_st(1,2)]
   2  1    -9.92632179E-01   # Re[R_st(2,1)]
   2  2     1.21166649E-01   # Re[R_st(2,2)]
Block sbotmix # sbottom mixing matrix
   1  1     1.78470783E-01   # Re[R_sb(1,1)]
   1  2     9.83945212E-01   # Re[R_sb(1,2)]
   2  1    -9.83945212E-01   # Re[R_sb(2,1)]
   2  2     1.78470783E-01   # Re[R_sb(2,2)]
Block staumix # stau mixing matrix
   1  1     9.82511085E-02   # Re[R_sta(1,1)]
   1  2     9.95161655E-01   # Re[R_sta(1,2)]
   2  1    -9.95161655E-01   # Re[R_sta(2,1)]
   2  2     9.82511085E-02   # Re[R_sta(2,2)]
Block Nmix # neutralino mixing matrix
   1  1    -9.93117584E-01   # Re[N(1,1)]
   1  2     9.15346603E-03   # Re[N(1,2)]
   1  3    -9.50351466E-02   # Re[N(1,3)]
   1  4     6.78380305E-02   # Re[N(1,4)]
   2  1    -1.15084361E-01   # Re[N(2,1)]
   2  2    -1.73565718E-01   # Re[N(2,2)]
   2  3     6.93824861E-01   # Re[N(2,3)]
   2  4    -6.89374785E-01   # Re[N(2,4)]
   3  1    -1.90040771E-02   # Re[N(3,1)]
   3  2     2.47488058E-02   # Re[N(3,2)]
   3  3     7.06012585E-01   # Re[N(3,3)]
   3  4     7.07511534E-01   # Re[N(3,4)]
   4  1    -1.05781965E-02   # Re[N(4,1)]
   4  2     9.84468716E-01   # Re[N(4,2)]
   4  3     1.05459057E-01   # Re[N(4,3)]
   4  4    -1.39956553E-01   # Re[N(4,4)]
Block Umix # chargino mixing matrix
   1  1    -1.49242151E-01   # Re[U(1,1)]
   1  2     9.88800678E-01   # Re[U(1,2)]
   2  1     9.88800678E-01   # Re[U(2,1)]
   2  2     1.49242151E-01   # Re[U(2,2)]
Block Vmix # chargino mixing matrix
   1  1    -1.97964322E-01   # Re[V(1,1)]
   1  2     9.80209226E-01   # Re[V(1,2)]
   2  1     9.80209226E-01   # Re[V(2,1)]
   2  2     1.97964322E-01   # Re[V(2,2)]
DECAY   2000011     1.74760704E-07   # ~e^-_R
#    BR                NDA      ID1      ID2
     1.87264004E-03    2     1000039        11   # BR(~e^-_R -> ~G e^-)
#    BR                NDA      ID1      ID2       ID3
     2.23349877E-14    3     2000013        11       -13   # BR(~e^-_R -> ~mu^-_R e^- mu^+)
     8.52197632E-14    3    -2000013        11        13   # BR(~e^-_R -> ~mu^+_R e^- mu^-)
     1.89881421E-01    3     1000015        11       -15   # BR(~e^-_R -> ~tau^-_1 e^- tau^+)
     8.08245939E-01    3    -1000015        11        15   # BR(~e^-_R -> ~tau^+_1 e^- tau^-)
DECAY   1000011     3.32399775E-01   # ~e^-_L
#    BR                NDA      ID1      ID2
     9.98532147E-01    2     1000022        11   # BR(~e^-_L -> chi^0_1 e^-)
     7.24588657E-04    2     1000023        11   # BR(~e^-_L -> chi^0_2 e^-)
     6.09132875E-07    2     1000025        11   # BR(~e^-_L -> chi^0_3 e^-)
     7.42023423E-04    2    -1000024        12   # BR(~e^-_L -> chi^-_1 nu_e)
     2.95970269E-07    2     2000011        23   # BR(~e^-_L -> ~e^-_R Z)
     3.02825627E-07    2     2000011        25   # BR(~e^-_L -> ~e^-_R h^0)
     3.32855945E-08    2     1000039        11   # BR(~e^-_L -> ~G e^-)
DECAY   2000013     1.72091308E-07   # ~mu^-_R
#    BR                NDA      ID1      ID2
     1.89800877E-03    2     1000039        13   # BR(~mu^-_R -> ~G mu^-)
#    BR                NDA      ID1      ID2       ID3
     1.89593240E-01    3     1000015        13       -15   # BR(~mu^-_R -> ~tau^-_1 mu^- tau^+)
     8.08508751E-01    3    -1000015        13        15   # BR(~mu^-_R -> ~tau^+_1 mu^- tau^-)
DECAY   1000013     3.40897895E-01   # ~mu^-_L
#    BR                NDA      ID1      ID2
     9.73587569E-01    2     1000022        13   # BR(~mu^-_L -> chi^0_1 mu^-)
     7.20616778E-04    2     1000023        13   # BR(~mu^-_L -> chi^0_2 mu^-)
     5.47407522E-06    2     1000025        13   # BR(~mu^-_L -> chi^0_3 mu^-)
     7.18934147E-04    2    -1000024        14   # BR(~mu^-_L -> chi^-_1 nu_mu)
     1.23415816E-02    2     2000013        23   # BR(~mu^-_L -> ~mu^-_R Z)
     1.26257917E-02    2     2000013        25   # BR(~mu^-_L -> ~mu^-_R h^0)
     3.24509231E-08    2     1000039        13   # BR(~mu^-_L -> ~G mu^-)
DECAY   1000015     1.77875073E-10   # ~tau^-_1
#    BR                NDA      ID1      ID2
     1.00000000E+00    2     1000039        15   # BR(~tau^-_1 -> ~G tau^-)
DECAY   2000015     2.88168400E+00   # ~tau^-_2
#    BR                NDA      ID1      ID2
     1.13172555E-01    2     1000022        15   # BR(~tau^-_2 -> chi^0_1 tau^-)
     1.42590255E-04    2     1000023        15   # BR(~tau^-_2 -> chi^0_2 tau^-)
     8.16902514E-06    2    -1000024        16   # BR(~tau^-_2 -> chi^-_1 nu_tau)
     4.45761202E-01    2     1000015        23   # BR(~tau^-_2 -> ~tau^-_1 Z)
     4.40915480E-01    2     1000015        25   # BR(~tau^-_2 -> ~tau^-_1 h^0)
     3.67671512E-09    2     1000039        15   # BR(~tau^-_2 -> ~G tau^-)
DECAY   1000012     3.47842908E-01   # ~nu_e
#    BR                NDA      ID1      ID2
     9.99122021E-01    2     1000022        12   # BR(~nu_e -> chi^0_1 nu_e)
     8.22091961E-05    2     1000023        12   # BR(~nu_e -> chi^0_2 nu_e)
     1.07699366E-06    2     1000025        12   # BR(~nu_e -> chi^0_3 nu_e)
     7.94116156E-04    2     1000024        11   # BR(~nu_e -> chi^+_1 e^-)
     5.45482322E-07    2     2000011        24   # BR(~nu_e -> ~e^-_R W^+)
     3.11873655E-08    2     1000039        12   # BR(~nu_e -> ~G nu_e)
DECAY   1000014     3.55892075E-01   # ~nu_mu
#    BR                NDA      ID1      ID2
     9.76320056E-01    2     1000022        14   # BR(~nu_mu -> chi^0_1 nu_mu)
     7.97939729E-05    2     1000023        14   # BR(~nu_mu -> chi^0_2 nu_mu)
     1.03136660E-06    2     1000025        14   # BR(~nu_mu -> chi^0_3 nu_mu)
     8.00105961E-04    2     1000024        13   # BR(~nu_mu -> chi^+_1 mu^-)
     2.27989826E-02    2     2000013        24   # BR(~nu_mu -> ~mu^-_R W^+)
     3.04751723E-08    2     1000039        14   # BR(~nu_mu -> ~G nu_mu)
DECAY   1000016     2.78308340E+00   # ~nu_tau
#    BR                NDA      ID1      ID2
     1.17542939E-01    2     1000022        16   # BR(~nu_tau -> chi^0_1 nu_tau)
     2.01108082E-09    2     1000023        16   # BR(~nu_tau -> chi^0_2 nu_tau)
     1.70559509E-05    2     1000024        15   # BR(~nu_tau -> chi^+_1 tau^-)
     8.82439999E-01    2     1000015        24   # BR(~nu_tau -> ~tau^-_1 W^+)
     3.65853660E-09    2     1000039        16   # BR(~nu_tau -> ~G nu_tau)
DECAY   2000001     1.54169768E+00   # ~d_R
#    BR                NDA      ID1      ID2
     9.87750490E-01    2     1000022         1   # BR(~d_R -> chi^0_1 d)
     1.18343233E-02    2     1000023         1   # BR(~d_R -> chi^0_2 d)
     3.24660885E-04    2     1000025         1   # BR(~d_R -> chi^0_3 d)
     8.17466833E-05    2     1000035         1   # BR(~d_R -> chi^0_4 d)
     6.87345656E-06    2    -1000024         2   # BR(~d_R -> chi^-_1 u)
     1.95301724E-09    2    -1000037         2   # BR(~d_R -> chi^-_2 u)
     1.90318940E-06    2     1000039         1   # BR(~d_R -> ~G d)
DECAY   1000001     2.58460427E+01   # ~d_L
#    BR                NDA      ID1      ID2
     1.71398988E-02    2     1000022         1   # BR(~d_L -> chi^0_1 d)
     8.98210846E-03    2     1000023         1   # BR(~d_L -> chi^0_2 d)
     3.13928102E-04    2     1000025         1   # BR(~d_L -> chi^0_3 d)
     3.17743611E-01    2     1000035         1   # BR(~d_L -> chi^0_4 d)
     1.74320269E-02    2    -1000024         2   # BR(~d_L -> chi^-_1 u)
     6.38388280E-01    2    -1000037         2   # BR(~d_L -> chi^-_2 u)
     8.35168717E-13    2     2000002       -24   # BR(~d_L -> ~u_R W^-)
     1.13567530E-09    2     2000001        23   # BR(~d_L -> ~d_R Z)
     1.19647315E-09    2     2000001        25   # BR(~d_L -> ~d_R h^0)
     1.44007331E-07    2     1000039         1   # BR(~d_L -> ~G d)
DECAY   2000003     1.55095654E+00   # ~s_R
#    BR                NDA      ID1      ID2
     9.81901405E-01    2     1000022         3   # BR(~s_R -> chi^0_1 s)
     1.32266079E-02    2     1000023         3   # BR(~s_R -> chi^0_2 s)
     1.77471401E-03    2     1000025         3   # BR(~s_R -> chi^0_3 s)
     8.15023123E-05    2     1000035         3   # BR(~s_R -> chi^0_4 s)
     3.01302162E-03    2    -1000024         4   # BR(~s_R -> chi^-_1 c)
     8.57341617E-07    2    -1000037         4   # BR(~s_R -> chi^-_2 c)
     1.89172445E-06    2     1000039         3   # BR(~s_R -> ~G s)
DECAY   1000003     2.58511670E+01   # ~s_L
#    BR                NDA      ID1      ID2
     1.71363241E-02    2     1000022         3   # BR(~s_L -> chi^0_1 s)
     9.06885420E-03    2     1000023         3   # BR(~s_L -> chi^0_2 s)
     4.08954391E-04    2     1000025         3   # BR(~s_L -> chi^0_3 s)
     3.17681111E-01    2     1000035         3   # BR(~s_L -> chi^0_4 s)
     1.74433651E-02    2    -1000024         4   # BR(~s_L -> chi^-_1 c)
     6.38260069E-01    2    -1000037         4   # BR(~s_L -> chi^-_2 c)
     1.49603075E-07    2     2000004       -24   # BR(~s_L -> ~c_R W^-)
     5.00908519E-07    2     2000003        23   # BR(~s_L -> ~s_R Z)
     5.27752637E-07    2     2000003        25   # BR(~s_L -> ~s_R h^0)
     1.43974983E-07    2     1000039         3   # BR(~s_L -> ~G s)
DECAY   1000005     2.29612255E+01   # ~b_1
#    BR                NDA      ID1      ID2
     7.63646384E-02    2     1000022         5   # BR(~b_1 -> chi^0_1 b)
     2.25302951E-01    2     1000023         5   # BR(~b_1 -> chi^0_2 b)
     2.16418705E-01    2     1000025         5   # BR(~b_1 -> chi^0_3 b)
     1.48158166E-03    2     1000035         5   # BR(~b_1 -> chi^0_4 b)
     4.75930775E-01    2    -1000024         6   # BR(~b_1 -> chi^-_1 t)
     4.40716264E-03    2    -1000037         6   # BR(~b_1 -> chi^-_2 t)
     9.40745050E-05    2     1000006       -24   # BR(~b_1 -> ~t_1 W^-)
     1.12190352E-07    2     1000039         5   # BR(~b_1 -> ~G b)
DECAY   2000005     6.54599239E+01   # ~b_2
#    BR                NDA      ID1      ID2
     5.27754276E-03    2     1000022         5   # BR(~b_2 -> chi^0_1 b)
     7.72812451E-02    2     1000023         5   # BR(~b_2 -> chi^0_2 b)
     8.19501952E-02    2     1000025         5   # BR(~b_2 -> chi^0_3 b)
     1.17748621E-01    2     1000035         5   # BR(~b_2 -> chi^0_4 b)
     4.56733006E-01    2    -1000024         6   # BR(~b_2 -> chi^-_1 t)
     2.53845381E-01    2    -1000037         6   # BR(~b_2 -> chi^-_2 t)
     7.16396306E-03    2     1000006       -24   # BR(~b_2 -> ~t_1 W^-)
     4.54256282E-08    2     1000039         5   # BR(~b_2 -> ~G b)
DECAY   2000002     6.19590488E+00   # ~u_R
#    BR                NDA      ID1      ID2
     9.87753521E-01    2     1000022         2   # BR(~u_R -> chi^0_1 u)
     1.18423598E-02    2     1000023         2   # BR(~u_R -> chi^0_2 u)
     3.21661381E-04    2     1000025         2   # BR(~u_R -> chi^0_3 u)
     8.19740854E-05    2     1000035         2   # BR(~u_R -> chi^0_4 u)
     5.29896122E-10    2     1000024         1   # BR(~u_R -> chi^+_1 d)
     7.60364535E-13    2     1000037         1   # BR(~u_R -> chi^+_2 d)
     4.82842909E-07    2     1000039         2   # BR(~u_R -> ~G u)
DECAY   1000002     2.58922288E+01   # ~u_L
#    BR                NDA      ID1      ID2
     1.40984492E-02    2     1000022         2   # BR(~u_L -> chi^0_1 u)
     1.49143557E-02    2     1000023         2   # BR(~u_L -> chi^0_2 u)
     1.73328638E-04    2     1000025         2   # BR(~u_L -> chi^0_3 u)
     3.14384062E-01    2     1000035         2   # BR(~u_L -> chi^0_4 u)
     3.06025360E-02    2     1000024         1   # BR(~u_L -> chi^+_1 d)
     6.25827122E-01    2     1000037         1   # BR(~u_L -> chi^+_2 d)
     2.65730424E-09    2     2000001        24   # BR(~u_L -> ~d_R W^+)
     3.05658959E-13    2     2000002        23   # BR(~u_L -> ~u_R Z)
     1.92897410E-13    2     2000002        25   # BR(~u_L -> ~u_R h^0)
     1.43502226E-07    2     1000039         2   # BR(~u_L -> ~G u)
DECAY   2000004     6.19706073E+00   # ~c_R
#    BR                NDA      ID1      ID2
     9.87567817E-01    2     1000022         4   # BR(~c_R -> chi^0_1 c)
     1.18862045E-02    2     1000023         4   # BR(~c_R -> chi^0_2 c)
     3.68405083E-04    2     1000025         4   # BR(~c_R -> chi^0_3 c)
     8.20082045E-05    2     1000035         4   # BR(~c_R -> chi^0_4 c)
     9.49465135E-05    2     1000024         3   # BR(~c_R -> chi^+_1 s)
     1.36151345E-07    2     1000037         3   # BR(~c_R -> chi^+_2 s)
     4.82749382E-07    2     1000039         4   # BR(~c_R -> ~G c)
DECAY   1000004     2.58974777E+01   # ~c_L
#    BR                NDA      ID1      ID2
     1.40955603E-02    2     1000022         4   # BR(~c_L -> chi^0_1 c)
     1.49217909E-02    2     1000023         4   # BR(~c_L -> chi^0_2 c)
     1.84956056E-04    2     1000025         4   # BR(~c_L -> chi^0_3 c)
     3.14318118E-01    2     1000035         4   # BR(~c_L -> chi^0_4 c)
     3.07797414E-02    2     1000024         3   # BR(~c_L -> chi^+_1 s)
     6.25698428E-01    2     1000037         3   # BR(~c_L -> chi^+_2 s)
     1.17195036E-06    2     2000003        24   # BR(~c_L -> ~s_R W^+)
     5.47452583E-08    2     2000004        23   # BR(~c_L -> ~c_R Z)
     3.45344497E-08    2     2000004        25   # BR(~c_L -> ~c_R h^0)
     1.43469160E-07    2     1000039         4   # BR(~c_L -> ~G c)
DECAY   1000006     6.32031128E+01   # ~t_1
#    BR                NDA      ID1      ID2
     1.08351971E-04    2     1000022         4   # BR(~t_1 -> chi^0_1 c)
     9.03917221E-02    2     1000022         6   # BR(~t_1 -> chi^0_1 t)
     1.11159180E-04    2     1000023         4   # BR(~t_1 -> chi^0_2 c)
     2.19803099E-01    2     1000023         6   # BR(~t_1 -> chi^0_2 t)
     2.30464212E-01    2     1000025         6   # BR(~t_1 -> chi^0_3 t)
     1.98562070E-03    2     1000035         6   # BR(~t_1 -> chi^0_4 t)
     4.53055257E-01    2     1000024         5   # BR(~t_1 -> chi^+_1 b)
     4.06927813E-03    2     1000037         5   # BR(~t_1 -> chi^+_2 b)
     3.18236756E-08    2     1000039         6   # BR(~t_1 -> ~G t)
#    BR                NDA      ID1      ID2       ID3
     1.12682388E-05    3     1000022        24         5   # BR(~t_1 -> chi^0_1 W^+ b)
DECAY   2000006     6.66628394E+01   # ~t_2
#    BR                NDA      ID1      ID2
     6.20472180E-03    2     1000022         6   # BR(~t_2 -> chi^0_1 t)
     2.29520917E-01    2     1000023         6   # BR(~t_2 -> chi^0_2 t)
     2.37063222E-01    2     1000025         6   # BR(~t_2 -> chi^0_3 t)
     1.28371882E-01    2     1000035         6   # BR(~t_2 -> chi^0_4 t)
     1.54328684E-01    2     1000024         5   # BR(~t_2 -> chi^+_1 b)
     2.38163126E-01    2     1000037         5   # BR(~t_2 -> chi^+_2 b)
     6.27567287E-05    2     1000005        24   # BR(~t_2 -> ~b_1 W^+)
     3.61934953E-03    2     1000006        23   # BR(~t_2 -> ~t_1 Z)
     2.66529628E-03    2     1000006        25   # BR(~t_2 -> ~t_1 h^0)
     4.42416097E-08    2     1000039         6   # BR(~t_2 -> ~G t)
DECAY   1000024     1.52095485E+00   # chi^+_1
#    BR                NDA      ID1      ID2
     5.26491846E-08    2    -2000011        12   # BR(chi^+_1 -> ~e^+_R nu_e)
     2.25202774E-03    2    -2000013        14   # BR(chi^+_1 -> ~mu^+_R nu_mu)
     7.28915007E-01    2    -1000015        16   # BR(chi^+_1 -> ~tau^+_1 nu_tau)
     2.68555725E-01    2     1000022        24   # BR(chi^+_1 -> chi^0_1 W^+)
#    BR                NDA      ID1      ID2       ID3
     4.68073604E-10    3     1000022        -1         2   # BR(chi^+_1 -> chi^0_1 d_bar u)
     1.16740618E-09    3     1000022        -3         4   # BR(chi^+_1 -> chi^0_1 s_bar c)
     2.53892085E-04    3     1000022        -5         6   # BR(chi^+_1 -> chi^0_1 b_bar t)
     2.24364715E-06    3     1000022       -11        12   # BR(chi^+_1 -> chi^0_1 e^+ nu_e)
     2.28718773E-06    3     1000022       -13        14   # BR(chi^+_1 -> chi^0_1 mu^+ nu_mu)
     1.87633457E-05    3     1000022       -15        16   # BR(chi^+_1 -> chi^0_1 tau^+ nu_tau)
DECAY   1000037     1.21622156E+01   # chi^+_2
#    BR                NDA      ID1      ID2
     4.11331582E-14    2    -2000011        12   # BR(chi^+_2 -> ~e^+_R nu_e)
     7.74149718E-02    2    -1000011        12   # BR(chi^+_2 -> ~e^+_L nu_e)
     1.71701158E-09    2    -2000013        14   # BR(chi^+_2 -> ~mu^+_R nu_mu)
     7.74299933E-02    2    -1000013        14   # BR(chi^+_2 -> ~mu^+_L nu_mu)
     2.60918111E-06    2    -1000015        16   # BR(chi^+_2 -> ~tau^+_1 nu_tau)
     8.17557137E-02    2    -2000015        16   # BR(chi^+_2 -> ~tau^+_2 nu_tau)
     7.76412006E-02    2     1000012       -11   # BR(chi^+_2 -> ~nu_e e^+)
     7.76615447E-02    2     1000014       -13   # BR(chi^+_2 -> ~nu_mu mu^+)
     8.34633646E-02    2     1000016       -15   # BR(chi^+_2 -> ~nu_tau tau^+)
     4.91830488E-05    2     1000022        24   # BR(chi^+_2 -> chi^0_1 W^+)
     1.34134573E-01    2     1000023        24   # BR(chi^+_2 -> chi^0_2 W^+)
     1.27762845E-01    2     1000025        24   # BR(chi^+_2 -> chi^0_3 W^+)
     1.35087524E-01    2     1000024        23   # BR(chi^+_2 -> chi^+_1 Z)
     1.27023155E-01    2     1000024        25   # BR(chi^+_2 -> chi^+_1 h^0)
#    BR                NDA      ID1      ID2       ID3
     2.38514760E-09    3     1000024         2        -2   # BR(chi^+_2 -> chi^+_1 u u_bar)
     2.38526103E-09    3     1000024         4        -4   # BR(chi^+_2 -> chi^+_1 c c_bar)
     4.13409618E-09    3     1000024         1        -1   # BR(chi^+_2 -> chi^+_1 d d_bar)
     5.64930923E-09    3     1000024         3        -3   # BR(chi^+_2 -> chi^+_1 s s_bar)
     3.55619400E-06    3     1000024         5        -5   # BR(chi^+_2 -> chi^+_1 b b_bar)
     6.70520135E-14    3     1000024        11       -11   # BR(chi^+_2 -> chi^+_1 e^- e^+)
     2.86671044E-09    3     1000024        13       -13   # BR(chi^+_2 -> chi^+_1 mu^- mu^+)
     8.14260878E-07    3     1000024        15       -15   # BR(chi^+_2 -> chi^+_1 tau^- tau^+)
     8.17392580E-12    3     1000024        12       -12   # BR(chi^+_2 -> chi^+_1 nu_e nu_bar_e)
     7.03422923E-08    3     1000022        -1         2   # BR(chi^+_2 -> chi^0_1 d_bar u)
     7.03770028E-08    3     1000022        -3         4   # BR(chi^+_2 -> chi^0_1 s_bar c)
     5.41709638E-07    3     1000022        -5         6   # BR(chi^+_2 -> chi^0_1 b_bar t)
     6.75330682E-11    3     1000022       -13        14   # BR(chi^+_2 -> chi^0_1 mu^+ nu_mu)
     2.31801683E-08    3     1000022       -15        16   # BR(chi^+_2 -> chi^0_1 tau^+ nu_tau)
     1.65610471E-09    3     1000023        -1         2   # BR(chi^+_2 -> chi^0_2 d_bar u)
     2.41086037E-09    3     1000023        -3         4   # BR(chi^+_2 -> chi^0_2 s_bar c)
     3.01665024E-04    3     1000023        -5         6   # BR(chi^+_2 -> chi^0_2 b_bar t)
     3.44439339E-14    3     1000023       -11        12   # BR(chi^+_2 -> chi^0_2 e^+ nu_e)
     1.47259405E-09    3     1000023       -13        14   # BR(chi^+_2 -> chi^0_2 mu^+ nu_mu)
     4.18881303E-07    3     1000023       -15        16   # BR(chi^+_2 -> chi^0_2 tau^+ nu_tau)
     8.64258783E-11    3     1000025        -1         2   # BR(chi^+_2 -> chi^0_3 d_bar u)
     7.24560631E-10    3     1000025        -3         4   # BR(chi^+_2 -> chi^0_3 s_bar c)
     2.57027356E-04    3     1000025        -5         6   # BR(chi^+_2 -> chi^0_3 b_bar t)
     2.93992969E-14    3     1000025       -11        12   # BR(chi^+_2 -> chi^0_3 e^+ nu_e)
     1.25692243E-09    3     1000025       -13        14   # BR(chi^+_2 -> chi^0_3 mu^+ nu_mu)
     9.10876033E-06    3     1000025       -15        16   # BR(chi^+_2 -> chi^0_3 tau^+ nu_tau)
DECAY   1000022     2.85693458E+00   # chi^0_1
#    BR                NDA      ID1      ID2
     1.41894139E-01    2     2000011       -11   # BR(chi^0_1 -> ~e^-_R e^+)
     1.41894139E-01    2    -2000011        11   # BR(chi^0_1 -> ~e^+_R e^-)
     1.42130512E-01    2     2000013       -13   # BR(chi^0_1 -> ~mu^-_R mu^+)
     1.42130512E-01    2    -2000013        13   # BR(chi^0_1 -> ~mu^+_R mu^-)
     2.15975349E-01    2     1000015       -15   # BR(chi^0_1 -> ~tau^-_1 tau^+)
     2.15975349E-01    2    -1000015        15   # BR(chi^0_1 -> ~tau^+_1 tau^-)
     4.43543247E-10    2     1000039        22   # BR(chi^0_1 -> ~G photon)
     1.31426444E-10    2     1000039        23   # BR(chi^0_1 -> ~G Z)
     2.98115840E-12    2     1000039        25   # BR(chi^0_1 -> ~G h^0)
DECAY   1000023     1.65948442E+00   # chi^0_2
#    BR                NDA      ID1      ID2
     1.10695450E-02    2     2000011       -11   # BR(chi^0_2 -> ~e^-_R e^+)
     1.10695450E-02    2    -2000011        11   # BR(chi^0_2 -> ~e^+_R e^-)
     1.20837668E-02    2     2000013       -13   # BR(chi^0_2 -> ~mu^-_R mu^+)
     1.20837668E-02    2    -2000013        13   # BR(chi^0_2 -> ~mu^+_R mu^-)
     3.42415832E-01    2     1000015       -15   # BR(chi^0_2 -> ~tau^-_1 tau^+)
     3.42415832E-01    2    -1000015        15   # BR(chi^0_2 -> ~tau^+_1 tau^-)
     8.78650348E-03    2     1000022        23   # BR(chi^0_2 -> chi^0_1 Z)
     2.60054799E-01    2     1000022        25   # BR(chi^0_2 -> chi^0_1 h^0)
     2.12422551E-10    2     1000039        22   # BR(chi^0_2 -> ~G photon)
     4.13987371E-10    2     1000039        23   # BR(chi^0_2 -> ~G Z)
     3.06629012E-09    2     1000039        25   # BR(chi^0_2 -> ~G h^0)
     1.62314629E-07    2     1000022        22   # BR(chi^0_2 -> chi^0_1 photon)
#    BR                NDA      ID1      ID2       ID3
     1.37142889E-09    3     1000022         2        -2   # BR(chi^0_2 -> chi^0_1 u u_bar)
     1.37327457E-09    3     1000022         4        -4   # BR(chi^0_2 -> chi^0_1 c c_bar)
     2.60597039E-10    3     1000022         1        -1   # BR(chi^0_2 -> chi^0_1 d d_bar)
     1.02524006E-09    3     1000022         3        -3   # BR(chi^0_2 -> chi^0_1 s s_bar)
     1.78207813E-06    3     1000022         5        -5   # BR(chi^0_2 -> chi^0_1 b b_bar)
     2.64162661E-06    3     1000022        11       -11   # BR(chi^0_2 -> chi^0_1 e^- e^+)
     2.66837047E-06    3     1000022        13       -13   # BR(chi^0_2 -> chi^0_1 mu^- mu^+)
     1.15501219E-05    3     1000022        15       -15   # BR(chi^0_2 -> chi^0_1 tau^- tau^+)
     1.59760544E-06    3     1000022        12       -12   # BR(chi^0_2 -> chi^0_1 nu_e nu_bar_e)
     1.90466246E-11    3     1000024         1        -2   # BR(chi^0_2 -> chi^+_1 d u_bar)
     1.90466246E-11    3    -1000024        -1         2   # BR(chi^0_2 -> chi^-_1 d_bar u)
     4.48429094E-12    3     1000024         3        -4   # BR(chi^0_2 -> chi^+_1 s c_bar)
     4.48429094E-12    3    -1000024        -3         4   # BR(chi^0_2 -> chi^-_1 s_bar c)
     6.42756252E-12    3     1000024        11       -12   # BR(chi^0_2 -> chi^+_1 e^- nu_bar_e)
     6.42756252E-12    3    -1000024       -11        12   # BR(chi^0_2 -> chi^-_1 e^+ nu_e)
     6.36477328E-12    3     1000024        13       -14   # BR(chi^0_2 -> chi^+_1 mu^- nu_bar_mu)
     6.36477328E-12    3    -1000024       -13        14   # BR(chi^0_2 -> chi^-_1 mu^+ nu_mu)
     2.16507783E-13    3     1000024        15       -16   # BR(chi^0_2 -> chi^+_1 tau^- nu_bar_tau)
     2.16507783E-13    3    -1000024       -15        16   # BR(chi^0_2 -> chi^-_1 tau^+ nu_tau)
DECAY   1000025     1.54689808E+00   # chi^0_3
#    BR                NDA      ID1      ID2
     3.30307729E-04    2     2000011       -11   # BR(chi^0_3 -> ~e^-_R e^+)
     3.30307729E-04    2    -2000011        11   # BR(chi^0_3 -> ~e^+_R e^-)
     1.42541883E-03    2     2000013       -13   # BR(chi^0_3 -> ~mu^-_R mu^+)
     1.42541883E-03    2    -2000013        13   # BR(chi^0_3 -> ~mu^+_R mu^-)
     3.57311361E-01    2     1000015       -15   # BR(chi^0_3 -> ~tau^-_1 tau^+)
     3.57311361E-01    2    -1000015        15   # BR(chi^0_3 -> ~tau^+_1 tau^-)
     4.21661978E-07    2     1000016       -16   # BR(chi^0_3 -> ~nu_tau nu_bar_tau)
     4.21661978E-07    2    -1000016        16   # BR(chi^0_3 -> ~nu^*_tau nu_tau)
     2.74779321E-01    2     1000022        23   # BR(chi^0_3 -> chi^0_1 Z)
     7.06574293E-03    2     1000022        25   # BR(chi^0_3 -> chi^0_1 h^0)
     1.20021751E-13    2     1000039        22   # BR(chi^0_3 -> ~G photon)
     6.75897341E-10    2     1000039        23   # BR(chi^0_3 -> ~G Z)
     3.25331716E-09    2     1000039        25   # BR(chi^0_3 -> ~G h^0)
     2.10946838E-07    2     1000022        22   # BR(chi^0_3 -> chi^0_1 photon)
     2.92094087E-10    2     1000023        22   # BR(chi^0_3 -> chi^0_2 photon)
#    BR                NDA      ID1      ID2       ID3
     1.41578661E-11    3     1000022         2        -2   # BR(chi^0_3 -> chi^0_1 u u_bar)
     1.83124873E-11    3     1000022         4        -4   # BR(chi^0_3 -> chi^0_1 c c_bar)
     5.68016338E-12    3     1000022         1        -1   # BR(chi^0_3 -> chi^0_1 d d_bar)
     9.14177567E-10    3     1000022         3        -3   # BR(chi^0_3 -> chi^0_1 s s_bar)
     2.11082114E-06    3     1000022         5        -5   # BR(chi^0_3 -> chi^0_1 b b_bar)
     1.36203949E-08    3     1000022        11       -11   # BR(chi^0_3 -> chi^0_1 e^- e^+)
     5.61732787E-08    3     1000022        13       -13   # BR(chi^0_3 -> chi^0_1 mu^- mu^+)
     1.72519351E-05    3     1000022        15       -15   # BR(chi^0_3 -> chi^0_1 tau^- tau^+)
     8.30638149E-08    3     1000022        12       -12   # BR(chi^0_3 -> chi^0_1 nu_e nu_bar_e)
     2.29688517E-09    3     1000023         2        -2   # BR(chi^0_3 -> chi^0_2 u u_bar)
     1.93435608E-09    3     1000023         4        -4   # BR(chi^0_3 -> chi^0_2 c c_bar)
     2.98275020E-09    3     1000023         1        -1   # BR(chi^0_3 -> chi^0_2 d d_bar)
     2.97854654E-09    3     1000023         3        -3   # BR(chi^0_3 -> chi^0_2 s s_bar)
     6.84703341E-10    3     1000023        11       -11   # BR(chi^0_3 -> chi^0_2 e^- e^+)
     6.84459568E-10    3     1000023        13       -13   # BR(chi^0_3 -> chi^0_2 mu^- mu^+)
     1.11408476E-09    3     1000023        15       -15   # BR(chi^0_3 -> chi^0_2 tau^- tau^+)
     4.12502738E-09    3     1000023        12       -12   # BR(chi^0_3 -> chi^0_2 nu_e nu_bar_e)
     2.91785064E-08    3     1000024         1        -2   # BR(chi^0_3 -> chi^+_1 d u_bar)
     2.91785064E-08    3    -1000024        -1         2   # BR(chi^0_3 -> chi^-_1 d_bar u)
     2.70953650E-08    3     1000024         3        -4   # BR(chi^0_3 -> chi^+_1 s c_bar)
     2.70953650E-08    3    -1000024        -3         4   # BR(chi^0_3 -> chi^-_1 s_bar c)
     9.74801976E-09    3     1000024        11       -12   # BR(chi^0_3 -> chi^+_1 e^- nu_bar_e)
     9.74801976E-09    3    -1000024       -11        12   # BR(chi^0_3 -> chi^-_1 e^+ nu_e)
     9.74224567E-09    3     1000024        13       -14   # BR(chi^0_3 -> chi^+_1 mu^- nu_bar_mu)
     9.74224567E-09    3    -1000024       -13        14   # BR(chi^0_3 -> chi^-_1 mu^+ nu_mu)
     8.21313453E-09    3     1000024        15       -16   # BR(chi^0_3 -> chi^+_1 tau^- nu_bar_tau)
     8.21313453E-09    3    -1000024       -15        16   # BR(chi^0_3 -> chi^-_1 tau^+ nu_tau)
DECAY   1000035     1.21704349E+01   # chi^0_4
#    BR                NDA      ID1      ID2
     2.29185661E-05    2     2000011       -11   # BR(chi^0_4 -> ~e^-_R e^+)
     2.29185661E-05    2    -2000011        11   # BR(chi^0_4 -> ~e^+_R e^-)
     3.78368918E-02    2     1000011       -11   # BR(chi^0_4 -> ~e^-_L e^+)
     3.78368918E-02    2    -1000011        11   # BR(chi^0_4 -> ~e^+_L e^-)
     2.27863115E-05    2     2000013       -13   # BR(chi^0_4 -> ~mu^-_R mu^+)
     2.27863115E-05    2    -2000013        13   # BR(chi^0_4 -> ~mu^+_R mu^-)
     3.78455208E-02    2     1000013       -13   # BR(chi^0_4 -> ~mu^-_L mu^+)
     3.78455208E-02    2    -1000013        13   # BR(chi^0_4 -> ~mu^+_L mu^-)
     3.14820008E-06    2     1000015       -15   # BR(chi^0_4 -> ~tau^-_1 tau^+)
     3.14820008E-06    2    -1000015        15   # BR(chi^0_4 -> ~tau^+_1 tau^-)
     4.03371279E-02    2     2000015       -15   # BR(chi^0_4 -> ~tau^-_2 tau^+)
     4.03371279E-02    2    -2000015        15   # BR(chi^0_4 -> ~tau^+_2 tau^-)
     3.95791239E-02    2     1000012       -12   # BR(chi^0_4 -> ~nu_e nu_bar_e)
     3.95791239E-02    2    -1000012        12   # BR(chi^0_4 -> ~nu^*_e nu_e)
     3.95882232E-02    2     1000014       -14   # BR(chi^0_4 -> ~nu_mu nu_bar_mu)
     3.95882232E-02    2    -1000014        14   # BR(chi^0_4 -> ~nu^*_mu nu_mu)
     4.21603939E-02    2     1000016       -16   # BR(chi^0_4 -> ~nu_tau nu_bar_tau)
     4.21603939E-02    2    -1000016        16   # BR(chi^0_4 -> ~nu^*_tau nu_tau)
     1.34974927E-01    2     1000024       -24   # BR(chi^0_4 -> chi^+_1 W^-)
     1.34974927E-01    2    -1000024        24   # BR(chi^0_4 -> chi^-_1 W^+)
     6.01581350E-06    2     1000022        23   # BR(chi^0_4 -> chi^0_1 Z)
     2.99015968E-03    2     1000023        23   # BR(chi^0_4 -> chi^0_2 Z)
     1.24332143E-01    2     1000025        23   # BR(chi^0_4 -> chi^0_3 Z)
     5.71012825E-05    2     1000022        25   # BR(chi^0_4 -> chi^0_1 h^0)
     1.25069357E-01    2     1000023        25   # BR(chi^0_4 -> chi^0_2 h^0)
     2.17997539E-03    2     1000025        25   # BR(chi^0_4 -> chi^0_3 h^0)
     8.69388720E-10    2     1000039        22   # BR(chi^0_4 -> ~G photon)
     3.26394518E-09    2     1000039        23   # BR(chi^0_4 -> ~G Z)
     7.67036417E-11    2     1000039        25   # BR(chi^0_4 -> ~G h^0)
     1.45753283E-07    2     1000022        22   # BR(chi^0_4 -> chi^0_1 photon)
     7.19105477E-07    2     1000023        22   # BR(chi^0_4 -> chi^0_2 photon)
     7.78511896E-07    2     1000025        22   # BR(chi^0_4 -> chi^0_3 photon)
#    BR                NDA      ID1      ID2       ID3
     3.16848925E-08    3     1000022         2        -2   # BR(chi^0_4 -> chi^0_1 u u_bar)
     3.16835946E-08    3     1000022         4        -4   # BR(chi^0_4 -> chi^0_1 c c_bar)
     1.44673376E-07    3     1000022         6        -6   # BR(chi^0_4 -> chi^0_1 t t_bar)
     3.86397027E-08    3     1000022         1        -1   # BR(chi^0_4 -> chi^0_1 d d_bar)
     3.86734178E-08    3     1000022         3        -3   # BR(chi^0_4 -> chi^0_1 s s_bar)
     1.24608412E-07    3     1000022         5        -5   # BR(chi^0_4 -> chi^0_1 b b_bar)
     1.09368038E-08    3     1000022        11       -11   # BR(chi^0_4 -> chi^0_1 e^- e^+)
     1.09282123E-08    3     1000022        13       -13   # BR(chi^0_4 -> chi^0_1 mu^- mu^+)
     2.27993015E-08    3     1000022        15       -15   # BR(chi^0_4 -> chi^0_1 tau^- tau^+)
     2.90814135E-09    3     1000023         2        -2   # BR(chi^0_4 -> chi^0_2 u u_bar)
     2.90740574E-09    3     1000023         4        -4   # BR(chi^0_4 -> chi^0_2 c c_bar)
     1.76058288E-09    3     1000023         1        -1   # BR(chi^0_4 -> chi^0_2 d d_bar)
     2.46897309E-09    3     1000023         3        -3   # BR(chi^0_4 -> chi^0_2 s s_bar)
     1.66235648E-06    3     1000023         5        -5   # BR(chi^0_4 -> chi^0_2 b b_bar)
     4.63483657E-12    3     1000023        11       -11   # BR(chi^0_4 -> chi^0_2 e^- e^+)
     1.32539558E-09    3     1000023        13       -13   # BR(chi^0_4 -> chi^0_2 mu^- mu^+)
     3.79463331E-07    3     1000023        15       -15   # BR(chi^0_4 -> chi^0_2 tau^- tau^+)
     1.04482018E-11    3     1000025         2        -2   # BR(chi^0_4 -> chi^0_3 u u_bar)
     1.16308054E-11    3     1000025         4        -4   # BR(chi^0_4 -> chi^0_3 c c_bar)
     2.05469327E-11    3     1000025         1        -1   # BR(chi^0_4 -> chi^0_3 d d_bar)
     7.04773092E-10    3     1000025         3        -3   # BR(chi^0_4 -> chi^0_3 s s_bar)
     1.60220626E-06    3     1000025         5        -5   # BR(chi^0_4 -> chi^0_3 b b_bar)
     6.78254654E-14    3     1000025        11       -11   # BR(chi^0_4 -> chi^0_3 e^- e^+)
     1.27675358E-09    3     1000025        13       -13   # BR(chi^0_4 -> chi^0_3 mu^- mu^+)
     8.76604636E-06    3     1000025        15       -15   # BR(chi^0_4 -> chi^0_3 tau^- tau^+)
     1.45752375E-08    3     1000025        12       -12   # BR(chi^0_4 -> chi^0_3 nu_e nu_bar_e)
     1.72591062E-09    3     1000024         1        -2   # BR(chi^0_4 -> chi^+_1 d u_bar)
     1.72591062E-09    3    -1000024        -1         2   # BR(chi^0_4 -> chi^-_1 d_bar u)
     2.50310040E-09    3     1000024         3        -4   # BR(chi^0_4 -> chi^+_1 s c_bar)
     2.50310040E-09    3    -1000024        -3         4   # BR(chi^0_4 -> chi^-_1 s_bar c)
     3.03868103E-04    3     1000024         5        -6   # BR(chi^0_4 -> chi^+_1 b t_bar)
     3.03868103E-04    3    -1000024        -5         6   # BR(chi^0_4 -> chi^-_1 b_bar t)
     3.48450579E-14    3     1000024        11       -12   # BR(chi^0_4 -> chi^+_1 e^- nu_bar_e)
     3.48450579E-14    3    -1000024       -11        12   # BR(chi^0_4 -> chi^-_1 e^+ nu_e)
     1.48968042E-09    3     1000024        13       -14   # BR(chi^0_4 -> chi^+_1 mu^- nu_bar_mu)
     1.48968042E-09    3    -1000024       -13        14   # BR(chi^0_4 -> chi^-_1 mu^+ nu_mu)
     4.18206861E-07    3     1000024        15       -16   # BR(chi^0_4 -> chi^+_1 tau^- nu_bar_tau)
     4.18206861E-07    3    -1000024       -15        16   # BR(chi^0_4 -> chi^-_1 tau^+ nu_tau)
DECAY   1000021     2.41618345E+01   # ~g
#    BR                NDA      ID1      ID2
     4.34721584E-02    2     2000002        -2   # BR(~g -> ~u_R u_bar)
     4.34721584E-02    2    -2000002         2   # BR(~g -> ~u^*_R u)
     1.49721708E-02    2     1000002        -2   # BR(~g -> ~u_L u_bar)
     1.49721708E-02    2    -1000002         2   # BR(~g -> ~u^*_L u)
     4.34725026E-02    2     2000004        -4   # BR(~g -> ~c_R c_bar)
     4.34725026E-02    2    -2000004         4   # BR(~g -> ~c^*_R c)
     1.49747401E-02    2     1000004        -4   # BR(~g -> ~c_L c_bar)
     1.49747401E-02    2    -1000004         4   # BR(~g -> ~c^*_L c)
     2.55188513E-03    2     1000006        -4   # BR(~g -> ~t_1 c_bar)
     2.55188513E-03    2    -1000006         4   # BR(~g -> ~t^*_1 c)
     1.02216970E-01    2     1000006        -6   # BR(~g -> ~t_1 t_bar)
     1.02216970E-01    2    -1000006         6   # BR(~g -> ~t^*_1 t)
     4.15213166E-02    2     2000006        -6   # BR(~g -> ~t_2 t_bar)
     4.15213166E-02    2    -2000006         6   # BR(~g -> ~t^*_2 t)
     4.65939997E-02    2     2000001        -1   # BR(~g -> ~d_R d_bar)
     4.65939997E-02    2    -2000001         1   # BR(~g -> ~d^*_R d)
     1.47971198E-02    2     1000001        -1   # BR(~g -> ~d_L d_bar)
     1.47971198E-02    2    -1000001         1   # BR(~g -> ~d^*_L d)
     4.66028328E-02    2     2000003        -3   # BR(~g -> ~s_R s_bar)
     4.66028328E-02    2    -2000003         3   # BR(~g -> ~s^*_R s)
     1.47998231E-02    2     1000003        -3   # BR(~g -> ~s_L s_bar)
     1.47998231E-02    2    -1000003         3   # BR(~g -> ~s^*_L s)
     6.92757569E-02    2     1000005        -5   # BR(~g -> ~b_1 b_bar)
     6.92757569E-02    2    -1000005         5   # BR(~g -> ~b^*_1 b)
     4.46574699E-02    2     2000005        -5   # BR(~g -> ~b_2 b_bar)
     4.46574699E-02    2    -2000005         5   # BR(~g -> ~b^*_2 b)
     1.65858943E-06    2     1000022        21   # BR(~g -> chi^0_1 g)
     8.17921078E-05    2     1000023        21   # BR(~g -> chi^0_2 g)
     9.44219183E-05    2     1000025        21   # BR(~g -> chi^0_3 g)
     4.63613029E-06    2     1000035        21   # BR(~g -> chi^0_4 g)
DECAY        25     2.61139353E-03   # h^0
#    BR                NDA      ID1      ID2
     9.87073218E-09    2          11       -11   # BR(h^0 -> e^- e^+)
     4.21973702E-04    2          13       -13   # BR(h^0 -> mu^- mu^+)
     1.17143238E-01    2          15       -15   # BR(h^0 -> tau^- tau^+)
     6.06005348E-07    2           1        -1   # BR(h^0 -> d d_bar)
     2.67244400E-04    2           3        -3   # BR(h^0 -> s s_bar)
     5.79102801E-01    2           5        -5   # BR(h^0 -> b b_bar)
     2.56663346E-07    2           2        -2   # BR(h^0 -> u u_bar)
     4.59874848E-02    2           4        -4   # BR(h^0 -> c c_bar)
     6.91616577E-02    2          21        21   # BR(h^0 -> g g)
     3.49600477E-03    2          22        22   # BR(h^0 -> photon photon)
# writing decays into V V* as 3-body decays
#    BR                NDA      ID1      ID2       ID3
     8.40073595E-03    3          24        11        12   # BR(h^0 -> W^+ e^- nu_e)
     8.40073595E-03    3          24        13        14   # BR(h^0 -> W^+ mu^- nu_mu)
     8.40073595E-03    3          24        15        16   # BR(h^0 -> W^+ tau^- nu_tau)
     2.94025758E-02    3          24         1        -2   # BR(h^0 -> W^+ d u_bar)
     2.94025758E-02    3          24         3        -4   # BR(h^0 -> W^+ s c_bar)
     8.40073595E-03    3         -24       -11       -12   # BR(h^0 -> W^- e^+ nu_bar_e)
     8.40073595E-03    3         -24       -13       -14   # BR(h^0 -> W^- mu^+ nu_bar_mu)
     8.40073595E-03    3         -24       -15       -16   # BR(h^0 -> W^- tau^+ nu_bar_tau)
     2.94025758E-02    3         -24        -1         2   # BR(h^0 -> W^- d_bar u)
     2.94025758E-02    3         -24        -3         4   # BR(h^0 -> W^- s_bar c)
     5.74140121E-04    3          23        11       -11   # BR(h^0 -> Z e^- e^+)
     5.74140121E-04    3          23        13       -13   # BR(h^0 -> Z mu^- mu^+)
     4.92120104E-04    3          23        15       -15   # BR(h^0 -> Z tau^- tau^+)
     3.28080069E-03    3          23        12       -12   # BR(h^0 -> Z nu_e nu_bar_e)
     2.29656048E-03    3          23         1        -1   # BR(h^0 -> Z u u_bar)
     2.29656048E-03    3          23         3        -3   # BR(h^0 -> Z c c_bar)
     2.29656048E-03    3          23         5        -5   # BR(h^0 -> Z t t_bar)
     2.29656048E-03    3          23         2        -2   # BR(h^0 -> Z u u_bar)
     2.29656048E-03    3          23         4        -4   # BR(h^0 -> Z c c_bar)
DECAY        35     2.04781619E+01   # H^0
#    BR                NDA      ID1      ID2
     1.57622378E-08    2          11       -11   # BR(H^0 -> e^- e^+)
     6.73891307E-04    2          13       -13   # BR(H^0 -> mu^- mu^+)
     1.91461094E-01    2          15       -15   # BR(H^0 -> tau^- tau^+)
     7.93060507E-07    2           1        -1   # BR(H^0 -> d d_bar)
     3.49739281E-04    2           3        -3   # BR(H^0 -> s s_bar)
     8.05885898E-01    2           5        -5   # BR(H^0 -> b b_bar)
     1.67329928E-13    2           2        -2   # BR(H^0 -> u u_bar)
     2.99874335E-08    2           4        -4   # BR(H^0 -> c c_bar)
     1.52951129E-03    2           6        -6   # BR(H^0 -> t t_bar)
     3.27889811E-07    2     2000011  -2000011   # BR(H^0 -> ~e^-_R ~e^+_R)
     3.35162643E-07    2     2000013  -2000013   # BR(H^0 -> ~mu^-_R ~mu^+_R)
     5.68239027E-06    2     1000015  -1000015   # BR(H^0 -> ~tau^-_1 ~tau^+_1)
     1.53013657E-05    2          23        23   # BR(H^0 -> Z Z)
     2.91039164E-05    2          24       -24   # BR(H^0 -> W^+ W^-)
     1.26701751E-05    2          25        25   # BR(H^0 -> h^0 h^0)
     3.55652376E-05    2          21        21   # BR(H^0 -> g g)
     4.07426296E-08    2          22        22   # BR(H^0 -> photon photon)
DECAY        36     2.04772186E+01   # A^0
#    BR                NDA      ID1      ID2
     1.57634319E-08    2          11       -11   # BR(A^0 -> e^- e^+)
     6.73942386E-04    2          13       -13   # BR(A^0 -> mu^- mu^+)
     1.91477703E-01    2          15       -15   # BR(A^0 -> tau^- tau^+)
     7.93120323E-07    2           1        -1   # BR(A^0 -> d d_bar)
     3.49765652E-04    2           3        -3   # BR(A^0 -> s s_bar)
     8.05953049E-01    2           5        -5   # BR(A^0 -> b b_bar)
     1.51766134E-13    2           2        -2   # BR(A^0 -> u u_bar)
     2.71982255E-08    2           4        -4   # BR(A^0 -> c c_bar)
     1.50239497E-03    2           6        -6   # BR(A^0 -> t t_bar)
     2.85729704E-05    2          25        23   # BR(A^0 -> h^0 Z)
     1.37017675E-05    2          21        21   # BR(A^0 -> g g)
     3.40350754E-08    2          22        22   # BR(A^0 -> photon photon)
DECAY        37     1.78429662E+01   # H^+
#    BR                NDA      ID1      ID2
     1.81504155E-08    2         -11        12   # BR(H^+ -> e^+ nu_e)
     7.75994365E-04    2         -13        12   # BR(H^+ -> mu^+ nu_e)
     2.20472295E-01    2         -15        12   # BR(H^+ -> tau^+ nu_e)
     8.05538757E-07    2          -1         2   # BR(H^+ -> d_bar u)
     3.55268746E-04    2          -3         4   # BR(H^+ -> s_bar c)
     7.78363303E-01    2          -5         6   # BR(H^+ -> b_bar t)
     3.23156367E-05    2          25        24   # BR(H^+ -> h^0 W^+)
DECAY         6     2.43000000E+00   # top
#    BR                NDA      ID1      ID2
     1.00000000E+00    2           5        24   # BR(t -> b W)
Block HiggsBoundsInputHiggsCouplingsFermions
# ScalarNormEffCoupSq PseudoSNormEffCoupSq NP IP1 IP2 IP2
    1.10256321E+00    0.00000000E+00        3  25   5   5  # h0-b-b eff. coupling^2, normalised to SM
    1.59989744E+03    0.00000000E+00        3  35   5   5  # H0-b-b eff. coupling^2, normalised to SM
    0.00000000E+00    1.60000000E+03        3  36   5   5  # A0-b-b eff. coupling^2, normalised to SM
#
    9.99935898E-01    0.00000000E+00        3  25   6   6  # h0-t-t eff. coupling^2, normalised to SM
    6.89102004E-04    0.00000000E+00        3  35   6   6  # H0-t-t eff. coupling^2, normalised to SM
    0.00000000E+00    6.25000000E-04        3  36   6   6  # A0-t-t eff. coupling^2, normalised to SM
#
    1.10256321E+00    0.00000000E+00        3  25  15  15  # h0-tau-tau eff. coupling^2, normalised to SM
    1.59989744E+03    0.00000000E+00        3  35  15  15  # H0-tau-tau eff. coupling^2, normalised to SM
    0.00000000E+00    1.60000000E+03        3  36  15  15  # A0-tau-tau eff. coupling^2, normalised to SM
#
Block HiggsBoundsInputHiggsCouplingsBosons
    9.99998436E-01        3  25  24  24  # h0-W-W eff. coupling^2, normalised to SM
    1.56443058E-06        3  35  24  24  # H0-W-W eff. coupling^2, normalised to SM
    0.00000000E+00        3  36  24  24  # A0-W-W eff. coupling^2, normalised to SM
#
    9.99998436E-01        3  25  23  23  # h0-Z-Z eff. coupling^2, normalised to SM
    1.56443058E-06        3  35  23  23  # H0-Z-Z eff. coupling^2, normalised to SM
    0.00000000E+00        3  36  23  23  # A0-Z-Z eff. coupling^2, normalised to SM
#
    1.15806092E+00        3  25  21  21  # h0-g-g eff. coupling^2, normalised to SM
    1.96583170E-02        3  35  21  21  # H0-g-g eff. coupling^2, normalised to SM
    1.54807902E-01        3  36  21  21  # A0-g-g eff. coupling^2, normalised to SM
#
    0.00000000E+00        3  25  25  23  # h0-h0-Z eff. coupling^2, normalised to SM
    0.00000000E+00        3  35  25  23  # H0-h0-Z eff. coupling^2, normalised to SM
    1.56443058E-06        3  36  25  23  # A0-h0-Z eff. coupling^2, normalised to SM
    0.00000000E+00        3  35  35  23  # H0-H0-Z eff. coupling^2, normalised to SM
    9.99998436E-01        3  36  35  23  # A0-H0-Z eff. coupling^2, normalised to SM
    0.00000000E+00        3  36  36  23  # A0-A0-Z eff. coupling^2, normalised to SM
#
    0.00000000E+00        4  25  21  21  23  # h0-g-g-Z eff. coupling^2, normalised to SM
    0.00000000E+00        4  35  21  21  23  # H0-g-g-Z eff. coupling^2, normalised to SM
    0.00000000E+00        4  36  21  21  23  # A0-g-g-Z eff. coupling^2, normalised to SM
Block SPhenoLowEnergy  # low energy observables
    1    3.12424311E-04   # BR(b -> s gamma)
    2    1.59113588E-06   # BR(b -> s mu+ mu-)
    3    3.54025401E-05   # BR(b -> s nu nu)
    4    5.24796505E-11   # BR(Bd -> mu+ mu-)
    5    3.43172476E-09   # BR(Bs -> mu+ mu-)
    6    1.05229911E-04   # BR(B_u -> tau nu)
    7    9.51503277E-01   # BR(B_u -> tau nu)/BR(B_u -> tau nu)_SM
    8    2.73771741E-01   # |Delta(M_Bd)| [ps^-1] 
    9    2.03023771E+01   # |Delta(M_Bs)| [ps^-1] 
   20    1.87099217E-14   # Delta(g-2)_electron/2
   21    4.06101015E-10   # Delta(g-2)_muon/2
   22    3.22579416E-08   # Delta(g-2)_tau/2
   23    0.00000000E+00   # electric dipole moment of the electron
   24    0.00000000E+00   # electric dipole moment of the muon
   25    0.00000000E+00   # electric dipole moment of the tau
   26    0.00000000E+00   # Br(mu -> e gamma)
   27    0.00000000E+00   # Br(tau -> e gamma)
   28    0.00000000E+00   # Br(tau -> mu gamma)
   29    0.00000000E+00   # Br(mu -> 3 e)
   30    0.00000000E+00   # Br(tau -> 3 e)
   31    0.00000000E+00   # Br(tau -> 3 mu)
   39    1.08938221E-03   # Delta(rho_parameter)
   40    0.00000000E+00   # BR(Z -> e mu)
   41    0.00000000E+00   # BR(Z -> e tau)
   42    0.00000000E+00   # BR(Z -> mu tau)
Block FWCOEF Q=  9.11876000E+01  # Wilson coefficients at scale Q
#    id        order  M        value         comment
Block FWCOEF Q=  1.60000000E+02  # Wilson coefficients at scale Q
#    id        order  M        value         comment
     0305 4422   00   0    -1.87760840E-01   # C7
     0305 4422   00   1    -1.33313516E-02   # C7
     0305 4322   00   1    -2.87517742E-04   # C7'
     0305 6421   00   0    -9.48904782E-02   # C8
     0305 6421   00   1    -2.09419317E-02   # C8
     0305 6321   00   1    -4.47874570E-04   # C8'
 03051111 4133   00   0    -1.38419886E+00   # C9 e+e-
 03051111 4133   00   1     6.10499410E-04   # C9 e+e-
 03051111 4233   00   1    -5.15158246E-05   # C9' e+e-
 03051111 4137   00   0    -3.94173629E+00   # C10 e+e-
 03051111 4137   00   1     2.03028088E-03   # C10 e+e-
 03051111 4237   00   1     1.37678720E-03   # C10' e+e-
 03051313 4133   00   0    -1.38419886E+00   # C9 mu+mu-
 03051313 4133   00   1     6.10370265E-04   # C9 mu+mu-
 03051313 4233   00   1    -5.15265490E-05   # C9' mu+mu-
 03051313 4137   00   0    -3.94173629E+00   # C10 mu+mu-
 03051313 4137   00   1     2.03015157E-03   # C10 mu+mu-
 03051313 4237   00   1     1.37679793E-03   # C10' mu+mu-
 03051212 4237   00   0     1.49019528E+00   # C11 nu_1 nu_1
 03051212 4237   00   1    -4.89829497E-04   # C11 nu_1 nu_1
 03051212 4137   00   1    -3.31402986E-04   # C11' nu_1 nu_1
 03051414 4237   00   0     1.49019528E+00   # C11 nu_2 nu_2
 03051414 4237   00   1    -4.89829433E-04   # C11 nu_2 nu_2
 03051414 4137   00   1    -3.31400427E-04   # C11' nu_2 nu_2
 03051616 4237   00   0     1.49019528E+00   # C11 nu_3 nu_3
 03051616 4237   00   1    -4.89798367E-04   # C11 nu_3 nu_3
 03051616 4137   00   1    -3.30678950E-04   # C11' nu_3 nu_3
