#
#                              ======================
#                              | THE SUSYHIT OUTPUT |
#                              ======================
#
#
#              ------------------------------------------------------
#              |     This is the output of the SUSY-HIT package     |
#              |  created by A.Djouadi, M.Muehlleitner and M.Spira. |
#              |  In case of problems with SUSY-HIT email to        |
#              |           margarete.muehlleitner@cern.ch           |
#              |           michael.spira@psi.ch                     |
#              |           abdelhak.djouadi@cern.ch                 |
#              ------------------------------------------------------
#
#              ------------------------------------------------------
#              |  SUSY Les Houches Accord - MSSM Spectrum + Decays  |
#              |              based on the decay programs           |
#              |                                                    |
#              |                     SDECAY 1.3b                    |
#              |                                                    |
#              |  Authors: M.Muhlleitner, A.Djouadi and Y.Mambrini  |
#              |  Ref.:    Comput.Phys.Commun.168(2005)46           |
#              |           [hep-ph/0311167]                         |
#              |                                                    |
#              |                     HDECAY 3.4                     |
#              |                                                    |
#              |  By: A.Djouadi,J.Kalinowski,M.Muhlleitner,M.Spira  |
#              |  Ref.:    Comput.Phys.Commun.108(1998)56           |
#              |           [hep-ph/9704448]                         |
#              |                                                    |
#              |                                                    |
#              |  If not stated otherwise all DRbar couplings and   |
#              |  soft SUSY breaking masses are given at the scale  |
#              |  Q=  0.91187600E+02
#              |                                                    |
#              ------------------------------------------------------
#
#
BLOCK DCINFO  # Decay Program information
     1   SDECAY/HDECAY # decay calculator
     2   1.3b  /3.4    # version number
#
BLOCK SPINFO  # Spectrum calculator information
     1   SuSpect     # RGE +Spectrum calculator            
     2   2.41         # version number                     
#
BLOCK MODSEL  # Model selection
     1     0   # #general MSSM low scale                           
#
BLOCK SMINPUTS  # Standard Model inputs
         1     1.27934000E+02   # alpha_em^-1(M_Z)^MSbar
         2     1.16639000E-05   # G_F [GeV^-2]
         3     1.17200000E-01   # alpha_S(M_Z)^MSbar
         4     9.11870000E+01   # M_Z pole mass
         5     4.25000000E+00   # mb(mb)^MSbar
         6     1.72500000E+02   # mt pole mass
         7     1.77700000E+00   # mtau pole mass
#
BLOCK MINPAR  # Input parameters - minimal models
#
BLOCK EXTPAR  # Input parameters - non-minimal models
         0     9.11876000E+01   # EWSB                
         1     1.70000000E+03   # M_1                 
         2     1.00000000E+05   # M_2                 
         3     1.00000000E+05   # M_3                 
        11     0.00000000E+00   # A_t                 
        12     0.00000000E+00   # A_b                 
        13     0.00000000E+00   # A_tau               
        14     0.00000000E+00   # A_u                 
        15     0.00000000E+00   # A_d                 
        16     0.00000000E+00   # A_e                 
        23     3.50000000E+03   # mu(EWSB)            
        25     1.50000000E+00   # tanbeta(in)         
        26     2.00000000E+03   # MA_pole             
        31     1.00000000E+05   # M_eL                
        32     1.00000000E+05   # M_muL               
        33     1.00000000E+05   # M_tauL              
        34     1.00000000E+05   # M_eR                
        35     1.00000000E+05   # M_muR               
        36     1.00000000E+05   # M_tauR              
        41     1.90000000E+03   # M_q1L               
        42     1.90000000E+03   # M_q2L               
        43     1.90000000E+03   # M_q3L               
        44     1.00000000E+05   # M_uR                
        45     1.00000000E+05   # M_cR                
        46     1.00000000E+05   # M_tR                
        47     1.90000000E+03   # M_dR                
        48     1.90000000E+03   # M_sR                
        49     1.90000000E+03   # M_bR                
#
BLOCK MASS  # Mass Spectrum
# PDG code           mass       particle
        24     8.05842164E+01   # W+
        25     1.25000000E+02   # h
        35     2.00404478E+03   # H
        36     2.00000000E+03   # A
        37     2.02368845E+03   # H+
         5     4.87877839E+00   # b-quark pole mass calculated from mb(mb)_Msbar
   1000001     1.90034911E+03   # ~d_L
   2000001     1.90006734E+03   # ~d_R
   1000002     1.89971818E+03   # ~u_L
   2000002     9.99999974E+04   # ~u_R
   1000003     1.90034911E+03   # ~s_L
   2000003     1.90006734E+03   # ~s_R
   1000004     1.89971818E+03   # ~c_L
   2000004     9.99999974E+04   # ~c_R
   1000005     1.89663083E+03   # ~b_1
   2000005     1.90378242E+03   # ~b_2
   1000006     1.90543219E+03   # ~t_1
   2000006     1.00000106E+05   # ~t_2
   1000011     1.00000004E+05   # ~e_L
   2000011     1.00000004E+05   # ~e_R
   1000012     9.99999921E+04   # ~nu_eL
   1000013     1.00000004E+05   # ~mu_L
   2000013     1.00000004E+05   # ~mu_R
   1000014     9.99999921E+04   # ~nu_muL
   1000015     9.99999574E+04   # ~tau_1
   2000015     1.00000051E+05   # ~tau_2
   1000016     9.99999921E+04   # ~nu_tauL
   1000021     1.00000000E+05   # ~g
   1000022     1.69894908E+03   # ~chi_10
   1000023    -3.50001708E+03   # ~chi_20
   1000025     3.50100357E+03   # ~chi_30
   1000035     1.00000064E+05   # ~chi_40
   1000024     3.49994020E+03   # ~chi_1+
   1000037     1.00000064E+05   # ~chi_2+
   1000039     1.00000000E-09   # ~gravitino
#
BLOCK NMIX  # Neutralino Mixing Matrix
  1  1     9.99702851E-01   # N_11
  1  2    -1.88870900E-05   # N_12
  1  3     1.83868898E-02   # N_13
  1  4    -1.60041039E-02   # N_14
  2  1     1.68508285E-03   # N_21
  2  2    -1.49612858E-04   # N_22
  2  3    -7.07097142E-01   # N_23
  2  4    -7.07114397E-01   # N_24
  3  1     2.43180984E-02   # N_31
  3  2     8.02056018E-04   # N_32
  3  3    -7.06877175E-01   # N_33
  3  4     7.06917708E-01   # N_34
  4  1     3.70889529E-07   # N_41
  4  2    -9.99999667E-01   # N_42
  4  3    -4.61511696E-04   # N_43
  4  4     6.73083503E-04   # N_44
#
BLOCK UMIX  # Chargino Mixing Matrix U
  1  1    -6.52675892E-04   # U_11
  1  2     9.99999787E-01   # U_12
  2  1     9.99999787E-01   # U_21
  2  2     6.52675892E-04   # U_22
#
BLOCK VMIX  # Chargino Mixing Matrix V
  1  1    -9.51883727E-04   # V_11
  1  2     9.99999547E-01   # V_12
  2  1     9.99999547E-01   # V_21
  2  2     9.51883727E-04   # V_22
#
BLOCK STOPMIX  # Stop Mixing Matrix
  1  1     9.99999999E-01   # cos(theta_t)
  1  2     4.47213589E-05   # sin(theta_t)
  2  1    -4.47213589E-05   # -sin(theta_t)
  2  2     9.99999999E-01   # cos(theta_t)
#
BLOCK SBOTMIX  # Sbottom Mixing Matrix
  1  1     6.93037210E-01   # cos(theta_b)
  1  2     7.20901814E-01   # sin(theta_b)
  2  1    -7.20901814E-01   # -sin(theta_b)
  2  2     6.93037210E-01   # cos(theta_b)
#
BLOCK STAUMIX  # Stau Mixing Matrix
  1  1     7.06210054E-01   # cos(theta_tau)
  1  2     7.08002373E-01   # sin(theta_tau)
  2  1    -7.08002373E-01   # -sin(theta_tau)
  2  2     7.06210054E-01   # cos(theta_tau)
#
BLOCK ALPHA  # Higgs mixing
          -5.90331630E-01   # Mixing angle in the neutral Higgs boson sector
#
BLOCK HMIX Q=  9.11876000E+01  # DRbar Higgs Parameters
         1     3.50000000E+03   # mu(Q)               
         2     1.49999982E+00   # tanbeta(Q)          
         3     2.54887073E+02   # vev(Q)              
         4    -6.81545188E+07   # MA^2(Q)             
#
BLOCK GAUGE Q=  9.11876000E+01  # The gauge couplings
     1     3.50565467E-01   # gprime(Q) DRbar
     2     6.19515885E-01   # g(Q) DRbar
     3     1.02270767E+00   # g3(Q) DRbar
#
BLOCK AU Q=  9.11876000E+01  # The trilinear couplings
  1  1     0.00000000E+00   # A_u(Q) DRbar
  2  2     0.00000000E+00   # A_c(Q) DRbar
  3  3     0.00000000E+00   # A_t(Q) DRbar
#
BLOCK AD Q=  9.11876000E+01  # The trilinear couplings
  1  1     0.00000000E+00   # A_d(Q) DRbar
  2  2     0.00000000E+00   # A_s(Q) DRbar
  3  3     0.00000000E+00   # A_b(Q) DRbar
#
BLOCK AE Q=  9.11876000E+01  # The trilinear couplings
  1  1     0.00000000E+00   # A_e(Q) DRbar
  2  2     0.00000000E+00   # A_mu(Q) DRbar
  3  3     0.00000000E+00   # A_tau(Q) DRbar
#
BLOCK Yu Q=  9.11876000E+01  # The Yukawa couplings
  1  1     0.00000000E+00   # y_u(Q) DRbar
  2  2     0.00000000E+00   # y_c(Q) DRbar
  3  3     9.83540356E-01   # y_t(Q) DRbar
#
BLOCK Yd Q=  9.11876000E+01  # The Yukawa couplings
  1  1     0.00000000E+00   # y_d(Q) DRbar
  2  2     0.00000000E+00   # y_s(Q) DRbar
  3  3     2.58711333E-02   # y_b(Q) DRbar
#
BLOCK Ye Q=  9.11876000E+01  # The Yukawa couplings
  1  1     0.00000000E+00   # y_e(Q) DRbar
  2  2     0.00000000E+00   # y_mu(Q) DRbar
  3  3     1.77389482E-02   # y_tau(Q) DRbar
#
BLOCK MSOFT Q=  9.11876000E+01  # The soft SUSY breaking masses at the scale Q
         1     1.70000000E+03   # M_1                 
         2     1.00000000E+05   # M_2                 
         3     1.00000000E+05   # M_3                 
        14     0.00000000E+00   # A_u                 
        15     0.00000000E+00   # A_d                 
        16     0.00000000E+00   # A_e                 
        21     6.30423291E+08   # M^2_Hd              
        22    -1.14998965E+09   # M^2_Hu              
        31     1.00000000E+05   # M_eL                
        32     1.00000000E+05   # M_muL               
        33     1.00000000E+05   # M_tauL              
        34     1.00000000E+05   # M_eR                
        35     1.00000000E+05   # M_muR               
        36     1.00000000E+05   # M_tauR              
        41     1.90000000E+03   # M_q1L               
        42     1.90000000E+03   # M_q2L               
        43     1.90000000E+03   # M_q3L               
        44     1.00000000E+05   # M_uR                
        45     1.00000000E+05   # M_cR                
        46     1.00000000E+05   # M_tR                
        47     1.90000000E+03   # M_dR                
        48     1.90000000E+03   # M_sR                
        49     1.90000000E+03   # M_bR                
#
#
#
#                             =================
#                             |The decay table|
#                             =================
#
# - The QCD corrections to the decays gluino -> squark  + quark
#                                     squark -> gaugino + quark_prime
#                                     squark -> squark_prime + Higgs
#                                     squark -> gluino  + quark
#   are included.
#
# - The multi-body decays for the inos, stops and sbottoms are included.
#
# - The loop induced decays for the gluino, neutralinos and stops
#   are included.
#
# - The SUSY decays of the top quark are included.
#
# - Possible decays of the NLSP in GMSB models are included.
#
#
#         PDG            Width
DECAY         6     1.32462225E+00   # top decays
#          BR         NDA      ID1       ID2
     1.00000000E+00    2           5        24   # BR(t ->  b    W+)
#
#         PDG            Width
DECAY   1000021     1.E-04   # gluino decays (OJ Mods)
#          BR         NDA      ID1       ID2
    -1.89989348E-03    2     1000001        -1   # BR(~g -> ~d_L  db)
    -1.89989348E-03    2    -1000001         1   # BR(~g -> ~d_L* d )
    -1.89989388E-03    2     2000001        -1   # BR(~g -> ~d_R  db)
    -1.89989388E-03    2    -2000001         1   # BR(~g -> ~d_R* d )
    -1.89989439E-03    2     1000002        -2   # BR(~g -> ~u_L  ub)
    -1.89989439E-03    2    -1000002         2   # BR(~g -> ~u_L* u )
    -5.14102436E-18    2     2000002        -2   # BR(~g -> ~u_R  ub)
    -5.14102436E-18    2    -2000002         2   # BR(~g -> ~u_R* u )
    -1.89989348E-03    2     1000003        -3   # BR(~g -> ~s_L  sb)
    -1.89989348E-03    2    -1000003         3   # BR(~g -> ~s_L* s )
    -1.89989388E-03    2     2000003        -3   # BR(~g -> ~s_R  sb)
    -1.89989388E-03    2    -2000003         3   # BR(~g -> ~s_R* s )
    -1.89989439E-03    2     1000004        -4   # BR(~g -> ~c_L  cb)
    -1.89989439E-03    2    -1000004         4   # BR(~g -> ~c_L* c )
    -5.14102436E-18    2     2000004        -4   # BR(~g -> ~c_R  cb)
    -5.14102436E-18    2    -2000004         4   # BR(~g -> ~c_R* c )
     2.69766624E-01    2     1000005        -5   # BR(~g -> ~b_1  bb)
     2.69766624E-01    2    -1000005         5   # BR(~g -> ~b_1* b )
     2.70176865E-01    2     2000005        -5   # BR(~g -> ~b_2  bb)
     2.70176865E-01    2    -2000005         5   # BR(~g -> ~b_2* b )
    -1.86988329E-03    2     1000006        -6   # BR(~g -> ~t_1  tb)
    -1.86988329E-03    2    -1000006         6   # BR(~g -> ~t_1* t )
    -5.33484849E-02    2     1000039        21   # BR(~g -> ~G g)
#
#         PDG            Width
DECAY   1000006     9.00343483E-03   # stop1 decays
#          BR         NDA      ID1       ID2
     1.00000000E+00    2     1000022         6   # BR(~t_1 -> ~chi_10 t )
#
#         PDG            Width
DECAY   2000006    -1.07945046E+05   # stop2 decays
#          BR         NDA      ID1       ID2
    -1.93179618E-03    2     1000022         6   # BR(~t_2 -> ~chi_10 t )
    -4.64367741E-03    2     1000023         6   # BR(~t_2 -> ~chi_20 t )
    -4.64211453E-03    2     1000025         6   # BR(~t_2 -> ~chi_30 t )
     1.01105988E+00    2     1000024         5   # BR(~t_2 -> ~chi_1+ b )
     1.25507255E-04    2     1000006        25   # BR(~t_2 -> ~t_1    h )
    -1.31467590E-04    2     1000006        35   # BR(~t_2 -> ~t_1    H )
    -1.31234539E-04    2     1000006        36   # BR(~t_2 -> ~t_1    A )
    -1.23637017E-04    2     1000005        37   # BR(~t_2 -> ~b_1    H+)
    -1.38830512E-04    2     2000005        37   # BR(~t_2 -> ~b_2    H+)
     8.92804544E-05    2     1000006        23   # BR(~t_2 -> ~t_1    Z )
     2.24827780E-04    2     1000005        24   # BR(~t_2 -> ~b_1    W+)
     2.43260549E-04    2     2000005        24   # BR(~t_2 -> ~b_2    W+)
#
#         PDG            Width
DECAY   1000005    -1.37837885E+00   # sbottom1 decays
#          BR         NDA      ID1       ID2
     1.00000000E+00    2     1000022         5   # BR(~b_1 -> ~chi_10 b )
#
#         PDG            Width
DECAY   2000005    -1.45623847E+00   # sbottom2 decays
#          BR         NDA      ID1       ID2
     1.00000000E+00    2     1000022         5   # BR(~b_2 -> ~chi_10 b )
#
#         PDG            Width
DECAY   1000002     1.57482019E-02   # sup_L decays
#          BR         NDA      ID1       ID2
     1.00000000E+00    2     1000022         2   # BR(~u_L -> ~chi_10 u)
#
#         PDG            Width
DECAY   2000002     2.08383411E+02   # sup_R decays
#          BR         NDA      ID1       ID2
     9.99406408E-01    2     1000022         2   # BR(~u_R -> ~chi_10 u)
     2.83655661E-06    2     1000023         2   # BR(~u_R -> ~chi_20 u)
     5.90755509E-04    2     1000025         2   # BR(~u_R -> ~chi_30 u)
#
#         PDG            Width
DECAY   1000001     1.58325397E-02   # sdown_L decays
#          BR         NDA      ID1       ID2
     1.00000000E+00    2     1000022         1   # BR(~d_L -> ~chi_10 d)
#
#         PDG            Width
DECAY   2000001     6.31780488E-02   # sdown_R decays
#          BR         NDA      ID1       ID2
     1.00000000E+00    2     1000022         1   # BR(~d_R -> ~chi_10 d)
#
#         PDG            Width
DECAY   1000004     1.57482019E-02   # scharm_L decays
#          BR         NDA      ID1       ID2
     1.00000000E+00    2     1000022         4   # BR(~c_L -> ~chi_10 c)
#
#         PDG            Width
DECAY   2000004     2.08383411E+02   # scharm_R decays
#          BR         NDA      ID1       ID2
     9.99406408E-01    2     1000022         4   # BR(~c_R -> ~chi_10 c)
     2.83655661E-06    2     1000023         4   # BR(~c_R -> ~chi_20 c)
     5.90755509E-04    2     1000025         4   # BR(~c_R -> ~chi_30 c)
#
#         PDG            Width
DECAY   1000003     1.58325397E-02   # sstrange_L decays
#          BR         NDA      ID1       ID2
     1.00000000E+00    2     1000022         3   # BR(~s_L -> ~chi_10 s)
#
#         PDG            Width
DECAY   2000003     6.31780488E-02   # sstrange_R decays
#          BR         NDA      ID1       ID2
     1.00000000E+00    2     1000022         3   # BR(~s_R -> ~chi_10 s)
#
#         PDG            Width
DECAY   1000011     1.22177088E+02   # selectron_L decays
#          BR         NDA      ID1       ID2
     9.99334259E-01    2     1000022        11   # BR(~e_L -> ~chi_10 e-)
     2.01456686E-06    2     1000023        11   # BR(~e_L -> ~chi_20 e-)
     6.61070928E-04    2     1000025        11   # BR(~e_L -> ~chi_30 e-)
     2.65568030E-06    2    -1000024        12   # BR(~e_L -> ~chi_1- nu_e)
#
#         PDG            Width
DECAY   2000011     4.88705461E+02   # selectron_R decays
#          BR         NDA      ID1       ID2
     9.99406903E-01    2     1000022        11   # BR(~e_R -> ~chi_10 e-)
     2.83419068E-06    2     1000023        11   # BR(~e_R -> ~chi_20 e-)
     5.90262469E-04    2     1000025        11   # BR(~e_R -> ~chi_30 e-)
#
#         PDG            Width
DECAY   1000013     1.22177088E+02   # smuon_L decays
#          BR         NDA      ID1       ID2
     9.99334259E-01    2     1000022        13   # BR(~mu_L -> ~chi_10 mu-)
     2.01456686E-06    2     1000023        13   # BR(~mu_L -> ~chi_20 mu-)
     6.61070928E-04    2     1000025        13   # BR(~mu_L -> ~chi_30 mu-)
     2.65568030E-06    2    -1000024        14   # BR(~mu_L -> ~chi_1- nu_mu)
#
#         PDG            Width
DECAY   2000013     4.88705461E+02   # smuon_R decays
#          BR         NDA      ID1       ID2
     9.99406903E-01    2     1000022        13   # BR(~mu_R -> ~chi_10 mu-)
     2.83419068E-06    2     1000023        13   # BR(~mu_R -> ~chi_20 mu-)
     5.90262469E-04    2     1000025        13   # BR(~mu_R -> ~chi_30 mu-)
#
#         PDG            Width
DECAY   1000015     1.18197848E+04   # stau_1 decays
#          BR         NDA      ID1       ID2
     2.58787172E-02    2     1000022        15   # BR(~tau_1 -> ~chi_10  tau-)
     2.54675797E-05    2     1000023        15   # BR(~tau_1 -> ~chi_20  tau-)
     3.00895185E-05    2     1000025        15   # BR(~tau_1 -> ~chi_30  tau-)
     2.77018094E-05    2    -1000024        16   # BR(~tau_1 -> ~chi_1-  nu_tau)
     9.74038024E-01    2     1000039        15   # BR(~tau_1 -> ~G       tau-)
#
#         PDG            Width
DECAY   2000015     3.05891028E+02   # stau_2 decays
#          BR         NDA      ID1       ID2
     9.95880514E-01    2     1000022        15   # BR(~tau_2 -> ~chi_10  tau-)
     1.06272064E-03    2     1000023        15   # BR(~tau_2 -> ~chi_20  tau-)
     2.08459386E-03    2     1000025        15   # BR(~tau_2 -> ~chi_30  tau-)
     9.72171930E-04    2    -1000024        16   # BR(~tau_2 -> ~chi_1-  nu_tau)
#
#         PDG            Width
DECAY   1000012     1.22177150E+02   # snu_eL decays
#          BR         NDA      ID1       ID2
     9.99467101E-01    2     1000022        12   # BR(~nu_eL -> ~chi_10 nu_e)
     3.79332492E-06    2     1000023        12   # BR(~nu_eL -> ~chi_20 nu_e)
     5.23457114E-04    2     1000025        12   # BR(~nu_eL -> ~chi_30 nu_e)
     5.64869572E-06    2     1000024        11   # BR(~nu_eL -> ~chi_1+ e-)
#
#         PDG            Width
DECAY   1000014     1.22177150E+02   # snu_muL decays
#          BR         NDA      ID1       ID2
     9.99467101E-01    2     1000022        14   # BR(~nu_muL -> ~chi_10 nu_mu)
     3.79332492E-06    2     1000023        14   # BR(~nu_muL -> ~chi_20 nu_mu)
     5.23457114E-04    2     1000025        14   # BR(~nu_muL -> ~chi_30 nu_mu)
     5.64869572E-06    2     1000024        13   # BR(~nu_muL -> ~chi_1+ mu-)
#
#         PDG            Width
DECAY   1000016     1.22801633E+02   # snu_tauL decays
#          BR         NDA      ID1       ID2
     9.94384508E-01    2     1000022        16   # BR(~nu_tauL -> ~chi_10 nu_tau)
     3.77403471E-06    2     1000023        16   # BR(~nu_tauL -> ~chi_20 nu_tau)
     5.20795176E-04    2     1000025        16   # BR(~nu_tauL -> ~chi_30 nu_tau)
     5.09092302E-03    2     1000024        15   # BR(~nu_tauL -> ~chi_1+ tau-)
#
#         PDG            Width
DECAY   1000024     4.46009235E+01   # chargino1+ decays
#          BR         NDA      ID1       ID2
     4.86360103E-07    2     1000002        -1   # BR(~chi_1+ -> ~u_L     db)
     2.28537406E-07    2    -1000001         2   # BR(~chi_1+ -> ~d_L*    u )
     4.86360103E-07    2     1000004        -3   # BR(~chi_1+ -> ~c_L     sb)
     2.28537406E-07    2    -1000003         4   # BR(~chi_1+ -> ~s_L*    c )
    -4.24014808E-02    2     1000006        -5   # BR(~chi_1+ -> ~t_1     bb)
     1.02382147E-01    2    -1000005         6   # BR(~chi_1+ -> ~b_1*    t )
     8.65224857E-01    2    -2000005         6   # BR(~chi_1+ -> ~b_2*    t )
     7.47849518E-02    2     1000022        24   # BR(~chi_1+ -> ~chi_10  W+)
     6.76438262E-06    2     1000039        24   # BR(~chi_1+ -> ~G       W+)
     1.33096464E-06    2     1000039        37   # BR(~chi_1+ -> ~G       H+)
#
#         PDG            Width
DECAY   1000037    -5.71967499E+04   # chargino2+ decays
#          BR         NDA      ID1       ID2
    -2.40372385E-02    2     1000002        -1   # BR(~chi_2+ -> ~u_L     db)
    -2.40372449E-02    2    -1000001         2   # BR(~chi_2+ -> ~d_L*    u )
    -2.40372385E-02    2     1000004        -3   # BR(~chi_2+ -> ~c_L     sb)
    -2.40372449E-02    2    -1000003         4   # BR(~chi_2+ -> ~s_L*    c )
     1.40924037E+00    2     1000006        -5   # BR(~chi_2+ -> ~t_1     bb)
    -5.29639315E-03    2    -1000005         6   # BR(~chi_2+ -> ~b_1*    t )
    -2.27689902E-02    2    -2000005         6   # BR(~chi_2+ -> ~b_2*    t )
    -1.72806325E-14    2     1000012       -11   # BR(~chi_2+ -> ~nu_eL   e+  )
    -1.72806325E-14    2     1000014       -13   # BR(~chi_2+ -> ~nu_muL  mu+ )
    -1.20338506E-14    2    -1000011        12   # BR(~chi_2+ -> ~e_L+    nu_e)
    -1.20338506E-14    2    -1000013        14   # BR(~chi_2+ -> ~mu_L+   nu_mu)
    -1.89438322E-14    2    -1000015        16   # BR(~chi_2+ -> ~tau_1+  nu_tau)
    -2.83187865E-16    2    -2000015        16   # BR(~chi_2+ -> ~tau_2+  nu_tau)
    -4.40240175E-03    2     1000024        23   # BR(~chi_2+ -> ~chi_1+  Z )
    -2.23778263E-06    2     1000022        24   # BR(~chi_2+ -> ~chi_10  W+)
    -4.26987856E-03    2     1000023        24   # BR(~chi_2+ -> ~chi_20  W+)
    -4.26759596E-03    2     1000025        24   # BR(~chi_2+ -> ~chi_30  W+)
    -4.44857490E-03    2     1000024        25   # BR(~chi_2+ -> ~chi_1+  h )
    -3.90499633E-03    2     1000024        35   # BR(~chi_2+ -> ~chi_1+  H )
    -3.90552079E-03    2     1000024        36   # BR(~chi_2+ -> ~chi_1+  A )
    -2.45219374E-06    2     1000022        37   # BR(~chi_2+ -> ~chi_10  H+)
    -3.90539593E-03    2     1000023        37   # BR(~chi_2+ -> ~chi_20  H+)
    -3.90304954E-03    2     1000025        37   # BR(~chi_2+ -> ~chi_30  H+)
    -2.52013840E-01    2     1000039        24   # BR(~chi_2+ -> ~G       W+)
    -7.21730220E-08    2     1000039        37   # BR(~chi_2+ -> ~G       H+)
#
#         PDG            Width
DECAY   1000022     1.E-08   # neutralino1 decays (OJ Mods)
#          BR         NDA      ID1       ID2
     7.59341776E-01    2     1000039        22   # BR(~chi_10 -> ~G        gam)
     2.40653627E-01    2     1000039        23   # BR(~chi_10 -> ~G        Z)
     4.59755970E-06    2     1000039        25   # BR(~chi_10 -> ~G        h)
#
#         PDG            Width
DECAY   1000023     1.E-08   # neutralino2 decays (OJ Mods)
#          BR         NDA      ID1       ID2
     8.02310632E-02    2     1000022        23   # BR(~chi_20 -> ~chi_10   Z )
     3.78780196E-04    2     1000022        25   # BR(~chi_20 -> ~chi_10   h )
     9.27383622E-09    2     1000002        -2   # BR(~chi_20 -> ~u_L      ub)
     9.27383622E-09    2    -1000002         2   # BR(~chi_20 -> ~u_L*     u )
     7.15656459E-08    2     1000001        -1   # BR(~chi_20 -> ~d_L      db)
     7.15656459E-08    2    -1000001         1   # BR(~chi_20 -> ~d_L*     d )
     1.32375899E-07    2     2000001        -1   # BR(~chi_20 -> ~d_R      db)
     1.32375899E-07    2    -2000001         1   # BR(~chi_20 -> ~d_R*     d )
     9.27383622E-09    2     1000004        -4   # BR(~chi_20 -> ~c_L      cb)
     9.27383622E-09    2    -1000004         4   # BR(~chi_20 -> ~c_L*     c )
     7.15656459E-08    2     1000003        -3   # BR(~chi_20 -> ~s_L      sb)
     7.15656459E-08    2    -1000003         3   # BR(~chi_20 -> ~s_L*     s )
     1.32375899E-07    2     2000003        -3   # BR(~chi_20 -> ~s_R      sb)
     1.32375899E-07    2    -2000003         3   # BR(~chi_20 -> ~s_R*     s )
     5.05000159E-01    2     1000006        -6   # BR(~chi_20 -> ~t_1      tb)
     5.05000159E-01    2    -1000006         6   # BR(~chi_20 -> ~t_1*     t )
    -2.20572198E-02    2     1000005        -5   # BR(~chi_20 -> ~b_1      bb)
    -2.20572198E-02    2    -1000005         5   # BR(~chi_20 -> ~b_1*     b )
    -2.32524866E-02    2     2000005        -5   # BR(~chi_20 -> ~b_2      bb)
    -2.32524866E-02    2    -2000005         5   # BR(~chi_20 -> ~b_2*     b )
     2.75193011E-11    2     1000039        22   # BR(~chi_20 -> ~G        gam)
     2.72082596E-07    2     1000039        23   # BR(~chi_20 -> ~G        Z)
     6.79100140E-06    2     1000039        25   # BR(~chi_20 -> ~G        h)
     5.43804347E-08    2     1000039        35   # BR(~chi_20 -> ~G        H)
     1.40289224E-06    2     1000039        36   # BR(~chi_20 -> ~G        A)
#
#         PDG            Width
DECAY   1000025     4.26111743E+01   # neutralino3 decays
#          BR         NDA      ID1       ID2
     3.87912305E-04    2     1000022        23   # BR(~chi_30 -> ~chi_10   Z )
     8.10691572E-02    2     1000022        25   # BR(~chi_30 -> ~chi_10   h )
     9.52693412E-06    2     1000002        -2   # BR(~chi_30 -> ~u_L      ub)
     9.52693412E-06    2    -1000002         2   # BR(~chi_30 -> ~u_L*     u )
     4.69705382E-06    2     1000001        -1   # BR(~chi_30 -> ~d_L      db)
     4.69705382E-06    2    -1000001         1   # BR(~chi_30 -> ~d_L*     d )
     2.76009003E-05    2     2000001        -1   # BR(~chi_30 -> ~d_R      db)
     2.76009003E-05    2    -2000001         1   # BR(~chi_30 -> ~d_R*     d )
     9.52693412E-06    2     1000004        -4   # BR(~chi_30 -> ~c_L      cb)
     9.52693412E-06    2    -1000004         4   # BR(~chi_30 -> ~c_L*     c )
     4.69705382E-06    2     1000003        -3   # BR(~chi_30 -> ~s_L      sb)
     4.69705382E-06    2    -1000003         3   # BR(~chi_30 -> ~s_L*     s )
     2.76009003E-05    2     2000003        -3   # BR(~chi_30 -> ~s_R      sb)
     2.76009003E-05    2    -2000003         3   # BR(~chi_30 -> ~s_R*     s )
     5.05678715E-01    2     1000006        -6   # BR(~chi_30 -> ~t_1      tb)
     5.05678715E-01    2    -1000006         6   # BR(~chi_30 -> ~t_1*     t )
    -1.64796124E-02    2     1000005        -5   # BR(~chi_30 -> ~b_1      bb)
    -1.64796124E-02    2    -1000005         5   # BR(~chi_30 -> ~b_1*     b )
    -3.00035925E-02    2     2000005        -5   # BR(~chi_30 -> ~b_2      bb)
    -3.00035925E-02    2    -2000005         5   # BR(~chi_30 -> ~b_2*     b )
     6.60541304E-09    2     1000039        22   # BR(~chi_30 -> ~G        gam)
     6.81149596E-06    2     1000039        23   # BR(~chi_30 -> ~G        Z)
     2.65518612E-07    2     1000039        25   # BR(~chi_30 -> ~G        h)
     1.39650395E-06    2     1000039        35   # BR(~chi_30 -> ~G        H)
     5.62329484E-08    2     1000039        36   # BR(~chi_30 -> ~G        A)
#
#         PDG            Width
DECAY   1000035    -5.71970379E+04   # neutralino4 decays
#          BR         NDA      ID1       ID2
    -3.46490121E-08    2     1000022        23   # BR(~chi_40 -> ~chi_10   Z )
    -4.25444837E-03    2     1000023        23   # BR(~chi_40 -> ~chi_20   Z )
    -1.47894434E-04    2     1000025        23   # BR(~chi_40 -> ~chi_30   Z )
    -4.26982532E-03    2     1000024       -24   # BR(~chi_40 -> ~chi_1+   W-)
    -4.26982532E-03    2    -1000024        24   # BR(~chi_40 -> ~chi_1-   W+)
    -2.29911759E-06    2     1000022        25   # BR(~chi_40 -> ~chi_10   h )
    -1.74706172E-07    2     1000022        35   # BR(~chi_40 -> ~chi_10   H )
    -2.27455180E-06    2     1000022        36   # BR(~chi_40 -> ~chi_10   A )
    -1.46025758E-04    2     1000023        25   # BR(~chi_40 -> ~chi_20   h )
    -3.73710643E-03    2     1000023        35   # BR(~chi_40 -> ~chi_20   H )
    -1.71790068E-04    2     1000023        36   # BR(~chi_40 -> ~chi_20   A )
    -4.30022651E-03    2     1000025        25   # BR(~chi_40 -> ~chi_30   h )
    -1.67685750E-04    2     1000025        35   # BR(~chi_40 -> ~chi_30   H )
    -3.73143146E-03    2     1000025        36   # BR(~chi_40 -> ~chi_30   A )
    -3.90542660E-03    2     1000024       -37   # BR(~chi_40 -> ~chi_1+   H-)
    -3.90542660E-03    2    -1000024        37   # BR(~chi_40 -> ~chi_1-   H+)
    -1.15109346E-02    2     1000002        -2   # BR(~chi_40 -> ~u_L      ub)
    -1.15109346E-02    2    -1000002         2   # BR(~chi_40 -> ~u_L*     u )
    -1.84750822E-22    2     2000002        -2   # BR(~chi_40 -> ~u_R      ub)
    -1.84750822E-22    2    -2000002         2   # BR(~chi_40 -> ~u_R*     u )
    -1.15109386E-02    2     1000001        -1   # BR(~chi_40 -> ~d_L      db)
    -1.15109386E-02    2    -1000001         1   # BR(~chi_40 -> ~d_L*     d )
    -2.25346570E-16    2     2000001        -1   # BR(~chi_40 -> ~d_R      db)
    -2.25346570E-16    2    -2000001         1   # BR(~chi_40 -> ~d_R*     d )
    -1.15109346E-02    2     1000004        -4   # BR(~chi_40 -> ~c_L      cb)
    -1.15109346E-02    2    -1000004         4   # BR(~chi_40 -> ~c_L*     c )
    -1.84750822E-22    2     2000004        -4   # BR(~chi_40 -> ~c_R      cb)
    -1.84750822E-22    2    -2000004         4   # BR(~chi_40 -> ~c_R*     c )
    -1.15109386E-02    2     1000003        -3   # BR(~chi_40 -> ~s_L      sb)
    -1.15109386E-02    2    -1000003         3   # BR(~chi_40 -> ~s_L*     s )
    -2.25346570E-16    2     2000003        -3   # BR(~chi_40 -> ~s_R      sb)
    -2.25346570E-16    2    -2000003         3   # BR(~chi_40 -> ~s_R*     s )
    -1.40326384E-02    2     1000006        -6   # BR(~chi_40 -> ~t_1      tb)
    -1.40326384E-02    2    -1000006         6   # BR(~chi_40 -> ~t_1*     t )
     3.42501997E-01    2     1000005        -5   # BR(~chi_40 -> ~b_1      bb)
     3.42501997E-01    2    -1000005         5   # BR(~chi_40 -> ~b_1*     b )
     3.62116926E-01    2     2000005        -5   # BR(~chi_40 -> ~b_2      bb)
     3.62116926E-01    2    -2000005         5   # BR(~chi_40 -> ~b_2*     b )
    -6.01688333E-15    2     1000011       -11   # BR(~chi_40 -> ~e_L-     e+)
    -6.01688333E-15    2    -1000011        11   # BR(~chi_40 -> ~e_L+     e-)
    -1.06011889E-27    2     2000011       -11   # BR(~chi_40 -> ~e_R-     e+)
    -1.06011889E-27    2    -2000011        11   # BR(~chi_40 -> ~e_R+     e-)
    -6.01688333E-15    2     1000013       -13   # BR(~chi_40 -> ~mu_L-    mu+)
    -6.01688333E-15    2    -1000013        13   # BR(~chi_40 -> ~mu_L+    mu-)
    -1.06011889E-27    2     2000013       -13   # BR(~chi_40 -> ~mu_R-    mu+)
    -1.06011889E-27    2    -2000013        13   # BR(~chi_40 -> ~mu_R+    mu-)
    -8.64026741E-15    2     1000012       -12   # BR(~chi_40 -> ~nu_eL    nu_eb)
    -8.64026741E-15    2    -1000012        12   # BR(~chi_40 -> ~nu_eL*   nu_e )
    -8.64026741E-15    2     1000014       -14   # BR(~chi_40 -> ~nu_muL   nu_mub)
    -8.64026741E-15    2    -1000014        14   # BR(~chi_40 -> ~nu_muL*  nu_mu )
    -8.64026741E-15    2     1000016       -16   # BR(~chi_40 -> ~nu_tau1  nu_taub)
    -8.64026741E-15    2    -1000016        16   # BR(~chi_40 -> ~nu_tau1* nu_tau )
    -6.11241345E-02    2     1000039        22   # BR(~chi_40 -> ~G        gam)
    -1.90888097E-01    2     1000039        23   # BR(~chi_40 -> ~G        Z)
    -1.15130828E-08    2     1000039        25   # BR(~chi_40 -> ~G        h)
    -7.22952410E-08    2     1000039        35   # BR(~chi_40 -> ~G        H)
    -1.42459361E-11    2     1000039        36   # BR(~chi_40 -> ~G        A)
#
#
#
#
