#
#                              ======================
#                              | THE SUSYHIT OUTPUT |
#                              ======================
#
#
#              ------------------------------------------------------
#              |     This is the output of the SUSY-HIT package     |
#              |  created by A.Djouadi, M.Muehlleitner and M.Spira. |
#              |  In case of problems with SUSY-HIT email to        |
#              |           margarete.muehlleitner@cern.ch           |
#              |           michael.spira@psi.ch                     |
#              |           abdelhak.djouadi@cern.ch                 |
#              ------------------------------------------------------
#
#              ------------------------------------------------------
#              |  SUSY Les Houches Accord - MSSM Spectrum + Decays  |
#              |              based on the decay programs           |
#              |                                                    |
#              |                     SDECAY 1.3b                    |
#              |                                                    |
#              |  Authors: M.Muhlleitner, A.Djouadi and Y.Mambrini  |
#              |  Ref.:    Comput.Phys.Commun.168(2005)46           |
#              |           [hep-ph/0311167]                         |
#              |                                                    |
#              |                     HDECAY 3.4                     |
#              |                                                    |
#              |  By: A.Djouadi,J.Kalinowski,M.Muhlleitner,M.Spira  |
#              |  Ref.:    Comput.Phys.Commun.108(1998)56           |
#              |           [hep-ph/9704448]                         |
#              |                                                    |
#              |                                                    |
#              |  If not stated otherwise all DRbar couplings and   |
#              |  soft SUSY breaking masses are given at the scale  |
#              |  Q=  0.91187600E+02
#              |                                                    |
#              ------------------------------------------------------
#
#
BLOCK DCINFO  # Decay Program information
     1   SDECAY/HDECAY # decay calculator
     2   1.3b  /3.4    # version number
#
BLOCK SPINFO  # Spectrum calculator information
     1   SuSpect     # RGE +Spectrum calculator            
     2   2.41         # version number                     
#
BLOCK MODSEL  # Model selection
     1     0   # #general MSSM low scale                           
#
BLOCK SMINPUTS  # Standard Model inputs
         1     1.27934000E+02   # alpha_em^-1(M_Z)^MSbar
         2     1.16639000E-05   # G_F [GeV^-2]
         3     1.17200000E-01   # alpha_S(M_Z)^MSbar
         4     9.11870000E+01   # M_Z pole mass
         5     4.25000000E+00   # mb(mb)^MSbar
         6     1.72500000E+02   # mt pole mass
         7     1.77700000E+00   # mtau pole mass
#
BLOCK MINPAR  # Input parameters - minimal models
#
BLOCK EXTPAR  # Input parameters - non-minimal models
         0     9.11876000E+01   # EWSB                
         1     1.80000000E+03   # M_1                 
         2     1.00000000E+05   # M_2                 
         3     1.90000000E+03   # M_3                 
        11     0.00000000E+00   # A_t                 
        12     0.00000000E+00   # A_b                 
        13     0.00000000E+00   # A_tau               
        14     0.00000000E+00   # A_u                 
        15     0.00000000E+00   # A_d                 
        16     0.00000000E+00   # A_e                 
        23     1.00000000E+05   # mu(EWSB)            
        25     1.50000000E+00   # tanbeta(in)         
        26     2.00000000E+03   # MA_pole             
        31     1.00000000E+05   # M_eL                
        32     1.00000000E+05   # M_muL               
        33     1.00000000E+05   # M_tauL              
        34     1.00000000E+05   # M_eR                
        35     1.00000000E+05   # M_muR               
        36     1.00000000E+05   # M_tauR              
        41     3.00000000E+03   # M_q1L               
        42     3.00000000E+03   # M_q2L               
        43     3.00000000E+03   # M_q3L               
        44     1.00000000E+05   # M_uR                
        45     1.00000000E+05   # M_cR                
        46     1.00000000E+05   # M_tR                
        47     3.00000000E+03   # M_dR                
        48     3.00000000E+03   # M_sR                
        49     3.00000000E+03   # M_bR                
#
BLOCK MASS  # Mass Spectrum
# PDG code           mass       particle
        24     8.06454062E+01   # W+
        25     1.25000000E+02   # h
        35     2.00987831E+03   # H
        36     2.00000000E+03   # A
        37     2.02282408E+03   # H+
         5     4.87877839E+00   # b-quark pole mass calculated from mb(mb)_Msbar
   1000001     3.00021883E+03   # ~d_L
   2000001     3.00004247E+03   # ~d_R
   1000002     2.99982363E+03   # ~u_L
   2000002     9.99999975E+04   # ~u_R
   1000003     3.00021883E+03   # ~s_L
   2000003     3.00004247E+03   # ~s_R
   1000004     2.99982363E+03   # ~c_L
   2000004     9.99999975E+04   # ~c_R
   1000005     2.95023191E+03   # ~b_1
   2000005     3.04921422E+03   # ~b_2
   1000006     3.00183255E+03   # ~t_1
   2000006     1.00000154E+05   # ~t_2
   1000011     1.00000004E+05   # ~e_L
   2000011     1.00000004E+05   # ~e_R
   1000012     9.99999922E+04   # ~nu_eL
   1000013     1.00000004E+05   # ~mu_L
   2000013     1.00000004E+05   # ~mu_R
   1000014     9.99999922E+04   # ~nu_muL
   1000015     9.99986725E+04   # ~tau_1
   2000015     1.00001335E+05   # ~tau_2
   1000016     9.99999922E+04   # ~nu_tauL
   1000021     1.90000000E+03   # ~g
   1000022     1.79998129E+03   # ~chi_10
   1000023     9.99230171E+04   # ~chi_20
   1000025    -1.00000002E+05   # ~chi_30
   1000035     1.00077004E+05   # ~chi_40
   1000024     9.99230080E+04   # ~chi_1+
   1000037     1.00076994E+05   # ~chi_2+
   1000039     6.25000000E-07   # ~gravitino
#
BLOCK NMIX  # Neutralino Mixing Matrix
  1  1     9.99999897E-01   # N_11
  1  2    -3.35578863E-07   # N_12
  1  3     3.75527706E-04   # N_13
  1  4    -2.54062493E-04   # N_14
  2  1     3.15018359E-04   # N_21
  2  2     7.07148744E-01   # N_22
  2  3    -5.00008779E-01   # N_23
  2  4     4.99931771E-01   # N_24
  3  1     8.58887834E-05   # N_31
  3  2    -7.69932230E-05   # N_32
  3  3    -7.07106742E-01   # N_33
  3  4    -7.07106811E-01   # N_34
  4  1     3.14571790E-04   # N_41
  4  2    -7.07064817E-01   # N_42
  4  3    -4.99991131E-01   # N_43
  4  4     5.00068110E-01   # N_44
#
BLOCK UMIX  # Chargino Mixing Matrix U
  1  1    -7.07052337E-01   # U_11
  1  2     7.07161222E-01   # U_12
  2  1     7.07161222E-01   # U_21
  2  2     7.07052337E-01   # U_22
#
BLOCK VMIX  # Chargino Mixing Matrix V
  1  1    -7.07161222E-01   # V_11
  1  2     7.07052337E-01   # V_12
  2  1     7.07052337E-01   # V_21
  2  2     7.07161222E-01   # V_22
#
BLOCK STOPMIX  # Stop Mixing Matrix
  1  1     9.99999517E-01   # cos(theta_t)
  1  2     9.82852871E-04   # sin(theta_t)
  2  1    -9.82852871E-04   # -sin(theta_t)
  2  2     9.99999517E-01   # cos(theta_t)
#
BLOCK SBOTMIX  # Sbottom Mixing Matrix
  1  1     7.06476494E-01   # cos(theta_b)
  1  2     7.07736507E-01   # sin(theta_b)
  2  1    -7.07736507E-01   # -sin(theta_b)
  2  2     7.06476494E-01   # cos(theta_b)
#
BLOCK STAUMIX  # Stau Mixing Matrix
  1  1     7.07080979E-01   # cos(theta_tau)
  1  2     7.07132582E-01   # sin(theta_tau)
  2  1    -7.07132582E-01   # -sin(theta_tau)
  2  2     7.07080979E-01   # cos(theta_tau)
#
BLOCK ALPHA  # Higgs mixing
          -6.39948202E-01   # Mixing angle in the neutral Higgs boson sector
#
BLOCK HMIX Q=  9.11876000E+01  # DRbar Higgs Parameters
         1     1.00000000E+05   # mu(Q)               
         2     1.49999982E+00   # tanbeta(Q)          
         3     2.54923383E+02   # vev(Q)              
         4    -2.18565417E+09   # MA^2(Q)             
#
BLOCK GAUGE Q=  9.11876000E+01  # The gauge couplings
     1     3.49749851E-01   # gprime(Q) DRbar
     2     6.15964666E-01   # g(Q) DRbar
     3     1.07561051E+00   # g3(Q) DRbar
#
BLOCK AU Q=  9.11876000E+01  # The trilinear couplings
  1  1     0.00000000E+00   # A_u(Q) DRbar
  2  2     0.00000000E+00   # A_c(Q) DRbar
  3  3     0.00000000E+00   # A_t(Q) DRbar
#
BLOCK AD Q=  9.11876000E+01  # The trilinear couplings
  1  1     0.00000000E+00   # A_d(Q) DRbar
  2  2     0.00000000E+00   # A_s(Q) DRbar
  3  3     0.00000000E+00   # A_b(Q) DRbar
#
BLOCK AE Q=  9.11876000E+01  # The trilinear couplings
  1  1     0.00000000E+00   # A_e(Q) DRbar
  2  2     0.00000000E+00   # A_mu(Q) DRbar
  3  3     0.00000000E+00   # A_tau(Q) DRbar
#
BLOCK Yu Q=  9.11876000E+01  # The Yukawa couplings
  1  1     0.00000000E+00   # y_u(Q) DRbar
  2  2     0.00000000E+00   # y_c(Q) DRbar
  3  3     9.82497812E-01   # y_t(Q) DRbar
#
BLOCK Yd Q=  9.11876000E+01  # The Yukawa couplings
  1  1     0.00000000E+00   # y_d(Q) DRbar
  2  2     0.00000000E+00   # y_s(Q) DRbar
  3  3     1.97952102E-02   # y_b(Q) DRbar
#
BLOCK Ye Q=  9.11876000E+01  # The Yukawa couplings
  1  1     0.00000000E+00   # y_e(Q) DRbar
  2  2     0.00000000E+00   # y_mu(Q) DRbar
  3  3     1.77527876E-02   # y_tau(Q) DRbar
#
BLOCK MSOFT Q=  9.11876000E+01  # The soft SUSY breaking masses at the scale Q
         1     1.80000000E+03   # M_1                 
         2     1.00000000E+05   # M_2                 
         3     1.90000000E+03   # M_3                 
        14     0.00000000E+00   # A_u                 
        15     0.00000000E+00   # A_d                 
        16     0.00000000E+00   # A_e                 
        21    -1.06397040E+10   # M^2_Hd              
        22    -1.00403905E+10   # M^2_Hu              
        31     1.00000000E+05   # M_eL                
        32     1.00000000E+05   # M_muL               
        33     1.00000000E+05   # M_tauL              
        34     1.00000000E+05   # M_eR                
        35     1.00000000E+05   # M_muR               
        36     1.00000000E+05   # M_tauR              
        41     3.00000000E+03   # M_q1L               
        42     3.00000000E+03   # M_q2L               
        43     3.00000000E+03   # M_q3L               
        44     1.00000000E+05   # M_uR                
        45     1.00000000E+05   # M_cR                
        46     1.00000000E+05   # M_tR                
        47     3.00000000E+03   # M_dR                
        48     3.00000000E+03   # M_sR                
        49     3.00000000E+03   # M_bR                
#
#
#
#                             =================
#                             |The decay table|
#                             =================
#
# - The QCD corrections to the decays gluino -> squark  + quark
#                                     squark -> gaugino + quark_prime
#                                     squark -> squark_prime + Higgs
#                                     squark -> gluino  + quark
#   are included.
#
# - The multi-body decays for the inos, stops and sbottoms are included.
#
# - The loop induced decays for the gluino, neutralinos and stops
#   are included.
#
# - The SUSY decays of the top quark are included.
#
# - Possible decays of the NLSP in GMSB models are included.
#
#
#         PDG            Width
DECAY         6     1.30698753E+00   # top decays
#          BR         NDA      ID1       ID2
     1.00000000E+00    2           5        24   # BR(t ->  b    W+)
#
#         PDG            Width
DECAY   1000021     1.E-04   # gluino decays (OJ Mods)
#          BR         NDA      ID1       ID2
     2.03999596E-02    2     1000022        21   # BR(~g -> ~chi_10 g)
#          BR         NDA      ID1       ID2
     8.93241551E-03    2     1000039        21   # BR(~g -> ~G      g)
#           BR         NDA      ID1       ID2       ID3
     2.88038324E-01    3     1000022         1        -1   # BR(~g -> ~chi_10 d  db)
     5.76392255E-02    3     1000022         2        -2   # BR(~g -> ~chi_10 u  ub)
     2.88038324E-01    3     1000022         3        -3   # BR(~g -> ~chi_10 s  sb)
     5.76392255E-02    3     1000022         4        -4   # BR(~g -> ~chi_10 c  cb)
     2.79312525E-01    3     1000022         5        -5   # BR(~g -> ~chi_10 b  bb)
#
#         PDG            Width
DECAY   1000006     7.04142257E+01   # stop1 decays
#          BR         NDA      ID1       ID2
     2.25737197E-03    2     1000022         6   # BR(~t_1 -> ~chi_10 t )
     9.97742628E-01    2     1000021         6   # BR(~t_1 -> ~g      t )
#
#         PDG            Width
DECAY   2000006     4.84075555E+03   # stop2 decays
#          BR         NDA      ID1       ID2
     4.32786806E-02    2     1000022         6   # BR(~t_2 -> ~chi_10 t )
     3.20512890E-07    2     1000024         5   # BR(~t_2 -> ~chi_1+ b )
     5.58734540E-01    2     1000021         6   # BR(~t_2 -> ~g      t )
     2.45540143E-02    2     1000006        25   # BR(~t_2 -> ~t_1    h )
     4.75064031E-02    2     1000006        35   # BR(~t_2 -> ~t_1    H )
     5.09872295E-02    2     1000006        36   # BR(~t_2 -> ~t_1    A )
     5.07046464E-02    2     1000005        37   # BR(~t_2 -> ~b_1    H+)
     5.12979259E-02    2     2000005        37   # BR(~t_2 -> ~b_2    H+)
     5.71242001E-02    2     1000006        23   # BR(~t_2 -> ~t_1    Z )
     5.76711602E-02    2     1000005        24   # BR(~t_2 -> ~b_1    W+)
     5.81408793E-02    2     2000005        24   # BR(~t_2 -> ~b_2    W+)
#
#         PDG            Width
DECAY   1000005     6.74318052E+01   # sbottom1 decays
#          BR         NDA      ID1       ID2
     5.63393154E-03    2     1000022         5   # BR(~b_1 -> ~chi_10 b )
     9.94366068E-01    2     1000021         5   # BR(~b_1 -> ~g      b )
#
#         PDG            Width
DECAY   2000005     7.49677879E+01   # sbottom2 decays
#          BR         NDA      ID1       ID2
     5.63158632E-03    2     1000022         5   # BR(~b_2 -> ~chi_10 b )
     9.93802187E-01    2     1000021         5   # BR(~b_2 -> ~g      b )
     5.66226204E-04    2     1000005        23   # BR(~b_2 -> ~b_1    Z )
#
#         PDG            Width
DECAY   1000002     4.10203824E+01   # sup_L decays
#          BR         NDA      ID1       ID2
     4.19564721E-03    2     1000022         2   # BR(~u_L -> ~chi_10 u)
     9.95804353E-01    2     1000021         2   # BR(~u_L -> ~g      u)
#
#         PDG            Width
DECAY   2000002     4.00392258E+03   # sup_R decays
#          BR         NDA      ID1       ID2
     5.23355219E-02    2     1000022         2   # BR(~u_R -> ~chi_10 u)
     6.60266913E-13    2     1000023         2   # BR(~u_R -> ~chi_20 u)
     9.47664478E-01    2     1000021         2   # BR(~u_R -> ~g      u)
#
#         PDG            Width
DECAY   1000001     4.10402551E+01   # sdown_L decays
#          BR         NDA      ID1       ID2
     4.19534961E-03    2     1000022         1   # BR(~d_L -> ~chi_10 d)
     9.95804650E-01    2     1000021         1   # BR(~d_L -> ~g      d)
#
#         PDG            Width
DECAY   2000001     4.15478258E+01   # sdown_R decays
#          BR         NDA      ID1       ID2
     1.65733240E-02    2     1000022         1   # BR(~d_R -> ~chi_10 d)
     9.83426676E-01    2     1000021         1   # BR(~d_R -> ~g      d)
#
#         PDG            Width
DECAY   1000004     4.10203824E+01   # scharm_L decays
#          BR         NDA      ID1       ID2
     4.19564721E-03    2     1000022         4   # BR(~c_L -> ~chi_10 c)
     9.95804353E-01    2     1000021         4   # BR(~c_L -> ~g      c)
#
#         PDG            Width
DECAY   2000004     4.00392258E+03   # scharm_R decays
#          BR         NDA      ID1       ID2
     5.23355219E-02    2     1000022         4   # BR(~c_R -> ~chi_10 c)
     6.60266913E-13    2     1000023         4   # BR(~c_R -> ~chi_20 c)
     9.47664478E-01    2     1000021         4   # BR(~c_R -> ~g      c)
#
#         PDG            Width
DECAY   1000003     4.10402551E+01   # sstrange_L decays
#          BR         NDA      ID1       ID2
     4.19534961E-03    2     1000022         3   # BR(~s_L -> ~chi_10 s)
     9.95804650E-01    2     1000021         3   # BR(~s_L -> ~g      s)
#
#         PDG            Width
DECAY   2000003     4.15478258E+01   # sstrange_R decays
#          BR         NDA      ID1       ID2
     1.65733240E-02    2     1000022         3   # BR(~s_R -> ~chi_10 s)
     9.83426676E-01    2     1000021         3   # BR(~s_R -> ~g      s)
#
#         PDG            Width
DECAY   1000011     1.21601230E+02   # selectron_L decays
#          BR         NDA      ID1       ID2
     9.99988968E-01    2     1000022        11   # BR(~e_L -> ~chi_10 e-)
     3.67852941E-06    2     1000023        11   # BR(~e_L -> ~chi_20 e-)
     3.95600922E-24    2     1000025        11   # BR(~e_L -> ~chi_30 e-)
     7.35307082E-06    2    -1000024        12   # BR(~e_L -> ~chi_1- nu_e)
#
#         PDG            Width
DECAY   2000011     4.86400130E+02   # selectron_R decays
#          BR         NDA      ID1       ID2
     1.00000000E+00    2     1000022        11   # BR(~e_R -> ~chi_10 e-)
     2.35240714E-13    2     1000023        11   # BR(~e_R -> ~chi_20 e-)
     1.18106662E-23    2     1000025        11   # BR(~e_R -> ~chi_30 e-)
#
#         PDG            Width
DECAY   1000013     1.21601230E+02   # smuon_L decays
#          BR         NDA      ID1       ID2
     9.99988968E-01    2     1000022        13   # BR(~mu_L -> ~chi_10 mu-)
     3.67852941E-06    2     1000023        13   # BR(~mu_L -> ~chi_20 mu-)
     3.95600922E-24    2     1000025        13   # BR(~mu_L -> ~chi_30 mu-)
     7.35307082E-06    2    -1000024        14   # BR(~mu_L -> ~chi_1- nu_mu)
#
#         PDG            Width
DECAY   2000013     4.86400130E+02   # smuon_R decays
#          BR         NDA      ID1       ID2
     1.00000000E+00    2     1000022        13   # BR(~mu_R -> ~chi_10 mu-)
     2.35240714E-13    2     1000023        13   # BR(~mu_R -> ~chi_20 mu-)
     1.18106662E-23    2     1000025        13   # BR(~mu_R -> ~chi_30 mu-)
#
#         PDG            Width
DECAY   1000015     3.04042857E+02   # stau_1 decays
#          BR         NDA      ID1       ID2
     9.99900815E-01    2     1000022        15   # BR(~tau_1 -> ~chi_10  tau-)
     7.51269020E-07    2     1000023        15   # BR(~tau_1 -> ~chi_20  tau-)
     1.50298640E-06    2    -1000024        16   # BR(~tau_1 -> ~chi_1-  nu_tau)
     9.69310105E-05    2     1000039        15   # BR(~tau_1 -> ~G       tau-)
#
#         PDG            Width
DECAY   2000015     3.03987970E+02   # stau_2 decays
#          BR         NDA      ID1       ID2
     9.99997847E-01    2     1000022        15   # BR(~tau_2 -> ~chi_10  tau-)
     7.17680922E-07    2     1000023        15   # BR(~tau_2 -> ~chi_20  tau-)
     1.43556709E-06    2    -1000024        16   # BR(~tau_2 -> ~chi_1-  nu_tau)
#
#         PDG            Width
DECAY   1000012     1.21601503E+02   # snu_eL decays
#          BR         NDA      ID1       ID2
     9.99988973E-01    2     1000022        12   # BR(~nu_eL -> ~chi_10 nu_e)
     3.67367564E-06    2     1000023        12   # BR(~nu_eL -> ~chi_20 nu_e)
     7.35306667E-06    2     1000024        11   # BR(~nu_eL -> ~chi_1+ e-)
#
#         PDG            Width
DECAY   1000014     1.21601503E+02   # snu_muL decays
#          BR         NDA      ID1       ID2
     9.99988973E-01    2     1000022        14   # BR(~nu_muL -> ~chi_10 nu_mu)
     3.67367564E-06    2     1000023        14   # BR(~nu_muL -> ~chi_20 nu_mu)
     7.35306667E-06    2     1000024        13   # BR(~nu_muL -> ~chi_1+ mu-)
#
#         PDG            Width
DECAY   1000016     1.21601502E+02   # snu_tauL decays
#          BR         NDA      ID1       ID2
     9.99988979E-01    2     1000022        16   # BR(~nu_tauL -> ~chi_10 nu_tau)
     3.67367566E-06    2     1000023        16   # BR(~nu_tauL -> ~chi_20 nu_tau)
     7.34743515E-06    2     1000024        15   # BR(~nu_tauL -> ~chi_1+ tau-)
#
#         PDG            Width
DECAY   1000024     3.92801365E+03   # chargino1+ decays
#          BR         NDA      ID1       ID2
     1.39403141E-01    2     1000002        -1   # BR(~chi_1+ -> ~u_L     db)
     1.39360164E-01    2    -1000001         2   # BR(~chi_1+ -> ~d_L*    u )
     1.39403141E-01    2     1000004        -3   # BR(~chi_1+ -> ~c_L     sb)
     1.39360164E-01    2    -1000003         4   # BR(~chi_1+ -> ~s_L*    c )
     1.25249969E-01    2     1000006        -5   # BR(~chi_1+ -> ~t_1     bb)
     1.53408035E-01    2    -1000005         6   # BR(~chi_1+ -> ~b_1*    t )
     1.48730204E-01    2    -2000005         6   # BR(~chi_1+ -> ~b_2*    t )
     7.58985543E-03    2     1000022        24   # BR(~chi_1+ -> ~chi_10  W+)
     7.48785538E-03    2     1000022        37   # BR(~chi_1+ -> ~chi_10  H+)
     5.60569226E-06    2     1000039        24   # BR(~chi_1+ -> ~G       W+)
     1.86565485E-06    2     1000039        37   # BR(~chi_1+ -> ~G       H+)
#
#         PDG            Width
DECAY   1000037     3.93230949E+03   # chargino2+ decays
#          BR         NDA      ID1       ID2
     1.39423086E-01    2     1000002        -1   # BR(~chi_2+ -> ~u_L     db)
     1.39465980E-01    2    -1000001         2   # BR(~chi_2+ -> ~d_L*    u )
     1.39423086E-01    2     1000004        -3   # BR(~chi_2+ -> ~c_L     sb)
     1.39465980E-01    2    -1000003         4   # BR(~chi_2+ -> ~s_L*    c )
     1.24926936E-01    2     1000006        -5   # BR(~chi_2+ -> ~t_1     bb)
     9.21418484E-07    2     2000006        -5   # BR(~chi_2+ -> ~t_2     bb)
     1.47207456E-01    2    -1000005         6   # BR(~chi_2+ -> ~b_1*    t )
     1.54417916E-01    2    -2000005         6   # BR(~chi_2+ -> ~b_2*    t )
     1.13620629E-07    2     1000012       -11   # BR(~chi_2+ -> ~nu_eL   e+  )
     1.13620629E-07    2     1000014       -13   # BR(~chi_2+ -> ~nu_muL  mu+ )
     1.13533588E-07    2     1000016       -15   # BR(~chi_2+ -> ~nu_tau1 tau+)
     1.13620809E-07    2    -1000011        12   # BR(~chi_2+ -> ~e_L+    nu_e)
     1.13620809E-07    2    -1000013        14   # BR(~chi_2+ -> ~mu_L+   nu_mu)
     5.54477988E-08    2    -1000015        16   # BR(~chi_2+ -> ~tau_1+  nu_tau)
     5.80753880E-08    2    -2000015        16   # BR(~chi_2+ -> ~tau_2+  nu_tau)
     2.90934532E-04    2     1000024        23   # BR(~chi_2+ -> ~chi_1+  Z )
     7.57166899E-03    2     1000022        24   # BR(~chi_2+ -> ~chi_10  W+)
     3.32386544E-04    2     1000023        24   # BR(~chi_2+ -> ~chi_20  W+)
     1.46277137E-12    2     1000024        25   # BR(~chi_2+ -> ~chi_1+  h )
     7.46544648E-03    2     1000022        37   # BR(~chi_2+ -> ~chi_10  H+)
     5.64307007E-06    2     1000039        24   # BR(~chi_2+ -> ~G       W+)
     1.87780758E-06    2     1000039        37   # BR(~chi_2+ -> ~G       H+)
#
#         PDG            Width
DECAY   1000022     1.E-08   # neutralino1 decays (OJ Mods)
#          BR         NDA      ID1       ID2
     7.58086969E-01    2     1000039        22   # BR(~chi_10 -> ~G        gam)
     2.41913031E-01    2     1000039        23   # BR(~chi_10 -> ~G        Z)
     2.05760659E-10    2     1000039        25   # BR(~chi_10 -> ~G        h)
#
#         PDG            Width
DECAY   1000023     1.E-08   # neutralino2 decays (OJ Mods)
#          BR         NDA      ID1       ID2
     2.80960715E-04    2     1000022        23   # BR(~chi_20 -> ~chi_10   Z )
     7.85629702E-03    2     1000022        25   # BR(~chi_20 -> ~chi_10   h )
     1.68980637E-04    2     1000022        35   # BR(~chi_20 -> ~chi_10   H )
     7.17503315E-03    2     1000022        36   # BR(~chi_20 -> ~chi_10   A )
     6.74991987E-02    2     1000002        -2   # BR(~chi_20 -> ~u_L      ub)
     6.74991987E-02    2    -1000002         2   # BR(~chi_20 -> ~u_L*     u )
     6.74764210E-02    2     1000001        -1   # BR(~chi_20 -> ~d_L      db)
     6.74764210E-02    2    -1000001         1   # BR(~chi_20 -> ~d_L*     d )
     1.91909496E-09    2     2000001        -1   # BR(~chi_20 -> ~d_R      db)
     1.91909496E-09    2    -2000001         1   # BR(~chi_20 -> ~d_R*     d )
     6.74991987E-02    2     1000004        -4   # BR(~chi_20 -> ~c_L      cb)
     6.74991987E-02    2    -1000004         4   # BR(~chi_20 -> ~c_L*     c )
     6.74764210E-02    2     1000003        -3   # BR(~chi_20 -> ~s_L      sb)
     6.74764210E-02    2    -1000003         3   # BR(~chi_20 -> ~s_L*     s )
     1.91909496E-09    2     2000003        -3   # BR(~chi_20 -> ~s_R      sb)
     1.91909496E-09    2    -2000003         3   # BR(~chi_20 -> ~s_R*     s )
     1.51027753E-01    2     1000006        -6   # BR(~chi_20 -> ~t_1      tb)
     1.51027753E-01    2    -1000006         6   # BR(~chi_20 -> ~t_1*     t )
     3.26501984E-02    2     1000005        -5   # BR(~chi_20 -> ~b_1      bb)
     3.26501984E-02    2    -1000005         5   # BR(~chi_20 -> ~b_1*     b )
     2.98914116E-02    2     2000005        -5   # BR(~chi_20 -> ~b_2      bb)
     2.98914116E-02    2    -2000005         5   # BR(~chi_20 -> ~b_2*     b )
     9.12320676E-07    2     1000039        22   # BR(~chi_20 -> ~G        gam)
     4.61960256E-06    2     1000039        23   # BR(~chi_20 -> ~G        Z)
     3.91920103E-08    2     1000039        25   # BR(~chi_20 -> ~G        h)
     1.82549655E-06    2     1000039        35   # BR(~chi_20 -> ~G        H)
     7.17727025E-08    2     1000039        36   # BR(~chi_20 -> ~G        A)
#
#         PDG            Width
DECAY   1000025     1.51017283E+03   # neutralino3 decays
#          BR         NDA      ID1       ID2
     3.93467963E-02    2     1000022        23   # BR(~chi_30 -> ~chi_10   Z )
     8.15820997E-04    2     1000022        25   # BR(~chi_30 -> ~chi_10   h )
     3.79887427E-02    2     1000022        35   # BR(~chi_30 -> ~chi_10   H )
     1.60394463E-03    2     1000022        36   # BR(~chi_30 -> ~chi_10   A )
     1.29646204E-09    2     1000002        -2   # BR(~chi_30 -> ~u_L      ub)
     1.29646204E-09    2    -1000002         2   # BR(~chi_30 -> ~u_L*     u )
     2.22934086E-17    2     2000002        -2   # BR(~chi_30 -> ~u_R      ub)
     2.22934086E-17    2    -2000002         2   # BR(~chi_30 -> ~u_R*     u )
     3.05592821E-09    2     1000001        -1   # BR(~chi_30 -> ~d_L      db)
     3.05592821E-09    2    -1000001         1   # BR(~chi_30 -> ~d_L*     d )
     3.71488592E-10    2     2000001        -1   # BR(~chi_30 -> ~d_R      db)
     3.71488592E-10    2    -2000001         1   # BR(~chi_30 -> ~d_R*     d )
     1.29646204E-09    2     1000004        -4   # BR(~chi_30 -> ~c_L      cb)
     1.29646204E-09    2    -1000004         4   # BR(~chi_30 -> ~c_L*     c )
     2.22934086E-17    2     2000004        -4   # BR(~chi_30 -> ~c_R      cb)
     2.22934086E-17    2    -2000004         4   # BR(~chi_30 -> ~c_R*     c )
     3.05592821E-09    2     1000003        -3   # BR(~chi_30 -> ~s_L      sb)
     3.05592821E-09    2    -1000003         3   # BR(~chi_30 -> ~s_L*     s )
     3.71488592E-10    2     2000003        -3   # BR(~chi_30 -> ~s_R      sb)
     3.71488592E-10    2    -2000003         3   # BR(~chi_30 -> ~s_R*     s )
     4.59789994E-01    2     1000006        -6   # BR(~chi_30 -> ~t_1      tb)
     4.59789994E-01    2    -1000006         6   # BR(~chi_30 -> ~t_1*     t )
     1.59858684E-04    2     1000005        -5   # BR(~chi_30 -> ~b_1      bb)
     1.59858684E-04    2    -1000005         5   # BR(~chi_30 -> ~b_1*     b )
     1.62734807E-04    2     2000005        -5   # BR(~chi_30 -> ~b_2      bb)
     1.62734807E-04    2    -2000005         5   # BR(~chi_30 -> ~b_2*     b )
     7.59197456E-23    2     1000012       -12   # BR(~chi_30 -> ~nu_eL    nu_eb)
     7.59197456E-23    2    -1000012        12   # BR(~chi_30 -> ~nu_eL*   nu_e )
     7.59197456E-23    2     1000014       -14   # BR(~chi_30 -> ~nu_muL   nu_mub)
     7.59197456E-23    2    -1000014        14   # BR(~chi_30 -> ~nu_muL*  nu_mu )
     7.59197456E-23    2     1000016       -16   # BR(~chi_30 -> ~nu_tau1  nu_taub)
     7.59197456E-23    2    -1000016        16   # BR(~chi_30 -> ~nu_tau1* nu_tau )
     2.62459485E-14    2     1000039        22   # BR(~chi_30 -> ~G        gam)
     3.75307067E-07    2     1000039        23   # BR(~chi_30 -> ~G        Z)
     9.55296541E-06    2     1000039        25   # BR(~chi_30 -> ~G        h)
     2.04654627E-07    2     1000039        35   # BR(~chi_30 -> ~G        H)
     9.36769937E-06    2     1000039        36   # BR(~chi_30 -> ~G        A)
#
#         PDG            Width
DECAY   1000035     3.93346950E+03   # neutralino4 decays
#          BR         NDA      ID1       ID2
     2.81599449E-04    2     1000022        23   # BR(~chi_40 -> ~chi_10   Z )
     1.10848460E-18    2     1000023        23   # BR(~chi_40 -> ~chi_20   Z )
     3.32222175E-04    2     1000024       -24   # BR(~chi_40 -> ~chi_1+   W-)
     3.32222175E-04    2    -1000024        24   # BR(~chi_40 -> ~chi_1-   W+)
     7.83847182E-03    2     1000022        25   # BR(~chi_40 -> ~chi_10   h )
     1.67527641E-04    2     1000022        35   # BR(~chi_40 -> ~chi_10   H )
     7.15730118E-03    2     1000022        36   # BR(~chi_40 -> ~chi_10   A )
     5.08444108E-12    2     1000023        25   # BR(~chi_40 -> ~chi_20   h )
     6.74975452E-02    2     1000002        -2   # BR(~chi_40 -> ~u_L      ub)
     6.74975452E-02    2    -1000002         2   # BR(~chi_40 -> ~u_L*     u )
     1.99188171E-12    2     2000002        -2   # BR(~chi_40 -> ~u_R      ub)
     1.99188171E-12    2    -2000002         2   # BR(~chi_40 -> ~u_R*     u )
     6.75202671E-02    2     1000001        -1   # BR(~chi_40 -> ~d_L      db)
     6.75202671E-02    2    -1000001         1   # BR(~chi_40 -> ~d_L*     d )
     1.91471047E-09    2     2000001        -1   # BR(~chi_40 -> ~d_R      db)
     1.91471047E-09    2    -2000001         1   # BR(~chi_40 -> ~d_R*     d )
     6.74975452E-02    2     1000004        -4   # BR(~chi_40 -> ~c_L      cb)
     6.74975452E-02    2    -1000004         4   # BR(~chi_40 -> ~c_L*     c )
     1.99188171E-12    2     2000004        -4   # BR(~chi_40 -> ~c_R      cb)
     1.99188171E-12    2    -2000004         4   # BR(~chi_40 -> ~c_R*     c )
     6.75202671E-02    2     1000003        -3   # BR(~chi_40 -> ~s_L      sb)
     6.75202671E-02    2    -1000003         3   # BR(~chi_40 -> ~s_L*     s )
     1.91471047E-09    2     2000003        -3   # BR(~chi_40 -> ~s_R      sb)
     1.91471047E-09    2    -2000003         3   # BR(~chi_40 -> ~s_R*     s )
     1.50580135E-01    2     1000006        -6   # BR(~chi_40 -> ~t_1      tb)
     1.50580135E-01    2    -1000006         6   # BR(~chi_40 -> ~t_1*     t )
     2.97004151E-02    2     1000005        -5   # BR(~chi_40 -> ~b_1      bb)
     2.97004151E-02    2    -1000005         5   # BR(~chi_40 -> ~b_1*     b )
     3.28869154E-02    2     2000005        -5   # BR(~chi_40 -> ~b_2      bb)
     3.28869154E-02    2    -2000005         5   # BR(~chi_40 -> ~b_2*     b )
     5.67642156E-08    2     1000011       -11   # BR(~chi_40 -> ~e_L-     e+)
     5.67642156E-08    2    -1000011        11   # BR(~chi_40 -> ~e_L+     e-)
     1.44970170E-14    2     2000011       -11   # BR(~chi_40 -> ~e_R-     e+)
     1.44970170E-14    2    -2000011        11   # BR(~chi_40 -> ~e_R+     e-)
     5.67642156E-08    2     1000013       -13   # BR(~chi_40 -> ~mu_L-    mu+)
     5.67642156E-08    2    -1000013        13   # BR(~chi_40 -> ~mu_L+    mu-)
     1.44970170E-14    2     2000013       -13   # BR(~chi_40 -> ~mu_R-    mu+)
     1.44970170E-14    2    -2000013        13   # BR(~chi_40 -> ~mu_R+    mu-)
     2.76802726E-08    2     1000015       -15   # BR(~chi_40 -> ~tau_1-   tau+)
     2.76802726E-08    2    -1000015        15   # BR(~chi_40 -> ~tau_1+   tau-)
     2.89916727E-08    2     2000015       -15   # BR(~chi_40 -> ~tau_2-   tau+)
     2.89916727E-08    2    -2000015        15   # BR(~chi_40 -> ~tau_2+   tau-)
     5.68390131E-08    2     1000012       -12   # BR(~chi_40 -> ~nu_eL    nu_eb)
     5.68390131E-08    2    -1000012        12   # BR(~chi_40 -> ~nu_eL*   nu_e )
     5.68390131E-08    2     1000014       -14   # BR(~chi_40 -> ~nu_muL   nu_mub)
     5.68390131E-08    2    -1000014        14   # BR(~chi_40 -> ~nu_muL*  nu_mu )
     5.68390131E-08    2     1000016       -16   # BR(~chi_40 -> ~nu_tau1  nu_taub)
     5.68390131E-08    2    -1000016        16   # BR(~chi_40 -> ~nu_tau1* nu_tau )
     9.15366452E-07    2     1000039        22   # BR(~chi_40 -> ~G        gam)
     4.65342914E-06    2     1000039        23   # BR(~chi_40 -> ~G        Z)
     3.95481627E-08    2     1000039        25   # BR(~chi_40 -> ~G        h)
     1.83814290E-06    2     1000039        35   # BR(~chi_40 -> ~G        H)
     7.21619682E-08    2     1000039        36   # BR(~chi_40 -> ~G        A)
#
#
#
#
