# SUSY Les Houches Accord 2 - MSSM spectrum + Decays
# SPheno v3.1.12 
# W. Porod, Comput. Phys. Commun. 153 (2003) 275-315, hep-ph/0301101
# in case of problems send email to porod@physik.uni-wuerzburg.de
# Created: 09.12.2016,  15:23
Block SPINFO         # Program information
     1   SPheno      # spectrum calculator
     2   v3.1.12     # version number
#
Block SPhenoINFO     # SPheno specific information
    1      2         # using 2-loop RGEs
    2      1         # using running masses for boundary conditions at mZ
Block MODSEL  # Model selection
    1    2    # mGMSB model
Block MINPAR  # Input parameters
    1    1.30000000E+05  # Lambda, scale of SUSY breaking
    2    2.50000000E+05  # M_M, messenger mass scale
    3    5.00000000E+01  # tanb at m_Z   
    4    1.00000000E+00  # Sign(mu)
    5    3.00000000E+00  # N_5 number of effective five-plets
    6    1.00000000E+00  # c_grav, Gravitino mass factor
Block gauge Q=  2.50000000E+05  # (GMSB scale)
   1    4.93191607E-01  # g'(Q)^DRbar
   2    6.47267301E-01  # g(Q)^DRbar
   3    9.34822893E-01  # g3(Q)^DRbar
Block SMINPUTS  # SM parameters
         1     1.27932535E+02  # alpha_em^-1(MZ)^MSbar
         2     1.16639000E-05  # G_mu [GeV^-2]
         3     1.17200000E-01  # alpha_s(MZ)^MSbar
         4     9.11876000E+01  # m_Z(pole)
         5     4.20000000E+00  # m_b(m_b), MSbar
         6     1.72500000E+02  # m_t(pole)
         7     1.77700000E+00  # m_tau(pole)
         8     0.00000000E+00  # m_nu_3
        11     5.10998910E-04  # m_e(pole)
        12     0.00000000E+00  # m_nu_1
        13     1.05658000E-01  # m_muon(pole)
        14     0.00000000E+00  # m_nu_2
        21     5.00000000E-03  # m_d(2 GeV), MSbar
        22     3.00000000E-03  # m_u(2 GeV), MSbar
        23     1.05000000E-01  # m_s(2 GeV), MSbar
        24     1.27000000E+00  # m_c(m_c), MSbar
Block gauge Q=  2.44096752E+03  # (SUSY scale)
   1    3.64993332E-01  # g'(Q)^DRbar
   2    6.38155713E-01  # g(Q)^DRbar
   3    1.01353878E+00  # g3(Q)^DRbar
Block Yu Q=  2.44096752E+03  # (SUSY scale)
  1  1     8.32784399E-06   # Y_u(Q)^DRbar
  2  2     3.52545635E-03   # Y_c(Q)^DRbar
  3  3     8.38322413E-01   # Y_t(Q)^DRbar
Block Yd Q=  2.44096752E+03  # (SUSY scale)
  1  1     5.82562315E-04   # Y_d(Q)^DRbar
  2  2     1.22337980E-02   # Y_s(Q)^DRbar
  3  3     5.91254993E-01   # Y_b(Q)^DRbar
Block Ye Q=  2.44096752E+03  # (SUSY scale)
  1  1     1.58703438E-04   # Y_e(Q)^DRbar
  2  2     3.28152363E-02   # Y_mu(Q)^DRbar
  3  3     5.54137807E-01   # Y_tau(Q)^DRbar
Block Au Q=  2.44096752E+03  # (SUSY scale)
  1  1    -7.57168446E+02   # A_u(Q)^DRbar
  2  2    -7.57164776E+02   # A_c(Q)^DRbar
  3  3    -7.09463648E+02   # A_t(Q)^DRbar
Block Ad Q=  2.44096752E+03  # (SUSY scale)
  1  1    -7.79240922E+02   # A_d(Q)^DRbar
  2  2    -7.79231702E+02   # A_s(Q)^DRbar
  3  3    -7.45101556E+02   # A_b(Q)^DRbar
Block Ae Q=  2.44096752E+03  # (SUSY scale)
  1  1    -6.46276521E+01   # A_e(Q)^DRbar
  2  2    -6.46200840E+01   # A_mu(Q)^DRbar
  3  3    -6.24798031E+01   # A_tau(Q)^DRbar
Block MSOFT Q=  2.44096752E+03  # soft SUSY breaking masses at Q
   1    5.72682835E+02  # M_1
   2    1.04704442E+03  # M_2
   3    2.65239836E+03  # M_3
  21    1.24756857E+04  # M^2_(H,d)
  22   -5.81276885E+05  # M^2_(H,u)
  31    8.08722222E+02  # M_(L,11)
  32    8.08683075E+02  # M_(L,22)
  33    7.97580396E+02  # M_(L,33)
  34    3.93142764E+02  # M_(E,11)
  35    3.92978159E+02  # M_(E,22)
  36    3.43233191E+02  # M_(E,33)
  41    2.55580870E+03  # M_(Q,11)
  42    2.55579115E+03  # M_(Q,22)
  43    2.44191675E+03  # M_(Q,33)
  44    2.45002221E+03  # M_(U,11)
  45    2.45001941E+03  # M_(U,22)
  46    2.28887118E+03  # M_(U,33)
  47    2.43973947E+03  # M_(D,11)
  48    2.43970513E+03  # M_(D,22)
  49    2.35908919E+03  # M_(D,33)
Block MASS  # Mass spectrum
#   PDG code      mass          particle
         6     1.72500000E+02  # m_t(pole)
        23     9.11876000E+01  # m_Z(pole)
        24     8.03095622E+01  # W+
        15     1.77700000E+00  # m_tau(pole)
        25     1.20294892E+02  # h0
        35     8.01686867E+02  # H0
        36     8.01652238E+02  # A0
        37     8.06462418E+02  # H+
   1000001     2.66056057E+03  # ~d_L
   2000001     2.53820615E+03  # ~d_R
   1000002     2.65935821E+03  # ~u_L
   2000002     2.54788013E+03  # ~u_R
   1000003     2.66054017E+03  # ~s_L
   2000003     2.53816347E+03  # ~s_R
   1000004     2.65933699E+03  # ~c_L
   2000004     2.54787675E+03  # ~c_R
   1000005     2.43625286E+03  # ~b_1
   2000005     2.52533188E+03  # ~b_2
   1000006     2.35590329E+03  # ~t_1
   2000006     2.52910263E+03  # ~t_2
   1000011     8.27098006E+02  # ~e_L-
   2000011     4.08409925E+02  # ~e_R-
   1000012     8.22853724E+02  # ~nu_eL
   1000013     8.27070110E+02  # ~mu_L-
   2000013     4.08152003E+02  # ~mu_R-
   1000014     8.22797760E+02  # ~nu_muL
   1000015     3.29482858E+02  # ~tau_1-
   2000015     8.18918810E+02  # ~tau_2-
   1000016     8.07244573E+02  # ~nu_tauL
   1000021     2.78253623E+03  # ~g
   1000022     5.57025554E+02  # ~chi_10
   1000023     8.37522908E+02  # ~chi_20
   1000025    -8.49747864E+02  # ~chi_30
   1000035     1.08343847E+03  # ~chi_40
   1000024     8.35512965E+02  # ~chi_1+
   1000037     1.08362129E+03  # ~chi_2+
   1000039     7.80000000E-09  # ~G
# Higgs mixing
Block alpha # Effective Higgs mixing angle
          -2.10777207E-02   # alpha
Block Hmix Q=  2.44096752E+03  # Higgs mixing parameters
   1    8.41320839E+02  # mu
   2    4.91486725E+01  # tan[beta](Q)
   3    2.43445489E+02  # v(Q)
   4    5.86236647E+05  # m^2_A(Q)
Block stopmix # stop mixing matrix
   1  1     1.52879568E-01   # Re[R_st(1,1)]
   1  2     9.88244827E-01   # Re[R_st(1,2)]
   2  1    -9.88244827E-01   # Re[R_st(2,1)]
   2  2     1.52879568E-01   # Re[R_st(2,2)]
Block sbotmix # sbottom mixing matrix
   1  1     2.11625674E-01   # Re[R_sb(1,1)]
   1  2     9.77350794E-01   # Re[R_sb(1,2)]
   2  1    -9.77350794E-01   # Re[R_sb(2,1)]
   2  2     2.11625674E-01   # Re[R_sb(2,2)]
Block staumix # stau mixing matrix
   1  1     1.46116870E-01   # Re[R_sta(1,1)]
   1  2     9.89267335E-01   # Re[R_sta(1,2)]
   2  1    -9.89267335E-01   # Re[R_sta(2,1)]
   2  2     1.46116870E-01   # Re[R_sta(2,2)]
Block Nmix # neutralino mixing matrix
   1  1    -9.93311790E-01   # Re[N(1,1)]
   1  2     1.00807905E-02   # Re[N(1,2)]
   1  3    -9.54149114E-02   # Re[N(1,3)]
   1  4     6.42344192E-02   # Re[N(1,4)]
   2  1    -1.12248951E-01   # Re[N(2,1)]
   2  2    -2.34134568E-01   # Re[N(2,2)]
   2  3     6.86770453E-01   # Re[N(2,3)]
   2  4    -6.78916433E-01   # Re[N(2,4)]
   3  1    -2.17385401E-02   # Re[N(3,1)]
   3  2     2.85419998E-02   # Re[N(3,2)]
   3  3     7.05693488E-01   # Re[N(3,3)]
   3  4     7.07608289E-01   # Re[N(3,4)]
   4  1    -1.61027077E-02   # Re[N(4,1)]
   4  2     9.71732852E-01   # Re[N(4,2)]
   4  3     1.45736204E-01   # Re[N(4,3)]
   4  4    -1.85032228E-01   # Re[N(4,4)]
Block Umix # chargino mixing matrix
   1  1    -2.05910751E-01   # Re[U(1,1)]
   1  2     9.78570775E-01   # Re[U(1,2)]
   2  1     9.78570775E-01   # Re[U(2,1)]
   2  2     2.05910751E-01   # Re[U(2,2)]
Block Vmix # chargino mixing matrix
   1  1    -2.61359262E-01   # Re[V(1,1)]
   1  2     9.65241595E-01   # Re[V(1,2)]
   2  1     9.65241595E-01   # Re[V(2,1)]
   2  2     2.61359262E-01   # Re[V(2,2)]
DECAY   2000011     1.83516447E-06   # ~e^-_R
#    BR                NDA      ID1      ID2
     1.16619150E-04    2     1000039        11   # BR(~e^-_R -> ~G e^-)
#    BR                NDA      ID1      ID2       ID3
     6.40901628E-14    3     2000013        11       -13   # BR(~e^-_R -> ~mu^-_R e^- mu^+)
     2.23899806E-13    3    -2000013        11        13   # BR(~e^-_R -> ~mu^+_R e^- mu^-)
     1.92644304E-01    3     1000015        11       -15   # BR(~e^-_R -> ~tau^-_1 e^- tau^+)
     8.07239077E-01    3    -1000015        11        15   # BR(~e^-_R -> ~tau^+_1 e^- tau^-)
DECAY   1000011     3.11551906E-01   # ~e^-_L
#    BR                NDA      ID1      ID2
     9.99998999E-01    2     1000022        11   # BR(~e^-_L -> chi^0_1 e^-)
     4.79953546E-07    2     2000011        23   # BR(~e^-_L -> ~e^-_R Z)
     4.97240033E-07    2     2000011        25   # BR(~e^-_L -> ~e^-_R h^0)
     2.34001090E-08    2     1000039        11   # BR(~e^-_L -> ~G e^-)
DECAY   2000013     1.81127357E-06   # ~mu^-_R
#    BR                NDA      ID1      ID2
     1.17784710E-04    2     1000039        13   # BR(~mu^-_R -> ~G mu^-)
#    BR                NDA      ID1      ID2       ID3
     1.92035323E-01    3     1000015        13       -15   # BR(~mu^-_R -> ~tau^-_1 mu^- tau^+)
     8.07846893E-01    3    -1000015        13        15   # BR(~mu^-_R -> ~tau^+_1 mu^- tau^-)
DECAY   1000013     3.24583740E-01   # ~mu^-_L
#    BR                NDA      ID1      ID2
     9.59887125E-01    2     1000022        13   # BR(~mu^-_L -> chi^0_1 mu^-)
     1.97049544E-02    2     2000013        23   # BR(~mu^-_L -> ~mu^-_R Z)
     2.04078986E-02    2     2000013        25   # BR(~mu^-_L -> ~mu^-_R h^0)
     2.24568202E-08    2     1000039        13   # BR(~mu^-_L -> ~G mu^-)
DECAY   1000015     7.31268748E-11   # ~tau^-_1
#    BR                NDA      ID1      ID2
     1.00000000E+00    2     1000039        15   # BR(~tau^-_1 -> ~G tau^-)
DECAY   2000015     4.32320338E+00   # ~tau^-_2
#    BR                NDA      ID1      ID2
     7.22587311E-02    2     1000022        15   # BR(~tau^-_2 -> chi^0_1 tau^-)
     4.74567886E-01    2     1000015        23   # BR(~tau^-_2 -> ~tau^-_1 Z)
     4.53173381E-01    2     1000015        25   # BR(~tau^-_2 -> ~tau^-_1 h^0)
     1.60455205E-09    2     1000039        15   # BR(~tau^-_2 -> ~G tau^-)
DECAY   1000012     3.27065645E-01   # ~nu_e
#    BR                NDA      ID1      ID2
     9.99999097E-01    2     1000022        12   # BR(~nu_e -> chi^0_1 nu_e)
     8.81048759E-07    2     2000011        24   # BR(~nu_e -> ~e^-_R W^+)
     2.17240948E-08    2     1000039        12   # BR(~nu_e -> ~G nu_e)
DECAY   1000014     3.39292311E-01   # ~nu_mu
#    BR                NDA      ID1      ID2
     9.63675959E-01    2     1000022        14   # BR(~nu_mu -> chi^0_1 nu_mu)
     3.63240204E-02    2     2000013        24   # BR(~nu_mu -> ~mu^-_R W^+)
     2.09341296E-08    2     1000039        14   # BR(~nu_mu -> ~G nu_mu)
DECAY   1000016     4.18219296E+00   # ~nu_tau
#    BR                NDA      ID1      ID2
     7.17364977E-02    2     1000022        16   # BR(~nu_tau -> chi^0_1 nu_tau)
     9.28263501E-01    2     1000015        24   # BR(~nu_tau -> ~tau^-_1 W^+)
     1.54377864E-09    2     1000039        16   # BR(~nu_tau -> ~G nu_tau)
DECAY   2000001     1.35212931E+00   # ~d_R
#    BR                NDA      ID1      ID2
     9.88312598E-01    2     1000022         1   # BR(~d_R -> chi^0_1 d)
     1.10670522E-02    2     1000023         1   # BR(~d_R -> chi^0_2 d)
     4.16824886E-04    2     1000025         1   # BR(~d_R -> chi^0_3 d)
     1.91738423E-04    2     1000035         1   # BR(~d_R -> chi^0_4 d)
     1.02948888E-05    2    -1000024         2   # BR(~d_R -> chi^-_1 u)
     2.36543064E-08    2    -1000037         2   # BR(~d_R -> chi^-_2 u)
     1.46750522E-06    2     1000039         1   # BR(~d_R -> ~G d)
DECAY   1000001     2.30273841E+01   # ~d_L
#    BR                NDA      ID1      ID2
     1.70232491E-02    2     1000022         1   # BR(~d_L -> chi^0_1 d)
     1.71918720E-02    2     1000023         1   # BR(~d_L -> chi^0_2 d)
     4.03556384E-04    2     1000025         1   # BR(~d_L -> chi^0_3 d)
     3.09474668E-01    2     1000035         1   # BR(~d_L -> chi^0_4 d)
     3.22467852E-02    2    -1000024         2   # BR(~d_L -> chi^-_1 u)
     6.23659759E-01    2    -1000037         2   # BR(~d_L -> chi^-_2 u)
     6.05789817E-13    2     2000002       -24   # BR(~d_L -> ~u_R W^-)
     1.15918597E-09    2     2000001        23   # BR(~d_L -> ~d_R Z)
     6.52795534E-10    2     2000001        25   # BR(~d_L -> ~d_R h^0)
     1.09039681E-07    2     1000039         1   # BR(~d_L -> ~G d)
DECAY   2000003     1.36428794E+00   # ~s_R
#    BR                NDA      ID1      ID2
     9.79584906E-01    2     1000022         3   # BR(~s_R -> chi^0_1 s)
     1.31540943E-02    2     1000023         3   # BR(~s_R -> chi^0_2 s)
     2.55521179E-03    2     1000025         3   # BR(~s_R -> chi^0_3 s)
     1.94610400E-04    2     1000035         3   # BR(~s_R -> chi^0_4 s)
     4.49937488E-03    2    -1000024         4   # BR(~s_R -> chi^-_1 c)
     1.03480422E-05    2    -1000037         4   # BR(~s_R -> chi^-_2 c)
     1.45430442E-06    2     1000039         3   # BR(~s_R -> ~G s)
DECAY   1000003     2.30337105E+01   # ~s_L
#    BR                NDA      ID1      ID2
     1.70178403E-02    2     1000022         3   # BR(~s_L -> chi^0_1 s)
     1.73108967E-02    2     1000023         3   # BR(~s_L -> chi^0_2 s)
     5.42993964E-04    2     1000025         3   # BR(~s_L -> chi^0_3 s)
     3.09395350E-01    2     1000035         3   # BR(~s_L -> chi^0_4 s)
     3.22407595E-02    2    -1000024         4   # BR(~s_L -> chi^-_1 c)
     6.23491141E-01    2    -1000037         4   # BR(~s_L -> chi^-_2 c)
     1.08469441E-07    2     2000004       -24   # BR(~s_L -> ~c_R W^-)
     5.11504970E-07    2     2000003        23   # BR(~s_L -> ~s_R Z)
     2.89362171E-07    2     2000003        25   # BR(~s_L -> ~s_R h^0)
     1.09005551E-07    2     1000039         3   # BR(~s_L -> ~G s)
DECAY   1000005     2.86237151E+01   # ~b_1
#    BR                NDA      ID1      ID2
     5.70528807E-02    2     1000022         5   # BR(~b_1 -> chi^0_1 b)
     2.34970259E-01    2     1000023         5   # BR(~b_1 -> chi^0_2 b)
     2.23406450E-01    2     1000025         5   # BR(~b_1 -> chi^0_3 b)
     3.49100587E-04    2     1000035         5   # BR(~b_1 -> chi^0_4 b)
     4.81625667E-01    2    -1000024         6   # BR(~b_1 -> chi^-_1 t)
     2.59558351E-03    2    -1000037         6   # BR(~b_1 -> chi^-_2 t)
     2.84750645E-09    2     1000006       -24   # BR(~b_1 -> ~t_1 W^-)
     5.64734169E-08    2     1000039         5   # BR(~b_1 -> ~G b)
DECAY   2000005     6.10983044E+01   # ~b_2
#    BR                NDA      ID1      ID2
     4.56758972E-03    2     1000022         5   # BR(~b_2 -> chi^0_1 b)
     1.04743211E-01    2     1000023         5   # BR(~b_2 -> chi^0_2 b)
     1.14700413E-01    2     1000025         5   # BR(~b_2 -> chi^0_3 b)
     1.13952367E-01    2     1000035         5   # BR(~b_2 -> chi^0_4 b)
     4.02789818E-01    2    -1000024         6   # BR(~b_2 -> chi^-_1 t)
     2.53745715E-01    2    -1000037         6   # BR(~b_2 -> chi^-_2 t)
     5.50085426E-03    2     1000006       -24   # BR(~b_2 -> ~t_1 W^-)
     3.16607915E-08    2     1000039         5   # BR(~b_2 -> ~G b)
DECAY   2000002     5.43324915E+00   # ~u_R
#    BR                NDA      ID1      ID2
     9.88320872E-01    2     1000022         2   # BR(~u_R -> chi^0_1 u)
     1.10741369E-02    2     1000023         2   # BR(~u_R -> chi^0_2 u)
     4.12388544E-04    2     1000025         2   # BR(~u_R -> chi^0_3 u)
     1.92230176E-04    2     1000035         2   # BR(~u_R -> chi^0_4 u)
     5.30176767E-10    2     1000024         1   # BR(~u_R -> chi^+_1 d)
     2.79365406E-12    2     1000037         1   # BR(~u_R -> chi^+_2 d)
     3.72219192E-07    2     1000039         2   # BR(~u_R -> ~G u)
DECAY   1000002     2.30806863E+01   # ~u_L
#    BR                NDA      ID1      ID2
     1.37165619E-02    2     1000022         2   # BR(~u_L -> chi^0_1 u)
     2.47317266E-02    2     1000023         2   # BR(~u_L -> chi^0_2 u)
     2.23990578E-04    2     1000025         2   # BR(~u_L -> chi^0_3 u)
     3.04635280E-01    2     1000035         2   # BR(~u_L -> chi^0_4 u)
     5.17992416E-02    2     1000024         1   # BR(~u_L -> chi^+_1 d)
     6.04893087E-01    2     1000037         1   # BR(~u_L -> chi^+_2 d)
     3.09121369E-09    2     2000001        24   # BR(~u_L -> ~d_R W^+)
     1.66219208E-13    2     2000002        23   # BR(~u_L -> ~u_R Z)
     1.08542270E-07    2     1000039         2   # BR(~u_L -> ~G u)
DECAY   2000004     5.43426243E+00   # ~c_R
#    BR                NDA      ID1      ID2
     9.88134753E-01    2     1000022         4   # BR(~c_R -> chi^0_1 c)
     1.11180027E-02    2     1000023         4   # BR(~c_R -> chi^0_2 c)
     4.58971443E-04    2     1000025         4   # BR(~c_R -> chi^0_3 c)
     1.92401835E-04    2     1000035         4   # BR(~c_R -> chi^0_4 c)
     9.49982930E-05    2     1000024         3   # BR(~c_R -> chi^+_1 s)
     5.00237592E-07    2     1000037         3   # BR(~c_R -> chi^+_2 s)
     3.72146952E-07    2     1000039         4   # BR(~c_R -> ~G c)
DECAY   1000004     2.30872689E+01   # ~c_L
#    BR                NDA      ID1      ID2
     1.37126048E-02    2     1000022         4   # BR(~c_L -> chi^0_1 c)
     2.47339501E-02    2     1000023         4   # BR(~c_L -> chi^0_2 c)
     2.35278898E-04    2     1000025         4   # BR(~c_L -> chi^0_3 c)
     3.04545593E-01    2     1000035         4   # BR(~c_L -> chi^0_4 c)
     5.20476111E-02    2     1000024         3   # BR(~c_L -> chi^+_1 s)
     6.04723460E-01    2     1000037         3   # BR(~c_L -> chi^+_2 s)
     1.36365071E-06    2     2000003        24   # BR(~c_L -> ~s_R W^+)
     2.97464797E-08    2     2000004        23   # BR(~c_L -> ~c_R Z)
     1.08506895E-07    2     1000039         4   # BR(~c_L -> ~G c)
DECAY   1000006     5.48354491E+01   # ~t_1
#    BR                NDA      ID1      ID2
     2.68886397E-04    2     1000022         4   # BR(~t_1 -> chi^0_1 c)
     9.05968973E-02    2     1000022         6   # BR(~t_1 -> chi^0_1 t)
     4.67656807E-04    2     1000023         4   # BR(~t_1 -> chi^0_2 c)
     2.15785912E-01    2     1000023         6   # BR(~t_1 -> chi^0_2 t)
     2.31028342E-01    2     1000025         6   # BR(~t_1 -> chi^0_3 t)
     3.93707833E-03    2     1000035         6   # BR(~t_1 -> chi^0_4 t)
     4.49764808E-01    2     1000024         5   # BR(~t_1 -> chi^+_1 b)
     8.13363950E-03    2     1000037         5   # BR(~t_1 -> chi^+_2 b)
     2.43978112E-08    2     1000039         6   # BR(~t_1 -> ~G t)
#    BR                NDA      ID1      ID2       ID3
     1.67557227E-05    3     1000022        24         5   # BR(~t_1 -> chi^0_1 W^+ b)
DECAY   2000006     6.22592946E+01   # ~t_2
#    BR                NDA      ID1      ID2
     5.63618262E-03    2     1000022         6   # BR(~t_2 -> chi^0_1 t)
     2.03993015E-01    2     1000023         6   # BR(~t_2 -> chi^0_2 t)
     2.16102487E-01    2     1000025         6   # BR(~t_2 -> chi^0_3 t)
     1.28303874E-01    2     1000035         6   # BR(~t_2 -> chi^0_4 t)
     2.10735553E-01    2     1000024         5   # BR(~t_2 -> chi^+_1 b)
     2.30119360E-01    2     1000037         5   # BR(~t_2 -> chi^+_2 b)
     3.37744319E-04    2     1000005        24   # BR(~t_2 -> ~b_1 W^+)
     2.72540603E-03    2     1000006        23   # BR(~t_2 -> ~t_1 Z)
     2.04634768E-03    2     1000006        25   # BR(~t_2 -> ~t_1 h^0)
     3.07249498E-08    2     1000039         6   # BR(~t_2 -> ~G t)
DECAY   1000024     2.22851252E+00   # chi^+_1
#    BR                NDA      ID1      ID2
     5.61683501E-08    2    -2000011        12   # BR(chi^+_1 -> ~e^+_R nu_e)
     2.58655704E-05    2    -1000011        12   # BR(chi^+_1 -> ~e^+_L nu_e)
     2.40307922E-03    2    -2000013        14   # BR(chi^+_1 -> ~mu^+_R nu_mu)
     2.59152258E-05    2    -1000013        14   # BR(chi^+_1 -> ~mu^+_L nu_mu)
     8.21143726E-01    2    -1000015        16   # BR(chi^+_1 -> ~tau^+_1 nu_tau)
     1.48614160E-05    2    -2000015        16   # BR(chi^+_1 -> ~tau^+_2 nu_tau)
     9.38277799E-05    2     1000012       -11   # BR(chi^+_1 -> ~nu_e e^+)
     9.84632045E-05    2     1000014       -13   # BR(chi^+_1 -> ~nu_mu mu^+)
     5.49228218E-03    2     1000016       -15   # BR(chi^+_1 -> ~nu_tau tau^+)
     1.70523239E-01    2     1000022        24   # BR(chi^+_1 -> chi^0_1 W^+)
#    BR                NDA      ID1      ID2       ID3
     9.51828879E-10    3     1000022        -1         2   # BR(chi^+_1 -> chi^0_1 d_bar u)
     3.29440495E-09    3     1000022        -3         4   # BR(chi^+_1 -> chi^0_1 s_bar c)
     1.64341504E-04    3     1000022        -5         6   # BR(chi^+_1 -> chi^0_1 b_bar t)
     1.79798739E-12    3     1000022       -11        12   # BR(chi^+_1 -> chi^0_1 e^+ nu_e)
     7.67376520E-08    3     1000022       -13        14   # BR(chi^+_1 -> chi^0_1 mu^+ nu_mu)
     1.42621814E-05    3     1000022       -15        16   # BR(chi^+_1 -> chi^0_1 tau^+ nu_tau)
DECAY   1000037     9.00168544E+00   # chi^+_2
#    BR                NDA      ID1      ID2
     1.70739890E-11    2    -2000011        12   # BR(chi^+_2 -> ~e^+_R nu_e)
     8.13633620E-02    2    -1000011        12   # BR(chi^+_2 -> ~e^+_L nu_e)
     7.32623003E-07    2    -2000013        14   # BR(chi^+_2 -> ~mu^+_R nu_mu)
     8.13880368E-02    2    -1000013        14   # BR(chi^+_2 -> ~mu^+_L nu_mu)
     4.61481133E-04    2    -1000015        16   # BR(chi^+_2 -> ~tau^+_1 nu_tau)
     8.86590224E-02    2    -2000015        16   # BR(chi^+_2 -> ~tau^+_2 nu_tau)
     8.14401341E-02    2     1000012       -11   # BR(chi^+_2 -> ~nu_e e^+)
     8.14792859E-02    2     1000014       -13   # BR(chi^+_2 -> ~nu_mu mu^+)
     9.28306332E-02    2     1000016       -15   # BR(chi^+_2 -> ~nu_tau tau^+)
     7.16637795E-04    2     1000022        24   # BR(chi^+_2 -> chi^0_1 W^+)
     1.32115183E-01    2     1000023        24   # BR(chi^+_2 -> chi^0_2 W^+)
     1.17391625E-01    2     1000025        24   # BR(chi^+_2 -> chi^0_3 W^+)
     1.28900929E-01    2     1000024        23   # BR(chi^+_2 -> chi^+_1 Z)
     1.13124685E-01    2     1000024        25   # BR(chi^+_2 -> chi^+_1 h^0)
#    BR                NDA      ID1      ID2       ID3
     2.58465064E-09    3     1000024         2        -2   # BR(chi^+_2 -> chi^+_1 u u_bar)
     2.58212756E-09    3     1000024         4        -4   # BR(chi^+_2 -> chi^+_1 c c_bar)
     4.06506209E-09    3     1000024         1        -1   # BR(chi^+_2 -> chi^+_1 d d_bar)
     6.34920777E-09    3     1000024         3        -3   # BR(chi^+_2 -> chi^+_1 s s_bar)
     5.41014793E-06    3     1000024         5        -5   # BR(chi^+_2 -> chi^+_1 b b_bar)
     1.49536174E-06    3     1000024        11       -11   # BR(chi^+_2 -> chi^+_1 e^- e^+)
     1.53891682E-06    3     1000024        13       -13   # BR(chi^+_2 -> chi^+_1 mu^- mu^+)
     1.16142530E-05    3     1000024        15       -15   # BR(chi^+_2 -> chi^+_1 tau^- tau^+)
     2.27804414E-06    3     1000024        12       -12   # BR(chi^+_2 -> chi^+_1 nu_e nu_bar_e)
     7.57239272E-08    3     1000022        -1         2   # BR(chi^+_2 -> chi^0_1 d_bar u)
     7.57387038E-08    3     1000022        -3         4   # BR(chi^+_2 -> chi^0_1 s_bar c)
     5.52430058E-06    3     1000022        -5         6   # BR(chi^+_2 -> chi^0_1 b_bar t)
     2.41172443E-10    3     1000022       -13        14   # BR(chi^+_2 -> chi^0_1 mu^+ nu_mu)
     9.26290496E-08    3     1000022       -15        16   # BR(chi^+_2 -> chi^0_1 tau^+ nu_tau)
     1.65300679E-09    3     1000023        -1         2   # BR(chi^+_2 -> chi^0_2 d_bar u)
     2.86064108E-09    3     1000023        -3         4   # BR(chi^+_2 -> chi^0_2 s_bar c)
     5.68392001E-05    3     1000023        -5         6   # BR(chi^+_2 -> chi^0_2 b_bar t)
     9.50193898E-07    3     1000023       -11        12   # BR(chi^+_2 -> chi^0_2 e^+ nu_e)
     9.71196349E-07    3     1000023       -13        14   # BR(chi^+_2 -> chi^0_2 mu^+ nu_mu)
     5.77712883E-06    3     1000023       -15        16   # BR(chi^+_2 -> chi^0_2 tau^+ nu_tau)
     5.85215588E-11    3     1000025        -1         2   # BR(chi^+_2 -> chi^0_3 d_bar u)
     9.23917353E-10    3     1000025        -3         4   # BR(chi^+_2 -> chi^0_3 s_bar c)
     3.17045921E-05    3     1000025        -5         6   # BR(chi^+_2 -> chi^0_3 b_bar t)
     1.59127901E-08    3     1000025       -11        12   # BR(chi^+_2 -> chi^0_3 e^+ nu_e)
     3.16302127E-08    3     1000025       -13        14   # BR(chi^+_2 -> chi^0_3 mu^+ nu_mu)
     3.83621290E-06    3     1000025       -15        16   # BR(chi^+_2 -> chi^0_3 tau^+ nu_tau)
DECAY   1000022     2.49159321E+00   # chi^0_1
#    BR                NDA      ID1      ID2
     1.25009830E-01    2     2000011       -11   # BR(chi^0_1 -> ~e^-_R e^+)
     1.25009830E-01    2    -2000011        11   # BR(chi^0_1 -> ~e^+_R e^-)
     1.25381019E-01    2     2000013       -13   # BR(chi^0_1 -> ~mu^-_R mu^+)
     1.25381019E-01    2    -2000013        13   # BR(chi^0_1 -> ~mu^+_R mu^-)
     2.49609150E-01    2     1000015       -15   # BR(chi^0_1 -> ~tau^-_1 tau^+)
     2.49609150E-01    2    -1000015        15   # BR(chi^0_1 -> ~tau^+_1 tau^-)
     2.97895606E-10    2     1000039        22   # BR(chi^0_1 -> ~G photon)
     8.90449966E-11    2     1000039        23   # BR(chi^0_1 -> ~G Z)
     1.77435510E-12    2     1000039        25   # BR(chi^0_1 -> ~G h^0)
DECAY   1000023     2.36049233E+00   # chi^0_2
#    BR                NDA      ID1      ID2
     6.88344924E-03    2     2000011       -11   # BR(chi^0_2 -> ~e^-_R e^+)
     6.88344924E-03    2    -2000011        11   # BR(chi^0_2 -> ~e^+_R e^-)
     3.91485169E-05    2     1000011       -11   # BR(chi^0_2 -> ~e^-_L e^+)
     3.91485169E-05    2    -1000011        11   # BR(chi^0_2 -> ~e^+_L e^-)
     7.99823171E-03    2     2000013       -13   # BR(chi^0_2 -> ~mu^-_R mu^+)
     7.99823171E-03    2    -2000013        13   # BR(chi^0_2 -> ~mu^+_R mu^-)
     4.05218624E-05    2     1000013       -13   # BR(chi^0_2 -> ~mu^-_L mu^+)
     4.05218624E-05    2    -1000013        13   # BR(chi^0_2 -> ~mu^+_L mu^-)
     3.95694963E-01    2     1000015       -15   # BR(chi^0_2 -> ~tau^-_1 tau^+)
     3.95694963E-01    2    -1000015        15   # BR(chi^0_2 -> ~tau^+_1 tau^-)
     1.08484440E-03    2     2000015       -15   # BR(chi^0_2 -> ~tau^-_2 tau^+)
     1.08484440E-03    2    -2000015        15   # BR(chi^0_2 -> ~tau^+_2 tau^-)
     2.50216087E-05    2     1000012       -12   # BR(chi^0_2 -> ~nu_e nu_bar_e)
     2.50216087E-05    2    -1000012        12   # BR(chi^0_2 -> ~nu^*_e nu_e)
     2.52111913E-05    2     1000014       -14   # BR(chi^0_2 -> ~nu_mu nu_bar_mu)
     2.52111913E-05    2    -1000014        14   # BR(chi^0_2 -> ~nu^*_mu nu_mu)
     1.04607562E-04    2     1000016       -16   # BR(chi^0_2 -> ~nu_tau nu_bar_tau)
     1.04607562E-04    2    -1000016        16   # BR(chi^0_2 -> ~nu^*_tau nu_tau)
     7.62965681E-03    2     1000022        23   # BR(chi^0_2 -> chi^0_1 Z)
     1.68556396E-01    2     1000022        25   # BR(chi^0_2 -> chi^0_1 h^0)
     1.50132526E-10    2     1000039        22   # BR(chi^0_2 -> ~G photon)
     1.29861428E-10    2     1000039        23   # BR(chi^0_2 -> ~G Z)
     1.57952606E-09    2     1000039        25   # BR(chi^0_2 -> ~G h^0)
     1.57033263E-07    2     1000022        22   # BR(chi^0_2 -> chi^0_1 photon)
#    BR                NDA      ID1      ID2       ID3
     1.70866977E-09    3     1000022         2        -2   # BR(chi^0_2 -> chi^0_1 u u_bar)
     1.71102038E-09    3     1000022         4        -4   # BR(chi^0_2 -> chi^0_1 c c_bar)
     5.11616155E-10    3     1000022         1        -1   # BR(chi^0_2 -> chi^0_1 d d_bar)
     3.10285241E-09    3     1000022         3        -3   # BR(chi^0_2 -> chi^0_1 s s_bar)
     6.12219602E-06    3     1000022         5        -5   # BR(chi^0_2 -> chi^0_1 b b_bar)
     7.97880468E-07    3     1000022        11       -11   # BR(chi^0_2 -> chi^0_1 e^- e^+)
     8.66639940E-07    3     1000022        13       -13   # BR(chi^0_2 -> chi^0_1 mu^- mu^+)
     1.39968034E-05    3     1000022        15       -15   # BR(chi^0_2 -> chi^0_1 tau^- tau^+)
     6.11359574E-12    3     1000024         1        -2   # BR(chi^0_2 -> chi^+_1 d u_bar)
     6.11359574E-12    3    -1000024        -1         2   # BR(chi^0_2 -> chi^-_1 d_bar u)
     7.15886071E-13    3     1000024         3        -4   # BR(chi^0_2 -> chi^+_1 s c_bar)
     7.15886071E-13    3    -1000024        -3         4   # BR(chi^0_2 -> chi^-_1 s_bar c)
     1.96490271E-12    3     1000024        11       -12   # BR(chi^0_2 -> chi^+_1 e^- nu_bar_e)
     1.96490271E-12    3    -1000024       -11        12   # BR(chi^0_2 -> chi^-_1 e^+ nu_e)
     1.93813232E-12    3     1000024        13       -14   # BR(chi^0_2 -> chi^+_1 mu^- nu_bar_mu)
     1.93813232E-12    3    -1000024       -13        14   # BR(chi^0_2 -> chi^-_1 mu^+ nu_mu)
DECAY   1000025     2.28004132E+00   # chi^0_3
#    BR                NDA      ID1      ID2
     2.76059799E-04    2     2000011       -11   # BR(chi^0_3 -> ~e^-_R e^+)
     2.76059799E-04    2    -2000011        11   # BR(chi^0_3 -> ~e^+_R e^-)
     5.42063605E-07    2     1000011       -11   # BR(chi^0_3 -> ~e^-_L e^+)
     5.42063605E-07    2    -1000011        11   # BR(chi^0_3 -> ~e^+_L e^-)
     1.43555925E-03    2     2000013       -13   # BR(chi^0_3 -> ~mu^-_R mu^+)
     1.43555925E-03    2    -2000013        13   # BR(chi^0_3 -> ~mu^+_R mu^-)
     6.15625901E-06    2     1000013       -13   # BR(chi^0_3 -> ~mu^-_L mu^+)
     6.15625901E-06    2    -1000013        13   # BR(chi^0_3 -> ~mu^+_L mu^-)
     4.03532107E-01    2     1000015       -15   # BR(chi^0_3 -> ~tau^-_1 tau^+)
     4.03532107E-01    2    -1000015        15   # BR(chi^0_3 -> ~tau^+_1 tau^-)
     2.96830030E-03    2     2000015       -15   # BR(chi^0_3 -> ~tau^-_2 tau^+)
     2.96830030E-03    2    -2000015        15   # BR(chi^0_3 -> ~tau^+_2 tau^-)
     4.91876966E-06    2     1000012       -12   # BR(chi^0_3 -> ~nu_e nu_bar_e)
     4.91876966E-06    2    -1000012        12   # BR(chi^0_3 -> ~nu^*_e nu_e)
     4.93893131E-06    2     1000014       -14   # BR(chi^0_3 -> ~nu_mu nu_bar_mu)
     4.93893131E-06    2    -1000014        14   # BR(chi^0_3 -> ~nu^*_mu nu_mu)
     1.20570849E-05    2     1000016       -16   # BR(chi^0_3 -> ~nu_tau nu_bar_tau)
     1.20570849E-05    2    -1000016        16   # BR(chi^0_3 -> ~nu^*_tau nu_tau)
     1.77225752E-01    2     1000022        23   # BR(chi^0_3 -> chi^0_1 Z)
     6.26860879E-03    2     1000022        25   # BR(chi^0_3 -> chi^0_1 h^0)
     8.08322691E-14    2     1000039        22   # BR(chi^0_3 -> ~G photon)
     3.54192614E-10    2     1000039        23   # BR(chi^0_3 -> ~G Z)
     1.75482489E-09    2     1000039        25   # BR(chi^0_3 -> ~G h^0)
     1.07127801E-07    2     1000022        22   # BR(chi^0_3 -> chi^0_1 photon)
     7.03148145E-10    2     1000023        22   # BR(chi^0_3 -> chi^0_2 photon)
#    BR                NDA      ID1      ID2       ID3
     2.21318683E-11    3     1000022         2        -2   # BR(chi^0_3 -> chi^0_1 u u_bar)
     2.70411377E-11    3     1000022         4        -4   # BR(chi^0_3 -> chi^0_1 c c_bar)
     1.29500895E-11    3     1000022         1        -1   # BR(chi^0_3 -> chi^0_1 d d_bar)
     3.17213791E-09    3     1000022         3        -3   # BR(chi^0_3 -> chi^0_1 s s_bar)
     7.44504887E-06    3     1000022         5        -5   # BR(chi^0_3 -> chi^0_1 b b_bar)
     1.32379356E-08    3     1000022        11       -11   # BR(chi^0_3 -> chi^0_1 e^- e^+)
     9.75801604E-08    3     1000022        13       -13   # BR(chi^0_3 -> chi^0_1 mu^- mu^+)
     1.60244511E-05    3     1000022        15       -15   # BR(chi^0_3 -> chi^0_1 tau^- tau^+)
     1.31174934E-08    3     1000023         2        -2   # BR(chi^0_3 -> chi^0_2 u u_bar)
     1.22502845E-08    3     1000023         4        -4   # BR(chi^0_3 -> chi^0_2 c c_bar)
     1.70292037E-08    3     1000023         1        -1   # BR(chi^0_3 -> chi^0_2 d d_bar)
     1.70190903E-08    3     1000023         3        -3   # BR(chi^0_3 -> chi^0_2 s s_bar)
     4.77963353E-09    3     1000023         5        -5   # BR(chi^0_3 -> chi^0_2 b b_bar)
     3.92250652E-09    3     1000023        11       -11   # BR(chi^0_3 -> chi^0_2 e^- e^+)
     3.91749145E-09    3     1000023        13       -13   # BR(chi^0_3 -> chi^0_2 mu^- mu^+)
     2.74288231E-09    3     1000023        15       -15   # BR(chi^0_3 -> chi^0_2 tau^- tau^+)
     2.34247687E-08    3     1000023        12       -12   # BR(chi^0_3 -> chi^0_2 nu_e nu_bar_e)
     9.68271970E-08    3     1000024         1        -2   # BR(chi^0_3 -> chi^+_1 d u_bar)
     9.68271970E-08    3    -1000024        -1         2   # BR(chi^0_3 -> chi^-_1 d_bar u)
     9.31289706E-08    3     1000024         3        -4   # BR(chi^0_3 -> chi^+_1 s c_bar)
     9.31289706E-08    3    -1000024        -3         4   # BR(chi^0_3 -> chi^-_1 s_bar c)
     3.22313057E-08    3     1000024        11       -12   # BR(chi^0_3 -> chi^+_1 e^- nu_bar_e)
     3.22313057E-08    3    -1000024       -11        12   # BR(chi^0_3 -> chi^-_1 e^+ nu_e)
     3.22242984E-08    3     1000024        13       -14   # BR(chi^0_3 -> chi^+_1 mu^- nu_bar_mu)
     3.22242984E-08    3    -1000024       -13        14   # BR(chi^0_3 -> chi^-_1 mu^+ nu_mu)
     2.97844867E-08    3     1000024        15       -16   # BR(chi^0_3 -> chi^+_1 tau^- nu_bar_tau)
     2.97844867E-08    3    -1000024       -15        16   # BR(chi^0_3 -> chi^-_1 tau^+ nu_tau)
DECAY   1000035     8.99675629E+00   # chi^0_4
#    BR                NDA      ID1      ID2
     6.09105802E-05    2     2000011       -11   # BR(chi^0_4 -> ~e^-_R e^+)
     6.09105802E-05    2    -2000011        11   # BR(chi^0_4 -> ~e^+_R e^-)
     3.93361564E-02    2     1000011       -11   # BR(chi^0_4 -> ~e^-_L e^+)
     3.93361564E-02    2    -1000011        11   # BR(chi^0_4 -> ~e^+_L e^-)
     6.07269297E-05    2     2000013       -13   # BR(chi^0_4 -> ~mu^-_R mu^+)
     6.07269297E-05    2    -2000013        13   # BR(chi^0_4 -> ~mu^+_R mu^-)
     3.93527440E-02    2     1000013       -13   # BR(chi^0_4 -> ~mu^-_L mu^+)
     3.93527440E-02    2    -1000013        13   # BR(chi^0_4 -> ~mu^+_L mu^-)
     2.79294919E-04    2     1000015       -15   # BR(chi^0_4 -> ~tau^-_1 tau^+)
     2.79294919E-04    2    -1000015        15   # BR(chi^0_4 -> ~tau^+_1 tau^-)
     4.42316389E-02    2     2000015       -15   # BR(chi^0_4 -> ~tau^-_2 tau^+)
     4.42316389E-02    2    -2000015        15   # BR(chi^0_4 -> ~tau^+_2 tau^-)
     4.20328715E-02    2     1000012       -12   # BR(chi^0_4 -> ~nu_e nu_bar_e)
     4.20328715E-02    2    -1000012        12   # BR(chi^0_4 -> ~nu^*_e nu_e)
     4.20484586E-02    2     1000014       -14   # BR(chi^0_4 -> ~nu_mu nu_bar_mu)
     4.20484586E-02    2    -1000014        14   # BR(chi^0_4 -> ~nu^*_mu nu_mu)
     4.64491483E-02    2     1000016       -16   # BR(chi^0_4 -> ~nu_tau nu_bar_tau)
     4.64491483E-02    2    -1000016        16   # BR(chi^0_4 -> ~nu^*_tau nu_tau)
     1.31954262E-01    2     1000024       -24   # BR(chi^0_4 -> chi^+_1 W^-)
     1.31954262E-01    2    -1000024        24   # BR(chi^0_4 -> chi^-_1 W^+)
     7.71462390E-05    2     1000022        23   # BR(chi^0_4 -> chi^0_1 Z)
     2.29160906E-03    2     1000023        23   # BR(chi^0_4 -> chi^0_2 Z)
     1.11492622E-01    2     1000025        23   # BR(chi^0_4 -> chi^0_3 Z)
     7.61106137E-04    2     1000022        25   # BR(chi^0_4 -> chi^0_1 h^0)
     1.12372924E-01    2     1000023        25   # BR(chi^0_4 -> chi^0_2 h^0)
     1.23921127E-03    2     1000025        25   # BR(chi^0_4 -> chi^0_3 h^0)
     6.85897340E-10    2     1000039        22   # BR(chi^0_4 -> ~G photon)
     2.79359453E-09    2     1000039        23   # BR(chi^0_4 -> ~G Z)
     1.10519269E-10    2     1000039        25   # BR(chi^0_4 -> ~G h^0)
     1.90108200E-07    2     1000022        22   # BR(chi^0_4 -> chi^0_1 photon)
     8.39741733E-07    2     1000023        22   # BR(chi^0_4 -> chi^0_2 photon)
     8.07359764E-07    2     1000025        22   # BR(chi^0_4 -> chi^0_3 photon)
#    BR                NDA      ID1      ID2       ID3
     3.37600054E-08    3     1000022         2        -2   # BR(chi^0_4 -> chi^0_1 u u_bar)
     3.37578177E-08    3     1000022         4        -4   # BR(chi^0_4 -> chi^0_1 c c_bar)
     9.28852224E-07    3     1000022         6        -6   # BR(chi^0_4 -> chi^0_1 t t_bar)
     4.20873089E-08    3     1000022         1        -1   # BR(chi^0_4 -> chi^0_1 d d_bar)
     4.20969728E-08    3     1000022         3        -3   # BR(chi^0_4 -> chi^0_1 s s_bar)
     7.29978397E-08    3     1000022         5        -5   # BR(chi^0_4 -> chi^0_1 b b_bar)
     3.18190701E-08    3     1000022        11       -11   # BR(chi^0_4 -> chi^0_1 e^- e^+)
     3.16942732E-08    3     1000022        13       -13   # BR(chi^0_4 -> chi^0_1 mu^- mu^+)
     9.87968757E-08    3     1000022        15       -15   # BR(chi^0_4 -> chi^0_1 tau^- tau^+)
     2.80078785E-09    3     1000023         2        -2   # BR(chi^0_4 -> chi^0_2 u u_bar)
     2.79916915E-09    3     1000023         4        -4   # BR(chi^0_4 -> chi^0_2 c c_bar)
     1.96403069E-09    3     1000023         1        -1   # BR(chi^0_4 -> chi^0_2 d d_bar)
     2.99357679E-09    3     1000023         3        -3   # BR(chi^0_4 -> chi^0_2 s s_bar)
     2.43787196E-06    3     1000023         5        -5   # BR(chi^0_4 -> chi^0_2 b b_bar)
     1.34531026E-06    3     1000023        11       -11   # BR(chi^0_4 -> chi^0_2 e^- e^+)
     1.36630082E-06    3     1000023        13       -13   # BR(chi^0_4 -> chi^0_2 mu^- mu^+)
     6.33390314E-06    3     1000023        15       -15   # BR(chi^0_4 -> chi^0_2 tau^- tau^+)
     1.10809434E-06    3     1000023        12       -12   # BR(chi^0_4 -> chi^0_2 nu_e nu_bar_e)
     6.89572116E-12    3     1000025         2        -2   # BR(chi^0_4 -> chi^0_3 u u_bar)
     7.48023480E-12    3     1000025         4        -4   # BR(chi^0_4 -> chi^0_3 c c_bar)
     1.46303761E-11    3     1000025         1        -1   # BR(chi^0_4 -> chi^0_3 d d_bar)
     9.48758786E-10    3     1000025         3        -3   # BR(chi^0_4 -> chi^0_3 s s_bar)
     2.20596353E-06    3     1000025         5        -5   # BR(chi^0_4 -> chi^0_3 b b_bar)
     1.10865519E-09    3     1000025        11       -11   # BR(chi^0_4 -> chi^0_3 e^- e^+)
     1.58028589E-08    3     1000025        13       -13   # BR(chi^0_4 -> chi^0_3 mu^- mu^+)
     3.54972169E-06    3     1000025        15       -15   # BR(chi^0_4 -> chi^0_3 tau^- tau^+)
     1.81965779E-08    3     1000025        12       -12   # BR(chi^0_4 -> chi^0_3 nu_e nu_bar_e)
     1.73366200E-09    3     1000024         1        -2   # BR(chi^0_4 -> chi^+_1 d u_bar)
     1.73366200E-09    3    -1000024        -1         2   # BR(chi^0_4 -> chi^-_1 d_bar u)
     2.93620673E-09    3     1000024         3        -4   # BR(chi^0_4 -> chi^+_1 s c_bar)
     2.93620673E-09    3    -1000024        -3         4   # BR(chi^0_4 -> chi^-_1 s_bar c)
     5.91535514E-05    3     1000024         5        -6   # BR(chi^0_4 -> chi^+_1 b t_bar)
     5.91535514E-05    3    -1000024        -5         6   # BR(chi^0_4 -> chi^-_1 b_bar t)
     8.65767350E-07    3     1000024        11       -12   # BR(chi^0_4 -> chi^+_1 e^- nu_bar_e)
     8.65767350E-07    3    -1000024       -11        12   # BR(chi^0_4 -> chi^-_1 e^+ nu_e)
     8.85492289E-07    3     1000024        13       -14   # BR(chi^0_4 -> chi^+_1 mu^- nu_bar_mu)
     8.85492289E-07    3    -1000024       -13        14   # BR(chi^0_4 -> chi^-_1 mu^+ nu_mu)
     4.79324412E-06    3     1000024        15       -16   # BR(chi^0_4 -> chi^+_1 tau^- nu_bar_tau)
     4.79324412E-06    3    -1000024       -15        16   # BR(chi^0_4 -> chi^-_1 tau^+ nu_tau)
DECAY   1000021     1.82065045E+01   # ~g
#    BR                NDA      ID1      ID2
     4.07584623E-02    2     2000002        -2   # BR(~g -> ~u_R u_bar)
     4.07584623E-02    2    -2000002         2   # BR(~g -> ~u^*_R u)
     1.17057304E-02    2     1000002        -2   # BR(~g -> ~u_L u_bar)
     1.17057304E-02    2    -1000002         2   # BR(~g -> ~u^*_L u)
     4.07585603E-02    2     2000004        -4   # BR(~g -> ~c_R c_bar)
     4.07585603E-02    2    -2000004         4   # BR(~g -> ~c^*_R c)
     1.17093341E-02    2     1000004        -4   # BR(~g -> ~c_L c_bar)
     1.17093341E-02    2    -1000004         4   # BR(~g -> ~c^*_L c)
     6.75076371E-03    2     1000006        -4   # BR(~g -> ~t_1 c_bar)
     6.75076371E-03    2    -1000006         4   # BR(~g -> ~t^*_1 c)
     1.00855107E-01    2     1000006        -6   # BR(~g -> ~t_1 t_bar)
     1.00855107E-01    2    -1000006         6   # BR(~g -> ~t^*_1 t)
     4.27794320E-02    2     2000006        -6   # BR(~g -> ~t_2 t_bar)
     4.27794320E-02    2    -2000006         6   # BR(~g -> ~t^*_2 t)
     4.40281227E-02    2     2000001        -1   # BR(~g -> ~d_R d_bar)
     4.40281227E-02    2    -2000001         1   # BR(~g -> ~d^*_R d)
     1.14833943E-02    2     1000001        -1   # BR(~g -> ~d_L d_bar)
     1.14833943E-02    2    -1000001         1   # BR(~g -> ~d^*_L d)
     4.40426781E-02    2     2000003        -3   # BR(~g -> ~s_R s_bar)
     4.40426781E-02    2    -2000003         3   # BR(~g -> ~s^*_R s)
     1.14872076E-02    2     1000003        -3   # BR(~g -> ~s_L s_bar)
     1.14872076E-02    2    -1000003         3   # BR(~g -> ~s^*_L s)
     8.46207732E-02    2     1000005        -5   # BR(~g -> ~b_1 b_bar)
     8.46207732E-02    2    -1000005         5   # BR(~g -> ~b^*_1 b)
     4.88923771E-02    2     2000005        -5   # BR(~g -> ~b_2 b_bar)
     4.88923771E-02    2    -2000005         5   # BR(~g -> ~b^*_2 b)
     1.49608046E-06    2     1000022        21   # BR(~g -> chi^0_1 g)
     1.09187036E-04    2     1000023        21   # BR(~g -> chi^0_2 g)
     1.34376968E-04    2     1000025        21   # BR(~g -> chi^0_3 g)
     1.10548316E-05    2     1000035        21   # BR(~g -> chi^0_4 g)
DECAY        25     2.49519936E-03   # h^0
#    BR                NDA      ID1      ID2
     1.07830563E-08    2          11       -11   # BR(h^0 -> e^- e^+)
     4.60961684E-04    2          13       -13   # BR(h^0 -> mu^- mu^+)
     1.26851512E-01    2          15       -15   # BR(h^0 -> tau^- tau^+)
     5.99401054E-07    2           1        -1   # BR(h^0 -> d d_bar)
     2.64330307E-04    2           3        -3   # BR(h^0 -> s s_bar)
     5.73738231E-01    2           5        -5   # BR(h^0 -> b b_bar)
     2.68256116E-07    2           2        -2   # BR(h^0 -> u u_bar)
     4.80645470E-02    2           4        -4   # BR(h^0 -> c c_bar)
     7.23695218E-02    2          21        21   # BR(h^0 -> g g)
     3.58198876E-03    2          22        22   # BR(h^0 -> photon photon)
# writing decays into V V* as 3-body decays
#    BR                NDA      ID1      ID2       ID3
     7.97973236E-03    3          24        11        12   # BR(h^0 -> W^+ e^- nu_e)
     7.97973236E-03    3          24        13        14   # BR(h^0 -> W^+ mu^- nu_mu)
     7.97973236E-03    3          24        15        16   # BR(h^0 -> W^+ tau^- nu_tau)
     2.79290633E-02    3          24         1        -2   # BR(h^0 -> W^+ d u_bar)
     2.79290633E-02    3          24         3        -4   # BR(h^0 -> W^+ s c_bar)
     7.97973236E-03    3         -24       -11       -12   # BR(h^0 -> W^- e^+ nu_bar_e)
     7.97973236E-03    3         -24       -13       -14   # BR(h^0 -> W^- mu^+ nu_bar_mu)
     7.97973236E-03    3         -24       -15       -16   # BR(h^0 -> W^- tau^+ nu_bar_tau)
     2.79290633E-02    3         -24        -1         2   # BR(h^0 -> W^- d_bar u)
     2.79290633E-02    3         -24        -3         4   # BR(h^0 -> W^- s_bar c)
     5.27568366E-04    3          23        11       -11   # BR(h^0 -> Z e^- e^+)
     5.27568366E-04    3          23        13       -13   # BR(h^0 -> Z mu^- mu^+)
     4.52201457E-04    3          23        15       -15   # BR(h^0 -> Z tau^- tau^+)
     3.01467638E-03    3          23        12       -12   # BR(h^0 -> Z nu_e nu_bar_e)
     2.11027347E-03    3          23         1        -1   # BR(h^0 -> Z u u_bar)
     2.11027347E-03    3          23         3        -3   # BR(h^0 -> Z c c_bar)
     2.11027347E-03    3          23         5        -5   # BR(h^0 -> Z t t_bar)
     2.11027347E-03    3          23         2        -2   # BR(h^0 -> Z u u_bar)
     2.11027347E-03    3          23         4        -4   # BR(h^0 -> Z c c_bar)
DECAY        35     2.38591512E+01   # H^0
#    BR                NDA      ID1      ID2
     1.68290514E-08    2          11       -11   # BR(H^0 -> e^- e^+)
     7.19511920E-04    2          13       -13   # BR(H^0 -> mu^- mu^+)
     2.05168048E-01    2          15       -15   # BR(H^0 -> tau^- tau^+)
     7.69969545E-07    2           1        -1   # BR(H^0 -> d d_bar)
     3.39556004E-04    2           3        -3   # BR(H^0 -> s s_bar)
     7.93106871E-01    2           5        -5   # BR(H^0 -> b b_bar)
     6.99245925E-14    2           2        -2   # BR(H^0 -> u u_bar)
     1.25312964E-08    2           4        -4   # BR(H^0 -> c c_bar)
     5.74824360E-04    2           6        -6   # BR(H^0 -> t t_bar)
     1.04621445E-05    2     1000015  -1000015   # BR(H^0 -> ~tau^-_1 ~tau^+_1)
     3.95896161E-06    2          23        23   # BR(H^0 -> Z Z)
     7.60354009E-06    2          24       -24   # BR(H^0 -> W^+ W^-)
     9.18014175E-06    2          25        25   # BR(H^0 -> h^0 h^0)
     5.91035769E-05    2          21        21   # BR(H^0 -> g g)
     8.10465828E-08    2          22        22   # BR(H^0 -> photon photon)
DECAY        36     2.38588871E+01   # A^0
#    BR                NDA      ID1      ID2
     1.68292577E-08    2          11       -11   # BR(A^0 -> e^- e^+)
     7.19520789E-04    2          13       -13   # BR(A^0 -> mu^- mu^+)
     2.05174595E-01    2          15       -15   # BR(A^0 -> tau^- tau^+)
     7.69978704E-07    2           1        -1   # BR(A^0 -> d d_bar)
     3.39560017E-04    2           3        -3   # BR(A^0 -> s s_bar)
     7.93132333E-01    2           5        -5   # BR(A^0 -> b b_bar)
     6.29389035E-14    2           2        -2   # BR(A^0 -> u u_bar)
     1.12793792E-08    2           4        -4   # BR(A^0 -> c c_bar)
     6.07582933E-04    2           6        -6   # BR(A^0 -> t t_bar)
     7.29758888E-06    2          25        23   # BR(A^0 -> h^0 Z)
     1.82763629E-05    2          21        21   # BR(A^0 -> g g)
     3.67698026E-08    2          22        22   # BR(A^0 -> photon photon)
DECAY        37     2.02742481E+01   # H^+
#    BR                NDA      ID1      ID2
     1.99236319E-08    2         -11        12   # BR(H^+ -> e^+ nu_e)
     8.51818160E-04    2         -13        12   # BR(H^+ -> mu^+ nu_e)
     2.42899815E-01    2         -15        12   # BR(H^+ -> tau^+ nu_e)
     8.05381968E-07    2          -1         2   # BR(H^+ -> d_bar u)
     3.55182824E-04    2          -3         4   # BR(H^+ -> s_bar c)
     7.55883774E-01    2          -5         6   # BR(H^+ -> b_bar t)
     8.58504982E-06    2          25        24   # BR(H^+ -> h^0 W^+)
DECAY         6     2.43000000E+00   # top
#    BR                NDA      ID1      ID2
     1.00000000E+00    2           5        24   # BR(t -> b W)
Block HiggsBoundsInputHiggsCouplingsFermions
# ScalarNormEffCoupSq PseudoSNormEffCoupSq NP IP1 IP2 IP2
    1.11095551E+00    0.00000000E+00        3  25   5   5  # h0-b-b eff. coupling^2, normalised to SM
    2.49988904E+03    0.00000000E+00        3  35   5   5  # H0-b-b eff. coupling^2, normalised to SM
    0.00000000E+00    2.50000000E+03        3  36   5   5  # A0-b-b eff. coupling^2, normalised to SM
#
    9.99955618E-01    0.00000000E+00        3  25   6   6  # h0-t-t eff. coupling^2, normalised to SM
    4.44382204E-04    0.00000000E+00        3  35   6   6  # H0-t-t eff. coupling^2, normalised to SM
    0.00000000E+00    4.00000000E-04        3  36   6   6  # A0-t-t eff. coupling^2, normalised to SM
#
    1.11095551E+00    0.00000000E+00        3  25  15  15  # h0-tau-tau eff. coupling^2, normalised to SM
    2.49988904E+03    0.00000000E+00        3  35  15  15  # H0-tau-tau eff. coupling^2, normalised to SM
    0.00000000E+00    2.50000000E+03        3  36  15  15  # A0-tau-tau eff. coupling^2, normalised to SM
#
Block HiggsBoundsInputHiggsCouplingsBosons
    9.99998833E-01        3  25  24  24  # h0-W-W eff. coupling^2, normalised to SM
    1.16723507E-06        3  35  24  24  # H0-W-W eff. coupling^2, normalised to SM
    0.00000000E+00        3  36  24  24  # A0-W-W eff. coupling^2, normalised to SM
#
    9.99998833E-01        3  25  23  23  # h0-Z-Z eff. coupling^2, normalised to SM
    1.16723507E-06        3  35  23  23  # H0-Z-Z eff. coupling^2, normalised to SM
    0.00000000E+00        3  36  23  23  # A0-Z-Z eff. coupling^2, normalised to SM
#
    1.16003656E+00        3  25  21  21  # h0-g-g eff. coupling^2, normalised to SM
    4.49330356E-02        3  35  21  21  # H0-g-g eff. coupling^2, normalised to SM
    2.01111750E-01        3  36  21  21  # A0-g-g eff. coupling^2, normalised to SM
#
    0.00000000E+00        3  25  25  23  # h0-h0-Z eff. coupling^2, normalised to SM
    0.00000000E+00        3  35  25  23  # H0-h0-Z eff. coupling^2, normalised to SM
    1.16723507E-06        3  36  25  23  # A0-h0-Z eff. coupling^2, normalised to SM
    0.00000000E+00        3  35  35  23  # H0-H0-Z eff. coupling^2, normalised to SM
    9.99998833E-01        3  36  35  23  # A0-H0-Z eff. coupling^2, normalised to SM
    0.00000000E+00        3  36  36  23  # A0-A0-Z eff. coupling^2, normalised to SM
#
    0.00000000E+00        4  25  21  21  23  # h0-g-g-Z eff. coupling^2, normalised to SM
    0.00000000E+00        4  35  21  21  23  # H0-g-g-Z eff. coupling^2, normalised to SM
    0.00000000E+00        4  36  21  21  23  # A0-g-g-Z eff. coupling^2, normalised to SM
Block SPhenoLowEnergy  # low energy observables
    1    3.17742020E-04   # BR(b -> s gamma)
    2    1.59010611E-06   # BR(b -> s mu+ mu-)
    3    3.53960585E-05   # BR(b -> s nu nu)
    4    5.93567231E-11   # BR(Bd -> mu+ mu-)
    5    3.89846746E-09   # BR(Bs -> mu+ mu-)
    6    9.62519693E-05   # BR(B_u -> tau nu)
    7    8.70323501E-01   # BR(B_u -> tau nu)/BR(B_u -> tau nu)_SM
    8    2.73479191E-01   # |Delta(M_Bd)| [ps^-1] 
    9    2.02480363E+01   # |Delta(M_Bs)| [ps^-1] 
   20    3.20997293E-14   # Delta(g-2)_electron/2
   21    6.98831931E-10   # Delta(g-2)_muon/2
   22    6.46221414E-08   # Delta(g-2)_tau/2
   23    0.00000000E+00   # electric dipole moment of the electron
   24    0.00000000E+00   # electric dipole moment of the muon
   25    0.00000000E+00   # electric dipole moment of the tau
   26    0.00000000E+00   # Br(mu -> e gamma)
   27    0.00000000E+00   # Br(tau -> e gamma)
   28    0.00000000E+00   # Br(tau -> mu gamma)
   29    0.00000000E+00   # Br(mu -> 3 e)
   30    0.00000000E+00   # Br(tau -> 3 e)
   31    0.00000000E+00   # Br(tau -> 3 mu)
   39    1.70084373E-03   # Delta(rho_parameter)
   40    0.00000000E+00   # BR(Z -> e mu)
   41    0.00000000E+00   # BR(Z -> e tau)
   42    0.00000000E+00   # BR(Z -> mu tau)
Block FWCOEF Q=  9.11876000E+01  # Wilson coefficients at scale Q
#    id        order  M        value         comment
Block FWCOEF Q=  1.60000000E+02  # Wilson coefficients at scale Q
#    id        order  M        value         comment
     0305 4422   00   0    -1.87763365E-01   # C7
     0305 4422   00   1    -1.80765625E-02   # C7
     0305 4322   00   1    -3.85101429E-04   # C7'
     0305 6421   00   0    -9.48912850E-02   # C8
     0305 6421   00   1    -2.87977781E-02   # C8
     0305 6321   00   1    -6.10013311E-04   # C8'
 03051111 4133   00   0    -1.25285831E+00   # C9 e+e-
 03051111 4133   00   1     8.09700884E-04   # C9 e+e-
 03051111 4233   00   1    -1.24056472E-04   # C9' e+e-
 03051111 4137   00   0    -3.94847018E+00   # C10 e+e-
 03051111 4137   00   1     2.82221358E-03   # C10 e+e-
 03051111 4237   00   1     3.18304461E-03   # C10' e+e-
 03051313 4133   00   0    -1.25285831E+00   # C9 mu+mu-
 03051313 4133   00   1     8.09419418E-04   # C9 mu+mu-
 03051313 4233   00   1    -1.24125029E-04   # C9' mu+mu-
 03051313 4137   00   0    -3.94847018E+00   # C10 mu+mu-
 03051313 4137   00   1     2.82193183E-03   # C10 mu+mu-
 03051313 4237   00   1     3.18311320E-03   # C10' mu+mu-
 03051212 4237   00   0     1.49023120E+00   # C11 nu_1 nu_1
 03051212 4237   00   1    -6.79604909E-04   # C11 nu_1 nu_1
 03051212 4137   00   1    -7.64901410E-04   # C11' nu_1 nu_1
 03051414 4237   00   0     1.49023120E+00   # C11 nu_2 nu_2
 03051414 4237   00   1    -6.79604733E-04   # C11 nu_2 nu_2
 03051414 4137   00   1    -7.64884995E-04   # C11' nu_2 nu_2
 03051616 4237   00   0     1.49023120E+00   # C11 nu_3 nu_3
 03051616 4237   00   1    -6.79482131E-04   # C11 nu_3 nu_3
 03051616 4137   00   1    -7.60258144E-04   # C11' nu_3 nu_3
