#
#                              ======================
#                              | THE SUSYHIT OUTPUT |
#                              ======================
#
#
#              ------------------------------------------------------
#              |     This is the output of the SUSY-HIT package     |
#              |  created by A.Djouadi, M.Muehlleitner and M.Spira. |
#              |  In case of problems with SUSY-HIT email to        |
#              |           margarete.muehlleitner@cern.ch           |
#              |           michael.spira@psi.ch                     |
#              |           abdelhak.djouadi@cern.ch                 |
#              ------------------------------------------------------
#
#              ------------------------------------------------------
#              |  SUSY Les Houches Accord - MSSM Spectrum + Decays  |
#              |              based on the decay programs           |
#              |                                                    |
#              |                     SDECAY 1.3b                    |
#              |                                                    |
#              |  Authors: M.Muhlleitner, A.Djouadi and Y.Mambrini  |
#              |  Ref.:    Comput.Phys.Commun.168(2005)46           |
#              |           [hep-ph/0311167]                         |
#              |                                                    |
#              |                     HDECAY 3.4                     |
#              |                                                    |
#              |  By: A.Djouadi,J.Kalinowski,M.Muhlleitner,M.Spira  |
#              |  Ref.:    Comput.Phys.Commun.108(1998)56           |
#              |           [hep-ph/9704448]                         |
#              |                                                    |
#              |                                                    |
#              |  If not stated otherwise all DRbar couplings and   |
#              |  soft SUSY breaking masses are given at the scale  |
#              |  Q=  0.91187600E+02
#              |                                                    |
#              ------------------------------------------------------
#
#
BLOCK DCINFO  # Decay Program information
     1   SDECAY/HDECAY # decay calculator
     2   1.3b  /3.4    # version number
#
BLOCK SPINFO  # Spectrum calculator information
     1   SuSpect     # RGE +Spectrum calculator            
     2   2.41         # version number                     
#
BLOCK MODSEL  # Model selection
     1     0   # #general MSSM low scale                           
#
BLOCK SMINPUTS  # Standard Model inputs
         1     1.27934000E+02   # alpha_em^-1(M_Z)^MSbar
         2     1.16639000E-05   # G_F [GeV^-2]
         3     1.17200000E-01   # alpha_S(M_Z)^MSbar
         4     9.11870000E+01   # M_Z pole mass
         5     4.25000000E+00   # mb(mb)^MSbar
         6     1.72500000E+02   # mt pole mass
         7     1.77700000E+00   # mtau pole mass
#
BLOCK MINPAR  # Input parameters - minimal models
#
BLOCK EXTPAR  # Input parameters - non-minimal models
         0     9.11876000E+01   # EWSB                
         1     1.30000000E+03   # M_1                 
         2     1.00000000E+05   # M_2                 
         3     1.00000000E+05   # M_3                 
        11     0.00000000E+00   # A_t                 
        12     0.00000000E+00   # A_b                 
        13     0.00000000E+00   # A_tau               
        14     0.00000000E+00   # A_u                 
        15     0.00000000E+00   # A_d                 
        16     0.00000000E+00   # A_e                 
        23     3.50000000E+03   # mu(EWSB)            
        25     1.50000000E+00   # tanbeta(in)         
        26     2.00000000E+03   # MA_pole             
        31     1.00000000E+05   # M_eL                
        32     1.00000000E+05   # M_muL               
        33     1.00000000E+05   # M_tauL              
        34     1.00000000E+05   # M_eR                
        35     1.00000000E+05   # M_muR               
        36     1.00000000E+05   # M_tauR              
        41     1.40000000E+03   # M_q1L               
        42     1.40000000E+03   # M_q2L               
        43     1.40000000E+03   # M_q3L               
        44     1.00000000E+05   # M_uR                
        45     1.00000000E+05   # M_cR                
        46     1.00000000E+05   # M_tR                
        47     1.40000000E+03   # M_dR                
        48     1.40000000E+03   # M_sR                
        49     1.40000000E+03   # M_bR                
#
BLOCK MASS  # Mass Spectrum
# PDG code           mass       particle
        24     8.05821968E+01   # W+
        25     1.25000000E+02   # h
        35     2.00399264E+03   # H
        36     2.00000000E+03   # A
        37     2.02369654E+03   # H+
         5     4.87877839E+00   # b-quark pole mass calculated from mb(mb)_Msbar
   1000001     1.40047474E+03   # ~d_L
   2000001     1.40009140E+03   # ~d_R
   1000002     1.39961653E+03   # ~u_L
   2000002     9.99999974E+04   # ~u_R
   1000003     1.40047474E+03   # ~s_L
   2000003     1.40009140E+03   # ~s_R
   1000004     1.39961653E+03   # ~c_L
   2000004     9.99999974E+04   # ~c_R
   1000005     1.39543017E+03   # ~b_1
   2000005     1.40512399E+03   # ~b_2
   1000006     1.40736181E+03   # ~t_1
   2000006     1.00000106E+05   # ~t_2
   1000011     1.00000004E+05   # ~e_L
   2000011     1.00000004E+05   # ~e_R
   1000012     9.99999921E+04   # ~nu_eL
   1000013     1.00000004E+05   # ~mu_L
   2000013     1.00000004E+05   # ~mu_R
   1000014     9.99999921E+04   # ~nu_muL
   1000015     9.99999574E+04   # ~tau_1
   2000015     1.00000051E+05   # ~tau_2
   1000016     9.99999921E+04   # ~nu_tauL
   1000021     1.00000000E+05   # ~g
   1000022     1.29914381E+03   # ~chi_10
   1000023    -3.50001832E+03   # ~chi_20
   1000025     3.50080993E+03   # ~chi_30
   1000035     1.00000065E+05   # ~chi_40
   1000024     3.49994007E+03   # ~chi_1+
   1000037     1.00000065E+05   # ~chi_2+
   1000039     1.00000000E-09   # ~gravitino
#
BLOCK NMIX  # Neutralino Mixing Matrix
  1  1     9.99800241E-01   # N_11
  1  2    -1.53432871E-05   # N_12
  1  3     1.53646685E-02   # N_13
  1  4    -1.27830014E-02   # N_14
  2  1     1.82561308E-03   # N_21
  2  2    -1.49785428E-04   # N_22
  2  3    -7.07096343E-01   # N_23
  2  4    -7.07114847E-01   # N_24
  3  1     1.99034048E-02   # N_31
  3  2     8.03053724E-04   # N_32
  3  3    -7.06950123E-01   # N_33
  3  4     7.06982838E-01   # N_34
  4  1     3.69831219E-07   # N_41
  4  2    -9.99999666E-01   # N_42
  4  3    -4.62042099E-04   # N_43
  4  4     6.73857059E-04   # N_44
#
BLOCK UMIX  # Chargino Mixing Matrix U
  1  1    -6.53425996E-04   # U_11
  1  2     9.99999787E-01   # U_12
  2  1     9.99999787E-01   # U_21
  2  2     6.53425996E-04   # U_22
#
BLOCK VMIX  # Chargino Mixing Matrix V
  1  1    -9.52977703E-04   # V_11
  1  2     9.99999546E-01   # V_12
  2  1     9.99999546E-01   # V_21
  2  2     9.52977703E-04   # V_22
#
BLOCK STOPMIX  # Stop Mixing Matrix
  1  1     9.99999999E-01   # cos(theta_t)
  1  2     4.47213589E-05   # sin(theta_t)
  2  1    -4.47213589E-05   # -sin(theta_t)
  2  2     9.99999999E-01   # cos(theta_t)
#
BLOCK SBOTMIX  # Sbottom Mixing Matrix
  1  1     6.92984568E-01   # cos(theta_b)
  1  2     7.20952418E-01   # sin(theta_b)
  2  1    -7.20952418E-01   # -sin(theta_b)
  2  2     6.92984568E-01   # cos(theta_b)
#
BLOCK STAUMIX  # Stau Mixing Matrix
  1  1     7.06160002E-01   # cos(theta_tau)
  1  2     7.08052294E-01   # sin(theta_tau)
  2  1    -7.08052294E-01   # -sin(theta_tau)
  2  2     7.06160002E-01   # cos(theta_tau)
#
BLOCK ALPHA  # Higgs mixing
          -5.90281589E-01   # Mixing angle in the neutral Higgs boson sector
#
BLOCK HMIX Q=  9.11876000E+01  # DRbar Higgs Parameters
         1     3.50000000E+03   # mu(Q)               
         2     1.49999982E+00   # tanbeta(Q)          
         3     2.54877221E+02   # vev(Q)              
         4    -6.83085766E+07   # MA^2(Q)             
#
BLOCK GAUGE Q=  9.11876000E+01  # The gauge couplings
     1     3.50598250E-01   # gprime(Q) DRbar
     2     6.20251896E-01   # g(Q) DRbar
     3     1.02581537E+00   # g3(Q) DRbar
#
BLOCK AU Q=  9.11876000E+01  # The trilinear couplings
  1  1     0.00000000E+00   # A_u(Q) DRbar
  2  2     0.00000000E+00   # A_c(Q) DRbar
  3  3     0.00000000E+00   # A_t(Q) DRbar
#
BLOCK AD Q=  9.11876000E+01  # The trilinear couplings
  1  1     0.00000000E+00   # A_d(Q) DRbar
  2  2     0.00000000E+00   # A_s(Q) DRbar
  3  3     0.00000000E+00   # A_b(Q) DRbar
#
BLOCK AE Q=  9.11876000E+01  # The trilinear couplings
  1  1     0.00000000E+00   # A_e(Q) DRbar
  2  2     0.00000000E+00   # A_mu(Q) DRbar
  3  3     0.00000000E+00   # A_tau(Q) DRbar
#
BLOCK Yu Q=  9.11876000E+01  # The Yukawa couplings
  1  1     0.00000000E+00   # y_u(Q) DRbar
  2  2     0.00000000E+00   # y_c(Q) DRbar
  3  3     9.83536839E-01   # y_t(Q) DRbar
#
BLOCK Yd Q=  9.11876000E+01  # The Yukawa couplings
  1  1     0.00000000E+00   # y_d(Q) DRbar
  2  2     0.00000000E+00   # y_s(Q) DRbar
  3  3     2.58425424E-02   # y_b(Q) DRbar
#
BLOCK Ye Q=  9.11876000E+01  # The Yukawa couplings
  1  1     0.00000000E+00   # y_e(Q) DRbar
  2  2     0.00000000E+00   # y_mu(Q) DRbar
  3  3     1.77389523E-02   # y_tau(Q) DRbar
#
BLOCK MSOFT Q=  9.11876000E+01  # The soft SUSY breaking masses at the scale Q
         1     1.30000000E+03   # M_1                 
         2     1.00000000E+05   # M_2                 
         3     1.00000000E+05   # M_3                 
        14     0.00000000E+00   # A_u                 
        15     0.00000000E+00   # A_d                 
        16     0.00000000E+00   # A_e                 
        21     6.32549988E+08   # M^2_Hd              
        22    -1.14751089E+09   # M^2_Hu              
        31     1.00000000E+05   # M_eL                
        32     1.00000000E+05   # M_muL               
        33     1.00000000E+05   # M_tauL              
        34     1.00000000E+05   # M_eR                
        35     1.00000000E+05   # M_muR               
        36     1.00000000E+05   # M_tauR              
        41     1.40000000E+03   # M_q1L               
        42     1.40000000E+03   # M_q2L               
        43     1.40000000E+03   # M_q3L               
        44     1.00000000E+05   # M_uR                
        45     1.00000000E+05   # M_cR                
        46     1.00000000E+05   # M_tR                
        47     1.40000000E+03   # M_dR                
        48     1.40000000E+03   # M_sR                
        49     1.40000000E+03   # M_bR                
#
#
#
#                             =================
#                             |The decay table|
#                             =================
#
# - The QCD corrections to the decays gluino -> squark  + quark
#                                     squark -> gaugino + quark_prime
#                                     squark -> squark_prime + Higgs
#                                     squark -> gluino  + quark
#   are included.
#
# - The multi-body decays for the inos, stops and sbottoms are included.
#
# - The loop induced decays for the gluino, neutralinos and stops
#   are included.
#
# - The SUSY decays of the top quark are included.
#
# - Possible decays of the NLSP in GMSB models are included.
#
#
#         PDG            Width
DECAY         6     1.32785502E+00   # top decays
#          BR         NDA      ID1       ID2
     1.00000000E+00    2           5        24   # BR(t ->  b    W+)
#
#         PDG            Width
DECAY   1000021     1.E-04   # gluino decays (OJ Mods)
#          BR         NDA      ID1       ID2
     3.72194787E-04    2     1000001        -1   # BR(~g -> ~d_L  db)
     3.72194787E-04    2    -1000001         1   # BR(~g -> ~d_L* d )
     3.72194867E-04    2     2000001        -1   # BR(~g -> ~d_R  db)
     3.72194867E-04    2    -2000001         1   # BR(~g -> ~d_R* d )
     3.72194966E-04    2     1000002        -2   # BR(~g -> ~u_L  ub)
     3.72194966E-04    2    -1000002         2   # BR(~g -> ~u_L* u )
     1.00680958E-18    2     2000002        -2   # BR(~g -> ~u_R  ub)
     1.00680958E-18    2    -2000002         2   # BR(~g -> ~u_R* u )
     3.72194787E-04    2     1000003        -3   # BR(~g -> ~s_L  sb)
     3.72194787E-04    2    -1000003         3   # BR(~g -> ~s_L* s )
     3.72194867E-04    2     2000003        -3   # BR(~g -> ~s_R  sb)
     3.72194867E-04    2    -2000003         3   # BR(~g -> ~s_R* s )
     3.72194966E-04    2     1000004        -4   # BR(~g -> ~c_L  cb)
     3.72194966E-04    2    -1000004         4   # BR(~g -> ~c_L* c )
     1.00680958E-18    2     2000004        -4   # BR(~g -> ~c_R  cb)
     1.00680958E-18    2    -2000004         4   # BR(~g -> ~c_R* c )
     2.46190187E-01    2     1000005        -5   # BR(~g -> ~b_1  bb)
     2.46190187E-01    2    -1000005         5   # BR(~g -> ~b_1* b )
     2.45999514E-01    2     2000005        -5   # BR(~g -> ~b_2  bb)
     2.45999514E-01    2    -2000005         5   # BR(~g -> ~b_2* b )
     3.66282745E-04    2     1000006        -6   # BR(~g -> ~t_1  tb)
     3.66282745E-04    2    -1000006         6   # BR(~g -> ~t_1* t )
     1.04216929E-02    2     1000039        21   # BR(~g -> ~G g)
#
#         PDG            Width
DECAY   1000006     4.76304546E-04   # stop1 decays
#          BR         NDA      ID1       ID2
     9.91708629E-01    2     1000022         4   # BR(~t_1 -> ~chi_10 c )
     7.64577265E-03    2     1000022         2   # BR(~t_1 -> ~chi_10 u )
#           BR         NDA      ID1       ID2       ID3
     1.33902620E-04    3     1000022         5        24   # BR(~t_1 -> ~chi_10  b  W+)
     1.72487768E-04    3     1000005        -1         2   # BR(~t_1 -> ~b_1     db u)
     4.32469708E-08    3     2000005        -1         2   # BR(~t_1 -> ~b_2     db u)
     1.72487768E-04    3     1000005        -3         4   # BR(~t_1 -> ~b_1     sb c)
     4.32469708E-08    3     2000005        -3         4   # BR(~t_1 -> ~b_2     sb c)
     5.16127206E-05    3     1000005       -15        16   # BR(~t_1 -> ~b_1     tau+ nu_tau)
     2.90056915E-10    3     2000005       -15        16   # BR(~t_1 -> ~b_2     tau+ nu_tau)
     5.74959227E-05    3     1000005       -11        12   # BR(~t_1 -> ~b_1     e+   nu_e)
     1.44156569E-08    3     2000005       -11        12   # BR(~t_1 -> ~b_2     e+   nu_e)
     5.74959227E-05    3     1000005       -13        14   # BR(~t_1 -> ~b_1     mu+  nu_mu)
     1.44156569E-08    3     2000005       -13        14   # BR(~t_1 -> ~b_2     mu+  nu_mu)
#
#         PDG            Width
DECAY   2000006     4.94166177E+05   # stop2 decays
#          BR         NDA      ID1       ID2
     4.21822099E-04    2     1000022         6   # BR(~t_2 -> ~chi_10 t )
     1.00890609E-03    2     1000023         6   # BR(~t_2 -> ~chi_20 t )
     1.00867368E-03    2     1000025         6   # BR(~t_2 -> ~chi_30 t )
     9.97595702E-01    2     1000024         5   # BR(~t_2 -> ~chi_1+ b )
    -2.75903903E-05    2     1000006        25   # BR(~t_2 -> ~t_1    h )
     2.88859280E-05    2     1000006        35   # BR(~t_2 -> ~t_1    H )
     2.88357600E-05    2     1000006        36   # BR(~t_2 -> ~t_1    A )
     2.71601869E-05    2     1000005        37   # BR(~t_2 -> ~b_1    H+)
     3.05102837E-05    2     2000005        37   # BR(~t_2 -> ~b_2    H+)
    -1.97275602E-05    2     1000006        23   # BR(~t_2 -> ~t_1    Z )
    -4.95500286E-05    2     1000005        24   # BR(~t_2 -> ~b_1    W+)
    -5.36279410E-05    2     2000005        24   # BR(~t_2 -> ~b_2    W+)
#
#         PDG            Width
DECAY   1000005     2.18840568E+00   # sbottom1 decays
#          BR         NDA      ID1       ID2
     1.00000000E+00    2     1000022         5   # BR(~b_1 -> ~chi_10 b )
#
#         PDG            Width
DECAY   2000005     2.64587758E+00   # sbottom2 decays
#          BR         NDA      ID1       ID2
     1.00000000E+00    2     1000022         5   # BR(~b_2 -> ~chi_10 b )
#
#         PDG            Width
DECAY   1000002     6.24779303E-03   # sup_L decays
#          BR         NDA      ID1       ID2
     1.00000000E+00    2     1000022         2   # BR(~u_L -> ~chi_10 u)
#
#         PDG            Width
DECAY   2000002     2.08385776E+02   # sup_R decays
#          BR         NDA      ID1       ID2
     9.99600967E-01    2     1000022         2   # BR(~u_R -> ~chi_10 u)
     3.32914814E-06    2     1000023         2   # BR(~u_R -> ~chi_20 u)
     3.95703682E-04    2     1000025         2   # BR(~u_R -> ~chi_30 u)
#
#         PDG            Width
DECAY   1000001     6.33375724E-03   # sdown_L decays
#          BR         NDA      ID1       ID2
     1.00000000E+00    2     1000022         1   # BR(~d_L -> ~chi_10 d)
#
#         PDG            Width
DECAY   2000001     2.51807587E-02   # sdown_R decays
#          BR         NDA      ID1       ID2
     1.00000000E+00    2     1000022         1   # BR(~d_R -> ~chi_10 d)
#
#         PDG            Width
DECAY   1000004     6.24779303E-03   # scharm_L decays
#          BR         NDA      ID1       ID2
     1.00000000E+00    2     1000022         4   # BR(~c_L -> ~chi_10 c)
#
#         PDG            Width
DECAY   2000004     2.08385776E+02   # scharm_R decays
#          BR         NDA      ID1       ID2
     9.99600967E-01    2     1000022         4   # BR(~c_R -> ~chi_10 c)
     3.32914814E-06    2     1000023         4   # BR(~c_R -> ~chi_20 c)
     3.95703682E-04    2     1000025         4   # BR(~c_R -> ~chi_30 c)
#
#         PDG            Width
DECAY   1000003     6.33375724E-03   # sstrange_L decays
#          BR         NDA      ID1       ID2
     1.00000000E+00    2     1000022         3   # BR(~s_L -> ~chi_10 s)
#
#         PDG            Width
DECAY   2000003     2.51807587E-02   # sstrange_R decays
#          BR         NDA      ID1       ID2
     1.00000000E+00    2     1000022         3   # BR(~s_R -> ~chi_10 s)
#
#         PDG            Width
DECAY   1000011     1.22229281E+02   # selectron_L decays
#          BR         NDA      ID1       ID2
     9.99541148E-01    2     1000022        11   # BR(~e_L -> ~chi_10 e-)
     2.43039181E-06    2     1000023        11   # BR(~e_L -> ~chi_20 e-)
     4.53754476E-04    2     1000025        11   # BR(~e_L -> ~chi_30 e-)
     2.66697709E-06    2    -1000024        12   # BR(~e_L -> ~chi_1- nu_e)
#
#         PDG            Width
DECAY   2000011     4.88914220E+02   # selectron_R decays
#          BR         NDA      ID1       ID2
     9.99601365E-01    2     1000022        11   # BR(~e_R -> ~chi_10 e-)
     3.32582788E-06    2     1000023        11   # BR(~e_R -> ~chi_20 e-)
     3.95308873E-04    2     1000025        11   # BR(~e_R -> ~chi_30 e-)
#
#         PDG            Width
DECAY   1000013     1.22229281E+02   # smuon_L decays
#          BR         NDA      ID1       ID2
     9.99541148E-01    2     1000022        13   # BR(~mu_L -> ~chi_10 mu-)
     2.43039181E-06    2     1000023        13   # BR(~mu_L -> ~chi_20 mu-)
     4.53754476E-04    2     1000025        13   # BR(~mu_L -> ~chi_30 mu-)
     2.66697709E-06    2    -1000024        14   # BR(~mu_L -> ~chi_1- nu_mu)
#
#         PDG            Width
DECAY   2000013     4.88914220E+02   # smuon_R decays
#          BR         NDA      ID1       ID2
     9.99601365E-01    2     1000022        13   # BR(~mu_R -> ~chi_10 mu-)
     3.32582788E-06    2     1000023        13   # BR(~mu_R -> ~chi_20 mu-)
     3.95308873E-04    2     1000025        13   # BR(~mu_R -> ~chi_30 mu-)
#
#         PDG            Width
DECAY   1000015     1.18199415E+04   # stau_1 decays
#          BR         NDA      ID1       ID2
     2.58944758E-02    2     1000022        15   # BR(~tau_1 -> ~chi_10  tau-)
     2.54057958E-05    2     1000023        15   # BR(~tau_1 -> ~chi_20  tau-)
     2.72944693E-05    2     1000025        15   # BR(~tau_1 -> ~chi_30  tau-)
     2.77080678E-05    2    -1000024        16   # BR(~tau_1 -> ~chi_1-  nu_tau)
     9.74025116E-01    2     1000039        15   # BR(~tau_1 -> ~G       tau-)
#
#         PDG            Width
DECAY   2000015     3.05995343E+02   # stau_2 decays
#          BR         NDA      ID1       ID2
     9.96164261E-01    2     1000022        15   # BR(~tau_2 -> ~chi_10  tau-)
     1.06568213E-03    2     1000023        15   # BR(~tau_2 -> ~chi_20  tau-)
     1.79846639E-03    2     1000025        15   # BR(~tau_2 -> ~chi_30  tau-)
     9.71590494E-04    2    -1000024        16   # BR(~tau_2 -> ~chi_1-  nu_tau)
#
#         PDG            Width
DECAY   1000012     1.22229343E+02   # snu_eL decays
#          BR         NDA      ID1       ID2
     9.99649079E-01    2     1000022        12   # BR(~nu_eL -> ~chi_10 nu_e)
     4.36136281E-06    2     1000023        12   # BR(~nu_eL -> ~chi_20 nu_e)
     3.40886595E-04    2     1000025        12   # BR(~nu_eL -> ~chi_30 nu_e)
     5.67272428E-06    2     1000024        11   # BR(~nu_eL -> ~chi_1+ e-)
#
#         PDG            Width
DECAY   1000014     1.22229343E+02   # snu_muL decays
#          BR         NDA      ID1       ID2
     9.99649079E-01    2     1000022        14   # BR(~nu_muL -> ~chi_10 nu_mu)
     4.36136281E-06    2     1000023        14   # BR(~nu_muL -> ~chi_20 nu_mu)
     3.40886595E-04    2     1000025        14   # BR(~nu_muL -> ~chi_30 nu_mu)
     5.67272428E-06    2     1000024        13   # BR(~nu_muL -> ~chi_1+ mu-)
#
#         PDG            Width
DECAY   1000016     1.22853827E+02   # snu_tauL decays
#          BR         NDA      ID1       ID2
     9.94567718E-01    2     1000022        16   # BR(~nu_tauL -> ~chi_10 nu_tau)
     4.33919337E-06    2     1000023        16   # BR(~nu_tauL -> ~chi_20 nu_tau)
     3.39153819E-04    2     1000025        16   # BR(~nu_tauL -> ~chi_30 nu_tau)
     5.08878884E-03    2     1000024        15   # BR(~nu_tauL -> ~chi_1+ tau-)
#
#         PDG            Width
DECAY   1000024     7.54667192E+01   # chargino1+ decays
#          BR         NDA      ID1       ID2
     4.02452432E-07    2     1000002        -1   # BR(~chi_1+ -> ~u_L     db)
     1.89125436E-07    2    -1000001         2   # BR(~chi_1+ -> ~d_L*    u )
     4.02452432E-07    2     1000004        -3   # BR(~chi_1+ -> ~c_L     sb)
     1.89125436E-07    2    -1000003         4   # BR(~chi_1+ -> ~s_L*    c )
     1.71254327E-01    2     1000006        -5   # BR(~chi_1+ -> ~t_1     bb)
     6.86907262E-02    2    -1000005         6   # BR(~chi_1+ -> ~b_1*    t )
     7.16222328E-01    2    -2000005         6   # BR(~chi_1+ -> ~b_2*    t )
     4.27974900E-02    2     1000022        24   # BR(~chi_1+ -> ~chi_10  W+)
     1.02916127E-03    2     1000022        37   # BR(~chi_1+ -> ~chi_10  H+)
     3.99775219E-06    2     1000039        24   # BR(~chi_1+ -> ~G       W+)
     7.86591440E-07    2     1000039        37   # BR(~chi_1+ -> ~G       H+)
#
#         PDG            Width
DECAY   1000037     3.02582326E+05   # chargino2+ decays
#          BR         NDA      ID1       ID2
     3.50396812E-03    2     1000002        -1   # BR(~chi_2+ -> ~u_L     db)
     3.50396929E-03    2    -1000001         2   # BR(~chi_2+ -> ~d_L*    u )
     3.50396812E-03    2     1000004        -3   # BR(~chi_2+ -> ~c_L     sb)
     3.50396929E-03    2    -1000003         4   # BR(~chi_2+ -> ~s_L*    c )
     9.40417659E-01    2     1000006        -5   # BR(~chi_2+ -> ~t_1     bb)
     7.60867574E-04    2    -1000005         6   # BR(~chi_2+ -> ~b_1*    t )
     3.33432127E-03    2    -2000005         6   # BR(~chi_2+ -> ~b_2*    t )
     2.58993579E-15    2     1000012       -11   # BR(~chi_2+ -> ~nu_eL   e+  )
     2.58993579E-15    2     1000014       -13   # BR(~chi_2+ -> ~nu_muL  mu+ )
     1.81340108E-15    2    -1000011        12   # BR(~chi_2+ -> ~e_L+    nu_e)
     1.81340108E-15    2    -1000013        14   # BR(~chi_2+ -> ~mu_L+   nu_mu)
     2.81351021E-15    2    -1000015        16   # BR(~chi_2+ -> ~tau_1+  nu_tau)
     4.78891726E-17    2    -2000015        16   # BR(~chi_2+ -> ~tau_2+  nu_tau)
     6.42967778E-04    2     1000024        23   # BR(~chi_2+ -> ~chi_1+  Z )
     2.12382164E-07    2     1000022        24   # BR(~chi_2+ -> ~chi_10  W+)
     6.23974897E-04    2     1000023        24   # BR(~chi_2+ -> ~chi_20  W+)
     6.23755841E-04    2     1000025        24   # BR(~chi_2+ -> ~chi_30  W+)
     6.48562626E-04    2     1000024        25   # BR(~chi_2+ -> ~chi_1+  h )
     5.69316784E-04    2     1000024        35   # BR(~chi_2+ -> ~chi_1+  H )
     5.69391597E-04    2     1000024        36   # BR(~chi_2+ -> ~chi_1+  A )
     2.44398727E-07    2     1000022        37   # BR(~chi_2+ -> ~chi_10  H+)
     5.69372699E-04    2     1000023        37   # BR(~chi_2+ -> ~chi_20  H+)
     5.69145113E-04    2     1000025        37   # BR(~chi_2+ -> ~chi_30  H+)
     3.66543228E-02    2     1000039        24   # BR(~chi_2+ -> ~G       W+)
     1.05213961E-08    2     1000039        37   # BR(~chi_2+ -> ~G       H+)
#
#         PDG            Width
DECAY   1000022     1.E-08   # neutralino1 decays (OJ Mods)
#          BR         NDA      ID1       ID2
     7.61312080E-01    2     1000039        22   # BR(~chi_10 -> ~G        gam)
     2.38685849E-01    2     1000039        23   # BR(~chi_10 -> ~G        Z)
     2.07050575E-06    2     1000039        25   # BR(~chi_10 -> ~G        h)
#
#         PDG            Width
DECAY   1000023     1.E-08   # neutralino2 decays (OJ Mods)
#          BR         NDA      ID1       ID2
     3.74205372E-02    2     1000022        23   # BR(~chi_20 -> ~chi_10   Z )
     3.09493309E-04    2     1000022        25   # BR(~chi_20 -> ~chi_10   h )
     5.11079893E-04    2     1000022        35   # BR(~chi_20 -> ~chi_10   H )
     4.74010510E-04    2     1000022        36   # BR(~chi_20 -> ~chi_10   A )
     8.24047565E-09    2     1000002        -2   # BR(~chi_20 -> ~u_L      ub)
     8.24047565E-09    2    -1000002         2   # BR(~chi_20 -> ~u_L*     u )
     5.32530250E-08    2     1000001        -1   # BR(~chi_20 -> ~d_L      db)
     5.32530250E-08    2    -1000001         1   # BR(~chi_20 -> ~d_L*     d )
     1.03397254E-07    2     2000001        -1   # BR(~chi_20 -> ~d_R      db)
     1.03397254E-07    2    -2000001         1   # BR(~chi_20 -> ~d_R*     d )
     8.24047565E-09    2     1000004        -4   # BR(~chi_20 -> ~c_L      cb)
     8.24047565E-09    2    -1000004         4   # BR(~chi_20 -> ~c_L*     c )
     5.32530250E-08    2     1000003        -3   # BR(~chi_20 -> ~s_L      sb)
     5.32530250E-08    2    -1000003         3   # BR(~chi_20 -> ~s_L*     s )
     1.03397254E-07    2     2000003        -3   # BR(~chi_20 -> ~s_R      sb)
     1.03397254E-07    2    -2000003         3   # BR(~chi_20 -> ~s_R*     s )
     3.35321947E-01    2     1000006        -6   # BR(~chi_20 -> ~t_1      tb)
     3.35321947E-01    2    -1000006         6   # BR(~chi_20 -> ~t_1*     t )
     7.05109158E-02    2     1000005        -5   # BR(~chi_20 -> ~b_1      bb)
     7.05109158E-02    2    -1000005         5   # BR(~chi_20 -> ~b_1*     b )
     7.48072303E-02    2     2000005        -5   # BR(~chi_20 -> ~b_2      bb)
     7.48072303E-02    2    -2000005         5   # BR(~chi_20 -> ~b_2*     b )
     1.57548496E-11    2     1000039        22   # BR(~chi_20 -> ~G        gam)
     1.31568481E-07    2     1000039        23   # BR(~chi_20 -> ~G        Z)
     3.28374607E-06    2     1000039        25   # BR(~chi_20 -> ~G        h)
     2.63116230E-08    2     1000039        35   # BR(~chi_20 -> ~G        H)
     6.78373598E-07    2     1000039        36   # BR(~chi_20 -> ~G        A)
#
#         PDG            Width
DECAY   1000025     8.86614381E+01   # neutralino3 decays
#          BR         NDA      ID1       ID2
     3.14293012E-04    2     1000022        23   # BR(~chi_30 -> ~chi_10   Z )
     3.75055080E-02    2     1000022        25   # BR(~chi_30 -> ~chi_10   h )
     4.56094255E-04    2     1000022        35   # BR(~chi_30 -> ~chi_10   H )
     5.25136734E-04    2     1000022        36   # BR(~chi_30 -> ~chi_10   A )
     4.50639679E-06    2     1000002        -2   # BR(~chi_30 -> ~u_L      ub)
     4.50639679E-06    2    -1000002         2   # BR(~chi_30 -> ~u_L*     u )
     1.88711909E-06    2     1000001        -1   # BR(~chi_30 -> ~d_L      db)
     1.88711909E-06    2    -1000001         1   # BR(~chi_30 -> ~d_L*     d )
     1.22250469E-05    2     2000001        -1   # BR(~chi_30 -> ~d_R      db)
     1.22250469E-05    2    -2000001         1   # BR(~chi_30 -> ~d_R*     d )
     4.50639679E-06    2     1000004        -4   # BR(~chi_30 -> ~c_L      cb)
     4.50639679E-06    2    -1000004         4   # BR(~chi_30 -> ~c_L*     c )
     1.88711909E-06    2     1000003        -3   # BR(~chi_30 -> ~s_L      sb)
     1.88711909E-06    2    -1000003         3   # BR(~chi_30 -> ~s_L*     s )
     1.22250469E-05    2     2000003        -3   # BR(~chi_30 -> ~s_R      sb)
     1.22250469E-05    2    -2000003         3   # BR(~chi_30 -> ~s_R*     s )
     3.33583282E-01    2     1000006        -6   # BR(~chi_30 -> ~t_1      tb)
     3.33583282E-01    2    -1000006         6   # BR(~chi_30 -> ~t_1*     t )
     5.57210632E-02    2     1000005        -5   # BR(~chi_30 -> ~b_1      bb)
     5.57210632E-02    2    -1000005         5   # BR(~chi_30 -> ~b_1*     b )
     9.12607664E-02    2     2000005        -5   # BR(~chi_30 -> ~b_2      bb)
     9.12607664E-02    2    -2000005         5   # BR(~chi_30 -> ~b_2*     b )
     2.14447917E-09    2     1000039        22   # BR(~chi_30 -> ~G        gam)
     3.27307968E-06    2     1000039        23   # BR(~chi_30 -> ~G        Z)
     1.27657318E-07    2     1000039        25   # BR(~chi_30 -> ~G        h)
     6.71027475E-07    2     1000039        35   # BR(~chi_30 -> ~G        H)
     2.70194907E-08    2     1000039        36   # BR(~chi_30 -> ~G        A)
#
#         PDG            Width
DECAY   1000035     3.02583615E+05   # neutralino4 decays
#          BR         NDA      ID1       ID2
     2.21705620E-09    2     1000022        23   # BR(~chi_40 -> ~chi_10   Z )
     6.21360552E-04    2     1000023        23   # BR(~chi_40 -> ~chi_20   Z )
     2.16028753E-05    2     1000025        23   # BR(~chi_40 -> ~chi_30   Z )
     6.23968435E-04    2     1000024       -24   # BR(~chi_40 -> ~chi_1+   W-)
     6.23968435E-04    2    -1000024        24   # BR(~chi_40 -> ~chi_1-   W+)
     2.18792031E-07    2     1000022        25   # BR(~chi_40 -> ~chi_10   h )
     1.98991142E-08    2     1000022        35   # BR(~chi_40 -> ~chi_10   H )
     2.24201137E-07    2     1000022        36   # BR(~chi_40 -> ~chi_10   A )
     2.13003058E-05    2     1000023        25   # BR(~chi_40 -> ~chi_20   h )
     5.44828198E-04    2     1000023        35   # BR(~chi_40 -> ~chi_20   H )
     2.50453634E-05    2     1000023        36   # BR(~chi_40 -> ~chi_20   A )
     6.27041530E-04    2     1000025        25   # BR(~chi_40 -> ~chi_30   h )
     2.44656470E-05    2     1000025        35   # BR(~chi_40 -> ~chi_30   H )
     5.44119687E-04    2     1000025        36   # BR(~chi_40 -> ~chi_30   A )
     5.69379123E-04    2     1000024       -37   # BR(~chi_40 -> ~chi_1+   H-)
     5.69379123E-04    2    -1000024        37   # BR(~chi_40 -> ~chi_1-   H+)
     1.67714071E-03    2     1000002        -2   # BR(~chi_40 -> ~u_L      ub)
     1.67714071E-03    2    -1000002         2   # BR(~chi_40 -> ~u_L*     u )
     2.72894817E-23    2     2000002        -2   # BR(~chi_40 -> ~u_R      ub)
     2.72894817E-23    2    -2000002         2   # BR(~chi_40 -> ~u_R*     u )
     1.67714154E-03    2     1000001        -1   # BR(~chi_40 -> ~d_L      db)
     1.67714154E-03    2    -1000001         1   # BR(~chi_40 -> ~d_L*     d )
     3.25745039E-17    2     2000001        -1   # BR(~chi_40 -> ~d_R      db)
     3.25745039E-17    2    -2000001         1   # BR(~chi_40 -> ~d_R*     d )
     1.67714071E-03    2     1000004        -4   # BR(~chi_40 -> ~c_L      cb)
     1.67714071E-03    2    -1000004         4   # BR(~chi_40 -> ~c_L*     c )
     2.72894817E-23    2     2000004        -4   # BR(~chi_40 -> ~c_R      cb)
     2.72894817E-23    2    -2000004         4   # BR(~chi_40 -> ~c_R*     c )
     1.67714154E-03    2     1000003        -3   # BR(~chi_40 -> ~s_L      sb)
     1.67714154E-03    2    -1000003         3   # BR(~chi_40 -> ~s_L*     s )
     3.25745039E-17    2     2000003        -3   # BR(~chi_40 -> ~s_R      sb)
     3.25745039E-17    2    -2000003         3   # BR(~chi_40 -> ~s_R*     s )
     2.04758929E-03    2     1000006        -6   # BR(~chi_40 -> ~t_1      tb)
     2.04758929E-03    2    -1000006         6   # BR(~chi_40 -> ~t_1*     t )
     2.25192339E-01    2     1000005        -5   # BR(~chi_40 -> ~b_1      bb)
     2.25192339E-01    2    -1000005         5   # BR(~chi_40 -> ~b_1*     b )
     2.45016609E-01    2     2000005        -5   # BR(~chi_40 -> ~b_2      bb)
     2.45016609E-01    2    -2000005         5   # BR(~chi_40 -> ~b_2*     b )
     9.06696222E-16    2     1000011       -11   # BR(~chi_40 -> ~e_L-     e+)
     9.06696222E-16    2    -1000011        11   # BR(~chi_40 -> ~e_L+     e-)
     1.58493952E-28    2     2000011       -11   # BR(~chi_40 -> ~e_R-     e+)
     1.58493952E-28    2    -2000011        11   # BR(~chi_40 -> ~e_R+     e-)
     9.06696222E-16    2     1000013       -13   # BR(~chi_40 -> ~mu_L-    mu+)
     9.06696222E-16    2    -1000013        13   # BR(~chi_40 -> ~mu_L+    mu-)
     1.58493952E-28    2     2000013       -13   # BR(~chi_40 -> ~mu_R-    mu+)
     1.58493952E-28    2    -2000013        13   # BR(~chi_40 -> ~mu_R+    mu-)
     1.29496343E-15    2     1000012       -12   # BR(~chi_40 -> ~nu_eL    nu_eb)
     1.29496343E-15    2    -1000012        12   # BR(~chi_40 -> ~nu_eL*   nu_e )
     1.29496343E-15    2     1000014       -14   # BR(~chi_40 -> ~nu_muL   nu_mub)
     1.29496343E-15    2    -1000014        14   # BR(~chi_40 -> ~nu_muL*  nu_mu )
     1.29496343E-15    2     1000016       -16   # BR(~chi_40 -> ~nu_tau1  nu_taub)
     1.29496343E-15    2    -1000016        16   # BR(~chi_40 -> ~nu_tau1* nu_tau )
     8.87553729E-03    2     1000039        22   # BR(~chi_40 -> ~G        gam)
     2.77786325E-02    2     1000039        23   # BR(~chi_40 -> ~G        Z)
     1.67880427E-09    2     1000039        25   # BR(~chi_40 -> ~G        h)
     1.05388168E-08    2     1000039        35   # BR(~chi_40 -> ~G        H)
     2.07677989E-12    2     1000039        36   # BR(~chi_40 -> ~G        A)
#
#
#
#
