# SUSY Les Houches Accord 2 - MSSM spectrum + Decays
# SPheno v3.1.12 
# W. Porod, Comput. Phys. Commun. 153 (2003) 275-315, hep-ph/0301101
# in case of problems send email to porod@physik.uni-wuerzburg.de
# Created: 23.11.2012,  13:29
Block SPINFO         # Program information
     1   SPheno      # spectrum calculator
     2   v3.1.12     # version number
#
Block SPhenoINFO     # SPheno specific information
    1      2         # using 2-loop RGEs
    2      1         # using running masses for boundary conditions at mZ
Block MODSEL  # Model selection
    1    2    # mGMSB model
Block MINPAR  # Input parameters
    1    1.20000000E+05  # Lambda, scale of SUSY breaking
    2    2.50000000E+05  # M_M, messenger mass scale
    3    1.00000000E+01  # tanb at m_Z   
    4    1.00000000E+00  # Sign(mu)
    5    3.00000000E+00  # N_5 number of effective five-plets
    6    1.00000000E+00  # c_grav, Gravitino mass factor
Block gauge Q=  2.50000000E+05  # (GMSB scale)
   1    4.93323907E-01  # g'(Q)^DRbar
   2    6.47961078E-01  # g(Q)^DRbar
   3    9.36758559E-01  # g3(Q)^DRbar
Block SMINPUTS  # SM parameters
         1     1.27932471E+02  # alpha_em^-1(MZ)^MSbar
         2     1.16639000E-05  # G_mu [GeV^-2]
         3     1.17200000E-01  # alpha_s(MZ)^MSbar
         4     9.11876000E+01  # m_Z(pole)
         5     4.20000000E+00  # m_b(m_b), MSbar
         6     1.72500000E+02  # m_t(pole)
         7     1.77700000E+00  # m_tau(pole)
         8     0.00000000E+00  # m_nu_3
        11     5.10998910E-04  # m_e(pole)
        12     0.00000000E+00  # m_nu_1
        13     1.05658000E-01  # m_muon(pole)
        14     0.00000000E+00  # m_nu_2
        21     5.00000000E-03  # m_d(2 GeV), MSbar
        22     3.00000000E-03  # m_u(2 GeV), MSbar
        23     1.05000000E-01  # m_s(2 GeV), MSbar
        24     1.27000000E+00  # m_c(m_c), MSbar
Block gauge Q=  2.28318375E+03  # (SUSY scale)
   1    3.64822012E-01  # g'(Q)^DRbar
   2    6.38565577E-01  # g(Q)^DRbar
   3    1.01704733E+00  # g3(Q)^DRbar
Block Yu Q=  2.28318375E+03  # (SUSY scale)
  1  1     8.38199138E-06   # Y_u(Q)^DRbar
  2  2     3.54837672E-03   # Y_c(Q)^DRbar
  3  3     8.42173372E-01   # Y_t(Q)^DRbar
Block Yd Q=  2.28318375E+03  # (SUSY scale)
  1  1     1.29585707E-04   # Y_d(Q)^DRbar
  2  2     2.72129913E-03   # Y_s(Q)^DRbar
  3  3     1.28099202E-01   # Y_b(Q)^DRbar
Block Ye Q=  2.28318375E+03  # (SUSY scale)
  1  1     2.86008586E-05   # Y_e(Q)^DRbar
  2  2     5.91373254E-03   # Y_mu(Q)^DRbar
  3  3     9.94724327E-02   # Y_tau(Q)^DRbar
Block Au Q=  2.28318375E+03  # (SUSY scale)
  1  1    -7.09604950E+02   # A_u(Q)^DRbar
  2  2    -7.09604106E+02   # A_c(Q)^DRbar
  3  3    -6.70051720E+02   # A_t(Q)^DRbar
Block Ad Q=  2.28318375E+03  # (SUSY scale)
  1  1    -7.54757937E+02   # A_d(Q)^DRbar
  2  2    -7.54757279E+02   # A_s(Q)^DRbar
  3  3    -7.41043390E+02   # A_b(Q)^DRbar
Block Ae Q=  2.28318375E+03  # (SUSY scale)
  1  1    -8.34503743E+01   # A_e(Q)^DRbar
  2  2    -8.34500859E+01   # A_mu(Q)^DRbar
  3  3    -8.33687801E+01   # A_tau(Q)^DRbar
Block MSOFT Q=  2.28318375E+03  # soft SUSY breaking masses at Q
   1    5.23834885E+02  # M_1
   2    9.59746819E+02  # M_2
   3    2.44531022E+03  # M_3
  21    5.33158916E+05  # M^2_(H,d)
  22   -5.28037765E+05  # M^2_(H,u)
  31    7.47884435E+02  # M_(L,11)
  32    7.47882880E+02  # M_(L,22)
  33    7.47444377E+02  # M_(L,33)
  34    3.62558878E+02  # M_(E,11)
  35    3.62552351E+02  # M_(E,22)
  36    3.60707821E+02  # M_(E,33)
  41    2.37011034E+03  # M_(Q,11)
  42    2.37010832E+03  # M_(Q,22)
  43    2.29761724E+03  # M_(Q,33)
  44    2.27262670E+03  # M_(U,11)
  45    2.27262404E+03  # M_(U,22)
  46    2.11953598E+03  # M_(U,33)
  47    2.26311931E+03  # M_(D,11)
  48    2.26311771E+03  # M_(D,22)
  49    2.25958208E+03  # M_(D,33)
Block MASS  # Mass spectrum
#   PDG code      mass          particle
         6     1.72500000E+02  # m_t(pole)
        23     9.11876000E+01  # m_Z(pole)
        24     8.03141576E+01  # W+
        15     1.77700000E+00  # m_tau(pole)
        25     1.18433325E+02  # h0
        35     1.10757674E+03  # H0
        36     1.10732290E+03  # A0
        37     1.11061349E+03  # H+
   1000001     2.46833046E+03  # ~d_L
   2000001     2.35560450E+03  # ~d_R
   1000002     2.46706283E+03  # ~u_L
   2000002     2.36431720E+03  # ~u_R
   1000003     2.46832808E+03  # ~s_L
   2000003     2.35560247E+03  # ~s_R
   1000004     2.46706062E+03  # ~c_L
   2000004     2.36431397E+03  # ~c_R
   1000005     2.35062967E+03  # ~b_1
   2000005     2.38088412E+03  # ~b_2
   1000006     2.18284796E+03  # ~t_1
   2000006     2.38812826E+03  # ~t_2
   1000011     7.64646634E+02  # ~e_L-
   2000011     3.78011607E+02  # ~e_R-
   1000012     7.60174193E+02  # ~nu_eL
   1000013     7.64645519E+02  # ~mu_L-
   2000013     3.78001293E+02  # ~mu_R-
   1000014     7.60171990E+02  # ~nu_muL
   1000015     3.75085483E+02  # ~tau_1-
   2000015     7.64330320E+02  # ~tau_2-
   1000016     7.59551370E+02  # ~nu_tauL
   1000021     2.57202055E+03  # ~g
   1000022     5.08863080E+02  # ~chi_10
   1000023     8.00139185E+02  # ~chi_20
   1000025    -8.18154072E+02  # ~chi_30
   1000035     1.00105460E+03  # ~chi_40
   1000024     7.97445279E+02  # ~chi_1+
   1000037     1.00115245E+03  # ~chi_2+
   1000039     7.20000000E-09  # ~G
# Higgs mixing
Block alpha # Effective Higgs mixing angle
          -1.06302820E-01   # alpha
Block Hmix Q=  2.28318375E+03  # Higgs mixing parameters
   1    8.06151238E+02  # mu
   2    9.54430419E+00  # tan[beta](Q)
   3    2.43591437E+02  # v(Q)
   4    1.07673105E+06  # m^2_A(Q)
Block stopmix # stop mixing matrix
   1  1     1.41351155E-01   # Re[R_st(1,1)]
   1  2     9.89959520E-01   # Re[R_st(1,2)]
   2  1    -9.89959520E-01   # Re[R_st(2,1)]
   2  2     1.41351155E-01   # Re[R_st(2,2)]
Block sbotmix # sbottom mixing matrix
   1  1     1.48520770E-01   # Re[R_sb(1,1)]
   1  2     9.88909289E-01   # Re[R_sb(1,2)]
   2  1    -9.88909289E-01   # Re[R_sb(2,1)]
   2  2     1.48520770E-01   # Re[R_sb(2,2)]
Block staumix # stau mixing matrix
   1  1     3.20919882E-02   # Re[R_sta(1,1)]
   1  2     9.99484919E-01   # Re[R_sta(1,2)]
   2  1    -9.99484919E-01   # Re[R_sta(2,1)]
   2  2     3.20919882E-02   # Re[R_sta(2,2)]
Block Nmix # neutralino mixing matrix
   1  1    -9.93073003E-01   # Re[N(1,1)]
   1  2     1.25130071E-02   # Re[N(1,2)]
   1  3    -9.63308058E-02   # Re[N(1,3)]
   1  4     6.61045543E-02   # Re[N(1,4)]
   2  1     1.13130520E-01   # Re[N(2,1)]
   2  2     3.14665246E-01   # Re[N(2,2)]
   2  3    -6.71860392E-01   # Re[N(2,3)]
   2  4     6.60901568E-01   # Re[N(2,4)]
   3  1     2.09894381E-02   # Re[N(3,1)]
   3  2    -2.77538097E-02   # Re[N(3,2)]
   3  3    -7.05638040E-01   # Re[N(3,3)]
   3  4    -7.07717547E-01   # Re[N(3,4)]
   4  1    -2.38105139E-02   # Re[N(4,1)]
   4  2     9.48714358E-01   # Re[N(4,2)]
   4  3     2.03467311E-01   # Re[N(4,3)]
   4  4    -2.40780354E-01   # Re[N(4,4)]
Block Umix # chargino mixing matrix
   1  1    -2.87046392E-01   # Re[U(1,1)]
   1  2     9.57916682E-01   # Re[U(1,2)]
   2  1     9.57916682E-01   # Re[U(2,1)]
   2  2     2.87046392E-01   # Re[U(2,2)]
Block Vmix # chargino mixing matrix
   1  1    -3.39673470E-01   # Re[V(1,1)]
   1  2     9.40543425E-01   # Re[V(1,2)]
   2  1     9.40543425E-01   # Re[V(2,1)]
   2  2     3.39673470E-01   # Re[V(2,2)]
DECAY   2000011     1.70662896E-10   # ~e^-_R
#    BR                NDA      ID1      ID2
     9.99710375E-01    2     1000039        11   # BR(~e^-_R -> ~G e^-)
#    BR                NDA      ID1      ID2       ID3
     6.69270313E-05    3     1000015        11       -15   # BR(~e^-_R -> ~tau^-_1 e^- tau^+)
     2.22698246E-04    3    -1000015        11        15   # BR(~e^-_R -> ~tau^+_1 e^- tau^-)
DECAY   1000011     2.96360940E-01   # ~e^-_L
#    BR                NDA      ID1      ID2
     9.99999947E-01    2     1000022        11   # BR(~e^-_L -> chi^0_1 e^-)
     1.64123045E-08    2     2000011        23   # BR(~e^-_L -> ~e^-_R Z)
     1.68628429E-08    2     2000011        25   # BR(~e^-_L -> ~e^-_R h^0)
     1.94971251E-08    2     1000039        11   # BR(~e^-_L -> ~G e^-)
DECAY   2000013     1.70635783E-10   # ~mu^-_R
#    BR                NDA      ID1      ID2
     9.99732509E-01    2     1000039        13   # BR(~mu^-_R -> ~G mu^-)
#    BR                NDA      ID1      ID2       ID3
     6.18080250E-05    3     1000015        13       -15   # BR(~mu^-_R -> ~tau^-_1 mu^- tau^+)
     2.05682948E-04    3    -1000015        13        15   # BR(~mu^-_R -> ~tau^+_1 mu^- tau^-)
DECAY   1000013     2.96782669E-01   # ~mu^-_L
#    BR                NDA      ID1      ID2
     9.98579376E-01    2     1000022        13   # BR(~mu^-_L -> chi^0_1 mu^-)
     7.00690301E-04    2     2000013        23   # BR(~mu^-_L -> ~mu^-_R Z)
     7.19914545E-04    2     2000013        25   # BR(~mu^-_L -> ~mu^-_R h^0)
     1.94692761E-08    2     1000039        13   # BR(~mu^-_L -> ~G mu^-)
DECAY   1000015     1.64096729E-10   # ~tau^-_1
#    BR                NDA      ID1      ID2
     1.00000000E+00    2     1000039        15   # BR(~tau^-_1 -> ~G tau^-)
DECAY   2000015     4.16117660E-01   # ~tau^-_2
#    BR                NDA      ID1      ID2
     7.12278871E-01    2     1000022        15   # BR(~tau^-_2 -> chi^0_1 tau^-)
     1.42209815E-01    2     1000015        23   # BR(~tau^-_2 -> ~tau^-_1 Z)
     1.45511300E-01    2     1000015        25   # BR(~tau^-_2 -> ~tau^-_1 h^0)
     1.38569464E-08    2     1000039        15   # BR(~tau^-_2 -> ~G tau^-)
DECAY   1000012     3.15795410E-01   # ~nu_e
#    BR                NDA      ID1      ID2
     9.99999953E-01    2     1000022        12   # BR(~nu_e -> chi^0_1 nu_e)
     2.96735024E-08    2     2000011        24   # BR(~nu_e -> ~e^-_R W^+)
     1.77683635E-08    2     1000039        12   # BR(~nu_e -> ~G nu_e)
DECAY   1000014     3.16192147E-01   # ~nu_mu
#    BR                NDA      ID1      ID2
     9.98732926E-01    2     1000022        14   # BR(~nu_mu -> chi^0_1 nu_mu)
     1.26705640E-03    2     2000013        24   # BR(~nu_mu -> ~mu^-_R W^+)
     1.77458119E-08    2     1000039        14   # BR(~nu_mu -> ~G nu_mu)
DECAY   1000016     4.28578260E-01   # ~nu_tau
#    BR                NDA      ID1      ID2
     7.34280306E-01    2     1000022        16   # BR(~nu_tau -> chi^0_1 nu_tau)
     2.65719681E-01    2     1000015        24   # BR(~nu_tau -> ~tau^-_1 W^+)
     1.30389691E-08    2     1000039        16   # BR(~nu_tau -> ~G nu_tau)
DECAY   2000001     1.25720896E+00   # ~d_R
#    BR                NDA      ID1      ID2
     9.88160445E-01    2     1000022         1   # BR(~d_R -> chi^0_1 d)
     1.10422707E-02    2     1000023         1   # BR(~d_R -> chi^0_2 d)
     3.75829667E-04    2     1000025         1   # BR(~d_R -> chi^0_3 d)
     4.19671339E-04    2     1000035         1   # BR(~d_R -> chi^0_4 d)
     5.03528828E-07    2    -1000024         2   # BR(~d_R -> chi^-_1 u)
     4.48108191E-09    2    -1000037         2   # BR(~d_R -> chi^-_2 u)
     1.27524035E-06    2     1000039         1   # BR(~d_R -> ~G d)
DECAY   1000001     2.15702607E+01   # ~d_L
#    BR                NDA      ID1      ID2
     1.73003764E-02    2     1000022         1   # BR(~d_L -> chi^0_1 d)
     3.19389096E-02    2     1000023         1   # BR(~d_L -> chi^0_2 d)
     3.70768293E-04    2     1000025         1   # BR(~d_L -> chi^0_3 d)
     2.94433307E-01    2     1000035         1   # BR(~d_L -> chi^0_4 d)
     6.13544327E-02    2    -1000024         2   # BR(~d_L -> chi^-_1 u)
     5.94602112E-01    2    -1000037         2   # BR(~d_L -> chi^-_2 u)
     5.34181521E-13    2     2000002       -24   # BR(~d_L -> ~u_R W^-)
     4.93674583E-11    2     2000001        23   # BR(~d_L -> ~d_R Z)
     9.38963600E-08    2     1000039         1   # BR(~d_L -> ~G d)
DECAY   2000003     1.25776328E+00   # ~s_R
#    BR                NDA      ID1      ID2
     9.87729485E-01    2     1000022         3   # BR(~s_R -> chi^0_1 s)
     1.11448635E-02    2     1000023         3   # BR(~s_R -> chi^0_2 s)
     4.80032909E-04    2     1000025         3   # BR(~s_R -> chi^0_3 s)
     4.20410945E-04    2     1000035         3   # BR(~s_R -> chi^0_4 s)
     2.21957775E-04    2    -1000024         4   # BR(~s_R -> chi^-_1 c)
     1.97526383E-06    2    -1000037         4   # BR(~s_R -> chi^-_2 c)
     1.27467282E-06    2     1000039         3   # BR(~s_R -> ~G s)
DECAY   1000003     2.15709799E+01   # ~s_L
#    BR                NDA      ID1      ID2
     1.72997174E-02    2     1000022         3   # BR(~s_L -> chi^0_1 s)
     3.19432179E-02    2     1000023         3   # BR(~s_L -> chi^0_2 s)
     3.77489403E-04    2     1000025         3   # BR(~s_L -> chi^0_3 s)
     2.94423926E-01    2     1000035         3   # BR(~s_L -> chi^0_4 s)
     6.13703051E-02    2    -1000024         4   # BR(~s_L -> chi^-_1 c)
     5.94585132E-01    2    -1000037         4   # BR(~s_L -> chi^-_2 c)
     9.57317173E-08    2     2000004       -24   # BR(~s_L -> ~c_R W^-)
     2.17699057E-08    2     2000003        23   # BR(~s_L -> ~s_R Z)
     9.38927762E-08    2     1000039         3   # BR(~s_L -> ~G s)
DECAY   1000005     3.38331046E+00   # ~b_1
#    BR                NDA      ID1      ID2
     3.74218686E-01    2     1000022         5   # BR(~b_1 -> chi^0_1 b)
     1.19063218E-01    2     1000023         5   # BR(~b_1 -> chi^0_2 b)
     8.23522389E-02    2     1000025         5   # BR(~b_1 -> chi^0_3 b)
     1.34830675E-02    2     1000035         5   # BR(~b_1 -> chi^0_4 b)
     3.62253268E-01    2    -1000024         6   # BR(~b_1 -> chi^-_1 t)
     4.67514870E-02    2    -1000037         6   # BR(~b_1 -> chi^-_2 t)
     1.87756620E-03    2     1000006       -24   # BR(~b_1 -> ~t_1 W^-)
     4.68879564E-07    2     1000039         5   # BR(~b_1 -> ~G b)
DECAY   2000005     4.61152830E+01   # ~b_2
#    BR                NDA      ID1      ID2
     7.44088383E-03    2     1000022         5   # BR(~b_2 -> chi^0_1 b)
     1.75096248E-02    2     1000023         5   # BR(~b_2 -> chi^0_2 b)
     7.06328380E-03    2     1000025         5   # BR(~b_2 -> chi^0_3 b)
     1.28928863E-01    2     1000035         5   # BR(~b_2 -> chi^0_4 b)
     5.00172209E-01    2    -1000024         6   # BR(~b_2 -> chi^-_1 t)
     3.27759801E-01    2    -1000037         6   # BR(~b_2 -> chi^-_2 t)
     1.11252975E-02    2     1000006       -24   # BR(~b_2 -> ~t_1 W^-)
     3.66714975E-08    2     1000039         5   # BR(~b_2 -> ~G b)
DECAY   2000002     5.05113670E+00   # ~u_R
#    BR                NDA      ID1      ID2
     9.88147757E-01    2     1000022         2   # BR(~u_R -> chi^0_1 u)
     1.10551211E-02    2     1000023         2   # BR(~u_R -> chi^0_2 u)
     3.76075357E-04    2     1000025         2   # BR(~u_R -> chi^0_3 u)
     4.20722779E-04    2     1000035         2   # BR(~u_R -> chi^0_4 u)
     5.30235734E-10    2     1000024         1   # BR(~u_R -> chi^+_1 d)
     7.59249269E-12    2     1000037         1   # BR(~u_R -> chi^+_2 d)
     3.23316017E-07    2     1000039         2   # BR(~u_R -> ~G u)
DECAY   1000002     2.16264440E+01   # ~u_L
#    BR                NDA      ID1      ID2
     1.32298559E-02    2     1000022         2   # BR(~u_L -> chi^0_1 u)
     4.18783051E-02    2     1000023         2   # BR(~u_L -> chi^0_2 u)
     2.06859790E-04    2     1000025         2   # BR(~u_L -> chi^0_3 u)
     2.87842780E-01    2     1000035         2   # BR(~u_L -> chi^0_4 u)
     8.56265234E-02    2     1000024         1   # BR(~u_L -> chi^+_1 d)
     5.71215582E-01    2     1000037         1   # BR(~u_L -> chi^+_2 d)
     1.51910969E-10    2     2000001        24   # BR(~u_L -> ~d_R W^+)
     1.00812209E-13    2     2000002        23   # BR(~u_L -> ~u_R Z)
     9.34121937E-08    2     1000039         2   # BR(~u_L -> ~G u)
DECAY   2000004     5.05208126E+00   # ~c_R
#    BR                NDA      ID1      ID2
     9.87960909E-01    2     1000022         4   # BR(~c_R -> chi^0_1 c)
     1.10987574E-02    2     1000023         4   # BR(~c_R -> chi^0_2 c)
     4.22410797E-04    2     1000025         4   # BR(~c_R -> chi^0_3 c)
     4.21233384E-04    2     1000035         4   # BR(~c_R -> chi^0_4 c)
     9.50059759E-05    2     1000024         3   # BR(~c_R -> chi^+_1 s)
     1.36044823E-06    2     1000037         3   # BR(~c_R -> chi^+_2 s)
     3.23252989E-07    2     1000039         4   # BR(~c_R -> ~G c)
DECAY   1000004     2.16271462E+01   # ~c_L
#    BR                NDA      ID1      ID2
     1.32295388E-02    2     1000022         4   # BR(~c_L -> chi^0_1 c)
     4.18851189E-02    2     1000023         4   # BR(~c_L -> chi^0_2 c)
     2.18026716E-04    2     1000025         4   # BR(~c_L -> chi^0_3 c)
     2.87835505E-01    2     1000035         4   # BR(~c_L -> chi^0_4 c)
     8.56325322E-02    2     1000024         3   # BR(~c_L -> chi^+_1 s)
     5.71199099E-01    2     1000037         3   # BR(~c_L -> chi^+_2 s)
     6.69903286E-08    2     2000003        24   # BR(~c_L -> ~s_R W^+)
     1.80681846E-08    2     2000004        23   # BR(~c_L -> ~c_R Z)
     9.34086433E-08    2     1000039         4   # BR(~c_L -> ~G c)
DECAY   1000006     4.98333827E+01   # ~t_1
#    BR                NDA      ID1      ID2
     1.54895765E-07    2     1000022         4   # BR(~t_1 -> chi^0_1 c)
     9.25648461E-02    2     1000022         6   # BR(~t_1 -> chi^0_1 t)
     4.70362707E-07    2     1000023         4   # BR(~t_1 -> chi^0_2 c)
     2.09481893E-01    2     1000023         6   # BR(~t_1 -> chi^0_2 t)
     2.31524432E-01    2     1000025         6   # BR(~t_1 -> chi^0_3 t)
     1.04506904E-02    2     1000035         6   # BR(~t_1 -> chi^0_4 t)
     4.34591787E-01    2     1000024         5   # BR(~t_1 -> chi^+_1 b)
     2.13780804E-02    2     1000037         5   # BR(~t_1 -> chi^+_2 b)
     2.14388773E-08    2     1000039         6   # BR(~t_1 -> ~G t)
#    BR                NDA      ID1      ID2       ID3
     7.62484111E-06    3     1000022        24         5   # BR(~t_1 -> chi^0_1 W^+ b)
DECAY   2000006     4.71597437E+01   # ~t_2
#    BR                NDA      ID1      ID2
     6.91681933E-03    2     1000022         6   # BR(~t_2 -> chi^0_1 t)
     2.43228727E-01    2     1000023         6   # BR(~t_2 -> chi^0_2 t)
     2.69059321E-01    2     1000025         6   # BR(~t_2 -> chi^0_3 t)
     1.73464808E-01    2     1000035         6   # BR(~t_2 -> chi^0_4 t)
     2.01076406E-02    2     1000024         5   # BR(~t_2 -> chi^+_1 b)
     2.76949707E-01    2     1000037         5   # BR(~t_2 -> chi^+_2 b)
     5.85591021E-03    2     1000006        23   # BR(~t_2 -> ~t_1 Z)
     4.41703168E-03    2     1000006        25   # BR(~t_2 -> ~t_1 h^0)
     3.56547152E-08    2     1000039         6   # BR(~t_2 -> ~G t)
DECAY   1000024     4.86359267E-01   # chi^+_1
#    BR                NDA      ID1      ID2
     8.29865794E-09    2    -2000011        12   # BR(chi^+_1 -> ~e^+_R nu_e)
     3.55697200E-03    2    -1000011        12   # BR(chi^+_1 -> ~e^+_L nu_e)
     3.54800864E-04    2    -2000013        14   # BR(chi^+_1 -> ~mu^+_R nu_mu)
     3.55677491E-03    2    -1000013        14   # BR(chi^+_1 -> ~mu^+_L nu_mu)
     1.01140420E-01    2    -1000015        16   # BR(chi^+_1 -> ~tau^+_1 nu_tau)
     3.50084880E-03    2    -2000015        16   # BR(chi^+_1 -> ~tau^+_2 nu_tau)
     6.39501241E-03    2     1000012       -11   # BR(chi^+_1 -> ~nu_e e^+)
     6.40105771E-03    2     1000014       -13   # BR(chi^+_1 -> ~nu_mu mu^+)
     8.15017218E-03    2     1000016       -15   # BR(chi^+_1 -> ~nu_tau tau^+)
     8.65919092E-01    2     1000022        24   # BR(chi^+_1 -> chi^0_1 W^+)
#    BR                NDA      ID1      ID2       ID3
     1.19141286E-08    3     1000022        -1         2   # BR(chi^+_1 -> chi^0_1 d_bar u)
     1.20459745E-08    3     1000022        -3         4   # BR(chi^+_1 -> chi^0_1 s_bar c)
     1.01968281E-03    3     1000022        -5         6   # BR(chi^+_1 -> chi^0_1 b_bar t)
     4.31925460E-13    3     1000022       -11        12   # BR(chi^+_1 -> chi^0_1 e^+ nu_e)
     1.84646973E-08    3     1000022       -13        14   # BR(chi^+_1 -> chi^0_1 mu^+ nu_mu)
     5.11535428E-06    3     1000022       -15        16   # BR(chi^+_1 -> chi^0_1 tau^+ nu_tau)
DECAY   1000037     7.57917137E+00   # chi^+_2
#    BR                NDA      ID1      ID2
     6.25743883E-12    2    -2000011        12   # BR(chi^+_2 -> ~e^+_R nu_e)
     8.53513695E-02    2    -1000011        12   # BR(chi^+_2 -> ~e^+_L nu_e)
     2.67540368E-07    2    -2000013        14   # BR(chi^+_2 -> ~mu^+_R nu_mu)
     8.53526611E-02    2    -1000013        14   # BR(chi^+_2 -> ~mu^+_L nu_mu)
     7.70500653E-05    2    -1000015        16   # BR(chi^+_2 -> ~tau^+_1 nu_tau)
     8.57174331E-02    2    -2000015        16   # BR(chi^+_2 -> ~tau^+_2 nu_tau)
     8.49927786E-02    2     1000012       -11   # BR(chi^+_2 -> ~nu_e e^+)
     8.49945531E-02    2     1000014       -13   # BR(chi^+_2 -> ~nu_mu mu^+)
     8.54956132E-02    2     1000016       -15   # BR(chi^+_2 -> ~nu_tau tau^+)
     2.44216932E-03    2     1000022        24   # BR(chi^+_2 -> chi^0_1 W^+)
     1.40377067E-01    2     1000023        24   # BR(chi^+_2 -> chi^0_2 W^+)
     1.10498658E-01    2     1000025        24   # BR(chi^+_2 -> chi^0_3 W^+)
     1.33952065E-01    2     1000024        23   # BR(chi^+_2 -> chi^+_1 Z)
     1.00720343E-01    2     1000024        25   # BR(chi^+_2 -> chi^+_1 h^0)
#    BR                NDA      ID1      ID2       ID3
     3.03451923E-09    3     1000024         2        -2   # BR(chi^+_2 -> chi^+_1 u u_bar)
     3.03236141E-09    3     1000024         4        -4   # BR(chi^+_2 -> chi^+_1 c c_bar)
     4.10624222E-09    3     1000024         1        -1   # BR(chi^+_2 -> chi^+_1 d d_bar)
     4.11802366E-09    3     1000024         3        -3   # BR(chi^+_2 -> chi^+_1 s s_bar)
     3.30333051E-08    3     1000024         5        -5   # BR(chi^+_2 -> chi^+_1 b b_bar)
     9.55361292E-07    3     1000024        11       -11   # BR(chi^+_2 -> chi^+_1 e^- e^+)
     9.55904618E-07    3     1000024        13       -13   # BR(chi^+_2 -> chi^+_1 mu^- mu^+)
     1.08855938E-06    3     1000024        15       -15   # BR(chi^+_2 -> chi^+_1 tau^- tau^+)
     2.28108813E-06    3     1000024        12       -12   # BR(chi^+_2 -> chi^+_1 nu_e nu_bar_e)
     8.13825654E-08    3     1000022        -1         2   # BR(chi^+_2 -> chi^0_1 d_bar u)
     8.13788124E-08    3     1000022        -3         4   # BR(chi^+_2 -> chi^0_1 s_bar c)
     1.62395663E-05    3     1000022        -5         6   # BR(chi^+_2 -> chi^0_1 b_bar t)
     5.01864820E-11    3     1000022       -13        14   # BR(chi^+_2 -> chi^0_1 mu^+ nu_mu)
     1.41739346E-08    3     1000022       -15        16   # BR(chi^+_2 -> chi^0_1 tau^+ nu_tau)
     1.72466301E-09    3     1000023        -1         2   # BR(chi^+_2 -> chi^0_2 d_bar u)
     1.73110075E-09    3     1000023        -3         4   # BR(chi^+_2 -> chi^0_2 s_bar c)
     4.42744556E-06    3     1000023        -5         6   # BR(chi^+_2 -> chi^0_2 b_bar t)
     5.27008613E-07    3     1000023       -11        12   # BR(chi^+_2 -> chi^0_2 e^+ nu_e)
     5.27237524E-07    3     1000023       -13        14   # BR(chi^+_2 -> chi^0_2 mu^+ nu_mu)
     5.75291977E-07    3     1000023       -15        16   # BR(chi^+_2 -> chi^0_2 tau^+ nu_tau)
     2.57104252E-11    3     1000025        -1         2   # BR(chi^+_2 -> chi^0_3 d_bar u)
     2.90356814E-11    3     1000025        -3         4   # BR(chi^+_2 -> chi^0_3 s_bar c)
     1.05912935E-07    3     1000025        -5         6   # BR(chi^+_2 -> chi^0_3 b_bar t)
     4.72551136E-09    3     1000025       -11        12   # BR(chi^+_2 -> chi^0_3 e^+ nu_e)
     4.89228506E-09    3     1000025       -13        14   # BR(chi^+_2 -> chi^0_3 mu^+ nu_mu)
     5.12515423E-08    3     1000025       -15        16   # BR(chi^+_2 -> chi^0_3 tau^+ nu_tau)
DECAY   1000022     1.62199593E+00   # chi^0_1
#    BR                NDA      ID1      ID2
     1.64544637E-01    2     2000011       -11   # BR(chi^0_1 -> ~e^-_R e^+)
     1.64544637E-01    2    -2000011        11   # BR(chi^0_1 -> ~e^+_R e^-)
     1.64566867E-01    2     2000013       -13   # BR(chi^0_1 -> ~mu^-_R mu^+)
     1.64566867E-01    2    -2000013        13   # BR(chi^0_1 -> ~mu^+_R mu^-)
     1.70888496E-01    2     1000015       -15   # BR(chi^0_1 -> ~tau^-_1 tau^+)
     1.70888496E-01    2    -1000015        15   # BR(chi^0_1 -> ~tau^+_1 tau^-)
     3.40764893E-10    2     1000039        22   # BR(chi^0_1 -> ~G photon)
     1.00789745E-10    2     1000039        23   # BR(chi^0_1 -> ~G Z)
     2.67453952E-12    2     1000039        25   # BR(chi^0_1 -> ~G h^0)
DECAY   1000023     6.35708588E-01   # chi^0_2
#    BR                NDA      ID1      ID2
     2.57386844E-02    2     2000011       -11   # BR(chi^0_2 -> ~e^-_R e^+)
     2.57386844E-02    2    -2000011        11   # BR(chi^0_2 -> ~e^+_R e^-)
     2.76358415E-03    2     1000011       -11   # BR(chi^0_2 -> ~e^-_L e^+)
     2.76358415E-03    2    -1000011        11   # BR(chi^0_2 -> ~e^+_L e^-)
     2.58711648E-02    2     2000013       -13   # BR(chi^0_2 -> ~mu^-_R mu^+)
     2.58711648E-02    2    -2000013        13   # BR(chi^0_2 -> ~mu^+_R mu^-)
     2.76546020E-03    2     1000013       -13   # BR(chi^0_2 -> ~mu^-_L mu^+)
     2.76546020E-03    2    -1000013        13   # BR(chi^0_2 -> ~mu^+_L mu^-)
     6.35511764E-02    2     1000015       -15   # BR(chi^0_2 -> ~tau^-_1 tau^+)
     6.35511764E-02    2    -1000015        15   # BR(chi^0_2 -> ~tau^+_1 tau^-)
     3.30021732E-03    2     2000015       -15   # BR(chi^0_2 -> ~tau^-_2 tau^+)
     3.30021732E-03    2    -2000015        15   # BR(chi^0_2 -> ~tau^+_2 tau^-)
     1.51391366E-03    2     1000012       -12   # BR(chi^0_2 -> ~nu_e nu_bar_e)
     1.51391366E-03    2    -1000012        12   # BR(chi^0_2 -> ~nu^*_e nu_e)
     1.51407625E-03    2     1000014       -14   # BR(chi^0_2 -> ~nu_mu nu_bar_mu)
     1.51407625E-03    2    -1000014        14   # BR(chi^0_2 -> ~nu^*_mu nu_mu)
     1.56022133E-03    2     1000016       -16   # BR(chi^0_2 -> ~nu_tau nu_bar_tau)
     1.56022133E-03    2    -1000016        16   # BR(chi^0_2 -> ~nu^*_tau nu_tau)
     2.74666828E-02    2     1000022        23   # BR(chi^0_2 -> chi^0_1 Z)
     7.15358522E-01    2     1000022        25   # BR(chi^0_2 -> chi^0_1 h^0)
     7.37617997E-10    2     1000039        22   # BR(chi^0_2 -> ~G photon)
     2.40184670E-10    2     1000039        23   # BR(chi^0_2 -> ~G Z)
     6.04862584E-09    2     1000039        25   # BR(chi^0_2 -> ~G h^0)
     7.34865226E-07    2     1000022        22   # BR(chi^0_2 -> chi^0_1 photon)
#    BR                NDA      ID1      ID2       ID3
     1.18342787E-08    3     1000022         2        -2   # BR(chi^0_2 -> chi^0_1 u u_bar)
     1.18477393E-08    3     1000022         4        -4   # BR(chi^0_2 -> chi^0_1 c c_bar)
     5.22250504E-09    3     1000022         1        -1   # BR(chi^0_2 -> chi^0_1 d d_bar)
     5.35663125E-09    3     1000022         3        -3   # BR(chi^0_2 -> chi^0_1 s s_bar)
     3.05129179E-07    3     1000022         5        -5   # BR(chi^0_2 -> chi^0_1 b b_bar)
     4.36713620E-06    3     1000022        11       -11   # BR(chi^0_2 -> chi^0_1 e^- e^+)
     4.38062423E-06    3     1000022        13       -13   # BR(chi^0_2 -> chi^0_1 mu^- mu^+)
     7.96860612E-06    3     1000022        15       -15   # BR(chi^0_2 -> chi^0_1 tau^- tau^+)
     1.06706099E-10    3     1000024         1        -2   # BR(chi^0_2 -> chi^+_1 d u_bar)
     1.06706099E-10    3    -1000024        -1         2   # BR(chi^0_2 -> chi^-_1 d_bar u)
     3.55784410E-11    3     1000024         3        -4   # BR(chi^0_2 -> chi^+_1 s c_bar)
     3.55784410E-11    3    -1000024        -3         4   # BR(chi^0_2 -> chi^-_1 s_bar c)
     3.48415684E-11    3     1000024        11       -12   # BR(chi^0_2 -> chi^+_1 e^- nu_bar_e)
     3.48415684E-11    3    -1000024       -11        12   # BR(chi^0_2 -> chi^-_1 e^+ nu_e)
     3.45757113E-11    3     1000024        13       -14   # BR(chi^0_2 -> chi^+_1 mu^- nu_bar_mu)
     3.45757113E-11    3    -1000024       -13        14   # BR(chi^0_2 -> chi^-_1 mu^+ nu_mu)
     3.39376796E-12    3     1000024        15       -16   # BR(chi^0_2 -> chi^+_1 tau^- nu_bar_tau)
     3.39376796E-12    3    -1000024       -15        16   # BR(chi^0_2 -> chi^-_1 tau^+ nu_tau)
DECAY   1000025     5.42712096E-01   # chi^0_3
#    BR                NDA      ID1      ID2
     1.08790195E-03    2     2000011       -11   # BR(chi^0_3 -> ~e^-_R e^+)
     1.08790195E-03    2    -2000011        11   # BR(chi^0_3 -> ~e^+_R e^-)
     1.21597917E-05    2     1000011       -11   # BR(chi^0_3 -> ~e^-_L e^+)
     1.21597917E-05    2    -1000011        11   # BR(chi^0_3 -> ~e^+_L e^-)
     1.24708729E-03    2     2000013       -13   # BR(chi^0_3 -> ~mu^-_R mu^+)
     1.24708729E-03    2    -2000013        13   # BR(chi^0_3 -> ~mu^+_R mu^-)
     1.64386783E-05    2     1000013       -13   # BR(chi^0_3 -> ~mu^-_L mu^+)
     1.64386783E-05    2    -1000013        13   # BR(chi^0_3 -> ~mu^+_L mu^-)
     4.64904065E-02    2     1000015       -15   # BR(chi^0_3 -> ~tau^-_1 tau^+)
     4.64904065E-02    2    -1000015        15   # BR(chi^0_3 -> ~tau^+_1 tau^-)
     1.23850157E-03    2     2000015       -15   # BR(chi^0_3 -> ~tau^-_2 tau^+)
     1.23850157E-03    2    -2000015        15   # BR(chi^0_3 -> ~tau^+_2 tau^-)
     9.02670258E-05    2     1000012       -12   # BR(chi^0_3 -> ~nu_e nu_bar_e)
     9.02670258E-05    2    -1000012        12   # BR(chi^0_3 -> ~nu^*_e nu_e)
     9.02736321E-05    2     1000014       -14   # BR(chi^0_3 -> ~nu_mu nu_bar_mu)
     9.02736321E-05    2    -1000014        14   # BR(chi^0_3 -> ~nu^*_mu nu_mu)
     9.21439837E-05    2     1000016       -16   # BR(chi^0_3 -> ~nu_tau nu_bar_tau)
     9.21439837E-05    2    -1000016        16   # BR(chi^0_3 -> ~nu^*_tau nu_tau)
     8.70807812E-01    2     1000022        23   # BR(chi^0_3 -> chi^0_1 Z)
     2.84365614E-02    2     1000022        25   # BR(chi^0_3 -> chi^0_1 h^0)
     2.96624992E-13    2     1000039        22   # BR(chi^0_3 -> ~G photon)
     1.19129376E-09    2     1000039        23   # BR(chi^0_3 -> ~G Z)
     5.90201685E-09    2     1000039        25   # BR(chi^0_3 -> ~G h^0)
     9.61501595E-07    2     1000022        22   # BR(chi^0_3 -> chi^0_1 photon)
     2.82890333E-09    2     1000023        22   # BR(chi^0_3 -> chi^0_2 photon)
#    BR                NDA      ID1      ID2       ID3
     1.46114890E-10    3     1000022         2        -2   # BR(chi^0_3 -> chi^0_1 u u_bar)
     1.79855998E-10    3     1000022         4        -4   # BR(chi^0_3 -> chi^0_1 c c_bar)
     3.97526706E-11    3     1000022         1        -1   # BR(chi^0_3 -> chi^0_1 d d_bar)
     2.40335839E-10    3     1000022         3        -3   # BR(chi^0_3 -> chi^0_1 s s_bar)
     4.47606835E-07    3     1000022         5        -5   # BR(chi^0_3 -> chi^0_1 b b_bar)
     8.09321444E-08    3     1000022        11       -11   # BR(chi^0_3 -> chi^0_1 e^- e^+)
     1.00637319E-07    3     1000022        13       -13   # BR(chi^0_3 -> chi^0_1 mu^- mu^+)
     5.55609848E-06    3     1000022        15       -15   # BR(chi^0_3 -> chi^0_1 tau^- tau^+)
     3.65806947E-07    3     1000023         2        -2   # BR(chi^0_3 -> chi^0_2 u u_bar)
     3.54797368E-07    3     1000023         4        -4   # BR(chi^0_3 -> chi^0_2 c c_bar)
     4.74805310E-07    3     1000023         1        -1   # BR(chi^0_3 -> chi^0_2 d d_bar)
     4.74676774E-07    3     1000023         3        -3   # BR(chi^0_3 -> chi^0_2 s s_bar)
     2.91807499E-07    3     1000023         5        -5   # BR(chi^0_3 -> chi^0_2 b b_bar)
     1.09188516E-07    3     1000023        11       -11   # BR(chi^0_3 -> chi^0_2 e^- e^+)
     1.09168889E-07    3     1000023        13       -13   # BR(chi^0_3 -> chi^0_2 mu^- mu^+)
     1.03245165E-07    3     1000023        15       -15   # BR(chi^0_3 -> chi^0_2 tau^- tau^+)
     6.53157641E-07    3     1000023        12       -12   # BR(chi^0_3 -> chi^0_2 nu_e nu_bar_e)
     2.55458653E-06    3     1000024         1        -2   # BR(chi^0_3 -> chi^+_1 d u_bar)
     2.55458653E-06    3    -1000024        -1         2   # BR(chi^0_3 -> chi^-_1 d_bar u)
     2.50851396E-06    3     1000024         3        -4   # BR(chi^0_3 -> chi^+_1 s c_bar)
     2.50851396E-06    3    -1000024        -3         4   # BR(chi^0_3 -> chi^-_1 s_bar c)
     8.50835689E-07    3     1000024        11       -12   # BR(chi^0_3 -> chi^+_1 e^- nu_bar_e)
     8.50835689E-07    3    -1000024       -11        12   # BR(chi^0_3 -> chi^-_1 e^+ nu_e)
     8.50829126E-07    3     1000024        13       -14   # BR(chi^0_3 -> chi^+_1 mu^- nu_bar_mu)
     8.50829126E-07    3    -1000024       -13        14   # BR(chi^0_3 -> chi^-_1 mu^+ nu_mu)
     8.20992537E-07    3     1000024        15       -16   # BR(chi^0_3 -> chi^+_1 tau^- nu_bar_tau)
     8.20992537E-07    3    -1000024       -15        16   # BR(chi^0_3 -> chi^-_1 tau^+ nu_tau)
DECAY   1000035     7.59062358E+00   # chi^0_4
#    BR                NDA      ID1      ID2
     1.45540973E-04    2     2000011       -11   # BR(chi^0_4 -> ~e^-_R e^+)
     1.45540973E-04    2    -2000011        11   # BR(chi^0_4 -> ~e^+_R e^-)
     4.05803193E-02    2     1000011       -11   # BR(chi^0_4 -> ~e^-_L e^+)
     4.05803193E-02    2    -1000011        11   # BR(chi^0_4 -> ~e^+_L e^-)
     1.45636483E-04    2     2000013       -13   # BR(chi^0_4 -> ~mu^-_R mu^+)
     1.45636483E-04    2    -2000013        13   # BR(chi^0_4 -> ~mu^+_R mu^-)
     4.05811652E-02    2     1000013       -13   # BR(chi^0_4 -> ~mu^-_L mu^+)
     4.05811652E-02    2    -1000013        13   # BR(chi^0_4 -> ~mu^+_L mu^-)
     1.73700244E-04    2     1000015       -15   # BR(chi^0_4 -> ~tau^-_1 tau^+)
     1.73700244E-04    2    -1000015        15   # BR(chi^0_4 -> ~tau^+_1 tau^-)
     4.08200003E-02    2     2000015       -15   # BR(chi^0_4 -> ~tau^-_2 tau^+)
     4.08200003E-02    2    -2000015        15   # BR(chi^0_4 -> ~tau^+_2 tau^-)
     4.43917064E-02    2     1000012       -12   # BR(chi^0_4 -> ~nu_e nu_bar_e)
     4.43917064E-02    2    -1000012        12   # BR(chi^0_4 -> ~nu^*_e nu_e)
     4.43924071E-02    2     1000014       -14   # BR(chi^0_4 -> ~nu_mu nu_bar_mu)
     4.43924071E-02    2    -1000014        14   # BR(chi^0_4 -> ~nu^*_mu nu_mu)
     4.45900090E-02    2     1000016       -16   # BR(chi^0_4 -> ~nu_tau nu_bar_tau)
     4.45900090E-02    2    -1000016        16   # BR(chi^0_4 -> ~nu^*_tau nu_tau)
     1.40695414E-01    2     1000024       -24   # BR(chi^0_4 -> chi^+_1 W^-)
     1.40695414E-01    2    -1000024        24   # BR(chi^0_4 -> chi^-_1 W^+)
     2.47107307E-04    2     1000022        23   # BR(chi^0_4 -> chi^0_1 Z)
     1.26970148E-03    2     1000023        23   # BR(chi^0_4 -> chi^0_2 Z)
     1.00877304E-01    2     1000025        23   # BR(chi^0_4 -> chi^0_3 Z)
     2.65795919E-03    2     1000022        25   # BR(chi^0_4 -> chi^0_1 h^0)
     1.01430689E-01    2     1000023        25   # BR(chi^0_4 -> chi^0_2 h^0)
     4.63112338E-04    2     1000025        25   # BR(chi^0_4 -> chi^0_3 h^0)
     5.92687800E-10    2     1000039        22   # BR(chi^0_4 -> ~G photon)
     2.72871179E-09    2     1000039        23   # BR(chi^0_4 -> ~G Z)
     1.99400837E-10    2     1000039        25   # BR(chi^0_4 -> ~G h^0)
     2.08319417E-07    2     1000022        22   # BR(chi^0_4 -> chi^0_1 photon)
     7.12491192E-07    2     1000023        22   # BR(chi^0_4 -> chi^0_2 photon)
     8.63331925E-07    2     1000025        22   # BR(chi^0_4 -> chi^0_3 photon)
#    BR                NDA      ID1      ID2       ID3
     3.52355179E-08    3     1000022         2        -2   # BR(chi^0_4 -> chi^0_1 u u_bar)
     3.52311811E-08    3     1000022         4        -4   # BR(chi^0_4 -> chi^0_1 c c_bar)
     2.09094818E-06    3     1000022         6        -6   # BR(chi^0_4 -> chi^0_1 t t_bar)
     4.63482584E-08    3     1000022         1        -1   # BR(chi^0_4 -> chi^0_1 d d_bar)
     4.63484961E-08    3     1000022         3        -3   # BR(chi^0_4 -> chi^0_1 s s_bar)
     5.42145271E-08    3     1000022         5        -5   # BR(chi^0_4 -> chi^0_1 b b_bar)
     8.22102256E-08    3     1000022        11       -11   # BR(chi^0_4 -> chi^0_1 e^- e^+)
     8.22311221E-08    3     1000022        13       -13   # BR(chi^0_4 -> chi^0_1 mu^- mu^+)
     8.78035979E-08    3     1000022        15       -15   # BR(chi^0_4 -> chi^0_1 tau^- tau^+)
     2.83705560E-09    3     1000023         2        -2   # BR(chi^0_4 -> chi^0_2 u u_bar)
     2.83467276E-09    3     1000023         4        -4   # BR(chi^0_4 -> chi^0_2 c c_bar)
     2.19282535E-09    3     1000023         1        -1   # BR(chi^0_4 -> chi^0_2 d d_bar)
     2.19767323E-09    3     1000023         3        -3   # BR(chi^0_4 -> chi^0_2 s s_bar)
     1.34016781E-08    3     1000023         5        -5   # BR(chi^0_4 -> chi^0_2 b b_bar)
     8.16626238E-07    3     1000023        11       -11   # BR(chi^0_4 -> chi^0_2 e^- e^+)
     8.16862830E-07    3     1000023        13       -13   # BR(chi^0_4 -> chi^0_2 mu^- mu^+)
     8.61180256E-07    3     1000023        15       -15   # BR(chi^0_4 -> chi^0_2 tau^- tau^+)
     1.03853224E-06    3     1000023        12       -12   # BR(chi^0_4 -> chi^0_2 nu_e nu_bar_e)
     3.10943619E-12    3     1000025         2        -2   # BR(chi^0_4 -> chi^0_3 u u_bar)
     3.35389934E-12    3     1000025         4        -4   # BR(chi^0_4 -> chi^0_3 c c_bar)
     5.65640302E-12    3     1000025         1        -1   # BR(chi^0_4 -> chi^0_3 d d_bar)
     9.84025322E-12    3     1000025         3        -3   # BR(chi^0_4 -> chi^0_3 s s_bar)
     9.44327446E-09    3     1000025         5        -5   # BR(chi^0_4 -> chi^0_3 b b_bar)
     2.83711861E-10    3     1000025        11       -11   # BR(chi^0_4 -> chi^0_3 e^- e^+)
     4.34901736E-10    3     1000025        13       -13   # BR(chi^0_4 -> chi^0_3 mu^- mu^+)
     4.25717032E-08    3     1000025        15       -15   # BR(chi^0_4 -> chi^0_3 tau^- tau^+)
     5.28991473E-09    3     1000025        12       -12   # BR(chi^0_4 -> chi^0_3 nu_e nu_bar_e)
     1.82534595E-09    3     1000024         1        -2   # BR(chi^0_4 -> chi^+_1 d u_bar)
     1.82534595E-09    3    -1000024        -1         2   # BR(chi^0_4 -> chi^-_1 d_bar u)
     1.83211575E-09    3     1000024         3        -4   # BR(chi^0_4 -> chi^+_1 s c_bar)
     1.83211575E-09    3    -1000024        -3         4   # BR(chi^0_4 -> chi^-_1 s_bar c)
     5.58796558E-06    3     1000024         5        -6   # BR(chi^0_4 -> chi^+_1 b t_bar)
     5.58796558E-06    3    -1000024        -5         6   # BR(chi^0_4 -> chi^-_1 b_bar t)
     5.12200056E-07    3     1000024        11       -12   # BR(chi^0_4 -> chi^+_1 e^- nu_bar_e)
     5.12200056E-07    3    -1000024       -11        12   # BR(chi^0_4 -> chi^-_1 e^+ nu_e)
     5.12429911E-07    3     1000024        13       -14   # BR(chi^0_4 -> chi^+_1 mu^- nu_bar_mu)
     5.12429911E-07    3    -1000024       -13        14   # BR(chi^0_4 -> chi^-_1 mu^+ nu_mu)
     5.66536341E-07    3     1000024        15       -16   # BR(chi^0_4 -> chi^+_1 tau^- nu_bar_tau)
     5.66536341E-07    3    -1000024       -15        16   # BR(chi^0_4 -> chi^-_1 tau^+ nu_tau)
DECAY   1000021     1.28811545E+01   # ~g
#    BR                NDA      ID1      ID2
     4.93515872E-02    2     2000002        -2   # BR(~g -> ~u_R u_bar)
     4.93515872E-02    2    -2000002         2   # BR(~g -> ~u^*_R u)
     1.31321624E-02    2     1000002        -2   # BR(~g -> ~u_L u_bar)
     1.31321624E-02    2    -1000002         2   # BR(~g -> ~u^*_L u)
     4.93514357E-02    2     2000004        -4   # BR(~g -> ~c_R c_bar)
     4.93514357E-02    2    -2000004         4   # BR(~g -> ~c^*_R c)
     1.31321816E-02    2     1000004        -4   # BR(~g -> ~c_L c_bar)
     1.31321816E-02    2    -1000004         4   # BR(~g -> ~c^*_L c)
     5.02468598E-06    2     1000006        -4   # BR(~g -> ~t_1 c_bar)
     5.02468598E-06    2    -1000006         4   # BR(~g -> ~t^*_1 c)
     1.26995960E-01    2     1000006        -6   # BR(~g -> ~t_1 t_bar)
     1.26995960E-01    2    -1000006         6   # BR(~g -> ~t^*_1 t)
     1.76496211E-02    2     2000006        -6   # BR(~g -> ~t_2 t_bar)
     1.76496211E-02    2    -2000006         6   # BR(~g -> ~t^*_2 t)
     5.33898386E-02    2     2000001        -1   # BR(~g -> ~d_R d_bar)
     5.33898386E-02    2    -2000001         1   # BR(~g -> ~d^*_R d)
     1.28233184E-02    2     1000001        -1   # BR(~g -> ~d_L d_bar)
     1.28233184E-02    2    -1000001         1   # BR(~g -> ~d^*_L d)
     5.33907485E-02    2     2000003        -3   # BR(~g -> ~s_R s_bar)
     5.33907485E-02    2    -2000003         3   # BR(~g -> ~s^*_R s)
     1.28239099E-02    2     1000003        -3   # BR(~g -> ~s_L s_bar)
     1.28239099E-02    2    -1000003         3   # BR(~g -> ~s^*_L s)
     5.54260757E-02    2     1000005        -5   # BR(~g -> ~b_1 b_bar)
     5.54260757E-02    2    -1000005         5   # BR(~g -> ~b^*_1 b)
     4.23463505E-02    2     2000005        -5   # BR(~g -> ~b_2 b_bar)
     4.23463505E-02    2    -2000005         5   # BR(~g -> ~b^*_2 b)
     4.25987947E-06    2     1000022        21   # BR(~g -> chi^0_1 g)
     1.53400307E-04    2     1000023        21   # BR(~g -> chi^0_2 g)
     1.77948439E-04    2     1000025        21   # BR(~g -> chi^0_3 g)
     2.79639256E-05    2     1000035        21   # BR(~g -> chi^0_4 g)
DECAY        25     2.75823914E-03   # h^0
#    BR                NDA      ID1      ID2
     8.32782058E-09    2          11       -11   # BR(h^0 -> e^- e^+)
     3.56035035E-04    2          13       -13   # BR(h^0 -> mu^- mu^+)
     1.00482990E-01    2          15       -15   # BR(h^0 -> tau^- tau^+)
     7.03922322E-07    2           1        -1   # BR(h^0 -> d d_bar)
     3.10429188E-04    2           3        -3   # BR(h^0 -> s s_bar)
     6.65591075E-01    2           5        -5   # BR(h^0 -> b b_bar)
     2.38724555E-07    2           2        -2   # BR(h^0 -> u u_bar)
     4.27731915E-02    2           4        -4   # BR(h^0 -> c c_bar)
     6.28863641E-02    2          21        21   # BR(h^0 -> g g)
     3.01695331E-03    2          22        22   # BR(h^0 -> photon photon)
# writing decays into V V* as 3-body decays
#    BR                NDA      ID1      ID2       ID3
     5.72858884E-03    3          24        11        12   # BR(h^0 -> W^+ e^- nu_e)
     5.72858884E-03    3          24        13        14   # BR(h^0 -> W^+ mu^- nu_mu)
     5.72858884E-03    3          24        15        16   # BR(h^0 -> W^+ tau^- nu_tau)
     2.00500609E-02    3          24         1        -2   # BR(h^0 -> W^+ d u_bar)
     2.00500609E-02    3          24         3        -4   # BR(h^0 -> W^+ s c_bar)
     5.72858884E-03    3         -24       -11       -12   # BR(h^0 -> W^- e^+ nu_bar_e)
     5.72858884E-03    3         -24       -13       -14   # BR(h^0 -> W^- mu^+ nu_bar_mu)
     5.72858884E-03    3         -24       -15       -16   # BR(h^0 -> W^- tau^+ nu_bar_tau)
     2.00500609E-02    3         -24        -1         2   # BR(h^0 -> W^- d_bar u)
     2.00500609E-02    3         -24        -3         4   # BR(h^0 -> W^- s_bar c)
     3.50358206E-04    3          23        11       -11   # BR(h^0 -> Z e^- e^+)
     3.50358206E-04    3          23        13       -13   # BR(h^0 -> Z mu^- mu^+)
     3.00307034E-04    3          23        15       -15   # BR(h^0 -> Z tau^- tau^+)
     2.00204689E-03    3          23        12       -12   # BR(h^0 -> Z nu_e nu_bar_e)
     1.40143282E-03    3          23         1        -1   # BR(h^0 -> Z u u_bar)
     1.40143282E-03    3          23         3        -3   # BR(h^0 -> Z c c_bar)
     1.40143282E-03    3          23         5        -5   # BR(h^0 -> Z t t_bar)
     1.40143282E-03    3          23         2        -2   # BR(h^0 -> Z u u_bar)
     1.40143282E-03    3          23         4        -4   # BR(h^0 -> Z c c_bar)
DECAY        35     2.01551855E+00   # H^0
#    BR                NDA      ID1      ID2
     8.84216041E-09    2          11       -11   # BR(H^0 -> e^- e^+)
     3.78027663E-04    2          13       -13   # BR(H^0 -> mu^- mu^+)
     1.06954489E-01    2          15       -15   # BR(H^0 -> tau^- tau^+)
     6.18684495E-07    2           1        -1   # BR(H^0 -> d d_bar)
     2.72839696E-04    2           3        -3   # BR(H^0 -> s s_bar)
     6.04570880E-01    2           5        -5   # BR(H^0 -> b b_bar)
     2.94726738E-11    2           2        -2   # BR(H^0 -> u u_bar)
     5.28183721E-06    2           4        -4   # BR(H^0 -> c c_bar)
     2.70711773E-01    2           6        -6   # BR(H^0 -> t t_bar)
     7.78654187E-05    2     2000011  -2000011   # BR(H^0 -> ~e^-_R ~e^+_R)
     7.78258598E-05    2     2000013  -2000013   # BR(H^0 -> ~mu^-_R ~mu^+_R)
     6.70209912E-05    2     1000015  -1000015   # BR(H^0 -> ~tau^-_1 ~tau^+_1)
     7.25511881E-04    2     1000022   1000022   # BR(H^0 -> chi^0_1 chi^0_1)
     4.83612874E-03    2          23        23   # BR(H^0 -> Z Z)
     9.21962137E-03    2          24       -24   # BR(H^0 -> W^+ W^-)
     1.93021975E-03    2          25        25   # BR(H^0 -> h^0 h^0)
     1.70340659E-04    2          21        21   # BR(H^0 -> g g)
     1.54663311E-06    2          22        22   # BR(H^0 -> photon photon)
DECAY        36     1.98431338E+00   # A^0
#    BR                NDA      ID1      ID2
     8.99147486E-09    2          11       -11   # BR(A^0 -> e^- e^+)
     3.84411297E-04    2          13       -13   # BR(A^0 -> mu^- mu^+)
     1.08761712E-01    2          15       -15   # BR(A^0 -> tau^- tau^+)
     6.29130492E-07    2           1        -1   # BR(A^0 -> d d_bar)
     2.77446393E-04    2           3        -3   # BR(A^0 -> s s_bar)
     6.14782492E-01    2           5        -5   # BR(A^0 -> b b_bar)
     2.63221235E-11    2           2        -2   # BR(A^0 -> u u_bar)
     4.71722257E-06    2           4        -4   # BR(A^0 -> c c_bar)
     2.60183307E-01    2           6        -6   # BR(A^0 -> t t_bar)
     6.29333620E-03    2     1000022   1000022   # BR(A^0 -> chi^0_1 chi^0_1)
     9.21499619E-03    2          25        23   # BR(A^0 -> h^0 Z)
     9.62712792E-05    2          21        21   # BR(A^0 -> g g)
     6.73391818E-07    2          22        22   # BR(A^0 -> photon photon)
DECAY        37     1.70295267E+00   # H^+
#    BR                NDA      ID1      ID2
     1.05081746E-08    2         -11        12   # BR(H^+ -> e^+ nu_e)
     4.49254555E-04    2         -13        12   # BR(H^+ -> mu^+ nu_e)
     1.27107856E-01    2         -15        12   # BR(H^+ -> tau^+ nu_e)
     6.47176541E-07    2          -1         2   # BR(H^+ -> d_bar u)
     2.90244310E-04    2          -3         4   # BR(H^+ -> s_bar c)
     8.61569724E-01    2          -5         6   # BR(H^+ -> b_bar t)
     1.05822636E-02    2          25        24   # BR(H^+ -> h^0 W^+)
DECAY         6     2.43000000E+00   # top
#    BR                NDA      ID1      ID2
     1.00000000E+00    2           5        24   # BR(t -> b W)
Block HiggsBoundsInputHiggsCouplingsFermions
# ScalarNormEffCoupSq PseudoSNormEffCoupSq NP IP1 IP2 IP2
    1.13703659E+00    0.00000000E+00        3  25   5   5  # h0-b-b eff. coupling^2, normalised to SM
    9.98629634E+01    0.00000000E+00        3  35   5   5  # H0-b-b eff. coupling^2, normalised to SM
    0.00000000E+00    1.00000000E+02        3  36   5   5  # A0-b-b eff. coupling^2, normalised to SM
#
    9.98629634E-01    0.00000000E+00        3  25   6   6  # h0-t-t eff. coupling^2, normalised to SM
    1.13703659E-02    0.00000000E+00        3  35   6   6  # H0-t-t eff. coupling^2, normalised to SM
    0.00000000E+00    1.00000000E-02        3  36   6   6  # A0-t-t eff. coupling^2, normalised to SM
#
    1.13703659E+00    0.00000000E+00        3  25  15  15  # h0-tau-tau eff. coupling^2, normalised to SM
    9.98629634E+01    0.00000000E+00        3  35  15  15  # H0-tau-tau eff. coupling^2, normalised to SM
    0.00000000E+00    1.00000000E+02        3  36  15  15  # A0-tau-tau eff. coupling^2, normalised to SM
#
Block HiggsBoundsInputHiggsCouplingsBosons
    9.99955988E-01        3  25  24  24  # h0-W-W eff. coupling^2, normalised to SM
    4.40115287E-05        3  35  24  24  # H0-W-W eff. coupling^2, normalised to SM
    0.00000000E+00        3  36  24  24  # A0-W-W eff. coupling^2, normalised to SM
#
    9.99955988E-01        3  25  23  23  # h0-Z-Z eff. coupling^2, normalised to SM
    4.40115287E-05        3  35  23  23  # H0-Z-Z eff. coupling^2, normalised to SM
    0.00000000E+00        3  36  23  23  # A0-Z-Z eff. coupling^2, normalised to SM
#
    1.15836660E+00        3  25  21  21  # h0-g-g eff. coupling^2, normalised to SM
    8.75177826E-03        3  35  21  21  # H0-g-g eff. coupling^2, normalised to SM
    1.24563597E-01        3  36  21  21  # A0-g-g eff. coupling^2, normalised to SM
#
    0.00000000E+00        3  25  25  23  # h0-h0-Z eff. coupling^2, normalised to SM
    0.00000000E+00        3  35  25  23  # H0-h0-Z eff. coupling^2, normalised to SM
    4.40115287E-05        3  36  25  23  # A0-h0-Z eff. coupling^2, normalised to SM
    0.00000000E+00        3  35  35  23  # H0-H0-Z eff. coupling^2, normalised to SM
    9.99955988E-01        3  36  35  23  # A0-H0-Z eff. coupling^2, normalised to SM
    0.00000000E+00        3  36  36  23  # A0-A0-Z eff. coupling^2, normalised to SM
#
    0.00000000E+00        4  25  21  21  23  # h0-g-g-Z eff. coupling^2, normalised to SM
    0.00000000E+00        4  35  21  21  23  # H0-g-g-Z eff. coupling^2, normalised to SM
    0.00000000E+00        4  36  21  21  23  # A0-g-g-Z eff. coupling^2, normalised to SM
Block SPhenoLowEnergy  # low energy observables
    1    3.16177521E-04   # BR(b -> s gamma)
    2    1.59116445E-06   # BR(b -> s mu+ mu-)
    3    3.54015763E-05   # BR(b -> s nu nu)
    4    5.17942072E-11   # BR(Bd -> mu+ mu-)
    5    3.38352091E-09   # BR(Bs -> mu+ mu-)
    6    1.10254353E-04   # BR(B_u -> tau nu)
    7    9.96934975E-01   # BR(B_u -> tau nu)/BR(B_u -> tau nu)_SM
    8    2.73700674E-01   # |Delta(M_Bd)| [ps^-1] 
    9    2.03132427E+01   # |Delta(M_Bs)| [ps^-1] 
   20    6.97006436E-15   # Delta(g-2)_electron/2
   21    1.49328613E-10   # Delta(g-2)_muon/2
   22    8.94732781E-09   # Delta(g-2)_tau/2
   23    0.00000000E+00   # electric dipole moment of the electron
   24    0.00000000E+00   # electric dipole moment of the muon
   25    0.00000000E+00   # electric dipole moment of the tau
   26    0.00000000E+00   # Br(mu -> e gamma)
   27    0.00000000E+00   # Br(tau -> e gamma)
   28    0.00000000E+00   # Br(tau -> mu gamma)
   29    0.00000000E+00   # Br(mu -> 3 e)
   30    0.00000000E+00   # Br(tau -> 3 e)
   31    0.00000000E+00   # Br(tau -> 3 mu)
   39    6.13636376E-04   # Delta(rho_parameter)
   40    0.00000000E+00   # BR(Z -> e mu)
   41    0.00000000E+00   # BR(Z -> e tau)
   42    0.00000000E+00   # BR(Z -> mu tau)
Block FWCOEF Q=  9.11876000E+01  # Wilson coefficients at scale Q
#    id        order  M        value         comment
Block FWCOEF Q=  1.60000000E+02  # Wilson coefficients at scale Q
#    id        order  M        value         comment
     0305 4422   00   0    -1.87756613E-01   # C7
     0305 4422   00   1    -1.76733758E-02   # C7
     0305 4322   00   1    -3.86374600E-04   # C7'
     0305 6421   00   0    -9.48891279E-02   # C8
     0305 6421   00   1    -2.33197500E-02   # C8
     0305 6321   00   1    -5.04789045E-04   # C8'
 03051111 4133   00   0    -1.18983218E+00   # C9 e+e-
 03051111 4133   00   1     8.68727217E-04   # C9 e+e-
 03051111 4233   00   1    -3.31743725E-06   # C9' e+e-
 03051111 4137   00   0    -3.95176229E+00   # C10 e+e-
 03051111 4137   00   1     1.81295439E-03   # C10 e+e-
 03051111 4237   00   1     8.24306765E-05   # C10' e+e-
 03051313 4133   00   0    -1.18983218E+00   # C9 mu+mu-
 03051313 4133   00   1     8.68715788E-04   # C9 mu+mu-
 03051313 4233   00   1    -3.31747531E-06   # C9' mu+mu-
 03051313 4137   00   0    -3.95176229E+00   # C10 mu+mu-
 03051313 4137   00   1     1.81294293E-03   # C10 mu+mu-
 03051313 4237   00   1     8.24307146E-05   # C10' mu+mu-
 03051212 4237   00   0     1.49013516E+00   # C11 nu_1 nu_1
 03051212 4237   00   1    -4.37493881E-04   # C11 nu_1 nu_1
 03051212 4137   00   1    -1.97902450E-05   # C11' nu_1 nu_1
 03051414 4237   00   0     1.49013516E+00   # C11 nu_2 nu_2
 03051414 4237   00   1    -4.37493872E-04   # C11 nu_2 nu_2
 03051414 4137   00   1    -1.97902361E-05   # C11' nu_2 nu_2
 03051616 4237   00   0     1.49013516E+00   # C11 nu_3 nu_3
 03051616 4237   00   1    -4.37491475E-04   # C11 nu_3 nu_3
 03051616 4137   00   1    -1.97877097E-05   # C11' nu_3 nu_3
