#
#                              ======================
#                              | THE SUSYHIT OUTPUT |
#                              ======================
#
#
#              ------------------------------------------------------
#              |     This is the output of the SUSY-HIT package     |
#              |  created by A.Djouadi, M.Muehlleitner and M.Spira. |
#              |  In case of problems with SUSY-HIT email to        |
#              |           margarete.muehlleitner@cern.ch           |
#              |           michael.spira@psi.ch                     |
#              |           abdelhak.djouadi@cern.ch                 |
#              ------------------------------------------------------
#
#              ------------------------------------------------------
#              |  SUSY Les Houches Accord - MSSM Spectrum + Decays  |
#              |              based on the decay programs           |
#              |                                                    |
#              |                     SDECAY 1.3b                    |
#              |                                                    |
#              |  Authors: M.Muhlleitner, A.Djouadi and Y.Mambrini  |
#              |  Ref.:    Comput.Phys.Commun.168(2005)46           |
#              |           [hep-ph/0311167]                         |
#              |                                                    |
#              |                     HDECAY 3.4                     |
#              |                                                    |
#              |  By: A.Djouadi,J.Kalinowski,M.Muhlleitner,M.Spira  |
#              |  Ref.:    Comput.Phys.Commun.108(1998)56           |
#              |           [hep-ph/9704448]                         |
#              |                                                    |
#              |                                                    |
#              |  If not stated otherwise all DRbar couplings and   |
#              |  soft SUSY breaking masses are given at the scale  |
#              |  Q=  0.91187600E+02
#              |                                                    |
#              ------------------------------------------------------
#
#
BLOCK DCINFO  # Decay Program information
     1   SDECAY/HDECAY # decay calculator
     2   1.3b  /3.4    # version number
#
BLOCK SPINFO  # Spectrum calculator information
     1   SuSpect     # RGE +Spectrum calculator            
     2   2.41         # version number                     
#
BLOCK MODSEL  # Model selection
     1     0   # #general MSSM low scale                           
#
BLOCK SMINPUTS  # Standard Model inputs
         1     1.27934000E+02   # alpha_em^-1(M_Z)^MSbar
         2     1.16639000E-05   # G_F [GeV^-2]
         3     1.17200000E-01   # alpha_S(M_Z)^MSbar
         4     9.11870000E+01   # M_Z pole mass
         5     4.25000000E+00   # mb(mb)^MSbar
         6     1.72500000E+02   # mt pole mass
         7     1.77700000E+00   # mtau pole mass
#
BLOCK MINPAR  # Input parameters - minimal models
#
BLOCK EXTPAR  # Input parameters - non-minimal models
         0     9.11876000E+01   # EWSB                
         1     1.50000000E+03   # M_1                 
         2     1.00000000E+05   # M_2                 
         3     1.90000000E+03   # M_3                 
        11     0.00000000E+00   # A_t                 
        12     0.00000000E+00   # A_b                 
        13     0.00000000E+00   # A_tau               
        14     0.00000000E+00   # A_u                 
        15     0.00000000E+00   # A_d                 
        16     0.00000000E+00   # A_e                 
        23     1.00000000E+05   # mu(EWSB)            
        25     1.50000000E+00   # tanbeta(in)         
        26     2.00000000E+03   # MA_pole             
        31     1.00000000E+05   # M_eL                
        32     1.00000000E+05   # M_muL               
        33     1.00000000E+05   # M_tauL              
        34     1.00000000E+05   # M_eR                
        35     1.00000000E+05   # M_muR               
        36     1.00000000E+05   # M_tauR              
        41     3.00000000E+03   # M_q1L               
        42     3.00000000E+03   # M_q2L               
        43     3.00000000E+03   # M_q3L               
        44     1.00000000E+05   # M_uR                
        45     1.00000000E+05   # M_cR                
        46     1.00000000E+05   # M_tR                
        47     3.00000000E+03   # M_dR                
        48     3.00000000E+03   # M_sR                
        49     3.00000000E+03   # M_bR                
#
BLOCK MASS  # Mass Spectrum
# PDG code           mass       particle
        24     8.06236933E+01   # W+
        25     1.25000000E+02   # h
        35     2.00197104E+03   # H
        36     2.00000000E+03   # A
        37     2.02284570E+03   # H+
         5     4.87877839E+00   # b-quark pole mass calculated from mb(mb)_Msbar
   1000001     3.00021873E+03   # ~d_L
   2000001     3.00004255E+03   # ~d_R
   1000002     2.99982381E+03   # ~u_L
   2000002     9.99999974E+04   # ~u_R
   1000003     3.00021873E+03   # ~s_L
   2000003     3.00004255E+03   # ~s_R
   1000004     2.99982381E+03   # ~c_L
   2000004     9.99999974E+04   # ~c_R
   1000005     2.95016833E+03   # ~b_1
   2000005     3.04927572E+03   # ~b_2
   1000006     3.00183775E+03   # ~t_1
   2000006     1.00000155E+05   # ~t_2
   1000011     1.00000004E+05   # ~e_L
   2000011     1.00000004E+05   # ~e_R
   1000012     9.99999922E+04   # ~nu_eL
   1000013     1.00000004E+05   # ~mu_L
   2000013     1.00000004E+05   # ~mu_R
   1000014     9.99999922E+04   # ~nu_muL
   1000015     9.99986708E+04   # ~tau_1
   2000015     1.00001337E+05   # ~tau_2
   1000016     9.99999922E+04   # ~nu_tauL
   1000021     1.90000000E+03   # ~g
   1000022     1.49998132E+03   # ~chi_10
   1000023     9.99230444E+04   # ~chi_20
   1000025    -1.00000002E+05   # ~chi_30
   1000035     1.00076976E+05   # ~chi_40
   1000024     9.99230353E+04   # ~chi_1+
   1000037     1.00076967E+05   # ~chi_2+
   1000039     2.50000000E-08   # ~gravitino
#
BLOCK NMIX  # Neutralino Mixing Matrix
  1  1     9.99999898E-01   # N_11
  1  2    -3.33649023E-07   # N_12
  1  3     3.75096923E-04   # N_13
  1  4    -2.53159418E-04   # N_14
  2  1     3.14350139E-04   # N_21
  2  2     7.07148708E-01   # N_22
  2  3    -5.00008791E-01   # N_23
  2  4     4.99931810E-01   # N_24
  3  1     8.62227470E-05   # N_31
  3  2    -7.69659289E-05   # N_32
  3  3    -7.07106742E-01   # N_33
  3  4    -7.07106811E-01   # N_34
  4  1     3.13906155E-04   # N_41
  4  2    -7.07064853E-01   # N_42
  4  3    -4.99991119E-01   # N_43
  4  4     5.00068071E-01   # N_44
#
BLOCK UMIX  # Chargino Mixing Matrix U
  1  1    -7.07052356E-01   # U_11
  1  2     7.07161202E-01   # U_12
  2  1     7.07161202E-01   # U_21
  2  2     7.07052356E-01   # U_22
#
BLOCK VMIX  # Chargino Mixing Matrix V
  1  1    -7.07161202E-01   # V_11
  1  2     7.07052356E-01   # V_12
  2  1     7.07052356E-01   # V_21
  2  2     7.07161202E-01   # V_22
#
BLOCK STOPMIX  # Stop Mixing Matrix
  1  1     9.99999515E-01   # cos(theta_t)
  1  2     9.84885661E-04   # sin(theta_t)
  2  1    -9.84885661E-04   # -sin(theta_t)
  2  2     9.99999515E-01   # cos(theta_t)
#
BLOCK SBOTMIX  # Sbottom Mixing Matrix
  1  1     7.06477931E-01   # cos(theta_b)
  1  2     7.07735073E-01   # sin(theta_b)
  2  1    -7.07735073E-01   # -sin(theta_b)
  2  2     7.06477931E-01   # cos(theta_b)
#
BLOCK STAUMIX  # Stau Mixing Matrix
  1  1     7.07082984E-01   # cos(theta_tau)
  1  2     7.07130578E-01   # sin(theta_tau)
  2  1    -7.07130578E-01   # -sin(theta_tau)
  2  2     7.07082984E-01   # cos(theta_tau)
#
BLOCK ALPHA  # Higgs mixing
          -5.64222009E-01   # Mixing angle in the neutral Higgs boson sector
#
BLOCK HMIX Q=  9.11876000E+01  # DRbar Higgs Parameters
         1     1.00000000E+05   # mu(Q)               
         2     1.49999982E+00   # tanbeta(Q)          
         3     2.55110373E+02   # vev(Q)              
         4    -2.18191520E+09   # MA^2(Q)             
#
BLOCK GAUGE Q=  9.11876000E+01  # The gauge couplings
     1     3.49859447E-01   # gprime(Q) DRbar
     2     6.15367016E-01   # g(Q) DRbar
     3     1.07561055E+00   # g3(Q) DRbar
#
BLOCK AU Q=  9.11876000E+01  # The trilinear couplings
  1  1     0.00000000E+00   # A_u(Q) DRbar
  2  2     0.00000000E+00   # A_c(Q) DRbar
  3  3     0.00000000E+00   # A_t(Q) DRbar
#
BLOCK AD Q=  9.11876000E+01  # The trilinear couplings
  1  1     0.00000000E+00   # A_d(Q) DRbar
  2  2     0.00000000E+00   # A_s(Q) DRbar
  3  3     0.00000000E+00   # A_b(Q) DRbar
#
BLOCK AE Q=  9.11876000E+01  # The trilinear couplings
  1  1     0.00000000E+00   # A_e(Q) DRbar
  2  2     0.00000000E+00   # A_mu(Q) DRbar
  3  3     0.00000000E+00   # A_tau(Q) DRbar
#
BLOCK Yu Q=  9.11876000E+01  # The Yukawa couplings
  1  1     0.00000000E+00   # y_u(Q) DRbar
  2  2     0.00000000E+00   # y_c(Q) DRbar
  3  3     9.83118451E-01   # y_t(Q) DRbar
#
BLOCK Yd Q=  9.11876000E+01  # The Yukawa couplings
  1  1     0.00000000E+00   # y_d(Q) DRbar
  2  2     0.00000000E+00   # y_s(Q) DRbar
  3  3     1.98080085E-02   # y_b(Q) DRbar
#
BLOCK Ye Q=  9.11876000E+01  # The Yukawa couplings
  1  1     0.00000000E+00   # y_e(Q) DRbar
  2  2     0.00000000E+00   # y_mu(Q) DRbar
  3  3     1.77641859E-02   # y_tau(Q) DRbar
#
BLOCK MSOFT Q=  9.11876000E+01  # The soft SUSY breaking masses at the scale Q
         1     1.50000000E+03   # M_1                 
         2     1.00000000E+05   # M_2                 
         3     1.90000000E+03   # M_3                 
        14     0.00000000E+00   # A_u                 
        15     0.00000000E+00   # A_d                 
        16     0.00000000E+00   # A_e                 
        21    -1.06475203E+10   # M^2_Hd              
        22    -1.00475378E+10   # M^2_Hu              
        31     1.00000000E+05   # M_eL                
        32     1.00000000E+05   # M_muL               
        33     1.00000000E+05   # M_tauL              
        34     1.00000000E+05   # M_eR                
        35     1.00000000E+05   # M_muR               
        36     1.00000000E+05   # M_tauR              
        41     3.00000000E+03   # M_q1L               
        42     3.00000000E+03   # M_q2L               
        43     3.00000000E+03   # M_q3L               
        44     1.00000000E+05   # M_uR                
        45     1.00000000E+05   # M_cR                
        46     1.00000000E+05   # M_tR                
        47     3.00000000E+03   # M_dR                
        48     3.00000000E+03   # M_sR                
        49     3.00000000E+03   # M_bR                
#
#
#
#                             =================
#                             |The decay table|
#                             =================
#
# - The QCD corrections to the decays gluino -> squark  + quark
#                                     squark -> gaugino + quark_prime
#                                     squark -> squark_prime + Higgs
#                                     squark -> gluino  + quark
#   are included.
#
# - The multi-body decays for the inos, stops and sbottoms are included.
#
# - The loop induced decays for the gluino, neutralinos and stops
#   are included.
#
# - The SUSY decays of the top quark are included.
#
# - Possible decays of the NLSP in GMSB models are included.
#
#
#         PDG            Width
DECAY         6     1.30533452E+00   # top decays
#          BR         NDA      ID1       ID2
     1.00000000E+00    2           5        24   # BR(t ->  b    W+)
#
#         PDG            Width
DECAY   1000021     1.E-04   # gluino decays (OJ Mods)
#          BR         NDA      ID1       ID2
     2.04960105E-02    2     1000022        21   # BR(~g -> ~chi_10 g)
#          BR         NDA      ID1       ID2
     8.36079237E-03    2     1000039        21   # BR(~g -> ~G      g)
#           BR         NDA      ID1       ID2       ID3
     2.84855957E-01    3     1000022         1        -1   # BR(~g -> ~chi_10 d  db)
     5.69998795E-02    3     1000022         2        -2   # BR(~g -> ~chi_10 u  ub)
     2.84855957E-01    3     1000022         3        -3   # BR(~g -> ~chi_10 s  sb)
     5.69998795E-02    3     1000022         4        -4   # BR(~g -> ~chi_10 c  cb)
     2.85250604E-01    3     1000022         5        -5   # BR(~g -> ~chi_10 b  bb)
     2.18091983E-03    3     1000022         6        -6   # BR(~g -> ~chi_10 t  tb)
#
#         PDG            Width
DECAY   1000006     7.04738947E+01   # stop1 decays
#          BR         NDA      ID1       ID2
     3.09646103E-03    2     1000022         6   # BR(~t_1 -> ~chi_10 t )
     9.96903539E-01    2     1000021         6   # BR(~t_1 -> ~g      t )
#
#         PDG            Width
DECAY   2000006     4.84458074E+03   # stop2 decays
#          BR         NDA      ID1       ID2
     4.32802531E-02    2     1000022         6   # BR(~t_2 -> ~chi_10 t )
     3.20534167E-07    2     1000024         5   # BR(~t_2 -> ~chi_1+ b )
     5.58293173E-01    2     1000021         6   # BR(~t_2 -> ~g      t )
     1.95377917E-02    2     1000006        25   # BR(~t_2 -> ~t_1    h )
     5.25548925E-02    2     1000006        35   # BR(~t_2 -> ~t_1    H )
     5.10113045E-02    2     1000006        36   # BR(~t_2 -> ~t_1    A )
     5.07286902E-02    2     1000005        37   # BR(~t_2 -> ~b_1    H+)
     5.13221174E-02    2     2000005        37   # BR(~t_2 -> ~b_2    H+)
     5.72384971E-02    2     1000006        23   # BR(~t_2 -> ~t_1    Z )
     5.77811818E-02    2     1000005        24   # BR(~t_2 -> ~b_1    W+)
     5.82517785E-02    2     2000005        24   # BR(~t_2 -> ~b_2    W+)
#
#         PDG            Width
DECAY   1000005     6.75754140E+01   # sbottom1 decays
#          BR         NDA      ID1       ID2
     7.82154272E-03    2     1000022         5   # BR(~b_1 -> ~chi_10 b )
     9.92178457E-01    2     1000021         5   # BR(~b_1 -> ~g      b )
#
#         PDG            Width
DECAY   2000005     7.51210322E+01   # sbottom2 decays
#          BR         NDA      ID1       ID2
     7.58275435E-03    2     1000022         5   # BR(~b_2 -> ~chi_10 b )
     9.91838745E-01    2     1000021         5   # BR(~b_2 -> ~g      b )
     5.78500471E-04    2     1000005        23   # BR(~b_2 -> ~b_1    Z )
#
#         PDG            Width
DECAY   1000002     4.10789485E+01   # sup_L decays
#          BR         NDA      ID1       ID2
     5.61544630E-03    2     1000022         2   # BR(~u_L -> ~chi_10 u)
     9.94384554E-01    2     1000021         2   # BR(~u_L -> ~g      u)
#
#         PDG            Width
DECAY   2000002     4.00408253E+03   # sup_R decays
#          BR         NDA      ID1       ID2
     5.23736687E-02    2     1000022         2   # BR(~u_R -> ~chi_10 u)
     6.57615356E-13    2     1000023         2   # BR(~u_R -> ~chi_20 u)
     9.47626331E-01    2     1000021         2   # BR(~u_R -> ~g      u)
#
#         PDG            Width
DECAY   1000001     4.10988059E+01   # sdown_L decays
#          BR         NDA      ID1       ID2
     5.61443450E-03    2     1000022         1   # BR(~d_L -> ~chi_10 d)
     9.94385566E-01    2     1000021         1   # BR(~d_L -> ~g      d)
#
#         PDG            Width
DECAY   2000001     4.17820928E+01   # sdown_R decays
#          BR         NDA      ID1       ID2
     2.20874787E-02    2     1000022         1   # BR(~d_R -> ~chi_10 d)
     9.77912521E-01    2     1000021         1   # BR(~d_R -> ~g      d)
#
#         PDG            Width
DECAY   1000004     4.10789485E+01   # scharm_L decays
#          BR         NDA      ID1       ID2
     5.61544630E-03    2     1000022         4   # BR(~c_L -> ~chi_10 c)
     9.94384554E-01    2     1000021         4   # BR(~c_L -> ~g      c)
#
#         PDG            Width
DECAY   2000004     4.00408253E+03   # scharm_R decays
#          BR         NDA      ID1       ID2
     5.23736687E-02    2     1000022         4   # BR(~c_R -> ~chi_10 c)
     6.57615356E-13    2     1000023         4   # BR(~c_R -> ~chi_20 c)
     9.47626331E-01    2     1000021         4   # BR(~c_R -> ~g      c)
#
#         PDG            Width
DECAY   1000003     4.10988059E+01   # sstrange_L decays
#          BR         NDA      ID1       ID2
     5.61443450E-03    2     1000022         3   # BR(~s_L -> ~chi_10 s)
     9.94385566E-01    2     1000021         3   # BR(~s_L -> ~g      s)
#
#         PDG            Width
DECAY   2000003     4.17820928E+01   # sstrange_R decays
#          BR         NDA      ID1       ID2
     2.20874787E-02    2     1000022         3   # BR(~s_R -> ~chi_10 s)
     9.77912521E-01    2     1000021         3   # BR(~s_R -> ~g      s)
#
#         PDG            Width
DECAY   1000011     1.21701548E+02   # selectron_L decays
#          BR         NDA      ID1       ID2
     9.99989007E-01    2     1000022        11   # BR(~e_L -> ~chi_10 e-)
     3.66576613E-06    2     1000023        11   # BR(~e_L -> ~chi_20 e-)
     3.86724494E-24    2     1000025        11   # BR(~e_L -> ~chi_30 e-)
     7.32756296E-06    2    -1000024        12   # BR(~e_L -> ~chi_1- nu_e)
#
#         PDG            Width
DECAY   2000011     4.86801413E+02   # selectron_R decays
#          BR         NDA      ID1       ID2
     1.00000000E+00    2     1000022        11   # BR(~e_R -> ~chi_10 e-)
     2.34031392E-13    2     1000023        11   # BR(~e_R -> ~chi_20 e-)
     1.19003351E-23    2     1000025        11   # BR(~e_R -> ~chi_30 e-)
#
#         PDG            Width
DECAY   1000013     1.21701548E+02   # smuon_L decays
#          BR         NDA      ID1       ID2
     9.99989007E-01    2     1000022        13   # BR(~mu_L -> ~chi_10 mu-)
     3.66576613E-06    2     1000023        13   # BR(~mu_L -> ~chi_20 mu-)
     3.86724494E-24    2     1000025        13   # BR(~mu_L -> ~chi_30 mu-)
     7.32756296E-06    2    -1000024        14   # BR(~mu_L -> ~chi_1- nu_mu)
#
#         PDG            Width
DECAY   2000013     4.86801413E+02   # smuon_R decays
#          BR         NDA      ID1       ID2
     1.00000000E+00    2     1000022        13   # BR(~mu_R -> ~chi_10 mu-)
     2.34031392E-13    2     1000023        13   # BR(~mu_R -> ~chi_20 mu-)
     1.19003351E-23    2     1000025        13   # BR(~mu_R -> ~chi_30 mu-)
#
#         PDG            Width
DECAY   1000015     3.22682617E+02   # stau_1 decays
#          BR         NDA      ID1       ID2
     9.42915517E-01    2     1000022        15   # BR(~tau_1 -> ~chi_10  tau-)
     7.06024676E-07    2     1000023        15   # BR(~tau_1 -> ~chi_20  tau-)
     1.41247218E-06    2    -1000024        16   # BR(~tau_1 -> ~chi_1-  nu_tau)
     5.70823647E-02    2     1000039        15   # BR(~tau_1 -> ~G       tau-)
#
#         PDG            Width
DECAY   2000015     3.04239829E+02   # stau_2 decays
#          BR         NDA      ID1       ID2
     9.99997854E-01    2     1000022        15   # BR(~tau_2 -> ~chi_10  tau-)
     7.15160712E-07    2     1000023        15   # BR(~tau_2 -> ~chi_20  tau-)
     1.43052667E-06    2    -1000024        16   # BR(~tau_2 -> ~chi_1-  nu_tau)
#
#         PDG            Width
DECAY   1000012     1.21701819E+02   # snu_eL decays
#          BR         NDA      ID1       ID2
     9.99989012E-01    2     1000022        12   # BR(~nu_eL -> ~chi_10 nu_e)
     3.66093197E-06    2     1000023        12   # BR(~nu_eL -> ~chi_20 nu_e)
     7.32755734E-06    2     1000024        11   # BR(~nu_eL -> ~chi_1+ e-)
#
#         PDG            Width
DECAY   1000014     1.21701819E+02   # snu_muL decays
#          BR         NDA      ID1       ID2
     9.99989012E-01    2     1000022        14   # BR(~nu_muL -> ~chi_10 nu_mu)
     3.66093197E-06    2     1000023        14   # BR(~nu_muL -> ~chi_20 nu_mu)
     7.32755734E-06    2     1000024        13   # BR(~nu_muL -> ~chi_1+ mu-)
#
#         PDG            Width
DECAY   1000016     1.21701818E+02   # snu_tauL decays
#          BR         NDA      ID1       ID2
     9.99989017E-01    2     1000022        16   # BR(~nu_tauL -> ~chi_10 nu_tau)
     3.66093199E-06    2     1000023        16   # BR(~nu_tauL -> ~chi_20 nu_tau)
     7.32194444E-06    2     1000024        15   # BR(~nu_tauL -> ~chi_1+ tau-)
#
#         PDG            Width
DECAY   1000024     3.92278016E+03   # chargino1+ decays
#          BR         NDA      ID1       ID2
     1.38671040E-01    2     1000002        -1   # BR(~chi_1+ -> ~u_L     db)
     1.38628305E-01    2    -1000001         2   # BR(~chi_1+ -> ~d_L*    u )
     1.38671040E-01    2     1000004        -3   # BR(~chi_1+ -> ~c_L     sb)
     1.38628305E-01    2    -1000003         4   # BR(~chi_1+ -> ~s_L*    c )
     1.24593029E-01    2     1000006        -5   # BR(~chi_1+ -> ~t_1     bb)
     1.52888553E-01    2    -1000005         6   # BR(~chi_1+ -> ~b_1*    t )
     1.48227682E-01    2    -2000005         6   # BR(~chi_1+ -> ~b_2*    t )
     7.52750565E-03    2     1000022        24   # BR(~chi_1+ -> ~chi_10  W+)
     7.51043828E-03    2     1000022        37   # BR(~chi_1+ -> ~chi_10  H+)
     3.49193508E-03    2     1000039        24   # BR(~chi_1+ -> ~G       W+)
     1.16216604E-03    2     1000039        37   # BR(~chi_1+ -> ~G       H+)
#
#         PDG            Width
DECAY   1000037     3.92705985E+03   # chargino2+ decays
#          BR         NDA      ID1       ID2
     1.38686916E-01    2     1000002        -1   # BR(~chi_2+ -> ~u_L     db)
     1.38729569E-01    2    -1000001         2   # BR(~chi_2+ -> ~d_L*    u )
     1.38686916E-01    2     1000004        -3   # BR(~chi_2+ -> ~c_L     sb)
     1.38729569E-01    2    -1000003         4   # BR(~chi_2+ -> ~s_L*    c )
     1.24266897E-01    2     1000006        -5   # BR(~chi_2+ -> ~t_1     bb)
     9.18964545E-07    2     2000006        -5   # BR(~chi_2+ -> ~t_2     bb)
     1.46706551E-01    2    -1000005         6   # BR(~chi_2+ -> ~b_1*    t )
     1.53890455E-01    2    -2000005         6   # BR(~chi_2+ -> ~b_2*    t )
     1.12941546E-07    2     1000012       -11   # BR(~chi_2+ -> ~nu_eL   e+  )
     1.12941546E-07    2     1000014       -13   # BR(~chi_2+ -> ~nu_muL  mu+ )
     1.12855011E-07    2     1000016       -15   # BR(~chi_2+ -> ~nu_tau1 tau+)
     1.12941700E-07    2    -1000011        12   # BR(~chi_2+ -> ~e_L+    nu_e)
     1.12941700E-07    2    -1000013        14   # BR(~chi_2+ -> ~mu_L+   nu_mu)
     5.51144903E-08    2    -1000015        16   # BR(~chi_2+ -> ~tau_1+  nu_tau)
     5.77294180E-08    2    -2000015        16   # BR(~chi_2+ -> ~tau_2+  nu_tau)
     2.89108516E-04    2     1000024        23   # BR(~chi_2+ -> ~chi_1+  Z )
     7.50941136E-03    2     1000022        24   # BR(~chi_2+ -> ~chi_10  W+)
     3.30428729E-04    2     1000023        24   # BR(~chi_2+ -> ~chi_20  W+)
     3.32315211E-12    2     1000024        25   # BR(~chi_2+ -> ~chi_1+  h )
     7.48776993E-03    2     1000022        37   # BR(~chi_2+ -> ~chi_10  H+)
     3.51511016E-03    2     1000039        24   # BR(~chi_2+ -> ~G       W+)
     1.16970025E-03    2     1000039        37   # BR(~chi_2+ -> ~G       H+)
#
#         PDG            Width
DECAY   1000022     1.E-08   # neutralino1 decays (OJ Mods)
#          BR         NDA      ID1       ID2
     7.58446801E-01    2     1000039        22   # BR(~chi_10 -> ~G        gam)
     2.41553199E-01    2     1000039        23   # BR(~chi_10 -> ~G        Z)
     8.67740217E-11    2     1000039        25   # BR(~chi_10 -> ~G        h)
#
#         PDG            Width
DECAY   1000023     1.E-08   # neutralino2 decays (OJ Mods)
#          BR         NDA      ID1       ID2
     2.81922783E-04    2     1000022        23   # BR(~chi_20 -> ~chi_10   Z )
     7.57368030E-03    2     1000022        25   # BR(~chi_20 -> ~chi_10   h )
     3.83438050E-04    2     1000022        35   # BR(~chi_20 -> ~chi_10   H )
     7.20024241E-03    2     1000022        36   # BR(~chi_20 -> ~chi_10   A )
     6.71448687E-02    2     1000002        -2   # BR(~chi_20 -> ~u_L      ub)
     6.71448687E-02    2    -1000002         2   # BR(~chi_20 -> ~u_L*     u )
     6.71222296E-02    2     1000001        -1   # BR(~chi_20 -> ~d_L      db)
     6.71222296E-02    2    -1000001         1   # BR(~chi_20 -> ~d_L*     d )
     1.90581909E-09    2     2000001        -1   # BR(~chi_20 -> ~d_R      db)
     1.90581909E-09    2    -2000001         1   # BR(~chi_20 -> ~d_R*     d )
     6.71448687E-02    2     1000004        -4   # BR(~chi_20 -> ~c_L      cb)
     6.71448687E-02    2    -1000004         4   # BR(~chi_20 -> ~c_L*     c )
     6.71222296E-02    2     1000003        -3   # BR(~chi_20 -> ~s_L      sb)
     6.71222296E-02    2    -1000003         3   # BR(~chi_20 -> ~s_L*     s )
     1.90581909E-09    2     2000003        -3   # BR(~chi_20 -> ~s_R      sb)
     1.90581909E-09    2    -2000003         3   # BR(~chi_20 -> ~s_R*     s )
     1.50517323E-01    2     1000006        -6   # BR(~chi_20 -> ~t_1      tb)
     1.50517323E-01    2    -1000006         6   # BR(~chi_20 -> ~t_1*     t )
     3.24813860E-02    2     1000005        -5   # BR(~chi_20 -> ~b_1      bb)
     3.24813860E-02    2    -1000005         5   # BR(~chi_20 -> ~b_1*     b )
     2.97321108E-02    2     2000005        -5   # BR(~chi_20 -> ~b_2      bb)
     2.97321108E-02    2    -2000005         5   # BR(~chi_20 -> ~b_2*     b )
     5.69411545E-04    2     1000039        22   # BR(~chi_20 -> ~G        gam)
     2.87657927E-03    2     1000039        23   # BR(~chi_20 -> ~G        Z)
     5.59520150E-05    2     1000039        25   # BR(~chi_20 -> ~G        h)
     1.10568004E-03    2     1000039        35   # BR(~chi_20 -> ~G        H)
     4.47092321E-05    2     1000039        36   # BR(~chi_20 -> ~G        A)
#
#         PDG            Width
DECAY   1000025     1.51200864E+03   # neutralino3 decays
#          BR         NDA      ID1       ID2
     3.86234731E-02    2     1000022        23   # BR(~chi_30 -> ~chi_10   Z )
     1.85697518E-03    2     1000022        25   # BR(~chi_30 -> ~chi_10   h )
     3.66985772E-02    2     1000022        35   # BR(~chi_30 -> ~chi_10   H )
     1.57458521E-03    2     1000022        36   # BR(~chi_30 -> ~chi_10   A )
     1.27217574E-09    2     1000002        -2   # BR(~chi_30 -> ~u_L      ub)
     1.27217574E-09    2    -1000002         2   # BR(~chi_30 -> ~u_L*     u )
     2.26772759E-17    2     2000002        -2   # BR(~chi_30 -> ~u_R      ub)
     2.26772759E-17    2    -2000002         2   # BR(~chi_30 -> ~u_R*     u )
     3.01339269E-09    2     1000001        -1   # BR(~chi_30 -> ~d_L      db)
     3.01339269E-09    2    -1000001         1   # BR(~chi_30 -> ~d_L*     d )
     3.69670241E-10    2     2000001        -1   # BR(~chi_30 -> ~d_R      db)
     3.69670241E-10    2    -2000001         1   # BR(~chi_30 -> ~d_R*     d )
     1.27217574E-09    2     1000004        -4   # BR(~chi_30 -> ~c_L      cb)
     1.27217574E-09    2    -1000004         4   # BR(~chi_30 -> ~c_L*     c )
     2.26772759E-17    2     2000004        -4   # BR(~chi_30 -> ~c_R      cb)
     2.26772759E-17    2    -2000004         4   # BR(~chi_30 -> ~c_R*     c )
     3.01339269E-09    2     1000003        -3   # BR(~chi_30 -> ~s_L      sb)
     3.01339269E-09    2    -1000003         3   # BR(~chi_30 -> ~s_L*     s )
     3.69670241E-10    2     2000003        -3   # BR(~chi_30 -> ~s_R      sb)
     3.69670241E-10    2    -2000003         3   # BR(~chi_30 -> ~s_R*     s )
     4.54291107E-01    2     1000006        -6   # BR(~chi_30 -> ~t_1      tb)
     4.54291107E-01    2    -1000006         6   # BR(~chi_30 -> ~t_1*     t )
     1.57950691E-04    2     1000005        -5   # BR(~chi_30 -> ~b_1      bb)
     1.57950691E-04    2    -1000005         5   # BR(~chi_30 -> ~b_1*     b )
     1.60793965E-04    2     2000005        -5   # BR(~chi_30 -> ~b_2      bb)
     1.60793965E-04    2    -2000005         5   # BR(~chi_30 -> ~b_2*     b )
     7.50398375E-23    2     1000012       -12   # BR(~chi_30 -> ~nu_eL    nu_eb)
     7.50398375E-23    2    -1000012        12   # BR(~chi_30 -> ~nu_eL*   nu_e )
     7.50398375E-23    2     1000014       -14   # BR(~chi_30 -> ~nu_muL   nu_mub)
     7.50398375E-23    2    -1000014        14   # BR(~chi_30 -> ~nu_muL*  nu_mu )
     7.50398375E-23    2     1000016       -16   # BR(~chi_30 -> ~nu_tau1  nu_taub)
     7.50398375E-23    2    -1000016        16   # BR(~chi_30 -> ~nu_tau1* nu_tau )
     1.64027427E-11    2     1000039        22   # BR(~chi_30 -> ~G        gam)
     2.31468997E-04    2     1000039        23   # BR(~chi_30 -> ~G        Z)
     5.72854016E-03    2     1000039        25   # BR(~chi_30 -> ~G        h)
     2.89170574E-04    2     1000039        35   # BR(~chi_30 -> ~G        H)
     5.77748773E-03    2     1000039        36   # BR(~chi_30 -> ~G        A)
#
#         PDG            Width
DECAY   1000035     3.92821710E+03   # neutralino4 decays
#          BR         NDA      ID1       ID2
     2.82557580E-04    2     1000022        23   # BR(~chi_40 -> ~chi_10   Z )
     1.10161125E-18    2     1000023        23   # BR(~chi_40 -> ~chi_20   Z )
     3.30257275E-04    2     1000024       -24   # BR(~chi_40 -> ~chi_1+   W-)
     3.30257275E-04    2    -1000024        24   # BR(~chi_40 -> ~chi_1-   W+)
     7.55696059E-03    2     1000022        25   # BR(~chi_40 -> ~chi_10   h )
     3.80961282E-04    2     1000022        35   # BR(~chi_40 -> ~chi_10   H )
     7.18223784E-03    2     1000022        36   # BR(~chi_40 -> ~chi_10   A )
     4.43361206E-12    2     1000023        25   # BR(~chi_40 -> ~chi_20   h )
     6.71412720E-02    2     1000002        -2   # BR(~chi_40 -> ~u_L      ub)
     6.71412720E-02    2    -1000002         2   # BR(~chi_40 -> ~u_L*     u )
     1.97733967E-12    2     2000002        -2   # BR(~chi_40 -> ~u_R      ub)
     1.97733967E-12    2    -2000002         2   # BR(~chi_40 -> ~u_R*     u )
     6.71638551E-02    2     1000001        -1   # BR(~chi_40 -> ~d_L      db)
     6.71638551E-02    2    -1000001         1   # BR(~chi_40 -> ~d_L*     d )
     1.90142857E-09    2     2000001        -1   # BR(~chi_40 -> ~d_R      db)
     1.90142857E-09    2    -2000001         1   # BR(~chi_40 -> ~d_R*     d )
     6.71412720E-02    2     1000004        -4   # BR(~chi_40 -> ~c_L      cb)
     6.71412720E-02    2    -1000004         4   # BR(~chi_40 -> ~c_L*     c )
     1.97733967E-12    2     2000004        -4   # BR(~chi_40 -> ~c_R      cb)
     1.97733967E-12    2    -2000004         4   # BR(~chi_40 -> ~c_R*     c )
     6.71638551E-02    2     1000003        -3   # BR(~chi_40 -> ~s_L      sb)
     6.71638551E-02    2    -1000003         3   # BR(~chi_40 -> ~s_L*     s )
     1.90142857E-09    2     2000003        -3   # BR(~chi_40 -> ~s_R      sb)
     1.90142857E-09    2    -2000003         3   # BR(~chi_40 -> ~s_R*     s )
     1.50066865E-01    2     1000006        -6   # BR(~chi_40 -> ~t_1      tb)
     1.50066865E-01    2    -1000006         6   # BR(~chi_40 -> ~t_1*     t )
     2.95414431E-02    2     1000005        -5   # BR(~chi_40 -> ~b_1      bb)
     2.95414431E-02    2    -1000005         5   # BR(~chi_40 -> ~b_1*     b )
     3.27157219E-02    2     2000005        -5   # BR(~chi_40 -> ~b_2      bb)
     3.27157219E-02    2    -2000005         5   # BR(~chi_40 -> ~b_2*     b )
     5.64236021E-08    2     1000011       -11   # BR(~chi_40 -> ~e_L-     e+)
     5.64236021E-08    2    -1000011        11   # BR(~chi_40 -> ~e_L+     e-)
     1.43859985E-14    2     2000011       -11   # BR(~chi_40 -> ~e_R-     e+)
     1.43859985E-14    2    -2000011        11   # BR(~chi_40 -> ~e_R+     e-)
     5.64236021E-08    2     1000013       -13   # BR(~chi_40 -> ~mu_L-    mu+)
     5.64236021E-08    2    -1000013        13   # BR(~chi_40 -> ~mu_L+    mu-)
     1.43859985E-14    2     2000013       -13   # BR(~chi_40 -> ~mu_R-    mu+)
     1.43859985E-14    2    -2000013        13   # BR(~chi_40 -> ~mu_R+    mu-)
     2.75132417E-08    2     1000015       -15   # BR(~chi_40 -> ~tau_1-   tau+)
     2.75132417E-08    2    -1000015        15   # BR(~chi_40 -> ~tau_1+   tau-)
     2.88182587E-08    2     2000015       -15   # BR(~chi_40 -> ~tau_2-   tau+)
     2.88182587E-08    2    -2000015        15   # BR(~chi_40 -> ~tau_2+   tau-)
     5.64979094E-08    2     1000012       -12   # BR(~chi_40 -> ~nu_eL    nu_eb)
     5.64979094E-08    2    -1000012        12   # BR(~chi_40 -> ~nu_eL*   nu_e )
     5.64979094E-08    2     1000014       -14   # BR(~chi_40 -> ~nu_muL   nu_mub)
     5.64979094E-08    2    -1000014        14   # BR(~chi_40 -> ~nu_muL*  nu_mu )
     5.64979094E-08    2     1000016       -16   # BR(~chi_40 -> ~nu_tau1  nu_taub)
     5.64979094E-08    2    -1000016        16   # BR(~chi_40 -> ~nu_tau1* nu_tau )
     5.71300578E-04    2     1000039        22   # BR(~chi_40 -> ~G        gam)
     2.89754908E-03    2     1000039        23   # BR(~chi_40 -> ~G        Z)
     5.64172830E-05    2     1000039        25   # BR(~chi_40 -> ~G        h)
     1.11327729E-03    2     1000039        35   # BR(~chi_40 -> ~G        H)
     4.49503036E-05    2     1000039        36   # BR(~chi_40 -> ~G        A)
#
#
#
#
