#
#                              ======================
#                              | THE SUSYHIT OUTPUT |
#                              ======================
#
#
#              ------------------------------------------------------
#              |     This is the output of the SUSY-HIT package     |
#              |  created by A.Djouadi, M.Muehlleitner and M.Spira. |
#              |  In case of problems with SUSY-HIT email to        |
#              |           margarete.muehlleitner@cern.ch           |
#              |           michael.spira@psi.ch                     |
#              |           abdelhak.djouadi@cern.ch                 |
#              ------------------------------------------------------
#
#              ------------------------------------------------------
#              |  SUSY Les Houches Accord - MSSM Spectrum + Decays  |
#              |              based on the decay programs           |
#              |                                                    |
#              |                     SDECAY 1.3b                    |
#              |                                                    |
#              |  Authors: M.Muhlleitner, A.Djouadi and Y.Mambrini  |
#              |  Ref.:    Comput.Phys.Commun.168(2005)46           |
#              |           [hep-ph/0311167]                         |
#              |                                                    |
#              |                     HDECAY 3.4                     |
#              |                                                    |
#              |  By: A.Djouadi,J.Kalinowski,M.Muhlleitner,M.Spira  |
#              |  Ref.:    Comput.Phys.Commun.108(1998)56           |
#              |           [hep-ph/9704448]                         |
#              |                                                    |
#              |                                                    |
#              |  If not stated otherwise all DRbar couplings and   |
#              |  soft SUSY breaking masses are given at the scale  |
#              |  Q=  0.91187600E+02
#              |                                                    |
#              ------------------------------------------------------
#
#
BLOCK DCINFO  # Decay Program information
     1   SDECAY/HDECAY # decay calculator
     2   1.3b  /3.4    # version number
#
BLOCK SPINFO  # Spectrum calculator information
     1   SuSpect     # RGE +Spectrum calculator            
     2   2.41         # version number                     
#
BLOCK MODSEL  # Model selection
     1     0   # #general MSSM low scale                           
#
BLOCK SMINPUTS  # Standard Model inputs
         1     1.27934000E+02   # alpha_em^-1(M_Z)^MSbar
         2     1.16639000E-05   # G_F [GeV^-2]
         3     1.17200000E-01   # alpha_S(M_Z)^MSbar
         4     9.11870000E+01   # M_Z pole mass
         5     4.25000000E+00   # mb(mb)^MSbar
         6     1.72500000E+02   # mt pole mass
         7     1.77700000E+00   # mtau pole mass
#
BLOCK MINPAR  # Input parameters - minimal models
#
BLOCK EXTPAR  # Input parameters - non-minimal models
         0     9.11876000E+01   # EWSB                
         1     1.50000000E+02   # M_1                 
         2     3.00000000E+03   # M_2                 
         3     1.90000000E+03   # M_3                 
        11     0.00000000E+00   # A_t                 
        12     0.00000000E+00   # A_b                 
        13     0.00000000E+00   # A_tau               
        14     0.00000000E+00   # A_u                 
        15     0.00000000E+00   # A_d                 
        16     0.00000000E+00   # A_e                 
        23     3.00000000E+03   # mu(EWSB)            
        25     1.50000000E+00   # tanbeta(in)         
        26     2.00000000E+03   # MA_pole             
        31     3.00000000E+03   # M_eL                
        32     3.00000000E+03   # M_muL               
        33     3.00000000E+03   # M_tauL              
        34     3.00000000E+03   # M_eR                
        35     3.00000000E+03   # M_muR               
        36     3.00000000E+03   # M_tauR              
        41     3.00000000E+03   # M_q1L               
        42     3.00000000E+03   # M_q2L               
        43     3.00000000E+03   # M_q3L               
        44     3.00000000E+03   # M_uR                
        45     3.00000000E+03   # M_cR                
        46     3.00000000E+03   # M_tR                
        47     3.00000000E+03   # M_dR                
        48     3.00000000E+03   # M_sR                
        49     3.00000000E+03   # M_bR                
#
BLOCK MASS  # Mass Spectrum
# PDG code           mass       particle
        24     8.05385396E+01   # W+
        25     1.25000000E+02   # h
        35     2.00379036E+03   # H
        36     2.00000000E+03   # A
        37     2.00144246E+03   # H+
         5     4.87877839E+00   # b-quark pole mass calculated from mb(mb)_Msbar
   1000001     3.00022252E+03   # ~d_L
   2000001     3.00004243E+03   # ~d_R
   1000002     2.99981990E+03   # ~u_L
   2000002     2.99991513E+03   # ~u_R
   1000003     3.00022252E+03   # ~s_L
   2000003     3.00004243E+03   # ~s_R
   1000004     2.99981990E+03   # ~c_L
   2000004     2.99991513E+03   # ~c_R
   1000005     2.99811254E+03   # ~b_1
   2000005     3.00215347E+03   # ~b_2
   1000006     2.95237417E+03   # ~t_1
   2000006     3.05430047E+03   # ~t_2
   1000011     3.00013766E+03   # ~e_L
   2000011     3.00012730E+03   # ~e_R
   1000012     2.99973502E+03   # ~nu_eL
   1000013     3.00013766E+03   # ~mu_L
   2000013     3.00012730E+03   # ~mu_R
   1000014     2.99973502E+03   # ~nu_muL
   1000015     2.99879759E+03   # ~tau_1
   2000015     3.00146783E+03   # ~tau_2
   1000016     2.99973502E+03   # ~nu_tauL
   1000021     1.90000000E+03   # ~g
   1000022     1.49353945E+02   # ~chi_10
   1000023     2.92264965E+03   # ~chi_20
   1000025    -3.00006453E+03   # ~chi_30
   1000035     3.07806093E+03   # ~chi_40
   1000024     2.92232621E+03   # ~chi_1+
   1000037     3.07775432E+03   # ~chi_2+
   1000039     1.00000000E-09   # ~gravitino
#
BLOCK NMIX  # Neutralino Mixing Matrix
  1  1     9.99878427E-01   # N_11
  1  2    -4.03008554E-04   # N_12
  1  3     1.28091383E-02   # N_13
  1  4    -8.88232281E-03   # N_14
  2  1     1.11144290E-02   # N_21
  2  2     7.08534045E-01   # N_22
  2  3    -5.00228336E-01   # N_23
  2  4     4.97621933E-01   # N_24
  3  1     2.77512617E-03   # N_31
  3  2    -2.59111761E-03   # N_32
  3  3    -7.07063661E-01   # N_33
  3  4    -7.07139706E-01   # N_34
  4  1     1.05782909E-02   # N_41
  4  2    -7.05671758E-01   # N_42
  4  3    -4.99668407E-01   # N_43
  4  4     5.02241926E-01   # N_44
#
BLOCK UMIX  # Chargino Mixing Matrix U
  1  1    -7.05272690E-01   # U_11
  1  2     7.08936128E-01   # U_12
  2  1     7.08936128E-01   # U_21
  2  2     7.05272690E-01   # U_22
#
BLOCK VMIX  # Chargino Mixing Matrix V
  1  1    -7.08936128E-01   # V_11
  1  2     7.05272690E-01   # V_12
  2  1     7.05272690E-01   # V_21
  2  2     7.08936128E-01   # V_22
#
BLOCK STOPMIX  # Stop Mixing Matrix
  1  1     7.07436674E-01   # cos(theta_t)
  1  2     7.06776734E-01   # sin(theta_t)
  2  1    -7.06776734E-01   # -sin(theta_t)
  2  2     7.07436674E-01   # cos(theta_t)
#
BLOCK SBOTMIX  # Sbottom Mixing Matrix
  1  1     6.91170466E-01   # cos(theta_b)
  1  2     7.22691765E-01   # sin(theta_b)
  2  1    -7.22691765E-01   # -sin(theta_b)
  2  2     6.91170466E-01   # cos(theta_b)
#
BLOCK STAUMIX  # Stau Mixing Matrix
  1  1     7.05732886E-01   # cos(theta_tau)
  1  2     7.08478012E-01   # sin(theta_tau)
  2  1    -7.08478012E-01   # -sin(theta_tau)
  2  2     7.05732886E-01   # cos(theta_tau)
#
BLOCK ALPHA  # Higgs mixing
          -5.89893242E-01   # Mixing angle in the neutral Higgs boson sector
#
BLOCK HMIX Q=  9.11876000E+01  # DRbar Higgs Parameters
         1     3.00000000E+03   # mu(Q)               
         2     1.49999980E+00   # tanbeta(Q)          
         3     2.52418923E+02   # vev(Q)              
         4     2.86942781E+06   # MA^2(Q)             
#
BLOCK GAUGE Q=  9.11876000E+01  # The gauge couplings
     1     3.53088408E-01   # gprime(Q) DRbar
     2     6.27948928E-01   # g(Q) DRbar
     3     1.08950513E+00   # g3(Q) DRbar
#
BLOCK AU Q=  9.11876000E+01  # The trilinear couplings
  1  1     0.00000000E+00   # A_u(Q) DRbar
  2  2     0.00000000E+00   # A_c(Q) DRbar
  3  3     0.00000000E+00   # A_t(Q) DRbar
#
BLOCK AD Q=  9.11876000E+01  # The trilinear couplings
  1  1     0.00000000E+00   # A_d(Q) DRbar
  2  2     0.00000000E+00   # A_s(Q) DRbar
  3  3     0.00000000E+00   # A_b(Q) DRbar
#
BLOCK AE Q=  9.11876000E+01  # The trilinear couplings
  1  1     0.00000000E+00   # A_e(Q) DRbar
  2  2     0.00000000E+00   # A_mu(Q) DRbar
  3  3     0.00000000E+00   # A_tau(Q) DRbar
#
BLOCK Yu Q=  9.11876000E+01  # The Yukawa couplings
  1  1     0.00000000E+00   # y_u(Q) DRbar
  2  2     0.00000000E+00   # y_c(Q) DRbar
  3  3     1.03063134E+00   # y_t(Q) DRbar
#
BLOCK Yd Q=  9.11876000E+01  # The Yukawa couplings
  1  1     0.00000000E+00   # y_d(Q) DRbar
  2  2     0.00000000E+00   # y_s(Q) DRbar
  3  3     2.71839592E-02   # y_b(Q) DRbar
#
BLOCK Ye Q=  9.11876000E+01  # The Yukawa couplings
  1  1     0.00000000E+00   # y_e(Q) DRbar
  2  2     0.00000000E+00   # y_mu(Q) DRbar
  3  3     1.79807924E-02   # y_tau(Q) DRbar
#
BLOCK MSOFT Q=  9.11876000E+01  # The soft SUSY breaking masses at the scale Q
         1     1.50000000E+02   # M_1                 
         2     3.00000000E+03   # M_2                 
         3     1.90000000E+03   # M_3                 
        14     0.00000000E+00   # A_u                 
        15     0.00000000E+00   # A_d                 
        16     0.00000000E+00   # A_e                 
        21    -6.69762600E+06   # M^2_Hd              
        22    -9.08285399E+06   # M^2_Hu              
        31     3.00000000E+03   # M_eL                
        32     3.00000000E+03   # M_muL               
        33     3.00000000E+03   # M_tauL              
        34     3.00000000E+03   # M_eR                
        35     3.00000000E+03   # M_muR               
        36     3.00000000E+03   # M_tauR              
        41     3.00000000E+03   # M_q1L               
        42     3.00000000E+03   # M_q2L               
        43     3.00000000E+03   # M_q3L               
        44     3.00000000E+03   # M_uR                
        45     3.00000000E+03   # M_cR                
        46     3.00000000E+03   # M_tR                
        47     3.00000000E+03   # M_dR                
        48     3.00000000E+03   # M_sR                
        49     3.00000000E+03   # M_bR                
#
#
#
#                             =================
#                             |The decay table|
#                             =================
#
# - The QCD corrections to the decays gluino -> squark  + quark
#                                     squark -> gaugino + quark_prime
#                                     squark -> squark_prime + Higgs
#                                     squark -> gluino  + quark
#   are included.
#
# - The multi-body decays for the inos, stops and sbottoms are included.
#
# - The loop induced decays for the gluino, neutralinos and stops
#   are included.
#
# - The SUSY decays of the top quark are included.
#
# - Possible decays of the NLSP in GMSB models are included.
#
#
#         PDG            Width
DECAY         6     1.36286691E+00   # top decays
#          BR         NDA      ID1       ID2
     1.00000000E+00    2           5        24   # BR(t ->  b    W+)
#
#         PDG            Width
DECAY   1000021     1.E-04   # gluino decays (OJ Mods)
#          BR         NDA      ID1       ID2
     3.31677804E-05    2     1000022        21   # BR(~g -> ~chi_10 g)
#          BR         NDA      ID1       ID2
     1.08039893E-02    2     1000039        21   # BR(~g -> ~G      g)
#           BR         NDA      ID1       ID2       ID3
     7.87604338E-02    3     1000022         1        -1   # BR(~g -> ~chi_10 d  db)
     2.67561047E-01    3     1000022         2        -2   # BR(~g -> ~chi_10 u  ub)
     7.87604338E-02    3     1000022         3        -3   # BR(~g -> ~chi_10 s  sb)
     2.67561047E-01    3     1000022         4        -4   # BR(~g -> ~chi_10 c  cb)
     7.87461985E-02    3     1000022         5        -5   # BR(~g -> ~chi_10 b  bb)
     2.17773682E-01    3     1000022         6        -6   # BR(~g -> ~chi_10 t  tb)
#
#         PDG            Width
DECAY   1000006     7.06491948E+01   # stop1 decays
#          BR         NDA      ID1       ID2
     4.78704284E-02    2     1000022         6   # BR(~t_1 -> ~chi_10 t )
     2.24353811E-04    2     1000024         5   # BR(~t_1 -> ~chi_1+ b )
     9.51905218E-01    2     1000021         6   # BR(~t_1 -> ~g      t )
#
#         PDG            Width
DECAY   2000006     6.44865101E+01   # stop2 decays
#          BR         NDA      ID1       ID2
     5.04601069E-02    2     1000022         6   # BR(~t_2 -> ~chi_10 t )
     1.09570292E-04    2     1000024         5   # BR(~t_2 -> ~chi_1+ b )
     9.48432149E-01    2     1000021         6   # BR(~t_2 -> ~g      t )
     9.98174242E-04    2     1000006        23   # BR(~t_2 -> ~t_1    Z )
#
#         PDG            Width
DECAY   1000005     6.55177393E+01   # sbottom1 decays
#          BR         NDA      ID1       ID2
     1.55282058E-02    2     1000022         5   # BR(~b_1 -> ~chi_10 b )
     1.20923090E-04    2     1000023         5   # BR(~b_1 -> ~chi_20 b )
     9.84350871E-01    2     1000021         5   # BR(~b_1 -> ~g      b )
#
#         PDG            Width
DECAY   2000005     6.54523514E+01   # sbottom2 decays
#          BR         NDA      ID1       ID2
     1.44066036E-02    2     1000022         5   # BR(~b_2 -> ~chi_10 b )
     1.28207779E-04    2     1000023         5   # BR(~b_2 -> ~chi_20 b )
     9.85465189E-01    2     1000021         5   # BR(~b_2 -> ~g      b )
#
#         PDG            Width
DECAY   1000002     6.49835623E+01   # sup_L decays
#          BR         NDA      ID1       ID2
     6.00922547E-03    2     1000022         2   # BR(~u_L -> ~chi_10 u)
     6.15487145E-04    2     1000023         2   # BR(~u_L -> ~chi_20 u)
     1.23212978E-03    2     1000024         1   # BR(~u_L -> ~chi_1+ d)
     9.92143158E-01    2     1000021         2   # BR(~u_L -> ~g      u)
#
#         PDG            Width
DECAY   2000002     7.07557135E+01   # sup_R decays
#          BR         NDA      ID1       ID2
     8.86879658E-02    2     1000022         2   # BR(~u_R -> ~chi_10 u)
     7.78540555E-08    2     1000023         2   # BR(~u_R -> ~chi_20 u)
     9.11311956E-01    2     1000021         2   # BR(~u_R -> ~g      u)
#
#         PDG            Width
DECAY   1000001     6.50183723E+01   # sdown_L decays
#          BR         NDA      ID1       ID2
     6.05873950E-03    2     1000022         1   # BR(~d_L -> ~chi_10 d)
     6.12244142E-04    2     1000023         1   # BR(~d_L -> ~chi_20 d)
     1.48123219E-11    2     1000025         1   # BR(~d_L -> ~chi_30 d)
     1.22732202E-03    2    -1000024         2   # BR(~d_L -> ~chi_1- u)
     9.92101694E-01    2     1000021         1   # BR(~d_L -> ~g      d)
#
#         PDG            Width
DECAY   2000001     6.60594608E+01   # sdown_R decays
#          BR         NDA      ID1       ID2
     2.37492755E-02    2     1000022         1   # BR(~d_R -> ~chi_10 d)
     2.08935001E-08    2     1000023         1   # BR(~d_R -> ~chi_20 d)
     9.76250704E-01    2     1000021         1   # BR(~d_R -> ~g      d)
#
#         PDG            Width
DECAY   1000004     6.49835623E+01   # scharm_L decays
#          BR         NDA      ID1       ID2
     6.00922547E-03    2     1000022         4   # BR(~c_L -> ~chi_10 c)
     6.15487145E-04    2     1000023         4   # BR(~c_L -> ~chi_20 c)
     1.23212978E-03    2     1000024         3   # BR(~c_L -> ~chi_1+ s)
     9.92143158E-01    2     1000021         4   # BR(~c_L -> ~g      c)
#
#         PDG            Width
DECAY   2000004     7.07557135E+01   # scharm_R decays
#          BR         NDA      ID1       ID2
     8.86879658E-02    2     1000022         4   # BR(~c_R -> ~chi_10 c)
     7.78540555E-08    2     1000023         4   # BR(~c_R -> ~chi_20 c)
     9.11311956E-01    2     1000021         4   # BR(~c_R -> ~g      c)
#
#         PDG            Width
DECAY   1000003     6.50183723E+01   # sstrange_L decays
#          BR         NDA      ID1       ID2
     6.05873950E-03    2     1000022         3   # BR(~s_L -> ~chi_10 s)
     6.12244142E-04    2     1000023         3   # BR(~s_L -> ~chi_20 s)
     1.48123219E-11    2     1000025         3   # BR(~s_L -> ~chi_30 s)
     1.22732202E-03    2    -1000024         4   # BR(~s_L -> ~chi_1- c)
     9.92101694E-01    2     1000021         3   # BR(~s_L -> ~g      s)
#
#         PDG            Width
DECAY   2000003     6.60594608E+01   # sstrange_R decays
#          BR         NDA      ID1       ID2
     2.37492755E-02    2     1000022         3   # BR(~s_R -> ~chi_10 s)
     2.08935001E-08    2     1000023         3   # BR(~s_R -> ~chi_20 s)
     9.76250704E-01    2     1000021         3   # BR(~s_R -> ~g      s)
#
#         PDG            Width
DECAY   1000011     3.74225550E+00   # selectron_L decays
#          BR         NDA      ID1       ID2
     9.87622758E-01    2     1000022        11   # BR(~e_L -> ~chi_10 e-)
     4.17697824E-03    2     1000023        11   # BR(~e_L -> ~chi_20 e-)
     7.93918961E-15    2     1000025        11   # BR(~e_L -> ~chi_30 e-)
     8.20026335E-03    2    -1000024        12   # BR(~e_L -> ~chi_1- nu_e)
#
#         PDG            Width
DECAY   2000011     1.48049172E+01   # selectron_R decays
#          BR         NDA      ID1       ID2
     9.99999677E-01    2     1000022        11   # BR(~e_R -> ~chi_10 e-)
     3.22760199E-07    2     1000023        11   # BR(~e_R -> ~chi_20 e-)
     1.35550780E-14    2     1000025        11   # BR(~e_R -> ~chi_30 e-)
#
#         PDG            Width
DECAY   1000013     3.74225550E+00   # smuon_L decays
#          BR         NDA      ID1       ID2
     9.87622758E-01    2     1000022        13   # BR(~mu_L -> ~chi_10 mu-)
     4.17697824E-03    2     1000023        13   # BR(~mu_L -> ~chi_20 mu-)
     7.93918961E-15    2     1000025        13   # BR(~mu_L -> ~chi_30 mu-)
     8.20026335E-03    2    -1000024        14   # BR(~mu_L -> ~chi_1- nu_mu)
#
#         PDG            Width
DECAY   2000013     1.48049172E+01   # smuon_R decays
#          BR         NDA      ID1       ID2
     9.99999677E-01    2     1000022        13   # BR(~mu_R -> ~chi_10 mu-)
     3.22760199E-07    2     1000023        13   # BR(~mu_R -> ~chi_20 mu-)
     1.35550780E-14    2     1000025        13   # BR(~mu_R -> ~chi_30 mu-)
#
#         PDG            Width
DECAY   1000015     9.29555579E+00   # stau_1 decays
#          BR         NDA      ID1       ID2
     9.97431580E-01    2     1000022        15   # BR(~tau_1 -> ~chi_10  tau-)
     8.55690271E-04    2     1000023        15   # BR(~tau_1 -> ~chi_20  tau-)
     1.68269323E-03    2    -1000024        16   # BR(~tau_1 -> ~chi_1-  nu_tau)
     3.00363261E-05    2     1000039        15   # BR(~tau_1 -> ~G       tau-)
#
#         PDG            Width
DECAY   2000015     9.25183840E+00   # stau_2 decays
#          BR         NDA      ID1       ID2
     9.97548746E-01    2     1000022        15   # BR(~tau_2 -> ~chi_10  tau-)
     8.27729785E-04    2     1000023        15   # BR(~tau_2 -> ~chi_20  tau-)
     1.62352398E-03    2    -1000024        16   # BR(~tau_2 -> ~chi_1-  nu_tau)
#
#         PDG            Width
DECAY   1000012     3.75167898E+00   # snu_eL decays
#          BR         NDA      ID1       ID2
     9.87836850E-01    2     1000022        12   # BR(~nu_eL -> ~chi_10 nu_e)
     3.98141820E-03    2     1000023        12   # BR(~nu_eL -> ~chi_20 nu_e)
     8.18173160E-03    2     1000024        11   # BR(~nu_eL -> ~chi_1+ e-)
#
#         PDG            Width
DECAY   1000014     3.75167898E+00   # snu_muL decays
#          BR         NDA      ID1       ID2
     9.87836850E-01    2     1000022        14   # BR(~nu_muL -> ~chi_10 nu_mu)
     3.98141820E-03    2     1000023        14   # BR(~nu_muL -> ~chi_20 nu_mu)
     8.18173160E-03    2     1000024        13   # BR(~nu_muL -> ~chi_1+ mu-)
#
#         PDG            Width
DECAY   1000016     3.75165602E+00   # snu_tauL decays
#          BR         NDA      ID1       ID2
     9.87842895E-01    2     1000022        16   # BR(~nu_tauL -> ~chi_10 nu_tau)
     3.98144256E-03    2     1000023        16   # BR(~nu_tauL -> ~chi_20 nu_tau)
     8.17566259E-03    2     1000024        15   # BR(~nu_tauL -> ~chi_1+ tau-)
#
#         PDG            Width
DECAY   1000024     1.22697845E+00   # chargino1+ decays
#          BR         NDA      ID1       ID2
     8.19721719E-01    2     1000022        24   # BR(~chi_1+ -> ~chi_10  W+)
     1.80124876E-01    2     1000022        37   # BR(~chi_1+ -> ~chi_10  H+)
     1.49424176E-04    2     1000039        24   # BR(~chi_1+ -> ~G       W+)
     3.98025690E-06    2     1000039        37   # BR(~chi_1+ -> ~G       H+)
#
#         PDG            Width
DECAY   1000037     4.27925977E+00   # chargino2+ decays
#          BR         NDA      ID1       ID2
     2.77337219E-02    2     1000002        -1   # BR(~chi_2+ -> ~u_L     db)
     2.78269018E-02    2    -1000001         2   # BR(~chi_2+ -> ~d_L*    u )
     2.77337219E-02    2     1000004        -3   # BR(~chi_2+ -> ~c_L     sb)
     2.78269018E-02    2    -1000003         4   # BR(~chi_2+ -> ~s_L*    c )
     4.50246490E-03    2     1000006        -5   # BR(~chi_2+ -> ~t_1     bb)
     4.58466885E-03    2     2000006        -5   # BR(~chi_2+ -> ~t_2     bb)
     3.51576546E-03    2     1000012       -11   # BR(~chi_2+ -> ~nu_eL   e+  )
     3.51576546E-03    2     1000014       -13   # BR(~chi_2+ -> ~nu_muL  mu+ )
     3.51311506E-03    2     1000016       -15   # BR(~chi_2+ -> ~nu_tau1 tau+)
     3.51627897E-03    2    -1000011        12   # BR(~chi_2+ -> ~e_L+    nu_e)
     3.51627897E-03    2    -1000013        14   # BR(~chi_2+ -> ~mu_L+   nu_mu)
     1.70938462E-03    2    -1000015        16   # BR(~chi_2+ -> ~tau_1+  nu_tau)
     1.80391151E-03    2    -2000015        16   # BR(~chi_2+ -> ~tau_2+  nu_tau)
     2.68020425E-01    2     1000024        23   # BR(~chi_2+ -> ~chi_1+  Z )
     2.23353909E-01    2     1000022        24   # BR(~chi_2+ -> ~chi_10  W+)
     3.08740443E-01    2     1000023        24   # BR(~chi_2+ -> ~chi_20  W+)
     2.80475087E-06    2     1000024        25   # BR(~chi_2+ -> ~chi_1+  h )
     5.85258704E-02    2     1000022        37   # BR(~chi_2+ -> ~chi_10  H+)
     5.56108872E-05    2     1000039        24   # BR(~chi_2+ -> ~G       W+)
     2.05635112E-06    2     1000039        37   # BR(~chi_2+ -> ~G       H+)
#
#         PDG            Width
DECAY   1000022     1.E-08   # neutralino1 decays (OJ Mods)
#          BR         NDA      ID1       ID2
     9.53241800E-01    2     1000039        22   # BR(~chi_10 -> ~G        gam)
     4.67581998E-02    2     1000039        23   # BR(~chi_10 -> ~G        Z)
     3.30764538E-10    2     1000039        25   # BR(~chi_10 -> ~G        h)
#
#         PDG            Width
DECAY   1000023     1.E-08   # neutralino2 decays (OJ Mods)
#          BR         NDA      ID1       ID2
     2.41945445E-02    2     1000022        23   # BR(~chi_20 -> ~chi_10   Z )
     7.99572146E-01    2     1000022        25   # BR(~chi_20 -> ~chi_10   h )
     1.02173847E-02    2     1000022        35   # BR(~chi_20 -> ~chi_10   H )
     1.65865841E-01    2     1000022        36   # BR(~chi_20 -> ~chi_10   A )
     2.49117509E-05    2     1000039        22   # BR(~chi_20 -> ~G        gam)
     1.19545096E-04    2     1000039        23   # BR(~chi_20 -> ~G        Z)
     1.77545153E-06    2     1000039        25   # BR(~chi_20 -> ~G        h)
     3.69746799E-06    2     1000039        35   # BR(~chi_20 -> ~G        H)
     1.53558097E-07    2     1000039        36   # BR(~chi_20 -> ~G        A)
#
#         PDG            Width
DECAY   1000025     2.49381030E+00   # neutralino3 decays
#          BR         NDA      ID1       ID2
     7.84593218E-01    2     1000022        23   # BR(~chi_30 -> ~chi_10   Z )
     2.53307944E-02    2     1000022        25   # BR(~chi_30 -> ~chi_10   h )
     1.79661152E-01    2     1000022        35   # BR(~chi_30 -> ~chi_10   H )
     1.03537390E-02    2     1000022        36   # BR(~chi_30 -> ~chi_10   A )
     7.95218145E-10    2     1000002        -2   # BR(~chi_30 -> ~u_L      ub)
     7.95218145E-10    2    -1000002         2   # BR(~chi_30 -> ~u_L*     u )
     4.89557489E-10    2     2000002        -2   # BR(~chi_30 -> ~u_R      ub)
     4.89557489E-10    2    -2000002         2   # BR(~chi_30 -> ~u_R*     u )
     1.80969036E-11    2     2000001        -1   # BR(~chi_30 -> ~d_R      db)
     1.80969036E-11    2    -2000001         1   # BR(~chi_30 -> ~d_R*     d )
     7.95218145E-10    2     1000004        -4   # BR(~chi_30 -> ~c_L      cb)
     7.95218145E-10    2    -1000004         4   # BR(~chi_30 -> ~c_L*     c )
     4.89557489E-10    2     2000004        -4   # BR(~chi_30 -> ~c_R      cb)
     4.89557489E-10    2    -2000004         4   # BR(~chi_30 -> ~c_R*     c )
     1.80969036E-11    2     2000003        -3   # BR(~chi_30 -> ~s_R      sb)
     1.80969036E-11    2    -2000003         3   # BR(~chi_30 -> ~s_R*     s )
     1.96185077E-12    2     1000012       -12   # BR(~chi_30 -> ~nu_eL    nu_eb)
     1.96185077E-12    2    -1000012        12   # BR(~chi_30 -> ~nu_eL*   nu_e )
     1.96185077E-12    2     1000014       -14   # BR(~chi_30 -> ~nu_muL   nu_mub)
     1.96185077E-12    2    -1000014        14   # BR(~chi_30 -> ~nu_muL*  nu_mu )
     1.96185077E-12    2     1000016       -16   # BR(~chi_30 -> ~nu_tau1  nu_taub)
     1.96185077E-12    2    -1000016        16   # BR(~chi_30 -> ~nu_tau1* nu_tau )
     1.48108973E-10    2     1000039        22   # BR(~chi_30 -> ~G        gam)
     2.15210222E-06    2     1000039        23   # BR(~chi_30 -> ~G        Z)
     5.36040362E-05    2     1000039        25   # BR(~chi_30 -> ~G        h)
     1.99132405E-07    2     1000039        35   # BR(~chi_30 -> ~G        H)
     5.13854633E-06    2     1000039        36   # BR(~chi_30 -> ~G        A)
#
#         PDG            Width
DECAY   1000035     4.49715076E+00   # neutralino4 decays
#          BR         NDA      ID1       ID2
     7.51865523E-03    2     1000022        23   # BR(~chi_40 -> ~chi_10   Z )
     1.23532042E-09    2     1000023        23   # BR(~chi_40 -> ~chi_20   Z )
     2.91444937E-01    2     1000024       -24   # BR(~chi_40 -> ~chi_1+   W-)
     2.91444937E-01    2    -1000024        24   # BR(~chi_40 -> ~chi_1-   W+)
     2.12893188E-01    2     1000022        25   # BR(~chi_40 -> ~chi_10   h )
     2.70886616E-03    2     1000022        35   # BR(~chi_40 -> ~chi_10   H )
     5.34379841E-02    2     1000022        36   # BR(~chi_40 -> ~chi_10   A )
     4.72445393E-06    2     1000023        25   # BR(~chi_40 -> ~chi_20   h )
     2.13875612E-02    2     1000002        -2   # BR(~chi_40 -> ~u_L      ub)
     2.13875612E-02    2    -1000002         2   # BR(~chi_40 -> ~u_L*     u )
     2.71260918E-06    2     2000002        -2   # BR(~chi_40 -> ~u_R      ub)
     2.71260918E-06    2    -2000002         2   # BR(~chi_40 -> ~u_R*     u )
     2.14948792E-02    2     1000001        -1   # BR(~chi_40 -> ~d_L      db)
     2.14948792E-02    2    -1000001         1   # BR(~chi_40 -> ~d_L*     d )
     6.76817719E-07    2     2000001        -1   # BR(~chi_40 -> ~d_R      db)
     6.76817719E-07    2    -2000001         1   # BR(~chi_40 -> ~d_R*     d )
     2.13875612E-02    2     1000004        -4   # BR(~chi_40 -> ~c_L      cb)
     2.13875612E-02    2    -1000004         4   # BR(~chi_40 -> ~c_L*     c )
     2.71260918E-06    2     2000004        -4   # BR(~chi_40 -> ~c_R      cb)
     2.71260918E-06    2    -2000004         4   # BR(~chi_40 -> ~c_R*     c )
     2.14948792E-02    2     1000003        -3   # BR(~chi_40 -> ~s_L      sb)
     2.14948792E-02    2    -1000003         3   # BR(~chi_40 -> ~s_L*     s )
     6.76817719E-07    2     2000003        -3   # BR(~chi_40 -> ~s_R      sb)
     6.76817719E-07    2    -2000003         3   # BR(~chi_40 -> ~s_R*     s )
     3.32068710E-03    2     1000005        -5   # BR(~chi_40 -> ~b_1      bb)
     3.32068710E-03    2    -1000005         5   # BR(~chi_40 -> ~b_1*     b )
     3.91306893E-03    2     2000005        -5   # BR(~chi_40 -> ~b_2      bb)
     3.91306893E-03    2    -2000005         5   # BR(~chi_40 -> ~b_2*     b )
     1.64234050E-03    2     1000011       -11   # BR(~chi_40 -> ~e_L-     e+)
     1.64234050E-03    2    -1000011        11   # BR(~chi_40 -> ~e_L+     e-)
     4.74824690E-07    2     2000011       -11   # BR(~chi_40 -> ~e_R-     e+)
     4.74824690E-07    2    -2000011        11   # BR(~chi_40 -> ~e_R+     e-)
     1.64234050E-03    2     1000013       -13   # BR(~chi_40 -> ~mu_L-    mu+)
     1.64234050E-03    2    -1000013        13   # BR(~chi_40 -> ~mu_L+    mu-)
     4.74824690E-07    2     2000013       -13   # BR(~chi_40 -> ~mu_R-    mu+)
     4.74824690E-07    2    -2000013        13   # BR(~chi_40 -> ~mu_R+    mu-)
     7.97062450E-04    2     1000015       -15   # BR(~chi_40 -> ~tau_1-   tau+)
     7.97062450E-04    2    -1000015        15   # BR(~chi_40 -> ~tau_1+   tau-)
     8.43055936E-04    2     2000015       -15   # BR(~chi_40 -> ~tau_2-   tau+)
     8.43055936E-04    2    -2000015        15   # BR(~chi_40 -> ~tau_2+   tau-)
     1.71603090E-03    2     1000012       -12   # BR(~chi_40 -> ~nu_eL    nu_eb)
     1.71603090E-03    2    -1000012        12   # BR(~chi_40 -> ~nu_eL*   nu_e )
     1.71603090E-03    2     1000014       -14   # BR(~chi_40 -> ~nu_muL   nu_mub)
     1.71603090E-03    2    -1000014        14   # BR(~chi_40 -> ~nu_muL*  nu_mu )
     1.71603090E-03    2     1000016       -16   # BR(~chi_40 -> ~nu_tau1  nu_taub)
     1.71603090E-03    2    -1000016        16   # BR(~chi_40 -> ~nu_tau1* nu_tau )
     8.01591409E-06    2     1000039        22   # BR(~chi_40 -> ~G        gam)
     4.41441735E-05    2     1000039        23   # BR(~chi_40 -> ~G        Z)
     6.82826537E-07    2     1000039        25   # BR(~chi_40 -> ~G        h)
     1.88098490E-06    2     1000039        35   # BR(~chi_40 -> ~G        H)
     7.41574672E-08    2     1000039        36   # BR(~chi_40 -> ~G        A)
#
#         PDG            Width
DECAY        25     4.10250067E-03   # h decays
#          BR         NDA      ID1       ID2
     6.19149203E-01    2           5        -5   # BR(h -> b       bb     )
     6.34287970E-02    2         -15        15   # BR(h -> tau+    tau-   )
     2.24514581E-04    2         -13        13   # BR(h -> mu+     mu-    )
     4.75773442E-04    2           3        -3   # BR(h -> s       sb     )
     2.05529719E-02    2           4        -4   # BR(h -> c       cb     )
     6.68673345E-02    2          21        21   # BR(h -> g       g      )
     2.29149418E-03    2          22        22   # BR(h -> gam     gam    )
     1.53096968E-03    2          22        23   # BR(h -> Z       gam    )
     1.99966750E-01    2          24       -24   # BR(h -> W+      W-     )
     2.55121916E-02    2          23        23   # BR(h -> Z       Z      )
#
#         PDG            Width
DECAY        35     3.75768916E+01   # H decays
#          BR         NDA      ID1       ID2
     1.45110556E-03    2           5        -5   # BR(H -> b       bb     )
     2.48032485E-04    2         -15        15   # BR(H -> tau+    tau-   )
     8.76887179E-07    2         -13        13   # BR(H -> mu+     mu-    )
     1.12272210E-06    2           3        -3   # BR(H -> s       sb     )
     1.01186227E-05    2           4        -4   # BR(H -> c       cb     )
     9.96298237E-01    2           6        -6   # BR(H -> t       tb     )
     7.94010845E-04    2          21        21   # BR(H -> g       g      )
     2.69529601E-06    2          22        22   # BR(H -> gam     gam    )
     1.15922608E-06    2          23        22   # BR(H -> Z       gam    )
     2.48715907E-04    2          24       -24   # BR(H -> W+      W-     )
     1.24018612E-04    2          23        23   # BR(H -> Z       Z      )
     8.15875790E-04    2          25        25   # BR(H -> h       h      )
     6.09821976E-24    2          36        36   # BR(H -> A       A      )
     2.24655650E-11    2          23        36   # BR(H -> Z       A      )
     4.99243163E-12    2          24       -37   # BR(H -> W+      H-     )
     4.99243163E-12    2         -24        37   # BR(H -> W-      H+     )
     4.03073394E-06    2     1000022   1000022   # BR(H -> ~chi_10 ~chi_10)
#
#         PDG            Width
DECAY        36     3.80432867E+01   # A decays
#          BR         NDA      ID1       ID2
     1.45222283E-03    2           5        -5   # BR(A -> b       bb     )
     2.45147497E-04    2         -15        15   # BR(A -> tau+    tau-   )
     8.66684961E-07    2         -13        13   # BR(A -> mu+     mu-    )
     1.14255651E-06    2           3        -3   # BR(A -> s       sb     )
     1.00124247E-05    2           4        -4   # BR(A -> c       cb     )
     9.97071185E-01    2           6        -6   # BR(A -> t       tb     )
     9.42377504E-04    2          21        21   # BR(A -> g       g      )
     3.11013758E-06    2          22        22   # BR(A -> gam     gam    )
     1.34989997E-06    2          23        22   # BR(A -> Z       gam    )
     2.42240329E-04    2          23        25   # BR(A -> Z       h      )
     3.03447813E-05    2     1000022   1000022   # BR(A -> ~chi_10 ~chi_10)
#
#         PDG            Width
DECAY        37     3.72541893E+01   # H+ decays
#          BR         NDA      ID1       ID2
     2.31234568E-06    2           4        -5   # BR(H+ -> c       bb     )
     2.50520628E-04    2         -15        16   # BR(H+ -> tau+    nu_tau )
     8.85680916E-07    2         -13        14   # BR(H+ -> mu+     nu_mu  )
     1.46986161E-08    2           2        -5   # BR(H+ -> u       bb     )
     5.48486137E-08    2           2        -3   # BR(H+ -> u       sb     )
     1.09287941E-05    2           4        -3   # BR(H+ -> c       sb     )
     9.99487025E-01    2           6        -5   # BR(H+ -> t       bb     )
     2.48257841E-04    2          24        25   # BR(H+ -> W+      h      )
     2.20451478E-13    2          24        36   # BR(H+ -> W+      A      )
