#
#                              ======================
#                              | THE SUSYHIT OUTPUT |
#                              ======================
#
#
#              ------------------------------------------------------
#              |     This is the output of the SUSY-HIT package     |
#              |  created by A.Djouadi, M.Muehlleitner and M.Spira. |
#              |  In case of problems with SUSY-HIT email to        |
#              |           margarete.muehlleitner@cern.ch           |
#              |           michael.spira@psi.ch                     |
#              |           abdelhak.djouadi@cern.ch                 |
#              ------------------------------------------------------
#
#              ------------------------------------------------------
#              |  SUSY Les Houches Accord - MSSM Spectrum + Decays  |
#              |              based on the decay programs           |
#              |                                                    |
#              |                     SDECAY 1.3b                    |
#              |                                                    |
#              |  Authors: M.Muhlleitner, A.Djouadi and Y.Mambrini  |
#              |  Ref.:    Comput.Phys.Commun.168(2005)46           |
#              |           [hep-ph/0311167]                         |
#              |                                                    |
#              |                     HDECAY 3.4                     |
#              |                                                    |
#              |  By: A.Djouadi,J.Kalinowski,M.Muhlleitner,M.Spira  |
#              |  Ref.:    Comput.Phys.Commun.108(1998)56           |
#              |           [hep-ph/9704448]                         |
#              |                                                    |
#              |                                                    |
#              |  If not stated otherwise all DRbar couplings and   |
#              |  soft SUSY breaking masses are given at the scale  |
#              |  Q=  0.91187600E+02
#              |                                                    |
#              ------------------------------------------------------
#
#
BLOCK DCINFO  # Decay Program information
     1   SDECAY/HDECAY # decay calculator
     2   1.3b  /3.4    # version number
#
BLOCK SPINFO  # Spectrum calculator information
     1   SuSpect     # RGE +Spectrum calculator            
     2   2.41         # version number                     
#
BLOCK MODSEL  # Model selection
     1     0   # #general MSSM low scale                           
#
BLOCK SMINPUTS  # Standard Model inputs
         1     1.27934000E+02   # alpha_em^-1(M_Z)^MSbar
         2     1.16639000E-05   # G_F [GeV^-2]
         3     1.17200000E-01   # alpha_S(M_Z)^MSbar
         4     9.11870000E+01   # M_Z pole mass
         5     4.25000000E+00   # mb(mb)^MSbar
         6     1.72500000E+02   # mt pole mass
         7     1.77700000E+00   # mtau pole mass
#
BLOCK MINPAR  # Input parameters - minimal models
#
BLOCK EXTPAR  # Input parameters - non-minimal models
         0     9.11876000E+01   # EWSB                
         1     1.30000000E+03   # M_1                 
         2     1.00000000E+05   # M_2                 
         3     1.00000000E+05   # M_3                 
        11     0.00000000E+00   # A_t                 
        12     0.00000000E+00   # A_b                 
        13     0.00000000E+00   # A_tau               
        14     0.00000000E+00   # A_u                 
        15     0.00000000E+00   # A_d                 
        16     0.00000000E+00   # A_e                 
        23     3.50000000E+03   # mu(EWSB)            
        25     1.50000000E+00   # tanbeta(in)         
        26     2.00000000E+03   # MA_pole             
        31     1.00000000E+05   # M_eL                
        32     1.00000000E+05   # M_muL               
        33     1.00000000E+05   # M_tauL              
        34     1.00000000E+05   # M_eR                
        35     1.00000000E+05   # M_muR               
        36     1.00000000E+05   # M_tauR              
        41     1.50000000E+03   # M_q1L               
        42     1.50000000E+03   # M_q2L               
        43     1.50000000E+03   # M_q3L               
        44     1.00000000E+05   # M_uR                
        45     1.00000000E+05   # M_cR                
        46     1.00000000E+05   # M_tR                
        47     1.50000000E+03   # M_dR                
        48     1.50000000E+03   # M_sR                
        49     1.50000000E+03   # M_bR                
#
BLOCK MASS  # Mass Spectrum
# PDG code           mass       particle
        24     8.05826073E+01   # W+
        25     1.25000000E+02   # h
        35     2.00400608E+03   # H
        36     2.00000000E+03   # A
        37     2.02369528E+03   # H+
         5     4.87877839E+00   # b-quark pole mass calculated from mb(mb)_Msbar
   1000001     1.50044289E+03   # ~d_L
   2000001     1.50008531E+03   # ~d_R
   1000002     1.49964231E+03   # ~u_L
   2000002     9.99999974E+04   # ~u_R
   1000003     1.50044289E+03   # ~s_L
   2000003     1.50008531E+03   # ~s_R
   1000004     1.49964231E+03   # ~c_L
   2000004     9.99999974E+04   # ~c_R
   1000005     1.49573444E+03   # ~b_1
   2000005     1.50478458E+03   # ~b_2
   1000006     1.50687408E+03   # ~t_1
   2000006     1.00000106E+05   # ~t_2
   1000011     1.00000004E+05   # ~e_L
   2000011     1.00000004E+05   # ~e_R
   1000012     9.99999921E+04   # ~nu_eL
   1000013     1.00000004E+05   # ~mu_L
   2000013     1.00000004E+05   # ~mu_R
   1000014     9.99999921E+04   # ~nu_muL
   1000015     9.99999574E+04   # ~tau_1
   2000015     1.00000051E+05   # ~tau_2
   1000016     9.99999921E+04   # ~nu_tauL
   1000021     1.00000000E+05   # ~g
   1000022     1.29914385E+03   # ~chi_10
   1000023    -3.50001832E+03   # ~chi_20
   1000025     3.50080993E+03   # ~chi_30
   1000035     1.00000065E+05   # ~chi_40
   1000024     3.49994010E+03   # ~chi_1+
   1000037     1.00000065E+05   # ~chi_2+
   1000039     1.00000000E-09   # ~gravitino
#
BLOCK NMIX  # Neutralino Mixing Matrix
  1  1     9.99800248E-01   # N_11
  1  2    -1.53389387E-05   # N_12
  1  3     1.53643952E-02   # N_13
  1  4    -1.27827741E-02   # N_14
  2  1     1.82558060E-03   # N_21
  2  2    -1.49745640E-04   # N_22
  2  3    -7.07096343E-01   # N_23
  2  4    -7.07114846E-01   # N_24
  3  1     1.99030508E-02   # N_31
  3  2     8.02840416E-04   # N_32
  3  3    -7.06950128E-01   # N_33
  3  4     7.06982843E-01   # N_34
  4  1     3.69726404E-07   # N_41
  4  2    -9.99999666E-01   # N_42
  4  3    -4.61919368E-04   # N_43
  4  4     6.73678064E-04   # N_44
#
BLOCK UMIX  # Chargino Mixing Matrix U
  1  1    -6.53252427E-04   # U_11
  1  2     9.99999787E-01   # U_12
  2  1     9.99999787E-01   # U_21
  2  2     6.53252427E-04   # U_22
#
BLOCK VMIX  # Chargino Mixing Matrix V
  1  1    -9.52724565E-04   # V_11
  1  2     9.99999546E-01   # V_12
  2  1     9.99999546E-01   # V_21
  2  2     9.52724565E-04   # V_22
#
BLOCK STOPMIX  # Stop Mixing Matrix
  1  1     9.99999999E-01   # cos(theta_t)
  1  2     4.47213589E-05   # sin(theta_t)
  2  1    -4.47213589E-05   # -sin(theta_t)
  2  2     9.99999999E-01   # cos(theta_t)
#
BLOCK SBOTMIX  # Sbottom Mixing Matrix
  1  1     6.92996698E-01   # cos(theta_b)
  1  2     7.20940758E-01   # sin(theta_b)
  2  1    -7.20940758E-01   # -sin(theta_b)
  2  2     6.92996698E-01   # cos(theta_b)
#
BLOCK STAUMIX  # Stau Mixing Matrix
  1  1     7.06171367E-01   # cos(theta_tau)
  1  2     7.08040960E-01   # sin(theta_tau)
  2  1    -7.08040960E-01   # -sin(theta_tau)
  2  2     7.06171367E-01   # cos(theta_tau)
#
BLOCK ALPHA  # Higgs mixing
          -5.90293623E-01   # Mixing angle in the neutral Higgs boson sector
#
BLOCK HMIX Q=  9.11876000E+01  # DRbar Higgs Parameters
         1     3.50000000E+03   # mu(Q)               
         2     1.49999982E+00   # tanbeta(Q)          
         3     2.54878036E+02   # vev(Q)              
         4    -6.82697381E+07   # MA^2(Q)             
#
BLOCK GAUGE Q=  9.11876000E+01  # The gauge couplings
     1     3.50590912E-01   # gprime(Q) DRbar
     2     6.20085194E-01   # g(Q) DRbar
     3     1.02511120E+00   # g3(Q) DRbar
#
BLOCK AU Q=  9.11876000E+01  # The trilinear couplings
  1  1     0.00000000E+00   # A_u(Q) DRbar
  2  2     0.00000000E+00   # A_c(Q) DRbar
  3  3     0.00000000E+00   # A_t(Q) DRbar
#
BLOCK AD Q=  9.11876000E+01  # The trilinear couplings
  1  1     0.00000000E+00   # A_d(Q) DRbar
  2  2     0.00000000E+00   # A_s(Q) DRbar
  3  3     0.00000000E+00   # A_b(Q) DRbar
#
BLOCK AE Q=  9.11876000E+01  # The trilinear couplings
  1  1     0.00000000E+00   # A_e(Q) DRbar
  2  2     0.00000000E+00   # A_mu(Q) DRbar
  3  3     0.00000000E+00   # A_tau(Q) DRbar
#
BLOCK Yu Q=  9.11876000E+01  # The Yukawa couplings
  1  1     0.00000000E+00   # y_u(Q) DRbar
  2  2     0.00000000E+00   # y_c(Q) DRbar
  3  3     9.83570063E-01   # y_t(Q) DRbar
#
BLOCK Yd Q=  9.11876000E+01  # The Yukawa couplings
  1  1     0.00000000E+00   # y_d(Q) DRbar
  2  2     0.00000000E+00   # y_s(Q) DRbar
  3  3     2.58492216E-02   # y_b(Q) DRbar
#
BLOCK Ye Q=  9.11876000E+01  # The Yukawa couplings
  1  1     0.00000000E+00   # y_e(Q) DRbar
  2  2     0.00000000E+00   # y_mu(Q) DRbar
  3  3     1.77390635E-02   # y_tau(Q) DRbar
#
BLOCK MSOFT Q=  9.11876000E+01  # The soft SUSY breaking masses at the scale Q
         1     1.30000000E+03   # M_1                 
         2     1.00000000E+05   # M_2                 
         3     1.00000000E+05   # M_3                 
        14     0.00000000E+00   # A_u                 
        15     0.00000000E+00   # A_d                 
        16     0.00000000E+00   # A_e                 
        21     6.32064967E+08   # M^2_Hd              
        22    -1.14821980E+09   # M^2_Hu              
        31     1.00000000E+05   # M_eL                
        32     1.00000000E+05   # M_muL               
        33     1.00000000E+05   # M_tauL              
        34     1.00000000E+05   # M_eR                
        35     1.00000000E+05   # M_muR               
        36     1.00000000E+05   # M_tauR              
        41     1.50000000E+03   # M_q1L               
        42     1.50000000E+03   # M_q2L               
        43     1.50000000E+03   # M_q3L               
        44     1.00000000E+05   # M_uR                
        45     1.00000000E+05   # M_cR                
        46     1.00000000E+05   # M_tR                
        47     1.50000000E+03   # M_dR                
        48     1.50000000E+03   # M_sR                
        49     1.50000000E+03   # M_bR                
#
#
#
#                             =================
#                             |The decay table|
#                             =================
#
# - The QCD corrections to the decays gluino -> squark  + quark
#                                     squark -> gaugino + quark_prime
#                                     squark -> squark_prime + Higgs
#                                     squark -> gluino  + quark
#   are included.
#
# - The multi-body decays for the inos, stops and sbottoms are included.
#
# - The loop induced decays for the gluino, neutralinos and stops
#   are included.
#
# - The SUSY decays of the top quark are included.
#
# - Possible decays of the NLSP in GMSB models are included.
#
#
#         PDG            Width
DECAY         6     1.32712440E+00   # top decays
#          BR         NDA      ID1       ID2
     1.00000000E+00    2           5        24   # BR(t ->  b    W+)
#
#         PDG            Width
DECAY   1000021     1.E-04   # gluino decays (OJ Mods)
#          BR         NDA      ID1       ID2
     6.15885279E-04    2     1000001        -1   # BR(~g -> ~d_L  db)
     6.15885279E-04    2    -1000001         1   # BR(~g -> ~d_L* d )
     6.15885411E-04    2     2000001        -1   # BR(~g -> ~d_R  db)
     6.15885411E-04    2    -2000001         1   # BR(~g -> ~d_R* d )
     6.15885575E-04    2     1000002        -2   # BR(~g -> ~u_L  ub)
     6.15885575E-04    2    -1000002         2   # BR(~g -> ~u_L* u )
     1.66610386E-18    2     2000002        -2   # BR(~g -> ~u_R  ub)
     1.66610386E-18    2    -2000002         2   # BR(~g -> ~u_R* u )
     6.15885279E-04    2     1000003        -3   # BR(~g -> ~s_L  sb)
     6.15885279E-04    2    -1000003         3   # BR(~g -> ~s_L* s )
     6.15885411E-04    2     2000003        -3   # BR(~g -> ~s_R  sb)
     6.15885411E-04    2    -2000003         3   # BR(~g -> ~s_R* s )
     6.15885575E-04    2     1000004        -4   # BR(~g -> ~c_L  cb)
     6.15885575E-04    2    -1000004         4   # BR(~g -> ~c_L* c )
     1.66610386E-18    2     2000004        -4   # BR(~g -> ~c_R  cb)
     1.66610386E-18    2    -2000004         4   # BR(~g -> ~c_R* c )
     2.43666760E-01    2     1000005        -5   # BR(~g -> ~b_1  bb)
     2.43666760E-01    2    -1000005         5   # BR(~g -> ~b_1* b )
     2.43404026E-01    2     2000005        -5   # BR(~g -> ~b_2  bb)
     2.43404026E-01    2    -2000005         5   # BR(~g -> ~b_2* b )
     6.06114381E-04    2     1000006        -6   # BR(~g -> ~t_1  tb)
     6.06114381E-04    2    -1000006         6   # BR(~g -> ~t_1* t )
     1.72555727E-02    2     1000039        21   # BR(~g -> ~G g)
#
#         PDG            Width
DECAY   1000006     1.06989818E-02   # stop1 decays
#          BR         NDA      ID1       ID2
     1.00000000E+00    2     1000022         6   # BR(~t_1 -> ~chi_10 t )
#
#         PDG            Width
DECAY   2000006     2.95226438E+05   # stop2 decays
#          BR         NDA      ID1       ID2
     7.06259470E-04    2     1000022         6   # BR(~t_2 -> ~chi_10 t )
     1.69096482E-03    2     1000023         6   # BR(~t_2 -> ~chi_20 t )
     1.69057515E-03    2     1000025         6   # BR(~t_2 -> ~chi_30 t )
     9.95970702E-01    2     1000024         5   # BR(~t_2 -> ~chi_1+ b )
    -4.61194108E-05    2     1000006        25   # BR(~t_2 -> ~t_1    h )
     4.82905530E-05    2     1000006        35   # BR(~t_2 -> ~t_1    H )
     4.82062649E-05    2     1000006        36   # BR(~t_2 -> ~t_1    A )
     4.54072927E-05    2     1000005        37   # BR(~t_2 -> ~b_1    H+)
     5.10045817E-05    2     2000005        37   # BR(~t_2 -> ~b_2    H+)
    -3.29360111E-05    2     1000006        23   # BR(~t_2 -> ~t_1    Z )
    -8.27744701E-05    2     1000005        24   # BR(~t_2 -> ~b_1    W+)
    -8.95807006E-05    2     2000005        24   # BR(~t_2 -> ~b_2    W+)
#
#         PDG            Width
DECAY   1000005     4.90019120E+00   # sbottom1 decays
#          BR         NDA      ID1       ID2
     1.00000000E+00    2     1000022         5   # BR(~b_1 -> ~chi_10 b )
#
#         PDG            Width
DECAY   2000005     5.14810753E+00   # sbottom2 decays
#          BR         NDA      ID1       ID2
     1.00000000E+00    2     1000022         5   # BR(~b_2 -> ~chi_10 b )
#
#         PDG            Width
DECAY   1000002     1.85137902E-02   # sup_L decays
#          BR         NDA      ID1       ID2
     1.00000000E+00    2     1000022         2   # BR(~u_L -> ~chi_10 u)
#
#         PDG            Width
DECAY   2000002     2.08389280E+02   # sup_R decays
#          BR         NDA      ID1       ID2
     9.99600982E-01    2     1000022         2   # BR(~u_R -> ~chi_10 u)
     3.32902493E-06    2     1000023         2   # BR(~u_R -> ~chi_20 u)
     3.95689041E-04    2     1000025         2   # BR(~u_R -> ~chi_30 u)
#
#         PDG            Width
DECAY   1000001     1.86353918E-02   # sdown_L decays
#          BR         NDA      ID1       ID2
     1.00000000E+00    2     1000022         1   # BR(~d_L -> ~chi_10 d)
#
#         PDG            Width
DECAY   2000001     7.43228691E-02   # sdown_R decays
#          BR         NDA      ID1       ID2
     1.00000000E+00    2     1000022         1   # BR(~d_R -> ~chi_10 d)
#
#         PDG            Width
DECAY   1000004     1.85137902E-02   # scharm_L decays
#          BR         NDA      ID1       ID2
     1.00000000E+00    2     1000022         4   # BR(~c_L -> ~chi_10 c)
#
#         PDG            Width
DECAY   2000004     2.08389280E+02   # scharm_R decays
#          BR         NDA      ID1       ID2
     9.99600982E-01    2     1000022         4   # BR(~c_R -> ~chi_10 c)
     3.32902493E-06    2     1000023         4   # BR(~c_R -> ~chi_20 c)
     3.95689041E-04    2     1000025         4   # BR(~c_R -> ~chi_30 c)
#
#         PDG            Width
DECAY   1000003     1.86353918E-02   # sstrange_L decays
#          BR         NDA      ID1       ID2
     1.00000000E+00    2     1000022         3   # BR(~s_L -> ~chi_10 s)
#
#         PDG            Width
DECAY   2000003     7.43228691E-02   # sstrange_R decays
#          BR         NDA      ID1       ID2
     1.00000000E+00    2     1000022         3   # BR(~s_R -> ~chi_10 s)
#
#         PDG            Width
DECAY   1000011     1.22224164E+02   # selectron_L decays
#          BR         NDA      ID1       ID2
     9.99541197E-01    2     1000022        11   # BR(~e_L -> ~chi_10 e-)
     2.43071441E-06    2     1000023        11   # BR(~e_L -> ~chi_20 e-)
     4.53708374E-04    2     1000025        11   # BR(~e_L -> ~chi_30 e-)
     2.66423933E-06    2    -1000024        12   # BR(~e_L -> ~chi_1- nu_e)
#
#         PDG            Width
DECAY   2000011     4.88893754E+02   # selectron_R decays
#          BR         NDA      ID1       ID2
     9.99601379E-01    2     1000022        11   # BR(~e_R -> ~chi_10 e-)
     3.32570954E-06    2     1000023        11   # BR(~e_R -> ~chi_20 e-)
     3.95294811E-04    2     1000025        11   # BR(~e_R -> ~chi_30 e-)
#
#         PDG            Width
DECAY   1000013     1.22224164E+02   # smuon_L decays
#          BR         NDA      ID1       ID2
     9.99541197E-01    2     1000022        13   # BR(~mu_L -> ~chi_10 mu-)
     2.43071441E-06    2     1000023        13   # BR(~mu_L -> ~chi_20 mu-)
     4.53708374E-04    2     1000025        13   # BR(~mu_L -> ~chi_30 mu-)
     2.66423933E-06    2    -1000024        14   # BR(~mu_L -> ~chi_1- nu_mu)
#
#         PDG            Width
DECAY   2000013     4.88893754E+02   # smuon_R decays
#          BR         NDA      ID1       ID2
     9.99601379E-01    2     1000022        13   # BR(~mu_R -> ~chi_10 mu-)
     3.32570954E-06    2     1000023        13   # BR(~mu_R -> ~chi_20 mu-)
     3.95294811E-04    2     1000025        13   # BR(~mu_R -> ~chi_30 mu-)
#
#         PDG            Width
DECAY   1000015     1.18199228E+04   # stau_1 decays
#          BR         NDA      ID1       ID2
     2.58929358E-02    2     1000022        15   # BR(~tau_1 -> ~chi_10  tau-)
     2.54062651E-05    2     1000023        15   # BR(~tau_1 -> ~chi_20  tau-)
     2.72936310E-05    2     1000025        15   # BR(~tau_1 -> ~chi_30  tau-)
     2.77069442E-05    2    -1000024        16   # BR(~tau_1 -> ~chi_1-  nu_tau)
     9.74026657E-01    2     1000039        15   # BR(~tau_1 -> ~G       tau-)
#
#         PDG            Width
DECAY   2000015     3.05988490E+02   # stau_2 decays
#          BR         NDA      ID1       ID2
     9.96164112E-01    2     1000022        15   # BR(~tau_2 -> ~chi_10  tau-)
     1.06571468E-03    2     1000023        15   # BR(~tau_2 -> ~chi_20  tau-)
     1.79849142E-03    2     1000025        15   # BR(~tau_2 -> ~chi_30  tau-)
     9.71681801E-04    2    -1000024        16   # BR(~tau_2 -> ~chi_1-  nu_tau)
#
#         PDG            Width
DECAY   1000012     1.22224226E+02   # snu_eL decays
#          BR         NDA      ID1       ID2
     9.99649072E-01    2     1000022        12   # BR(~nu_eL -> ~chi_10 nu_e)
     4.36065971E-06    2     1000023        12   # BR(~nu_eL -> ~chi_20 nu_e)
     3.40900445E-04    2     1000025        12   # BR(~nu_eL -> ~chi_30 nu_e)
     5.66690103E-06    2     1000024        11   # BR(~nu_eL -> ~chi_1+ e-)
#
#         PDG            Width
DECAY   1000014     1.22224226E+02   # snu_muL decays
#          BR         NDA      ID1       ID2
     9.99649072E-01    2     1000022        14   # BR(~nu_muL -> ~chi_10 nu_mu)
     4.36065971E-06    2     1000023        14   # BR(~nu_muL -> ~chi_20 nu_mu)
     3.40900445E-04    2     1000025        14   # BR(~nu_muL -> ~chi_30 nu_mu)
     5.66690103E-06    2     1000024        13   # BR(~nu_muL -> ~chi_1+ mu-)
#
#         PDG            Width
DECAY   1000016     1.22848717E+02   # snu_tauL decays
#          BR         NDA      ID1       ID2
     9.94567436E-01    2     1000022        16   # BR(~nu_tauL -> ~chi_10 nu_tau)
     4.33849265E-06    2     1000023        16   # BR(~nu_tauL -> ~chi_20 nu_tau)
     3.39167505E-04    2     1000025        16   # BR(~nu_tauL -> ~chi_30 nu_tau)
     5.08905820E-03    2     1000024        15   # BR(~nu_tauL -> ~chi_1+ tau-)
#
#         PDG            Width
DECAY   1000024     6.69549078E+01   # chargino1+ decays
#          BR         NDA      ID1       ID2
     4.29168072E-07    2     1000002        -1   # BR(~chi_1+ -> ~u_L     db)
     2.01677375E-07    2    -1000001         2   # BR(~chi_1+ -> ~d_L*    u )
     4.29168072E-07    2     1000004        -3   # BR(~chi_1+ -> ~c_L     sb)
     2.01677375E-07    2    -1000003         4   # BR(~chi_1+ -> ~s_L*    c )
     1.09703559E-01    2     1000006        -5   # BR(~chi_1+ -> ~t_1     bb)
     7.66766579E-02    2    -1000005         6   # BR(~chi_1+ -> ~b_1*    t )
     7.64243107E-01    2    -2000005         6   # BR(~chi_1+ -> ~b_2*    t )
     4.82100668E-02    2     1000022        24   # BR(~chi_1+ -> ~chi_10  W+)
     1.15995490E-03    2     1000022        37   # BR(~chi_1+ -> ~chi_10  H+)
     4.50597885E-06    2     1000039        24   # BR(~chi_1+ -> ~G       W+)
     8.86590607E-07    2     1000039        37   # BR(~chi_1+ -> ~G       H+)
#
#         PDG            Width
DECAY   1000037     1.83537991E+05   # chargino2+ decays
#          BR         NDA      ID1       ID2
     5.63971649E-03    2     1000002        -1   # BR(~chi_2+ -> ~u_L     db)
     5.63971828E-03    2    -1000001         2   # BR(~chi_2+ -> ~d_L*    u )
     5.63971649E-03    2     1000004        -3   # BR(~chi_2+ -> ~c_L     sb)
     5.63971828E-03    2    -1000003         4   # BR(~chi_2+ -> ~s_L*    c )
     9.04074737E-01    2     1000006        -5   # BR(~chi_2+ -> ~t_1     bb)
     1.22877238E-03    2    -1000005         6   # BR(~chi_2+ -> ~b_1*    t )
     5.36109640E-03    2    -2000005         6   # BR(~chi_2+ -> ~b_2*    t )
     4.16839505E-15    2     1000012       -11   # BR(~chi_2+ -> ~nu_eL   e+  )
     4.16839505E-15    2     1000014       -13   # BR(~chi_2+ -> ~nu_muL  mu+ )
     2.91859441E-15    2    -1000011        12   # BR(~chi_2+ -> ~e_L+    nu_e)
     2.91859441E-15    2    -1000013        14   # BR(~chi_2+ -> ~mu_L+   nu_mu)
     4.52837464E-15    2    -1000015        16   # BR(~chi_2+ -> ~tau_1+  nu_tau)
     7.70731846E-17    2    -2000015        16   # BR(~chi_2+ -> ~tau_2+  nu_tau)
     1.03440467E-03    2     1000024        23   # BR(~chi_2+ -> ~chi_1+  Z )
     3.41623150E-07    2     1000022        24   # BR(~chi_2+ -> ~chi_10  W+)
     1.00371824E-03    2     1000023        24   # BR(~chi_2+ -> ~chi_20  W+)
     1.00336588E-03    2     1000025        24   # BR(~chi_2+ -> ~chi_30  W+)
     1.04383548E-03    2     1000024        25   # BR(~chi_2+ -> ~chi_1+  h )
     9.16291293E-04    2     1000024        35   # BR(~chi_2+ -> ~chi_1+  H )
     9.16412341E-04    2     1000024        36   # BR(~chi_2+ -> ~chi_1+  A )
     3.93335700E-07    2     1000022        37   # BR(~chi_2+ -> ~chi_10  H+)
     9.16381924E-04    2     1000023        37   # BR(~chi_2+ -> ~chi_20  H+)
     9.16015648E-04    2     1000025        37   # BR(~chi_2+ -> ~chi_30  H+)
     5.90253475E-02    2     1000039        24   # BR(~chi_2+ -> ~G       W+)
     1.69338602E-08    2     1000039        37   # BR(~chi_2+ -> ~G       H+)
#
#         PDG            Width
DECAY   1000022     1.E-08   # neutralino1 decays (OJ Mods)
#          BR         NDA      ID1       ID2
     7.61222047E-01    2     1000039        22   # BR(~chi_10 -> ~G        gam)
     2.38775883E-01    2     1000039        23   # BR(~chi_10 -> ~G        Z)
     2.06995692E-06    2     1000039        25   # BR(~chi_10 -> ~G        h)
#
#         PDG            Width
DECAY   1000023     1.E-08   # neutralino2 decays (OJ Mods)
#          BR         NDA      ID1       ID2
     4.44914005E-02    2     1000022        23   # BR(~chi_20 -> ~chi_10   Z )
     3.68080675E-04    2     1000022        25   # BR(~chi_20 -> ~chi_10   h )
     6.07844362E-04    2     1000022        35   # BR(~chi_20 -> ~chi_10   H )
     5.63809811E-04    2     1000022        36   # BR(~chi_20 -> ~chi_10   A )
     9.30946259E-09    2     1000002        -2   # BR(~chi_20 -> ~u_L      ub)
     9.30946259E-09    2    -1000002         2   # BR(~chi_20 -> ~u_L*     u )
     6.00964050E-08    2     1000001        -1   # BR(~chi_20 -> ~d_L      db)
     6.00964050E-08    2    -1000001         1   # BR(~chi_20 -> ~d_L*     d )
     1.16720270E-07    2     2000001        -1   # BR(~chi_20 -> ~d_R      db)
     1.16720270E-07    2    -2000001         1   # BR(~chi_20 -> ~d_R*     d )
     9.30946259E-09    2     1000004        -4   # BR(~chi_20 -> ~c_L      cb)
     9.30946259E-09    2    -1000004         4   # BR(~chi_20 -> ~c_L*     c )
     6.00964050E-08    2     1000003        -3   # BR(~chi_20 -> ~s_L      sb)
     6.00964050E-08    2    -1000003         3   # BR(~chi_20 -> ~s_L*     s )
     1.16720270E-07    2     2000003        -3   # BR(~chi_20 -> ~s_R      sb)
     1.16720270E-07    2    -2000003         3   # BR(~chi_20 -> ~s_R*     s )
     3.79099994E-01    2     1000006        -6   # BR(~chi_20 -> ~t_1      tb)
     3.79099994E-01    2    -1000006         6   # BR(~chi_20 -> ~t_1*     t )
     4.74846427E-02    2     1000005        -5   # BR(~chi_20 -> ~b_1      bb)
     4.74846427E-02    2    -1000005         5   # BR(~chi_20 -> ~b_1*     b )
     5.03970225E-02    2     2000005        -5   # BR(~chi_20 -> ~b_2      bb)
     5.03970225E-02    2    -2000005         5   # BR(~chi_20 -> ~b_2*     b )
     1.87374084E-11    2     1000039        22   # BR(~chi_20 -> ~G        gam)
     1.56500136E-07    2     1000039        23   # BR(~chi_20 -> ~G        Z)
     3.90602021E-06    2     1000039        25   # BR(~chi_20 -> ~G        h)
     3.12929305E-08    2     1000039        35   # BR(~chi_20 -> ~G        H)
     8.06922439E-07    2     1000039        36   # BR(~chi_20 -> ~G        A)
#
#         PDG            Width
DECAY   1000025     7.44286134E+01   # neutralino3 decays
#          BR         NDA      ID1       ID2
     3.74224666E-04    2     1000022        23   # BR(~chi_30 -> ~chi_10   Z )
     4.46759136E-02    2     1000022        25   # BR(~chi_30 -> ~chi_10   h )
     5.43202886E-04    2     1000022        35   # BR(~chi_30 -> ~chi_10   H )
     6.25530643E-04    2     1000022        36   # BR(~chi_30 -> ~chi_10   A )
     5.09375401E-06    2     1000002        -2   # BR(~chi_30 -> ~u_L      ub)
     5.09375401E-06    2    -1000002         2   # BR(~chi_30 -> ~u_L*     u )
     2.13400558E-06    2     1000001        -1   # BR(~chi_30 -> ~d_L      db)
     2.13400558E-06    2    -1000001         1   # BR(~chi_30 -> ~d_L*     d )
     1.38207605E-05    2     2000001        -1   # BR(~chi_30 -> ~d_R      db)
     1.38207605E-05    2    -2000001         1   # BR(~chi_30 -> ~d_R*     d )
     5.09375401E-06    2     1000004        -4   # BR(~chi_30 -> ~c_L      cb)
     5.09375401E-06    2    -1000004         4   # BR(~chi_30 -> ~c_L*     c )
     2.13400558E-06    2     1000003        -3   # BR(~chi_30 -> ~s_L      sb)
     2.13400558E-06    2    -1000003         3   # BR(~chi_30 -> ~s_L*     s )
     1.38207605E-05    2     2000003        -3   # BR(~chi_30 -> ~s_R      sb)
     1.38207605E-05    2    -2000003         3   # BR(~chi_30 -> ~s_R*     s )
     3.77700277E-01    2     1000006        -6   # BR(~chi_30 -> ~t_1      tb)
     3.77700277E-01    2    -1000006         6   # BR(~chi_30 -> ~t_1*     t )
     3.75672504E-02    2     1000005        -5   # BR(~chi_30 -> ~b_1      bb)
     3.75672504E-02    2    -1000005         5   # BR(~chi_30 -> ~b_1*     b )
     6.15841296E-02    2     2000005        -5   # BR(~chi_30 -> ~b_2      bb)
     6.15841296E-02    2    -2000005         5   # BR(~chi_30 -> ~b_2*     b )
     2.55416379E-09    2     1000039        22   # BR(~chi_30 -> ~G        gam)
     3.89898099E-06    2     1000039        23   # BR(~chi_30 -> ~G        Z)
     1.52050321E-07    2     1000039        25   # BR(~chi_30 -> ~G        h)
     7.99328909E-07    2     1000039        35   # BR(~chi_30 -> ~G        H)
     3.21863453E-08    2     1000039        36   # BR(~chi_30 -> ~G        A)
#
#         PDG            Width
DECAY   1000035     1.83538758E+05   # neutralino4 decays
#          BR         NDA      ID1       ID2
     3.56666746E-09    2     1000022        23   # BR(~chi_40 -> ~chi_10   Z )
     9.99643203E-04    2     1000023        23   # BR(~chi_40 -> ~chi_20   Z )
     3.47546488E-05    2     1000025        23   # BR(~chi_40 -> ~chi_30   Z )
     1.00370801E-03    2     1000024       -24   # BR(~chi_40 -> ~chi_1+   W-)
     1.00370801E-03    2    -1000024        24   # BR(~chi_40 -> ~chi_1-   W+)
     3.52126861E-07    2     1000022        25   # BR(~chi_40 -> ~chi_10   h )
     3.20231158E-08    2     1000022        35   # BR(~chi_40 -> ~chi_10   H )
     3.60829729E-07    2     1000022        36   # BR(~chi_40 -> ~chi_10   A )
     3.42777965E-05    2     1000023        25   # BR(~chi_40 -> ~chi_20   h )
     8.76882870E-04    2     1000023        35   # BR(~chi_40 -> ~chi_20   H )
     4.03094885E-05    2     1000023        36   # BR(~chi_40 -> ~chi_20   A )
     1.00920252E-03    2     1000025        25   # BR(~chi_40 -> ~chi_30   h )
     3.93716628E-05    2     1000025        35   # BR(~chi_40 -> ~chi_30   H )
     8.75738402E-04    2     1000025        36   # BR(~chi_40 -> ~chi_30   A )
     9.16392419E-04    2     1000024       -37   # BR(~chi_40 -> ~chi_1+   H-)
     9.16392419E-04    2    -1000024        37   # BR(~chi_40 -> ~chi_1-   H+)
     2.69968399E-03    2     1000002        -2   # BR(~chi_40 -> ~u_L      ub)
     2.69968399E-03    2    -1000002         2   # BR(~chi_40 -> ~u_L*     u )
     4.38579056E-23    2     2000002        -2   # BR(~chi_40 -> ~u_R      ub)
     4.38579056E-23    2    -2000002         2   # BR(~chi_40 -> ~u_R*     u )
     2.69968523E-03    2     1000001        -1   # BR(~chi_40 -> ~d_L      db)
     2.69968523E-03    2    -1000001         1   # BR(~chi_40 -> ~d_L*     d )
     5.24312637E-17    2     2000001        -1   # BR(~chi_40 -> ~d_R      db)
     5.24312637E-17    2    -2000001         1   # BR(~chi_40 -> ~d_R*     d )
     2.69968399E-03    2     1000004        -4   # BR(~chi_40 -> ~c_L      cb)
     2.69968399E-03    2    -1000004         4   # BR(~chi_40 -> ~c_L*     c )
     4.38579056E-23    2     2000004        -4   # BR(~chi_40 -> ~c_R      cb)
     4.38579056E-23    2    -2000004         4   # BR(~chi_40 -> ~c_R*     c )
     2.69968523E-03    2     1000003        -3   # BR(~chi_40 -> ~s_L      sb)
     2.69968523E-03    2    -1000003         3   # BR(~chi_40 -> ~s_L*     s )
     5.24312637E-17    2     2000003        -3   # BR(~chi_40 -> ~s_R      sb)
     5.24312637E-17    2    -2000003         3   # BR(~chi_40 -> ~s_R*     s )
     3.29491025E-03    2     1000006        -6   # BR(~chi_40 -> ~t_1      tb)
     3.29491025E-03    2    -1000006         6   # BR(~chi_40 -> ~t_1*     t )
     2.16108928E-01    2     1000005        -5   # BR(~chi_40 -> ~b_1      bb)
     2.16108928E-01    2    -1000005         5   # BR(~chi_40 -> ~b_1*     b )
     2.35928641E-01    2     2000005        -5   # BR(~chi_40 -> ~b_2      bb)
     2.35928641E-01    2    -2000005         5   # BR(~chi_40 -> ~b_2*     b )
     1.45929050E-15    2     1000011       -11   # BR(~chi_40 -> ~e_L-     e+)
     1.45929050E-15    2    -1000011        11   # BR(~chi_40 -> ~e_L+     e-)
     2.55071383E-28    2     2000011       -11   # BR(~chi_40 -> ~e_R-     e+)
     2.55071383E-28    2    -2000011        11   # BR(~chi_40 -> ~e_R+     e-)
     1.45929050E-15    2     1000013       -13   # BR(~chi_40 -> ~mu_L-    mu+)
     1.45929050E-15    2    -1000013        13   # BR(~chi_40 -> ~mu_L+    mu-)
     2.55071383E-28    2     2000013       -13   # BR(~chi_40 -> ~mu_R-    mu+)
     2.55071383E-28    2    -2000013        13   # BR(~chi_40 -> ~mu_R+    mu-)
     2.08419070E-15    2     1000012       -12   # BR(~chi_40 -> ~nu_eL    nu_eb)
     2.08419070E-15    2    -1000012        12   # BR(~chi_40 -> ~nu_eL*   nu_e )
     2.08419070E-15    2     1000014       -14   # BR(~chi_40 -> ~nu_muL   nu_mub)
     2.08419070E-15    2    -1000014        14   # BR(~chi_40 -> ~nu_muL*  nu_mu )
     2.08419070E-15    2     1000016       -16   # BR(~chi_40 -> ~nu_tau1  nu_taub)
     2.08419070E-15    2    -1000016        16   # BR(~chi_40 -> ~nu_tau1* nu_tau )
     1.42978664E-02    2     1000039        22   # BR(~chi_40 -> ~G        gam)
     4.47272448E-02    2     1000039        23   # BR(~chi_40 -> ~G        Z)
     2.70182073E-09    2     1000039        25   # BR(~chi_40 -> ~G        h)
     1.69620636E-08    2     1000039        35   # BR(~chi_40 -> ~G        H)
     3.34251336E-12    2     1000039        36   # BR(~chi_40 -> ~G        A)
#
#
#
#
