# SUSY Les Houches Accord 2 - MSSM spectrum + Decays
# SPheno v3.1.12 
# W. Porod, Comput. Phys. Commun. 153 (2003) 275-315, hep-ph/0301101
# in case of problems send email to porod@physik.uni-wuerzburg.de
# Created: 12.11.2012,  11:43
Block SPINFO         # Program information
     1   SPheno      # spectrum calculator
     2   v3.1.12     # version number
#
Block SPhenoINFO     # SPheno specific information
    1      2         # using 2-loop RGEs
    2      1         # using running masses for boundary conditions at mZ
Block MODSEL  # Model selection
    1    2    # mGMSB model
Block MINPAR  # Input parameters
    1    8.00000000E+04  # Lambda, scale of SUSY breaking
    2    2.50000000E+05  # M_M, messenger mass scale
    3    4.00000000E+01  # tanb at m_Z   
    4    1.00000000E+00  # Sign(mu)
    5    3.00000000E+00  # N_5 number of effective five-plets
    6    1.00000000E+00  # c_grav, Gravitino mass factor
Block gauge Q=  2.50000000E+05  # (GMSB scale)
   1    4.94112483E-01  # g'(Q)^DRbar
   2    6.50880634E-01  # g(Q)^DRbar
   3    9.45093169E-01  # g3(Q)^DRbar
Block SMINPUTS  # SM parameters
         1     1.27932519E+02  # alpha_em^-1(MZ)^MSbar
         2     1.16639000E-05  # G_mu [GeV^-2]
         3     1.17200000E-01  # alpha_s(MZ)^MSbar
         4     9.11876000E+01  # m_Z(pole)
         5     4.20000000E+00  # m_b(m_b), MSbar
         6     1.72500000E+02  # m_t(pole)
         7     1.77700000E+00  # m_tau(pole)
         8     0.00000000E+00  # m_nu_3
        11     5.10998910E-04  # m_e(pole)
        12     0.00000000E+00  # m_nu_1
        13     1.05658000E-01  # m_muon(pole)
        14     0.00000000E+00  # m_nu_2
        21     5.00000000E-03  # m_d(2 GeV), MSbar
        22     3.00000000E-03  # m_u(2 GeV), MSbar
        23     1.05000000E-01  # m_s(2 GeV), MSbar
        24     1.27000000E+00  # m_c(m_c), MSbar
Block gauge Q=  1.55377048E+03  # (SUSY scale)
   1    3.64043639E-01  # g'(Q)^DRbar
   2    6.40643719E-01  # g(Q)^DRbar
   3    1.03561041E+00  # g3(Q)^DRbar
Block Yu Q=  1.55377048E+03  # (SUSY scale)
  1  1     8.47108395E-06   # Y_u(Q)^DRbar
  2  2     3.58609374E-03   # Y_c(Q)^DRbar
  3  3     8.50012926E-01   # Y_t(Q)^DRbar
Block Yd Q=  1.55377048E+03  # (SUSY scale)
  1  1     4.81939633E-04   # Y_d(Q)^DRbar
  2  2     1.01207270E-02   # Y_s(Q)^DRbar
  3  3     4.87313399E-01   # Y_b(Q)^DRbar
Block Ye Q=  1.55377048E+03  # (SUSY scale)
  1  1     1.23092277E-04   # Y_e(Q)^DRbar
  2  2     2.54516993E-02   # Y_mu(Q)^DRbar
  3  3     4.28900288E-01   # Y_tau(Q)^DRbar
Block Au Q=  1.55377048E+03  # (SUSY scale)
  1  1    -5.22681732E+02   # A_u(Q)^DRbar
  2  2    -5.22679660E+02   # A_c(Q)^DRbar
  3  3    -4.87906652E+02   # A_t(Q)^DRbar
Block Ad Q=  1.55377048E+03  # (SUSY scale)
  1  1    -5.46466485E+02   # A_d(Q)^DRbar
  2  2    -5.46461701E+02   # A_s(Q)^DRbar
  3  3    -5.25661092E+02   # A_b(Q)^DRbar
Block Ae Q=  1.55377048E+03  # (SUSY scale)
  1  1    -4.72341878E+01   # A_e(Q)^DRbar
  2  2    -4.72306781E+01   # A_mu(Q)^DRbar
  3  3    -4.62403209E+01   # A_tau(Q)^DRbar
Block MSOFT Q=  1.55377048E+03  # soft SUSY breaking masses at Q
   1    3.39236990E+02  # M_1
   2    6.28025657E+02  # M_2
   3    1.64922485E+03  # M_3
  21    6.62277848E+04  # M^2_(H,d)
  22   -2.92536024E+05  # M^2_(H,u)
  31    5.03351409E+02  # M_(L,11)
  32    5.03334039E+02  # M_(L,22)
  33    4.98419367E+02  # M_(L,33)
  34    2.42407508E+02  # M_(E,11)
  35    2.42333948E+02  # M_(E,22)
  36    2.20587533E+02  # M_(E,33)
  41    1.62290689E+03  # M_(Q,11)
  42    1.62289842E+03  # M_(Q,22)
  43    1.55286512E+03  # M_(Q,33)
  44    1.55851332E+03  # M_(U,11)
  45    1.55851137E+03  # M_(U,22)
  46    1.44637835E+03  # M_(U,33)
  47    1.55235954E+03  # M_(D,11)
  48    1.55234363E+03  # M_(D,22)
  49    1.51540245E+03  # M_(D,33)
Block MASS  # Mass spectrum
#   PDG code      mass          particle
         6     1.72500000E+02  # m_t(pole)
        23     9.11876000E+01  # m_Z(pole)
        24     8.03106605E+01  # W+
        15     1.77700000E+00  # m_tau(pole)
        25     1.17063536E+02  # h0
        35     6.21955127E+02  # H0
        36     6.21891141E+02  # A0
        37     6.27779232E+02  # H+
   1000001     1.69075831E+03  # ~d_L
   2000001     1.61696840E+03  # ~d_R
   1000002     1.68893368E+03  # ~u_L
   2000002     1.62226835E+03  # ~u_R
   1000003     1.69074946E+03  # ~s_L
   2000003     1.61694787E+03  # ~s_R
   1000004     1.68892378E+03  # ~c_L
   2000004     1.62226595E+03  # ~c_R
   1000005     1.56600658E+03  # ~b_1
   2000005     1.61289640E+03  # ~b_2
   1000006     1.49128274E+03  # ~t_1
   2000006     1.61887683E+03  # ~t_2
   1000011     5.15286447E+02  # ~e_L-
   2000011     2.54459931E+02  # ~e_R-
   1000012     5.08718846E+02  # ~nu_eL
   1000013     5.15295368E+02  # ~mu_L-
   2000013     2.54303971E+02  # ~mu_R-
   1000014     5.08694139E+02  # ~nu_muL
   1000015     2.07590651E+02  # ~tau_1-
   2000015     5.17210662E+02  # ~tau_2-
   1000016     5.01815529E+02  # ~nu_tauL
   1000021     1.74197363E+03  # ~g
   1000022     3.28746196E+02  # ~chi_10
   1000023     5.55957056E+02  # ~chi_20
   1000025    -5.91921559E+02  # ~chi_30
   1000035     6.79810092E+02  # ~chi_40
   1000024     5.54762401E+02  # ~chi_1+
   1000037     6.79815810E+02  # ~chi_2+
   1000039     4.80000000E-09  # ~G
# Higgs mixing
Block alpha # Effective Higgs mixing angle
          -2.70941848E-02   # alpha
Block Hmix Q=  1.55377048E+03  # Higgs mixing parameters
   1    5.84052956E+02  # mu
   2    3.90208775E+01  # tan[beta](Q)
   3    2.43730777E+02  # v(Q)
   4    3.51171885E+05  # m^2_A(Q)
Block stopmix # stop mixing matrix
   1  1     2.28968719E-01   # Re[R_st(1,1)]
   1  2     9.73433781E-01   # Re[R_st(1,2)]
   2  1    -9.73433781E-01   # Re[R_st(2,1)]
   2  2     2.28968719E-01   # Re[R_st(2,2)]
Block sbotmix # sbottom mixing matrix
   1  1     3.74601279E-01   # Re[R_sb(1,1)]
   1  2     9.27186002E-01   # Re[R_sb(1,2)]
   2  1    -9.27186002E-01   # Re[R_sb(2,1)]
   2  2     3.74601279E-01   # Re[R_sb(2,2)]
Block staumix # stau mixing matrix
   1  1     1.99505816E-01   # Re[R_sta(1,1)]
   1  2     9.79896642E-01   # Re[R_sta(1,2)]
   2  1    -9.79896642E-01   # Re[R_sta(2,1)]
   2  2     1.99505816E-01   # Re[R_sta(2,2)]
Block Nmix # neutralino mixing matrix
   1  1    -9.91125227E-01   # Re[N(1,1)]
   1  2     1.72237553E-02   # Re[N(1,2)]
   1  3    -1.14040307E-01   # Re[N(1,3)]
   1  4     6.60979176E-02   # Re[N(1,4)]
   2  1     1.17256229E-01   # Re[N(2,1)]
   2  2     5.39644710E-01   # Re[N(2,2)]
   2  3    -6.05297458E-01   # Re[N(2,3)]
   2  4     5.73279644E-01   # Re[N(2,4)]
   3  1     3.29897136E-02   # Re[N(3,1)]
   3  2    -4.43605743E-02   # Re[N(3,2)]
   3  3    -7.03871608E-01   # Re[N(3,3)]
   3  4    -7.08172703E-01   # Re[N(3,4)]
   4  1    -5.32300619E-02   # Re[N(4,1)]
   4  2     8.40546887E-01   # Re[N(4,2)]
   4  3     3.53800162E-01   # Re[N(4,3)]
   4  4    -4.06783649E-01   # Re[N(4,4)]
Block Umix # chargino mixing matrix
   1  1    -4.98904745E-01   # Re[U(1,1)]
   1  2     8.66656827E-01   # Re[U(1,2)]
   2  1     8.66656827E-01   # Re[U(2,1)]
   2  2     4.98904745E-01   # Re[U(2,2)]
Block Vmix # chargino mixing matrix
   1  1    -5.73574430E-01   # Re[V(1,1)]
   1  2     8.19153449E-01   # Re[V(1,2)]
   2  1     8.19153449E-01   # Re[V(2,1)]
   2  2     5.73574430E-01   # Re[V(2,2)]
DECAY   2000011     1.13500994E-06   # ~e^-_R
#    BR                NDA      ID1      ID2
     4.67484815E-05    2     1000039        11   # BR(~e^-_R -> ~G e^-)
#    BR                NDA      ID1      ID2       ID3
     1.67503998E-14    3     2000013        11       -13   # BR(~e^-_R -> ~mu^-_R e^- mu^+)
     4.72362735E-14    3    -2000013        11        13   # BR(~e^-_R -> ~mu^+_R e^- mu^-)
     2.31350501E-01    3     1000015        11       -15   # BR(~e^-_R -> ~tau^-_1 e^- tau^+)
     7.68602751E-01    3    -1000015        11        15   # BR(~e^-_R -> ~tau^+_1 e^- tau^-)
DECAY   1000011     2.20497758E-01   # ~e^-_L
#    BR                NDA      ID1      ID2
     9.99999411E-01    2     1000022        11   # BR(~e^-_L -> chi^0_1 e^-)
     2.78050550E-07    2     2000011        23   # BR(~e^-_L -> ~e^-_R Z)
     3.02691435E-07    2     2000011        25   # BR(~e^-_L -> ~e^-_R h^0)
     8.19425688E-09    2     1000039        11   # BR(~e^-_L -> ~G e^-)
DECAY   2000013     1.11775059E-06   # ~mu^-_R
#    BR                NDA      ID1      ID2
     4.73250040E-05    2     1000039        13   # BR(~mu^-_R -> ~G mu^-)
#    BR                NDA      ID1      ID2       ID3
     2.30889816E-01    3     1000015        13       -15   # BR(~mu^-_R -> ~tau^-_1 mu^- tau^+)
     7.69062859E-01    3    -1000015        13        15   # BR(~mu^-_R -> ~tau^+_1 mu^- tau^-)
DECAY   1000013     2.26065231E-01   # ~mu^-_L
#    BR                NDA      ID1      ID2
     9.75777260E-01    2     1000022        13   # BR(~mu^-_L -> chi^0_1 mu^-)
     1.16020052E-02    2     2000013        23   # BR(~mu^-_L -> ~mu^-_R Z)
     1.26207264E-02    2     2000013        25   # BR(~mu^-_L -> ~mu^-_R h^0)
     7.99314150E-09    2     1000039        13   # BR(~mu^-_L -> ~G mu^-)
DECAY   1000015     1.91682213E-11   # ~tau^-_1
#    BR                NDA      ID1      ID2
     1.00000000E+00    2     1000039        15   # BR(~tau^-_1 -> ~G tau^-)
DECAY   2000015     1.89092826E+00   # ~tau^-_2
#    BR                NDA      ID1      ID2
     1.28076770E-01    2     1000022        15   # BR(~tau^-_2 -> chi^0_1 tau^-)
     4.56874729E-01    2     1000015        23   # BR(~tau^-_2 -> ~tau^-_1 Z)
     4.15048500E-01    2     1000015        25   # BR(~tau^-_2 -> ~tau^-_1 h^0)
     9.73446170E-10    2     1000039        15   # BR(~tau^-_2 -> ~G tau^-)
DECAY   1000012     2.37324262E-01   # ~nu_e
#    BR                NDA      ID1      ID2
     9.99999500E-01    2     1000022        12   # BR(~nu_e -> chi^0_1 nu_e)
     4.92884788E-07    2     2000011        24   # BR(~nu_e -> ~e^-_R W^+)
     7.14031134E-09    2     1000039        12   # BR(~nu_e -> ~G nu_e)
DECAY   1000014     2.42282616E-01   # ~nu_mu
#    BR                NDA      ID1      ID2
     9.79350326E-01    2     1000022        14   # BR(~nu_mu -> chi^0_1 nu_mu)
     2.06496674E-02    2     2000013        24   # BR(~nu_mu -> ~mu^-_R W^+)
     6.99248544E-09    2     1000039        14   # BR(~nu_mu -> ~G nu_mu)
DECAY   1000016     1.80813547E+00   # ~nu_tau
#    BR                NDA      ID1      ID2
     1.24379789E-01    2     1000022        16   # BR(~nu_tau -> chi^0_1 nu_tau)
     8.75620210E-01    2     1000015        24   # BR(~nu_tau -> ~tau^-_1 W^+)
     8.75305527E-10    2     1000039        16   # BR(~nu_tau -> ~G nu_tau)
DECAY   2000001     8.68029922E-01   # ~d_R
#    BR                NDA      ID1      ID2
     9.85331228E-01    2     1000022         1   # BR(~d_R -> chi^0_1 d)
     1.16710326E-02    2     1000023         1   # BR(~d_R -> chi^0_2 d)
     8.93878981E-04    2     1000025         1   # BR(~d_R -> chi^0_3 d)
     2.09604492E-03    2     1000035         1   # BR(~d_R -> chi^0_4 d)
     6.80655918E-06    2    -1000024         2   # BR(~d_R -> chi^-_1 u)
     3.75101026E-07    2    -1000037         2   # BR(~d_R -> chi^-_2 u)
     6.33349038E-07    2     1000039         1   # BR(~d_R -> ~G d)
DECAY   1000001     1.52859047E+01   # ~d_L
#    BR                NDA      ID1      ID2
     1.75622428E-02    2     1000022         1   # BR(~d_L -> chi^0_1 d)
     9.61710994E-02    2     1000023         1   # BR(~d_L -> chi^0_2 d)
     8.90663566E-04    2     1000025         1   # BR(~d_L -> chi^0_3 d)
     2.29636743E-01    2     1000035         1   # BR(~d_L -> chi^0_4 d)
     1.78998843E-01    2    -1000024         2   # BR(~d_L -> chi^-_1 u)
     4.76740364E-01    2    -1000037         2   # BR(~d_L -> chi^-_2 u)
     4.49558964E-08    2     1000039         1   # BR(~d_L -> ~G d)
DECAY   2000003     8.73370119E-01   # ~s_R
#    BR                NDA      ID1      ID2
     9.79414299E-01    2     1000022         3   # BR(~s_R -> chi^0_1 s)
     1.30387501E-02    2     1000023         3   # BR(~s_R -> chi^0_2 s)
     2.23690865E-03    2     1000025         3   # BR(~s_R -> chi^0_3 s)
     2.16186552E-03    2     1000035         3   # BR(~s_R -> chi^0_4 s)
     2.98310398E-03    2    -1000024         4   # BR(~s_R -> chi^-_1 c)
     1.64443374E-04    2    -1000037         4   # BR(~s_R -> chi^-_2 c)
     6.29436482E-07    2     1000039         3   # BR(~s_R -> ~G s)
DECAY   1000003     1.52883355E+01   # ~s_L
#    BR                NDA      ID1      ID2
     1.75573573E-02    2     1000022         3   # BR(~s_L -> chi^0_1 s)
     9.61979549E-02    2     1000023         3   # BR(~s_L -> chi^0_2 s)
     9.79311812E-04    2     1000025         3   # BR(~s_L -> chi^0_3 s)
     2.29633046E-01    2     1000035         3   # BR(~s_L -> chi^0_4 s)
     1.78934652E-01    2    -1000024         4   # BR(~s_L -> chi^-_1 c)
     4.76697633E-01    2    -1000037         4   # BR(~s_L -> chi^-_2 c)
     4.49475711E-08    2     1000039         3   # BR(~s_L -> ~G s)
DECAY   1000005     1.47302856E+01   # ~b_1
#    BR                NDA      ID1      ID2
     7.59206776E-02    2     1000022         5   # BR(~b_1 -> chi^0_1 b)
     2.24265340E-01    2     1000023         5   # BR(~b_1 -> chi^0_2 b)
     1.72664355E-01    2     1000025         5   # BR(~b_1 -> chi^0_3 b)
     4.71450754E-03    2     1000035         5   # BR(~b_1 -> chi^0_4 b)
     4.78288751E-01    2    -1000024         6   # BR(~b_1 -> chi^-_1 t)
     4.41463376E-02    2    -1000037         6   # BR(~b_1 -> chi^-_2 t)
     3.17990693E-08    2     1000039         5   # BR(~b_1 -> ~G b)
DECAY   2000005     3.34267351E+01   # ~b_2
#    BR                NDA      ID1      ID2
     3.88908892E-03    2     1000022         5   # BR(~b_2 -> chi^0_1 b)
     6.72836538E-02    2     1000023         5   # BR(~b_2 -> chi^0_2 b)
     8.96361549E-02    2     1000025         5   # BR(~b_2 -> chi^0_3 b)
     1.33075953E-01    2     1000035         5   # BR(~b_2 -> chi^0_4 b)
     3.04822948E-01    2    -1000024         6   # BR(~b_2 -> chi^-_1 t)
     3.96662844E-01    2    -1000037         6   # BR(~b_2 -> chi^-_2 t)
     4.62934091E-03    2     1000006       -24   # BR(~b_2 -> ~t_1 W^-)
     1.62404022E-08    2     1000039         5   # BR(~b_2 -> ~G b)
DECAY   2000002     3.48547880E+00   # ~u_R
#    BR                NDA      ID1      ID2
     9.85325680E-01    2     1000022         2   # BR(~u_R -> chi^0_1 u)
     1.16815238E-02    2     1000023         2   # BR(~u_R -> chi^0_2 u)
     8.92088176E-04    2     1000025         2   # BR(~u_R -> chi^0_3 u)
     2.10054705E-03    2     1000035         2   # BR(~u_R -> chi^0_4 u)
     5.33174865E-10    2     1000024         1   # BR(~u_R -> chi^+_1 d)
     3.92260635E-11    2     1000037         1   # BR(~u_R -> chi^+_2 d)
     1.60332360E-07    2     1000039         2   # BR(~u_R -> ~G u)
DECAY   1000002     1.53718184E+01   # ~u_L
#    BR                NDA      ID1      ID2
     1.20719094E-02    2     1000022         2   # BR(~u_L -> chi^0_1 u)
     1.12577309E-01    2     1000023         2   # BR(~u_L -> chi^0_2 u)
     5.01311597E-04    2     1000025         2   # BR(~u_L -> chi^0_3 u)
     2.17238636E-01    2     1000035         2   # BR(~u_L -> chi^0_4 u)
     2.34890650E-01    2     1000024         1   # BR(~u_L -> chi^+_1 d)
     4.22720139E-01    2     1000037         1   # BR(~u_L -> chi^+_2 d)
     4.44639347E-08    2     1000039         2   # BR(~u_L -> ~G u)
DECAY   2000004     3.48615362E+00   # ~c_R
#    BR                NDA      ID1      ID2
     9.85130865E-01    2     1000022         4   # BR(~c_R -> chi^0_1 c)
     1.17243515E-02    2     1000023         4   # BR(~c_R -> chi^0_2 c)
     9.38975663E-04    2     1000025         4   # BR(~c_R -> chi^0_3 c)
     2.10308239E-03    2     1000035         4   # BR(~c_R -> chi^0_4 c)
     9.55378341E-05    2     1000024         3   # BR(~c_R -> chi^+_1 s)
     7.02747910E-06    2     1000037         3   # BR(~c_R -> chi^+_2 s)
     1.60299746E-07    2     1000039         4   # BR(~c_R -> ~G c)
DECAY   1000004     1.53745847E+01   # ~c_L
#    BR                NDA      ID1      ID2
     1.20700410E-02    2     1000022         4   # BR(~c_L -> chi^0_1 c)
     1.12558893E-01    2     1000023         4   # BR(~c_L -> chi^0_2 c)
     5.11682382E-04    2     1000025         4   # BR(~c_L -> chi^0_3 c)
     2.17204031E-01    2     1000035         4   # BR(~c_L -> chi^0_4 c)
     2.34971327E-01    2     1000024         3   # BR(~c_L -> chi^+_1 s)
     4.22683981E-01    2     1000037         3   # BR(~c_L -> chi^+_2 s)
     4.44545308E-08    2     1000039         4   # BR(~c_L -> ~G c)
DECAY   1000006     3.35381814E+01   # ~t_1
#    BR                NDA      ID1      ID2
     3.22213611E-04    2     1000022         4   # BR(~t_1 -> chi^0_1 c)
     9.19623546E-02    2     1000022         6   # BR(~t_1 -> chi^0_1 t)
     2.86525495E-03    2     1000023         4   # BR(~t_1 -> chi^0_2 c)
     1.77725446E-01    2     1000023         6   # BR(~t_1 -> chi^0_2 t)
     2.35443598E-01    2     1000025         6   # BR(~t_1 -> chi^0_3 t)
     3.31349231E-02    2     1000035         6   # BR(~t_1 -> chi^0_4 t)
     3.87143018E-01    2     1000024         5   # BR(~t_1 -> chi^+_1 b)
     7.13875520E-02    2     1000037         5   # BR(~t_1 -> chi^+_2 b)
     1.03640653E-08    2     1000039         6   # BR(~t_1 -> ~G t)
#    BR                NDA      ID1      ID2       ID3
     1.56288311E-05    3     1000022        24         5   # BR(~t_1 -> chi^0_1 W^+ b)
DECAY   2000006     3.65351959E+01   # ~t_2
#    BR                NDA      ID1      ID2
     6.40638247E-03    2     1000022         6   # BR(~t_2 -> chi^0_1 t)
     1.60699072E-01    2     1000023         6   # BR(~t_2 -> chi^0_2 t)
     2.19513342E-01    2     1000025         6   # BR(~t_2 -> chi^0_3 t)
     2.01145449E-01    2     1000035         6   # BR(~t_2 -> chi^0_4 t)
     1.42815452E-01    2     1000024         5   # BR(~t_2 -> chi^+_1 b)
     2.65681736E-01    2     1000037         5   # BR(~t_2 -> chi^+_2 b)
     2.22302848E-03    2     1000006        23   # BR(~t_2 -> ~t_1 Z)
     1.51552419E-03    2     1000006        25   # BR(~t_2 -> ~t_1 h^0)
     1.44607538E-08    2     1000039         6   # BR(~t_2 -> ~G t)
DECAY   1000024     1.07742356E+00   # chi^+_1
#    BR                NDA      ID1      ID2
     5.13454424E-08    2    -2000011        12   # BR(chi^+_1 -> ~e^+_R nu_e)
     9.85674410E-03    2    -1000011        12   # BR(chi^+_1 -> ~e^+_L nu_e)
     2.19606085E-03    2    -2000013        14   # BR(chi^+_1 -> ~mu^+_R nu_mu)
     9.83309823E-03    2    -1000013        14   # BR(chi^+_1 -> ~mu^+_L nu_mu)
     6.93884164E-01    2    -1000015        16   # BR(chi^+_1 -> ~tau^+_1 nu_tau)
     5.00667225E-03    2    -2000015        16   # BR(chi^+_1 -> ~tau^+_2 nu_tau)
     1.75066373E-02    2     1000012       -11   # BR(chi^+_1 -> ~nu_e e^+)
     1.75927550E-02    2     1000014       -13   # BR(chi^+_1 -> ~nu_mu mu^+)
     4.78371052E-02    2     1000016       -15   # BR(chi^+_1 -> ~nu_tau tau^+)
     1.96216667E-01    2     1000022        24   # BR(chi^+_1 -> chi^0_1 W^+)
#    BR                NDA      ID1      ID2       ID3
     1.90434699E-08    3     1000022        -1         2   # BR(chi^+_1 -> chi^0_1 d_bar u)
     2.16644490E-08    3     1000022        -3         4   # BR(chi^+_1 -> chi^0_1 s_bar c)
     3.39909670E-05    3     1000022        -5         6   # BR(chi^+_1 -> chi^0_1 b_bar t)
     4.73475066E-12    3     1000022       -11        12   # BR(chi^+_1 -> chi^0_1 e^+ nu_e)
     2.02030617E-07    3     1000022       -13        14   # BR(chi^+_1 -> chi^0_1 mu^+ nu_mu)
     3.58117528E-05    3     1000022       -15        16   # BR(chi^+_1 -> chi^0_1 tau^+ nu_tau)
DECAY   1000037     3.14470268E+00   # chi^+_2
#    BR                NDA      ID1      ID2
     1.11271368E-09    2    -2000011        12   # BR(chi^+_2 -> ~e^+_R nu_e)
     1.19997228E-01    2    -1000011        12   # BR(chi^+_2 -> ~e^+_L nu_e)
     4.76194082E-05    2    -2000013        14   # BR(chi^+_2 -> ~mu^+_R nu_mu)
     1.20037112E-01    2    -1000013        14   # BR(chi^+_2 -> ~mu^+_L nu_mu)
     1.72967804E-02    2    -1000015        16   # BR(chi^+_2 -> ~tau^+_1 nu_tau)
     1.31318035E-01    2    -2000015        16   # BR(chi^+_2 -> ~tau^+_2 nu_tau)
     1.14661801E-01    2     1000012       -11   # BR(chi^+_2 -> ~nu_e e^+)
     1.14753360E-01    2     1000014       -13   # BR(chi^+_2 -> ~nu_mu mu^+)
     1.41903377E-01    2     1000016       -15   # BR(chi^+_2 -> ~nu_tau tau^+)
     2.15315105E-02    2     1000022        24   # BR(chi^+_2 -> chi^0_1 W^+)
     1.12844455E-01    2     1000023        24   # BR(chi^+_2 -> chi^0_2 W^+)
     9.34918230E-03    2     1000025        24   # BR(chi^+_2 -> chi^0_3 W^+)
     8.01199797E-02    2     1000024        23   # BR(chi^+_2 -> chi^+_1 Z)
     1.60687704E-02    2     1000024        25   # BR(chi^+_2 -> chi^+_1 h^0)
#    BR                NDA      ID1      ID2       ID3
     7.50942288E-09    3     1000024         2        -2   # BR(chi^+_2 -> chi^+_1 u u_bar)
     7.49355922E-09    3     1000024         4        -4   # BR(chi^+_2 -> chi^+_1 c c_bar)
     8.91221791E-09    3     1000024         1        -1   # BR(chi^+_2 -> chi^+_1 d d_bar)
     9.19406364E-09    3     1000024         3        -3   # BR(chi^+_2 -> chi^+_1 s s_bar)
     6.81491225E-07    3     1000024         5        -5   # BR(chi^+_2 -> chi^+_1 b b_bar)
     1.42675252E-06    3     1000024        11       -11   # BR(chi^+_2 -> chi^+_1 e^- e^+)
     1.43084911E-06    3     1000024        13       -13   # BR(chi^+_2 -> chi^+_1 mu^- mu^+)
     2.53977381E-06    3     1000024        15       -15   # BR(chi^+_2 -> chi^+_1 tau^- tau^+)
     3.52158800E-06    3     1000024        12       -12   # BR(chi^+_2 -> chi^+_1 nu_e nu_bar_e)
     1.21596930E-07    3     1000022        -1         2   # BR(chi^+_2 -> chi^0_1 d_bar u)
     1.22002136E-07    3     1000022        -3         4   # BR(chi^+_2 -> chi^0_1 s_bar c)
     5.54669635E-05    3     1000022        -5         6   # BR(chi^+_2 -> chi^0_1 b_bar t)
     2.45597037E-13    3     1000022       -11        12   # BR(chi^+_2 -> chi^0_1 e^+ nu_e)
     1.04922567E-08    3     1000022       -13        14   # BR(chi^+_2 -> chi^0_1 mu^+ nu_mu)
     2.48739048E-06    3     1000022       -15        16   # BR(chi^+_2 -> chi^0_1 tau^+ nu_tau)
     4.02098742E-09    3     1000023        -1         2   # BR(chi^+_2 -> chi^0_2 d_bar u)
     4.26403237E-09    3     1000023        -3         4   # BR(chi^+_2 -> chi^0_2 s_bar c)
     8.20241993E-07    3     1000023       -11        12   # BR(chi^+_2 -> chi^0_2 e^+ nu_e)
     8.21312132E-07    3     1000023       -13        14   # BR(chi^+_2 -> chi^0_2 mu^+ nu_mu)
     1.14851656E-06    3     1000023       -15        16   # BR(chi^+_2 -> chi^0_2 tau^+ nu_tau)
     1.64759426E-11    3     1000025        -1         2   # BR(chi^+_2 -> chi^0_3 d_bar u)
     4.58280989E-11    3     1000025        -3         4   # BR(chi^+_2 -> chi^0_3 s_bar c)
     1.68413449E-09    3     1000025       -11        12   # BR(chi^+_2 -> chi^0_3 e^+ nu_e)
     2.12613029E-09    3     1000025       -13        14   # BR(chi^+_2 -> chi^0_3 mu^+ nu_mu)
     1.42808525E-07    3     1000025       -15        16   # BR(chi^+_2 -> chi^0_3 tau^+ nu_tau)
DECAY   1000022     1.16261198E+00   # chi^0_1
#    BR                NDA      ID1      ID2
     1.17689658E-01    2     2000011       -11   # BR(chi^0_1 -> ~e^-_R e^+)
     1.17689658E-01    2    -2000011        11   # BR(chi^0_1 -> ~e^+_R e^-)
     1.18118343E-01    2     2000013       -13   # BR(chi^0_1 -> ~mu^-_R mu^+)
     1.18118343E-01    2    -2000013        13   # BR(chi^0_1 -> ~mu^+_R mu^-)
     2.64191998E-01    2     1000015       -15   # BR(chi^0_1 -> ~tau^-_1 tau^+)
     2.64191998E-01    2    -1000015        15   # BR(chi^0_1 -> ~tau^+_1 tau^-)
     1.19577030E-10    2     1000039        22   # BR(chi^0_1 -> ~G photon)
     3.60982569E-11    2     1000039        23   # BR(chi^0_1 -> ~G Z)
     7.73122902E-13    2     1000039        25   # BR(chi^0_1 -> ~G h^0)
DECAY   1000023     1.17517681E+00   # chi^0_2
#    BR                NDA      ID1      ID2
     1.07168286E-02    2     2000011       -11   # BR(chi^0_2 -> ~e^-_R e^+)
     1.07168286E-02    2    -2000011        11   # BR(chi^0_2 -> ~e^+_R e^-)
     7.05267188E-03    2     1000011       -11   # BR(chi^0_2 -> ~e^-_L e^+)
     7.05267188E-03    2    -1000011        11   # BR(chi^0_2 -> ~e^+_L e^-)
     1.17075298E-02    2     2000013       -13   # BR(chi^0_2 -> ~mu^-_R mu^+)
     1.17075298E-02    2    -2000013        13   # BR(chi^0_2 -> ~mu^+_R mu^-)
     7.06492950E-03    2     1000013       -13   # BR(chi^0_2 -> ~mu^-_L mu^+)
     7.06492950E-03    2    -1000013        13   # BR(chi^0_2 -> ~mu^+_L mu^-)
     3.33234298E-01    2     1000015       -15   # BR(chi^0_2 -> ~tau^-_1 tau^+)
     3.33234298E-01    2    -1000015        15   # BR(chi^0_2 -> ~tau^+_1 tau^-)
     1.05268283E-02    2     2000015       -15   # BR(chi^0_2 -> ~tau^-_2 tau^+)
     1.05268283E-02    2    -2000015        15   # BR(chi^0_2 -> ~tau^+_2 tau^-)
     5.72066494E-03    2     1000012       -12   # BR(chi^0_2 -> ~nu_e nu_bar_e)
     5.72066494E-03    2    -1000012        12   # BR(chi^0_2 -> ~nu^*_e nu_e)
     5.72638479E-03    2     1000014       -14   # BR(chi^0_2 -> ~nu_mu nu_bar_mu)
     5.72638479E-03    2    -1000014        14   # BR(chi^0_2 -> ~nu^*_mu nu_mu)
     7.41771963E-03    2     1000016       -16   # BR(chi^0_2 -> ~nu_tau nu_bar_tau)
     7.41771963E-03    2    -1000016        16   # BR(chi^0_2 -> ~nu^*_tau nu_tau)
     1.50908403E-02    2     1000022        23   # BR(chi^0_2 -> chi^0_1 Z)
     1.86524321E-01    2     1000022        25   # BR(chi^0_2 -> chi^0_1 h^0)
     3.05342324E-10    2     1000039        22   # BR(chi^0_2 -> ~G photon)
     3.08224618E-11    2     1000039        23   # BR(chi^0_2 -> ~G Z)
     7.79539318E-10    2     1000039        25   # BR(chi^0_2 -> ~G h^0)
     5.13391511E-07    2     1000022        22   # BR(chi^0_2 -> chi^0_1 photon)
#    BR                NDA      ID1      ID2       ID3
     1.29592700E-08    3     1000022         2        -2   # BR(chi^0_2 -> chi^0_1 u u_bar)
     1.29660113E-08    3     1000022         4        -4   # BR(chi^0_2 -> chi^0_1 c c_bar)
     1.03311442E-08    3     1000022         1        -1   # BR(chi^0_2 -> chi^0_1 d d_bar)
     1.33609082E-08    3     1000022         3        -3   # BR(chi^0_2 -> chi^0_1 s s_bar)
     7.13756326E-06    3     1000022         5        -5   # BR(chi^0_2 -> chi^0_1 b b_bar)
     3.27819956E-06    3     1000022        11       -11   # BR(chi^0_2 -> chi^0_1 e^- e^+)
     3.44719469E-06    3     1000022        13       -13   # BR(chi^0_2 -> chi^0_1 mu^- mu^+)
     3.47015969E-05    3     1000022        15       -15   # BR(chi^0_2 -> chi^0_1 tau^- tau^+)
     1.38546984E-12    3     1000024         1        -2   # BR(chi^0_2 -> chi^+_1 d u_bar)
     1.38546984E-12    3    -1000024        -1         2   # BR(chi^0_2 -> chi^-_1 d_bar u)
     4.32784301E-13    3     1000024        11       -12   # BR(chi^0_2 -> chi^+_1 e^- nu_bar_e)
     4.32784301E-13    3    -1000024       -11        12   # BR(chi^0_2 -> chi^-_1 e^+ nu_e)
     4.16411732E-13    3     1000024        13       -14   # BR(chi^0_2 -> chi^+_1 mu^- nu_bar_mu)
     4.16411732E-13    3    -1000024       -13        14   # BR(chi^0_2 -> chi^-_1 mu^+ nu_mu)
DECAY   1000025     1.18906986E+00   # chi^0_3
#    BR                NDA      ID1      ID2
     9.49262304E-04    2     2000011       -11   # BR(chi^0_3 -> ~e^-_R e^+)
     9.49262304E-04    2    -2000011        11   # BR(chi^0_3 -> ~e^+_R e^-)
     3.91027295E-05    2     1000011       -11   # BR(chi^0_3 -> ~e^-_L e^+)
     3.91027295E-05    2    -1000011        11   # BR(chi^0_3 -> ~e^+_L e^-)
     1.96333338E-03    2     2000013       -13   # BR(chi^0_3 -> ~mu^-_R mu^+)
     1.96333338E-03    2    -2000013        13   # BR(chi^0_3 -> ~mu^+_R mu^-)
     1.36336954E-04    2     1000013       -13   # BR(chi^0_3 -> ~mu^-_L mu^+)
     1.36336954E-04    2    -1000013        13   # BR(chi^0_3 -> ~mu^+_L mu^-)
     3.34660568E-01    2     1000015       -15   # BR(chi^0_3 -> ~tau^-_1 tau^+)
     3.34660568E-01    2    -1000015        15   # BR(chi^0_3 -> ~tau^+_1 tau^-)
     2.65109499E-02    2     2000015       -15   # BR(chi^0_3 -> ~tau^-_2 tau^+)
     2.65109499E-02    2    -2000015        15   # BR(chi^0_3 -> ~tau^+_2 tau^-)
     2.76453817E-04    2     1000012       -12   # BR(chi^0_3 -> ~nu_e nu_bar_e)
     2.76453817E-04    2    -1000012        12   # BR(chi^0_3 -> ~nu^*_e nu_e)
     2.76605606E-04    2     1000014       -14   # BR(chi^0_3 -> ~nu_mu nu_bar_mu)
     2.76605606E-04    2    -1000014        14   # BR(chi^0_3 -> ~nu^*_mu nu_mu)
     3.20177125E-04    2     1000016       -16   # BR(chi^0_3 -> ~nu_tau nu_bar_tau)
     3.20177125E-04    2    -1000016        16   # BR(chi^0_3 -> ~nu^*_tau nu_tau)
     2.53354986E-01    2     1000022        23   # BR(chi^0_3 -> chi^0_1 Z)
     1.61714242E-02    2     1000022        25   # BR(chi^0_3 -> chi^0_1 h^0)
     1.39134195E-13    2     1000039        22   # BR(chi^0_3 -> ~G photon)
     2.56018720E-10    2     1000039        23   # BR(chi^0_3 -> ~G Z)
     1.43999445E-09    2     1000039        25   # BR(chi^0_3 -> ~G h^0)
     2.00882960E-07    2     1000022        22   # BR(chi^0_3 -> chi^0_1 photon)
     6.04570628E-09    2     1000023        22   # BR(chi^0_3 -> chi^0_2 photon)
#    BR                NDA      ID1      ID2       ID3
     2.94675709E-10    3     1000022         2        -2   # BR(chi^0_3 -> chi^0_1 u u_bar)
     3.22412781E-10    3     1000022         4        -4   # BR(chi^0_3 -> chi^0_1 c c_bar)
     9.88071755E-11    3     1000022         1        -1   # BR(chi^0_3 -> chi^0_1 d d_bar)
     6.07108882E-09    3     1000022         3        -3   # BR(chi^0_3 -> chi^0_1 s s_bar)
     1.39806546E-05    3     1000022         5        -5   # BR(chi^0_3 -> chi^0_1 b b_bar)
     1.59681440E-07    3     1000022        11       -11   # BR(chi^0_3 -> chi^0_1 e^- e^+)
     4.17608591E-07    3     1000022        13       -13   # BR(chi^0_3 -> chi^0_1 mu^- mu^+)
     4.96139205E-05    3     1000022        15       -15   # BR(chi^0_3 -> chi^0_1 tau^- tau^+)
     4.23328578E-06    3     1000023         2        -2   # BR(chi^0_3 -> chi^0_2 u u_bar)
     4.20255144E-06    3     1000023         4        -4   # BR(chi^0_3 -> chi^0_2 c c_bar)
     5.48868696E-06    3     1000023         1        -1   # BR(chi^0_3 -> chi^0_2 d d_bar)
     5.48832138E-06    3     1000023         3        -3   # BR(chi^0_3 -> chi^0_2 s s_bar)
     4.91127983E-06    3     1000023         5        -5   # BR(chi^0_3 -> chi^0_2 b b_bar)
     1.26256021E-06    3     1000023        11       -11   # BR(chi^0_3 -> chi^0_2 e^- e^+)
     1.26217332E-06    3     1000023        13       -13   # BR(chi^0_3 -> chi^0_2 mu^- mu^+)
     1.14620785E-06    3     1000023        15       -15   # BR(chi^0_3 -> chi^0_2 tau^- tau^+)
     7.50097769E-06    3     1000023        12       -12   # BR(chi^0_3 -> chi^0_2 nu_e nu_bar_e)
     1.80958828E-05    3     1000024         1        -2   # BR(chi^0_3 -> chi^+_1 d u_bar)
     1.80958828E-05    3    -1000024        -1         2   # BR(chi^0_3 -> chi^-_1 d_bar u)
     1.80008316E-05    3     1000024         3        -4   # BR(chi^0_3 -> chi^+_1 s c_bar)
     1.80008316E-05    3    -1000024        -3         4   # BR(chi^0_3 -> chi^-_1 s_bar c)
     6.01538537E-06    3     1000024        11       -12   # BR(chi^0_3 -> chi^+_1 e^- nu_bar_e)
     6.01538537E-06    3    -1000024       -11        12   # BR(chi^0_3 -> chi^-_1 e^+ nu_e)
     6.01535706E-06    3     1000024        13       -14   # BR(chi^0_3 -> chi^+_1 mu^- nu_bar_mu)
     6.01535706E-06    3    -1000024       -13        14   # BR(chi^0_3 -> chi^-_1 mu^+ nu_mu)
     5.93627177E-06    3     1000024        15       -16   # BR(chi^0_3 -> chi^+_1 tau^- nu_bar_tau)
     5.93627177E-06    3    -1000024       -15        16   # BR(chi^0_3 -> chi^-_1 tau^+ nu_tau)
DECAY   1000035     3.23977824E+00   # chi^0_4
#    BR                NDA      ID1      ID2
     1.15907371E-03    2     2000011       -11   # BR(chi^0_4 -> ~e^-_R e^+)
     1.15907371E-03    2    -2000011        11   # BR(chi^0_4 -> ~e^+_R e^-)
     5.09071189E-02    2     1000011       -11   # BR(chi^0_4 -> ~e^-_L e^+)
     5.09071189E-02    2    -1000011        11   # BR(chi^0_4 -> ~e^+_L e^-)
     1.17690507E-03    2     2000013       -13   # BR(chi^0_4 -> ~mu^-_R mu^+)
     1.17690507E-03    2    -2000013        13   # BR(chi^0_4 -> ~mu^+_R mu^-)
     5.09574372E-02    2     1000013       -13   # BR(chi^0_4 -> ~mu^-_L mu^+)
     5.09574372E-02    2    -1000013        13   # BR(chi^0_4 -> ~mu^+_L mu^-)
     9.79770986E-03    2     1000015       -15   # BR(chi^0_4 -> ~tau^-_1 tau^+)
     9.79770986E-03    2    -1000015        15   # BR(chi^0_4 -> ~tau^+_1 tau^-)
     6.45434927E-02    2     2000015       -15   # BR(chi^0_4 -> ~tau^-_2 tau^+)
     6.45434927E-02    2    -2000015        15   # BR(chi^0_4 -> ~tau^+_2 tau^-)
     6.28827946E-02    2     1000012       -12   # BR(chi^0_4 -> ~nu_e nu_bar_e)
     6.28827946E-02    2    -1000012        12   # BR(chi^0_4 -> ~nu^*_e nu_e)
     6.28983421E-02    2     1000014       -14   # BR(chi^0_4 -> ~nu_mu nu_bar_mu)
     6.28983421E-02    2    -1000014        14   # BR(chi^0_4 -> ~nu^*_mu nu_mu)
     6.72713289E-02    2     1000016       -16   # BR(chi^0_4 -> ~nu_tau nu_bar_tau)
     6.72713289E-02    2    -1000016        16   # BR(chi^0_4 -> ~nu^*_tau nu_tau)
     1.07615344E-01    2     1000024       -24   # BR(chi^0_4 -> chi^+_1 W^-)
     1.07615344E-01    2    -1000024        24   # BR(chi^0_4 -> chi^-_1 W^+)
     2.77768185E-03    2     1000022        23   # BR(chi^0_4 -> chi^0_1 Z)
     5.80509452E-04    2     1000023        23   # BR(chi^0_4 -> chi^0_2 Z)
     2.19459114E-02    2     1000022        25   # BR(chi^0_4 -> chi^0_1 h^0)
     1.51204008E-02    2     1000023        25   # BR(chi^0_4 -> chi^0_2 h^0)
     3.03480907E-10    2     1000039        22   # BR(chi^0_4 -> ~G photon)
     2.07428644E-09    2     1000039        23   # BR(chi^0_4 -> ~G Z)
     3.85793479E-10    2     1000039        25   # BR(chi^0_4 -> ~G h^0)
     4.27108341E-07    2     1000022        22   # BR(chi^0_4 -> chi^0_1 photon)
     2.05163105E-06    2     1000023        22   # BR(chi^0_4 -> chi^0_2 photon)
     8.89098517E-07    2     1000025        22   # BR(chi^0_4 -> chi^0_3 photon)
#    BR                NDA      ID1      ID2       ID3
     4.94419839E-08    3     1000022         2        -2   # BR(chi^0_4 -> chi^0_1 u u_bar)
     4.94285527E-08    3     1000022         4        -4   # BR(chi^0_4 -> chi^0_1 c c_bar)
     3.47103034E-09    3     1000022         6        -6   # BR(chi^0_4 -> chi^0_1 t t_bar)
     7.08887162E-08    3     1000022         1        -1   # BR(chi^0_4 -> chi^0_1 d d_bar)
     7.15128165E-08    3     1000022         3        -3   # BR(chi^0_4 -> chi^0_1 s s_bar)
     1.54808238E-06    3     1000022         5        -5   # BR(chi^0_4 -> chi^0_1 b b_bar)
     8.74421524E-07    3     1000022        11       -11   # BR(chi^0_4 -> chi^0_1 e^- e^+)
     8.77785940E-07    3     1000022        13       -13   # BR(chi^0_4 -> chi^0_1 mu^- mu^+)
     2.80219799E-06    3     1000022        15       -15   # BR(chi^0_4 -> chi^0_1 tau^- tau^+)
     6.09747454E-09    3     1000023         2        -2   # BR(chi^0_4 -> chi^0_2 u u_bar)
     6.08755163E-09    3     1000023         4        -4   # BR(chi^0_4 -> chi^0_2 c c_bar)
     5.39842014E-09    3     1000023         1        -1   # BR(chi^0_4 -> chi^0_2 d d_bar)
     5.45630656E-09    3     1000023         3        -3   # BR(chi^0_4 -> chi^0_2 s s_bar)
     1.43629146E-07    3     1000023         5        -5   # BR(chi^0_4 -> chi^0_2 b b_bar)
     1.17937076E-06    3     1000023        11       -11   # BR(chi^0_4 -> chi^0_2 e^- e^+)
     1.18176608E-06    3     1000023        13       -13   # BR(chi^0_4 -> chi^0_2 mu^- mu^+)
     1.95165863E-06    3     1000023        15       -15   # BR(chi^0_4 -> chi^0_2 tau^- tau^+)
     2.09333560E-06    3     1000023        12       -12   # BR(chi^0_4 -> chi^0_2 nu_e nu_bar_e)
     1.32754810E-04    3     1000025         2        -2   # BR(chi^0_4 -> chi^0_3 u u_bar)
     1.32734610E-04    3     1000025         4        -4   # BR(chi^0_4 -> chi^0_3 c c_bar)
     1.72254563E-04    3     1000025         1        -1   # BR(chi^0_4 -> chi^0_3 d d_bar)
     1.72254389E-04    3     1000025         3        -3   # BR(chi^0_4 -> chi^0_3 s s_bar)
     1.70656011E-04    3     1000025         5        -5   # BR(chi^0_4 -> chi^0_3 b b_bar)
     3.93954659E-05    3     1000025        11       -11   # BR(chi^0_4 -> chi^0_3 e^- e^+)
     3.93904515E-05    3     1000025        13       -13   # BR(chi^0_4 -> chi^0_3 mu^- mu^+)
     3.79976718E-05    3     1000025        15       -15   # BR(chi^0_4 -> chi^0_3 tau^- tau^+)
     2.37817257E-04    3     1000025        12       -12   # BR(chi^0_4 -> chi^0_3 nu_e nu_bar_e)
     4.04820293E-09    3     1000024         1        -2   # BR(chi^0_4 -> chi^+_1 d u_bar)
     4.04820293E-09    3    -1000024        -1         2   # BR(chi^0_4 -> chi^-_1 d_bar u)
     4.24617134E-09    3     1000024         3        -4   # BR(chi^0_4 -> chi^+_1 s c_bar)
     4.24617134E-09    3    -1000024        -3         4   # BR(chi^0_4 -> chi^-_1 s_bar c)
     7.61910265E-07    3     1000024        11       -12   # BR(chi^0_4 -> chi^+_1 e^- nu_bar_e)
     7.61910265E-07    3    -1000024       -11        12   # BR(chi^0_4 -> chi^-_1 e^+ nu_e)
     7.62508516E-07    3     1000024        13       -14   # BR(chi^0_4 -> chi^+_1 mu^- nu_bar_mu)
     7.62508516E-07    3    -1000024       -13        14   # BR(chi^0_4 -> chi^-_1 mu^+ nu_mu)
     8.95273768E-07    3     1000024        15       -16   # BR(chi^0_4 -> chi^+_1 tau^- nu_bar_tau)
     8.95273768E-07    3    -1000024       -15        16   # BR(chi^0_4 -> chi^-_1 tau^+ nu_tau)
DECAY   1000021     7.11265692E+00   # ~g
#    BR                NDA      ID1      ID2
     4.60190292E-02    2     2000002        -2   # BR(~g -> ~u_R u_bar)
     4.60190292E-02    2    -2000002         2   # BR(~g -> ~u^*_R u)
     9.39637974E-03    2     1000002        -2   # BR(~g -> ~u_L u_bar)
     9.39637974E-03    2    -1000002         2   # BR(~g -> ~u^*_L u)
     4.60164709E-02    2     2000004        -4   # BR(~g -> ~c_R c_bar)
     4.60164709E-02    2    -2000004         4   # BR(~g -> ~c^*_R c)
     9.39809315E-03    2     1000004        -4   # BR(~g -> ~c_L c_bar)
     9.39809315E-03    2    -1000004         4   # BR(~g -> ~c^*_L c)
     1.25730685E-02    2     1000006        -4   # BR(~g -> ~t_1 c_bar)
     1.25730685E-02    2    -1000006         4   # BR(~g -> ~t^*_1 c)
     9.53907693E-02    2     1000006        -6   # BR(~g -> ~t_1 t_bar)
     9.53907693E-02    2    -1000006         6   # BR(~g -> ~t^*_1 t)
     5.00262317E-02    2     2000001        -1   # BR(~g -> ~d_R d_bar)
     5.00262317E-02    2    -2000001         1   # BR(~g -> ~d^*_R d)
     8.77033001E-03    2     1000001        -1   # BR(~g -> ~d_L d_bar)
     8.77033001E-03    2    -1000001         1   # BR(~g -> ~d^*_L d)
     5.00416441E-02    2     2000003        -3   # BR(~g -> ~s_R s_bar)
     5.00416441E-02    2    -2000003         3   # BR(~g -> ~s^*_R s)
     8.77346216E-03    2     1000003        -3   # BR(~g -> ~s_L s_bar)
     8.77346216E-03    2    -1000003         3   # BR(~g -> ~s^*_L s)
     9.44416479E-02    2     1000005        -5   # BR(~g -> ~b_1 b_bar)
     9.44416479E-02    2    -1000005         5   # BR(~g -> ~b^*_1 b)
     5.44314855E-02    2     2000005        -5   # BR(~g -> ~b_2 b_bar)
     5.44314855E-02    2    -2000005         5   # BR(~g -> ~b^*_2 b)
     1.71305125E-06    2     1000022        21   # BR(~g -> chi^0_1 g)
     1.59005858E-04    2     1000023        21   # BR(~g -> chi^0_2 g)
     2.35857191E-04    2     1000025        21   # BR(~g -> chi^0_3 g)
     5.68443533E-05    2     1000035        21   # BR(~g -> chi^0_4 g)
#    BR                NDA      ID1      ID2       ID3
     2.08153434E-04    3     1000022         6        -6   # BR(~g -> chi^0_1 t t_bar)
     4.36293572E-03    3     1000023         6        -6   # BR(~g -> chi^0_2 t t_bar)
     6.09563690E-03    3     1000025         6        -6   # BR(~g -> chi^0_3 t t_bar)
     6.89620353E-03    3     1000035         6        -6   # BR(~g -> chi^0_4 t t_bar)
     2.10490769E-03    3     1000024         5        -6   # BR(~g -> chi^+_1 b t_bar)
     2.10490769E-03    3    -1000024        -5         6   # BR(~g -> chi^-_1 b_bar t)
     3.60830518E-03    3     1000037         5        -6   # BR(~g -> chi^+_2 b t_bar)
     3.60830518E-03    3    -1000037        -5         6   # BR(~g -> chi^-_2 b_bar t)
DECAY        25     2.50190586E-03   # h^0
#    BR                NDA      ID1      ID2
     1.05629583E-08    2          11       -11   # BR(h^0 -> e^- e^+)
     4.51572504E-04    2          13       -13   # BR(h^0 -> mu^- mu^+)
     1.25774931E-01    2          15       -15   # BR(h^0 -> tau^- tau^+)
     6.54858335E-07    2           1        -1   # BR(h^0 -> d d_bar)
     2.88788963E-04    2           3        -3   # BR(h^0 -> s s_bar)
     6.35131871E-01    2           5        -5   # BR(h^0 -> b b_bar)
     2.64395299E-07    2           2        -2   # BR(h^0 -> u u_bar)
     4.73727995E-02    2           4        -4   # BR(h^0 -> c c_bar)
     7.12413663E-02    2          21        21   # BR(h^0 -> g g)
     3.23466203E-03    2          22        22   # BR(h^0 -> photon photon)
# writing decays into V V* as 3-body decays
#    BR                NDA      ID1      ID2       ID3
     5.38543463E-03    3          24        11        12   # BR(h^0 -> W^+ e^- nu_e)
     5.38543463E-03    3          24        13        14   # BR(h^0 -> W^+ mu^- nu_mu)
     5.38543463E-03    3          24        15        16   # BR(h^0 -> W^+ tau^- nu_tau)
     1.88490212E-02    3          24         1        -2   # BR(h^0 -> W^+ d u_bar)
     1.88490212E-02    3          24         3        -4   # BR(h^0 -> W^+ s c_bar)
     5.38543463E-03    3         -24       -11       -12   # BR(h^0 -> W^- e^+ nu_bar_e)
     5.38543463E-03    3         -24       -13       -14   # BR(h^0 -> W^- mu^+ nu_bar_mu)
     5.38543463E-03    3         -24       -15       -16   # BR(h^0 -> W^- tau^+ nu_bar_tau)
     1.88490212E-02    3         -24        -1         2   # BR(h^0 -> W^- d_bar u)
     1.88490212E-02    3         -24        -3         4   # BR(h^0 -> W^- s_bar c)
     3.07803535E-04    3          23        11       -11   # BR(h^0 -> Z e^- e^+)
     3.07803535E-04    3          23        13       -13   # BR(h^0 -> Z mu^- mu^+)
     2.63831601E-04    3          23        15       -15   # BR(h^0 -> Z tau^- tau^+)
     1.75887734E-03    3          23        12       -12   # BR(h^0 -> Z nu_e nu_bar_e)
     1.23121414E-03    3          23         1        -1   # BR(h^0 -> Z u u_bar)
     1.23121414E-03    3          23         3        -3   # BR(h^0 -> Z c c_bar)
     1.23121414E-03    3          23         5        -5   # BR(h^0 -> Z t t_bar)
     1.23121414E-03    3          23         2        -2   # BR(h^0 -> Z u u_bar)
     1.23121414E-03    3          23         4        -4   # BR(h^0 -> Z c c_bar)
DECAY        35     1.22870283E+01   # H^0
#    BR                NDA      ID1      ID2
     1.52470245E-08    2          11       -11   # BR(H^0 -> e^- e^+)
     6.51863972E-04    2          13       -13   # BR(H^0 -> mu^- mu^+)
     1.85103611E-01    2          15       -15   # BR(H^0 -> tau^- tau^+)
     7.94691657E-07    2           1        -1   # BR(H^0 -> d d_bar)
     3.50458676E-04    2           3        -3   # BR(H^0 -> s s_bar)
     8.12484862E-01    2           5        -5   # BR(H^0 -> b b_bar)
     1.80325076E-13    2           2        -2   # BR(H^0 -> u u_bar)
     3.23163334E-08    2           4        -4   # BR(H^0 -> c c_bar)
     1.21956693E-03    2           6        -6   # BR(H^0 -> t t_bar)
     1.13949372E-06    2     2000011  -2000011   # BR(H^0 -> ~e^-_R ~e^+_R)
     1.16883768E-06    2     2000013  -2000013   # BR(H^0 -> ~mu^-_R ~mu^+_R)
     2.13240829E-05    2     1000015  -1000015   # BR(H^0 -> ~tau^-_1 ~tau^+_1)
     1.28651263E-05    2          23        23   # BR(H^0 -> Z Z)
     2.51515741E-05    2          24       -24   # BR(H^0 -> W^+ W^-)
     3.64615176E-05    2          25        25   # BR(H^0 -> h^0 h^0)
     9.05755399E-05    2          21        21   # BR(H^0 -> g g)
     1.08917005E-07    2          22        22   # BR(H^0 -> photon photon)
DECAY        36     1.22881828E+01   # A^0
#    BR                NDA      ID1      ID2
     1.52456910E-08    2          11       -11   # BR(A^0 -> e^- e^+)
     6.51807037E-04    2          13       -13   # BR(A^0 -> mu^- mu^+)
     1.85093465E-01    2          15       -15   # BR(A^0 -> tau^- tau^+)
     7.94621379E-07    2           1        -1   # BR(A^0 -> d d_bar)
     3.50427660E-04    2           3        -3   # BR(A^0 -> s s_bar)
     8.12445004E-01    2           5        -5   # BR(A^0 -> b b_bar)
     1.53438005E-13    2           2        -2   # BR(A^0 -> u u_bar)
     2.74978746E-08    2           4        -4   # BR(A^0 -> c c_bar)
     1.40827558E-03    2           6        -6   # BR(A^0 -> t t_bar)
     2.33771937E-05    2          25        23   # BR(A^0 -> h^0 Z)
     2.67499822E-05    2          21        21   # BR(A^0 -> g g)
     5.56974293E-08    2          22        22   # BR(A^0 -> photon photon)
DECAY        37     9.91925933E+00   # H^+
#    BR                NDA      ID1      ID2
     1.90654960E-08    2         -11        12   # BR(H^+ -> e^+ nu_e)
     8.15117166E-04    2         -13        12   # BR(H^+ -> mu^+ nu_e)
     2.31468668E-01    2         -15        12   # BR(H^+ -> tau^+ nu_e)
     8.76785014E-07    2          -1         2   # BR(H^+ -> d_bar u)
     3.86688863E-04    2          -3         4   # BR(H^+ -> s_bar c)
     7.67299020E-01    2          -5         6   # BR(H^+ -> b_bar t)
     2.96104652E-05    2          25        24   # BR(H^+ -> h^0 W^+)
DECAY         6     2.43000000E+00   # top
#    BR                NDA      ID1      ID2
     1.00000000E+00    2           5        24   # BR(t -> b W)
Block HiggsBoundsInputHiggsCouplingsFermions
# ScalarNormEffCoupSq PseudoSNormEffCoupSq NP IP1 IP2 IP2
    1.17499829E+00    0.00000000E+00        3  25   5   5  # h0-b-b eff. coupling^2, normalised to SM
    1.59982500E+03    0.00000000E+00        3  35   5   5  # H0-b-b eff. coupling^2, normalised to SM
    0.00000000E+00    1.60000000E+03        3  36   5   5  # A0-b-b eff. coupling^2, normalised to SM
#
    9.99890626E-01    0.00000000E+00        3  25   6   6  # h0-t-t eff. coupling^2, normalised to SM
    7.34373933E-04    0.00000000E+00        3  35   6   6  # H0-t-t eff. coupling^2, normalised to SM
    0.00000000E+00    6.25000000E-04        3  36   6   6  # A0-t-t eff. coupling^2, normalised to SM
#
    1.17499829E+00    0.00000000E+00        3  25  15  15  # h0-tau-tau eff. coupling^2, normalised to SM
    1.59982500E+03    0.00000000E+00        3  35  15  15  # H0-tau-tau eff. coupling^2, normalised to SM
    0.00000000E+00    1.60000000E+03        3  36  15  15  # A0-tau-tau eff. coupling^2, normalised to SM
#
Block HiggsBoundsInputHiggsCouplingsBosons
    9.99995593E-01        3  25  24  24  # h0-W-W eff. coupling^2, normalised to SM
    4.40743687E-06        3  35  24  24  # H0-W-W eff. coupling^2, normalised to SM
    0.00000000E+00        3  36  24  24  # A0-W-W eff. coupling^2, normalised to SM
#
    9.99995593E-01        3  25  23  23  # h0-Z-Z eff. coupling^2, normalised to SM
    4.40743687E-06        3  35  23  23  # H0-Z-Z eff. coupling^2, normalised to SM
    0.00000000E+00        3  36  23  23  # A0-Z-Z eff. coupling^2, normalised to SM
#
    1.16730278E+00        3  25  21  21  # h0-g-g eff. coupling^2, normalised to SM
    4.15335797E-02        3  35  21  21  # H0-g-g eff. coupling^2, normalised to SM
    1.76999505E-01        3  36  21  21  # A0-g-g eff. coupling^2, normalised to SM
#
    0.00000000E+00        3  25  25  23  # h0-h0-Z eff. coupling^2, normalised to SM
    0.00000000E+00        3  35  25  23  # H0-h0-Z eff. coupling^2, normalised to SM
    4.40743687E-06        3  36  25  23  # A0-h0-Z eff. coupling^2, normalised to SM
    0.00000000E+00        3  35  35  23  # H0-H0-Z eff. coupling^2, normalised to SM
    9.99995593E-01        3  36  35  23  # A0-H0-Z eff. coupling^2, normalised to SM
    0.00000000E+00        3  36  36  23  # A0-A0-Z eff. coupling^2, normalised to SM
#
    0.00000000E+00        4  25  21  21  23  # h0-g-g-Z eff. coupling^2, normalised to SM
    0.00000000E+00        4  35  21  21  23  # H0-g-g-Z eff. coupling^2, normalised to SM
    0.00000000E+00        4  36  21  21  23  # A0-g-g-Z eff. coupling^2, normalised to SM
Block SPhenoLowEnergy  # low energy observables
    1    3.20522704E-04   # BR(b -> s gamma)
    2    1.58676045E-06   # BR(b -> s mu+ mu-)
    3    3.53433765E-05   # BR(b -> s nu nu)
    4    5.80517683E-11   # BR(Bd -> mu+ mu-)
    5    3.80970928E-09   # BR(Bs -> mu+ mu-)
    6    9.50384554E-05   # BR(B_u -> tau nu)
    7    8.59350741E-01   # BR(B_u -> tau nu)/BR(B_u -> tau nu)_SM
    8    2.73077154E-01   # |Delta(M_Bd)| [ps^-1] 
    9    2.02212472E+01   # |Delta(M_Bs)| [ps^-1] 
   20    6.74343047E-14   # Delta(g-2)_electron/2
   21    1.44565824E-09   # Delta(g-2)_muon/2
   22    1.48099050E-07   # Delta(g-2)_tau/2
   23    0.00000000E+00   # electric dipole moment of the electron
   24    0.00000000E+00   # electric dipole moment of the muon
   25    0.00000000E+00   # electric dipole moment of the tau
   26    0.00000000E+00   # Br(mu -> e gamma)
   27    0.00000000E+00   # Br(tau -> e gamma)
   28    0.00000000E+00   # Br(tau -> mu gamma)
   29    0.00000000E+00   # Br(mu -> 3 e)
   30    0.00000000E+00   # Br(tau -> 3 e)
   31    0.00000000E+00   # Br(tau -> 3 mu)
   39    1.16411889E-03   # Delta(rho_parameter)
   40    0.00000000E+00   # BR(Z -> e mu)
   41    0.00000000E+00   # BR(Z -> e tau)
   42    0.00000000E+00   # BR(Z -> mu tau)
Block FWCOEF Q=  9.11876000E+01  # Wilson coefficients at scale Q
#    id        order  M        value         comment
Block FWCOEF Q=  1.60000000E+02  # Wilson coefficients at scale Q
#    id        order  M        value         comment
     0305 4422   00   0    -1.87761751E-01   # C7
     0305 4422   00   1    -1.92152276E-02   # C7
     0305 4322   00   1    -4.12127423E-04   # C7'
     0305 6421   00   0    -9.48907695E-02   # C8
     0305 6421   00   1    -3.71208959E-02   # C8
     0305 6321   00   1    -7.83523680E-04   # C8'
 03051111 4133   00   0    -8.29759012E-01   # C9 e+e-
 03051111 4133   00   1     2.01199471E-03   # C9 e+e-
 03051111 4233   00   1    -1.25208212E-04   # C9' e+e-
 03051111 4137   00   0    -3.96996940E+00   # C10 e+e-
 03051111 4137   00   1     7.35315576E-03   # C10 e+e-
 03051111 4237   00   1     2.81605622E-03   # C10' e+e-
 03051313 4133   00   0    -8.29759012E-01   # C9 mu+mu-
 03051313 4133   00   1     2.01154459E-03   # C9 mu+mu-
 03051313 4233   00   1    -1.25272376E-04   # C9' mu+mu-
 03051313 4137   00   0    -3.96996940E+00   # C10 mu+mu-
 03051313 4137   00   1     7.35270495E-03   # C10 mu+mu-
 03051313 4237   00   1     2.81612043E-03   # C10' mu+mu-
 03051212 4237   00   0     1.49020824E+00   # C11 nu_1 nu_1
 03051212 4237   00   1    -1.76196850E-03   # C11 nu_1 nu_1
 03051212 4137   00   1    -6.73033677E-04   # C11' nu_1 nu_1
 03051414 4237   00   0     1.49020824E+00   # C11 nu_2 nu_2
 03051414 4237   00   1    -1.76196788E-03   # C11 nu_2 nu_2
 03051414 4137   00   1    -6.73018415E-04   # C11' nu_2 nu_2
 03051616 4237   00   0     1.49020824E+00   # C11 nu_3 nu_3
 03051616 4237   00   1    -1.76153487E-03   # C11 nu_3 nu_3
 03051616 4137   00   1    -6.68716735E-04   # C11' nu_3 nu_3
