#
#                              ======================
#                              | THE SUSYHIT OUTPUT |
#                              ======================
#
#
#              ------------------------------------------------------
#              |     This is the output of the SUSY-HIT package     |
#              |  created by A.Djouadi, M.Muehlleitner and M.Spira. |
#              |  In case of problems with SUSY-HIT email to        |
#              |           margarete.muehlleitner@cern.ch           |
#              |           michael.spira@psi.ch                     |
#              |           abdelhak.djouadi@cern.ch                 |
#              ------------------------------------------------------
#
#              ------------------------------------------------------
#              |  SUSY Les Houches Accord - MSSM Spectrum + Decays  |
#              |              based on the decay programs           |
#              |                                                    |
#              |                     SDECAY 1.3b                    |
#              |                                                    |
#              |  Authors: M.Muhlleitner, A.Djouadi and Y.Mambrini  |
#              |  Ref.:    Comput.Phys.Commun.168(2005)46           |
#              |           [hep-ph/0311167]                         |
#              |                                                    |
#              |                     HDECAY 3.4                     |
#              |                                                    |
#              |  By: A.Djouadi,J.Kalinowski,M.Muhlleitner,M.Spira  |
#              |  Ref.:    Comput.Phys.Commun.108(1998)56           |
#              |           [hep-ph/9704448]                         |
#              |                                                    |
#              |                                                    |
#              |  If not stated otherwise all DRbar couplings and   |
#              |  soft SUSY breaking masses are given at the scale  |
#              |  Q=  0.91187600E+02
#              |                                                    |
#              ------------------------------------------------------
#
#
BLOCK DCINFO  # Decay Program information
     1   SDECAY/HDECAY # decay calculator
     2   1.3b  /3.4    # version number
#
BLOCK SPINFO  # Spectrum calculator information
     1   SuSpect     # RGE +Spectrum calculator            
     2   2.41         # version number                     
#
BLOCK MODSEL  # Model selection
     1     0   # #general MSSM low scale                           
#
BLOCK SMINPUTS  # Standard Model inputs
         1     1.27934000E+02   # alpha_em^-1(M_Z)^MSbar
         2     1.16639000E-05   # G_F [GeV^-2]
         3     1.17200000E-01   # alpha_S(M_Z)^MSbar
         4     9.11870000E+01   # M_Z pole mass
         5     4.25000000E+00   # mb(mb)^MSbar
         6     1.72500000E+02   # mt pole mass
         7     1.77700000E+00   # mtau pole mass
#
BLOCK MINPAR  # Input parameters - minimal models
#
BLOCK EXTPAR  # Input parameters - non-minimal models
         0     9.11876000E+01   # EWSB                
         1     4.00000000E+02   # M_1                 
         2     1.00000000E+05   # M_2                 
         3     1.00000000E+05   # M_3                 
        11     0.00000000E+00   # A_t                 
        12     0.00000000E+00   # A_b                 
        13     0.00000000E+00   # A_tau               
        14     0.00000000E+00   # A_u                 
        15     0.00000000E+00   # A_d                 
        16     0.00000000E+00   # A_e                 
        23     3.50000000E+03   # mu(EWSB)            
        25     1.50000000E+00   # tanbeta(in)         
        26     2.00000000E+03   # MA_pole             
        31     1.00000000E+05   # M_eL                
        32     1.00000000E+05   # M_muL               
        33     1.00000000E+05   # M_tauL              
        34     1.00000000E+05   # M_eR                
        35     1.00000000E+05   # M_muR               
        36     1.00000000E+05   # M_tauR              
        41     2.00000000E+03   # M_q1L               
        42     2.00000000E+03   # M_q2L               
        43     2.00000000E+03   # M_q3L               
        44     1.00000000E+05   # M_uR                
        45     1.00000000E+05   # M_cR                
        46     1.00000000E+05   # M_tR                
        47     2.00000000E+03   # M_dR                
        48     2.00000000E+03   # M_sR                
        49     2.00000000E+03   # M_bR                
#
BLOCK MASS  # Mass Spectrum
# PDG code           mass       particle
        24     8.05846224E+01   # W+
        25     1.25000000E+02   # h
        35     2.00405519E+03   # H
        36     2.00000000E+03   # A
        37     2.02368871E+03   # H+
         5     4.87877839E+00   # b-quark pole mass calculated from mb(mb)_Msbar
   1000001     2.00033147E+03   # ~d_L
   2000001     2.00006396E+03   # ~d_R
   1000002     1.99973244E+03   # ~u_L
   2000002     9.99999974E+04   # ~u_R
   1000003     2.00033147E+03   # ~s_L
   2000003     2.00006396E+03   # ~s_R
   1000004     1.99973244E+03   # ~c_L
   2000004     9.99999974E+04   # ~c_R
   1000005     1.99679882E+03   # ~b_1
   2000005     2.00359420E+03   # ~b_2
   1000006     2.00516194E+03   # ~t_1
   2000006     1.00000106E+05   # ~t_2
   1000011     1.00000004E+05   # ~e_L
   2000011     1.00000004E+05   # ~e_R
   1000012     9.99999921E+04   # ~nu_eL
   1000013     1.00000004E+05   # ~mu_L
   2000013     1.00000004E+05   # ~mu_R
   1000014     9.99999921E+04   # ~nu_muL
   1000015     9.99999574E+04   # ~tau_1
   2000015     1.00000051E+05   # ~tau_2
   1000016     9.99999921E+04   # ~nu_tauL
   1000021     1.00000000E+05   # ~g
   1000022     3.99400800E+02   # ~chi_10
   1000023    -3.50002200E+03   # ~chi_20
   1000025     3.50055681E+03   # ~chi_30
   1000035     1.00000064E+05   # ~chi_40
   1000024     3.49994024E+03   # ~chi_1+
   1000037     1.00000064E+05   # ~chi_2+
   1000039     1.00000000E-09   # ~gravitino
#
BLOCK NMIX  # Neutralino Mixing Matrix
  1  1     9.99897689E-01   # N_11
  1  2    -1.06284423E-05   # N_12
  1  3     1.15776641E-02   # N_13
  1  4    -8.40053972E-03   # N_14
  2  1     2.24656580E-03   # N_21
  2  2    -1.49571945E-04   # N_22
  2  3    -7.07093878E-01   # N_23
  2  4    -7.07116099E-01   # N_24
  3  1     1.41267260E-02   # N_31
  3  2     8.01974931E-04   # N_32
  3  3    -7.07024746E-01   # N_33
  3  4     7.07047241E-01   # N_34
  4  1     3.65902922E-07   # N_41
  4  2    -9.99999667E-01   # N_42
  4  3    -4.61377921E-04   # N_43
  4  4     6.72888400E-04   # N_44
#
BLOCK UMIX  # Chargino Mixing Matrix U
  1  1    -6.52486708E-04   # U_11
  1  2     9.99999787E-01   # U_12
  2  1     9.99999787E-01   # U_21
  2  2     6.52486708E-04   # U_22
#
BLOCK VMIX  # Chargino Mixing Matrix V
  1  1    -9.51607815E-04   # V_11
  1  2     9.99999547E-01   # V_12
  2  1     9.99999547E-01   # V_21
  2  2     9.51607815E-04   # V_22
#
BLOCK STOPMIX  # Stop Mixing Matrix
  1  1     9.99999999E-01   # cos(theta_t)
  1  2     4.47213589E-05   # sin(theta_t)
  2  1    -4.47213589E-05   # -sin(theta_t)
  2  2     9.99999999E-01   # cos(theta_t)
#
BLOCK SBOTMIX  # Sbottom Mixing Matrix
  1  1     6.93048789E-01   # cos(theta_b)
  1  2     7.20890682E-01   # sin(theta_b)
  2  1    -7.20890682E-01   # -sin(theta_b)
  2  2     6.93048789E-01   # cos(theta_b)
#
BLOCK STAUMIX  # Stau Mixing Matrix
  1  1     7.06218537E-01   # cos(theta_tau)
  1  2     7.07993911E-01   # sin(theta_tau)
  2  1    -7.07993911E-01   # -sin(theta_tau)
  2  2     7.06218537E-01   # cos(theta_tau)
#
BLOCK ALPHA  # Higgs mixing
          -5.90341225E-01   # Mixing angle in the neutral Higgs boson sector
#
BLOCK HMIX Q=  9.11876000E+01  # DRbar Higgs Parameters
         1     3.50000000E+03   # mu(Q)               
         2     1.49999982E+00   # tanbeta(Q)          
         3     2.54863624E+02   # vev(Q)              
         4    -6.80731928E+07   # MA^2(Q)             
#
BLOCK GAUGE Q=  9.11876000E+01  # The gauge couplings
     1     3.50559799E-01   # gprime(Q) DRbar
     2     6.19393289E-01   # g(Q) DRbar
     3     1.02218782E+00   # g3(Q) DRbar
#
BLOCK AU Q=  9.11876000E+01  # The trilinear couplings
  1  1     0.00000000E+00   # A_u(Q) DRbar
  2  2     0.00000000E+00   # A_c(Q) DRbar
  3  3     0.00000000E+00   # A_t(Q) DRbar
#
BLOCK AD Q=  9.11876000E+01  # The trilinear couplings
  1  1     0.00000000E+00   # A_d(Q) DRbar
  2  2     0.00000000E+00   # A_s(Q) DRbar
  3  3     0.00000000E+00   # A_b(Q) DRbar
#
BLOCK AE Q=  9.11876000E+01  # The trilinear couplings
  1  1     0.00000000E+00   # A_e(Q) DRbar
  2  2     0.00000000E+00   # A_mu(Q) DRbar
  3  3     0.00000000E+00   # A_tau(Q) DRbar
#
BLOCK Yu Q=  9.11876000E+01  # The Yukawa couplings
  1  1     0.00000000E+00   # y_u(Q) DRbar
  2  2     0.00000000E+00   # y_c(Q) DRbar
  3  3     9.83674338E-01   # y_t(Q) DRbar
#
BLOCK Yd Q=  9.11876000E+01  # The Yukawa couplings
  1  1     0.00000000E+00   # y_d(Q) DRbar
  2  2     0.00000000E+00   # y_s(Q) DRbar
  3  3     2.58785097E-02   # y_b(Q) DRbar
#
BLOCK Ye Q=  9.11876000E+01  # The Yukawa couplings
  1  1     0.00000000E+00   # y_e(Q) DRbar
  2  2     0.00000000E+00   # y_mu(Q) DRbar
  3  3     1.77407582E-02   # y_tau(Q) DRbar
#
BLOCK MSOFT Q=  9.11876000E+01  # The soft SUSY breaking masses at the scale Q
         1     4.00000000E+02   # M_1                 
         2     1.00000000E+05   # M_2                 
         3     1.00000000E+05   # M_3                 
        14     0.00000000E+00   # A_u                 
        15     0.00000000E+00   # A_d                 
        16     0.00000000E+00   # A_e                 
        21     6.30059801E+08   # M^2_Hd              
        22    -1.15107834E+09   # M^2_Hu              
        31     1.00000000E+05   # M_eL                
        32     1.00000000E+05   # M_muL               
        33     1.00000000E+05   # M_tauL              
        34     1.00000000E+05   # M_eR                
        35     1.00000000E+05   # M_muR               
        36     1.00000000E+05   # M_tauR              
        41     2.00000000E+03   # M_q1L               
        42     2.00000000E+03   # M_q2L               
        43     2.00000000E+03   # M_q3L               
        44     1.00000000E+05   # M_uR                
        45     1.00000000E+05   # M_cR                
        46     1.00000000E+05   # M_tR                
        47     2.00000000E+03   # M_dR                
        48     2.00000000E+03   # M_sR                
        49     2.00000000E+03   # M_bR                
#
#
#
#                             =================
#                             |The decay table|
#                             =================
#
# - The QCD corrections to the decays gluino -> squark  + quark
#                                     squark -> gaugino + quark_prime
#                                     squark -> squark_prime + Higgs
#                                     squark -> gluino  + quark
#   are included.
#
# - The multi-body decays for the inos, stops and sbottoms are included.
#
# - The loop induced decays for the gluino, neutralinos and stops
#   are included.
#
# - The SUSY decays of the top quark are included.
#
# - Possible decays of the NLSP in GMSB models are included.
#
#
#         PDG            Width
DECAY         6     1.32408130E+00   # top decays
#          BR         NDA      ID1       ID2
     1.00000000E+00    2           5        24   # BR(t ->  b    W+)
#
#         PDG            Width
DECAY   1000021     1.E-04   # gluino decays (OJ Mods)
#          BR         NDA      ID1       ID2
     3.58081454E-04    2     1000001        -1   # BR(~g -> ~d_L  db)
     3.58081454E-04    2    -1000001         1   # BR(~g -> ~d_L* d )
     3.58081531E-04    2     2000001        -1   # BR(~g -> ~d_R  db)
     3.58081531E-04    2    -2000001         1   # BR(~g -> ~d_R* d )
     3.58081626E-04    2     1000002        -2   # BR(~g -> ~u_L  ub)
     3.58081626E-04    2    -1000002         2   # BR(~g -> ~u_L* u )
     9.69027554E-19    2     2000002        -2   # BR(~g -> ~u_R  ub)
     9.69027554E-19    2    -2000002         2   # BR(~g -> ~u_R* u )
     3.58081454E-04    2     1000003        -3   # BR(~g -> ~s_L  sb)
     3.58081454E-04    2    -1000003         3   # BR(~g -> ~s_L* s )
     3.58081531E-04    2     2000003        -3   # BR(~g -> ~s_R  sb)
     3.58081531E-04    2    -2000003         3   # BR(~g -> ~s_R* s )
     3.58081626E-04    2     1000004        -4   # BR(~g -> ~c_L  cb)
     3.58081626E-04    2    -1000004         4   # BR(~g -> ~c_L* c )
     9.69027554E-19    2     2000004        -4   # BR(~g -> ~c_R  cb)
     9.69027554E-19    2    -2000004         4   # BR(~g -> ~c_R* c )
     2.46235179E-01    2     1000005        -5   # BR(~g -> ~b_1  bb)
     2.46235179E-01    2    -1000005         5   # BR(~g -> ~b_1* b )
     2.46233881E-01    2     2000005        -5   # BR(~g -> ~b_2  bb)
     2.46233881E-01    2    -2000005         5   # BR(~g -> ~b_2* b )
     3.52430945E-04    2     1000006        -6   # BR(~g -> ~t_1  tb)
     3.52430945E-04    2    -1000006         6   # BR(~g -> ~t_1* t )
     1.00600406E-02    2     1000039        21   # BR(~g -> ~G g)
#
#         PDG            Width
DECAY   1000006     2.95104315E-01   # stop1 decays
#          BR         NDA      ID1       ID2
     1.00000000E+00    2     1000022         6   # BR(~t_1 -> ~chi_10 t )
#
#         PDG            Width
DECAY   2000006     5.21228025E+05   # stop2 decays
#          BR         NDA      ID1       ID2
     3.99942239E-04    2     1000022         6   # BR(~t_2 -> ~chi_10 t )
     9.62808507E-04    2     1000023         6   # BR(~t_2 -> ~chi_20 t )
     9.62683712E-04    2     1000025         6   # BR(~t_2 -> ~chi_30 t )
     9.97707100E-01    2     1000024         5   # BR(~t_2 -> ~chi_1+ b )
    -2.59713495E-05    2     1000006        25   # BR(~t_2 -> ~t_1    h )
     2.72070616E-05    2     1000006        35   # BR(~t_2 -> ~t_1    H )
     2.71586436E-05    2     1000006        36   # BR(~t_2 -> ~t_1    A )
     2.55870382E-05    2     1000005        37   # BR(~t_2 -> ~b_1    H+)
     2.87289810E-05    2     2000005        37   # BR(~t_2 -> ~b_2    H+)
    -1.84538044E-05    2     1000006        23   # BR(~t_2 -> ~t_1    Z )
    -4.64911340E-05    2     1000005        24   # BR(~t_2 -> ~b_1    W+)
    -5.02994546E-05    2     2000005        24   # BR(~t_2 -> ~b_2    W+)
#
#         PDG            Width
DECAY   1000005     1.75145604E+02   # sbottom1 decays
#          BR         NDA      ID1       ID2
     1.00000000E+00    2     1000022         5   # BR(~b_1 -> ~chi_10 b )
#
#         PDG            Width
DECAY   2000005     1.66046267E+02   # sbottom2 decays
#          BR         NDA      ID1       ID2
     1.00000000E+00    2     1000022         5   # BR(~b_2 -> ~chi_10 b )
#
#         PDG            Width
DECAY   1000002     2.97538789E-01   # sup_L decays
#          BR         NDA      ID1       ID2
     1.00000000E+00    2     1000022         2   # BR(~u_L -> ~chi_10 u)
#
#         PDG            Width
DECAY   2000002     2.08403299E+02   # sup_R decays
#          BR         NDA      ID1       ID2
     9.99795619E-01    2     1000022         2   # BR(~u_R -> ~chi_10 u)
     5.04138689E-06    2     1000023         2   # BR(~u_R -> ~chi_20 u)
     1.99340057E-04    2     1000025         2   # BR(~u_R -> ~chi_30 u)
#
#         PDG            Width
DECAY   1000001     2.97704821E-01   # sdown_L decays
#          BR         NDA      ID1       ID2
     1.00000000E+00    2     1000022         1   # BR(~d_L -> ~chi_10 d)
#
#         PDG            Width
DECAY   2000001     1.19050834E+00   # sdown_R decays
#          BR         NDA      ID1       ID2
     1.00000000E+00    2     1000022         1   # BR(~d_R -> ~chi_10 d)
#
#         PDG            Width
DECAY   1000004     2.97538789E-01   # scharm_L decays
#          BR         NDA      ID1       ID2
     1.00000000E+00    2     1000022         4   # BR(~c_L -> ~chi_10 c)
#
#         PDG            Width
DECAY   2000004     2.08403299E+02   # scharm_R decays
#          BR         NDA      ID1       ID2
     9.99795619E-01    2     1000022         4   # BR(~c_R -> ~chi_10 c)
     5.04138689E-06    2     1000023         4   # BR(~c_R -> ~chi_20 c)
     1.99340057E-04    2     1000025         4   # BR(~c_R -> ~chi_30 c)
#
#         PDG            Width
DECAY   1000003     2.97704821E-01   # sstrange_L decays
#          BR         NDA      ID1       ID2
     1.00000000E+00    2     1000022         3   # BR(~s_L -> ~chi_10 s)
#
#         PDG            Width
DECAY   2000003     1.19050834E+00   # sstrange_R decays
#          BR         NDA      ID1       ID2
     1.00000000E+00    2     1000022         3   # BR(~s_R -> ~chi_10 s)
#
#         PDG            Width
DECAY   1000011     1.22239873E+02   # selectron_L decays
#          BR         NDA      ID1       ID2
     9.99752407E-01    2     1000022        11   # BR(~e_L -> ~chi_10 e-)
     3.91996290E-06    2     1000023        11   # BR(~e_L -> ~chi_20 e-)
     2.41021562E-04    2     1000025        11   # BR(~e_L -> ~chi_30 e-)
     2.65172793E-06    2    -1000024        12   # BR(~e_L -> ~chi_1- nu_e)
#
#         PDG            Width
DECAY   2000011     4.88956596E+02   # selectron_R decays
#          BR         NDA      ID1       ID2
     9.99795883E-01    2     1000022        11   # BR(~e_R -> ~chi_10 e-)
     5.03486314E-06    2     1000023        11   # BR(~e_R -> ~chi_20 e-)
     1.99082049E-04    2     1000025        11   # BR(~e_R -> ~chi_30 e-)
#
#         PDG            Width
DECAY   1000013     1.22239873E+02   # smuon_L decays
#          BR         NDA      ID1       ID2
     9.99752407E-01    2     1000022        13   # BR(~mu_L -> ~chi_10 mu-)
     3.91996290E-06    2     1000023        13   # BR(~mu_L -> ~chi_20 mu-)
     2.41021562E-04    2     1000025        13   # BR(~mu_L -> ~chi_30 mu-)
     2.65172793E-06    2    -1000024        14   # BR(~mu_L -> ~chi_1- nu_mu)
#
#         PDG            Width
DECAY   2000013     4.88956596E+02   # smuon_R decays
#          BR         NDA      ID1       ID2
     9.99795883E-01    2     1000022        13   # BR(~mu_R -> ~chi_10 mu-)
     5.03486314E-06    2     1000023        13   # BR(~mu_R -> ~chi_20 mu-)
     1.99082049E-04    2     1000025        13   # BR(~mu_R -> ~chi_30 mu-)
#
#         PDG            Width
DECAY   1000015     1.18199376E+04   # stau_1 decays
#          BR         NDA      ID1       ID2
     2.58964763E-02    2     1000022        15   # BR(~tau_1 -> ~chi_10  tau-)
     2.52347268E-05    2     1000023        15   # BR(~tau_1 -> ~chi_20  tau-)
     2.51520184E-05    2     1000025        15   # BR(~tau_1 -> ~chi_30  tau-)
     2.77057455E-05    2    -1000024        16   # BR(~tau_1 -> ~chi_1-  nu_tau)
     9.74025431E-01    2     1000039        15   # BR(~tau_1 -> ~G       tau-)
#
#         PDG            Width
DECAY   2000015     3.06052520E+02   # stau_2 decays
#          BR         NDA      ID1       ID2
     9.96468948E-01    2     1000022        15   # BR(~tau_2 -> ~chi_10  tau-)
     1.07581724E-03    2     1000023        15   # BR(~tau_2 -> ~chi_20  tau-)
     1.48332648E-03    2     1000025        15   # BR(~tau_2 -> ~chi_30  tau-)
     9.71908494E-04    2    -1000024        16   # BR(~tau_2 -> ~chi_1-  nu_tau)
#
#         PDG            Width
DECAY   1000012     1.22239931E+02   # snu_eL decays
#          BR         NDA      ID1       ID2
     9.99826925E-01    2     1000022        12   # BR(~nu_eL -> ~chi_10 nu_e)
     6.28904325E-06    2     1000023        12   # BR(~nu_eL -> ~chi_20 nu_e)
     1.61146043E-04    2     1000025        12   # BR(~nu_eL -> ~chi_30 nu_e)
     5.64028915E-06    2     1000024        11   # BR(~nu_eL -> ~chi_1+ e-)
#
#         PDG            Width
DECAY   1000014     1.22239931E+02   # snu_muL decays
#          BR         NDA      ID1       ID2
     9.99826925E-01    2     1000022        14   # BR(~nu_muL -> ~chi_10 nu_mu)
     6.28904325E-06    2     1000023        14   # BR(~nu_muL -> ~chi_20 nu_mu)
     1.61146043E-04    2     1000025        14   # BR(~nu_muL -> ~chi_30 nu_mu)
     5.64028915E-06    2     1000024        13   # BR(~nu_muL -> ~chi_1+ mu-)
#
#         PDG            Width
DECAY   1000016     1.22864542E+02   # snu_tauL decays
#          BR         NDA      ID1       ID2
     9.94744068E-01    2     1000022        16   # BR(~nu_tauL -> ~chi_10 nu_tau)
     6.25707141E-06    2     1000023        16   # BR(~nu_tauL -> ~chi_20 nu_tau)
     1.60326819E-04    2     1000025        16   # BR(~nu_tauL -> ~chi_30 nu_tau)
     5.08934820E-03    2     1000024        15   # BR(~nu_tauL -> ~chi_1+ tau-)
#
#         PDG            Width
DECAY   1000024     5.13690980E+01   # chargino1+ decays
#          BR         NDA      ID1       ID2
     3.86529602E-07    2     1000002        -1   # BR(~chi_1+ -> ~u_L     db)
     1.81623393E-07    2    -1000001         2   # BR(~chi_1+ -> ~d_L*    u )
     3.86529602E-07    2     1000004        -3   # BR(~chi_1+ -> ~c_L     sb)
     1.81623393E-07    2    -1000003         4   # BR(~chi_1+ -> ~s_L*    c )
     1.67584603E-01    2     1000006        -5   # BR(~chi_1+ -> ~t_1     bb)
     8.46862524E-02    2    -1000005         6   # BR(~chi_1+ -> ~b_1*    t )
     6.87040714E-01    2    -2000005         6   # BR(~chi_1+ -> ~b_2*    t )
     4.82251615E-02    2     1000022        24   # BR(~chi_1+ -> ~chi_10  W+)
     1.24551033E-02    2     1000022        37   # BR(~chi_1+ -> ~chi_10  H+)
     5.87314979E-06    2     1000039        24   # BR(~chi_1+ -> ~G       W+)
     1.15560314E-06    2     1000039        37   # BR(~chi_1+ -> ~G       H+)
#
#         PDG            Width
DECAY   1000037     3.17652982E+05   # chargino2+ decays
#          BR         NDA      ID1       ID2
     3.33474904E-03    2     1000002        -1   # BR(~chi_2+ -> ~u_L     db)
     3.33474990E-03    2    -1000001         2   # BR(~chi_2+ -> ~d_L*    u )
     3.33474904E-03    2     1000004        -3   # BR(~chi_2+ -> ~c_L     sb)
     3.33474990E-03    2    -1000003         4   # BR(~chi_2+ -> ~s_L*    c )
     9.43213089E-01    2     1000006        -5   # BR(~chi_2+ -> ~t_1     bb)
     7.36810480E-04    2    -1000005         6   # BR(~chi_2+ -> ~b_1*    t )
     3.15614321E-03    2    -2000005         6   # BR(~chi_2+ -> ~b_2*    t )
     2.39736988E-15    2     1000012       -11   # BR(~chi_2+ -> ~nu_eL   e+  )
     2.39736988E-15    2     1000014       -13   # BR(~chi_2+ -> ~nu_muL  mu+ )
     1.66947540E-15    2    -1000011        12   # BR(~chi_2+ -> ~e_L+    nu_e)
     1.66947540E-15    2    -1000013        14   # BR(~chi_2+ -> ~mu_L+   nu_mu)
     2.62817139E-15    2    -1000015        16   # BR(~chi_2+ -> ~tau_1+  nu_tau)
     3.92861680E-17    2    -2000015        16   # BR(~chi_2+ -> ~tau_2+  nu_tau)
     6.10452071E-04    2     1000024        23   # BR(~chi_2+ -> ~chi_1+  Z )
     9.40968749E-08    2     1000022        24   # BR(~chi_2+ -> ~chi_10  W+)
     5.92017865E-04    2     1000023        24   # BR(~chi_2+ -> ~chi_20  W+)
     5.91917392E-04    2     1000025        24   # BR(~chi_2+ -> ~chi_30  W+)
     6.17158233E-04    2     1000024        25   # BR(~chi_2+ -> ~chi_1+  h )
     5.41746108E-04    2     1000024        35   # BR(~chi_2+ -> ~chi_1+  H )
     5.41819168E-04    2     1000024        36   # BR(~chi_2+ -> ~chi_1+  A )
     1.24853938E-07    2     1000022        37   # BR(~chi_2+ -> ~chi_10  H+)
     5.41799094E-04    2     1000023        37   # BR(~chi_2+ -> ~chi_20  H+)
     5.41694422E-04    2     1000025        37   # BR(~chi_2+ -> ~chi_30  H+)
     3.49761261E-02    2     1000039        24   # BR(~chi_2+ -> ~G       W+)
     1.00108372E-08    2     1000039        37   # BR(~chi_2+ -> ~G       H+)
#
#         PDG            Width
DECAY   1000022     1.E-08   # neutralino1 decays (OJ Mods)
#          BR         NDA      ID1       ID2
     7.94477480E-01    2     1000039        22   # BR(~chi_10 -> ~G        gam)
     2.05522421E-01    2     1000039        23   # BR(~chi_10 -> ~G        Z)
     9.90864112E-08    2     1000039        25   # BR(~chi_10 -> ~G        h)
#
#         PDG            Width
DECAY   1000023     1.E-08   # neutralino2 decays (OJ Mods)
#          BR         NDA      ID1       ID2
     4.15149348E-02    2     1000022        23   # BR(~chi_20 -> ~chi_10   Z )
     1.03461661E-03    2     1000022        25   # BR(~chi_20 -> ~chi_10   h )
     1.01262772E-02    2     1000022        35   # BR(~chi_20 -> ~chi_10   H )
     8.11454666E-04    2     1000022        36   # BR(~chi_20 -> ~chi_10   A )
     1.60921732E-08    2     1000002        -2   # BR(~chi_20 -> ~u_L      ub)
     1.60921732E-08    2    -1000002         2   # BR(~chi_20 -> ~u_L*     u )
     7.03044671E-08    2     1000001        -1   # BR(~chi_20 -> ~d_L      db)
     7.03044671E-08    2    -1000001         1   # BR(~chi_20 -> ~d_L*     d )
     1.53677729E-07    2     2000001        -1   # BR(~chi_20 -> ~d_R      db)
     1.53677729E-07    2    -2000001         1   # BR(~chi_20 -> ~d_R*     d )
     1.60921732E-08    2     1000004        -4   # BR(~chi_20 -> ~c_L      cb)
     1.60921732E-08    2    -1000004         4   # BR(~chi_20 -> ~c_L*     c )
     7.03044671E-08    2     1000003        -3   # BR(~chi_20 -> ~s_L      sb)
     7.03044671E-08    2    -1000003         3   # BR(~chi_20 -> ~s_L*     s )
     1.53677729E-07    2     2000003        -3   # BR(~chi_20 -> ~s_R      sb)
     1.53677729E-07    2    -2000003         3   # BR(~chi_20 -> ~s_R*     s )
     3.29520456E-01    2     1000006        -6   # BR(~chi_20 -> ~t_1      tb)
     3.29520456E-01    2    -1000006         6   # BR(~chi_20 -> ~t_1*     t )
     6.93548554E-02    2     1000005        -5   # BR(~chi_20 -> ~b_1      bb)
     6.93548554E-02    2    -1000005         5   # BR(~chi_20 -> ~b_1*     b )
     7.43776101E-02    2     2000005        -5   # BR(~chi_20 -> ~b_2      bb)
     7.43776101E-02    2    -2000005         5   # BR(~chi_20 -> ~b_2*     b )
     3.56710564E-11    2     1000039        22   # BR(~chi_20 -> ~G        gam)
     1.93302856E-07    2     1000039        23   # BR(~chi_20 -> ~G        Z)
     4.82441445E-06    2     1000039        25   # BR(~chi_20 -> ~G        h)
     3.86266607E-08    2     1000039        35   # BR(~chi_20 -> ~G        H)
     9.96631490E-07    2     1000039        36   # BR(~chi_20 -> ~G        A)
#
#         PDG            Width
DECAY   1000025     6.01941219E+01   # neutralino3 decays
#          BR         NDA      ID1       ID2
     1.04778338E-03    2     1000022        23   # BR(~chi_30 -> ~chi_10   Z )
     4.17800992E-02    2     1000022        25   # BR(~chi_30 -> ~chi_10   h )
     7.87223700E-04    2     1000022        35   # BR(~chi_30 -> ~chi_10   H )
     1.01377670E-02    2     1000022        36   # BR(~chi_30 -> ~chi_10   A )
     2.56484521E-06    2     1000002        -2   # BR(~chi_30 -> ~u_L      ub)
     2.56484521E-06    2    -1000002         2   # BR(~chi_30 -> ~u_L*     u )
     7.40275828E-07    2     1000001        -1   # BR(~chi_30 -> ~d_L      db)
     7.40275828E-07    2    -1000001         1   # BR(~chi_30 -> ~d_L*     d )
     6.06033294E-06    2     2000001        -1   # BR(~chi_30 -> ~d_R      db)
     6.06033294E-06    2    -2000001         1   # BR(~chi_30 -> ~d_R*     d )
     2.56484521E-06    2     1000004        -4   # BR(~chi_30 -> ~c_L      cb)
     2.56484521E-06    2    -1000004         4   # BR(~chi_30 -> ~c_L*     c )
     7.40275828E-07    2     1000003        -3   # BR(~chi_30 -> ~s_L      sb)
     7.40275828E-07    2    -1000003         3   # BR(~chi_30 -> ~s_L*     s )
     6.06033294E-06    2     2000003        -3   # BR(~chi_30 -> ~s_R      sb)
     6.06033294E-06    2    -2000003         3   # BR(~chi_30 -> ~s_R*     s )
     3.28692640E-01    2     1000006        -6   # BR(~chi_30 -> ~t_1      tb)
     3.28692640E-01    2    -1000006         6   # BR(~chi_30 -> ~t_1*     t )
     6.04047620E-02    2     1000005        -5   # BR(~chi_30 -> ~b_1      bb)
     6.04047620E-02    2    -1000005         5   # BR(~chi_30 -> ~b_1*     b )
     8.40071468E-02    2     2000005        -5   # BR(~chi_30 -> ~b_2      bb)
     8.40071468E-02    2    -2000005         5   # BR(~chi_30 -> ~b_2*     b )
     1.61877510E-09    2     1000039        22   # BR(~chi_30 -> ~G        gam)
     4.81974489E-06    2     1000039        23   # BR(~chi_30 -> ~G        Z)
     1.87870998E-07    2     1000039        25   # BR(~chi_30 -> ~G        h)
     9.87835648E-07    2     1000039        35   # BR(~chi_30 -> ~G        H)
     3.97827742E-08    2     1000039        36   # BR(~chi_30 -> ~G        A)
#
#         PDG            Width
DECAY   1000035     3.17654338E+05   # neutralino4 decays
#          BR         NDA      ID1       ID2
     8.89927747E-11    2     1000022        23   # BR(~chi_40 -> ~chi_10   Z )
     5.89937101E-04    2     1000023        23   # BR(~chi_40 -> ~chi_20   Z )
     2.05128437E-05    2     1000025        23   # BR(~chi_40 -> ~chi_30   Z )
     5.92011707E-04    2     1000024       -24   # BR(~chi_40 -> ~chi_1+   W-)
     5.92011707E-04    2    -1000024        24   # BR(~chi_40 -> ~chi_1-   W+)
     9.81667986E-08    2     1000022        25   # BR(~chi_40 -> ~chi_10   h )
     1.42310835E-08    2     1000022        35   # BR(~chi_40 -> ~chi_10   H )
     1.10449252E-07    2     1000022        36   # BR(~chi_40 -> ~chi_10   A )
     2.02570837E-05    2     1000023        25   # BR(~chi_40 -> ~chi_20   h )
     5.18455952E-04    2     1000023        35   # BR(~chi_40 -> ~chi_20   H )
     2.38319351E-05    2     1000023        36   # BR(~chi_40 -> ~chi_20   A )
     5.96801071E-04    2     1000025        25   # BR(~chi_40 -> ~chi_30   h )
     2.32730243E-05    2     1000025        35   # BR(~chi_40 -> ~chi_30   H )
     5.17874541E-04    2     1000025        36   # BR(~chi_40 -> ~chi_30   A )
     5.41807292E-04    2     1000024       -37   # BR(~chi_40 -> ~chi_1+   H-)
     5.41807292E-04    2    -1000024        37   # BR(~chi_40 -> ~chi_1-   H+)
     1.59709389E-03    2     1000002        -2   # BR(~chi_40 -> ~u_L      ub)
     1.59709389E-03    2    -1000002         2   # BR(~chi_40 -> ~u_L*     u )
     2.49299607E-23    2     2000002        -2   # BR(~chi_40 -> ~u_R      ub)
     2.49299607E-23    2    -2000002         2   # BR(~chi_40 -> ~u_R*     u )
     1.59709442E-03    2     1000001        -1   # BR(~chi_40 -> ~d_L      db)
     1.59709442E-03    2    -1000001         1   # BR(~chi_40 -> ~d_L*     d )
     3.04418667E-17    2     2000001        -1   # BR(~chi_40 -> ~d_R      db)
     3.04418667E-17    2    -2000001         1   # BR(~chi_40 -> ~d_R*     d )
     1.59709389E-03    2     1000004        -4   # BR(~chi_40 -> ~c_L      cb)
     1.59709389E-03    2    -1000004         4   # BR(~chi_40 -> ~c_L*     c )
     2.49299607E-23    2     2000004        -4   # BR(~chi_40 -> ~c_R      cb)
     2.49299607E-23    2    -2000004         4   # BR(~chi_40 -> ~c_R*     c )
     1.59709442E-03    2     1000003        -3   # BR(~chi_40 -> ~s_L      sb)
     1.59709442E-03    2    -1000003         3   # BR(~chi_40 -> ~s_L*     s )
     3.04418667E-17    2     2000003        -3   # BR(~chi_40 -> ~s_R      sb)
     3.04418667E-17    2    -2000003         3   # BR(~chi_40 -> ~s_R*     s )
     1.94646743E-03    2     1000006        -6   # BR(~chi_40 -> ~t_1      tb)
     1.94646743E-03    2    -1000006         6   # BR(~chi_40 -> ~t_1*     t )
     2.25941842E-01    2     1000005        -5   # BR(~chi_40 -> ~b_1      bb)
     2.25941842E-01    2    -1000005         5   # BR(~chi_40 -> ~b_1*     b )
     2.45664821E-01    2     2000005        -5   # BR(~chi_40 -> ~b_2      bb)
     2.45664821E-01    2    -2000005         5   # BR(~chi_40 -> ~b_2*     b )
     8.34733718E-16    2     1000011       -11   # BR(~chi_40 -> ~e_L-     e+)
     8.34733718E-16    2    -1000011        11   # BR(~chi_40 -> ~e_L+     e-)
     1.43196171E-28    2     2000011       -11   # BR(~chi_40 -> ~e_R-     e+)
     1.43196171E-28    2    -2000011        11   # BR(~chi_40 -> ~e_R+     e-)
     8.34733718E-16    2     1000013       -13   # BR(~chi_40 -> ~mu_L-    mu+)
     8.34733718E-16    2    -1000013        13   # BR(~chi_40 -> ~mu_L+    mu-)
     1.43196171E-28    2     2000013       -13   # BR(~chi_40 -> ~mu_R-    mu+)
     1.43196171E-28    2    -2000013        13   # BR(~chi_40 -> ~mu_R+    mu-)
     1.19868079E-15    2     1000012       -12   # BR(~chi_40 -> ~nu_eL    nu_eb)
     1.19868079E-15    2    -1000012        12   # BR(~chi_40 -> ~nu_eL*   nu_e )
     1.19868079E-15    2     1000014       -14   # BR(~chi_40 -> ~nu_muL   nu_mub)
     1.19868079E-15    2    -1000014        14   # BR(~chi_40 -> ~nu_muL*  nu_mu )
     1.19868079E-15    2     1000016       -16   # BR(~chi_40 -> ~nu_tau1  nu_taub)
     1.19868079E-15    2    -1000016        16   # BR(~chi_40 -> ~nu_tau1* nu_tau )
     8.48556104E-03    2     1000039        22   # BR(~chi_40 -> ~G        gam)
     2.64904184E-02    2     1000039        23   # BR(~chi_40 -> ~G        Z)
     1.59686125E-09    2     1000039        25   # BR(~chi_40 -> ~G        h)
     1.00278882E-08    2     1000039        35   # BR(~chi_40 -> ~G        H)
     1.97600257E-12    2     1000039        36   # BR(~chi_40 -> ~G        A)
#
#
#
#
