#
#                              ======================
#                              | THE SUSYHIT OUTPUT |
#                              ======================
#
#
#              ------------------------------------------------------
#              |     This is the output of the SUSY-HIT package     |
#              |  created by A.Djouadi, M.Muehlleitner and M.Spira. |
#              |  In case of problems with SUSY-HIT email to        |
#              |           margarete.muehlleitner@cern.ch           |
#              |           michael.spira@psi.ch                     |
#              |           abdelhak.djouadi@cern.ch                 |
#              ------------------------------------------------------
#
#              ------------------------------------------------------
#              |  SUSY Les Houches Accord - MSSM Spectrum + Decays  |
#              |              based on the decay programs           |
#              |                                                    |
#              |                     SDECAY 1.3b                    |
#              |                                                    |
#              |  Authors: M.Muhlleitner, A.Djouadi and Y.Mambrini  |
#              |  Ref.:    Comput.Phys.Commun.168(2005)46           |
#              |           [hep-ph/0311167]                         |
#              |                                                    |
#              |                     HDECAY 3.4                     |
#              |                                                    |
#              |  By: A.Djouadi,J.Kalinowski,M.Muhlleitner,M.Spira  |
#              |  Ref.:    Comput.Phys.Commun.108(1998)56           |
#              |           [hep-ph/9704448]                         |
#              |                                                    |
#              |                                                    |
#              |  If not stated otherwise all DRbar couplings and   |
#              |  soft SUSY breaking masses are given at the scale  |
#              |  Q=  0.91187600E+02
#              |                                                    |
#              ------------------------------------------------------
#
#
BLOCK DCINFO  # Decay Program information
     1   SDECAY/HDECAY # decay calculator
     2   1.3b  /3.4    # version number
#
BLOCK SPINFO  # Spectrum calculator information
     1   SuSpect     # RGE +Spectrum calculator            
     2   2.41         # version number                     
#
BLOCK MODSEL  # Model selection
     1     0   # #general MSSM low scale                           
#
BLOCK SMINPUTS  # Standard Model inputs
         1     1.27934000E+02   # alpha_em^-1(M_Z)^MSbar
         2     1.16639000E-05   # G_F [GeV^-2]
         3     1.17200000E-01   # alpha_S(M_Z)^MSbar
         4     9.11870000E+01   # M_Z pole mass
         5     4.25000000E+00   # mb(mb)^MSbar
         6     1.72500000E+02   # mt pole mass
         7     1.77700000E+00   # mtau pole mass
#
BLOCK MINPAR  # Input parameters - minimal models
#
BLOCK EXTPAR  # Input parameters - non-minimal models
         0     9.11876000E+01   # EWSB                
         1     1.00000000E+03   # M_1                 
         2     1.00000000E+05   # M_2                 
         3     1.00000000E+05   # M_3                 
        11     0.00000000E+00   # A_t                 
        12     0.00000000E+00   # A_b                 
        13     0.00000000E+00   # A_tau               
        14     0.00000000E+00   # A_u                 
        15     0.00000000E+00   # A_d                 
        16     0.00000000E+00   # A_e                 
        23     3.50000000E+03   # mu(EWSB)            
        25     1.50000000E+00   # tanbeta(in)         
        26     2.00000000E+03   # MA_pole             
        31     1.00000000E+05   # M_eL                
        32     1.00000000E+05   # M_muL               
        33     1.00000000E+05   # M_tauL              
        34     1.00000000E+05   # M_eR                
        35     1.00000000E+05   # M_muR               
        36     1.00000000E+05   # M_tauR              
        41     2.00000000E+03   # M_q1L               
        42     2.00000000E+03   # M_q2L               
        43     2.00000000E+03   # M_q3L               
        44     1.00000000E+05   # M_uR                
        45     1.00000000E+05   # M_cR                
        46     1.00000000E+05   # M_tR                
        47     2.00000000E+03   # M_dR                
        48     2.00000000E+03   # M_sR                
        49     2.00000000E+03   # M_bR                
#
BLOCK MASS  # Mass Spectrum
# PDG code           mass       particle
        24     8.05846152E+01   # W+
        25     1.25000000E+02   # h
        35     2.00405386E+03   # H
        36     2.00000000E+03   # A
        37     2.02368776E+03   # H+
         5     4.87877839E+00   # b-quark pole mass calculated from mb(mb)_Msbar
   1000001     2.00033150E+03   # ~d_L
   2000001     2.00006397E+03   # ~d_R
   1000002     1.99973242E+03   # ~u_L
   2000002     9.99999974E+04   # ~u_R
   1000003     2.00033150E+03   # ~s_L
   2000003     2.00006397E+03   # ~s_R
   1000004     1.99973242E+03   # ~c_L
   2000004     9.99999974E+04   # ~c_R
   1000005     1.99679884E+03   # ~b_1
   2000005     2.00359422E+03   # ~b_2
   1000006     2.00516163E+03   # ~t_1
   2000006     1.00000106E+05   # ~t_2
   1000011     1.00000004E+05   # ~e_L
   2000011     1.00000004E+05   # ~e_R
   1000012     9.99999921E+04   # ~nu_eL
   1000013     1.00000004E+05   # ~mu_L
   2000013     1.00000004E+05   # ~mu_R
   1000014     9.99999921E+04   # ~nu_muL
   1000015     9.99999574E+04   # ~tau_1
   2000015     1.00000051E+05   # ~tau_2
   1000016     9.99999921E+04   # ~nu_tauL
   1000021     1.00000000E+05   # ~g
   1000022     9.99249658E+02   # ~chi_10
   1000023    -3.50001937E+03   # ~chi_20
   1000025     3.50070532E+03   # ~chi_30
   1000035     1.00000064E+05   # ~chi_40
   1000024     3.49994023E+03   # ~chi_1+
   1000037     1.00000064E+05   # ~chi_2+
   1000039     1.00000000E-09   # ~gravitino
#
BLOCK NMIX  # Neutralino Mixing Matrix
  1  1     9.99844702E-01   # N_11
  1  2    -1.33892858E-05   # N_12
  1  3     1.37618596E-02   # N_13
  1  4    -1.10083315E-02   # N_14
  2  1     1.94709242E-03   # N_21
  2  2    -1.49576939E-04   # N_22
  2  3    -7.07095647E-01   # N_23
  2  4    -7.07115218E-01   # N_24
  3  1     1.75151687E-02   # N_31
  3  2     8.01967603E-04   # N_32
  3  3    -7.06983836E-01   # N_33
  3  4     7.07012328E-01   # N_34
  4  1     3.68151732E-07   # N_41
  4  2    -9.99999667E-01   # N_42
  4  3    -4.61397345E-04   # N_43
  4  4     6.72916729E-04   # N_44
#
BLOCK UMIX  # Chargino Mixing Matrix U
  1  1    -6.52514177E-04   # U_11
  1  2     9.99999787E-01   # U_12
  2  1     9.99999787E-01   # U_21
  2  2     6.52514177E-04   # U_22
#
BLOCK VMIX  # Chargino Mixing Matrix V
  1  1    -9.51647876E-04   # V_11
  1  2     9.99999547E-01   # V_12
  2  1     9.99999547E-01   # V_21
  2  2     9.51647876E-04   # V_22
#
BLOCK STOPMIX  # Stop Mixing Matrix
  1  1     9.99999999E-01   # cos(theta_t)
  1  2     4.47213589E-05   # sin(theta_t)
  2  1    -4.47213589E-05   # -sin(theta_t)
  2  2     9.99999999E-01   # cos(theta_t)
#
BLOCK SBOTMIX  # Sbottom Mixing Matrix
  1  1     6.93047592E-01   # cos(theta_b)
  1  2     7.20891833E-01   # sin(theta_b)
  2  1    -7.20891833E-01   # -sin(theta_b)
  2  2     6.93047592E-01   # cos(theta_b)
#
BLOCK STAUMIX  # Stau Mixing Matrix
  1  1     7.06218488E-01   # cos(theta_tau)
  1  2     7.07993960E-01   # sin(theta_tau)
  2  1    -7.07993960E-01   # -sin(theta_tau)
  2  2     7.06218488E-01   # cos(theta_tau)
#
BLOCK ALPHA  # Higgs mixing
          -5.90341316E-01   # Mixing angle in the neutral Higgs boson sector
#
BLOCK HMIX Q=  9.11876000E+01  # DRbar Higgs Parameters
         1     3.50000000E+03   # mu(Q)               
         2     1.49999982E+00   # tanbeta(Q)          
         3     2.54874496E+02   # vev(Q)              
         4    -6.80965094E+07   # MA^2(Q)             
#
BLOCK GAUGE Q=  9.11876000E+01  # The gauge couplings
     1     3.50559847E-01   # gprime(Q) DRbar
     2     6.19393000E-01   # g(Q) DRbar
     3     1.02218794E+00   # g3(Q) DRbar
#
BLOCK AU Q=  9.11876000E+01  # The trilinear couplings
  1  1     0.00000000E+00   # A_u(Q) DRbar
  2  2     0.00000000E+00   # A_c(Q) DRbar
  3  3     0.00000000E+00   # A_t(Q) DRbar
#
BLOCK AD Q=  9.11876000E+01  # The trilinear couplings
  1  1     0.00000000E+00   # A_d(Q) DRbar
  2  2     0.00000000E+00   # A_s(Q) DRbar
  3  3     0.00000000E+00   # A_b(Q) DRbar
#
BLOCK AE Q=  9.11876000E+01  # The trilinear couplings
  1  1     0.00000000E+00   # A_e(Q) DRbar
  2  2     0.00000000E+00   # A_mu(Q) DRbar
  3  3     0.00000000E+00   # A_tau(Q) DRbar
#
BLOCK Yu Q=  9.11876000E+01  # The Yukawa couplings
  1  1     0.00000000E+00   # y_u(Q) DRbar
  2  2     0.00000000E+00   # y_c(Q) DRbar
  3  3     9.83605897E-01   # y_t(Q) DRbar
#
BLOCK Yd Q=  9.11876000E+01  # The Yukawa couplings
  1  1     0.00000000E+00   # y_d(Q) DRbar
  2  2     0.00000000E+00   # y_s(Q) DRbar
  3  3     2.58773972E-02   # y_b(Q) DRbar
#
BLOCK Ye Q=  9.11876000E+01  # The Yukawa couplings
  1  1     0.00000000E+00   # y_e(Q) DRbar
  2  2     0.00000000E+00   # y_mu(Q) DRbar
  3  3     1.77399960E-02   # y_tau(Q) DRbar
#
BLOCK MSOFT Q=  9.11876000E+01  # The soft SUSY breaking masses at the scale Q
         1     1.00000000E+03   # M_1                 
         2     1.00000000E+05   # M_2                 
         3     1.00000000E+05   # M_3                 
        14     0.00000000E+00   # A_u                 
        15     0.00000000E+00   # A_d                 
        16     0.00000000E+00   # A_e                 
        21     6.30061703E+08   # M^2_Hd              
        22    -1.15074410E+09   # M^2_Hu              
        31     1.00000000E+05   # M_eL                
        32     1.00000000E+05   # M_muL               
        33     1.00000000E+05   # M_tauL              
        34     1.00000000E+05   # M_eR                
        35     1.00000000E+05   # M_muR               
        36     1.00000000E+05   # M_tauR              
        41     2.00000000E+03   # M_q1L               
        42     2.00000000E+03   # M_q2L               
        43     2.00000000E+03   # M_q3L               
        44     1.00000000E+05   # M_uR                
        45     1.00000000E+05   # M_cR                
        46     1.00000000E+05   # M_tR                
        47     2.00000000E+03   # M_dR                
        48     2.00000000E+03   # M_sR                
        49     2.00000000E+03   # M_bR                
#
#
#
#                             =================
#                             |The decay table|
#                             =================
#
# - The QCD corrections to the decays gluino -> squark  + quark
#                                     squark -> gaugino + quark_prime
#                                     squark -> squark_prime + Higgs
#                                     squark -> gluino  + quark
#   are included.
#
# - The multi-body decays for the inos, stops and sbottoms are included.
#
# - The loop induced decays for the gluino, neutralinos and stops
#   are included.
#
# - The SUSY decays of the top quark are included.
#
# - Possible decays of the NLSP in GMSB models are included.
#
#
#         PDG            Width
DECAY         6     1.32408037E+00   # top decays
#          BR         NDA      ID1       ID2
     1.00000000E+00    2           5        24   # BR(t ->  b    W+)
#
#         PDG            Width
DECAY   1000021     1.E-04   # gluino decays (OJ Mods)
#          BR         NDA      ID1       ID2
    -1.04611141E-03    2     1000001        -1   # BR(~g -> ~d_L  db)
    -1.04611141E-03    2    -1000001         1   # BR(~g -> ~d_L* d )
    -1.04611163E-03    2     2000001        -1   # BR(~g -> ~d_R  db)
    -1.04611163E-03    2    -2000001         1   # BR(~g -> ~d_R* d )
    -1.04611191E-03    2     1000002        -2   # BR(~g -> ~u_L  ub)
    -1.04611191E-03    2    -1000002         2   # BR(~g -> ~u_L* u )
    -2.83095024E-18    2     2000002        -2   # BR(~g -> ~u_R  ub)
    -2.83095024E-18    2    -2000002         2   # BR(~g -> ~u_R* u )
    -1.04611141E-03    2     1000003        -3   # BR(~g -> ~s_L  sb)
    -1.04611141E-03    2    -1000003         3   # BR(~g -> ~s_L* s )
    -1.04611163E-03    2     2000003        -3   # BR(~g -> ~s_R  sb)
    -1.04611163E-03    2    -2000003         3   # BR(~g -> ~s_R* s )
    -1.04611191E-03    2     1000004        -4   # BR(~g -> ~c_L  cb)
    -1.04611191E-03    2    -1000004         4   # BR(~g -> ~c_L* c )
    -2.83095024E-18    2     2000004        -4   # BR(~g -> ~c_R  cb)
    -2.83095024E-18    2    -2000004         4   # BR(~g -> ~c_R* c )
     2.60900524E-01    2     1000005        -5   # BR(~g -> ~b_1  bb)
     2.60900524E-01    2    -1000005         5   # BR(~g -> ~b_1* b )
     2.61100625E-01    2     2000005        -5   # BR(~g -> ~b_2  bb)
     2.61100625E-01    2    -2000005         5   # BR(~g -> ~b_2* b )
    -1.02960400E-03    2     1000006        -6   # BR(~g -> ~t_1  tb)
    -1.02960400E-03    2    -1000006         6   # BR(~g -> ~t_1* t )
    -2.93897504E-02    2     1000039        21   # BR(~g -> ~G g)
#
#         PDG            Width
DECAY   1000006     1.82579187E-01   # stop1 decays
#          BR         NDA      ID1       ID2
     1.00000000E+00    2     1000022         6   # BR(~t_1 -> ~chi_10 t )
#
#         PDG            Width
DECAY   2000006    -1.88957907E+05   # stop2 decays
#          BR         NDA      ID1       ID2
    -1.10331370E-03    2     1000022         6   # BR(~t_2 -> ~chi_10 t )
    -2.65546561E-03    2     1000023         6   # BR(~t_2 -> ~chi_20 t )
    -2.65497768E-03    2     1000025         6   # BR(~t_2 -> ~chi_30 t )
     1.00632398E+00    2     1000024         5   # BR(~t_2 -> ~chi_1+ b )
     7.16303218E-05    2     1000006        25   # BR(~t_2 -> ~t_1    h )
    -7.50384780E-05    2     1000006        35   # BR(~t_2 -> ~t_1    H )
    -7.49049334E-05    2     1000006        36   # BR(~t_2 -> ~t_1    A )
    -7.05707657E-05    2     1000005        37   # BR(~t_2 -> ~b_1    H+)
    -7.92361904E-05    2     2000005        37   # BR(~t_2 -> ~b_2    H+)
     5.09035132E-05    2     1000006        23   # BR(~t_2 -> ~t_1    Z )
     1.28242104E-04    2     1000005        24   # BR(~t_2 -> ~b_1    W+)
     1.38748265E-04    2     2000005        24   # BR(~t_2 -> ~b_2    W+)
#
#         PDG            Width
DECAY   1000005    -3.78429954E+01   # sbottom1 decays
#          BR         NDA      ID1       ID2
     1.00000000E+00    2     1000022         5   # BR(~b_1 -> ~chi_10 b )
#
#         PDG            Width
DECAY   2000005    -3.65026202E+01   # sbottom2 decays
#          BR         NDA      ID1       ID2
     1.00000000E+00    2     1000022         5   # BR(~b_2 -> ~chi_10 b )
#
#         PDG            Width
DECAY   1000002     1.86629405E-01   # sup_L decays
#          BR         NDA      ID1       ID2
     1.00000000E+00    2     1000022         2   # BR(~u_L -> ~chi_10 u)
#
#         PDG            Width
DECAY   2000002     2.08408947E+02   # sup_R decays
#          BR         NDA      ID1       ID2
     9.99689785E-01    2     1000022         2   # BR(~u_R -> ~chi_10 u)
     3.78680742E-06    2     1000023         2   # BR(~u_R -> ~chi_20 u)
     3.06428018E-04    2     1000025         2   # BR(~u_R -> ~chi_30 u)
#
#         PDG            Width
DECAY   1000001     1.86806582E-01   # sdown_L decays
#          BR         NDA      ID1       ID2
     1.00000000E+00    2     1000022         1   # BR(~d_L -> ~chi_10 d)
#
#         PDG            Width
DECAY   2000001     7.46898478E-01   # sdown_R decays
#          BR         NDA      ID1       ID2
     1.00000000E+00    2     1000022         1   # BR(~d_R -> ~chi_10 d)
#
#         PDG            Width
DECAY   1000004     1.86629405E-01   # scharm_L decays
#          BR         NDA      ID1       ID2
     1.00000000E+00    2     1000022         4   # BR(~c_L -> ~chi_10 c)
#
#         PDG            Width
DECAY   2000004     2.08408947E+02   # scharm_R decays
#          BR         NDA      ID1       ID2
     9.99689785E-01    2     1000022         4   # BR(~c_R -> ~chi_10 c)
     3.78680742E-06    2     1000023         4   # BR(~c_R -> ~chi_20 c)
     3.06428018E-04    2     1000025         4   # BR(~c_R -> ~chi_30 c)
#
#         PDG            Width
DECAY   1000003     1.86806582E-01   # sstrange_L decays
#          BR         NDA      ID1       ID2
     1.00000000E+00    2     1000022         3   # BR(~s_L -> ~chi_10 s)
#
#         PDG            Width
DECAY   2000003     7.46898478E-01   # sstrange_R decays
#          BR         NDA      ID1       ID2
     1.00000000E+00    2     1000022         3   # BR(~s_R -> ~chi_10 s)
#
#         PDG            Width
DECAY   1000011     1.22219370E+02   # selectron_L decays
#          BR         NDA      ID1       ID2
     9.99636905E-01    2     1000022        11   # BR(~e_L -> ~chi_10 e-)
     2.82546411E-06    2     1000023        11   # BR(~e_L -> ~chi_20 e-)
     3.57617499E-04    2     1000025        11   # BR(~e_L -> ~chi_30 e-)
     2.65239361E-06    2    -1000024        12   # BR(~e_L -> ~chi_1- nu_e)
#
#         PDG            Width
DECAY   2000011     4.88874588E+02   # selectron_R decays
#          BR         NDA      ID1       ID2
     9.99690126E-01    2     1000022        11   # BR(~e_R -> ~chi_10 e-)
     3.78264411E-06    2     1000023        11   # BR(~e_R -> ~chi_20 e-)
     3.06091016E-04    2     1000025        11   # BR(~e_R -> ~chi_30 e-)
#
#         PDG            Width
DECAY   1000013     1.22219370E+02   # smuon_L decays
#          BR         NDA      ID1       ID2
     9.99636905E-01    2     1000022        13   # BR(~mu_L -> ~chi_10 mu-)
     2.82546411E-06    2     1000023        13   # BR(~mu_L -> ~chi_20 mu-)
     3.57617499E-04    2     1000025        13   # BR(~mu_L -> ~chi_30 mu-)
     2.65239361E-06    2    -1000024        14   # BR(~mu_L -> ~chi_1- nu_mu)
#
#         PDG            Width
DECAY   2000013     4.88874588E+02   # smuon_R decays
#          BR         NDA      ID1       ID2
     9.99690126E-01    2     1000022        13   # BR(~mu_R -> ~chi_10 mu-)
     3.78264411E-06    2     1000023        13   # BR(~mu_R -> ~chi_20 mu-)
     3.06091016E-04    2     1000025        13   # BR(~mu_R -> ~chi_30 mu-)
#
#         PDG            Width
DECAY   1000015     1.18198863E+04   # stau_1 decays
#          BR         NDA      ID1       ID2
     2.58910819E-02    2     1000022        15   # BR(~tau_1 -> ~chi_10  tau-)
     2.53574669E-05    2     1000023        15   # BR(~tau_1 -> ~chi_20  tau-)
     2.61976519E-05    2     1000025        15   # BR(~tau_1 -> ~chi_30  tau-)
     2.77035929E-05    2    -1000024        16   # BR(~tau_1 -> ~chi_1-  nu_tau)
     9.74029659E-01    2     1000039        15   # BR(~tau_1 -> ~G       tau-)
#
#         PDG            Width
DECAY   2000015     3.06001157E+02   # stau_2 decays
#          BR         NDA      ID1       ID2
     9.96299121E-01    2     1000022        15   # BR(~tau_2 -> ~chi_10  tau-)
     1.06865648E-03    2     1000023        15   # BR(~tau_2 -> ~chi_20  tau-)
     1.66023827E-03    2     1000025        15   # BR(~tau_2 -> ~chi_30  tau-)
     9.71984120E-04    2    -1000024        16   # BR(~tau_2 -> ~chi_1-  nu_tau)
#
#         PDG            Width
DECAY   1000012     1.22219430E+02   # snu_eL decays
#          BR         NDA      ID1       ID2
     9.99730912E-01    2     1000022        12   # BR(~nu_eL -> ~chi_10 nu_e)
     4.87915216E-06    2     1000023        12   # BR(~nu_eL -> ~chi_20 nu_e)
     2.58567309E-04    2     1000025        12   # BR(~nu_eL -> ~chi_30 nu_e)
     5.64170497E-06    2     1000024        11   # BR(~nu_eL -> ~chi_1+ e-)
#
#         PDG            Width
DECAY   1000014     1.22219430E+02   # snu_muL decays
#          BR         NDA      ID1       ID2
     9.99730912E-01    2     1000022        14   # BR(~nu_muL -> ~chi_10 nu_mu)
     4.87915216E-06    2     1000023        14   # BR(~nu_muL -> ~chi_20 nu_mu)
     2.58567309E-04    2     1000025        14   # BR(~nu_muL -> ~chi_30 nu_mu)
     5.64170497E-06    2     1000024        13   # BR(~nu_muL -> ~chi_1+ mu-)
#
#         PDG            Width
DECAY   1000016     1.22843987E+02   # snu_tauL decays
#          BR         NDA      ID1       ID2
     9.94648130E-01    2     1000022        16   # BR(~nu_tauL -> ~chi_10 nu_tau)
     4.85434582E-06    2     1000023        16   # BR(~nu_tauL -> ~chi_20 nu_tau)
     2.57252714E-04    2     1000025        16   # BR(~nu_tauL -> ~chi_30 nu_tau)
     5.08976335E-03    2     1000024        15   # BR(~nu_tauL -> ~chi_1+ tau-)
#
#         PDG            Width
DECAY   1000024     3.98204251E+01   # chargino1+ decays
#          BR         NDA      ID1       ID2
     4.98670989E-07    2     1000002        -1   # BR(~chi_1+ -> ~u_L     db)
     2.34316628E-07    2    -1000001         2   # BR(~chi_1+ -> ~d_L*    u )
     4.98670989E-07    2     1000004        -3   # BR(~chi_1+ -> ~c_L     sb)
     2.34316628E-07    2    -1000003         4   # BR(~chi_1+ -> ~s_L*    c )
    -7.71271258E-02    2     1000006        -5   # BR(~chi_1+ -> ~t_1     bb)
     1.09183744E-01    2    -1000005         6   # BR(~chi_1+ -> ~b_1*    t )
     8.86186862E-01    2    -2000005         6   # BR(~chi_1+ -> ~b_2*    t )
     7.60494914E-02    2     1000022        24   # BR(~chi_1+ -> ~chi_10  W+)
     5.69649516E-03    2     1000022        37   # BR(~chi_1+ -> ~chi_10  H+)
     7.57645693E-06    2     1000039        24   # BR(~chi_1+ -> ~G       W+)
     1.49074954E-06    2     1000039        37   # BR(~chi_1+ -> ~G       H+)
#
#         PDG            Width
DECAY   1000037    -1.05429149E+05   # chargino2+ decays
#          BR         NDA      ID1       ID2
    -1.16879174E-02    2     1000002        -1   # BR(~chi_2+ -> ~u_L     db)
    -1.16879204E-02    2    -1000001         2   # BR(~chi_2+ -> ~d_L*    u )
    -1.16879174E-02    2     1000004        -3   # BR(~chi_2+ -> ~c_L     sb)
    -1.16879204E-02    2    -1000003         4   # BR(~chi_2+ -> ~s_L*    c )
     1.19903232E+00    2     1000006        -5   # BR(~chi_2+ -> ~t_1     bb)
    -2.58206324E-03    2    -1000005         6   # BR(~chi_2+ -> ~b_1*    t )
    -1.10622864E-02    2    -2000005         6   # BR(~chi_2+ -> ~b_2*    t )
    -8.40250978E-15    2     1000012       -11   # BR(~chi_2+ -> ~nu_eL   e+  )
    -8.40250978E-15    2     1000014       -13   # BR(~chi_2+ -> ~nu_muL  mu+ )
    -5.85132212E-15    2    -1000011        12   # BR(~chi_2+ -> ~e_L+    nu_e)
    -5.85132212E-15    2    -1000013        14   # BR(~chi_2+ -> ~mu_L+   nu_mu)
    -9.21144164E-15    2    -1000015        16   # BR(~chi_2+ -> ~tau_1+  nu_tau)
    -1.37693586E-16    2    -2000015        16   # BR(~chi_2+ -> ~tau_2+  nu_tau)
    -2.13974611E-03    2     1000024        23   # BR(~chi_2+ -> ~chi_1+  Z )
    -5.33811356E-07    2     1000022        24   # BR(~chi_2+ -> ~chi_10  W+)
    -2.07513063E-03    2     1000023        24   # BR(~chi_2+ -> ~chi_20  W+)
    -2.07457443E-03    2     1000025        24   # BR(~chi_2+ -> ~chi_30  W+)
    -2.16306968E-03    2     1000024        25   # BR(~chi_2+ -> ~chi_1+  h )
    -1.89875871E-03    2     1000024        35   # BR(~chi_2+ -> ~chi_1+  H )
    -1.89901479E-03    2     1000024        36   # BR(~chi_2+ -> ~chi_1+  A )
    -6.42680801E-07    2     1000022        37   # BR(~chi_2+ -> ~chi_10  H+)
    -1.89894973E-03    2     1000023        37   # BR(~chi_2+ -> ~chi_20  H+)
    -1.89836720E-03    2     1000025        37   # BR(~chi_2+ -> ~chi_30  H+)
    -1.22587473E-01    2     1000039        24   # BR(~chi_2+ -> ~G       W+)
    -3.50898371E-08    2     1000039        37   # BR(~chi_2+ -> ~G       H+)
#
#         PDG            Width
DECAY   1000022     1.E-08   # neutralino1 decays (OJ Mods)
#          BR         NDA      ID1       ID2
     7.63365230E-01    2     1000039        22   # BR(~chi_10 -> ~G        gam)
     2.36633726E-01    2     1000039        23   # BR(~chi_10 -> ~G        Z)
     1.04330616E-06    2     1000039        25   # BR(~chi_10 -> ~G        h)
#
#         PDG            Width
DECAY   1000023     1.E-08   # neutralino2 decays (OJ Mods)
#          BR         NDA      ID1       ID2
     8.40555883E-02    2     1000022        23   # BR(~chi_20 -> ~chi_10   Z )
     1.02318546E-03    2     1000022        25   # BR(~chi_20 -> ~chi_10   h )
     5.04094313E-03    2     1000022        35   # BR(~chi_20 -> ~chi_10   H )
     1.46766431E-03    2     1000022        36   # BR(~chi_20 -> ~chi_10   A )
     1.65935687E-08    2     1000002        -2   # BR(~chi_20 -> ~u_L      ub)
     1.65935687E-08    2    -1000002         2   # BR(~chi_20 -> ~u_L*     u )
     9.34540685E-08    2     1000001        -1   # BR(~chi_20 -> ~d_L      db)
     9.34540685E-08    2    -1000001         1   # BR(~chi_20 -> ~d_L*     d )
     1.88821338E-07    2     2000001        -1   # BR(~chi_20 -> ~d_R      db)
     1.88821338E-07    2    -2000001         1   # BR(~chi_20 -> ~d_R*     d )
     1.65935687E-08    2     1000004        -4   # BR(~chi_20 -> ~c_L      cb)
     1.65935687E-08    2    -1000004         4   # BR(~chi_20 -> ~c_L*     c )
     9.34540685E-08    2     1000003        -3   # BR(~chi_20 -> ~s_L      sb)
     9.34540685E-08    2    -1000003         3   # BR(~chi_20 -> ~s_L*     s )
     1.88821338E-07    2     2000003        -3   # BR(~chi_20 -> ~s_R      sb)
     1.88821338E-07    2    -2000003         3   # BR(~chi_20 -> ~s_R*     s )
     5.38898919E-01    2     1000006        -6   # BR(~chi_20 -> ~t_1      tb)
     5.38898919E-01    2    -1000006         6   # BR(~chi_20 -> ~t_1*     t )
    -4.10621198E-02    2     1000005        -5   # BR(~chi_20 -> ~b_1      bb)
    -4.10621198E-02    2    -1000005         5   # BR(~chi_20 -> ~b_1*     b )
    -4.36359508E-02    2     2000005        -5   # BR(~chi_20 -> ~b_2      bb)
    -4.36359508E-02    2    -2000005         5   # BR(~chi_20 -> ~b_2*     b )
     4.33018861E-11    2     1000039        22   # BR(~chi_20 -> ~G        gam)
     3.16174850E-07    2     1000039        23   # BR(~chi_20 -> ~G        Z)
     7.89131239E-06    2     1000039        25   # BR(~chi_20 -> ~G        h)
     6.31829341E-08    2     1000039        35   # BR(~chi_20 -> ~G        H)
     1.63019141E-06    2     1000039        36   # BR(~chi_20 -> ~G        A)
#
#         PDG            Width
DECAY   1000025     3.66726679E+01   # neutralino3 decays
#          BR         NDA      ID1       ID2
     1.04198592E-03    2     1000022        23   # BR(~chi_30 -> ~chi_10   Z )
     8.49256682E-02    2     1000022        25   # BR(~chi_30 -> ~chi_10   h )
     1.42661732E-03    2     1000022        35   # BR(~chi_30 -> ~chi_10   H )
     5.10088329E-03    2     1000022        36   # BR(~chi_30 -> ~chi_10   A )
     5.90608574E-06    2     1000002        -2   # BR(~chi_30 -> ~u_L      ub)
     5.90608574E-06    2    -1000002         2   # BR(~chi_30 -> ~u_L*     u )
     2.19218265E-06    2     1000001        -1   # BR(~chi_30 -> ~d_L      db)
     2.19218265E-06    2    -1000001         1   # BR(~chi_30 -> ~d_L*     d )
     1.52933123E-05    2     2000001        -1   # BR(~chi_30 -> ~d_R      db)
     1.52933123E-05    2    -2000001         1   # BR(~chi_30 -> ~d_R*     d )
     5.90608574E-06    2     1000004        -4   # BR(~chi_30 -> ~c_L      cb)
     5.90608574E-06    2    -1000004         4   # BR(~chi_30 -> ~c_L*     c )
     2.19218265E-06    2     1000003        -3   # BR(~chi_30 -> ~s_L      sb)
     2.19218265E-06    2    -1000003         3   # BR(~chi_30 -> ~s_L*     s )
     1.52933123E-05    2     2000003        -3   # BR(~chi_30 -> ~s_R      sb)
     1.52933123E-05    2    -2000003         3   # BR(~chi_30 -> ~s_R*     s )
     5.39502754E-01    2     1000006        -6   # BR(~chi_30 -> ~t_1      tb)
     5.39502754E-01    2    -1000006         6   # BR(~chi_30 -> ~t_1*     t )
    -3.40593344E-02    2     1000005        -5   # BR(~chi_30 -> ~b_1      bb)
    -3.40593344E-02    2    -1000005         5   # BR(~chi_30 -> ~b_1*     b )
    -5.17359063E-02    2     2000005        -5   # BR(~chi_30 -> ~b_2      bb)
    -5.17359063E-02    2    -2000005         5   # BR(~chi_30 -> ~b_2*     b )
     4.03633365E-09    2     1000039        22   # BR(~chi_30 -> ~G        gam)
     7.91228151E-06    2     1000039        23   # BR(~chi_30 -> ~G        Z)
     3.08413671E-07    2     1000039        25   # BR(~chi_30 -> ~G        h)
     1.62185642E-06    2     1000039        35   # BR(~chi_30 -> ~G        H)
     6.53135828E-08    2     1000039        36   # BR(~chi_30 -> ~G        A)
#
#         PDG            Width
DECAY   1000035    -1.05429649E+05   # neutralino4 decays
#          BR         NDA      ID1       ID2
    -3.61011715E-09    2     1000022        23   # BR(~chi_40 -> ~chi_10   Z )
    -2.06783607E-03    2     1000023        23   # BR(~chi_40 -> ~chi_20   Z )
    -7.18967192E-05    2     1000025        23   # BR(~chi_40 -> ~chi_30   Z )
    -2.07510652E-03    2     1000024       -24   # BR(~chi_40 -> ~chi_1+   W-)
    -2.07510652E-03    2    -1000024        24   # BR(~chi_40 -> ~chi_1-   W+)
    -5.53561309E-07    2     1000022        25   # BR(~chi_40 -> ~chi_10   h )
    -5.81647958E-08    2     1000022        35   # BR(~chi_40 -> ~chi_10   H )
    -5.83681886E-07    2     1000022        36   # BR(~chi_40 -> ~chi_10   A )
    -7.09974800E-05    2     1000023        25   # BR(~chi_40 -> ~chi_20   h )
    -1.81713097E-03    2     1000023        35   # BR(~chi_40 -> ~chi_20   H )
    -8.35296884E-05    2     1000023        36   # BR(~chi_40 -> ~chi_20   A )
    -2.09150935E-03    2     1000025        25   # BR(~chi_40 -> ~chi_30   h )
    -8.15571299E-05    2     1000025        35   # BR(~chi_40 -> ~chi_30   H )
    -1.81489128E-03    2     1000025        36   # BR(~chi_40 -> ~chi_30   A )
    -1.89897088E-03    2     1000024       -37   # BR(~chi_40 -> ~chi_1+   H-)
    -1.89897088E-03    2    -1000024        37   # BR(~chi_40 -> ~chi_1-   H+)
    -5.59762627E-03    2     1000002        -2   # BR(~chi_40 -> ~u_L      ub)
    -5.59762627E-03    2    -1000002         2   # BR(~chi_40 -> ~u_L*     u )
    -8.84540291E-23    2     2000002        -2   # BR(~chi_40 -> ~u_R      ub)
    -8.84540291E-23    2    -2000002         2   # BR(~chi_40 -> ~u_R*     u )
    -5.59762813E-03    2     1000001        -1   # BR(~chi_40 -> ~d_L      db)
    -5.59762813E-03    2    -1000001         1   # BR(~chi_40 -> ~d_L*     d )
    -1.08010803E-16    2     2000001        -1   # BR(~chi_40 -> ~d_R      db)
    -1.08010803E-16    2    -2000001         1   # BR(~chi_40 -> ~d_R*     d )
    -5.59762627E-03    2     1000004        -4   # BR(~chi_40 -> ~c_L      cb)
    -5.59762627E-03    2    -1000004         4   # BR(~chi_40 -> ~c_L*     c )
    -8.84540291E-23    2     2000004        -4   # BR(~chi_40 -> ~c_R      cb)
    -8.84540291E-23    2    -2000004         4   # BR(~chi_40 -> ~c_R*     c )
    -5.59762813E-03    2     1000003        -3   # BR(~chi_40 -> ~s_L      sb)
    -5.59762813E-03    2    -1000003         3   # BR(~chi_40 -> ~s_L*     s )
    -1.08010803E-16    2     2000003        -3   # BR(~chi_40 -> ~s_R      sb)
    -1.08010803E-16    2    -2000003         3   # BR(~chi_40 -> ~s_R*     s )
    -6.82214019E-03    2     1000006        -6   # BR(~chi_40 -> ~t_1      tb)
    -6.82214019E-03    2    -1000006         6   # BR(~chi_40 -> ~t_1*     t )
     2.89926402E-01    2     1000005        -5   # BR(~chi_40 -> ~b_1      bb)
     2.89926402E-01    2    -1000005         5   # BR(~chi_40 -> ~b_1*     b )
     3.09589229E-01    2     2000005        -5   # BR(~chi_40 -> ~b_2      bb)
     3.09589229E-01    2    -2000005         5   # BR(~chi_40 -> ~b_2*     b )
    -2.92564357E-15    2     1000011       -11   # BR(~chi_40 -> ~e_L-     e+)
    -2.92564357E-15    2    -1000011        11   # BR(~chi_40 -> ~e_L+     e-)
    -5.08074417E-28    2     2000011       -11   # BR(~chi_40 -> ~e_R-     e+)
    -5.08074417E-28    2    -2000011        11   # BR(~chi_40 -> ~e_R+     e-)
    -2.92564357E-15    2     1000013       -13   # BR(~chi_40 -> ~mu_L-    mu+)
    -2.92564357E-15    2    -1000013        13   # BR(~chi_40 -> ~mu_L+    mu-)
    -5.08074417E-28    2     2000013       -13   # BR(~chi_40 -> ~mu_R-    mu+)
    -5.08074417E-28    2    -2000013        13   # BR(~chi_40 -> ~mu_R+    mu-)
    -4.20123529E-15    2     1000012       -12   # BR(~chi_40 -> ~nu_eL    nu_eb)
    -4.20123529E-15    2    -1000012        12   # BR(~chi_40 -> ~nu_eL*   nu_e )
    -4.20123529E-15    2     1000014       -14   # BR(~chi_40 -> ~nu_muL   nu_mub)
    -4.20123529E-15    2    -1000014        14   # BR(~chi_40 -> ~nu_muL*  nu_mu )
    -4.20123529E-15    2     1000016       -16   # BR(~chi_40 -> ~nu_tau1  nu_taub)
    -4.20123529E-15    2    -1000016        16   # BR(~chi_40 -> ~nu_tau1* nu_tau )
    -2.97409488E-02    2     1000039        22   # BR(~chi_40 -> ~G        gam)
    -9.28458628E-02    2     1000039        23   # BR(~chi_40 -> ~G        Z)
    -5.59728493E-09    2     1000039        25   # BR(~chi_40 -> ~G        h)
    -3.51495643E-08    2     1000039        35   # BR(~chi_40 -> ~G        H)
    -6.92624608E-12    2     1000039        36   # BR(~chi_40 -> ~G        A)
#
#
#
#
