#
#                              ======================
#                              | THE SUSYHIT OUTPUT |
#                              ======================
#
#
#              ------------------------------------------------------
#              |     This is the output of the SUSY-HIT package     |
#              |  created by A.Djouadi, M.Muehlleitner and M.Spira. |
#              |  In case of problems with SUSY-HIT email to        |
#              |           margarete.muehlleitner@cern.ch           |
#              |           michael.spira@psi.ch                     |
#              |           abdelhak.djouadi@cern.ch                 |
#              ------------------------------------------------------
#
#              ------------------------------------------------------
#              |  SUSY Les Houches Accord - MSSM Spectrum + Decays  |
#              |              based on the decay programs           |
#              |                                                    |
#              |                     SDECAY 1.3b                    |
#              |                                                    |
#              |  Authors: M.Muhlleitner, A.Djouadi and Y.Mambrini  |
#              |  Ref.:    Comput.Phys.Commun.168(2005)46           |
#              |           [hep-ph/0311167]                         |
#              |                                                    |
#              |                     HDECAY 3.4                     |
#              |                                                    |
#              |  By: A.Djouadi,J.Kalinowski,M.Muhlleitner,M.Spira  |
#              |  Ref.:    Comput.Phys.Commun.108(1998)56           |
#              |           [hep-ph/9704448]                         |
#              |                                                    |
#              |                                                    |
#              |  If not stated otherwise all DRbar couplings and   |
#              |  soft SUSY breaking masses are given at the scale  |
#              |  Q=  0.91187600E+02
#              |                                                    |
#              ------------------------------------------------------
#
#
BLOCK DCINFO  # Decay Program information
     1   SDECAY/HDECAY # decay calculator
     2   1.3b  /3.4    # version number
#
BLOCK SPINFO  # Spectrum calculator information
     1   SuSpect     # RGE +Spectrum calculator            
     2   2.41         # version number                     
#
BLOCK MODSEL  # Model selection
     1     0   # #general MSSM low scale                           
#
BLOCK SMINPUTS  # Standard Model inputs
         1     1.27934000E+02   # alpha_em^-1(M_Z)^MSbar
         2     1.16639000E-05   # G_F [GeV^-2]
         3     1.17200000E-01   # alpha_S(M_Z)^MSbar
         4     9.11870000E+01   # M_Z pole mass
         5     4.25000000E+00   # mb(mb)^MSbar
         6     1.72500000E+02   # mt pole mass
         7     1.77700000E+00   # mtau pole mass
#
BLOCK MINPAR  # Input parameters - minimal models
#
BLOCK EXTPAR  # Input parameters - non-minimal models
         0     9.11876000E+01   # EWSB                
         1     1.10000000E+03   # M_1                 
         2     1.00000000E+05   # M_2                 
         3     1.00000000E+05   # M_3                 
        11     0.00000000E+00   # A_t                 
        12     0.00000000E+00   # A_b                 
        13     0.00000000E+00   # A_tau               
        14     0.00000000E+00   # A_u                 
        15     0.00000000E+00   # A_d                 
        16     0.00000000E+00   # A_e                 
        23     3.50000000E+03   # mu(EWSB)            
        25     1.50000000E+00   # tanbeta(in)         
        26     2.00000000E+03   # MA_pole             
        31     1.00000000E+05   # M_eL                
        32     1.00000000E+05   # M_muL               
        33     1.00000000E+05   # M_tauL              
        34     1.00000000E+05   # M_eR                
        35     1.00000000E+05   # M_muR               
        36     1.00000000E+05   # M_tauR              
        41     1.50000000E+03   # M_q1L               
        42     1.50000000E+03   # M_q2L               
        43     1.50000000E+03   # M_q3L               
        44     1.00000000E+05   # M_uR                
        45     1.00000000E+05   # M_cR                
        46     1.00000000E+05   # M_tR                
        47     1.50000000E+03   # M_dR                
        48     1.50000000E+03   # M_sR                
        49     1.50000000E+03   # M_bR                
#
BLOCK MASS  # Mass Spectrum
# PDG code           mass       particle
        24     8.05825919E+01   # W+
        25     1.25000000E+02   # h
        35     2.00400656E+03   # H
        36     2.00000000E+03   # A
        37     2.02369555E+03   # H+
         5     4.87877839E+00   # b-quark pole mass calculated from mb(mb)_Msbar
   1000001     1.50044287E+03   # ~d_L
   2000001     1.50008530E+03   # ~d_R
   1000002     1.49964232E+03   # ~u_L
   2000002     9.99999974E+04   # ~u_R
   1000003     1.50044287E+03   # ~s_L
   2000003     1.50008530E+03   # ~s_R
   1000004     1.49964232E+03   # ~c_L
   2000004     9.99999974E+04   # ~c_R
   1000005     1.49573443E+03   # ~b_1
   2000005     1.50478457E+03   # ~b_2
   1000006     1.50687424E+03   # ~t_1
   2000006     1.00000106E+05   # ~t_2
   1000011     1.00000004E+05   # ~e_L
   2000011     1.00000004E+05   # ~e_R
   1000012     9.99999921E+04   # ~nu_eL
   1000013     1.00000004E+05   # ~mu_L
   2000013     1.00000004E+05   # ~mu_R
   1000014     9.99999921E+04   # ~nu_muL
   1000015     9.99999574E+04   # ~tau_1
   2000015     1.00000051E+05   # ~tau_2
   1000016     9.99999921E+04   # ~nu_tauL
   1000021     1.00000000E+05   # ~g
   1000022     1.09921719E+03   # ~chi_10
   1000023    -3.50001901E+03   # ~chi_20
   1000025     3.50073728E+03   # ~chi_30
   1000035     1.00000065E+05   # ~chi_40
   1000024     3.49994010E+03   # ~chi_1+
   1000037     1.00000065E+05   # ~chi_2+
   1000039     1.00000000E-09   # ~gravitino
#
BLOCK NMIX  # Neutralino Mixing Matrix
  1  1     9.99831715E-01   # N_11
  1  2    -1.39969117E-05   # N_12
  1  3     1.42487392E-02   # N_13
  1  4    -1.15548542E-02   # N_14
  2  1     1.90493135E-03   # N_21
  2  2    -1.49743830E-04   # N_22
  2  3    -7.07095888E-01   # N_23
  2  4    -7.07115093E-01   # N_24
  3  1     1.82458938E-02   # N_31
  3  2     8.02853293E-04   # N_32
  3  3    -7.06973950E-01   # N_33
  3  4     7.07003732E-01   # N_34
  4  1     3.68968343E-07   # N_41
  4  2    -9.99999666E-01   # N_42
  4  3    -4.61912710E-04   # N_43
  4  4     6.73668354E-04   # N_44
#
BLOCK UMIX  # Chargino Mixing Matrix U
  1  1    -6.53243012E-04   # U_11
  1  2     9.99999787E-01   # U_12
  2  1     9.99999787E-01   # U_21
  2  2     6.53243012E-04   # U_22
#
BLOCK VMIX  # Chargino Mixing Matrix V
  1  1    -9.52710833E-04   # V_11
  1  2     9.99999546E-01   # V_12
  2  1     9.99999546E-01   # V_21
  2  2     9.52710833E-04   # V_22
#
BLOCK STOPMIX  # Stop Mixing Matrix
  1  1     9.99999999E-01   # cos(theta_t)
  1  2     4.47213589E-05   # sin(theta_t)
  2  1    -4.47213589E-05   # -sin(theta_t)
  2  2     9.99999999E-01   # cos(theta_t)
#
BLOCK SBOTMIX  # Sbottom Mixing Matrix
  1  1     6.92997112E-01   # cos(theta_b)
  1  2     7.20940360E-01   # sin(theta_b)
  2  1    -7.20940360E-01   # -sin(theta_b)
  2  2     6.92997112E-01   # cos(theta_b)
#
BLOCK STAUMIX  # Stau Mixing Matrix
  1  1     7.06171423E-01   # cos(theta_tau)
  1  2     7.08040904E-01   # sin(theta_tau)
  2  1    -7.08040904E-01   # -sin(theta_tau)
  2  2     7.06171423E-01   # cos(theta_tau)
#
BLOCK ALPHA  # Higgs mixing
          -5.90293170E-01   # Mixing angle in the neutral Higgs boson sector
#
BLOCK HMIX Q=  9.11876000E+01  # DRbar Higgs Parameters
         1     3.50000000E+03   # mu(Q)               
         2     1.49999982E+00   # tanbeta(Q)          
         3     2.54874477E+02   # vev(Q)              
         4    -6.82614613E+07   # MA^2(Q)             
#
BLOCK GAUGE Q=  9.11876000E+01  # The gauge couplings
     1     3.50590971E-01   # gprime(Q) DRbar
     2     6.20084875E-01   # g(Q) DRbar
     3     1.02511115E+00   # g3(Q) DRbar
#
BLOCK AU Q=  9.11876000E+01  # The trilinear couplings
  1  1     0.00000000E+00   # A_u(Q) DRbar
  2  2     0.00000000E+00   # A_c(Q) DRbar
  3  3     0.00000000E+00   # A_t(Q) DRbar
#
BLOCK AD Q=  9.11876000E+01  # The trilinear couplings
  1  1     0.00000000E+00   # A_d(Q) DRbar
  2  2     0.00000000E+00   # A_s(Q) DRbar
  3  3     0.00000000E+00   # A_b(Q) DRbar
#
BLOCK AE Q=  9.11876000E+01  # The trilinear couplings
  1  1     0.00000000E+00   # A_e(Q) DRbar
  2  2     0.00000000E+00   # A_mu(Q) DRbar
  3  3     0.00000000E+00   # A_tau(Q) DRbar
#
BLOCK Yu Q=  9.11876000E+01  # The Yukawa couplings
  1  1     0.00000000E+00   # y_u(Q) DRbar
  2  2     0.00000000E+00   # y_c(Q) DRbar
  3  3     9.83593956E-01   # y_t(Q) DRbar
#
BLOCK Yd Q=  9.11876000E+01  # The Yukawa couplings
  1  1     0.00000000E+00   # y_d(Q) DRbar
  2  2     0.00000000E+00   # y_s(Q) DRbar
  3  3     2.58495844E-02   # y_b(Q) DRbar
#
BLOCK Ye Q=  9.11876000E+01  # The Yukawa couplings
  1  1     0.00000000E+00   # y_e(Q) DRbar
  2  2     0.00000000E+00   # y_mu(Q) DRbar
  3  3     1.77393123E-02   # y_tau(Q) DRbar
#
BLOCK MSOFT Q=  9.11876000E+01  # The soft SUSY breaking masses at the scale Q
         1     1.10000000E+03   # M_1                 
         2     1.00000000E+05   # M_2                 
         3     1.00000000E+05   # M_3                 
        14     0.00000000E+00   # A_u                 
        15     0.00000000E+00   # A_d                 
        16     0.00000000E+00   # A_e                 
        21     6.32061876E+08   # M^2_Hd              
        22    -1.14833864E+09   # M^2_Hu              
        31     1.00000000E+05   # M_eL                
        32     1.00000000E+05   # M_muL               
        33     1.00000000E+05   # M_tauL              
        34     1.00000000E+05   # M_eR                
        35     1.00000000E+05   # M_muR               
        36     1.00000000E+05   # M_tauR              
        41     1.50000000E+03   # M_q1L               
        42     1.50000000E+03   # M_q2L               
        43     1.50000000E+03   # M_q3L               
        44     1.00000000E+05   # M_uR                
        45     1.00000000E+05   # M_cR                
        46     1.00000000E+05   # M_tR                
        47     1.50000000E+03   # M_dR                
        48     1.50000000E+03   # M_sR                
        49     1.50000000E+03   # M_bR                
#
#
#
#                             =================
#                             |The decay table|
#                             =================
#
# - The QCD corrections to the decays gluino -> squark  + quark
#                                     squark -> gaugino + quark_prime
#                                     squark -> squark_prime + Higgs
#                                     squark -> gluino  + quark
#   are included.
#
# - The multi-body decays for the inos, stops and sbottoms are included.
#
# - The loop induced decays for the gluino, neutralinos and stops
#   are included.
#
# - The SUSY decays of the top quark are included.
#
# - Possible decays of the NLSP in GMSB models are included.
#
#
#         PDG            Width
DECAY         6     1.32712367E+00   # top decays
#          BR         NDA      ID1       ID2
     1.00000000E+00    2           5        24   # BR(t ->  b    W+)
#
#         PDG            Width
DECAY   1000021     1.E-04   # gluino decays (OJ Mods)
#          BR         NDA      ID1       ID2
     6.15694268E-04    2     1000001        -1   # BR(~g -> ~d_L  db)
     6.15694268E-04    2    -1000001         1   # BR(~g -> ~d_L* d )
     6.15694400E-04    2     2000001        -1   # BR(~g -> ~d_R  db)
     6.15694400E-04    2    -2000001         1   # BR(~g -> ~d_R* d )
     6.15694564E-04    2     1000002        -2   # BR(~g -> ~u_L  ub)
     6.15694564E-04    2    -1000002         2   # BR(~g -> ~u_L* u )
     1.66558714E-18    2     2000002        -2   # BR(~g -> ~u_R  ub)
     1.66558714E-18    2    -2000002         2   # BR(~g -> ~u_R* u )
     6.15694268E-04    2     1000003        -3   # BR(~g -> ~s_L  sb)
     6.15694268E-04    2    -1000003         3   # BR(~g -> ~s_L* s )
     6.15694400E-04    2     2000003        -3   # BR(~g -> ~s_R  sb)
     6.15694400E-04    2    -2000003         3   # BR(~g -> ~s_R* s )
     6.15694564E-04    2     1000004        -4   # BR(~g -> ~c_L  cb)
     6.15694564E-04    2    -1000004         4   # BR(~g -> ~c_L* c )
     1.66558714E-18    2     2000004        -4   # BR(~g -> ~c_R  cb)
     1.66558714E-18    2    -2000004         4   # BR(~g -> ~c_R* c )
     2.43668708E-01    2     1000005        -5   # BR(~g -> ~b_1  bb)
     2.43668708E-01    2    -1000005         5   # BR(~g -> ~b_1* b )
     2.43406089E-01    2     2000005        -5   # BR(~g -> ~b_2  bb)
     2.43406089E-01    2    -2000005         5   # BR(~g -> ~b_2* b )
     6.05926457E-04    2     1000006        -6   # BR(~g -> ~t_1  tb)
     6.05926457E-04    2    -1000006         6   # BR(~g -> ~t_1* t )
     1.72502202E-02    2     1000039        21   # BR(~g -> ~G g)
#
#         PDG            Width
DECAY   1000006     5.18328274E-02   # stop1 decays
#          BR         NDA      ID1       ID2
     1.00000000E+00    2     1000022         6   # BR(~t_1 -> ~chi_10 t )
#
#         PDG            Width
DECAY   2000006     2.95336028E+05   # stop2 decays
#          BR         NDA      ID1       ID2
     7.05817158E-04    2     1000022         6   # BR(~t_2 -> ~chi_10 t )
     1.69042129E-03    2     1000023         6   # BR(~t_2 -> ~chi_20 t )
     1.69008815E-03    2     1000025         6   # BR(~t_2 -> ~chi_30 t )
     9.95972147E-01    2     1000024         5   # BR(~t_2 -> ~chi_1+ b )
    -4.61045162E-05    2     1000006        25   # BR(~t_2 -> ~t_1    h )
     4.82749584E-05    2     1000006        35   # BR(~t_2 -> ~t_1    H )
     4.81907140E-05    2     1000006        36   # BR(~t_2 -> ~t_1    A )
     4.53929218E-05    2     1000005        37   # BR(~t_2 -> ~b_1    H+)
     5.09872591E-05    2     2000005        37   # BR(~t_2 -> ~b_2    H+)
    -3.29237055E-05    2     1000006        23   # BR(~t_2 -> ~t_1    Z )
    -8.27438163E-05    2     1000005        24   # BR(~t_2 -> ~b_1    W+)
    -8.95472525E-05    2     2000005        24   # BR(~t_2 -> ~b_2    W+)
#
#         PDG            Width
DECAY   1000005     1.73577301E+01   # sbottom1 decays
#          BR         NDA      ID1       ID2
     1.00000000E+00    2     1000022         5   # BR(~b_1 -> ~chi_10 b )
#
#         PDG            Width
DECAY   2000005     1.71236378E+01   # sbottom2 decays
#          BR         NDA      ID1       ID2
     1.00000000E+00    2     1000022         5   # BR(~b_2 -> ~chi_10 b )
#
#         PDG            Width
DECAY   1000002     5.71005022E-02   # sup_L decays
#          BR         NDA      ID1       ID2
     1.00000000E+00    2     1000022         2   # BR(~u_L -> ~chi_10 u)
#
#         PDG            Width
DECAY   2000002     2.08393878E+02   # sup_R decays
#          BR         NDA      ID1       ID2
     9.99663842E-01    2     1000022         2   # BR(~u_R -> ~chi_10 u)
     3.62463473E-06    2     1000023         2   # BR(~u_R -> ~chi_20 u)
     3.32533650E-04    2     1000025         2   # BR(~u_R -> ~chi_30 u)
#
#         PDG            Width
DECAY   1000001     5.72785623E-02   # sdown_L decays
#          BR         NDA      ID1       ID2
     1.00000000E+00    2     1000022         1   # BR(~d_L -> ~chi_10 d)
#
#         PDG            Width
DECAY   2000001     2.28792412E-01   # sdown_R decays
#          BR         NDA      ID1       ID2
     1.00000000E+00    2     1000022         1   # BR(~d_R -> ~chi_10 d)
#
#         PDG            Width
DECAY   1000004     5.71005022E-02   # scharm_L decays
#          BR         NDA      ID1       ID2
     1.00000000E+00    2     1000022         4   # BR(~c_L -> ~chi_10 c)
#
#         PDG            Width
DECAY   2000004     2.08393878E+02   # scharm_R decays
#          BR         NDA      ID1       ID2
     9.99663842E-01    2     1000022         4   # BR(~c_R -> ~chi_10 c)
     3.62463473E-06    2     1000023         4   # BR(~c_R -> ~chi_20 c)
     3.32533650E-04    2     1000025         4   # BR(~c_R -> ~chi_30 c)
#
#         PDG            Width
DECAY   1000003     5.72785623E-02   # sstrange_L decays
#          BR         NDA      ID1       ID2
     1.00000000E+00    2     1000022         3   # BR(~s_L -> ~chi_10 s)
#
#         PDG            Width
DECAY   2000003     2.28792412E-01   # sstrange_R decays
#          BR         NDA      ID1       ID2
     1.00000000E+00    2     1000022         3   # BR(~s_R -> ~chi_10 s)
#
#         PDG            Width
DECAY   1000011     1.22235941E+02   # selectron_L decays
#          BR         NDA      ID1       ID2
     9.99608761E-01    2     1000022        11   # BR(~e_L -> ~chi_10 e-)
     2.68391648E-06    2     1000023        11   # BR(~e_L -> ~chi_20 e-)
     3.85891049E-04    2     1000025        11   # BR(~e_L -> ~chi_30 e-)
     2.66390311E-06    2    -1000024        12   # BR(~e_L -> ~chi_1- nu_e)
#
#         PDG            Width
DECAY   2000011     4.88940861E+02   # selectron_R decays
#          BR         NDA      ID1       ID2
     9.99664202E-01    2     1000022        11   # BR(~e_R -> ~chi_10 e-)
     3.62075594E-06    2     1000023        11   # BR(~e_R -> ~chi_20 e-)
     3.32177676E-04    2     1000025        11   # BR(~e_R -> ~chi_30 e-)
#
#         PDG            Width
DECAY   1000013     1.22235941E+02   # smuon_L decays
#          BR         NDA      ID1       ID2
     9.99608761E-01    2     1000022        13   # BR(~mu_L -> ~chi_10 mu-)
     2.68391648E-06    2     1000023        13   # BR(~mu_L -> ~chi_20 mu-)
     3.85891049E-04    2     1000025        13   # BR(~mu_L -> ~chi_30 mu-)
     2.66390311E-06    2    -1000024        14   # BR(~mu_L -> ~chi_1- nu_mu)
#
#         PDG            Width
DECAY   2000013     4.88940861E+02   # smuon_R decays
#          BR         NDA      ID1       ID2
     9.99664202E-01    2     1000022        13   # BR(~mu_R -> ~chi_10 mu-)
     3.62075594E-06    2     1000023        13   # BR(~mu_R -> ~chi_20 mu-)
     3.32177676E-04    2     1000025        13   # BR(~mu_R -> ~chi_30 mu-)
#
#         PDG            Width
DECAY   1000015     1.18199522E+04   # stau_1 decays
#          BR         NDA      ID1       ID2
     2.58961867E-02    2     1000022        15   # BR(~tau_1 -> ~chi_10  tau-)
     2.53728993E-05    2     1000023        15   # BR(~tau_1 -> ~chi_20  tau-)
     2.65030552E-05    2     1000025        15   # BR(~tau_1 -> ~chi_30  tau-)
     2.77076124E-05    2    -1000024        16   # BR(~tau_1 -> ~chi_1-  nu_tau)
     9.74024230E-01    2     1000039        15   # BR(~tau_1 -> ~G       tau-)
#
#         PDG            Width
DECAY   2000015     3.06017967E+02   # stau_2 decays
#          BR         NDA      ID1       ID2
     9.96259667E-01    2     1000022        15   # BR(~tau_2 -> ~chi_10  tau-)
     1.06752611E-03    2     1000023        15   # BR(~tau_2 -> ~chi_20  tau-)
     1.70119014E-03    2     1000025        15   # BR(~tau_2 -> ~chi_30  tau-)
     9.71616939E-04    2    -1000024        16   # BR(~tau_2 -> ~chi_1-  nu_tau)
#
#         PDG            Width
DECAY   1000012     1.22236002E+02   # snu_eL decays
#          BR         NDA      ID1       ID2
     9.99707152E-01    2     1000022        12   # BR(~nu_eL -> ~chi_10 nu_e)
     4.69752972E-06    2     1000023        12   # BR(~nu_eL -> ~chi_20 nu_e)
     2.82484023E-04    2     1000025        12   # BR(~nu_eL -> ~chi_30 nu_e)
     5.66618590E-06    2     1000024        11   # BR(~nu_eL -> ~chi_1+ e-)
#
#         PDG            Width
DECAY   1000014     1.22236002E+02   # snu_muL decays
#          BR         NDA      ID1       ID2
     9.99707152E-01    2     1000022        14   # BR(~nu_muL -> ~chi_10 nu_mu)
     4.69752972E-06    2     1000023        14   # BR(~nu_muL -> ~chi_20 nu_mu)
     2.82484023E-04    2     1000025        14   # BR(~nu_muL -> ~chi_30 nu_mu)
     5.66618590E-06    2     1000024        13   # BR(~nu_muL -> ~chi_1+ mu-)
#
#         PDG            Width
DECAY   1000016     1.22860511E+02   # snu_tauL decays
#          BR         NDA      ID1       ID2
     9.94625566E-01    2     1000022        16   # BR(~nu_tauL -> ~chi_10 nu_tau)
     4.67365183E-06    2     1000023        16   # BR(~nu_tauL -> ~chi_20 nu_tau)
     2.81048136E-04    2     1000025        16   # BR(~nu_tauL -> ~chi_30 nu_tau)
     5.08871209E-03    2     1000024        15   # BR(~nu_tauL -> ~chi_1+ tau-)
#
#         PDG            Width
DECAY   1000024     6.69201977E+01   # chargino1+ decays
#          BR         NDA      ID1       ID2
     4.29377843E-07    2     1000002        -1   # BR(~chi_1+ -> ~u_L     db)
     2.01775956E-07    2    -1000001         2   # BR(~chi_1+ -> ~d_L*    u )
     4.29377843E-07    2     1000004        -3   # BR(~chi_1+ -> ~c_L     sb)
     2.01775956E-07    2    -1000003         4   # BR(~chi_1+ -> ~s_L*    c )
     1.09797792E-01    2     1000006        -5   # BR(~chi_1+ -> ~t_1     bb)
     7.66274396E-02    2    -1000005         6   # BR(~chi_1+ -> ~b_1*    t )
     7.64556782E-01    2    -2000005         6   # BR(~chi_1+ -> ~b_2*    t )
     4.64435651E-02    2     1000022        24   # BR(~chi_1+ -> ~chi_10  W+)
     2.56776392E-03    2     1000022        37   # BR(~chi_1+ -> ~chi_10  H+)
     4.50831626E-06    2     1000039        24   # BR(~chi_1+ -> ~G       W+)
     8.87049985E-07    2     1000039        37   # BR(~chi_1+ -> ~G       H+)
#
#         PDG            Width
DECAY   1000037     1.83594704E+05   # chargino2+ decays
#          BR         NDA      ID1       ID2
     5.63807138E-03    2     1000002        -1   # BR(~chi_2+ -> ~u_L     db)
     5.63807317E-03    2    -1000001         2   # BR(~chi_2+ -> ~d_L*    u )
     5.63807138E-03    2     1000004        -3   # BR(~chi_2+ -> ~c_L     sb)
     5.63807317E-03    2    -1000003         4   # BR(~chi_2+ -> ~s_L*    c )
     9.04102755E-01    2     1000006        -5   # BR(~chi_2+ -> ~t_1     bb)
     1.22847095E-03    2    -1000005         6   # BR(~chi_2+ -> ~b_1*    t )
     5.35946525E-03    2    -2000005         6   # BR(~chi_2+ -> ~b_2*    t )
     4.16717911E-15    2     1000012       -11   # BR(~chi_2+ -> ~nu_eL   e+  )
     4.16717911E-15    2     1000014       -13   # BR(~chi_2+ -> ~nu_muL  mu+ )
     2.91774304E-15    2    -1000011        12   # BR(~chi_2+ -> ~e_L+    nu_e)
     2.91774304E-15    2    -1000013        14   # BR(~chi_2+ -> ~mu_L+   nu_mu)
     4.52705441E-15    2    -1000015        16   # BR(~chi_2+ -> ~tau_1+  nu_tau)
     7.70506898E-17    2    -2000015        16   # BR(~chi_2+ -> ~tau_2+  nu_tau)
     1.03407346E-03    2     1000024        23   # BR(~chi_2+ -> ~chi_1+  Z )
     2.82417505E-07    2     1000022        24   # BR(~chi_2+ -> ~chi_10  W+)
     1.00339694E-03    2     1000023        24   # BR(~chi_2+ -> ~chi_20  W+)
     1.00310372E-03    2     1000025        24   # BR(~chi_2+ -> ~chi_30  W+)
     1.04353097E-03    2     1000024        25   # BR(~chi_2+ -> ~chi_1+  h )
     9.16024030E-04    2     1000024        35   # BR(~chi_2+ -> ~chi_1+  H )
     9.16145019E-04    2     1000024        36   # BR(~chi_2+ -> ~chi_1+  A )
     3.34349721E-07    2     1000022        37   # BR(~chi_2+ -> ~chi_10  H+)
     9.16113970E-04    2     1000023        37   # BR(~chi_2+ -> ~chi_20  H+)
     9.15807956E-04    2     1000025        37   # BR(~chi_2+ -> ~chi_30  H+)
     5.90081903E-02    2     1000039        24   # BR(~chi_2+ -> ~G       W+)
     1.69284499E-08    2     1000039        37   # BR(~chi_2+ -> ~G       H+)
#
#         PDG            Width
DECAY   1000022     1.E-08   # neutralino1 decays (OJ Mods)
#          BR         NDA      ID1       ID2
     7.62672933E-01    2     1000039        22   # BR(~chi_10 -> ~G        gam)
     2.37325736E-01    2     1000039        23   # BR(~chi_10 -> ~G        Z)
     1.33051330E-06    2     1000039        25   # BR(~chi_10 -> ~G        h)
#
#         PDG            Width
DECAY   1000023     1.E-08   # neutralino2 decays (OJ Mods)
#          BR         NDA      ID1       ID2
     4.27567451E-02    2     1000022        23   # BR(~chi_20 -> ~chi_10   Z )
     4.58442302E-04    2     1000022        25   # BR(~chi_20 -> ~chi_10   h )
     1.77119294E-03    2     1000022        35   # BR(~chi_20 -> ~chi_10   H )
     6.97816676E-04    2     1000022        36   # BR(~chi_20 -> ~chi_10   A )
     1.08026290E-08    2     1000002        -2   # BR(~chi_20 -> ~u_L      ub)
     1.08026290E-08    2    -1000002         2   # BR(~chi_20 -> ~u_L*     u )
     6.38197493E-08    2     1000001        -1   # BR(~chi_20 -> ~d_L      db)
     6.38197493E-08    2    -1000001         1   # BR(~chi_20 -> ~d_L*     d )
     1.27144648E-07    2     2000001        -1   # BR(~chi_20 -> ~d_R      db)
     1.27144648E-07    2    -2000001         1   # BR(~chi_20 -> ~d_R*     d )
     1.08026290E-08    2     1000004        -4   # BR(~chi_20 -> ~c_L      cb)
     1.08026290E-08    2    -1000004         4   # BR(~chi_20 -> ~c_L*     c )
     6.38197493E-08    2     1000003        -3   # BR(~chi_20 -> ~s_L      sb)
     6.38197493E-08    2    -1000003         3   # BR(~chi_20 -> ~s_L*     s )
     1.27144648E-07    2     2000003        -3   # BR(~chi_20 -> ~s_R      sb)
     1.27144648E-07    2    -2000003         3   # BR(~chi_20 -> ~s_R*     s )
     3.79194038E-01    2     1000006        -6   # BR(~chi_20 -> ~t_1      tb)
     3.79194038E-01    2    -1000006         6   # BR(~chi_20 -> ~t_1*     t )
     4.74702293E-02    2     1000005        -5   # BR(~chi_20 -> ~b_1      bb)
     4.74702293E-02    2    -1000005         5   # BR(~chi_20 -> ~b_1*     b )
     5.04908328E-02    2     2000005        -5   # BR(~chi_20 -> ~b_2      bb)
     5.04908328E-02    2    -2000005         5   # BR(~chi_20 -> ~b_2*     b )
     2.04936631E-11    2     1000039        22   # BR(~chi_20 -> ~G        gam)
     1.56571930E-07    2     1000039        23   # BR(~chi_20 -> ~G        Z)
     3.90777613E-06    2     1000039        25   # BR(~chi_20 -> ~G        h)
     3.13069785E-08    2     1000039        35   # BR(~chi_20 -> ~G        H)
     8.07285625E-07    2     1000039        36   # BR(~chi_20 -> ~G        A)
#
#         PDG            Width
DECAY   1000025     7.43482365E+01   # neutralino3 decays
#          BR         NDA      ID1       ID2
     4.65830904E-04    2     1000022        23   # BR(~chi_30 -> ~chi_10   Z )
     4.29567808E-02    2     1000022        25   # BR(~chi_30 -> ~chi_10   h )
     6.75452863E-04    2     1000022        35   # BR(~chi_30 -> ~chi_10   H )
     1.79126417E-03    2     1000022        36   # BR(~chi_30 -> ~chi_10   A )
     4.42367253E-06    2     1000002        -2   # BR(~chi_30 -> ~u_L      ub)
     4.42367253E-06    2    -1000002         2   # BR(~chi_30 -> ~u_L*     u )
     1.70758868E-06    2     1000001        -1   # BR(~chi_30 -> ~d_L      db)
     1.70758868E-06    2    -1000001         1   # BR(~chi_30 -> ~d_L*     d )
     1.16272396E-05    2     2000001        -1   # BR(~chi_30 -> ~d_R      db)
     1.16272396E-05    2    -2000001         1   # BR(~chi_30 -> ~d_R*     d )
     4.42367253E-06    2     1000004        -4   # BR(~chi_30 -> ~c_L      cb)
     4.42367253E-06    2    -1000004         4   # BR(~chi_30 -> ~c_L*     c )
     1.70758868E-06    2     1000003        -3   # BR(~chi_30 -> ~s_L      sb)
     1.70758868E-06    2    -1000003         3   # BR(~chi_30 -> ~s_L*     s )
     1.16272396E-05    2     2000003        -3   # BR(~chi_30 -> ~s_R      sb)
     1.16272396E-05    2    -2000003         3   # BR(~chi_30 -> ~s_R*     s )
     3.78018635E-01    2     1000006        -6   # BR(~chi_30 -> ~t_1      tb)
     3.78018635E-01    2    -1000006         6   # BR(~chi_30 -> ~t_1*     t )
     3.85745801E-02    2     1000005        -5   # BR(~chi_30 -> ~b_1      bb)
     3.85745801E-02    2    -1000005         5   # BR(~chi_30 -> ~b_1*     b )
     6.04289109E-02    2     2000005        -5   # BR(~chi_30 -> ~b_2      bb)
     6.04289109E-02    2    -2000005         5   # BR(~chi_30 -> ~b_2*     b )
     2.15735392E-09    2     1000039        22   # BR(~chi_30 -> ~G        gam)
     3.90291914E-06    2     1000039        23   # BR(~chi_30 -> ~G        Z)
     1.52206002E-07    2     1000039        25   # BR(~chi_30 -> ~G        h)
     8.00095644E-07    2     1000039        35   # BR(~chi_30 -> ~G        H)
     3.22179127E-08    2     1000039        36   # BR(~chi_30 -> ~G        A)
#
#         PDG            Width
DECAY   1000035     1.83595472E+05   # neutralino4 decays
#          BR         NDA      ID1       ID2
     2.24845498E-09    2     1000022        23   # BR(~chi_40 -> ~chi_10   Z )
     9.99323014E-04    2     1000023        23   # BR(~chi_40 -> ~chi_20   Z )
     3.47449502E-05    2     1000025        23   # BR(~chi_40 -> ~chi_30   Z )
     1.00338669E-03    2     1000024       -24   # BR(~chi_40 -> ~chi_1+   W-)
     1.00338669E-03    2    -1000024        24   # BR(~chi_40 -> ~chi_1-   W+)
     2.91836161E-07    2     1000022        25   # BR(~chi_40 -> ~chi_10   h )
     2.91982193E-08    2     1000022        35   # BR(~chi_40 -> ~chi_10   H )
     3.04731814E-07    2     1000022        36   # BR(~chi_40 -> ~chi_10   A )
     3.42681031E-05    2     1000023        25   # BR(~chi_40 -> ~chi_20   h )
     8.76626479E-04    2     1000023        35   # BR(~chi_40 -> ~chi_20   H )
     4.02975326E-05    2     1000023        36   # BR(~chi_40 -> ~chi_20   A )
     1.00896799E-03    2     1000025        25   # BR(~chi_40 -> ~chi_30   h )
     3.93636178E-05    2     1000025        35   # BR(~chi_40 -> ~chi_30   H )
     8.75539134E-04    2     1000025        36   # BR(~chi_40 -> ~chi_30   A )
     9.16125103E-04    2     1000024       -37   # BR(~chi_40 -> ~chi_1+   H-)
     9.16125103E-04    2    -1000024        37   # BR(~chi_40 -> ~chi_1-   H+)
     2.69889650E-03    2     1000002        -2   # BR(~chi_40 -> ~u_L      ub)
     2.69889650E-03    2    -1000002         2   # BR(~chi_40 -> ~u_L*     u )
     4.36655578E-23    2     2000002        -2   # BR(~chi_40 -> ~u_R      ub)
     4.36655578E-23    2    -2000002         2   # BR(~chi_40 -> ~u_R*     u )
     2.69889774E-03    2     1000001        -1   # BR(~chi_40 -> ~d_L      db)
     2.69889774E-03    2    -1000001         1   # BR(~chi_40 -> ~d_L*     d )
     5.22013213E-17    2     2000001        -1   # BR(~chi_40 -> ~d_R      db)
     5.22013213E-17    2    -2000001         1   # BR(~chi_40 -> ~d_R*     d )
     2.69889650E-03    2     1000004        -4   # BR(~chi_40 -> ~c_L      cb)
     2.69889650E-03    2    -1000004         4   # BR(~chi_40 -> ~c_L*     c )
     4.36655578E-23    2     2000004        -4   # BR(~chi_40 -> ~c_R      cb)
     4.36655578E-23    2    -2000004         4   # BR(~chi_40 -> ~c_R*     c )
     2.69889774E-03    2     1000003        -3   # BR(~chi_40 -> ~s_L      sb)
     2.69889774E-03    2    -1000003         3   # BR(~chi_40 -> ~s_L*     s )
     5.22013213E-17    2     2000003        -3   # BR(~chi_40 -> ~s_R      sb)
     5.22013213E-17    2    -2000003         3   # BR(~chi_40 -> ~s_R*     s )
     3.29394918E-03    2     1000006        -6   # BR(~chi_40 -> ~t_1      tb)
     3.29394918E-03    2    -1000006         6   # BR(~chi_40 -> ~t_1*     t )
     2.16116224E-01    2     1000005        -5   # BR(~chi_40 -> ~b_1      bb)
     2.16116224E-01    2    -1000005         5   # BR(~chi_40 -> ~b_1*     b )
     2.35935349E-01    2     2000005        -5   # BR(~chi_40 -> ~b_2      bb)
     2.35935349E-01    2    -2000005         5   # BR(~chi_40 -> ~b_2*     b )
     1.45886482E-15    2     1000011       -11   # BR(~chi_40 -> ~e_L-     e+)
     1.45886482E-15    2    -1000011        11   # BR(~chi_40 -> ~e_L+     e-)
     2.53952740E-28    2     2000011       -11   # BR(~chi_40 -> ~e_R-     e+)
     2.53952740E-28    2    -2000011        11   # BR(~chi_40 -> ~e_R+     e-)
     1.45886482E-15    2     1000013       -13   # BR(~chi_40 -> ~mu_L-    mu+)
     1.45886482E-15    2    -1000013        13   # BR(~chi_40 -> ~mu_L+    mu-)
     2.53952740E-28    2     2000013       -13   # BR(~chi_40 -> ~mu_R-    mu+)
     2.53952740E-28    2    -2000013        13   # BR(~chi_40 -> ~mu_R+    mu-)
     2.08358273E-15    2     1000012       -12   # BR(~chi_40 -> ~nu_eL    nu_eb)
     2.08358273E-15    2    -1000012        12   # BR(~chi_40 -> ~nu_eL*   nu_e )
     2.08358273E-15    2     1000014       -14   # BR(~chi_40 -> ~nu_muL   nu_mub)
     2.08358273E-15    2    -1000014        14   # BR(~chi_40 -> ~nu_muL*  nu_mu )
     2.08358273E-15    2     1000016       -16   # BR(~chi_40 -> ~nu_tau1  nu_taub)
     2.08358273E-15    2    -1000016        16   # BR(~chi_40 -> ~nu_tau1* nu_tau )
     1.42937252E-02    2     1000039        22   # BR(~chi_40 -> ~G        gam)
     4.47142288E-02    2     1000039        23   # BR(~chi_40 -> ~G        Z)
     2.70096365E-09    2     1000039        25   # BR(~chi_40 -> ~G        h)
     1.69566382E-08    2     1000039        35   # BR(~chi_40 -> ~G        H)
     3.34144535E-12    2     1000039        36   # BR(~chi_40 -> ~G        A)
#
#
#
#
