# SUSY Les Houches Accord 2 - MSSM spectrum + Decays
# SPheno v3.1.12 
# W. Porod, Comput. Phys. Commun. 153 (2003) 275-315, hep-ph/0301101
# in case of problems send email to porod@physik.uni-wuerzburg.de
# Created: 23.11.2012,  13:29
Block SPINFO         # Program information
     1   SPheno      # spectrum calculator
     2   v3.1.12     # version number
#
Block SPhenoINFO     # SPheno specific information
    1      2         # using 2-loop RGEs
    2      1         # using running masses for boundary conditions at mZ
Block MODSEL  # Model selection
    1    2    # mGMSB model
Block MINPAR  # Input parameters
    1    1.10000000E+05  # Lambda, scale of SUSY breaking
    2    2.50000000E+05  # M_M, messenger mass scale
    3    1.50000000E+01  # tanb at m_Z   
    4    1.00000000E+00  # Sign(mu)
    5    3.00000000E+00  # N_5 number of effective five-plets
    6    1.00000000E+00  # c_grav, Gravitino mass factor
Block gauge Q=  2.50000000E+05  # (GMSB scale)
   1    4.93493512E-01  # g'(Q)^DRbar
   2    6.48603518E-01  # g(Q)^DRbar
   3    9.38580337E-01  # g3(Q)^DRbar
Block SMINPUTS  # SM parameters
         1     1.27932483E+02  # alpha_em^-1(MZ)^MSbar
         2     1.16639000E-05  # G_mu [GeV^-2]
         3     1.17200000E-01  # alpha_s(MZ)^MSbar
         4     9.11876000E+01  # m_Z(pole)
         5     4.20000000E+00  # m_b(m_b), MSbar
         6     1.72500000E+02  # m_t(pole)
         7     1.77700000E+00  # m_tau(pole)
         8     0.00000000E+00  # m_nu_3
        11     5.10998910E-04  # m_e(pole)
        12     0.00000000E+00  # m_nu_1
        13     1.05658000E-01  # m_muon(pole)
        14     0.00000000E+00  # m_nu_2
        21     5.00000000E-03  # m_d(2 GeV), MSbar
        22     3.00000000E-03  # m_u(2 GeV), MSbar
        23     1.05000000E-01  # m_s(2 GeV), MSbar
        24     1.27000000E+00  # m_c(m_c), MSbar
Block gauge Q=  2.10304207E+03  # (SUSY scale)
   1    3.64653524E-01  # g'(Q)^DRbar
   2    6.39017482E-01  # g(Q)^DRbar
   3    1.02098124E+00  # g3(Q)^DRbar
Block Yu Q=  2.10304207E+03  # (SUSY scale)
  1  1     8.38435874E-06   # Y_u(Q)^DRbar
  2  2     3.54937895E-03   # Y_c(Q)^DRbar
  3  3     8.42036561E-01   # Y_t(Q)^DRbar
Block Yd Q=  2.10304207E+03  # (SUSY scale)
  1  1     1.91532770E-04   # Y_d(Q)^DRbar
  2  2     4.02218737E-03   # Y_s(Q)^DRbar
  3  3     1.90151458E-01   # Y_b(Q)^DRbar
Block Ye Q=  2.10304207E+03  # (SUSY scale)
  1  1     4.32892300E-05   # Y_e(Q)^DRbar
  2  2     8.95081780E-03   # Y_mu(Q)^DRbar
  3  3     1.50582141E-01   # Y_tau(Q)^DRbar
Block Au Q=  2.10304207E+03  # (SUSY scale)
  1  1    -6.63734388E+02   # A_u(Q)^DRbar
  2  2    -6.63733429E+02   # A_c(Q)^DRbar
  3  3    -6.25884629E+02   # A_t(Q)^DRbar
Block Ad Q=  2.10304207E+03  # (SUSY scale)
  1  1    -7.05181677E+02   # A_d(Q)^DRbar
  2  2    -7.05180574E+02   # A_s(Q)^DRbar
  3  3    -6.91099359E+02   # A_b(Q)^DRbar
Block Ae Q=  2.10304207E+03  # (SUSY scale)
  1  1    -7.61477841E+01   # A_e(Q)^DRbar
  2  2    -7.61471684E+01   # A_mu(Q)^DRbar
  3  3    -7.59735807E+01   # A_tau(Q)^DRbar
Block MSOFT Q=  2.10304207E+03  # soft SUSY breaking masses at Q
   1    4.76254014E+02  # M_1
   2    8.74540094E+02  # M_2
   3    2.24257428E+03  # M_3
  21    4.22159408E+05  # M^2_(H,d)
  22   -4.62345462E+05  # M^2_(H,u)
  31    6.86838584E+02  # M_(L,11)
  32    6.86835305E+02  # M_(L,22)
  33    6.85910371E+02  # M_(L,33)
  34    3.32480164E+02  # M_(E,11)
  35    3.32466381E+02  # M_(E,22)
  36    3.28557395E+02  # M_(E,33)
  41    2.18399669E+03  # M_(Q,11)
  42    2.18399397E+03  # M_(Q,22)
  43    2.11444629E+03  # M_(Q,33)
  44    2.09479282E+03  # M_(U,11)
  45    2.09479035E+03  # M_(U,22)
  46    1.95208283E+03  # M_(U,33)
  47    2.08612388E+03  # M_(D,11)
  48    2.08612061E+03  # M_(D,22)
  49    2.07885514E+03  # M_(D,33)
Block MASS  # Mass spectrum
#   PDG code      mass          particle
         6     1.72500000E+02  # m_t(pole)
        23     9.11876000E+01  # m_Z(pole)
        24     8.03133089E+01  # W+
        15     1.77700000E+00  # m_tau(pole)
        25     1.18630920E+02  # h0
        35     1.00228039E+03  # H0
        36     1.00213294E+03  # A0
        37     1.00573629E+03  # H+
   1000001     2.27488771E+03  # ~d_L
   2000001     2.17170543E+03  # ~d_R
   1000002     2.27349787E+03  # ~u_L
   2000002     2.17954883E+03  # ~u_R
   1000003     2.27488457E+03  # ~s_L
   2000003     2.17170128E+03  # ~s_R
   1000004     2.27349482E+03  # ~c_L
   2000004     2.17954582E+03  # ~c_R
   1000005     2.16146553E+03  # ~b_1
   2000005     2.19156927E+03  # ~b_2
   1000006     2.01125121E+03  # ~t_1
   2000006     2.19901937E+03  # ~t_2
   1000011     7.02298114E+02  # ~e_L-
   2000011     3.47069670E+02  # ~e_R-
   1000012     6.97413783E+02  # ~nu_eL
   1000013     7.02296217E+02  # ~mu_L-
   2000013     3.47047066E+02  # ~mu_R-
   1000014     6.97409146E+02  # ~nu_muL
   1000015     3.40631734E+02  # ~tau_1-
   2000015     7.01757197E+02  # ~tau_2-
   1000016     6.96103177E+02  # ~nu_tauL
   1000021     2.36183175E+03  # ~g
   1000022     4.62564304E+02  # ~chi_10
   1000023     7.38047512E+02  # ~chi_20
   1000025    -7.58744194E+02  # ~chi_30
   1000035     9.16448058E+02  # ~chi_40
   1000024     7.35915500E+02  # ~chi_1+
   1000037     9.16542682E+02  # ~chi_2+
   1000039     6.60000000E-09  # ~G
# Higgs mixing
Block alpha # Effective Higgs mixing angle
          -7.10958490E-02   # alpha
Block Hmix Q=  2.10304207E+03  # Higgs mixing parameters
   1    7.47239947E+02  # mu
   2    1.43579359E+01  # tan[beta](Q)
   3    2.43612978E+02  # v(Q)
   4    8.85096462E+05  # m^2_A(Q)
Block stopmix # stop mixing matrix
   1  1     1.52049493E-01   # Re[R_st(1,1)]
   1  2     9.88372881E-01   # Re[R_st(1,2)]
   2  1    -9.88372881E-01   # Re[R_st(2,1)]
   2  2     1.52049493E-01   # Re[R_st(2,2)]
Block sbotmix # sbottom mixing matrix
   1  1     2.16139000E-01   # Re[R_sb(1,1)]
   1  2     9.76362603E-01   # Re[R_sb(1,2)]
   2  1    -9.76362603E-01   # Re[R_sb(2,1)]
   2  2     2.16139000E-01   # Re[R_sb(2,2)]
Block staumix # stau mixing matrix
   1  1     5.29882043E-02   # Re[R_sta(1,1)]
   1  2     9.98595138E-01   # Re[R_sta(1,2)]
   2  1    -9.98595138E-01   # Re[R_sta(2,1)]
   2  2     5.29882043E-02   # Re[R_sta(2,2)]
Block Nmix # neutralino mixing matrix
   1  1    -9.92785798E-01   # Re[N(1,1)]
   1  2     1.30399531E-02   # Re[N(1,2)]
   1  3    -9.96424440E-02   # Re[N(1,3)]
   1  4     6.54041421E-02   # Re[N(1,4)]
   2  1     1.14149704E-01   # Re[N(2,1)]
   2  2     3.49388339E-01   # Re[N(2,2)]
   2  3    -6.64591144E-01   # Re[N(2,3)]
   2  4     6.50550725E-01   # Re[N(2,4)]
   3  1     2.37478383E-02   # Re[N(3,1)]
   3  2    -3.15002036E-02   # Re[N(3,2)]
   3  3    -7.05319414E-01   # Re[N(3,3)]
   3  4    -7.07791143E-01   # Re[N(3,4)]
   4  1    -2.79686250E-02   # Re[N(4,1)]
   4  2     9.36357563E-01   # Re[N(4,2)]
   4  3     2.25642459E-01   # Re[N(4,3)]
   4  4    -2.67465420E-01   # Re[N(4,4)]
Block Umix # chargino mixing matrix
   1  1    -3.18214333E-01   # Re[U(1,1)]
   1  2     9.48018797E-01   # Re[U(1,2)]
   2  1     9.48018797E-01   # Re[U(2,1)]
   2  2     3.18214333E-01   # Re[U(2,2)]
Block Vmix # chargino mixing matrix
   1  1    -3.77177951E-01   # Re[V(1,1)]
   1  2     9.26140806E-01   # Re[V(1,2)]
   2  1     9.26140806E-01   # Re[V(2,1)]
   2  2     3.77177951E-01   # Re[V(2,2)]
DECAY   2000011     1.48317736E-10   # ~e^-_R
#    BR                NDA      ID1      ID2
     8.93212886E-01    2     1000039        11   # BR(~e^-_R -> ~G e^-)
#    BR                NDA      ID1      ID2       ID3
     2.52248737E-02    3     1000015        11       -15   # BR(~e^-_R -> ~tau^-_1 e^- tau^+)
     8.15622404E-02    3    -1000015        11        15   # BR(~e^-_R -> ~tau^+_1 e^- tau^-)
DECAY   1000011     2.80149137E-01   # ~e^-_L
#    BR                NDA      ID1      ID2
     9.99999910E-01    2     1000022        11   # BR(~e^-_L -> chi^0_1 e^-)
     3.64397107E-08    2     2000011        23   # BR(~e^-_L -> ~e^-_R Z)
     3.77685438E-08    2     2000011        25   # BR(~e^-_L -> ~e^-_R h^0)
     1.60429038E-08    2     1000039        11   # BR(~e^-_L -> ~G e^-)
DECAY   2000013     1.48024157E-10   # ~mu^-_R
#    BR                NDA      ID1      ID2
     8.94692679E-01    2     1000039        13   # BR(~mu^-_R -> ~G mu^-)
#    BR                NDA      ID1      ID2       ID3
     2.48701907E-02    3     1000015        13       -15   # BR(~mu^-_R -> ~tau^-_1 mu^- tau^+)
     8.04371300E-02    3    -1000015        13        15   # BR(~mu^-_R -> ~tau^+_1 mu^- tau^-)
DECAY   1000013     2.81040198E-01   # ~mu^-_L
#    BR                NDA      ID1      ID2
     9.96837329E-01    2     1000022        13   # BR(~mu^-_L -> chi^0_1 mu^-)
     1.55304361E-03    2     2000013        23   # BR(~mu^-_L -> ~mu^-_R Z)
     1.60961107E-03    2     2000013        25   # BR(~mu^-_L -> ~mu^-_R h^0)
     1.59918210E-08    2     1000039        13   # BR(~mu^-_L -> ~G mu^-)
DECAY   1000015     1.20626578E-10   # ~tau^-_1
#    BR                NDA      ID1      ID2
     1.00000000E+00    2     1000039        15   # BR(~tau^-_1 -> ~G tau^-)
DECAY   2000015     5.34436498E-01   # ~tau^-_2
#    BR                NDA      ID1      ID2
     5.25321443E-01    2     1000022        15   # BR(~tau^-_2 -> chi^0_1 tau^-)
     2.34460120E-01    2     1000015        23   # BR(~tau^-_2 -> ~tau^-_1 Z)
     2.40218429E-01    2     1000015        25   # BR(~tau^-_2 -> ~tau^-_1 h^0)
     8.37706500E-09    2     1000039        15   # BR(~tau^-_2 -> ~G tau^-)
DECAY   1000012     2.98500598E-01   # ~nu_e
#    BR                NDA      ID1      ID2
     9.99999920E-01    2     1000022        12   # BR(~nu_e -> chi^0_1 nu_e)
     6.57977763E-08    2     2000011        24   # BR(~nu_e -> ~e^-_R W^+)
     1.45402603E-08    2     1000039        12   # BR(~nu_e -> ~G nu_e)
DECAY   1000014     2.99332088E-01   # ~nu_mu
#    BR                NDA      ID1      ID2
     9.97194641E-01    2     1000022        14   # BR(~nu_mu -> chi^0_1 nu_mu)
     2.80534481E-03    2     2000013        24   # BR(~nu_mu -> ~mu^-_R W^+)
     1.44993881E-08    2     1000039        14   # BR(~nu_mu -> ~G nu_mu)
DECAY   1000016     5.36532405E-01   # ~nu_tau
#    BR                NDA      ID1      ID2
     5.52022995E-01    2     1000022        16   # BR(~nu_tau -> chi^0_1 nu_tau)
     4.47976997E-01    2     1000015        24   # BR(~nu_tau -> ~tau^-_1 W^+)
     8.01377010E-09    2     1000039        16   # BR(~nu_tau -> ~G nu_tau)
DECAY   2000001     1.16098318E+00   # ~d_R
#    BR                NDA      ID1      ID2
     9.87727711E-01    2     1000022         1   # BR(~d_R -> chi^0_1 d)
     1.12104566E-02    2     1000023         1   # BR(~d_R -> chi^0_2 d)
     4.78512752E-04    2     1000025         1   # BR(~d_R -> chi^0_3 d)
     5.81112750E-04    2     1000035         1   # BR(~d_R -> chi^0_4 d)
     1.09759984E-06    2    -1000024         2   # BR(~d_R -> chi^-_1 u)
     1.43381327E-08    2    -1000037         2   # BR(~d_R -> chi^-_2 u)
     1.09456968E-06    2     1000039         1   # BR(~d_R -> ~G d)
DECAY   1000001     2.00548194E+01   # ~d_L
#    BR                NDA      ID1      ID2
     1.72580899E-02    2     1000022         1   # BR(~d_L -> chi^0_1 d)
     3.96051444E-02    2     1000023         1   # BR(~d_L -> chi^0_2 d)
     4.72159721E-04    2     1000025         1   # BR(~d_L -> chi^0_3 d)
     2.86719480E-01    2     1000035         1   # BR(~d_L -> chi^0_4 d)
     7.48036340E-02    2    -1000024         2   # BR(~d_L -> chi^-_1 u)
     5.81141412E-01    2    -1000037         2   # BR(~d_L -> chi^-_2 u)
     3.15282412E-13    2     2000002       -24   # BR(~d_L -> ~u_R W^-)
     5.07776006E-11    2     2000001        23   # BR(~d_L -> ~d_R Z)
     7.99182246E-08    2     1000039         1   # BR(~d_L -> ~G d)
DECAY   2000003     1.16210195E+00   # ~s_R
#    BR                NDA      ID1      ID2
     9.86787831E-01    2     1000022         3   # BR(~s_R -> chi^0_1 s)
     1.14337521E-02    2     1000023         3   # BR(~s_R -> chi^0_2 s)
     7.03896563E-04    2     1000025         3   # BR(~s_R -> chi^0_3 s)
     5.83536843E-04    2     1000035         3   # BR(~s_R -> chi^0_4 s)
     4.83572380E-04    2    -1000024         4   # BR(~s_R -> chi^-_1 c)
     6.31716797E-06    2    -1000037         4   # BR(~s_R -> chi^-_2 c)
     1.09350549E-06    2     1000039         3   # BR(~s_R -> ~G s)
DECAY   1000003     2.00557507E+01   # ~s_L
#    BR                NDA      ID1      ID2
     1.72571046E-02    2     1000022         3   # BR(~s_L -> chi^0_1 s)
     3.96144016E-02    2     1000023         3   # BR(~s_L -> chi^0_2 s)
     4.86707194E-04    2     1000025         3   # BR(~s_L -> chi^0_3 s)
     2.86707931E-01    2     1000035         3   # BR(~s_L -> chi^0_4 s)
     7.48148033E-02    2    -1000024         4   # BR(~s_L -> chi^-_1 c)
     5.81118894E-01    2    -1000037         4   # BR(~s_L -> chi^-_2 c)
     5.64984771E-08    2     2000004       -24   # BR(~s_L -> ~c_R W^-)
     2.23944475E-08    2     2000003        23   # BR(~s_L -> ~s_R Z)
     7.99139605E-08    2     1000039         3   # BR(~s_L -> ~G s)
DECAY   1000005     5.34193617E+00   # ~b_1
#    BR                NDA      ID1      ID2
     2.24233740E-01    2     1000022         5   # BR(~b_1 -> chi^0_1 b)
     1.52074655E-01    2     1000023         5   # BR(~b_1 -> chi^0_2 b)
     1.04413092E-01    2     1000025         5   # BR(~b_1 -> chi^0_3 b)
     1.36982783E-02    2     1000035         5   # BR(~b_1 -> chi^0_4 b)
     4.46878913E-01    2    -1000024         6   # BR(~b_1 -> chi^-_1 t)
     5.68283890E-02    2    -1000037         6   # BR(~b_1 -> chi^-_2 t)
     1.87269976E-03    2     1000006       -24   # BR(~b_1 -> ~t_1 W^-)
     2.32327741E-07    2     1000039         5   # BR(~b_1 -> ~G b)
DECAY   2000005     4.20921464E+01   # ~b_2
#    BR                NDA      ID1      ID2
     7.14921419E-03    2     1000022         5   # BR(~b_2 -> chi^0_1 b)
     2.44191037E-02    2     1000023         5   # BR(~b_2 -> chi^0_2 b)
     1.55463800E-02    2     1000025         5   # BR(~b_2 -> chi^0_3 b)
     1.28561339E-01    2     1000035         5   # BR(~b_2 -> chi^0_4 b)
     4.74040783E-01    2    -1000024         6   # BR(~b_2 -> chi^-_1 t)
     3.40503309E-01    2    -1000037         6   # BR(~b_2 -> chi^-_2 t)
     9.77983956E-03    2     1000006       -24   # BR(~b_2 -> ~t_1 W^-)
     3.15960882E-08    2     1000039         5   # BR(~b_2 -> ~G b)
DECAY   2000002     4.66394586E+00   # ~u_R
#    BR                NDA      ID1      ID2
     9.87715427E-01    2     1000022         2   # BR(~u_R -> chi^0_1 u)
     1.12231621E-02    2     1000023         2   # BR(~u_R -> chi^0_2 u)
     4.78621808E-04    2     1000025         2   # BR(~u_R -> chi^0_3 u)
     5.82511375E-04    2     1000035         2   # BR(~u_R -> chi^0_4 u)
     5.30047841E-10    2     1000024         1   # BR(~u_R -> chi^+_1 d)
     1.06994286E-11    2     1000037         1   # BR(~u_R -> chi^+_2 d)
     2.77424157E-07    2     1000039         2   # BR(~u_R -> ~G u)
DECAY   1000002     2.01168703E+01   # ~u_L
#    BR                NDA      ID1      ID2
     1.30374797E-02    2     1000022         2   # BR(~u_L -> chi^0_1 u)
     5.05961120E-02    2     1000023         2   # BR(~u_L -> chi^0_2 u)
     2.63920796E-04    2     1000025         2   # BR(~u_L -> chi^0_3 u)
     2.79109178E-01    2     1000035         2   # BR(~u_L -> chi^0_4 u)
     1.04675457E-01    2     1000024         1   # BR(~u_L -> chi^+_1 d)
     5.52317772E-01    2     1000037         1   # BR(~u_L -> chi^+_2 d)
     2.14173746E-10    2     2000001        24   # BR(~u_L -> ~d_R W^+)
     1.37879658E-14    2     2000002        23   # BR(~u_L -> ~u_R Z)
     7.94286355E-08    2     1000039         2   # BR(~u_L -> ~G u)
DECAY   2000004     4.66481965E+00   # ~c_R
#    BR                NDA      ID1      ID2
     9.87528042E-01    2     1000022         4   # BR(~c_R -> chi^0_1 c)
     1.12666067E-02    2     1000023         4   # BR(~c_R -> chi^0_2 c)
     5.24952134E-04    2     1000025         4   # BR(~c_R -> chi^0_3 c)
     5.83231764E-04    2     1000035         4   # BR(~c_R -> chi^0_4 c)
     9.49725037E-05    2     1000024         3   # BR(~c_R -> chi^+_1 s)
     1.91710648E-06    2     1000037         3   # BR(~c_R -> chi^+_2 s)
     2.77369900E-07    2     1000039         4   # BR(~c_R -> ~G c)
DECAY   1000004     2.01178073E+01   # ~c_L
#    BR                NDA      ID1      ID2
     1.30370058E-02    2     1000022         4   # BR(~c_L -> chi^0_1 c)
     5.06011283E-02    2     1000023         4   # BR(~c_L -> chi^0_2 c)
     2.74915858E-04    2     1000025         4   # BR(~c_L -> chi^0_3 c)
     2.79098594E-01    2     1000035         4   # BR(~c_L -> chi^0_4 c)
     1.04692421E-01    2     1000024         3   # BR(~c_L -> chi^+_1 s)
     5.52295759E-01    2     1000037         3   # BR(~c_L -> chi^+_2 s)
     9.44525958E-08    2     2000003        24   # BR(~c_L -> ~s_R W^+)
     2.47078039E-09    2     2000004        23   # BR(~c_L -> ~c_R Z)
     7.94243045E-08    2     1000039         4   # BR(~c_L -> ~G c)
DECAY   1000006     4.57040686E+01   # ~t_1
#    BR                NDA      ID1      ID2
     3.66024487E-06    2     1000022         4   # BR(~t_1 -> chi^0_1 c)
     9.27655633E-02    2     1000022         6   # BR(~t_1 -> chi^0_1 t)
     1.36144039E-05    2     1000023         4   # BR(~t_1 -> chi^0_2 c)
     2.05462005E-01    2     1000023         6   # BR(~t_1 -> chi^0_2 t)
     2.32141165E-01    2     1000025         6   # BR(~t_1 -> chi^0_3 t)
     1.34177074E-02    2     1000035         6   # BR(~t_1 -> chi^0_4 t)
     4.28590425E-01    2     1000024         5   # BR(~t_1 -> chi^+_1 b)
     2.75979524E-02    2     1000037         5   # BR(~t_1 -> chi^+_2 b)
     1.83914283E-08    2     1000039         6   # BR(~t_1 -> ~G t)
#    BR                NDA      ID1      ID2       ID3
     7.88904835E-06    3     1000022        24         5   # BR(~t_1 -> chi^0_1 W^+ b)
DECAY   2000006     4.40258840E+01   # ~t_2
#    BR                NDA      ID1      ID2
     6.78006158E-03    2     1000022         6   # BR(~t_2 -> chi^0_1 t)
     2.31868313E-01    2     1000023         6   # BR(~t_2 -> chi^0_2 t)
     2.62595365E-01    2     1000025         6   # BR(~t_2 -> chi^0_3 t)
     1.79114152E-01    2     1000035         6   # BR(~t_2 -> chi^0_4 t)
     3.60432619E-02    2     1000024         5   # BR(~t_2 -> chi^+_1 b)
     2.74560273E-01    2     1000037         5   # BR(~t_2 -> chi^+_2 b)
     5.15142513E-03    2     1000006        23   # BR(~t_2 -> ~t_1 Z)
     3.88711834E-03    2     1000006        25   # BR(~t_2 -> ~t_1 h^0)
     2.99763845E-08    2     1000039         6   # BR(~t_2 -> ~G t)
DECAY   1000024     4.90230620E-01   # chi^+_1
#    BR                NDA      ID1      ID2
     1.76099658E-08    2    -2000011        12   # BR(chi^+_1 -> ~e^+_R nu_e)
     4.92102395E-03    2    -1000011        12   # BR(chi^+_1 -> ~e^+_L nu_e)
     7.52922988E-04    2    -2000013        14   # BR(chi^+_1 -> ~mu^+_R nu_mu)
     4.92021141E-03    2    -1000013        14   # BR(chi^+_1 -> ~mu^+_L nu_mu)
     2.16744788E-01    2    -1000015        16   # BR(chi^+_1 -> ~tau^+_1 nu_tau)
     4.69242910E-03    2    -2000015        16   # BR(chi^+_1 -> ~tau^+_2 nu_tau)
     9.00712290E-03    2     1000012       -11   # BR(chi^+_1 -> ~nu_e e^+)
     9.02215608E-03    2     1000014       -13   # BR(chi^+_1 -> ~nu_mu mu^+)
     1.34951365E-02    2     1000016       -15   # BR(chi^+_1 -> ~nu_tau tau^+)
     7.35799974E-01    2     1000022        24   # BR(chi^+_1 -> chi^0_1 W^+)
#    BR                NDA      ID1      ID2       ID3
     1.50513636E-08    3     1000022        -1         2   # BR(chi^+_1 -> chi^0_1 d_bar u)
     1.53830186E-08    3     1000022        -3         4   # BR(chi^+_1 -> chi^0_1 s_bar c)
     6.32082666E-04    3     1000022        -5         6   # BR(chi^+_1 -> chi^0_1 b_bar t)
     1.04866097E-12    3     1000022       -11        12   # BR(chi^+_1 -> chi^0_1 e^+ nu_e)
     4.48252092E-08    3     1000022       -13        14   # BR(chi^+_1 -> chi^0_1 mu^+ nu_mu)
     1.20587968E-05    3     1000022       -15        16   # BR(chi^+_1 -> chi^0_1 tau^+ nu_tau)
DECAY   1000037     6.19287210E+00   # chi^+_2
#    BR                NDA      ID1      ID2
     2.15304771E-11    2    -2000011        12   # BR(chi^+_2 -> ~e^+_R nu_e)
     9.20952544E-02    2    -1000011        12   # BR(chi^+_2 -> ~e^+_L nu_e)
     9.20624131E-07    2    -2000013        14   # BR(chi^+_2 -> ~mu^+_R nu_mu)
     9.20984912E-02    2    -1000013        14   # BR(chi^+_2 -> ~mu^+_L nu_mu)
     2.71269765E-04    2    -1000015        16   # BR(chi^+_2 -> ~tau^+_1 nu_tau)
     9.30152259E-02    2    -2000015        16   # BR(chi^+_2 -> ~tau^+_2 nu_tau)
     9.13928920E-02    2     1000012       -11   # BR(chi^+_2 -> ~nu_e e^+)
     9.13978621E-02    2     1000014       -13   # BR(chi^+_2 -> ~nu_mu mu^+)
     9.28053218E-02    2     1000016       -15   # BR(chi^+_2 -> ~nu_tau tau^+)
     4.06627558E-03    2     1000022        24   # BR(chi^+_2 -> chi^0_1 W^+)
     1.35951704E-01    2     1000023        24   # BR(chi^+_2 -> chi^0_2 W^+)
     9.59790767E-02    2     1000025        24   # BR(chi^+_2 -> chi^0_3 W^+)
     1.24941850E-01    2     1000024        23   # BR(chi^+_2 -> chi^+_1 Z)
     8.59532434E-02    2     1000024        25   # BR(chi^+_2 -> chi^+_1 h^0)
#    BR                NDA      ID1      ID2       ID3
     3.43646246E-09    3     1000024         2        -2   # BR(chi^+_2 -> chi^+_1 u u_bar)
     3.43316919E-09    3     1000024         4        -4   # BR(chi^+_2 -> chi^+_1 c c_bar)
     4.62078072E-09    3     1000024         1        -1   # BR(chi^+_2 -> chi^+_1 d d_bar)
     4.64757505E-09    3     1000024         3        -3   # BR(chi^+_2 -> chi^+_1 s s_bar)
     6.86215548E-08    3     1000024         5        -5   # BR(chi^+_2 -> chi^+_1 b b_bar)
     1.04260745E-06    3     1000024        11       -11   # BR(chi^+_2 -> chi^+_1 e^- e^+)
     1.04366341E-06    3     1000024        13       -13   # BR(chi^+_2 -> chi^+_1 mu^- mu^+)
     1.30968339E-06    3     1000024        15       -15   # BR(chi^+_2 -> chi^+_1 tau^- tau^+)
     2.49396470E-06    3     1000024        12       -12   # BR(chi^+_2 -> chi^+_1 nu_e nu_bar_e)
     8.86896678E-08    3     1000022        -1         2   # BR(chi^+_2 -> chi^0_1 d_bar u)
     8.86852495E-08    3     1000022        -3         4   # BR(chi^+_2 -> chi^0_1 s_bar c)
     2.24775939E-05    3     1000022        -5         6   # BR(chi^+_2 -> chi^0_1 b_bar t)
     1.76466740E-10    3     1000022       -13        14   # BR(chi^+_2 -> chi^0_1 mu^+ nu_mu)
     4.95962222E-08    3     1000022       -15        16   # BR(chi^+_2 -> chi^0_1 tau^+ nu_tau)
     1.95496960E-09    3     1000023        -1         2   # BR(chi^+_2 -> chi^0_2 d_bar u)
     1.97115607E-09    3     1000023        -3         4   # BR(chi^+_2 -> chi^0_2 s_bar c)
     7.22190319E-09    3     1000023        -5         6   # BR(chi^+_2 -> chi^0_2 b_bar t)
     5.76262690E-07    3     1000023       -11        12   # BR(chi^+_2 -> chi^0_2 e^+ nu_e)
     5.76700549E-07    3     1000023       -13        14   # BR(chi^+_2 -> chi^0_2 mu^+ nu_mu)
     6.73774351E-07    3     1000023       -15        16   # BR(chi^+_2 -> chi^0_2 tau^+ nu_tau)
     2.66808815E-11    3     1000025        -1         2   # BR(chi^+_2 -> chi^0_3 d_bar u)
     3.35670012E-11    3     1000025        -3         4   # BR(chi^+_2 -> chi^0_3 s_bar c)
     4.61491035E-09    3     1000025       -11        12   # BR(chi^+_2 -> chi^0_3 e^+ nu_e)
     4.90582008E-09    3     1000025       -13        14   # BR(chi^+_2 -> chi^0_3 mu^+ nu_mu)
     8.56772991E-08    3     1000025       -15        16   # BR(chi^+_2 -> chi^0_3 tau^+ nu_tau)
DECAY   1000022     1.42708330E+00   # chi^0_1
#    BR                NDA      ID1      ID2
     1.61412617E-01    2     2000011       -11   # BR(chi^0_1 -> ~e^-_R e^+)
     1.61412617E-01    2    -2000011        11   # BR(chi^0_1 -> ~e^+_R e^-)
     1.61466965E-01    2     2000013       -13   # BR(chi^0_1 -> ~mu^-_R mu^+)
     1.61466965E-01    2    -2000013        13   # BR(chi^0_1 -> ~mu^+_R mu^-)
     1.77120418E-01    2     1000015       -15   # BR(chi^0_1 -> ~tau^-_1 tau^+)
     1.77120418E-01    2    -1000015        15   # BR(chi^0_1 -> ~tau^+_1 tau^-)
     2.85908630E-10    2     1000039        22   # BR(chi^0_1 -> ~G photon)
     8.51646865E-11    2     1000039        23   # BR(chi^0_1 -> ~G Z)
     2.03270923E-12    2     1000039        25   # BR(chi^0_1 -> ~G h^0)
DECAY   1000023     6.24795649E-01   # chi^0_2
#    BR                NDA      ID1      ID2
     2.47005878E-02    2     2000011       -11   # BR(chi^0_2 -> ~e^-_R e^+)
     2.47005878E-02    2    -2000011        11   # BR(chi^0_2 -> ~e^+_R e^-)
     3.68368411E-03    2     1000011       -11   # BR(chi^0_2 -> ~e^-_L e^+)
     3.68368411E-03    2    -1000011        11   # BR(chi^0_2 -> ~e^+_L e^-)
     2.49895323E-02    2     2000013       -13   # BR(chi^0_2 -> ~mu^-_R mu^+)
     2.49895323E-02    2    -2000013        13   # BR(chi^0_2 -> ~mu^+_R mu^-)
     3.68795324E-03    2     1000013       -13   # BR(chi^0_2 -> ~mu^-_L mu^+)
     3.68795324E-03    2    -1000013        13   # BR(chi^0_2 -> ~mu^+_L mu^-)
     1.08125875E-01    2     1000015       -15   # BR(chi^0_2 -> ~tau^-_1 tau^+)
     1.08125875E-01    2    -1000015        15   # BR(chi^0_2 -> ~tau^+_1 tau^-)
     4.91698008E-03    2     2000015       -15   # BR(chi^0_2 -> ~tau^-_2 tau^+)
     4.91698008E-03    2    -2000015        15   # BR(chi^0_2 -> ~tau^+_2 tau^-)
     2.22258974E-03    2     1000012       -12   # BR(chi^0_2 -> ~nu_e nu_bar_e)
     2.22258974E-03    2    -1000012        12   # BR(chi^0_2 -> ~nu^*_e nu_e)
     2.22308268E-03    2     1000014       -14   # BR(chi^0_2 -> ~nu_mu nu_bar_mu)
     2.22308268E-03    2    -1000014        14   # BR(chi^0_2 -> ~nu^*_mu nu_mu)
     2.36395480E-03    2     1000016       -16   # BR(chi^0_2 -> ~nu_tau nu_bar_tau)
     2.36395480E-03    2    -1000016        16   # BR(chi^0_2 -> ~nu^*_tau nu_tau)
     2.98080210E-02    2     1000022        23   # BR(chi^0_2 -> chi^0_1 Z)
     6.16338671E-01    2     1000022        25   # BR(chi^0_2 -> chi^0_1 h^0)
     6.83712829E-10    2     1000039        22   # BR(chi^0_2 -> ~G photon)
     9.17742753E-11    2     1000039        23   # BR(chi^0_2 -> ~G Z)
     4.46501623E-09    2     1000039        25   # BR(chi^0_2 -> ~G h^0)
     8.32628840E-07    2     1000022        22   # BR(chi^0_2 -> chi^0_1 photon)
#    BR                NDA      ID1      ID2       ID3
     1.35450142E-08    3     1000022         2        -2   # BR(chi^0_2 -> chi^0_1 u u_bar)
     1.35589529E-08    3     1000022         4        -4   # BR(chi^0_2 -> chi^0_1 c c_bar)
     6.74720649E-09    3     1000022         1        -1   # BR(chi^0_2 -> chi^0_1 d d_bar)
     7.10321143E-09    3     1000022         3        -3   # BR(chi^0_2 -> chi^0_1 s s_bar)
     8.09465447E-07    3     1000022         5        -5   # BR(chi^0_2 -> chi^0_1 b b_bar)
     4.78761154E-06    3     1000022        11       -11   # BR(chi^0_2 -> chi^0_1 e^- e^+)
     4.82082362E-06    3     1000022        13       -13   # BR(chi^0_2 -> chi^0_1 mu^- mu^+)
     1.35320119E-05    3     1000022        15       -15   # BR(chi^0_2 -> chi^0_1 tau^- tau^+)
     3.52439902E-11    3     1000024         1        -2   # BR(chi^0_2 -> chi^+_1 d u_bar)
     3.52439902E-11    3    -1000024        -1         2   # BR(chi^0_2 -> chi^-_1 d_bar u)
     5.49775266E-12    3     1000024         3        -4   # BR(chi^0_2 -> chi^+_1 s c_bar)
     5.49775266E-12    3    -1000024        -3         4   # BR(chi^0_2 -> chi^-_1 s_bar c)
     1.14392001E-11    3     1000024        11       -12   # BR(chi^0_2 -> chi^+_1 e^- nu_bar_e)
     1.14392001E-11    3    -1000024       -11        12   # BR(chi^0_2 -> chi^-_1 e^+ nu_e)
     1.13004046E-11    3     1000024        13       -14   # BR(chi^0_2 -> chi^+_1 mu^- nu_bar_mu)
     1.13004046E-11    3    -1000024       -13        14   # BR(chi^0_2 -> chi^-_1 mu^+ nu_mu)
     1.14856312E-13    3     1000024        15       -16   # BR(chi^0_2 -> chi^+_1 tau^- nu_bar_tau)
     1.14856312E-13    3    -1000024       -15        16   # BR(chi^0_2 -> chi^-_1 tau^+ nu_tau)
DECAY   1000025     5.45912157E-01   # chi^0_3
#    BR                NDA      ID1      ID2
     1.29659674E-03    2     2000011       -11   # BR(chi^0_3 -> ~e^-_R e^+)
     1.29659674E-03    2    -2000011        11   # BR(chi^0_3 -> ~e^+_R e^-)
     1.86614652E-05    2     1000011       -11   # BR(chi^0_3 -> ~e^-_L e^+)
     1.86614652E-05    2    -1000011        11   # BR(chi^0_3 -> ~e^+_L e^-)
     1.63465751E-03    2     2000013       -13   # BR(chi^0_3 -> ~mu^-_R mu^+)
     1.63465751E-03    2    -2000013        13   # BR(chi^0_3 -> ~mu^+_R mu^-)
     3.02599381E-05    2     1000013       -13   # BR(chi^0_3 -> ~mu^-_L mu^+)
     3.02599381E-05    2    -1000013        13   # BR(chi^0_3 -> ~mu^+_L mu^-)
     9.87983106E-02    2     1000015       -15   # BR(chi^0_3 -> ~tau^-_1 tau^+)
     9.87983106E-02    2    -1000015        15   # BR(chi^0_3 -> ~tau^+_1 tau^-)
     3.37071076E-03    2     2000015       -15   # BR(chi^0_3 -> ~tau^-_2 tau^+)
     3.37071076E-03    2    -2000015        15   # BR(chi^0_3 -> ~tau^+_2 tau^-)
     1.37873417E-04    2     1000012       -12   # BR(chi^0_3 -> ~nu_e nu_bar_e)
     1.37873417E-04    2    -1000012        12   # BR(chi^0_3 -> ~nu^*_e nu_e)
     1.37893388E-04    2     1000014       -14   # BR(chi^0_3 -> ~nu_mu nu_bar_mu)
     1.37893388E-04    2    -1000014        14   # BR(chi^0_3 -> ~nu^*_mu nu_mu)
     1.43570187E-04    2     1000016       -16   # BR(chi^0_3 -> ~nu_tau nu_bar_tau)
     1.43570187E-04    2    -1000016        16   # BR(chi^0_3 -> ~nu^*_tau nu_tau)
     7.58401018E-01    2     1000022        23   # BR(chi^0_3 -> chi^0_1 Z)
     3.04162843E-02    2     1000022        25   # BR(chi^0_3 -> chi^0_1 h^0)
     3.04576984E-13    2     1000039        22   # BR(chi^0_3 -> ~G photon)
     1.02256868E-09    2     1000039        23   # BR(chi^0_3 -> ~G Z)
     5.20996250E-09    2     1000039        25   # BR(chi^0_3 -> ~G h^0)
     8.91962913E-07    2     1000022        22   # BR(chi^0_3 -> chi^0_1 photon)
     4.11714265E-09    2     1000023        22   # BR(chi^0_3 -> chi^0_2 photon)
#    BR                NDA      ID1      ID2       ID3
     2.02663455E-10    3     1000022         2        -2   # BR(chi^0_3 -> chi^0_1 u u_bar)
     2.39405509E-10    3     1000022         4        -4   # BR(chi^0_3 -> chi^0_1 c c_bar)
     5.63199859E-11    3     1000022         1        -1   # BR(chi^0_3 -> chi^0_1 d d_bar)
     6.03460006E-10    3     1000022         3        -3   # BR(chi^0_3 -> chi^0_1 s s_bar)
     1.23110640E-06    3     1000022         5        -5   # BR(chi^0_3 -> chi^0_1 b b_bar)
     1.14260676E-07    3     1000022        11       -11   # BR(chi^0_3 -> chi^0_1 e^- e^+)
     1.63195172E-07    3     1000022        13       -13   # BR(chi^0_3 -> chi^0_1 mu^- mu^+)
     1.33453928E-05    3     1000022        15       -15   # BR(chi^0_3 -> chi^0_1 tau^- tau^+)
     7.09782873E-07    3     1000023         2        -2   # BR(chi^0_3 -> chi^0_2 u u_bar)
     6.93691178E-07    3     1000023         4        -4   # BR(chi^0_3 -> chi^0_2 c c_bar)
     9.21090013E-07    3     1000023         1        -1   # BR(chi^0_3 -> chi^0_2 d d_bar)
     9.20902110E-07    3     1000023         3        -3   # BR(chi^0_3 -> chi^0_2 s s_bar)
     6.44746020E-07    3     1000023         5        -5   # BR(chi^0_3 -> chi^0_2 b b_bar)
     2.11792065E-07    3     1000023        11       -11   # BR(chi^0_3 -> chi^0_2 e^- e^+)
     2.11759617E-07    3     1000023        13       -13   # BR(chi^0_3 -> chi^0_2 mu^- mu^+)
     2.02047004E-07    3     1000023        15       -15   # BR(chi^0_3 -> chi^0_2 tau^- tau^+)
     1.26565838E-06    3     1000023        12       -12   # BR(chi^0_3 -> chi^0_2 nu_e nu_bar_e)
     4.04947327E-06    3     1000024         1        -2   # BR(chi^0_3 -> chi^+_1 d u_bar)
     4.04947327E-06    3    -1000024        -1         2   # BR(chi^0_3 -> chi^-_1 d_bar u)
     3.98963694E-06    3     1000024         3        -4   # BR(chi^0_3 -> chi^+_1 s c_bar)
     3.98963694E-06    3    -1000024        -3         4   # BR(chi^0_3 -> chi^-_1 s_bar c)
     1.34836101E-06    3     1000024        11       -12   # BR(chi^0_3 -> chi^+_1 e^- nu_bar_e)
     1.34836101E-06    3    -1000024       -11        12   # BR(chi^0_3 -> chi^-_1 e^+ nu_e)
     1.34835412E-06    3     1000024        13       -14   # BR(chi^0_3 -> chi^+_1 mu^- nu_bar_mu)
     1.34835412E-06    3    -1000024       -13        14   # BR(chi^0_3 -> chi^-_1 mu^+ nu_mu)
     1.30963636E-06    3     1000024        15       -16   # BR(chi^0_3 -> chi^+_1 tau^- nu_bar_tau)
     1.30963636E-06    3    -1000024       -15        16   # BR(chi^0_3 -> chi^-_1 tau^+ nu_tau)
DECAY   1000035     6.19709207E+00   # chi^0_4
#    BR                NDA      ID1      ID2
     2.24536187E-04    2     2000011       -11   # BR(chi^0_4 -> ~e^-_R e^+)
     2.24536187E-04    2    -2000011        11   # BR(chi^0_4 -> ~e^+_R e^-)
     4.33439288E-02    2     1000011       -11   # BR(chi^0_4 -> ~e^-_L e^+)
     4.33439288E-02    2    -1000011        11   # BR(chi^0_4 -> ~e^+_L e^-)
     2.24864046E-04    2     2000013       -13   # BR(chi^0_4 -> ~mu^-_R mu^+)
     2.24864046E-04    2    -2000013        13   # BR(chi^0_4 -> ~mu^+_R mu^-)
     4.33463198E-02    2     1000013       -13   # BR(chi^0_4 -> ~mu^-_L mu^+)
     4.33463198E-02    2    -1000013        13   # BR(chi^0_4 -> ~mu^+_L mu^-)
     3.26617749E-04    2     1000015       -15   # BR(chi^0_4 -> ~tau^-_1 tau^+)
     3.26617749E-04    2    -1000015        15   # BR(chi^0_4 -> ~tau^+_1 tau^-)
     4.40225818E-02    2     2000015       -15   # BR(chi^0_4 -> ~tau^-_2 tau^+)
     4.40225818E-02    2    -2000015        15   # BR(chi^0_4 -> ~tau^+_2 tau^-)
     4.82508280E-02    2     1000012       -12   # BR(chi^0_4 -> ~nu_e nu_bar_e)
     4.82508280E-02    2    -1000012        12   # BR(chi^0_4 -> ~nu^*_e nu_e)
     4.82525937E-02    2     1000014       -14   # BR(chi^0_4 -> ~nu_mu nu_bar_mu)
     4.82525937E-02    2    -1000014        14   # BR(chi^0_4 -> ~nu^*_mu nu_mu)
     4.87507027E-02    2     1000016       -16   # BR(chi^0_4 -> ~nu_tau nu_bar_tau)
     4.87507027E-02    2    -1000016        16   # BR(chi^0_4 -> ~nu^*_tau nu_tau)
     1.35331425E-01    2     1000024       -24   # BR(chi^0_4 -> chi^+_1 W^-)
     1.35331425E-01    2    -1000024        24   # BR(chi^0_4 -> chi^-_1 W^+)
     4.35942907E-04    2     1000022        23   # BR(chi^0_4 -> chi^0_1 Z)
     1.31405688E-03    2     1000023        23   # BR(chi^0_4 -> chi^0_2 Z)
     8.29020073E-02    2     1000025        23   # BR(chi^0_4 -> chi^0_3 Z)
     4.37000237E-03    2     1000022        25   # BR(chi^0_4 -> chi^0_1 h^0)
     8.65180901E-02    2     1000023        25   # BR(chi^0_4 -> chi^0_2 h^0)
     2.98856339E-04    2     1000025        25   # BR(chi^0_4 -> chi^0_3 h^0)
     5.30776732E-10    2     1000039        22   # BR(chi^0_4 -> ~G photon)
     2.57146538E-09    2     1000039        23   # BR(chi^0_4 -> ~G Z)
     2.19436900E-10    2     1000039        25   # BR(chi^0_4 -> ~G h^0)
     2.52973470E-07    2     1000022        22   # BR(chi^0_4 -> chi^0_1 photon)
     9.32418117E-07    2     1000023        22   # BR(chi^0_4 -> chi^0_2 photon)
     8.93642051E-07    2     1000025        22   # BR(chi^0_4 -> chi^0_3 photon)
#    BR                NDA      ID1      ID2       ID3
     3.82176587E-08    3     1000022         2        -2   # BR(chi^0_4 -> chi^0_1 u u_bar)
     3.82119665E-08    3     1000022         4        -4   # BR(chi^0_4 -> chi^0_1 c c_bar)
     1.75470497E-06    3     1000022         6        -6   # BR(chi^0_4 -> chi^0_1 t t_bar)
     5.08534741E-08    3     1000022         1        -1   # BR(chi^0_4 -> chi^0_1 d d_bar)
     5.08553038E-08    3     1000022         3        -3   # BR(chi^0_4 -> chi^0_1 s s_bar)
     6.28535619E-08    3     1000022         5        -5   # BR(chi^0_4 -> chi^0_1 b b_bar)
     1.33640804E-07    3     1000022        11       -11   # BR(chi^0_4 -> chi^0_1 e^- e^+)
     1.33705012E-07    3     1000022        13       -13   # BR(chi^0_4 -> chi^0_1 mu^- mu^+)
     1.53219066E-07    3     1000022        15       -15   # BR(chi^0_4 -> chi^0_1 tau^- tau^+)
     3.18675353E-09    3     1000023         2        -2   # BR(chi^0_4 -> chi^0_2 u u_bar)
     3.18359700E-09    3     1000023         4        -4   # BR(chi^0_4 -> chi^0_2 c c_bar)
     2.53446577E-09    3     1000023         1        -1   # BR(chi^0_4 -> chi^0_2 d d_bar)
     2.54495901E-09    3     1000023         3        -3   # BR(chi^0_4 -> chi^0_2 s s_bar)
     2.66474665E-08    3     1000023         5        -5   # BR(chi^0_4 -> chi^0_2 b b_bar)
     8.89850468E-07    3     1000023        11       -11   # BR(chi^0_4 -> chi^0_2 e^- e^+)
     8.90321035E-07    3     1000023        13       -13   # BR(chi^0_4 -> chi^0_2 mu^- mu^+)
     9.87009787E-07    3     1000023        15       -15   # BR(chi^0_4 -> chi^0_2 tau^- tau^+)
     1.21819729E-06    3     1000023        12       -12   # BR(chi^0_4 -> chi^0_2 nu_e nu_bar_e)
     3.21736253E-12    3     1000025         2        -2   # BR(chi^0_4 -> chi^0_3 u u_bar)
     3.42589045E-12    3     1000025         4        -4   # BR(chi^0_4 -> chi^0_3 c c_bar)
     5.86529913E-12    3     1000025         1        -1   # BR(chi^0_4 -> chi^0_3 d d_bar)
     1.43222989E-11    3     1000025         3        -3   # BR(chi^0_4 -> chi^0_3 s s_bar)
     1.91761495E-08    3     1000025         5        -5   # BR(chi^0_4 -> chi^0_3 b b_bar)
     2.73772022E-10    3     1000025        11       -11   # BR(chi^0_4 -> chi^0_3 e^- e^+)
     5.31155691E-10    3     1000025        13       -13   # BR(chi^0_4 -> chi^0_3 mu^- mu^+)
     7.21591267E-08    3     1000025        15       -15   # BR(chi^0_4 -> chi^0_3 tau^- tau^+)
     5.05282825E-09    3     1000025        12       -12   # BR(chi^0_4 -> chi^0_3 nu_e nu_bar_e)
     2.05918334E-09    3     1000024         1        -2   # BR(chi^0_4 -> chi^+_1 d u_bar)
     2.05918334E-09    3    -1000024        -1         2   # BR(chi^0_4 -> chi^-_1 d_bar u)
     2.07465654E-09    3     1000024         3        -4   # BR(chi^0_4 -> chi^+_1 s c_bar)
     2.07465654E-09    3    -1000024        -3         4   # BR(chi^0_4 -> chi^-_1 s_bar c)
     3.86919737E-08    3     1000024         5        -6   # BR(chi^0_4 -> chi^+_1 b t_bar)
     3.86919737E-08    3    -1000024        -5         6   # BR(chi^0_4 -> chi^-_1 b_bar t)
     5.56636032E-07    3     1000024        11       -12   # BR(chi^0_4 -> chi^+_1 e^- nu_bar_e)
     5.56636032E-07    3    -1000024       -11        12   # BR(chi^0_4 -> chi^-_1 e^+ nu_e)
     5.57058745E-07    3     1000024        13       -14   # BR(chi^0_4 -> chi^+_1 mu^- nu_bar_mu)
     5.57058745E-07    3    -1000024       -13        14   # BR(chi^0_4 -> chi^-_1 mu^+ nu_mu)
     6.58276960E-07    3     1000024        15       -16   # BR(chi^0_4 -> chi^+_1 tau^- nu_bar_tau)
     6.58276960E-07    3    -1000024       -15        16   # BR(chi^0_4 -> chi^-_1 tau^+ nu_tau)
DECAY   1000021     1.10897212E+01   # ~g
#    BR                NDA      ID1      ID2
     4.86335443E-02    2     2000002        -2   # BR(~g -> ~u_R u_bar)
     4.86335443E-02    2    -2000002         2   # BR(~g -> ~u^*_R u)
     1.18982752E-02    2     1000002        -2   # BR(~g -> ~u_L u_bar)
     1.18982752E-02    2    -1000002         2   # BR(~g -> ~u^*_L u)
     4.86330605E-02    2     2000004        -4   # BR(~g -> ~c_R c_bar)
     4.86330605E-02    2    -2000004         4   # BR(~g -> ~c^*_R c)
     1.18983609E-02    2     1000004        -4   # BR(~g -> ~c_L c_bar)
     1.18983609E-02    2    -1000004         4   # BR(~g -> ~c^*_L c)
     1.23206935E-04    2     1000006        -4   # BR(~g -> ~t_1 c_bar)
     1.23206935E-04    2    -1000006         4   # BR(~g -> ~t^*_1 c)
     1.24742466E-01    2     1000006        -6   # BR(~g -> ~t_1 t_bar)
     1.24742466E-01    2    -1000006         6   # BR(~g -> ~t^*_1 t)
     5.27262672E-02    2     2000001        -1   # BR(~g -> ~d_R d_bar)
     5.27262672E-02    2    -2000001         1   # BR(~g -> ~d^*_R d)
     1.15337202E-02    2     1000001        -1   # BR(~g -> ~d_L d_bar)
     1.15337202E-02    2    -1000001         1   # BR(~g -> ~d^*_L d)
     5.27283845E-02    2     2000003        -3   # BR(~g -> ~s_R s_bar)
     5.27283845E-02    2    -2000003         3   # BR(~g -> ~s^*_R s)
     1.15345677E-02    2     1000003        -3   # BR(~g -> ~s_L s_bar)
     1.15345677E-02    2    -1000003         3   # BR(~g -> ~s^*_L s)
     5.77443234E-02    2     1000005        -5   # BR(~g -> ~b_1 b_bar)
     5.77443234E-02    2    -1000005         5   # BR(~g -> ~b^*_1 b)
     4.31043186E-02    2     2000005        -5   # BR(~g -> ~b_2 b_bar)
     4.31043186E-02    2    -2000005         5   # BR(~g -> ~b^*_2 b)
     4.34265367E-06    2     1000022        21   # BR(~g -> chi^0_1 g)
     1.47296849E-04    2     1000023        21   # BR(~g -> chi^0_2 g)
     1.72184692E-04    2     1000025        21   # BR(~g -> chi^0_3 g)
     2.77967087E-05    2     1000035        21   # BR(~g -> chi^0_4 g)
#    BR                NDA      ID1      ID2       ID3
     3.69377288E-04    3     1000022         6        -6   # BR(~g -> chi^0_1 t t_bar)
     1.13275037E-02    3     1000023         6        -6   # BR(~g -> chi^0_2 t t_bar)
     1.28808357E-02    3     1000025         6        -6   # BR(~g -> chi^0_3 t t_bar)
     9.57460340E-03    3     1000035         6        -6   # BR(~g -> chi^0_4 t t_bar)
     8.94729565E-04    3     1000024         5        -6   # BR(~g -> chi^+_1 b t_bar)
     8.94729565E-04    3    -1000024        -5         6   # BR(~g -> chi^-_1 b_bar t)
     6.55280430E-03    3     1000037         5        -6   # BR(~g -> chi^+_2 b t_bar)
     6.55280430E-03    3    -1000037        -5         6   # BR(~g -> chi^-_2 b_bar t)
DECAY        25     2.74138802E-03   # h^0
#    BR                NDA      ID1      ID2
     8.57956703E-09    2          11       -11   # BR(h^0 -> e^- e^+)
     3.66796428E-04    2          13       -13   # BR(h^0 -> mu^- mu^+)
     1.03409370E-01    2          15       -15   # BR(h^0 -> tau^- tau^+)
     6.88806563E-07    2           1        -1   # BR(h^0 -> d d_bar)
     3.03762876E-04    2           3        -3   # BR(h^0 -> s s_bar)
     6.55934440E-01    2           5        -5   # BR(h^0 -> b b_bar)
     2.41476790E-07    2           2        -2   # BR(h^0 -> u u_bar)
     4.32664427E-02    2           4        -4   # BR(h^0 -> c c_bar)
     6.45190227E-02    2          21        21   # BR(h^0 -> g g)
     3.05925416E-03    2          22        22   # BR(h^0 -> photon photon)
# writing decays into V V* as 3-body decays
#    BR                NDA      ID1      ID2       ID3
     5.93418809E-03    3          24        11        12   # BR(h^0 -> W^+ e^- nu_e)
     5.93418809E-03    3          24        13        14   # BR(h^0 -> W^+ mu^- nu_mu)
     5.93418809E-03    3          24        15        16   # BR(h^0 -> W^+ tau^- nu_tau)
     2.07696583E-02    3          24         1        -2   # BR(h^0 -> W^+ d u_bar)
     2.07696583E-02    3          24         3        -4   # BR(h^0 -> W^+ s c_bar)
     5.93418809E-03    3         -24       -11       -12   # BR(h^0 -> W^- e^+ nu_bar_e)
     5.93418809E-03    3         -24       -13       -14   # BR(h^0 -> W^- mu^+ nu_bar_mu)
     5.93418809E-03    3         -24       -15       -16   # BR(h^0 -> W^- tau^+ nu_bar_tau)
     2.07696583E-02    3         -24        -1         2   # BR(h^0 -> W^- d_bar u)
     2.07696583E-02    3         -24        -3         4   # BR(h^0 -> W^- s_bar c)
     3.65967377E-04    3          23        11       -11   # BR(h^0 -> Z e^- e^+)
     3.65967377E-04    3          23        13       -13   # BR(h^0 -> Z mu^- mu^+)
     3.13686323E-04    3          23        15       -15   # BR(h^0 -> Z tau^- tau^+)
     2.09124216E-03    3          23        12       -12   # BR(h^0 -> Z nu_e nu_bar_e)
     1.46386951E-03    3          23         1        -1   # BR(h^0 -> Z u u_bar)
     1.46386951E-03    3          23         3        -3   # BR(h^0 -> Z c c_bar)
     1.46386951E-03    3          23         5        -5   # BR(h^0 -> Z t t_bar)
     1.46386951E-03    3          23         2        -2   # BR(h^0 -> Z u u_bar)
     1.46386951E-03    3          23         4        -4   # BR(h^0 -> Z c c_bar)
DECAY        35     3.12588801E+00   # H^0
#    BR                NDA      ID1      ID2
     1.18934716E-08    2          11       -11   # BR(H^0 -> e^- e^+)
     5.08480524E-04    2          13       -13   # BR(H^0 -> mu^- mu^+)
     1.43908903E-01    2          15       -15   # BR(H^0 -> tau^- tau^+)
     7.93351363E-07    2           1        -1   # BR(H^0 -> d d_bar)
     3.49867823E-04    2           3        -3   # BR(H^0 -> s s_bar)
     7.81946694E-01    2           5        -5   # BR(H^0 -> b b_bar)
     7.71032786E-12    2           2        -2   # BR(H^0 -> u u_bar)
     1.38177861E-06    2           4        -4   # BR(H^0 -> c c_bar)
     6.89693408E-02    2           6        -6   # BR(H^0 -> t t_bar)
     2.45639213E-05    2     2000011  -2000011   # BR(H^0 -> ~e^-_R ~e^+_R)
     2.45563106E-05    2     2000013  -2000013   # BR(H^0 -> ~mu^-_R ~mu^+_R)
     2.23359558E-05    2     1000015  -1000015   # BR(H^0 -> ~tau^-_1 ~tau^+_1)
     4.47306800E-04    2     1000022   1000022   # BR(H^0 -> chi^0_1 chi^0_1)
     1.06644273E-03    2          23        23   # BR(H^0 -> Z Z)
     2.03960461E-03    2          24       -24   # BR(H^0 -> W^+ W^-)
     6.31586509E-04    2          25        25   # BR(H^0 -> h^0 h^0)
     5.77814744E-05    2          21        21   # BR(H^0 -> g g)
     3.48460440E-07    2          22        22   # BR(H^0 -> photon photon)
DECAY        36     3.12336196E+00   # A^0
#    BR                NDA      ID1      ID2
     1.19087716E-08    2          11       -11   # BR(A^0 -> e^- e^+)
     5.09134666E-04    2          13       -13   # BR(A^0 -> mu^- mu^+)
     1.44095841E-01    2          15       -15   # BR(A^0 -> tau^- tau^+)
     7.94370773E-07    2           1        -1   # BR(A^0 -> d d_bar)
     3.50317371E-04    2           3        -3   # BR(A^0 -> s s_bar)
     7.82958435E-01    2           5        -5   # BR(A^0 -> b b_bar)
     6.76541156E-12    2           2        -2   # BR(A^0 -> u u_bar)
     1.21243864E-06    2           4        -4   # BR(A^0 -> c c_bar)
     6.64177216E-02    2           6        -6   # BR(A^0 -> t t_bar)
     3.62440766E-03    2     1000022   1000022   # BR(A^0 -> chi^0_1 chi^0_1)
     1.99738458E-03    2          25        23   # BR(A^0 -> h^0 Z)
     4.44951319E-05    2          21        21   # BR(A^0 -> g g)
     2.44215303E-07    2          22        22   # BR(A^0 -> photon photon)
DECAY        37     2.67147718E+00   # H^+
#    BR                NDA      ID1      ID2
     1.39732232E-08    2         -11        12   # BR(H^+ -> e^+ nu_e)
     5.97395983E-04    2         -13        12   # BR(H^+ -> mu^+ nu_e)
     1.69075662E-01    2         -15        12   # BR(H^+ -> tau^+ nu_e)
     8.20631166E-07    2          -1         2   # BR(H^+ -> d_bar u)
     3.63146448E-04    2          -3         4   # BR(H^+ -> s_bar c)
     8.27652905E-01    2          -5         6   # BR(H^+ -> b_bar t)
     2.31005635E-03    2          25        24   # BR(H^+ -> h^0 W^+)
DECAY         6     2.43000000E+00   # top
#    BR                NDA      ID1      ID2
     1.00000000E+00    2           5        24   # BR(t -> b W)
Block HiggsBoundsInputHiggsCouplingsFermions
# ScalarNormEffCoupSq PseudoSNormEffCoupSq NP IP1 IP2 IP2
    1.14042065E+00    0.00000000E+00        3  25   5   5  # h0-b-b eff. coupling^2, normalised to SM
    2.24859579E+02    0.00000000E+00        3  35   5   5  # H0-b-b eff. coupling^2, normalised to SM
    0.00000000E+00    2.25000000E+02        3  36   5   5  # A0-b-b eff. coupling^2, normalised to SM
#
    9.99375908E-01    0.00000000E+00        3  25   6   6  # h0-t-t eff. coupling^2, normalised to SM
    5.06853624E-03    0.00000000E+00        3  35   6   6  # H0-t-t eff. coupling^2, normalised to SM
    0.00000000E+00    4.44444444E-03        3  36   6   6  # A0-t-t eff. coupling^2, normalised to SM
#
    1.14042065E+00    0.00000000E+00        3  25  15  15  # h0-tau-tau eff. coupling^2, normalised to SM
    2.24859579E+02    0.00000000E+00        3  35  15  15  # H0-tau-tau eff. coupling^2, normalised to SM
    0.00000000E+00    2.25000000E+02        3  36  15  15  # A0-tau-tau eff. coupling^2, normalised to SM
#
Block HiggsBoundsInputHiggsCouplingsBosons
    9.99979500E-01        3  25  24  24  # h0-W-W eff. coupling^2, normalised to SM
    2.04997931E-05        3  35  24  24  # H0-W-W eff. coupling^2, normalised to SM
    0.00000000E+00        3  36  24  24  # A0-W-W eff. coupling^2, normalised to SM
#
    9.99979500E-01        3  25  23  23  # h0-Z-Z eff. coupling^2, normalised to SM
    2.04997931E-05        3  35  23  23  # H0-Z-Z eff. coupling^2, normalised to SM
    0.00000000E+00        3  36  23  23  # A0-Z-Z eff. coupling^2, normalised to SM
#
    1.16082447E+00        3  25  21  21  # h0-g-g eff. coupling^2, normalised to SM
    4.79432544E-03        3  35  21  21  # H0-g-g eff. coupling^2, normalised to SM
    1.07222500E-01        3  36  21  21  # A0-g-g eff. coupling^2, normalised to SM
#
    0.00000000E+00        3  25  25  23  # h0-h0-Z eff. coupling^2, normalised to SM
    0.00000000E+00        3  35  25  23  # H0-h0-Z eff. coupling^2, normalised to SM
    2.04997931E-05        3  36  25  23  # A0-h0-Z eff. coupling^2, normalised to SM
    0.00000000E+00        3  35  35  23  # H0-H0-Z eff. coupling^2, normalised to SM
    9.99979500E-01        3  36  35  23  # A0-H0-Z eff. coupling^2, normalised to SM
    0.00000000E+00        3  36  36  23  # A0-A0-Z eff. coupling^2, normalised to SM
#
    0.00000000E+00        4  25  21  21  23  # h0-g-g-Z eff. coupling^2, normalised to SM
    0.00000000E+00        4  35  21  21  23  # H0-g-g-Z eff. coupling^2, normalised to SM
    0.00000000E+00        4  36  21  21  23  # A0-g-g-Z eff. coupling^2, normalised to SM
Block SPhenoLowEnergy  # low energy observables
    1    3.17341568E-04   # BR(b -> s gamma)
    2    1.59014866E-06   # BR(b -> s mu+ mu-)
    3    3.53871014E-05   # BR(b -> s nu nu)
    4    5.17654122E-11   # BR(Bd -> mu+ mu-)
    5    3.38183117E-09   # BR(Bs -> mu+ mu-)
    6    1.09670797E-04   # BR(B_u -> tau nu)
    7    9.91658385E-01   # BR(B_u -> tau nu)/BR(B_u -> tau nu)_SM
    8    2.73682386E-01   # |Delta(M_Bd)| [ps^-1] 
    9    2.03103869E+01   # |Delta(M_Bs)| [ps^-1] 
   20    1.26232527E-14   # Delta(g-2)_electron/2
   21    2.71277173E-10   # Delta(g-2)_muon/2
   22    1.80396658E-08   # Delta(g-2)_tau/2
   23    0.00000000E+00   # electric dipole moment of the electron
   24    0.00000000E+00   # electric dipole moment of the muon
   25    0.00000000E+00   # electric dipole moment of the tau
   26    0.00000000E+00   # Br(mu -> e gamma)
   27    0.00000000E+00   # Br(tau -> e gamma)
   28    0.00000000E+00   # Br(tau -> mu gamma)
   29    0.00000000E+00   # Br(mu -> 3 e)
   30    0.00000000E+00   # Br(tau -> 3 e)
   31    0.00000000E+00   # Br(tau -> 3 mu)
   39    6.08580294E-04   # Delta(rho_parameter)
   40    0.00000000E+00   # BR(Z -> e mu)
   41    0.00000000E+00   # BR(Z -> e tau)
   42    0.00000000E+00   # BR(Z -> mu tau)
Block FWCOEF Q=  9.11876000E+01  # Wilson coefficients at scale Q
#    id        order  M        value         comment
Block FWCOEF Q=  1.60000000E+02  # Wilson coefficients at scale Q
#    id        order  M        value         comment
     0305 4422   00   0    -1.87757860E-01   # C7
     0305 4422   00   1    -1.85301335E-02   # C7
     0305 4322   00   1    -4.04468658E-04   # C7'
     0305 6421   00   0    -9.48895263E-02   # C8
     0305 6421   00   1    -2.56103616E-02   # C8
     0305 6321   00   1    -5.52531774E-04   # C8'
 03051111 4133   00   0    -1.11288216E+00   # C9 e+e-
 03051111 4133   00   1     1.07169984E-03   # C9 e+e-
 03051111 4233   00   1    -8.77753299E-06   # C9' e+e-
 03051111 4137   00   0    -3.95572004E+00   # C10 e+e-
 03051111 4137   00   1     3.16211912E-03   # C10 e+e-
 03051111 4237   00   1     2.13101235E-04   # C10' e+e-
 03051313 4133   00   0    -1.11288216E+00   # C9 mu+mu-
 03051313 4133   00   1     1.07166903E-03   # C9 mu+mu-
 03051313 4233   00   1    -8.77780202E-06   # C9' mu+mu-
 03051313 4137   00   0    -3.95572004E+00   # C10 mu+mu-
 03051313 4137   00   1     3.16208825E-03   # C10 mu+mu-
 03051313 4237   00   1     2.13101504E-04   # C10' mu+mu-
 03051212 4237   00   0     1.49015290E+00   # C11 nu_1 nu_1
 03051212 4237   00   1    -7.61067080E-04   # C11 nu_1 nu_1
 03051212 4137   00   1    -5.11117443E-05   # C11' nu_1 nu_1
 03051414 4237   00   0     1.49015290E+00   # C11 nu_2 nu_2
 03051414 4237   00   1    -7.61067055E-04   # C11 nu_2 nu_2
 03051414 4137   00   1    -5.11116808E-05   # C11' nu_2 nu_2
 03051616 4237   00   0     1.49015290E+00   # C11 nu_3 nu_3
 03051616 4237   00   1    -7.61059208E-04   # C11 nu_3 nu_3
 03051616 4137   00   1    -5.10937785E-05   # C11' nu_3 nu_3
