#
#                              ======================
#                              | THE SUSYHIT OUTPUT |
#                              ======================
#
#
#              ------------------------------------------------------
#              |     This is the output of the SUSY-HIT package     |
#              |  created by A.Djouadi, M.Muehlleitner and M.Spira. |
#              |  In case of problems with SUSY-HIT email to        |
#              |           margarete.muehlleitner@cern.ch           |
#              |           michael.spira@psi.ch                     |
#              |           abdelhak.djouadi@cern.ch                 |
#              ------------------------------------------------------
#
#              ------------------------------------------------------
#              |  SUSY Les Houches Accord - MSSM Spectrum + Decays  |
#              |              based on the decay programs           |
#              |                                                    |
#              |                     SDECAY 1.3b                    |
#              |                                                    |
#              |  Authors: M.Muhlleitner, A.Djouadi and Y.Mambrini  |
#              |  Ref.:    Comput.Phys.Commun.168(2005)46           |
#              |           [hep-ph/0311167]                         |
#              |                                                    |
#              |                     HDECAY 3.4                     |
#              |                                                    |
#              |  By: A.Djouadi,J.Kalinowski,M.Muhlleitner,M.Spira  |
#              |  Ref.:    Comput.Phys.Commun.108(1998)56           |
#              |           [hep-ph/9704448]                         |
#              |                                                    |
#              |                                                    |
#              |  If not stated otherwise all DRbar couplings and   |
#              |  soft SUSY breaking masses are given at the scale  |
#              |  Q=  0.91187600E+02
#              |                                                    |
#              ------------------------------------------------------
#
#
BLOCK DCINFO  # Decay Program information
     1   SDECAY/HDECAY # decay calculator
     2   1.3b  /3.4    # version number
#
BLOCK SPINFO  # Spectrum calculator information
     1   SuSpect     # RGE +Spectrum calculator            
     2   2.41         # version number                     
#
BLOCK MODSEL  # Model selection
     1     0   # #general MSSM low scale                           
#
BLOCK SMINPUTS  # Standard Model inputs
         1     1.27934000E+02   # alpha_em^-1(M_Z)^MSbar
         2     1.16639000E-05   # G_F [GeV^-2]
         3     1.17200000E-01   # alpha_S(M_Z)^MSbar
         4     9.11870000E+01   # M_Z pole mass
         5     4.25000000E+00   # mb(mb)^MSbar
         6     1.72500000E+02   # mt pole mass
         7     1.77700000E+00   # mtau pole mass
#
BLOCK MINPAR  # Input parameters - minimal models
#
BLOCK EXTPAR  # Input parameters - non-minimal models
         0     9.11876000E+01   # EWSB                
         1     9.00000000E+02   # M_1                 
         2     1.00000000E+05   # M_2                 
         3     2.20000000E+03   # M_3                 
        11     0.00000000E+00   # A_t                 
        12     0.00000000E+00   # A_b                 
        13     0.00000000E+00   # A_tau               
        14     0.00000000E+00   # A_u                 
        15     0.00000000E+00   # A_d                 
        16     0.00000000E+00   # A_e                 
        23     1.00000000E+05   # mu(EWSB)            
        25     1.50000000E+00   # tanbeta(in)         
        26     2.00000000E+03   # MA_pole             
        31     1.00000000E+05   # M_eL                
        32     1.00000000E+05   # M_muL               
        33     1.00000000E+05   # M_tauL              
        34     1.00000000E+05   # M_eR                
        35     1.00000000E+05   # M_muR               
        36     1.00000000E+05   # M_tauR              
        41     3.00000000E+03   # M_q1L               
        42     3.00000000E+03   # M_q2L               
        43     3.00000000E+03   # M_q3L               
        44     1.00000000E+05   # M_uR                
        45     1.00000000E+05   # M_cR                
        46     1.00000000E+05   # M_tR                
        47     3.00000000E+03   # M_dR                
        48     3.00000000E+03   # M_sR                
        49     3.00000000E+03   # M_bR                
#
BLOCK MASS  # Mass Spectrum
# PDG code           mass       particle
        24     8.06006000E+01   # W+
        25     1.25000000E+02   # h
        35     2.01728332E+03   # H
        36     2.00000000E+03   # A
        37     2.02275845E+03   # H+
         5     4.87877839E+00   # b-quark pole mass calculated from mb(mb)_Msbar
   1000001     3.00021876E+03   # ~d_L
   2000001     3.00004262E+03   # ~d_R
   1000002     2.99982385E+03   # ~u_L
   2000002     9.99999974E+04   # ~u_R
   1000003     3.00021876E+03   # ~s_L
   2000003     3.00004262E+03   # ~s_R
   1000004     2.99982385E+03   # ~c_L
   2000004     9.99999974E+04   # ~c_R
   1000005     2.95122739E+03   # ~b_1
   2000005     3.04825077E+03   # ~b_2
   1000006     3.00183150E+03   # ~t_1
   2000006     1.00000154E+05   # ~t_2
   1000011     1.00000004E+05   # ~e_L
   2000011     1.00000004E+05   # ~e_R
   1000012     9.99999922E+04   # ~nu_eL
   1000013     1.00000004E+05   # ~mu_L
   2000013     1.00000004E+05   # ~mu_R
   1000014     9.99999922E+04   # ~nu_muL
   1000015     9.99986731E+04   # ~tau_1
   2000015     1.00001335E+05   # ~tau_2
   1000016     9.99999922E+04   # ~nu_tauL
   1000021     2.20000000E+03   # ~g
   1000022     8.99981409E+02   # ~chi_10
   1000023     9.99230445E+04   # ~chi_20
   1000025    -1.00000002E+05   # ~chi_30
   1000035     1.00076976E+05   # ~chi_40
   1000024     9.99230354E+04   # ~chi_1+
   1000037     1.00076967E+05   # ~chi_2+
   1000039     5.00000000E-09   # ~gravitino
#
BLOCK NMIX  # Neutralino Mixing Matrix
  1  1     9.99999899E-01   # N_11
  1  2    -3.29714471E-07   # N_12
  1  3     3.73846494E-04   # N_13
  1  4    -2.51089018E-04   # N_14
  2  1     3.12687159E-04   # N_21
  2  2     7.07148507E-01   # N_22
  2  3    -5.00008934E-01   # N_23
  2  4     4.99931953E-01   # N_24
  3  1     8.68025487E-05   # N_31
  3  2    -7.69657646E-05   # N_32
  3  3    -7.07106742E-01   # N_33
  3  4    -7.07106811E-01   # N_34
  4  1     3.12248301E-04   # N_41
  4  2    -7.07065055E-01   # N_42
  4  3    -4.99990977E-01   # N_43
  4  4     5.00067928E-01   # N_44
#
BLOCK UMIX  # Chargino Mixing Matrix U
  1  1    -7.07052356E-01   # U_11
  1  2     7.07161202E-01   # U_12
  2  1     7.07161202E-01   # U_21
  2  2     7.07052356E-01   # U_22
#
BLOCK VMIX  # Chargino Mixing Matrix V
  1  1    -7.07161202E-01   # V_11
  1  2     7.07052356E-01   # V_12
  2  1     7.07052356E-01   # V_21
  2  2     7.07161202E-01   # V_22
#
BLOCK STOPMIX  # Stop Mixing Matrix
  1  1     9.99999517E-01   # cos(theta_t)
  1  2     9.82852871E-04   # sin(theta_t)
  2  1    -9.82852871E-04   # -sin(theta_t)
  2  2     9.99999517E-01   # cos(theta_t)
#
BLOCK SBOTMIX  # Sbottom Mixing Matrix
  1  1     7.06464545E-01   # cos(theta_b)
  1  2     7.07748435E-01   # sin(theta_b)
  2  1    -7.07748435E-01   # -sin(theta_b)
  2  2     7.06464545E-01   # cos(theta_b)
#
BLOCK STAUMIX  # Stau Mixing Matrix
  1  1     7.07084128E-01   # cos(theta_tau)
  1  2     7.07129434E-01   # sin(theta_tau)
  2  1    -7.07129434E-01   # -sin(theta_tau)
  2  2     7.07084128E-01   # cos(theta_tau)
#
BLOCK ALPHA  # Higgs mixing
          -6.74924109E-01   # Mixing angle in the neutral Higgs boson sector
#
BLOCK HMIX Q=  9.11876000E+01  # DRbar Higgs Parameters
         1     1.00000000E+05   # mu(Q)               
         2     1.49999982E+00   # tanbeta(Q)          
         3     2.55208261E+02   # vev(Q)              
         4    -2.17638560E+09   # MA^2(Q)             
#
BLOCK GAUGE Q=  9.11876000E+01  # The gauge couplings
     1     3.49925803E-01   # gprime(Q) DRbar
     2     6.15006781E-01   # g(Q) DRbar
     3     1.07330688E+00   # g3(Q) DRbar
#
BLOCK AU Q=  9.11876000E+01  # The trilinear couplings
  1  1     0.00000000E+00   # A_u(Q) DRbar
  2  2     0.00000000E+00   # A_c(Q) DRbar
  3  3     0.00000000E+00   # A_t(Q) DRbar
#
BLOCK AD Q=  9.11876000E+01  # The trilinear couplings
  1  1     0.00000000E+00   # A_d(Q) DRbar
  2  2     0.00000000E+00   # A_s(Q) DRbar
  3  3     0.00000000E+00   # A_b(Q) DRbar
#
BLOCK AE Q=  9.11876000E+01  # The trilinear couplings
  1  1     0.00000000E+00   # A_e(Q) DRbar
  2  2     0.00000000E+00   # A_mu(Q) DRbar
  3  3     0.00000000E+00   # A_tau(Q) DRbar
#
BLOCK Yu Q=  9.11876000E+01  # The Yukawa couplings
  1  1     0.00000000E+00   # y_u(Q) DRbar
  2  2     0.00000000E+00   # y_c(Q) DRbar
  3  3     9.81011644E-01   # y_t(Q) DRbar
#
BLOCK Yd Q=  9.11876000E+01  # The Yukawa couplings
  1  1     0.00000000E+00   # y_d(Q) DRbar
  2  2     0.00000000E+00   # y_s(Q) DRbar
  3  3     1.93802883E-02   # y_b(Q) DRbar
#
BLOCK Ye Q=  9.11876000E+01  # The Yukawa couplings
  1  1     0.00000000E+00   # y_e(Q) DRbar
  2  2     0.00000000E+00   # y_mu(Q) DRbar
  3  3     1.77242775E-02   # y_tau(Q) DRbar
#
BLOCK MSOFT Q=  9.11876000E+01  # The soft SUSY breaking masses at the scale Q
         1     9.00000000E+02   # M_1                 
         2     1.00000000E+05   # M_2                 
         3     2.20000000E+03   # M_3                 
        14     0.00000000E+00   # A_u                 
        15     0.00000000E+00   # A_d                 
        16     0.00000000E+00   # A_e                 
        21    -1.06383011E+10   # M^2_Hd              
        22    -1.00384139E+10   # M^2_Hu              
        31     1.00000000E+05   # M_eL                
        32     1.00000000E+05   # M_muL               
        33     1.00000000E+05   # M_tauL              
        34     1.00000000E+05   # M_eR                
        35     1.00000000E+05   # M_muR               
        36     1.00000000E+05   # M_tauR              
        41     3.00000000E+03   # M_q1L               
        42     3.00000000E+03   # M_q2L               
        43     3.00000000E+03   # M_q3L               
        44     1.00000000E+05   # M_uR                
        45     1.00000000E+05   # M_cR                
        46     1.00000000E+05   # M_tR                
        47     3.00000000E+03   # M_dR                
        48     3.00000000E+03   # M_sR                
        49     3.00000000E+03   # M_bR                
#
#
#
#                             =================
#                             |The decay table|
#                             =================
#
# - The QCD corrections to the decays gluino -> squark  + quark
#                                     squark -> gaugino + quark_prime
#                                     squark -> squark_prime + Higgs
#                                     squark -> gluino  + quark
#   are included.
#
# - The multi-body decays for the inos, stops and sbottoms are included.
#
# - The loop induced decays for the gluino, neutralinos and stops
#   are included.
#
# - The SUSY decays of the top quark are included.
#
# - Possible decays of the NLSP in GMSB models are included.
#
#
#         PDG            Width
DECAY         6     1.30474438E+00   # top decays
#          BR         NDA      ID1       ID2
     1.00000000E+00    2           5        24   # BR(t ->  b    W+)
#
#         PDG            Width
DECAY   1000021     1.E-04   # gluino decays (OJ Mods)
#          BR         NDA      ID1       ID2
     2.30145381E-02    2     1000022        21   # BR(~g -> ~chi_10 g)
#          BR         NDA      ID1       ID2
     2.90845422E-03    2     1000039        21   # BR(~g -> ~G      g)
#           BR         NDA      ID1       ID2       ID3
     2.73319324E-01    3     1000022         1        -1   # BR(~g -> ~chi_10 d  db)
     5.46907929E-02    3     1000022         2        -2   # BR(~g -> ~chi_10 u  ub)
     2.73319324E-01    3     1000022         3        -3   # BR(~g -> ~chi_10 s  sb)
     5.46907929E-02    3     1000022         4        -4   # BR(~g -> ~chi_10 c  cb)
     2.74703176E-01    3     1000022         5        -5   # BR(~g -> ~chi_10 b  bb)
     4.33535964E-02    3     1000022         6        -6   # BR(~g -> ~chi_10 t  tb)
#
#         PDG            Width
DECAY   1000006     4.28366217E+01   # stop1 decays
#          BR         NDA      ID1       ID2
     7.45437591E-03    2     1000022         6   # BR(~t_1 -> ~chi_10 t )
     9.92545624E-01    2     1000021         6   # BR(~t_1 -> ~g      t )
#
#         PDG            Width
DECAY   2000006     4.78832022E+03   # stop2 decays
#          BR         NDA      ID1       ID2
     4.38239430E-02    2     1000022         6   # BR(~t_2 -> ~chi_10 t )
     3.23730522E-07    2     1000024         5   # BR(~t_2 -> ~chi_1+ b )
     5.56969662E-01    2     1000021         6   # BR(~t_2 -> ~g      t )
     2.67783894E-02    2     1000006        25   # BR(~t_2 -> ~t_1    h )
     4.52695565E-02    2     1000006        35   # BR(~t_2 -> ~t_1    H )
     5.11554361E-02    2     1000006        36   # BR(~t_2 -> ~t_1    A )
     5.08758168E-02    2     1000005        37   # BR(~t_2 -> ~b_1    H+)
     5.14792350E-02    2     2000005        37   # BR(~t_2 -> ~b_2    H+)
     5.73108091E-02    2     1000006        23   # BR(~t_2 -> ~t_1    Z )
     5.79500036E-02    2     1000005        24   # BR(~t_2 -> ~b_1    W+)
     5.83868252E-02    2     2000005        24   # BR(~t_2 -> ~b_2    W+)
#
#         PDG            Width
DECAY   1000005     4.03857824E+01   # sbottom1 decays
#          BR         NDA      ID1       ID2
     1.94387708E-02    2     1000022         5   # BR(~b_1 -> ~chi_10 b )
     9.80561229E-01    2     1000021         5   # BR(~b_1 -> ~g      b )
#
#         PDG            Width
DECAY   2000005     4.74569089E+01   # sbottom2 decays
#          BR         NDA      ID1       ID2
     1.72568313E-02    2     1000022         5   # BR(~b_2 -> ~chi_10 b )
     9.82110498E-01    2     1000021         5   # BR(~b_2 -> ~g      b )
     6.32671135E-04    2     1000005        23   # BR(~b_2 -> ~b_1    Z )
#
#         PDG            Width
DECAY   1000002     2.44243506E+01   # sup_L decays
#          BR         NDA      ID1       ID2
     1.34165662E-02    2     1000022         2   # BR(~u_L -> ~chi_10 u)
     9.86583434E-01    2     1000021         2   # BR(~u_L -> ~g      u)
#
#         PDG            Width
DECAY   2000002     3.96699980E+03   # sup_R decays
#          BR         NDA      ID1       ID2
     5.29008362E-02    2     1000022         2   # BR(~u_R -> ~chi_10 u)
     6.54250081E-13    2     1000023         2   # BR(~u_R -> ~chi_20 u)
     9.47099164E-01    2     1000021         2   # BR(~u_R -> ~g      u)
#
#         PDG            Width
DECAY   1000001     2.44423528E+01   # sdown_L decays
#          BR         NDA      ID1       ID2
     1.34092261E-02    2     1000022         1   # BR(~d_L -> ~chi_10 d)
     9.86590774E-01    2     1000021         1   # BR(~d_L -> ~g      d)
#
#         PDG            Width
DECAY   2000001     2.54174986E+01   # sdown_R decays
#          BR         NDA      ID1       ID2
     5.15747380E-02    2     1000022         1   # BR(~d_R -> ~chi_10 d)
     9.48425262E-01    2     1000021         1   # BR(~d_R -> ~g      d)
#
#         PDG            Width
DECAY   1000004     2.44243506E+01   # scharm_L decays
#          BR         NDA      ID1       ID2
     1.34165662E-02    2     1000022         4   # BR(~c_L -> ~chi_10 c)
     9.86583434E-01    2     1000021         4   # BR(~c_L -> ~g      c)
#
#         PDG            Width
DECAY   2000004     3.96699980E+03   # scharm_R decays
#          BR         NDA      ID1       ID2
     5.29008362E-02    2     1000022         4   # BR(~c_R -> ~chi_10 c)
     6.54250081E-13    2     1000023         4   # BR(~c_R -> ~chi_20 c)
     9.47099164E-01    2     1000021         4   # BR(~c_R -> ~g      c)
#
#         PDG            Width
DECAY   1000003     2.44423528E+01   # sstrange_L decays
#          BR         NDA      ID1       ID2
     1.34092261E-02    2     1000022         3   # BR(~s_L -> ~chi_10 s)
     9.86590774E-01    2     1000021         3   # BR(~s_L -> ~g      s)
#
#         PDG            Width
DECAY   2000003     2.54174986E+01   # sstrange_R decays
#          BR         NDA      ID1       ID2
     5.15747380E-02    2     1000022         3   # BR(~s_R -> ~chi_10 s)
     9.48425262E-01    2     1000021         3   # BR(~s_R -> ~g      s)
#
#         PDG            Width
DECAY   1000011     1.21782790E+02   # selectron_L decays
#          BR         NDA      ID1       ID2
     9.99989027E-01    2     1000022        11   # BR(~e_L -> ~chi_10 e-)
     3.65901298E-06    2     1000023        11   # BR(~e_L -> ~chi_20 e-)
     3.75912426E-24    2     1000025        11   # BR(~e_L -> ~chi_30 e-)
     7.31408483E-06    2    -1000024        12   # BR(~e_L -> ~chi_1- nu_e)
#
#         PDG            Width
DECAY   2000011     4.87126381E+02   # selectron_R decays
#          BR         NDA      ID1       ID2
     1.00000000E+00    2     1000022        11   # BR(~e_R -> ~chi_10 e-)
     2.31494498E-13    2     1000023        11   # BR(~e_R -> ~chi_20 e-)
     1.20574464E-23    2     1000025        11   # BR(~e_R -> ~chi_30 e-)
#
#         PDG            Width
DECAY   1000013     1.21782790E+02   # smuon_L decays
#          BR         NDA      ID1       ID2
     9.99989027E-01    2     1000022        13   # BR(~mu_L -> ~chi_10 mu-)
     3.65901298E-06    2     1000023        13   # BR(~mu_L -> ~chi_20 mu-)
     3.75912426E-24    2     1000025        13   # BR(~mu_L -> ~chi_30 mu-)
     7.31408483E-06    2    -1000024        14   # BR(~mu_L -> ~chi_1- nu_mu)
#
#         PDG            Width
DECAY   2000013     4.87126381E+02   # smuon_R decays
#          BR         NDA      ID1       ID2
     1.00000000E+00    2     1000022        13   # BR(~mu_R -> ~chi_10 mu-)
     2.31494498E-13    2     1000023        13   # BR(~mu_R -> ~chi_20 mu-)
     1.20574464E-23    2     1000025        13   # BR(~mu_R -> ~chi_30 mu-)
#
#         PDG            Width
DECAY   1000015     7.64952813E+02   # stau_1 decays
#          BR         NDA      ID1       ID2
     3.98017894E-01    2     1000022        15   # BR(~tau_1 -> ~chi_10  tau-)
     2.97465727E-07    2     1000023        15   # BR(~tau_1 -> ~chi_20  tau-)
     5.95111387E-07    2    -1000024        16   # BR(~tau_1 -> ~chi_1-  nu_tau)
     6.01981214E-01    2     1000039        15   # BR(~tau_1 -> ~G       tau-)
#
#         PDG            Width
DECAY   2000015     3.04443580E+02   # stau_2 decays
#          BR         NDA      ID1       ID2
     9.99997858E-01    2     1000022        15   # BR(~tau_2 -> ~chi_10  tau-)
     7.13872668E-07    2     1000023        15   # BR(~tau_2 -> ~chi_20  tau-)
     1.42795572E-06    2    -1000024        16   # BR(~tau_2 -> ~chi_1-  nu_tau)
#
#         PDG            Width
DECAY   1000012     1.21783058E+02   # snu_eL decays
#          BR         NDA      ID1       ID2
     9.99989032E-01    2     1000022        12   # BR(~nu_eL -> ~chi_10 nu_e)
     3.65420453E-06    2     1000023        12   # BR(~nu_eL -> ~chi_20 nu_e)
     7.31407943E-06    2     1000024        11   # BR(~nu_eL -> ~chi_1+ e-)
#
#         PDG            Width
DECAY   1000014     1.21783058E+02   # snu_muL decays
#          BR         NDA      ID1       ID2
     9.99989032E-01    2     1000022        14   # BR(~nu_muL -> ~chi_10 nu_mu)
     3.65420453E-06    2     1000023        14   # BR(~nu_muL -> ~chi_20 nu_mu)
     7.31407943E-06    2     1000024        13   # BR(~nu_muL -> ~chi_1+ mu-)
#
#         PDG            Width
DECAY   1000016     1.21783057E+02   # snu_tauL decays
#          BR         NDA      ID1       ID2
     9.99989037E-01    2     1000022        16   # BR(~nu_tauL -> ~chi_10 nu_tau)
     3.65420455E-06    2     1000023        16   # BR(~nu_tauL -> ~chi_20 nu_tau)
     7.30847280E-06    2     1000024        15   # BR(~nu_tauL -> ~chi_1+ tau-)
#
#         PDG            Width
DECAY   1000024     3.90532135E+03   # chargino1+ decays
#          BR         NDA      ID1       ID2
     1.25107069E-01    2     1000002        -1   # BR(~chi_1+ -> ~u_L     db)
     1.25068513E-01    2    -1000001         2   # BR(~chi_1+ -> ~d_L*    u )
     1.25107069E-01    2     1000004        -3   # BR(~chi_1+ -> ~c_L     sb)
     1.25068513E-01    2    -1000003         4   # BR(~chi_1+ -> ~s_L*    c )
     1.11684827E-01    2     1000006        -5   # BR(~chi_1+ -> ~t_1     bb)
     1.36669816E-01    2    -1000005         6   # BR(~chi_1+ -> ~b_1*    t )
     1.32619530E-01    2    -2000005         6   # BR(~chi_1+ -> ~b_2*    t )
     6.73126602E-03    2     1000022        24   # BR(~chi_1+ -> ~chi_10  W+)
     6.86271409E-03    2     1000022        37   # BR(~chi_1+ -> ~chi_10  H+)
     7.88411984E-02    2     1000039        24   # BR(~chi_1+ -> ~G       W+)
     2.62394845E-02    2     1000039        37   # BR(~chi_1+ -> ~G       H+)
#
#         PDG            Width
DECAY   1000037     3.90965346E+03   # chargino2+ decays
#          BR         NDA      ID1       ID2
     1.25036105E-01    2     1000002        -1   # BR(~chi_2+ -> ~u_L     db)
     1.25074560E-01    2    -1000001         2   # BR(~chi_2+ -> ~d_L*    u )
     1.25036105E-01    2     1000004        -3   # BR(~chi_2+ -> ~c_L     sb)
     1.25074560E-01    2    -1000003         4   # BR(~chi_2+ -> ~s_L*    c )
     1.11319941E-01    2     1000006        -5   # BR(~chi_2+ -> ~t_1     bb)
     8.25976120E-07    2     2000006        -5   # BR(~chi_2+ -> ~t_2     bb)
     1.31152924E-01    2    -1000005         6   # BR(~chi_2+ -> ~b_1*    t )
     1.37495439E-01    2    -2000005         6   # BR(~chi_2+ -> ~b_2*    t )
     1.01811309E-07    2     1000012       -11   # BR(~chi_2+ -> ~nu_eL   e+  )
     1.01811309E-07    2     1000014       -13   # BR(~chi_2+ -> ~nu_muL  mu+ )
     1.01733246E-07    2     1000016       -15   # BR(~chi_2+ -> ~nu_tau1 tau+)
     1.01811447E-07    2    -1000011        12   # BR(~chi_2+ -> ~e_L+    nu_e)
     1.01811447E-07    2    -1000013        14   # BR(~chi_2+ -> ~mu_L+   nu_mu)
     4.96851931E-08    2    -1000015        16   # BR(~chi_2+ -> ~tau_1+  nu_tau)
     5.20380012E-08    2    -2000015        16   # BR(~chi_2+ -> ~tau_2+  nu_tau)
     2.60715260E-04    2     1000024        23   # BR(~chi_2+ -> ~chi_1+  Z )
     6.71077903E-03    2     1000022        24   # BR(~chi_2+ -> ~chi_10  W+)
     2.98131646E-04    2     1000023        24   # BR(~chi_2+ -> ~chi_20  W+)
     7.56588653E-13    2     1000024        25   # BR(~chi_2+ -> ~chi_1+  h )
     6.83736267E-03    2     1000022        37   # BR(~chi_2+ -> ~chi_10  H+)
     7.93103492E-02    2     1000039        24   # BR(~chi_2+ -> ~G       W+)
     2.63915905E-02    2     1000039        37   # BR(~chi_2+ -> ~G       H+)
#
#         PDG            Width
DECAY   1000022     1.E-08   # neutralino1 decays (OJ Mods)
#          BR         NDA      ID1       ID2
     7.62982011E-01    2     1000039        22   # BR(~chi_10 -> ~G        gam)
     2.37017988E-01    2     1000039        23   # BR(~chi_10 -> ~G        Z)
     6.58832374E-10    2     1000039        25   # BR(~chi_10 -> ~G        h)
#
#         PDG            Width
DECAY   1000023     1.E-08   # neutralino2 decays (OJ Mods)
#          BR         NDA      ID1       ID2
     2.57970314E-04    2     1000022        23   # BR(~chi_20 -> ~chi_10   Z )
     7.01919176E-03    2     1000022        25   # BR(~chi_20 -> ~chi_10   h )
     8.66598300E-05    2     1000022        35   # BR(~chi_20 -> ~chi_10   H )
     6.58612896E-03    2     1000022        36   # BR(~chi_20 -> ~chi_10   A )
     6.05899930E-02    2     1000002        -2   # BR(~chi_20 -> ~u_L      ub)
     6.05899930E-02    2    -1000002         2   # BR(~chi_20 -> ~u_L*     u )
     6.05696562E-02    2     1000001        -1   # BR(~chi_20 -> ~d_L      db)
     6.05696562E-02    2    -1000001         1   # BR(~chi_20 -> ~d_L*     d )
     1.70426234E-09    2     2000001        -1   # BR(~chi_20 -> ~d_R      db)
     1.70426234E-09    2    -2000001         1   # BR(~chi_20 -> ~d_R*     d )
     6.05899930E-02    2     1000004        -4   # BR(~chi_20 -> ~c_L      cb)
     6.05899930E-02    2    -1000004         4   # BR(~chi_20 -> ~c_L*     c )
     6.05696562E-02    2     1000003        -3   # BR(~chi_20 -> ~s_L      sb)
     6.05696562E-02    2    -1000003         3   # BR(~chi_20 -> ~s_L*     s )
     1.70426234E-09    2     2000003        -3   # BR(~chi_20 -> ~s_R      sb)
     1.70426234E-09    2    -2000003         3   # BR(~chi_20 -> ~s_R*     s )
     1.34600982E-01    2     1000006        -6   # BR(~chi_20 -> ~t_1      tb)
     1.34600982E-01    2    -1000006         6   # BR(~chi_20 -> ~t_1*     t )
     2.90913672E-02    2     1000005        -5   # BR(~chi_20 -> ~b_1      bb)
     2.90913672E-02    2    -1000005         5   # BR(~chi_20 -> ~b_1*     b )
     2.66847379E-02    2     2000005        -5   # BR(~chi_20 -> ~b_2      bb)
     2.66847379E-02    2    -2000005         5   # BR(~chi_20 -> ~b_2*     b )
     1.28720861E-02    2     1000039        22   # BR(~chi_20 -> ~G        gam)
     6.49373538E-02    2     1000039        23   # BR(~chi_20 -> ~G        Z)
     3.18858822E-04    2     1000039        25   # BR(~chi_20 -> ~G        h)
     2.59083162E-02    2     1000039        35   # BR(~chi_20 -> ~G        H)
     1.00952184E-03    2     1000039        36   # BR(~chi_20 -> ~G        A)
#
#         PDG            Width
DECAY   1000025     1.49586425E+03   # neutralino3 decays
#          BR         NDA      ID1       ID2
     2.98900672E-02    2     1000022        23   # BR(~chi_30 -> ~chi_10   Z )
     3.71632687E-04    2     1000022        25   # BR(~chi_30 -> ~chi_10   h )
     3.01781804E-02    2     1000022        35   # BR(~chi_30 -> ~chi_10   H )
     1.21808349E-03    2     1000022        36   # BR(~chi_30 -> ~chi_10   A )
     9.90447934E-10    2     1000002        -2   # BR(~chi_30 -> ~u_L      ub)
     9.90447934E-10    2    -1000002         2   # BR(~chi_30 -> ~u_L*     u )
     1.79114144E-17    2     2000002        -2   # BR(~chi_30 -> ~u_R      ub)
     1.79114144E-17    2    -2000002         2   # BR(~chi_30 -> ~u_R*     u )
     2.36178739E-09    2     1000001        -1   # BR(~chi_30 -> ~d_L      db)
     2.36178739E-09    2    -1000001         1   # BR(~chi_30 -> ~d_L*     d )
     2.93328860E-10    2     2000001        -1   # BR(~chi_30 -> ~d_R      db)
     2.93328860E-10    2    -2000001         1   # BR(~chi_30 -> ~d_R*     d )
     9.90447934E-10    2     1000004        -4   # BR(~chi_30 -> ~c_L      cb)
     9.90447934E-10    2    -1000004         4   # BR(~chi_30 -> ~c_L*     c )
     1.79114144E-17    2     2000004        -4   # BR(~chi_30 -> ~c_R      cb)
     1.79114144E-17    2    -2000004         4   # BR(~chi_30 -> ~c_R*     c )
     2.36178739E-09    2     1000003        -3   # BR(~chi_30 -> ~s_L      sb)
     2.36178739E-09    2    -1000003         3   # BR(~chi_30 -> ~s_L*     s )
     2.93328860E-10    2     2000003        -3   # BR(~chi_30 -> ~s_R      sb)
     2.93328860E-10    2    -2000003         3   # BR(~chi_30 -> ~s_R*     s )
     3.51307706E-01    2     1000006        -6   # BR(~chi_30 -> ~t_1      tb)
     3.51307706E-01    2    -1000006         6   # BR(~chi_30 -> ~t_1*     t )
     1.17610254E-04    2     1000005        -5   # BR(~chi_30 -> ~b_1      bb)
     1.17610254E-04    2    -1000005         5   # BR(~chi_30 -> ~b_1*     b )
     1.19773851E-04    2     2000005        -5   # BR(~chi_30 -> ~b_2      bb)
     1.19773851E-04    2    -2000005         5   # BR(~chi_30 -> ~b_2*     b )
     5.89861748E-23    2     1000012       -12   # BR(~chi_30 -> ~nu_eL    nu_eb)
     5.89861748E-23    2    -1000012        12   # BR(~chi_30 -> ~nu_eL*   nu_e )
     5.89861748E-23    2     1000014       -14   # BR(~chi_30 -> ~nu_muL   nu_mub)
     5.89861748E-23    2    -1000014        14   # BR(~chi_30 -> ~nu_muL*  nu_mu )
     5.89861748E-23    2     1000016       -16   # BR(~chi_30 -> ~nu_tau1  nu_taub)
     5.89861748E-23    2    -1000016        16   # BR(~chi_30 -> ~nu_tau1* nu_tau )
     3.29020764E-10    2     1000039        22   # BR(~chi_30 -> ~G        gam)
     4.52760101E-03    2     1000039        23   # BR(~chi_30 -> ~G        Z)
     1.16286371E-01    2     1000039        25   # BR(~chi_30 -> ~G        h)
     1.42852656E-03    2     1000039        35   # BR(~chi_30 -> ~G        H)
     1.13009343E-01    2     1000039        36   # BR(~chi_30 -> ~G        A)
#
#         PDG            Width
DECAY   1000035     3.91063116E+03   # neutralino4 decays
#          BR         NDA      ID1       ID2
     2.58378857E-04    2     1000022        23   # BR(~chi_40 -> ~chi_10   Z )
     1.04393934E-18    2     1000023        23   # BR(~chi_40 -> ~chi_20   Z )
     2.97998964E-04    2     1000024       -24   # BR(~chi_40 -> ~chi_1+   W-)
     2.97998964E-04    2    -1000024        24   # BR(~chi_40 -> ~chi_1-   W+)
     6.99843433E-03    2     1000022        25   # BR(~chi_40 -> ~chi_10   h )
     8.56828535E-05    2     1000022        35   # BR(~chi_40 -> ~chi_10   H )
     6.56515811E-03    2     1000022        36   # BR(~chi_40 -> ~chi_10   A )
     4.75147358E-12    2     1000023        25   # BR(~chi_40 -> ~chi_20   h )
     6.05455330E-02    2     1000002        -2   # BR(~chi_40 -> ~u_L      ub)
     6.05455330E-02    2    -1000002         2   # BR(~chi_40 -> ~u_L*     u )
     1.75907502E-12    2     2000002        -2   # BR(~chi_40 -> ~u_R      ub)
     1.75907502E-12    2    -2000002         2   # BR(~chi_40 -> ~u_R*     u )
     6.05658057E-02    2     1000001        -1   # BR(~chi_40 -> ~d_L      db)
     6.05658057E-02    2    -1000001         1   # BR(~chi_40 -> ~d_L*     d )
     1.69920520E-09    2     2000001        -1   # BR(~chi_40 -> ~d_R      db)
     1.69920520E-09    2    -2000001         1   # BR(~chi_40 -> ~d_R*     d )
     6.05455330E-02    2     1000004        -4   # BR(~chi_40 -> ~c_L      cb)
     6.05455330E-02    2    -1000004         4   # BR(~chi_40 -> ~c_L*     c )
     1.75907502E-12    2     2000004        -4   # BR(~chi_40 -> ~c_R      cb)
     1.75907502E-12    2    -2000004         4   # BR(~chi_40 -> ~c_R*     c )
     6.05658057E-02    2     1000003        -3   # BR(~chi_40 -> ~s_L      sb)
     6.05658057E-02    2    -1000003         3   # BR(~chi_40 -> ~s_L*     s )
     1.69920520E-09    2     2000003        -3   # BR(~chi_40 -> ~s_R      sb)
     1.69920520E-09    2    -2000003         3   # BR(~chi_40 -> ~s_R*     s )
     1.34106650E-01    2     1000006        -6   # BR(~chi_40 -> ~t_1      tb)
     1.34106650E-01    2    -1000006         6   # BR(~chi_40 -> ~t_1*     t )
     2.64927179E-02    2     1000005        -5   # BR(~chi_40 -> ~b_1      bb)
     2.64927179E-02    2    -1000005         5   # BR(~chi_40 -> ~b_1*     b )
     2.92842550E-02    2     2000005        -5   # BR(~chi_40 -> ~b_2      bb)
     2.92842550E-02    2    -2000005         5   # BR(~chi_40 -> ~b_2*     b )
     5.08668659E-08    2     1000011       -11   # BR(~chi_40 -> ~e_L-     e+)
     5.08668659E-08    2    -1000011        11   # BR(~chi_40 -> ~e_L+     e-)
     1.28524758E-14    2     2000011       -11   # BR(~chi_40 -> ~e_R-     e+)
     1.28524758E-14    2    -2000011        11   # BR(~chi_40 -> ~e_R+     e-)
     5.08668659E-08    2     1000013       -13   # BR(~chi_40 -> ~mu_L-    mu+)
     5.08668659E-08    2    -1000013        13   # BR(~chi_40 -> ~mu_L+    mu-)
     1.28524758E-14    2     2000013       -13   # BR(~chi_40 -> ~mu_R-    mu+)
     1.28524758E-14    2    -2000013        13   # BR(~chi_40 -> ~mu_R+    mu-)
     2.48047354E-08    2     1000015       -15   # BR(~chi_40 -> ~tau_1-   tau+)
     2.48047354E-08    2    -1000015        15   # BR(~chi_40 -> ~tau_1+   tau-)
     2.59790218E-08    2     2000015       -15   # BR(~chi_40 -> ~tau_2-   tau+)
     2.59790218E-08    2    -2000015        15   # BR(~chi_40 -> ~tau_2+   tau-)
     5.09336233E-08    2     1000012       -12   # BR(~chi_40 -> ~nu_eL    nu_eb)
     5.09336233E-08    2    -1000012        12   # BR(~chi_40 -> ~nu_eL*   nu_e )
     5.09336233E-08    2     1000014       -14   # BR(~chi_40 -> ~nu_muL   nu_mub)
     5.09336233E-08    2    -1000014        14   # BR(~chi_40 -> ~nu_muL*  nu_mu )
     5.09336233E-08    2     1000016       -16   # BR(~chi_40 -> ~nu_tau1  nu_taub)
     5.09336233E-08    2    -1000016        16   # BR(~chi_40 -> ~nu_tau1* nu_tau )
     1.29062285E-02    2     1000039        22   # BR(~chi_40 -> ~G        gam)
     6.53658971E-02    2     1000039        23   # BR(~chi_40 -> ~G        Z)
     3.21742476E-04    2     1000039        25   # BR(~chi_40 -> ~G        h)
     2.60694065E-02    2     1000039        35   # BR(~chi_40 -> ~G        H)
     1.01427086E-03    2     1000039        36   # BR(~chi_40 -> ~G        A)
#
#
#
#
