#
#                              ======================
#                              | THE SUSYHIT OUTPUT |
#                              ======================
#
#
#              ------------------------------------------------------
#              |     This is the output of the SUSY-HIT package     |
#              |  created by A.Djouadi, M.Muehlleitner and M.Spira. |
#              |  In case of problems with SUSY-HIT email to        |
#              |           margarete.muehlleitner@cern.ch           |
#              |           michael.spira@psi.ch                     |
#              |           abdelhak.djouadi@cern.ch                 |
#              ------------------------------------------------------
#
#              ------------------------------------------------------
#              |  SUSY Les Houches Accord - MSSM Spectrum + Decays  |
#              |              based on the decay programs           |
#              |                                                    |
#              |                     SDECAY 1.3b                    |
#              |                                                    |
#              |  Authors: M.Muhlleitner, A.Djouadi and Y.Mambrini  |
#              |  Ref.:    Comput.Phys.Commun.168(2005)46           |
#              |           [hep-ph/0311167]                         |
#              |                                                    |
#              |                     HDECAY 3.4                     |
#              |                                                    |
#              |  By: A.Djouadi,J.Kalinowski,M.Muhlleitner,M.Spira  |
#              |  Ref.:    Comput.Phys.Commun.108(1998)56           |
#              |           [hep-ph/9704448]                         |
#              |                                                    |
#              |                                                    |
#              |  If not stated otherwise all DRbar couplings and   |
#              |  soft SUSY breaking masses are given at the scale  |
#              |  Q=  0.91187600E+02
#              |                                                    |
#              ------------------------------------------------------
#
#
BLOCK DCINFO  # Decay Program information
     1   SDECAY/HDECAY # decay calculator
     2   1.3b  /3.4    # version number
#
BLOCK SPINFO  # Spectrum calculator information
     1   SuSpect     # RGE +Spectrum calculator            
     2   2.41         # version number                     
#
BLOCK MODSEL  # Model selection
     1     0   # #general MSSM low scale                           
#
BLOCK SMINPUTS  # Standard Model inputs
         1     1.27934000E+02   # alpha_em^-1(M_Z)^MSbar
         2     1.16639000E-05   # G_F [GeV^-2]
         3     1.17200000E-01   # alpha_S(M_Z)^MSbar
         4     9.11870000E+01   # M_Z pole mass
         5     4.25000000E+00   # mb(mb)^MSbar
         6     1.72500000E+02   # mt pole mass
         7     1.77700000E+00   # mtau pole mass
#
BLOCK MINPAR  # Input parameters - minimal models
#
BLOCK EXTPAR  # Input parameters - non-minimal models
         0     9.11876000E+01   # EWSB                
         1     4.00000000E+02   # M_1                 
         2     5.00000000E+02   # M_2                 
         3     1.00000000E+05   # M_3                 
        11     0.00000000E+00   # A_t                 
        12     0.00000000E+00   # A_b                 
        13     0.00000000E+00   # A_tau               
        14     0.00000000E+00   # A_u                 
        15     0.00000000E+00   # A_d                 
        16     0.00000000E+00   # A_e                 
        23     1.00000000E+05   # mu(EWSB)            
        25     1.50000000E+00   # tanbeta(in)         
        26     2.00000000E+03   # MA_pole             
        31     1.00000000E+05   # M_eL                
        32     1.00000000E+05   # M_muL               
        33     1.00000000E+05   # M_tauL              
        34     1.00000000E+05   # M_eR                
        35     1.00000000E+05   # M_muR               
        36     1.00000000E+05   # M_tauR              
        41     1.00000000E+05   # M_q1L               
        42     1.00000000E+05   # M_q2L               
        43     1.00000000E+05   # M_q3L               
        44     1.00000000E+05   # M_uR                
        45     1.00000000E+05   # M_cR                
        46     1.00000000E+05   # M_tR                
        47     1.00000000E+05   # M_dR                
        48     1.00000000E+05   # M_sR                
        49     1.00000000E+05   # M_bR                
#
BLOCK MASS  # Mass Spectrum
# PDG code           mass       particle
        24     8.05743768E+01   # W+
        25     1.25000000E+02   # h
        35     2.00354325E+03   # H
        36     2.00000000E+03   # A
        37     2.02353231E+03   # H+
         5     4.87877839E+00   # b-quark pole mass calculated from mb(mb)_Msbar
   1000001     1.00000007E+05   # ~d_L
   2000001     1.00000001E+05   # ~d_R
   1000002     9.99999947E+04   # ~u_L
   2000002     9.99999975E+04   # ~u_R
   1000003     1.00000007E+05   # ~s_L
   2000003     1.00000001E+05   # ~s_R
   1000004     9.99999947E+04   # ~c_L
   2000004     9.99999975E+04   # ~c_R
   1000005     9.99980765E+04   # ~b_1
   2000005     1.00001931E+05   # ~b_2
   1000006     9.99521339E+04   # ~t_1
   2000006     1.00048042E+05   # ~t_2
   1000011     1.00000004E+05   # ~e_L
   2000011     1.00000004E+05   # ~e_R
   1000012     9.99999921E+04   # ~nu_eL
   1000013     1.00000004E+05   # ~mu_L
   2000013     1.00000004E+05   # ~mu_R
   1000014     9.99999921E+04   # ~nu_muL
   1000015     9.99986730E+04   # ~tau_1
   2000015     1.00001335E+05   # ~tau_2
   1000016     9.99999921E+04   # ~nu_tauL
   1000021     1.00000000E+05   # ~g
   1000022     3.99981585E+02   # ~chi_10
   1000023     4.99942503E+02   # ~chi_20
   1000025    -1.00000003E+05   # ~chi_30
   1000035     1.00000079E+05   # ~chi_40
   1000024     4.99942493E+02   # ~chi_1+
   1000037     1.00000062E+05   # ~chi_2+
   1000039     1.56250000E-05   # ~gravitino
#
BLOCK NMIX  # Neutralino Mixing Matrix
  1  1     9.99999847E-01   # N_11
  1  2    -3.25278481E-04   # N_12
  1  3     3.71930467E-04   # N_13
  1  4    -2.48777987E-04   # N_14
  2  1     3.25632240E-04   # N_21
  2  2     9.99999634E-01   # N_22
  2  3    -6.57036048E-04   # N_23
  2  4     4.39842889E-04   # N_24
  3  1     8.70320064E-05   # N_31
  3  2    -1.53607067E-04   # N_32
  3  3    -7.07106715E-01   # N_33
  3  4    -7.07106826E-01   # N_34
  4  1     4.38654748E-04   # N_41
  4  2    -7.75753315E-04   # N_42
  4  3    -7.07106444E-01   # N_43
  4  4     7.07106556E-01   # N_44
#
BLOCK UMIX  # Chargino Mixing Matrix U
  1  1    -9.99999568E-01   # U_11
  1  2     9.29360480E-04   # U_12
  2  1     9.29360480E-04   # U_21
  2  2     9.99999568E-01   # U_22
#
BLOCK VMIX  # Chargino Mixing Matrix V
  1  1    -9.99999806E-01   # V_11
  1  2     6.22146556E-04   # V_12
  2  1     6.22146556E-04   # V_21
  2  2     9.99999806E-01   # V_22
#
BLOCK STOPMIX  # Stop Mixing Matrix
  1  1     7.07117016E-01   # cos(theta_t)
  1  2     7.07096546E-01   # sin(theta_t)
  2  1    -7.07096546E-01   # -sin(theta_t)
  2  2     7.07117016E-01   # cos(theta_t)
#
BLOCK SBOTMIX  # Sbottom Mixing Matrix
  1  1     7.06618544E-01   # cos(theta_b)
  1  2     7.07594681E-01   # sin(theta_b)
  2  1    -7.07594681E-01   # -sin(theta_b)
  2  2     7.06618544E-01   # cos(theta_b)
#
BLOCK STAUMIX  # Stau Mixing Matrix
  1  1     7.07076038E-01   # cos(theta_tau)
  1  2     7.07137523E-01   # sin(theta_tau)
  2  1    -7.07137523E-01   # -sin(theta_tau)
  2  2     7.07076038E-01   # cos(theta_tau)
#
BLOCK ALPHA  # Higgs mixing
          -5.74193093E-01   # Mixing angle in the neutral Higgs boson sector
#
BLOCK HMIX Q=  9.11876000E+01  # DRbar Higgs Parameters
         1     1.00000000E+05   # mu(Q)               
         2     1.49999983E+00   # tanbeta(Q)          
         3     2.54985452E+02   # vev(Q)              
         4    -7.26674500E+06   # MA^2(Q)             
#
BLOCK GAUGE Q=  9.11876000E+01  # The gauge couplings
     1     3.49492699E-01   # gprime(Q) DRbar
     2     6.17451226E-01   # g(Q) DRbar
     3     9.84783121E-01   # g3(Q) DRbar
#
BLOCK AU Q=  9.11876000E+01  # The trilinear couplings
  1  1     0.00000000E+00   # A_u(Q) DRbar
  2  2     0.00000000E+00   # A_c(Q) DRbar
  3  3     0.00000000E+00   # A_t(Q) DRbar
#
BLOCK AD Q=  9.11876000E+01  # The trilinear couplings
  1  1     0.00000000E+00   # A_d(Q) DRbar
  2  2     0.00000000E+00   # A_s(Q) DRbar
  3  3     0.00000000E+00   # A_b(Q) DRbar
#
BLOCK AE Q=  9.11876000E+01  # The trilinear couplings
  1  1     0.00000000E+00   # A_e(Q) DRbar
  2  2     0.00000000E+00   # A_mu(Q) DRbar
  3  3     0.00000000E+00   # A_tau(Q) DRbar
#
BLOCK Yu Q=  9.11876000E+01  # The Yukawa couplings
  1  1     0.00000000E+00   # y_u(Q) DRbar
  2  2     0.00000000E+00   # y_c(Q) DRbar
  3  3     9.59007210E-01   # y_t(Q) DRbar
#
BLOCK Yd Q=  9.11876000E+01  # The Yukawa couplings
  1  1     0.00000000E+00   # y_d(Q) DRbar
  2  2     0.00000000E+00   # y_s(Q) DRbar
  3  3     2.56976589E-02   # y_b(Q) DRbar
#
BLOCK Ye Q=  9.11876000E+01  # The Yukawa couplings
  1  1     0.00000000E+00   # y_e(Q) DRbar
  2  2     0.00000000E+00   # y_mu(Q) DRbar
  3  3     1.77439341E-02   # y_tau(Q) DRbar
#
BLOCK MSOFT Q=  9.11876000E+01  # The soft SUSY breaking masses at the scale Q
         1     4.00000000E+02   # M_1                 
         2     5.00000000E+02   # M_2                 
         3     1.00000000E+05   # M_3                 
        14     0.00000000E+00   # A_u                 
        15     0.00000000E+00   # A_d                 
        16     0.00000000E+00   # A_e                 
        21    -1.14023652E+10   # M^2_Hd              
        22    -1.35035910E+10   # M^2_Hu              
        31     1.00000000E+05   # M_eL                
        32     1.00000000E+05   # M_muL               
        33     1.00000000E+05   # M_tauL              
        34     1.00000000E+05   # M_eR                
        35     1.00000000E+05   # M_muR               
        36     1.00000000E+05   # M_tauR              
        41     1.00000000E+05   # M_q1L               
        42     1.00000000E+05   # M_q2L               
        43     1.00000000E+05   # M_q3L               
        44     1.00000000E+05   # M_uR                
        45     1.00000000E+05   # M_cR                
        46     1.00000000E+05   # M_tR                
        47     1.00000000E+05   # M_dR                
        48     1.00000000E+05   # M_sR                
        49     1.00000000E+05   # M_bR                
#
#
#
#                             =================
#                             |The decay table|
#                             =================
#
# - The QCD corrections to the decays gluino -> squark  + quark
#                                     squark -> gaugino + quark_prime
#                                     squark -> squark_prime + Higgs
#                                     squark -> gluino  + quark
#   are included.
#
# - The multi-body decays for the inos, stops and sbottoms are included.
#
# - The loop induced decays for the gluino, neutralinos and stops
#   are included.
#
# - The SUSY decays of the top quark are included.
#
# - Possible decays of the NLSP in GMSB models are included.
#
#
#         PDG            Width
DECAY         6     1.31621099E+00   # top decays
#          BR         NDA      ID1       ID2
     1.00000000E+00    2           5        24   # BR(t ->  b    W+)
#
#         PDG            Width
DECAY   1000021     1.E-04   # gluino decays (OJ Mods)
#          BR         NDA      ID1       ID2
     2.82941585E-07    2     1000002        -2   # BR(~g -> ~u_L  ub)
     2.82941585E-07    2    -1000002         2   # BR(~g -> ~u_L* u )
     6.29542527E-08    2     2000002        -2   # BR(~g -> ~u_R  ub)
     6.29542527E-08    2    -2000002         2   # BR(~g -> ~u_R* u )
     2.82941585E-07    2     1000004        -4   # BR(~g -> ~c_L  cb)
     2.82941585E-07    2    -1000004         4   # BR(~g -> ~c_L* c )
     6.29542527E-08    2     2000004        -4   # BR(~g -> ~c_R  cb)
     6.29542527E-08    2    -2000004         4   # BR(~g -> ~c_R* c )
     9.99998616E-01    2     1000039        21   # BR(~g -> ~G g)
#
#         PDG            Width
DECAY   1000006     6.58156746E+02   # stop1 decays
#          BR         NDA      ID1       ID2
     1.67715189E-01    2     1000022         6   # BR(~t_1 -> ~chi_10 t )
     2.77450447E-01    2     1000023         6   # BR(~t_1 -> ~chi_20 t )
     5.54834364E-01    2     1000024         5   # BR(~t_1 -> ~chi_1+ b )
#
#         PDG            Width
DECAY   2000006     6.56603577E+02   # stop2 decays
#          BR         NDA      ID1       ID2
     1.68064324E-01    2     1000022         6   # BR(~t_2 -> ~chi_10 t )
     2.77583190E-01    2     1000023         6   # BR(~t_2 -> ~chi_20 t )
     0.00000000E+00    2     1000025         6   # BR(~t_2 -> ~chi_30 t )
     5.55099000E-01    2     1000024         5   # BR(~t_2 -> ~chi_1+ b )
     1.02684428E-06    2     1000037         5   # BR(~t_2 -> ~chi_2+ b )
    -7.47540343E-04    2     1000006        23   # BR(~t_2 -> ~t_1    Z )
#
#         PDG            Width
DECAY   1000005     5.78386697E+02   # sbottom1 decays
#          BR         NDA      ID1       ID2
     5.62539499E-02    2     1000022         5   # BR(~b_1 -> ~chi_10 b )
     3.14556668E-01    2     1000023         5   # BR(~b_1 -> ~chi_20 b )
     6.29189382E-01    2    -1000024         6   # BR(~b_1 -> ~chi_1- t )
#
#         PDG            Width
DECAY   2000005     5.80897420E+02   # sbottom2 decays
#          BR         NDA      ID1       ID2
     5.58389248E-02    2     1000022         5   # BR(~b_2 -> ~chi_10 b )
     3.14695005E-01    2     1000023         5   # BR(~b_2 -> ~chi_20 b )
     6.29466070E-01    2    -1000024         6   # BR(~b_2 -> ~chi_1- t )
#
#         PDG            Width
DECAY   1000002     1.10735971E+03   # sup_L decays
#          BR         NDA      ID1       ID2
     1.16864127E-02    2     1000022         2   # BR(~u_L -> ~chi_10 u)
     3.29464774E-01    2     1000023         2   # BR(~u_L -> ~chi_20 u)
     6.58848814E-01    2     1000024         1   # BR(~u_L -> ~chi_1+ d)
#
#         PDG            Width
DECAY   2000002     2.07772813E+02   # sup_R decays
#          BR         NDA      ID1       ID2
     9.99999894E-01    2     1000022         2   # BR(~u_R -> ~chi_10 u)
     1.06037409E-07    2     1000023         2   # BR(~u_R -> ~chi_20 u)
#
#         PDG            Width
DECAY   1000001     1.10735926E+03   # sdown_L decays
#          BR         NDA      ID1       ID2
     1.17672862E-02    2     1000022         1   # BR(~d_L -> ~chi_10 d)
     3.29383949E-01    2     1000023         1   # BR(~d_L -> ~chi_20 d)
     5.18844385E-17    2     1000025         1   # BR(~d_L -> ~chi_30 d)
     6.58848765E-01    2    -1000024         2   # BR(~d_L -> ~chi_1- u)
     1.48895524E-13    2     1000021         1   # BR(~d_L -> ~g      d)
#
#         PDG            Width
DECAY   2000001     5.19432029E+01   # sdown_R decays
#          BR         NDA      ID1       ID2
     9.99999894E-01    2     1000022         1   # BR(~d_R -> ~chi_10 d)
     1.06037409E-07    2     1000023         1   # BR(~d_R -> ~chi_20 d)
     6.47806696E-14    2     1000021         1   # BR(~d_R -> ~g      d)
#
#         PDG            Width
DECAY   1000004     1.10735971E+03   # scharm_L decays
#          BR         NDA      ID1       ID2
     1.16864127E-02    2     1000022         4   # BR(~c_L -> ~chi_10 c)
     3.29464774E-01    2     1000023         4   # BR(~c_L -> ~chi_20 c)
     6.58848814E-01    2     1000024         3   # BR(~c_L -> ~chi_1+ s)
#
#         PDG            Width
DECAY   2000004     2.07772813E+02   # scharm_R decays
#          BR         NDA      ID1       ID2
     9.99999894E-01    2     1000022         4   # BR(~c_R -> ~chi_10 c)
     1.06037409E-07    2     1000023         4   # BR(~c_R -> ~chi_20 c)
#
#         PDG            Width
DECAY   1000003     1.10735926E+03   # sstrange_L decays
#          BR         NDA      ID1       ID2
     1.17672862E-02    2     1000022         3   # BR(~s_L -> ~chi_10 s)
     3.29383949E-01    2     1000023         3   # BR(~s_L -> ~chi_20 s)
     5.18844385E-17    2     1000025         3   # BR(~s_L -> ~chi_30 s)
     6.58848765E-01    2    -1000024         4   # BR(~s_L -> ~chi_1- c)
     1.48895524E-13    2     1000021         3   # BR(~s_L -> ~g      s)
#
#         PDG            Width
DECAY   2000003     5.19432029E+01   # sstrange_R decays
#          BR         NDA      ID1       ID2
     9.99999894E-01    2     1000022         3   # BR(~s_R -> ~chi_10 s)
     1.06037409E-07    2     1000023         3   # BR(~s_R -> ~chi_20 s)
     6.47806696E-14    2     1000021         3   # BR(~s_R -> ~g      s)
#
#         PDG            Width
DECAY   1000011     1.25913582E+03   # selectron_L decays
#          BR         NDA      ID1       ID2
     9.63807885E-02    2     1000022        11   # BR(~e_L -> ~chi_10 e-)
     3.01280451E-01    2     1000023        11   # BR(~e_L -> ~chi_20 e-)
     1.31169972E-24    2     1000025        11   # BR(~e_L -> ~chi_30 e-)
     6.02338761E-01    2    -1000024        12   # BR(~e_L -> ~chi_1- nu_e)
#
#         PDG            Width
DECAY   2000011     4.85984468E+02   # selectron_R decays
#          BR         NDA      ID1       ID2
     9.99999894E-01    2     1000022        11   # BR(~e_R -> ~chi_10 e-)
     1.06034469E-07    2     1000023        11   # BR(~e_R -> ~chi_20 e-)
     3.02992535E-24    2     1000025        11   # BR(~e_R -> ~chi_30 e-)
#
#         PDG            Width
DECAY   1000013     1.25913582E+03   # smuon_L decays
#          BR         NDA      ID1       ID2
     9.63807885E-02    2     1000022        13   # BR(~mu_L -> ~chi_10 mu-)
     3.01280451E-01    2     1000023        13   # BR(~mu_L -> ~chi_20 mu-)
     1.31169972E-24    2     1000025        13   # BR(~mu_L -> ~chi_30 mu-)
     6.02338761E-01    2    -1000024        14   # BR(~mu_L -> ~chi_1- nu_mu)
#
#         PDG            Width
DECAY   2000013     4.85984468E+02   # smuon_R decays
#          BR         NDA      ID1       ID2
     9.99999894E-01    2     1000022        13   # BR(~mu_R -> ~chi_10 mu-)
     1.06034469E-07    2     1000023        13   # BR(~mu_R -> ~chi_20 mu-)
     3.02992535E-24    2     1000025        13   # BR(~mu_R -> ~chi_30 mu-)
#
#         PDG            Width
DECAY   1000015     8.72548626E+02   # stau_1 decays
#          BR         NDA      ID1       ID2
     3.48044272E-01    2     1000022        15   # BR(~tau_1 -> ~chi_10  tau-)
     2.17371996E-01    2     1000023        15   # BR(~tau_1 -> ~chi_20  tau-)
     4.34583677E-01    2    -1000024        16   # BR(~tau_1 -> ~chi_1-  nu_tau)
     5.40415628E-08    2     1000039        15   # BR(~tau_1 -> ~G       tau-)
#
#         PDG            Width
DECAY   2000015     8.72571715E+02   # stau_2 decays
#          BR         NDA      ID1       ID2
     3.48000472E-01    2     1000022        15   # BR(~tau_2 -> ~chi_10  tau-)
     2.17386630E-01    2     1000023        15   # BR(~tau_2 -> ~chi_20  tau-)
     4.34612899E-01    2    -1000024        16   # BR(~tau_2 -> ~chi_1-  nu_tau)
     2.47921321E-13    2    -1000037        16   # BR(~tau_2 -> ~chi_2-  nu_tau)
#
#         PDG            Width
DECAY   1000012     1.25913574E+03   # snu_eL decays
#          BR         NDA      ID1       ID2
     9.66025879E-02    2     1000022        12   # BR(~nu_eL -> ~chi_10 nu_e)
     3.01058395E-01    2     1000023        12   # BR(~nu_eL -> ~chi_20 nu_e)
     6.02339017E-01    2     1000024        11   # BR(~nu_eL -> ~chi_1+ e-)
#
#         PDG            Width
DECAY   1000014     1.25913574E+03   # snu_muL decays
#          BR         NDA      ID1       ID2
     9.66025879E-02    2     1000022        14   # BR(~nu_muL -> ~chi_10 nu_mu)
     3.01058395E-01    2     1000023        14   # BR(~nu_muL -> ~chi_20 nu_mu)
     6.02339017E-01    2     1000024        13   # BR(~nu_muL -> ~chi_1+ mu-)
#
#         PDG            Width
DECAY   1000016     1.25913574E+03   # snu_tauL decays
#          BR         NDA      ID1       ID2
     9.66025879E-02    2     1000022        16   # BR(~nu_tauL -> ~chi_10 nu_tau)
     3.01058395E-01    2     1000023        16   # BR(~nu_tauL -> ~chi_20 nu_tau)
     6.02339017E-01    2     1000024        15   # BR(~nu_tauL -> ~chi_1+ tau-)
#
#         PDG            Width
DECAY   1000024     1.51229029E-07   # chargino1+ decays
#          BR         NDA      ID1       ID2
     9.99999999E-01    2     1000022        24   # BR(~chi_1+ -> ~chi_10  W+)
     8.80841617E-10    2     1000039        24   # BR(~chi_1+ -> ~G       W+)
#
#         PDG            Width
DECAY   1000037     1.24410007E+03   # chargino2+ decays
#          BR         NDA      ID1       ID2
     3.12108571E-14    2     1000002        -1   # BR(~chi_2+ -> ~u_L     db)
     5.69159378E-14    2    -1000001         2   # BR(~chi_2+ -> ~d_L*    u )
     3.12108571E-14    2     1000004        -3   # BR(~chi_2+ -> ~c_L     sb)
     5.69159378E-14    2    -1000003         4   # BR(~chi_2+ -> ~s_L*    c )
     1.13805299E-06    2     1000006        -5   # BR(~chi_2+ -> ~t_1     bb)
     2.30594692E-19    2     1000012       -11   # BR(~chi_2+ -> ~nu_eL   e+  )
     2.30594692E-19    2     1000014       -13   # BR(~chi_2+ -> ~nu_muL  mu+ )
     3.54269685E-19    2    -1000011        12   # BR(~chi_2+ -> ~e_L+    nu_e)
     3.54269685E-19    2    -1000013        14   # BR(~chi_2+ -> ~mu_L+   nu_mu)
     9.09616892E-14    2    -1000015        16   # BR(~chi_2+ -> ~tau_1+  nu_tau)
     1.51346523E-01    2     1000024        23   # BR(~chi_2+ -> ~chi_1+  Z )
     4.68943023E-02    2     1000022        24   # BR(~chi_2+ -> ~chi_10  W+)
     1.46860218E-01    2     1000023        24   # BR(~chi_2+ -> ~chi_20  W+)
     1.53801567E-01    2     1000024        25   # BR(~chi_2+ -> ~chi_1+  h )
     1.50900660E-01    2     1000024        35   # BR(~chi_2+ -> ~chi_1+  H )
     1.50884055E-01    2     1000024        36   # BR(~chi_2+ -> ~chi_1+  A )
     4.83743435E-02    2     1000022        37   # BR(~chi_2+ -> ~chi_10  H+)
     1.50937155E-01    2     1000023        37   # BR(~chi_2+ -> ~chi_20  H+)
     1.89522863E-08    2     1000039        24   # BR(~chi_2+ -> ~G       W+)
     1.89212837E-08    2     1000039        37   # BR(~chi_2+ -> ~G       H+)
#
#         PDG            Width
DECAY   1000022     1.E-08   # neutralino1 decays (OJ Mods)
#          BR         NDA      ID1       ID2
     7.94164032E-01    2     1000039        22   # BR(~chi_10 -> ~G        gam)
     2.05835968E-01    2     1000039        23   # BR(~chi_10 -> ~G        Z)
     1.63860862E-11    2     1000039        25   # BR(~chi_10 -> ~G        h)
#
#         PDG            Width
DECAY   1000023     1.E-08   # neutralino2 decays (OJ Mods)
#          BR         NDA      ID1       ID2
     9.96136258E-01    2     1000022        23   # BR(~chi_20 -> ~chi_10   Z )
     1.03807183E-03    2     1000039        22   # BR(~chi_20 -> ~G        gam)
     2.82567041E-03    2     1000039        23   # BR(~chi_20 -> ~G        Z)
     2.55059759E-13    2     1000039        25   # BR(~chi_20 -> ~G        h)
#
#         PDG            Width
DECAY   1000025     1.23733209E+03   # neutralino3 decays
#          BR         NDA      ID1       ID2
     4.68757335E-02    2     1000022        23   # BR(~chi_30 -> ~chi_10   Z )
     1.46378882E-01    2     1000023        23   # BR(~chi_30 -> ~chi_20   Z )
     1.47608972E-01    2     1000024       -24   # BR(~chi_30 -> ~chi_1+   W-)
     1.47608972E-01    2    -1000024        24   # BR(~chi_30 -> ~chi_1-   W+)
     2.14294907E-03    2     1000022        25   # BR(~chi_30 -> ~chi_10   h )
     4.65802729E-02    2     1000022        35   # BR(~chi_30 -> ~chi_10   H )
     1.90413841E-03    2     1000022        36   # BR(~chi_30 -> ~chi_10   A )
     6.66508300E-03    2     1000023        25   # BR(~chi_30 -> ~chi_20   h )
     1.44875645E-01    2     1000023        35   # BR(~chi_30 -> ~chi_20   H )
     5.94605741E-03    2     1000023        36   # BR(~chi_30 -> ~chi_20   A )
     1.51706628E-01    2     1000024       -37   # BR(~chi_30 -> ~chi_1+   H-)
     1.51706628E-01    2    -1000024        37   # BR(~chi_30 -> ~chi_1-   H+)
     1.88174711E-16    2     1000002        -2   # BR(~chi_30 -> ~u_L      ub)
     1.88174711E-16    2    -1000002         2   # BR(~chi_30 -> ~u_L*     u )
     2.85844783E-17    2     2000002        -2   # BR(~chi_30 -> ~u_R      ub)
     2.85844783E-17    2    -2000002         2   # BR(~chi_30 -> ~u_R*     u )
     2.59858477E-18    2     2000001        -1   # BR(~chi_30 -> ~d_R      db)
     2.59858477E-18    2    -2000001         1   # BR(~chi_30 -> ~d_R*     d )
     1.88174711E-16    2     1000004        -4   # BR(~chi_30 -> ~c_L      cb)
     1.88174711E-16    2    -1000004         4   # BR(~chi_30 -> ~c_L*     c )
     2.85844783E-17    2     2000004        -4   # BR(~chi_30 -> ~c_R      cb)
     2.85844783E-17    2    -2000004         4   # BR(~chi_30 -> ~c_R*     c )
     2.59858477E-18    2     2000003        -3   # BR(~chi_30 -> ~s_R      sb)
     2.59858477E-18    2    -2000003         3   # BR(~chi_30 -> ~s_R*     s )
     2.99733257E-22    2     1000012       -12   # BR(~chi_30 -> ~nu_eL    nu_eb)
     2.99733257E-22    2    -1000012        12   # BR(~chi_30 -> ~nu_eL*   nu_e )
     2.99733257E-22    2     1000014       -14   # BR(~chi_30 -> ~nu_muL   nu_mub)
     2.99733257E-22    2    -1000014        14   # BR(~chi_30 -> ~nu_muL*  nu_mu )
     2.99733257E-22    2     1000016       -16   # BR(~chi_30 -> ~nu_tau1  nu_taub)
     2.99733257E-22    2    -1000016        16   # BR(~chi_30 -> ~nu_tau1* nu_tau )
     2.16463664E-22    2     1000039        22   # BR(~chi_30 -> ~G        gam)
     7.32919274E-10    2     1000039        23   # BR(~chi_30 -> ~G        Z)
     1.82183409E-08    2     1000039        25   # BR(~chi_30 -> ~G        h)
     8.36129923E-10    2     1000039        35   # BR(~chi_30 -> ~G        H)
     1.82937089E-08    2     1000039        36   # BR(~chi_30 -> ~G        A)
#
#         PDG            Width
DECAY   1000035     1.24108286E+03   # neutralino4 decays
#          BR         NDA      ID1       ID2
     1.83969116E-03    2     1000022        23   # BR(~chi_40 -> ~chi_10   Z )
     5.72188548E-03    2     1000023        23   # BR(~chi_40 -> ~chi_20   Z )
     1.47162986E-01    2     1000024       -24   # BR(~chi_40 -> ~chi_1+   W-)
     1.47162986E-01    2    -1000024        24   # BR(~chi_40 -> ~chi_1-   W+)
     4.72263276E-02    2     1000022        25   # BR(~chi_40 -> ~chi_10   h )
     2.16918803E-03    2     1000022        35   # BR(~chi_40 -> ~chi_10   H )
     4.67060747E-02    2     1000022        36   # BR(~chi_40 -> ~chi_10   A )
     1.47473648E-01    2     1000023        25   # BR(~chi_40 -> ~chi_20   h )
     6.77372852E-03    2     1000023        35   # BR(~chi_40 -> ~chi_20   H )
     1.45266919E-01    2     1000023        36   # BR(~chi_40 -> ~chi_20   A )
     1.51248264E-01    2     1000024       -37   # BR(~chi_40 -> ~chi_1+   H-)
     1.51248264E-01    2    -1000024        37   # BR(~chi_40 -> ~chi_1-   H+)
     4.86227161E-14    2     1000002        -2   # BR(~chi_40 -> ~u_L      ub)
     4.86227161E-14    2    -1000002         2   # BR(~chi_40 -> ~u_L*     u )
     1.07277537E-14    2     2000002        -2   # BR(~chi_40 -> ~u_R      ub)
     1.07277537E-14    2    -2000002         2   # BR(~chi_40 -> ~u_R*     u )
     6.37361273E-14    2     1000001        -1   # BR(~chi_40 -> ~d_L      db)
     6.37361273E-14    2    -1000001         1   # BR(~chi_40 -> ~d_L*     d )
     2.56676049E-15    2     2000001        -1   # BR(~chi_40 -> ~d_R      db)
     2.56676049E-15    2    -2000001         1   # BR(~chi_40 -> ~d_R*     d )
     4.86227161E-14    2     1000004        -4   # BR(~chi_40 -> ~c_L      cb)
     4.86227161E-14    2    -1000004         4   # BR(~chi_40 -> ~c_L*     c )
     1.07277537E-14    2     2000004        -4   # BR(~chi_40 -> ~c_R      cb)
     1.07277537E-14    2    -2000004         4   # BR(~chi_40 -> ~c_R*     c )
     6.37361273E-14    2     1000003        -3   # BR(~chi_40 -> ~s_L      sb)
     6.37361273E-14    2    -1000003         3   # BR(~chi_40 -> ~s_L*     s )
     2.56676049E-15    2     2000003        -3   # BR(~chi_40 -> ~s_R      sb)
     2.56676049E-15    2    -2000003         3   # BR(~chi_40 -> ~s_R*     s )
     9.56405205E-20    2     1000011       -11   # BR(~chi_40 -> ~e_L-     e+)
     9.56405205E-20    2    -1000011        11   # BR(~chi_40 -> ~e_L+     e-)
     8.47682240E-20    2     2000011       -11   # BR(~chi_40 -> ~e_R-     e+)
     8.47682240E-20    2    -2000011        11   # BR(~chi_40 -> ~e_R+     e-)
     9.56405205E-20    2     1000013       -13   # BR(~chi_40 -> ~mu_L-    mu+)
     9.56405205E-20    2    -1000013        13   # BR(~chi_40 -> ~mu_L+    mu-)
     8.47682240E-20    2     2000013       -13   # BR(~chi_40 -> ~mu_R-    mu+)
     8.47682240E-20    2    -2000013        13   # BR(~chi_40 -> ~mu_R+    mu-)
     4.83960251E-19    2     1000012       -12   # BR(~chi_40 -> ~nu_eL    nu_eb)
     4.83960251E-19    2    -1000012        12   # BR(~chi_40 -> ~nu_eL*   nu_e )
     4.83960251E-19    2     1000014       -14   # BR(~chi_40 -> ~nu_muL   nu_mub)
     4.83960251E-19    2    -1000014        14   # BR(~chi_40 -> ~nu_muL*  nu_mu )
     4.83960251E-19    2     1000016       -16   # BR(~chi_40 -> ~nu_tau1  nu_taub)
     4.83960251E-19    2    -1000016        16   # BR(~chi_40 -> ~nu_tau1* nu_tau )
     5.59297730E-21    2     1000039        22   # BR(~chi_40 -> ~G        gam)
     1.82676588E-08    2     1000039        23   # BR(~chi_40 -> ~G        Z)
     8.34941376E-10    2     1000039        25   # BR(~chi_40 -> ~G        h)
     1.81343024E-08    2     1000039        35   # BR(~chi_40 -> ~G        H)
     7.29538148E-10    2     1000039        36   # BR(~chi_40 -> ~G        A)
#
#
#
#
