#
#                              ======================
#                              | THE SUSYHIT OUTPUT |
#                              ======================
#
#
#              ------------------------------------------------------
#              |     This is the output of the SUSY-HIT package     |
#              |  created by A.Djouadi, M.Muehlleitner and M.Spira. |
#              |  In case of problems with SUSY-HIT email to        |
#              |           margarete.muehlleitner@cern.ch           |
#              |           michael.spira@psi.ch                     |
#              |           abdelhak.djouadi@cern.ch                 |
#              ------------------------------------------------------
#
#              ------------------------------------------------------
#              |  SUSY Les Houches Accord - MSSM Spectrum + Decays  |
#              |              based on the decay programs           |
#              |                                                    |
#              |                     SDECAY 1.3b                    |
#              |                                                    |
#              |  Authors: M.Muhlleitner, A.Djouadi and Y.Mambrini  |
#              |  Ref.:    Comput.Phys.Commun.168(2005)46           |
#              |           [hep-ph/0311167]                         |
#              |                                                    |
#              |                     HDECAY 3.4                     |
#              |                                                    |
#              |  By: A.Djouadi,J.Kalinowski,M.Muhlleitner,M.Spira  |
#              |  Ref.:    Comput.Phys.Commun.108(1998)56           |
#              |           [hep-ph/9704448]                         |
#              |                                                    |
#              |                                                    |
#              |  If not stated otherwise all DRbar couplings and   |
#              |  soft SUSY breaking masses are given at the scale  |
#              |  Q=  0.91187600E+02
#              |                                                    |
#              ------------------------------------------------------
#
#
BLOCK DCINFO  # Decay Program information
     1   SDECAY/HDECAY # decay calculator
     2   1.3b  /3.4    # version number
#
BLOCK SPINFO  # Spectrum calculator information
     1   SuSpect     # RGE +Spectrum calculator            
     2   2.41         # version number                     
#
BLOCK MODSEL  # Model selection
     1     0   # #general MSSM low scale                           
#
BLOCK SMINPUTS  # Standard Model inputs
         1     1.27934000E+02   # alpha_em^-1(M_Z)^MSbar
         2     1.16639000E-05   # G_F [GeV^-2]
         3     1.17200000E-01   # alpha_S(M_Z)^MSbar
         4     9.11870000E+01   # M_Z pole mass
         5     4.25000000E+00   # mb(mb)^MSbar
         6     1.72500000E+02   # mt pole mass
         7     1.77700000E+00   # mtau pole mass
#
BLOCK MINPAR  # Input parameters - minimal models
#
BLOCK EXTPAR  # Input parameters - non-minimal models
         0     9.11876000E+01   # EWSB                
         1     2.00000000E+02   # M_1                 
         2     1.00000000E+05   # M_2                 
         3     1.00000000E+05   # M_3                 
        11     0.00000000E+00   # A_t                 
        12     0.00000000E+00   # A_b                 
        13     0.00000000E+00   # A_tau               
        14     0.00000000E+00   # A_u                 
        15     0.00000000E+00   # A_d                 
        16     0.00000000E+00   # A_e                 
        23     3.50000000E+03   # mu(EWSB)            
        25     1.50000000E+00   # tanbeta(in)         
        26     2.00000000E+03   # MA_pole             
        31     1.00000000E+05   # M_eL                
        32     1.00000000E+05   # M_muL               
        33     1.00000000E+05   # M_tauL              
        34     1.00000000E+05   # M_eR                
        35     1.00000000E+05   # M_muR               
        36     1.00000000E+05   # M_tauR              
        41     8.00000000E+02   # M_q1L               
        42     8.00000000E+02   # M_q2L               
        43     8.00000000E+02   # M_q3L               
        44     1.00000000E+05   # M_uR                
        45     1.00000000E+05   # M_cR                
        46     1.00000000E+05   # M_tR                
        47     8.00000000E+02   # M_dR                
        48     8.00000000E+02   # M_sR                
        49     8.00000000E+02   # M_bR                
#
BLOCK MASS  # Mass Spectrum
# PDG code           mass       particle
        24     8.05803743E+01   # W+
        25     1.25000000E+02   # h
        35     2.00387110E+03   # H
        36     2.00000000E+03   # A
        37     2.02370931E+03   # H+
         5     4.87877839E+00   # b-quark pole mass calculated from mb(mb)_Msbar
   1000001     8.00833625E+02   # ~d_L
   2000001     8.00159957E+02   # ~d_R
   1000002     7.99325629E+02   # ~u_L
   2000002     9.99999974E+04   # ~u_R
   1000003     8.00833625E+02   # ~s_L
   2000003     8.00159957E+02   # ~s_R
   1000004     7.99325629E+02   # ~c_L
   2000004     9.99999974E+04   # ~c_R
   1000005     7.91995430E+02   # ~b_1
   2000005     8.08917165E+02   # ~b_2
   1000006     8.12794465E+02   # ~t_1
   2000006     1.00000106E+05   # ~t_2
   1000011     1.00000004E+05   # ~e_L
   2000011     1.00000004E+05   # ~e_R
   1000012     9.99999920E+04   # ~nu_eL
   1000013     1.00000004E+05   # ~mu_L
   2000013     1.00000004E+05   # ~mu_R
   1000014     9.99999920E+04   # ~nu_muL
   1000015     9.99999574E+04   # ~tau_1
   2000015     1.00000051E+05   # ~tau_2
   1000016     9.99999920E+04   # ~nu_tauL
   1000021     1.00000000E+05   # ~g
   1000022     1.99439127E+02   # ~chi_10
   1000023    -3.50002309E+03   # ~chi_20
   1000025     3.50051911E+03   # ~chi_30
   1000035     1.00000065E+05   # ~chi_40
   1000024     3.49993982E+03   # ~chi_1+
   1000037     1.00000065E+05   # ~chi_2+
   1000039     1.00000000E-09   # ~gravitino
#
BLOCK NMIX  # Neutralino Mixing Matrix
  1  1     9.99909095E-01   # N_11
  1  2    -9.96163221E-06   # N_12
  1  3     1.10607560E-02   # N_13
  1  4    -7.71117244E-03   # N_14
  2  1     2.36850018E-03   # N_21
  2  2    -1.50098255E-04   # N_22
  2  3    -7.07093129E-01   # N_23
  2  4    -7.07116450E-01   # N_24
  3  1     1.32737622E-02   # N_31
  3  2     8.04802920E-04   # N_32
  3  3    -7.07033770E-01   # N_33
  3  4     7.07054742E-01   # N_34
  4  1     3.66529300E-07   # N_41
  4  2    -9.99999665E-01   # N_42
  4  3    -4.62999736E-04   # N_43
  4  4     6.75253707E-04   # N_44
#
BLOCK UMIX  # Chargino Mixing Matrix U
  1  1    -6.54780299E-04   # U_11
  1  2     9.99999786E-01   # U_12
  2  1     9.99999786E-01   # U_21
  2  2     6.54780299E-04   # U_22
#
BLOCK VMIX  # Chargino Mixing Matrix V
  1  1    -9.54952864E-04   # V_11
  1  2     9.99999544E-01   # V_12
  2  1     9.99999544E-01   # V_21
  2  2     9.54952864E-04   # V_22
#
BLOCK STOPMIX  # Stop Mixing Matrix
  1  1     9.99999999E-01   # cos(theta_t)
  1  2     4.47213589E-05   # sin(theta_t)
  2  1    -4.47213589E-05   # -sin(theta_t)
  2  2     9.99999999E-01   # cos(theta_t)
#
BLOCK SBOTMIX  # Sbottom Mixing Matrix
  1  1     6.92887861E-01   # cos(theta_b)
  1  2     7.21045361E-01   # sin(theta_b)
  2  1    -7.21045361E-01   # -sin(theta_b)
  2  2     6.92887861E-01   # cos(theta_b)
#
BLOCK STAUMIX  # Stau Mixing Matrix
  1  1     7.06067089E-01   # cos(theta_tau)
  1  2     7.08144947E-01   # sin(theta_tau)
  2  1    -7.08144947E-01   # -sin(theta_tau)
  2  2     7.06067089E-01   # cos(theta_tau)
#
BLOCK ALPHA  # Higgs mixing
          -5.90187555E-01   # Mixing angle in the neutral Higgs boson sector
#
BLOCK HMIX Q=  9.11876000E+01  # DRbar Higgs Parameters
         1     3.50000000E+03   # mu(Q)               
         2     1.49999982E+00   # tanbeta(Q)          
         3     2.54846677E+02   # vev(Q)              
         4    -6.85818637E+07   # MA^2(Q)             
#
BLOCK GAUGE Q=  9.11876000E+01  # The gauge couplings
     1     3.50655900E-01   # gprime(Q) DRbar
     2     6.21611993E-01   # g(Q) DRbar
     3     1.03156177E+00   # g3(Q) DRbar
#
BLOCK AU Q=  9.11876000E+01  # The trilinear couplings
  1  1     0.00000000E+00   # A_u(Q) DRbar
  2  2     0.00000000E+00   # A_c(Q) DRbar
  3  3     0.00000000E+00   # A_t(Q) DRbar
#
BLOCK AD Q=  9.11876000E+01  # The trilinear couplings
  1  1     0.00000000E+00   # A_d(Q) DRbar
  2  2     0.00000000E+00   # A_s(Q) DRbar
  3  3     0.00000000E+00   # A_b(Q) DRbar
#
BLOCK AE Q=  9.11876000E+01  # The trilinear couplings
  1  1     0.00000000E+00   # A_e(Q) DRbar
  2  2     0.00000000E+00   # A_mu(Q) DRbar
  3  3     0.00000000E+00   # A_tau(Q) DRbar
#
BLOCK Yu Q=  9.11876000E+01  # The Yukawa couplings
  1  1     0.00000000E+00   # y_u(Q) DRbar
  2  2     0.00000000E+00   # y_c(Q) DRbar
  3  3     9.83033923E-01   # y_t(Q) DRbar
#
BLOCK Yd Q=  9.11876000E+01  # The Yukawa couplings
  1  1     0.00000000E+00   # y_d(Q) DRbar
  2  2     0.00000000E+00   # y_s(Q) DRbar
  3  3     2.57903079E-02   # y_b(Q) DRbar
#
BLOCK Ye Q=  9.11876000E+01  # The Yukawa couplings
  1  1     0.00000000E+00   # y_e(Q) DRbar
  2  2     0.00000000E+00   # y_mu(Q) DRbar
  3  3     1.77400127E-02   # y_tau(Q) DRbar
#
BLOCK MSOFT Q=  9.11876000E+01  # The soft SUSY breaking masses at the scale Q
         1     2.00000000E+02   # M_1                 
         2     1.00000000E+05   # M_2                 
         3     1.00000000E+05   # M_3                 
        14     0.00000000E+00   # A_u                 
        15     0.00000000E+00   # A_d                 
        16     0.00000000E+00   # A_e                 
        21     6.36534340E+08   # M^2_Hd              
        22    -1.14073280E+09   # M^2_Hu              
        31     1.00000000E+05   # M_eL                
        32     1.00000000E+05   # M_muL               
        33     1.00000000E+05   # M_tauL              
        34     1.00000000E+05   # M_eR                
        35     1.00000000E+05   # M_muR               
        36     1.00000000E+05   # M_tauR              
        41     8.00000000E+02   # M_q1L               
        42     8.00000000E+02   # M_q2L               
        43     8.00000000E+02   # M_q3L               
        44     1.00000000E+05   # M_uR                
        45     1.00000000E+05   # M_cR                
        46     1.00000000E+05   # M_tR                
        47     8.00000000E+02   # M_dR                
        48     8.00000000E+02   # M_sR                
        49     8.00000000E+02   # M_bR                
#
#
#
#                             =================
#                             |The decay table|
#                             =================
#
# - The QCD corrections to the decays gluino -> squark  + quark
#                                     squark -> gaugino + quark_prime
#                                     squark -> squark_prime + Higgs
#                                     squark -> gluino  + quark
#   are included.
#
# - The multi-body decays for the inos, stops and sbottoms are included.
#
# - The loop induced decays for the gluino, neutralinos and stops
#   are included.
#
# - The SUSY decays of the top quark are included.
#
# - Possible decays of the NLSP in GMSB models are included.
#
#
#         PDG            Width
DECAY         6     1.33376057E+00   # top decays
#          BR         NDA      ID1       ID2
     1.00000000E+00    2           5        24   # BR(t ->  b    W+)
#
#         PDG            Width
DECAY   1000021     1.E-04   # gluino decays (OJ Mods)
#          BR         NDA      ID1       ID2
     1.65002616E-04    2     1000001        -1   # BR(~g -> ~d_L  db)
     1.65002616E-04    2    -1000001         1   # BR(~g -> ~d_L* d )
     1.65002652E-04    2     2000001        -1   # BR(~g -> ~d_R  db)
     1.65002652E-04    2    -2000001         1   # BR(~g -> ~d_R* d )
     1.65002696E-04    2     1000002        -2   # BR(~g -> ~u_L  ub)
     1.65002696E-04    2    -1000002         2   # BR(~g -> ~u_L* u )
     4.46224298E-19    2     2000002        -2   # BR(~g -> ~u_R  ub)
     4.46224298E-19    2    -2000002         2   # BR(~g -> ~u_R* u )
     1.65002616E-04    2     1000003        -3   # BR(~g -> ~s_L  sb)
     1.65002616E-04    2    -1000003         3   # BR(~g -> ~s_L* s )
     1.65002652E-04    2     2000003        -3   # BR(~g -> ~s_R  sb)
     1.65002652E-04    2    -2000003         3   # BR(~g -> ~s_R* s )
     1.65002696E-04    2     1000004        -4   # BR(~g -> ~c_L  cb)
     1.65002696E-04    2    -1000004         4   # BR(~g -> ~c_L* c )
     4.46224298E-19    2     2000004        -4   # BR(~g -> ~c_R  cb)
     4.46224298E-19    2    -2000004         4   # BR(~g -> ~c_R* c )
     2.47750132E-01    2     1000005        -5   # BR(~g -> ~b_1  bb)
     2.47750132E-01    2    -1000005         5   # BR(~g -> ~b_1* b )
     2.48797453E-01    2     2000005        -5   # BR(~g -> ~b_2  bb)
     2.48797453E-01    2    -2000005         5   # BR(~g -> ~b_2* b )
     1.62354492E-04    2     1000006        -6   # BR(~g -> ~t_1  tb)
     1.62354492E-04    2    -1000006         6   # BR(~g -> ~t_1* t )
     4.60008818E-03    2     1000039        21   # BR(~g -> ~G g)
#
#         PDG            Width
DECAY   1000006     1.11264988E-01   # stop1 decays
#          BR         NDA      ID1       ID2
     1.00000000E+00    2     1000022         6   # BR(~t_1 -> ~chi_10 t )
#
#         PDG            Width
DECAY   2000006     1.18434683E+06   # stop2 decays
#          BR         NDA      ID1       ID2
     1.75781866E-04    2     1000022         6   # BR(~t_2 -> ~chi_10 t )
     4.16224896E-04    2     1000023         6   # BR(~t_2 -> ~chi_20 t )
     4.16175725E-04    2     1000025         6   # BR(~t_2 -> ~chi_30 t )
     9.99006997E-01    2     1000024         5   # BR(~t_2 -> ~chi_1+ b )
    -1.16336332E-05    2     1000006        25   # BR(~t_2 -> ~t_1    h )
     1.21685939E-05    2     1000006        35   # BR(~t_2 -> ~t_1    H )
     1.21482853E-05    2     1000006        36   # BR(~t_2 -> ~t_1    A )
     1.14380526E-05    2     1000005        37   # BR(~t_2 -> ~b_1    H+)
     1.28583415E-05    2     2000005        37   # BR(~t_2 -> ~b_2    H+)
    -8.40378640E-06    2     1000006        23   # BR(~t_2 -> ~t_1    Z )
    -2.10069389E-05    2     1000005        24   # BR(~t_2 -> ~b_1    W+)
    -2.27479173E-05    2     2000005        24   # BR(~t_2 -> ~b_2    W+)
#
#         PDG            Width
DECAY   1000005     1.37864169E+02   # sbottom1 decays
#          BR         NDA      ID1       ID2
     1.00000000E+00    2     1000022         5   # BR(~b_1 -> ~chi_10 b )
#
#         PDG            Width
DECAY   2000005     1.34749283E+02   # sbottom2 decays
#          BR         NDA      ID1       ID2
     1.00000000E+00    2     1000022         5   # BR(~b_2 -> ~chi_10 b )
#
#         PDG            Width
DECAY   1000002     1.18900604E-01   # sup_L decays
#          BR         NDA      ID1       ID2
     1.00000000E+00    2     1000022         2   # BR(~u_L -> ~chi_10 u)
#
#         PDG            Width
DECAY   2000002     2.08346313E+02   # sup_R decays
#          BR         NDA      ID1       ID2
     9.99818391E-01    2     1000022         2   # BR(~u_R -> ~chi_10 u)
     5.60381727E-06    2     1000023         2   # BR(~u_R -> ~chi_20 u)
     1.76004997E-04    2     1000025         2   # BR(~u_R -> ~chi_30 u)
#
#         PDG            Width
DECAY   1000001     1.19196431E-01   # sdown_L decays
#          BR         NDA      ID1       ID2
     1.00000000E+00    2     1000022         1   # BR(~d_L -> ~chi_10 d)
#
#         PDG            Width
DECAY   2000001     4.76251730E-01   # sdown_R decays
#          BR         NDA      ID1       ID2
     1.00000000E+00    2     1000022         1   # BR(~d_R -> ~chi_10 d)
#
#         PDG            Width
DECAY   1000004     1.18900604E-01   # scharm_L decays
#          BR         NDA      ID1       ID2
     1.00000000E+00    2     1000022         4   # BR(~c_L -> ~chi_10 c)
#
#         PDG            Width
DECAY   2000004     2.08346313E+02   # scharm_R decays
#          BR         NDA      ID1       ID2
     9.99818391E-01    2     1000022         4   # BR(~c_R -> ~chi_10 c)
     5.60381727E-06    2     1000023         4   # BR(~c_R -> ~chi_20 c)
     1.76004997E-04    2     1000025         4   # BR(~c_R -> ~chi_30 c)
#
#         PDG            Width
DECAY   1000003     1.19196431E-01   # sstrange_L decays
#          BR         NDA      ID1       ID2
     1.00000000E+00    2     1000022         3   # BR(~s_L -> ~chi_10 s)
#
#         PDG            Width
DECAY   2000003     4.76251730E-01   # sstrange_R decays
#          BR         NDA      ID1       ID2
     1.00000000E+00    2     1000022         3   # BR(~s_R -> ~chi_10 s)
#
#         PDG            Width
DECAY   1000011     1.22309848E+02   # selectron_L decays
#          BR         NDA      ID1       ID2
     9.99777328E-01    2     1000022        11   # BR(~e_L -> ~chi_10 e-)
     4.40935403E-06    2     1000023        11   # BR(~e_L -> ~chi_20 e-)
     2.15574349E-04    2     1000025        11   # BR(~e_L -> ~chi_30 e-)
     2.68802979E-06    2    -1000024        12   # BR(~e_L -> ~chi_1- nu_e)
#
#         PDG            Width
DECAY   2000011     4.89236456E+02   # selectron_R decays
#          BR         NDA      ID1       ID2
     9.99818641E-01    2     1000022        11   # BR(~e_R -> ~chi_10 e-)
     5.59610434E-06    2     1000023        11   # BR(~e_R -> ~chi_20 e-)
     1.75762703E-04    2     1000025        11   # BR(~e_R -> ~chi_30 e-)
#
#         PDG            Width
DECAY   1000013     1.22309848E+02   # smuon_L decays
#          BR         NDA      ID1       ID2
     9.99777328E-01    2     1000022        13   # BR(~mu_L -> ~chi_10 mu-)
     4.40935403E-06    2     1000023        13   # BR(~mu_L -> ~chi_20 mu-)
     2.15574349E-04    2     1000025        13   # BR(~mu_L -> ~chi_30 mu-)
     2.68802979E-06    2    -1000024        14   # BR(~mu_L -> ~chi_1- nu_mu)
#
#         PDG            Width
DECAY   2000013     4.89236456E+02   # smuon_R decays
#          BR         NDA      ID1       ID2
     9.99818641E-01    2     1000022        13   # BR(~mu_R -> ~chi_10 mu-)
     5.59610434E-06    2     1000023        13   # BR(~mu_R -> ~chi_20 mu-)
     1.75762703E-04    2     1000025        13   # BR(~mu_R -> ~chi_30 mu-)
#
#         PDG            Width
DECAY   1000015     1.18201915E+04   # stau_1 decays
#          BR         NDA      ID1       ID2
     2.59175943E-02    2     1000022        15   # BR(~tau_1 -> ~chi_10  tau-)
     2.51812703E-05    2     1000023        15   # BR(~tau_1 -> ~chi_20  tau-)
     2.49877804E-05    2     1000025        15   # BR(~tau_1 -> ~chi_30  tau-)
     2.77229214E-05    2    -1000024        16   # BR(~tau_1 -> ~chi_1-  nu_tau)
     9.74004514E-01    2     1000039        15   # BR(~tau_1 -> ~G       tau-)
#
#         PDG            Width
DECAY   2000015     3.06148355E+02   # stau_2 decays
#          BR         NDA      ID1       ID2
     9.96508924E-01    2     1000022        15   # BR(~tau_2 -> ~chi_10  tau-)
     1.07844558E-03    2     1000023        15   # BR(~tau_2 -> ~chi_20  tau-)
     1.44186854E-03    2     1000025        15   # BR(~tau_2 -> ~chi_30  tau-)
     9.70761769E-04    2    -1000024        16   # BR(~tau_2 -> ~chi_1-  nu_tau)
#
#         PDG            Width
DECAY   1000012     1.22309908E+02   # snu_eL decays
#          BR         NDA      ID1       ID2
     9.99847349E-01    2     1000022        12   # BR(~nu_eL -> ~chi_10 nu_e)
     6.92403512E-06    2     1000023        12   # BR(~nu_eL -> ~chi_20 nu_e)
     1.40009757E-04    2     1000025        12   # BR(~nu_eL -> ~chi_30 nu_e)
     5.71750398E-06    2     1000024        11   # BR(~nu_eL -> ~chi_1+ e-)
#
#         PDG            Width
DECAY   1000014     1.22309908E+02   # snu_muL decays
#          BR         NDA      ID1       ID2
     9.99847349E-01    2     1000022        14   # BR(~nu_muL -> ~chi_10 nu_mu)
     6.92403512E-06    2     1000023        14   # BR(~nu_muL -> ~chi_20 nu_mu)
     1.40009757E-04    2     1000025        14   # BR(~nu_muL -> ~chi_30 nu_mu)
     5.71750398E-06    2     1000024        13   # BR(~nu_muL -> ~chi_1+ mu-)
#
#         PDG            Width
DECAY   1000016     1.22934466E+02   # snu_tauL decays
#          BR         NDA      ID1       ID2
     9.94767706E-01    2     1000022        16   # BR(~nu_tauL -> ~chi_10 nu_tau)
     6.88885813E-06    2     1000023        16   # BR(~nu_tauL -> ~chi_20 nu_tau)
     1.39298449E-04    2     1000025        16   # BR(~nu_tauL -> ~chi_30 nu_tau)
     5.08610643E-03    2     1000024        15   # BR(~nu_tauL -> ~chi_1+ tau-)
#
#         PDG            Width
DECAY   1000024     1.10682407E+02   # chargino1+ decays
#          BR         NDA      ID1       ID2
     3.47893296E-07    2     1000002        -1   # BR(~chi_1+ -> ~u_L     db)
     1.63495397E-07    2    -1000001         2   # BR(~chi_1+ -> ~d_L*    u )
     3.47893296E-07    2     1000004        -3   # BR(~chi_1+ -> ~c_L     sb)
     1.63495397E-07    2    -1000003         4   # BR(~chi_1+ -> ~s_L*    c )
     3.13640185E-01    2     1000006        -5   # BR(~chi_1+ -> ~t_1     bb)
     4.30928408E-02    2    -1000005         6   # BR(~chi_1+ -> ~b_1*    t )
     6.15441899E-01    2    -2000005         6   # BR(~chi_1+ -> ~b_2*    t )
     2.06367111E-02    2     1000022        24   # BR(~chi_1+ -> ~chi_10  W+)
     7.18407993E-03    2     1000022        37   # BR(~chi_1+ -> ~chi_10  H+)
     2.72577229E-06    2     1000039        24   # BR(~chi_1+ -> ~G       W+)
     5.36309463E-07    2     1000039        37   # BR(~chi_1+ -> ~G       H+)
#
#         PDG            Width
DECAY   1000037     7.19227615E+05   # chargino2+ decays
#          BR         NDA      ID1       ID2
     1.51206780E-03    2     1000002        -1   # BR(~chi_2+ -> ~u_L     db)
     1.51206859E-03    2    -1000001         2   # BR(~chi_2+ -> ~d_L*    u )
     1.51206780E-03    2     1000004        -3   # BR(~chi_2+ -> ~c_L     sb)
     1.51206859E-03    2    -1000003         4   # BR(~chi_2+ -> ~s_L*    c )
     9.74343461E-01    2     1000006        -5   # BR(~chi_2+ -> ~t_1     bb)
     3.19354570E-04    2    -1000005         6   # BR(~chi_2+ -> ~b_1*    t )
     1.45102294E-03    2    -2000005         6   # BR(~chi_2+ -> ~b_2*    t )
     1.12119310E-15    2     1000012       -11   # BR(~chi_2+ -> ~nu_eL   e+  )
     1.12119310E-15    2     1000014       -13   # BR(~chi_2+ -> ~nu_muL  mu+ )
     7.82878973E-16    2    -1000011        12   # BR(~chi_2+ -> ~e_L+    nu_e)
     7.82878973E-16    2    -1000013        14   # BR(~chi_2+ -> ~mu_L+   nu_mu)
     1.21432506E-15    2    -1000015        16   # BR(~chi_2+ -> ~tau_1+  nu_tau)
     2.06800573E-17    2    -2000015        16   # BR(~chi_2+ -> ~tau_2+  nu_tau)
     2.78460052E-04    2     1000024        23   # BR(~chi_2+ -> ~chi_1+  Z )
     3.72923511E-08    2     1000022        24   # BR(~chi_2+ -> ~chi_10  W+)
     2.70511611E-04    2     1000023        24   # BR(~chi_2+ -> ~chi_20  W+)
     2.70471429E-04    2     1000025        24   # BR(~chi_2+ -> ~chi_30  W+)
     2.79995228E-04    2     1000024        25   # BR(~chi_2+ -> ~chi_1+  h )
     2.45785985E-04    2     1000024        35   # BR(~chi_2+ -> ~chi_1+  H )
     2.45816941E-04    2     1000024        36   # BR(~chi_2+ -> ~chi_1+  A )
     5.09719732E-08    2     1000022        37   # BR(~chi_2+ -> ~chi_10  H+)
     2.45807536E-04    2     1000023        37   # BR(~chi_2+ -> ~chi_20  H+)
     2.45766313E-04    2     1000025        37   # BR(~chi_2+ -> ~chi_30  H+)
     1.57551806E-02    2     1000039        24   # BR(~chi_2+ -> ~G       W+)
     4.54119281E-09    2     1000039        37   # BR(~chi_2+ -> ~G       H+)
#
#         PDG            Width
DECAY   1000022     1.E-08   # neutralino1 decays (OJ Mods)
#          BR         NDA      ID1       ID2
     8.89212107E-01    2     1000039        22   # BR(~chi_10 -> ~G        gam)
     1.10787888E-01    2     1000039        23   # BR(~chi_10 -> ~G        Z)
     5.02836275E-09    2     1000039        25   # BR(~chi_10 -> ~G        h)
#
#         PDG            Width
DECAY   1000023     1.E-08   # neutralino2 decays (OJ Mods)
#          BR         NDA      ID1       ID2
     1.52637877E-02    2     1000022        23   # BR(~chi_20 -> ~chi_10   Z )
     4.77047337E-04    2     1000022        25   # BR(~chi_20 -> ~chi_10   h )
     5.15716946E-03    2     1000022        35   # BR(~chi_20 -> ~chi_10   H )
     2.90654037E-04    2     1000022        36   # BR(~chi_20 -> ~chi_10   A )
     1.40718418E-08    2     1000002        -2   # BR(~chi_20 -> ~u_L      ub)
     1.40718418E-08    2    -1000002         2   # BR(~chi_20 -> ~u_L*     u )
     5.72106328E-08    2     1000001        -1   # BR(~chi_20 -> ~d_L      db)
     5.72106328E-08    2    -1000001         1   # BR(~chi_20 -> ~d_L*     d )
     1.28034988E-07    2     2000001        -1   # BR(~chi_20 -> ~d_R      db)
     1.28034988E-07    2    -2000001         1   # BR(~chi_20 -> ~d_R*     d )
     1.40718418E-08    2     1000004        -4   # BR(~chi_20 -> ~c_L      cb)
     1.40718418E-08    2    -1000004         4   # BR(~chi_20 -> ~c_L*     c )
     5.72106328E-08    2     1000003        -3   # BR(~chi_20 -> ~s_L      sb)
     5.72106328E-08    2    -1000003         3   # BR(~chi_20 -> ~s_L*     s )
     1.28034988E-07    2     2000003        -3   # BR(~chi_20 -> ~s_R      sb)
     1.28034988E-07    2    -2000003         3   # BR(~chi_20 -> ~s_R*     s )
     2.43766239E-01    2     1000006        -6   # BR(~chi_20 -> ~t_1      tb)
     2.43766239E-01    2    -1000006         6   # BR(~chi_20 -> ~t_1*     t )
     1.18640600E-01    2     1000005        -5   # BR(~chi_20 -> ~b_1      bb)
     1.18640600E-01    2    -1000005         5   # BR(~chi_20 -> ~b_1*     b )
     1.26997266E-01    2     2000005        -5   # BR(~chi_20 -> ~b_2      bb)
     1.26997266E-01    2    -2000005         5   # BR(~chi_20 -> ~b_2*     b )
     1.60271811E-11    2     1000039        22   # BR(~chi_20 -> ~G        gam)
     7.77035610E-08    2     1000039        23   # BR(~chi_20 -> ~G        Z)
     1.93916311E-06    2     1000039        25   # BR(~chi_20 -> ~G        h)
     1.55564781E-08    2     1000039        35   # BR(~chi_20 -> ~G        H)
     4.00618473E-07    2     1000039        36   # BR(~chi_20 -> ~G        A)
#
#         PDG            Width
DECAY   1000025     1.49796204E+02   # neutralino3 decays
#          BR         NDA      ID1       ID2
     4.84610416E-04    2     1000022        23   # BR(~chi_30 -> ~chi_10   Z )
     1.52685779E-02    2     1000022        25   # BR(~chi_30 -> ~chi_10   h )
     2.82370029E-04    2     1000022        35   # BR(~chi_30 -> ~chi_10   H )
     5.15671215E-03    2     1000022        36   # BR(~chi_30 -> ~chi_10   A )
     1.75284259E-06    2     1000002        -2   # BR(~chi_30 -> ~u_L      ub)
     1.75284259E-06    2    -1000002         2   # BR(~chi_30 -> ~u_L*     u )
     4.59959343E-07    2     1000001        -1   # BR(~chi_30 -> ~d_L      db)
     4.59959343E-07    2    -1000001         1   # BR(~chi_30 -> ~d_L*     d )
     4.00830224E-06    2     2000001        -1   # BR(~chi_30 -> ~d_R      db)
     4.00830224E-06    2    -2000001         1   # BR(~chi_30 -> ~d_R*     d )
     1.75284259E-06    2     1000004        -4   # BR(~chi_30 -> ~c_L      cb)
     1.75284259E-06    2    -1000004         4   # BR(~chi_30 -> ~c_L*     c )
     4.59959343E-07    2     1000003        -3   # BR(~chi_30 -> ~s_L      sb)
     4.59959343E-07    2    -1000003         3   # BR(~chi_30 -> ~s_L*     s )
     4.00830224E-06    2     2000003        -3   # BR(~chi_30 -> ~s_R      sb)
     4.00830224E-06    2    -2000003         3   # BR(~chi_30 -> ~s_R*     s )
     2.42979242E-01    2     1000006        -6   # BR(~chi_30 -> ~t_1      tb)
     2.42979242E-01    2    -1000006         6   # BR(~chi_30 -> ~t_1*     t )
     1.04919255E-01    2     1000005        -5   # BR(~chi_30 -> ~b_1      bb)
     1.04919255E-01    2    -1000005         5   # BR(~chi_30 -> ~b_1*     b )
     1.41493254E-01    2     2000005        -5   # BR(~chi_30 -> ~b_2      bb)
     1.41493254E-01    2    -2000005         5   # BR(~chi_30 -> ~b_2*     b )
     5.77509401E-10    2     1000039        22   # BR(~chi_30 -> ~G        gam)
     1.93669240E-06    2     1000039        23   # BR(~chi_30 -> ~G        Z)
     7.56087111E-08    2     1000039        25   # BR(~chi_30 -> ~G        h)
     3.97042916E-07    2     1000039        35   # BR(~chi_30 -> ~G        H)
     1.59853893E-08    2     1000039        36   # BR(~chi_30 -> ~G        A)
#
#         PDG            Width
DECAY   1000035     7.19230725E+05   # neutralino4 decays
#          BR         NDA      ID1       ID2
     3.07432865E-12    2     1000022        23   # BR(~chi_40 -> ~chi_10   Z )
     2.69101960E-04    2     1000023        23   # BR(~chi_40 -> ~chi_20   Z )
     9.35712239E-06    2     1000025        23   # BR(~chi_40 -> ~chi_30   Z )
     2.70508771E-04    2     1000024       -24   # BR(~chi_40 -> ~chi_1+   W-)
     2.70508771E-04    2    -1000024        24   # BR(~chi_40 -> ~chi_1-   W+)
     3.86609573E-08    2     1000022        25   # BR(~chi_40 -> ~chi_10   h )
     6.31717100E-09    2     1000022        35   # BR(~chi_40 -> ~chi_10   H )
     4.45870316E-08    2     1000022        36   # BR(~chi_40 -> ~chi_10   A )
     9.20476027E-06    2     1000023        25   # BR(~chi_40 -> ~chi_20   h )
     2.35202832E-04    2     1000023        35   # BR(~chi_40 -> ~chi_20   H )
     1.08121812E-05    2     1000023        36   # BR(~chi_40 -> ~chi_20   A )
     2.70750901E-04    2     1000025        25   # BR(~chi_40 -> ~chi_30   h )
     1.05754830E-05    2     1000025        35   # BR(~chi_40 -> ~chi_30   H )
     2.34959122E-04    2     1000025        36   # BR(~chi_40 -> ~chi_30   A )
     2.45811519E-04    2     1000024       -37   # BR(~chi_40 -> ~chi_1+   H-)
     2.45811519E-04    2    -1000024        37   # BR(~chi_40 -> ~chi_1-   H+)
     7.23184072E-04    2     1000002        -2   # BR(~chi_40 -> ~u_L      ub)
     7.23184072E-04    2    -1000002         2   # BR(~chi_40 -> ~u_L*     u )
     1.16546305E-23    2     2000002        -2   # BR(~chi_40 -> ~u_R      ub)
     1.16546305E-23    2    -2000002         2   # BR(~chi_40 -> ~u_R*     u )
     7.23184700E-04    2     1000001        -1   # BR(~chi_40 -> ~d_L      db)
     7.23184700E-04    2    -1000001         1   # BR(~chi_40 -> ~d_L*     d )
     1.37406651E-17    2     2000001        -1   # BR(~chi_40 -> ~d_R      db)
     1.37406651E-17    2    -2000001         1   # BR(~chi_40 -> ~d_R*     d )
     7.23184072E-04    2     1000004        -4   # BR(~chi_40 -> ~c_L      cb)
     7.23184072E-04    2    -1000004         4   # BR(~chi_40 -> ~c_L*     c )
     1.16546305E-23    2     2000004        -4   # BR(~chi_40 -> ~c_R      cb)
     1.16546305E-23    2    -2000004         4   # BR(~chi_40 -> ~c_R*     c )
     7.23184700E-04    2     1000003        -3   # BR(~chi_40 -> ~s_L      sb)
     7.23184700E-04    2    -1000003         3   # BR(~chi_40 -> ~s_L*     s )
     1.37406651E-17    2     2000003        -3   # BR(~chi_40 -> ~s_R      sb)
     1.37406651E-17    2    -2000003         3   # BR(~chi_40 -> ~s_R*     s )
     8.85185004E-04    2     1000006        -6   # BR(~chi_40 -> ~t_1      tb)
     8.85185004E-04    2    -1000006         6   # BR(~chi_40 -> ~t_1*     t )
     2.33610211E-01    2     1000005        -5   # BR(~chi_40 -> ~b_1      bb)
     2.33610211E-01    2    -1000005         5   # BR(~chi_40 -> ~b_1*     b )
     2.53561575E-01    2     2000005        -5   # BR(~chi_40 -> ~b_2      bb)
     2.53561575E-01    2    -2000005         5   # BR(~chi_40 -> ~b_2*     b )
     3.91437564E-16    2     1000011       -11   # BR(~chi_40 -> ~e_L-     e+)
     3.91437564E-16    2    -1000011        11   # BR(~chi_40 -> ~e_L+     e-)
     6.69366369E-29    2     2000011       -11   # BR(~chi_40 -> ~e_R-     e+)
     6.69366369E-29    2    -2000011        11   # BR(~chi_40 -> ~e_R+     e-)
     3.91437564E-16    2     1000013       -13   # BR(~chi_40 -> ~mu_L-    mu+)
     3.91437564E-16    2    -1000013        13   # BR(~chi_40 -> ~mu_L+    mu-)
     6.69366369E-29    2     2000013       -13   # BR(~chi_40 -> ~mu_R-    mu+)
     6.69366369E-29    2    -2000013        13   # BR(~chi_40 -> ~mu_R+    mu-)
     5.60594532E-16    2     1000012       -12   # BR(~chi_40 -> ~nu_eL    nu_eb)
     5.60594532E-16    2    -1000012        12   # BR(~chi_40 -> ~nu_eL*   nu_e )
     5.60594532E-16    2     1000014       -14   # BR(~chi_40 -> ~nu_muL   nu_mub)
     5.60594532E-16    2    -1000014        14   # BR(~chi_40 -> ~nu_muL*  nu_mu )
     5.60594532E-16    2     1000016       -16   # BR(~chi_40 -> ~nu_tau1  nu_taub)
     5.60594532E-16    2    -1000016        16   # BR(~chi_40 -> ~nu_tau1* nu_tau )
     3.80328160E-03    2     1000039        22   # BR(~chi_40 -> ~G        gam)
     1.19518310E-02    2     1000039        23   # BR(~chi_40 -> ~G        Z)
     7.24938819E-10    2     1000039        25   # BR(~chi_40 -> ~G        h)
     4.54837094E-09    2     1000039        35   # BR(~chi_40 -> ~G        H)
     8.96369376E-13    2     1000039        36   # BR(~chi_40 -> ~G        A)
#
#
#
#
