#
#                              ======================
#                              | THE SUSYHIT OUTPUT |
#                              ======================
#
#
#              ------------------------------------------------------
#              |     This is the output of the SUSY-HIT package     |
#              |  created by A.Djouadi, M.Muehlleitner and M.Spira. |
#              |  In case of problems with SUSY-HIT email to        |
#              |           margarete.muehlleitner@cern.ch           |
#              |           michael.spira@psi.ch                     |
#              |           abdelhak.djouadi@cern.ch                 |
#              ------------------------------------------------------
#
#              ------------------------------------------------------
#              |  SUSY Les Houches Accord - MSSM Spectrum + Decays  |
#              |              based on the decay programs           |
#              |                                                    |
#              |                     SDECAY 1.3b                    |
#              |                                                    |
#              |  Authors: M.Muhlleitner, A.Djouadi and Y.Mambrini  |
#              |  Ref.:    Comput.Phys.Commun.168(2005)46           |
#              |           [hep-ph/0311167]                         |
#              |                                                    |
#              |                     HDECAY 3.4                     |
#              |                                                    |
#              |  By: A.Djouadi,J.Kalinowski,M.Muhlleitner,M.Spira  |
#              |  Ref.:    Comput.Phys.Commun.108(1998)56           |
#              |           [hep-ph/9704448]                         |
#              |                                                    |
#              |                                                    |
#              |  If not stated otherwise all DRbar couplings and   |
#              |  soft SUSY breaking masses are given at the scale  |
#              |  Q=  0.91187600E+02
#              |                                                    |
#              ------------------------------------------------------
#
#
BLOCK DCINFO  # Decay Program information
     1   SDECAY/HDECAY # decay calculator
     2   1.3b  /3.4    # version number
#
BLOCK SPINFO  # Spectrum calculator information
     1   SuSpect     # RGE +Spectrum calculator            
     2   2.41         # version number                     
#
BLOCK MODSEL  # Model selection
     1     0   # #general MSSM low scale                           
#
BLOCK SMINPUTS  # Standard Model inputs
         1     1.27934000E+02   # alpha_em^-1(M_Z)^MSbar
         2     1.16639000E-05   # G_F [GeV^-2]
         3     1.17200000E-01   # alpha_S(M_Z)^MSbar
         4     9.11870000E+01   # M_Z pole mass
         5     4.25000000E+00   # mb(mb)^MSbar
         6     1.72500000E+02   # mt pole mass
         7     1.77700000E+00   # mtau pole mass
#
BLOCK MINPAR  # Input parameters - minimal models
#
BLOCK EXTPAR  # Input parameters - non-minimal models
         0     9.11876000E+01   # EWSB                
         1     1.00000000E+02   # M_1                 
         2     3.00000000E+03   # M_2                 
         3     1.80000000E+03   # M_3                 
        11     0.00000000E+00   # A_t                 
        12     0.00000000E+00   # A_b                 
        13     0.00000000E+00   # A_tau               
        14     0.00000000E+00   # A_u                 
        15     0.00000000E+00   # A_d                 
        16     0.00000000E+00   # A_e                 
        23     3.00000000E+03   # mu(EWSB)            
        25     1.50000000E+00   # tanbeta(in)         
        26     2.00000000E+03   # MA_pole             
        31     3.00000000E+03   # M_eL                
        32     3.00000000E+03   # M_muL               
        33     3.00000000E+03   # M_tauL              
        34     3.00000000E+03   # M_eR                
        35     3.00000000E+03   # M_muR               
        36     3.00000000E+03   # M_tauR              
        41     3.00000000E+03   # M_q1L               
        42     3.00000000E+03   # M_q2L               
        43     3.00000000E+03   # M_q3L               
        44     3.00000000E+03   # M_uR                
        45     3.00000000E+03   # M_cR                
        46     3.00000000E+03   # M_tR                
        47     3.00000000E+03   # M_dR                
        48     3.00000000E+03   # M_sR                
        49     3.00000000E+03   # M_bR                
#
BLOCK MASS  # Mass Spectrum
# PDG code           mass       particle
        24     8.05385399E+01   # W+
        25     1.25000000E+02   # h
        35     2.00379229E+03   # H
        36     2.00000000E+03   # A
        37     2.00144220E+03   # H+
         5     4.87877839E+00   # b-quark pole mass calculated from mb(mb)_Msbar
   1000001     3.00022253E+03   # ~d_L
   2000001     3.00004243E+03   # ~d_R
   1000002     2.99981989E+03   # ~u_L
   2000002     2.99991513E+03   # ~u_R
   1000003     3.00022253E+03   # ~s_L
   2000003     3.00004243E+03   # ~s_R
   1000004     2.99981989E+03   # ~c_L
   2000004     2.99991513E+03   # ~c_R
   1000005     2.99811173E+03   # ~b_1
   2000005     3.00215429E+03   # ~b_2
   1000006     2.95236511E+03   # ~t_1
   2000006     3.05431239E+03   # ~t_2
   1000011     3.00013766E+03   # ~e_L
   2000011     3.00012730E+03   # ~e_R
   1000012     2.99973502E+03   # ~nu_eL
   1000013     3.00013766E+03   # ~mu_L
   2000013     3.00012730E+03   # ~mu_R
   1000014     2.99973502E+03   # ~nu_muL
   1000015     2.99879759E+03   # ~tau_1
   2000015     3.00146783E+03   # ~tau_2
   1000016     2.99973502E+03   # ~nu_tauL
   1000021     1.80000000E+03   # ~g
   1000022     9.93659019E+01   # ~chi_10
   1000023     2.92264343E+03   # ~chi_20
   1000025    -3.00006492E+03   # ~chi_30
   1000035     3.07805559E+03   # ~chi_40
   1000024     2.92232605E+03   # ~chi_1+
   1000037     3.07775447E+03   # ~chi_2+
   1000039     1.00000000E-09   # ~gravitino
#
BLOCK NMIX  # Neutralino Mixing Matrix
  1  1     9.99882331E-01   # N_11
  1  2    -3.88734615E-04   # N_12
  1  3     1.26536501E-02   # N_13
  1  4    -8.66357839E-03   # N_14
  2  1     1.09180498E-02   # N_21
  2  2     7.08507894E-01   # N_22
  2  3    -5.00249232E-01   # N_23
  2  4     4.97642508E-01   # N_24
  3  1     2.81989512E-03   # N_31
  3  2    -2.59112647E-03   # N_32
  3  3    -7.07063342E-01   # N_33
  3  4    -7.07139848E-01   # N_34
  4  1     1.04003819E-02   # N_41
  4  2    -7.05698022E-01   # N_42
  4  3    -4.99651900E-01   # N_43
  4  4     5.02225160E-01   # N_44
#
BLOCK UMIX  # Chargino Mixing Matrix U
  1  1    -7.05272686E-01   # U_11
  1  2     7.08936131E-01   # U_12
  2  1     7.08936131E-01   # U_21
  2  2     7.05272686E-01   # U_22
#
BLOCK VMIX  # Chargino Mixing Matrix V
  1  1    -7.08936131E-01   # V_11
  1  2     7.05272686E-01   # V_12
  2  1     7.05272686E-01   # V_21
  2  2     7.08936131E-01   # V_22
#
BLOCK STOPMIX  # Stop Mixing Matrix
  1  1     7.07436607E-01   # cos(theta_t)
  1  2     7.06776801E-01   # sin(theta_t)
  2  1    -7.06776801E-01   # -sin(theta_t)
  2  2     7.07436607E-01   # cos(theta_t)
#
BLOCK SBOTMIX  # Sbottom Mixing Matrix
  1  1     6.91176889E-01   # cos(theta_b)
  1  2     7.22685622E-01   # sin(theta_b)
  2  1    -7.22685622E-01   # -sin(theta_b)
  2  2     6.91176889E-01   # cos(theta_b)
#
BLOCK STAUMIX  # Stau Mixing Matrix
  1  1     7.05732887E-01   # cos(theta_tau)
  1  2     7.08478011E-01   # sin(theta_tau)
  2  1    -7.08478011E-01   # -sin(theta_tau)
  2  2     7.05732887E-01   # cos(theta_tau)
#
BLOCK ALPHA  # Higgs mixing
          -5.89894204E-01   # Mixing angle in the neutral Higgs boson sector
#
BLOCK HMIX Q=  9.11876000E+01  # DRbar Higgs Parameters
         1     3.00000000E+03   # mu(Q)               
         2     1.49999980E+00   # tanbeta(Q)          
         3     2.52419457E+02   # vev(Q)              
         4     2.87094434E+06   # MA^2(Q)             
#
BLOCK GAUGE Q=  9.11876000E+01  # The gauge couplings
     1     3.53088399E-01   # gprime(Q) DRbar
     2     6.27948841E-01   # g(Q) DRbar
     3     1.09039067E+00   # g3(Q) DRbar
#
BLOCK AU Q=  9.11876000E+01  # The trilinear couplings
  1  1     0.00000000E+00   # A_u(Q) DRbar
  2  2     0.00000000E+00   # A_c(Q) DRbar
  3  3     0.00000000E+00   # A_t(Q) DRbar
#
BLOCK AD Q=  9.11876000E+01  # The trilinear couplings
  1  1     0.00000000E+00   # A_d(Q) DRbar
  2  2     0.00000000E+00   # A_s(Q) DRbar
  3  3     0.00000000E+00   # A_b(Q) DRbar
#
BLOCK AE Q=  9.11876000E+01  # The trilinear couplings
  1  1     0.00000000E+00   # A_e(Q) DRbar
  2  2     0.00000000E+00   # A_mu(Q) DRbar
  3  3     0.00000000E+00   # A_tau(Q) DRbar
#
BLOCK Yu Q=  9.11876000E+01  # The Yukawa couplings
  1  1     0.00000000E+00   # y_u(Q) DRbar
  2  2     0.00000000E+00   # y_c(Q) DRbar
  3  3     1.03084172E+00   # y_t(Q) DRbar
#
BLOCK Yd Q=  9.11876000E+01  # The Yukawa couplings
  1  1     0.00000000E+00   # y_d(Q) DRbar
  2  2     0.00000000E+00   # y_s(Q) DRbar
  3  3     2.71948662E-02   # y_b(Q) DRbar
#
BLOCK Ye Q=  9.11876000E+01  # The Yukawa couplings
  1  1     0.00000000E+00   # y_e(Q) DRbar
  2  2     0.00000000E+00   # y_mu(Q) DRbar
  3  3     1.79807543E-02   # y_tau(Q) DRbar
#
BLOCK MSOFT Q=  9.11876000E+01  # The soft SUSY breaking masses at the scale Q
         1     1.00000000E+02   # M_1                 
         2     3.00000000E+03   # M_2                 
         3     1.80000000E+03   # M_3                 
        14     0.00000000E+00   # A_u                 
        15     0.00000000E+00   # A_d                 
        16     0.00000000E+00   # A_e                 
        21    -6.69825134E+06   # M^2_Hd              
        22    -9.08382571E+06   # M^2_Hu              
        31     3.00000000E+03   # M_eL                
        32     3.00000000E+03   # M_muL               
        33     3.00000000E+03   # M_tauL              
        34     3.00000000E+03   # M_eR                
        35     3.00000000E+03   # M_muR               
        36     3.00000000E+03   # M_tauR              
        41     3.00000000E+03   # M_q1L               
        42     3.00000000E+03   # M_q2L               
        43     3.00000000E+03   # M_q3L               
        44     3.00000000E+03   # M_uR                
        45     3.00000000E+03   # M_cR                
        46     3.00000000E+03   # M_tR                
        47     3.00000000E+03   # M_dR                
        48     3.00000000E+03   # M_sR                
        49     3.00000000E+03   # M_bR                
#
#
#
#                             =================
#                             |The decay table|
#                             =================
#
# - The QCD corrections to the decays gluino -> squark  + quark
#                                     squark -> gaugino + quark_prime
#                                     squark -> squark_prime + Higgs
#                                     squark -> gluino  + quark
#   are included.
#
# - The multi-body decays for the inos, stops and sbottoms are included.
#
# - The loop induced decays for the gluino, neutralinos and stops
#   are included.
#
# - The SUSY decays of the top quark are included.
#
# - Possible decays of the NLSP in GMSB models are included.
#
#
#         PDG            Width
DECAY         6     1.36286652E+00   # top decays
#          BR         NDA      ID1       ID2
     1.00000000E+00    2           5        24   # BR(t ->  b    W+)
#
#         PDG            Width
DECAY   1000021     1.E-04   # gluino decays (OJ Mods)
#          BR         NDA      ID1       ID2
     3.54797891E-05    2     1000022        21   # BR(~g -> ~chi_10 g)
#          BR         NDA      ID1       ID2
     1.14124536E-02    2     1000039        21   # BR(~g -> ~G      g)
#           BR         NDA      ID1       ID2       ID3
     7.89456026E-02    3     1000022         1        -1   # BR(~g -> ~chi_10 d  db)
     2.68198831E-01    3     1000022         2        -2   # BR(~g -> ~chi_10 u  ub)
     7.89456026E-02    3     1000022         3        -3   # BR(~g -> ~chi_10 s  sb)
     2.68198831E-01    3     1000022         4        -4   # BR(~g -> ~chi_10 c  cb)
     7.89317768E-02    3     1000022         5        -5   # BR(~g -> ~chi_10 b  bb)
     2.15331423E-01    3     1000022         6        -6   # BR(~g -> ~chi_10 t  tb)
#
#         PDG            Width
DECAY   1000006     7.94040926E+01   # stop1 decays
#          BR         NDA      ID1       ID2
     4.27035087E-02    2     1000022         6   # BR(~t_1 -> ~chi_10 t )
     1.99737254E-04    2     1000024         5   # BR(~t_1 -> ~chi_1+ b )
     9.57096754E-01    2     1000021         6   # BR(~t_1 -> ~g      t )
#
#         PDG            Width
DECAY   2000006     7.32507272E+01   # stop2 decays
#          BR         NDA      ID1       ID2
     4.46754539E-02    2     1000022         6   # BR(~t_2 -> ~chi_10 t )
     9.79177677E-05    2     1000024         5   # BR(~t_2 -> ~chi_1+ b )
     9.54359638E-01    2     1000021         6   # BR(~t_2 -> ~g      t )
     8.66990221E-04    2     1000006        23   # BR(~t_2 -> ~t_1    Z )
#
#         PDG            Width
DECAY   1000005     7.42440639E+01   # sbottom1 decays
#          BR         NDA      ID1       ID2
     1.37558954E-02    2     1000022         5   # BR(~b_1 -> ~chi_10 b )
     1.06742422E-04    2     1000023         5   # BR(~b_1 -> ~chi_20 b )
     9.86137362E-01    2     1000021         5   # BR(~b_1 -> ~g      b )
#
#         PDG            Width
DECAY   2000005     7.41799828E+01   # sbottom2 decays
#          BR         NDA      ID1       ID2
     1.27657569E-02    2     1000022         5   # BR(~b_2 -> ~chi_10 b )
     1.13075432E-04    2     1000023         5   # BR(~b_2 -> ~chi_20 b )
     9.87121168E-01    2     1000021         5   # BR(~b_2 -> ~g      b )
#
#         PDG            Width
DECAY   1000002     7.37080816E+01   # sup_L decays
#          BR         NDA      ID1       ID2
     5.31703542E-03    2     1000022         2   # BR(~u_L -> ~chi_10 u)
     5.43063487E-04    2     1000023         2   # BR(~u_L -> ~chi_20 u)
     1.08722141E-03    2     1000024         1   # BR(~u_L -> ~chi_1+ d)
     9.93052680E-01    2     1000021         2   # BR(~u_L -> ~g      u)
#
#         PDG            Width
DECAY   2000002     7.95004041E+01   # sup_R decays
#          BR         NDA      ID1       ID2
     7.92050976E-02    2     1000022         2   # BR(~u_R -> ~chi_10 u)
     6.69282257E-08    2     1000023         2   # BR(~u_R -> ~chi_20 u)
     9.20794835E-01    2     1000021         2   # BR(~u_R -> ~g      u)
#
#         PDG            Width
DECAY   1000001     7.37428841E+01   # sdown_L decays
#          BR         NDA      ID1       ID2
     5.35954872E-03    2     1000022         1   # BR(~d_L -> ~chi_10 d)
     5.40347139E-04    2     1000023         1   # BR(~d_L -> ~chi_20 d)
     1.31205408E-11    2     1000025         1   # BR(~d_L -> ~chi_30 d)
     1.08304577E-03    2    -1000024         2   # BR(~d_L -> ~chi_1- u)
     9.93017058E-01    2     1000021         1   # BR(~d_L -> ~g      d)
#
#         PDG            Width
DECAY   2000001     7.47879376E+01   # sdown_R decays
#          BR         NDA      ID1       ID2
     2.10498974E-02    2     1000022         1   # BR(~d_R -> ~chi_10 d)
     1.78258475E-08    2     1000023         1   # BR(~d_R -> ~chi_20 d)
     9.78950085E-01    2     1000021         1   # BR(~d_R -> ~g      d)
#
#         PDG            Width
DECAY   1000004     7.37080816E+01   # scharm_L decays
#          BR         NDA      ID1       ID2
     5.31703542E-03    2     1000022         4   # BR(~c_L -> ~chi_10 c)
     5.43063487E-04    2     1000023         4   # BR(~c_L -> ~chi_20 c)
     1.08722141E-03    2     1000024         3   # BR(~c_L -> ~chi_1+ s)
     9.93052680E-01    2     1000021         4   # BR(~c_L -> ~g      c)
#
#         PDG            Width
DECAY   2000004     7.95004041E+01   # scharm_R decays
#          BR         NDA      ID1       ID2
     7.92050976E-02    2     1000022         4   # BR(~c_R -> ~chi_10 c)
     6.69282257E-08    2     1000023         4   # BR(~c_R -> ~chi_20 c)
     9.20794835E-01    2     1000021         4   # BR(~c_R -> ~g      c)
#
#         PDG            Width
DECAY   1000003     7.37428841E+01   # sstrange_L decays
#          BR         NDA      ID1       ID2
     5.35954872E-03    2     1000022         3   # BR(~s_L -> ~chi_10 s)
     5.40347139E-04    2     1000023         3   # BR(~s_L -> ~chi_20 s)
     1.31205408E-11    2     1000025         3   # BR(~s_L -> ~chi_30 s)
     1.08304577E-03    2    -1000024         4   # BR(~s_L -> ~chi_1- c)
     9.93017058E-01    2     1000021         3   # BR(~s_L -> ~g      s)
#
#         PDG            Width
DECAY   2000003     7.47879376E+01   # sstrange_R decays
#          BR         NDA      ID1       ID2
     2.10498974E-02    2     1000022         3   # BR(~s_R -> ~chi_10 s)
     1.78258475E-08    2     1000023         3   # BR(~s_R -> ~chi_20 s)
     9.78950085E-01    2     1000021         3   # BR(~s_R -> ~g      s)
#
#         PDG            Width
DECAY   1000011     3.75271221E+00   # selectron_L decays
#          BR         NDA      ID1       ID2
     9.87658149E-01    2     1000022        11   # BR(~e_L -> ~chi_10 e-)
     4.16440635E-03    2     1000023        11   # BR(~e_L -> ~chi_20 e-)
     7.45504073E-15    2     1000025        11   # BR(~e_L -> ~chi_30 e-)
     8.17744463E-03    2    -1000024        12   # BR(~e_L -> ~chi_1- nu_e)
#
#         PDG            Width
DECAY   2000011     1.48460631E+01   # selectron_R decays
#          BR         NDA      ID1       ID2
     9.99999689E-01    2     1000022        11   # BR(~e_R -> ~chi_10 e-)
     3.10641360E-07    2     1000023        11   # BR(~e_R -> ~chi_20 e-)
     1.37842667E-14    2     1000025        11   # BR(~e_R -> ~chi_30 e-)
#
#         PDG            Width
DECAY   1000013     3.75271221E+00   # smuon_L decays
#          BR         NDA      ID1       ID2
     9.87658149E-01    2     1000022        13   # BR(~mu_L -> ~chi_10 mu-)
     4.16440635E-03    2     1000023        13   # BR(~mu_L -> ~chi_20 mu-)
     7.45504073E-15    2     1000025        13   # BR(~mu_L -> ~chi_30 mu-)
     8.17744463E-03    2    -1000024        14   # BR(~mu_L -> ~chi_1- nu_mu)
#
#         PDG            Width
DECAY   2000013     1.48460631E+01   # smuon_R decays
#          BR         NDA      ID1       ID2
     9.99999689E-01    2     1000022        13   # BR(~mu_R -> ~chi_10 mu-)
     3.10641360E-07    2     1000023        13   # BR(~mu_R -> ~chi_20 mu-)
     1.37842667E-14    2     1000025        13   # BR(~mu_R -> ~chi_30 mu-)
#
#         PDG            Width
DECAY   1000015     9.32124987E+00   # stau_1 decays
#          BR         NDA      ID1       ID2
     9.97438838E-01    2     1000022        15   # BR(~tau_1 -> ~chi_10  tau-)
     8.53147354E-04    2     1000023        15   # BR(~tau_1 -> ~chi_20  tau-)
     1.67806114E-03    2    -1000024        16   # BR(~tau_1 -> ~chi_1-  nu_tau)
     2.99535308E-05    2     1000039        15   # BR(~tau_1 -> ~G       tau-)
#
#         PDG            Width
DECAY   2000015     9.27774688E+00   # stau_2 decays
#          BR         NDA      ID1       ID2
     9.97555796E-01    2     1000022        15   # BR(~tau_2 -> ~chi_10  tau-)
     8.25207814E-04    2     1000023        15   # BR(~tau_2 -> ~chi_20  tau-)
     1.61899640E-03    2    -1000024        16   # BR(~tau_2 -> ~chi_1-  nu_tau)
#
#         PDG            Width
DECAY   1000012     3.76179908E+00   # snu_eL decays
#          BR         NDA      ID1       ID2
     9.87867956E-01    2     1000022        12   # BR(~nu_eL -> ~chi_10 nu_e)
     3.97229178E-03    2     1000023        12   # BR(~nu_eL -> ~chi_20 nu_e)
     8.15975197E-03    2     1000024        11   # BR(~nu_eL -> ~chi_1+ e-)
#
#         PDG            Width
DECAY   1000014     3.76179908E+00   # snu_muL decays
#          BR         NDA      ID1       ID2
     9.87867956E-01    2     1000022        14   # BR(~nu_muL -> ~chi_10 nu_mu)
     3.97229178E-03    2     1000023        14   # BR(~nu_muL -> ~chi_20 nu_mu)
     8.15975197E-03    2     1000024        13   # BR(~nu_muL -> ~chi_1+ mu-)
#
#         PDG            Width
DECAY   1000016     3.76177612E+00   # snu_tauL decays
#          BR         NDA      ID1       ID2
     9.87873985E-01    2     1000022        16   # BR(~nu_tauL -> ~chi_10 nu_tau)
     3.97231602E-03    2     1000023        16   # BR(~nu_tauL -> ~chi_20 nu_tau)
     8.15369915E-03    2     1000024        15   # BR(~nu_tauL -> ~chi_1+ tau-)
#
#         PDG            Width
DECAY   1000024     1.21383951E+00   # chargino1+ decays
#          BR         NDA      ID1       ID2
     8.04017186E-01    2     1000022        24   # BR(~chi_1+ -> ~chi_10  W+)
     1.95827749E-01    2     1000022        37   # BR(~chi_1+ -> ~chi_10  H+)
     1.51041291E-04    2     1000039        24   # BR(~chi_1+ -> ~G       W+)
     4.02333468E-06    2     1000039        37   # BR(~chi_1+ -> ~G       H+)
#
#         PDG            Width
DECAY   1000037     4.27134629E+00   # chargino2+ decays
#          BR         NDA      ID1       ID2
     2.78091232E-02    2     1000002        -1   # BR(~chi_2+ -> ~u_L     db)
     2.79026110E-02    2    -1000001         2   # BR(~chi_2+ -> ~d_L*    u )
     2.78091232E-02    2     1000004        -3   # BR(~chi_2+ -> ~c_L     sb)
     2.79026110E-02    2    -1000003         4   # BR(~chi_2+ -> ~s_L*    c )
     4.54829547E-03    2     1000006        -5   # BR(~chi_2+ -> ~t_1     bb)
     4.59580447E-03    2     2000006        -5   # BR(~chi_2+ -> ~t_2     bb)
     3.52229089E-03    2     1000012       -11   # BR(~chi_2+ -> ~nu_eL   e+  )
     3.52229089E-03    2     1000014       -13   # BR(~chi_2+ -> ~nu_muL  mu+ )
     3.51963558E-03    2     1000016       -15   # BR(~chi_2+ -> ~nu_tau1 tau+)
     3.52280550E-03    2    -1000011        12   # BR(~chi_2+ -> ~e_L+    nu_e)
     3.52280550E-03    2    -1000013        14   # BR(~chi_2+ -> ~mu_L+   nu_mu)
     1.71255748E-03    2    -1000015        16   # BR(~chi_2+ -> ~tau_1+  nu_tau)
     1.80725965E-03    2    -2000015        16   # BR(~chi_2+ -> ~tau_2+  nu_tau)
     2.68519304E-01    2     1000024        23   # BR(~chi_2+ -> ~chi_1+  Z )
     2.17925192E-01    2     1000022        24   # BR(~chi_2+ -> ~chi_10  W+)
     3.09292537E-01    2     1000023        24   # BR(~chi_2+ -> ~chi_20  W+)
     2.80996600E-06    2     1000024        25   # BR(~chi_2+ -> ~chi_1+  h )
     6.25051696E-02    2     1000022        37   # BR(~chi_2+ -> ~chi_10  H+)
     5.57139240E-05    2     1000039        24   # BR(~chi_2+ -> ~G       W+)
     2.06016333E-06    2     1000039        37   # BR(~chi_2+ -> ~G       H+)
#
#         PDG            Width
DECAY   1000022     3.3E-16   # neutralino1 decays (OJ Mods)
#          BR         NDA      ID1       ID2
     9.99803325E-01    2     1000039        22   # BR(~chi_10 -> ~G        gam)
     1.96675006E-04    2     1000039        23   # BR(~chi_10 -> ~G        Z)
#
#         PDG            Width
DECAY   1000023     1.E-08   # neutralino2 decays (OJ Mods)
#          BR         NDA      ID1       ID2
     2.53509039E-02    2     1000022        23   # BR(~chi_20 -> ~chi_10   Z )
     7.82961467E-01    2     1000022        25   # BR(~chi_20 -> ~chi_10   h )
     9.82803416E-03    2     1000022        35   # BR(~chi_20 -> ~chi_10   H )
     1.81707811E-01    2     1000022        36   # BR(~chi_20 -> ~chi_10   A )
     2.51688174E-05    2     1000039        22   # BR(~chi_20 -> ~G        gam)
     1.20924898E-04    2     1000039        23   # BR(~chi_20 -> ~G        Z)
     1.79575049E-06    2     1000039        25   # BR(~chi_20 -> ~G        h)
     3.73970640E-06    2     1000039        35   # BR(~chi_20 -> ~G        H)
     1.55313617E-07    2     1000039        36   # BR(~chi_20 -> ~G        A)
#
#         PDG            Width
DECAY   1000025     2.47052828E+00   # neutralino3 decays
#          BR         NDA      ID1       ID2
     7.68147986E-01    2     1000022        23   # BR(~chi_30 -> ~chi_10   Z )
     2.65110151E-02    2     1000022        25   # BR(~chi_30 -> ~chi_10   h )
     1.95314712E-01    2     1000022        35   # BR(~chi_30 -> ~chi_10   H )
     9.96461376E-03    2     1000022        36   # BR(~chi_30 -> ~chi_10   A )
     7.98825676E-10    2     1000002        -2   # BR(~chi_30 -> ~u_L      ub)
     7.98825676E-10    2    -1000002         2   # BR(~chi_30 -> ~u_L*     u )
     5.12422305E-10    2     2000002        -2   # BR(~chi_30 -> ~u_R      ub)
     5.12422305E-10    2    -2000002         2   # BR(~chi_30 -> ~u_R*     u )
     1.92257685E-11    2     2000001        -1   # BR(~chi_30 -> ~d_R      db)
     1.92257685E-11    2    -2000001         1   # BR(~chi_30 -> ~d_R*     d )
     7.98825676E-10    2     1000004        -4   # BR(~chi_30 -> ~c_L      cb)
     7.98825676E-10    2    -1000004         4   # BR(~chi_30 -> ~c_L*     c )
     5.12422305E-10    2     2000004        -4   # BR(~chi_30 -> ~c_R      cb)
     5.12422305E-10    2    -2000004         4   # BR(~chi_30 -> ~c_R*     c )
     1.92257685E-11    2     2000003        -3   # BR(~chi_30 -> ~s_R      sb)
     1.92257685E-11    2    -2000003         3   # BR(~chi_30 -> ~s_R*     s )
     2.00918169E-12    2     1000012       -12   # BR(~chi_30 -> ~nu_eL    nu_eb)
     2.00918169E-12    2    -1000012        12   # BR(~chi_30 -> ~nu_eL*   nu_e )
     2.00918169E-12    2     1000014       -14   # BR(~chi_30 -> ~nu_muL   nu_mub)
     2.00918169E-12    2    -1000014        14   # BR(~chi_30 -> ~nu_muL*  nu_mu )
     2.00918169E-12    2     1000016       -16   # BR(~chi_30 -> ~nu_tau1  nu_taub)
     2.00918169E-12    2    -1000016        16   # BR(~chi_30 -> ~nu_tau1* nu_tau )
     1.59831224E-10    2     1000039        22   # BR(~chi_30 -> ~G        gam)
     2.17240810E-06    2     1000039        23   # BR(~chi_30 -> ~G        Z)
     5.41092136E-05    2     1000039        25   # BR(~chi_30 -> ~G        h)
     2.01005279E-07    2     1000039        35   # BR(~chi_30 -> ~G        H)
     5.18697422E-06    2     1000039        36   # BR(~chi_30 -> ~G        A)
#
#         PDG            Width
DECAY   1000035     4.48823510E+00   # neutralino4 decays
#          BR         NDA      ID1       ID2
     7.81515381E-03    2     1000022        23   # BR(~chi_40 -> ~chi_10   Z )
     1.25994524E-09    2     1000023        23   # BR(~chi_40 -> ~chi_20   Z )
     2.92047892E-01    2     1000024       -24   # BR(~chi_40 -> ~chi_1+   W-)
     2.92047892E-01    2    -1000024        24   # BR(~chi_40 -> ~chi_1-   W+)
     2.07207948E-01    2     1000022        25   # BR(~chi_40 -> ~chi_10   h )
     2.59330465E-03    2     1000022        35   # BR(~chi_40 -> ~chi_10   H )
     5.73696435E-02    2     1000022        36   # BR(~chi_40 -> ~chi_10   A )
     4.56197967E-06    2     1000023        25   # BR(~chi_40 -> ~chi_20   h )
     2.14546839E-02    2     1000002        -2   # BR(~chi_40 -> ~u_L      ub)
     2.14546839E-02    2    -1000002         2   # BR(~chi_40 -> ~u_L*     u )
     2.62991837E-06    2     2000002        -2   # BR(~chi_40 -> ~u_R      ub)
     2.62991837E-06    2    -2000002         2   # BR(~chi_40 -> ~u_R*     u )
     2.15582829E-02    2     1000001        -1   # BR(~chi_40 -> ~d_L      db)
     2.15582829E-02    2    -1000001         1   # BR(~chi_40 -> ~d_L*     d )
     6.56186034E-07    2     2000001        -1   # BR(~chi_40 -> ~d_R      db)
     6.56186034E-07    2    -2000001         1   # BR(~chi_40 -> ~d_R*     d )
     2.14546839E-02    2     1000004        -4   # BR(~chi_40 -> ~c_L      cb)
     2.14546839E-02    2    -1000004         4   # BR(~chi_40 -> ~c_L*     c )
     2.62991837E-06    2     2000004        -4   # BR(~chi_40 -> ~c_R      cb)
     2.62991837E-06    2    -2000004         4   # BR(~chi_40 -> ~c_R*     c )
     2.15582829E-02    2     1000003        -3   # BR(~chi_40 -> ~s_L      sb)
     2.15582829E-02    2    -1000003         3   # BR(~chi_40 -> ~s_L*     s )
     6.56186034E-07    2     2000003        -3   # BR(~chi_40 -> ~s_R      sb)
     6.56186034E-07    2    -2000003         3   # BR(~chi_40 -> ~s_R*     s )
     3.32770935E-03    2     1000005        -5   # BR(~chi_40 -> ~b_1      bb)
     3.32770935E-03    2    -1000005         5   # BR(~chi_40 -> ~b_1*     b )
     3.92034241E-03    2     2000005        -5   # BR(~chi_40 -> ~b_2      bb)
     3.92034241E-03    2    -2000005         5   # BR(~chi_40 -> ~b_2*     b )
     1.64597647E-03    2     1000011       -11   # BR(~chi_40 -> ~e_L-     e+)
     1.64597647E-03    2    -1000011        11   # BR(~chi_40 -> ~e_L+     e-)
     4.59837743E-07    2     2000011       -11   # BR(~chi_40 -> ~e_R-     e+)
     4.59837743E-07    2    -2000011        11   # BR(~chi_40 -> ~e_R+     e-)
     1.64597647E-03    2     1000013       -13   # BR(~chi_40 -> ~mu_L-    mu+)
     1.64597647E-03    2    -1000013        13   # BR(~chi_40 -> ~mu_L+    mu-)
     4.59837743E-07    2     2000013       -13   # BR(~chi_40 -> ~mu_R-    mu+)
     4.59837743E-07    2    -2000013        13   # BR(~chi_40 -> ~mu_R+    mu-)
     7.98834310E-04    2     1000015       -15   # BR(~chi_40 -> ~tau_1-   tau+)
     7.98834310E-04    2    -1000015        15   # BR(~chi_40 -> ~tau_1+   tau-)
     8.44899908E-04    2     2000015       -15   # BR(~chi_40 -> ~tau_2-   tau+)
     8.44899908E-04    2    -2000015        15   # BR(~chi_40 -> ~tau_2+   tau-)
     1.71885410E-03    2     1000012       -12   # BR(~chi_40 -> ~nu_eL    nu_eb)
     1.71885410E-03    2    -1000012        12   # BR(~chi_40 -> ~nu_eL*   nu_e )
     1.71885410E-03    2     1000014       -14   # BR(~chi_40 -> ~nu_muL   nu_mub)
     1.71885410E-03    2    -1000014        14   # BR(~chi_40 -> ~nu_muL*  nu_mu )
     1.71885410E-03    2     1000016       -16   # BR(~chi_40 -> ~nu_tau1  nu_taub)
     1.71885410E-03    2    -1000016        16   # BR(~chi_40 -> ~nu_tau1* nu_tau )
     8.03978409E-06    2     1000039        22   # BR(~chi_40 -> ~G        gam)
     4.42247055E-05    2     1000039        23   # BR(~chi_40 -> ~G        Z)
     6.84123732E-07    2     1000039        25   # BR(~chi_40 -> ~G        h)
     1.88455059E-06    2     1000039        35   # BR(~chi_40 -> ~G        H)
     7.42985665E-08    2     1000039        36   # BR(~chi_40 -> ~G        A)
#
#         PDG            Width
DECAY        25     4.10188531E-03   # h decays
#          BR         NDA      ID1       ID2
     6.19092030E-01    2           5        -5   # BR(h -> b       bb     )
     6.34384948E-02    2         -15        15   # BR(h -> tau+    tau-   )
     2.24548908E-04    2         -13        13   # BR(h -> mu+     mu-    )
     4.75846159E-04    2           3        -3   # BR(h -> s       sb     )
     2.05560288E-02    2           4        -4   # BR(h -> c       cb     )
     6.68772545E-02    2          21        21   # BR(h -> g       g      )
     2.29183886E-03    2          22        22   # BR(h -> gam     gam    )
     1.53119948E-03    2          22        23   # BR(h -> Z       gam    )
     1.99996739E-01    2          24       -24   # BR(h -> W+      W-     )
     2.55160188E-02    2          23        23   # BR(h -> Z       Z      )
#
#         PDG            Width
DECAY        35     3.75770860E+01   # H decays
#          BR         NDA      ID1       ID2
     1.45214518E-03    2           5        -5   # BR(H -> b       bb     )
     2.48031121E-04    2         -15        15   # BR(H -> tau+    tau-   )
     8.76882358E-07    2         -13        13   # BR(H -> mu+     mu-    )
     1.12271575E-06    2           3        -3   # BR(H -> s       sb     )
     1.01186078E-05    2           4        -4   # BR(H -> c       cb     )
     9.96296826E-01    2           6        -6   # BR(H -> t       tb     )
     7.94008815E-04    2          21        21   # BR(H -> g       g      )
     2.69529460E-06    2          22        22   # BR(H -> gam     gam    )
     1.15921999E-06    2          23        22   # BR(H -> Z       gam    )
     2.48968520E-04    2          24       -24   # BR(H -> W+      W-     )
     1.24144575E-04    2          23        23   # BR(H -> Z       Z      )
     8.15806565E-04    2          25        25   # BR(H -> h       h      )
     6.24632041E-24    2          36        36   # BR(H -> A       A      )
     2.25226921E-11    2          23        36   # BR(H -> Z       A      )
     5.01573002E-12    2          24       -37   # BR(H -> W+      H-     )
     5.01573002E-12    2         -24        37   # BR(H -> W-      H+     )
     4.09650214E-06    2     1000022   1000022   # BR(H -> ~chi_10 ~chi_10)
#
#         PDG            Width
DECAY        36     3.80433057E+01   # A decays
#          BR         NDA      ID1       ID2
     1.45326050E-03    2           5        -5   # BR(A -> b       bb     )
     2.45147374E-04    2         -15        15   # BR(A -> tau+    tau-   )
     8.66684527E-07    2         -13        13   # BR(A -> mu+     mu-    )
     1.14255594E-06    2           3        -3   # BR(A -> s       sb     )
     1.00124196E-05    2           4        -4   # BR(A -> c       cb     )
     9.97070685E-01    2           6        -6   # BR(A -> t       tb     )
     9.42377031E-04    2          21        21   # BR(A -> g       g      )
     3.11013608E-06    2          22        22   # BR(A -> gam     gam    )
     1.34989940E-06    2          23        22   # BR(A -> Z       gam    )
     2.42486792E-04    2          23        25   # BR(A -> Z       h      )
     2.95611513E-05    2     1000022   1000022   # BR(A -> ~chi_10 ~chi_10)
#
#         PDG            Width
DECAY        37     3.72542459E+01   # H+ decays
#          BR         NDA      ID1       ID2
     2.31455904E-06    2           4        -5   # BR(H+ -> c       bb     )
     2.50520214E-04    2         -15        16   # BR(H+ -> tau+    nu_tau )
     8.85679454E-07    2         -13        14   # BR(H+ -> mu+     nu_mu  )
     1.47127817E-08    2           2        -5   # BR(H+ -> u       bb     )
     5.48485242E-08    2           2        -3   # BR(H+ -> u       sb     )
     1.09287762E-05    2           4        -3   # BR(H+ -> c       sb     )
     9.99486771E-01    2           6        -5   # BR(H+ -> t       bb     )
     2.48510076E-04    2          24        25   # BR(H+ -> W+      h      )
     2.20252882E-13    2          24        36   # BR(H+ -> W+      A      )
