#
#                              ======================
#                              | THE SUSYHIT OUTPUT |
#                              ======================
#
#
#              ------------------------------------------------------
#              |     This is the output of the SUSY-HIT package     |
#              |  created by A.Djouadi, M.Muehlleitner and M.Spira. |
#              |  In case of problems with SUSY-HIT email to        |
#              |           margarete.muehlleitner@cern.ch           |
#              |           michael.spira@psi.ch                     |
#              |           abdelhak.djouadi@cern.ch                 |
#              ------------------------------------------------------
#
#              ------------------------------------------------------
#              |  SUSY Les Houches Accord - MSSM Spectrum + Decays  |
#              |              based on the decay programs           |
#              |                                                    |
#              |                     SDECAY 1.3b                    |
#              |                                                    |
#              |  Authors: M.Muhlleitner, A.Djouadi and Y.Mambrini  |
#              |  Ref.:    Comput.Phys.Commun.168(2005)46           |
#              |           [hep-ph/0311167]                         |
#              |                                                    |
#              |                     HDECAY 3.4                     |
#              |                                                    |
#              |  By: A.Djouadi,J.Kalinowski,M.Muhlleitner,M.Spira  |
#              |  Ref.:    Comput.Phys.Commun.108(1998)56           |
#              |           [hep-ph/9704448]                         |
#              |                                                    |
#              |                                                    |
#              |  If not stated otherwise all DRbar couplings and   |
#              |  soft SUSY breaking masses are given at the scale  |
#              |  Q=  0.91187600E+02
#              |                                                    |
#              ------------------------------------------------------
#
#
BLOCK DCINFO  # Decay Program information
     1   SDECAY/HDECAY # decay calculator
     2   1.3b  /3.4    # version number
#
BLOCK SPINFO  # Spectrum calculator information
     1   SuSpect     # RGE +Spectrum calculator            
     2   2.41         # version number                     
#
BLOCK MODSEL  # Model selection
     1     0   # #general MSSM low scale                           
#
BLOCK SMINPUTS  # Standard Model inputs
         1     1.27934000E+02   # alpha_em^-1(M_Z)^MSbar
         2     1.16639000E-05   # G_F [GeV^-2]
         3     1.17200000E-01   # alpha_S(M_Z)^MSbar
         4     9.11870000E+01   # M_Z pole mass
         5     4.25000000E+00   # mb(mb)^MSbar
         6     1.72500000E+02   # mt pole mass
         7     1.77700000E+00   # mtau pole mass
#
BLOCK MINPAR  # Input parameters - minimal models
#
BLOCK EXTPAR  # Input parameters - non-minimal models
         0     9.11876000E+01   # EWSB                
         1     1.70000000E+03   # M_1                 
         2     3.00000000E+03   # M_2                 
         3     1.80000000E+03   # M_3                 
        11     0.00000000E+00   # A_t                 
        12     0.00000000E+00   # A_b                 
        13     0.00000000E+00   # A_tau               
        14     0.00000000E+00   # A_u                 
        15     0.00000000E+00   # A_d                 
        16     0.00000000E+00   # A_e                 
        23     3.00000000E+03   # mu(EWSB)            
        25     1.50000000E+00   # tanbeta(in)         
        26     2.00000000E+03   # MA_pole             
        31     3.00000000E+03   # M_eL                
        32     3.00000000E+03   # M_muL               
        33     3.00000000E+03   # M_tauL              
        34     3.00000000E+03   # M_eR                
        35     3.00000000E+03   # M_muR               
        36     3.00000000E+03   # M_tauR              
        41     3.00000000E+03   # M_q1L               
        42     3.00000000E+03   # M_q2L               
        43     3.00000000E+03   # M_q3L               
        44     3.00000000E+03   # M_uR                
        45     3.00000000E+03   # M_cR                
        46     3.00000000E+03   # M_tR                
        47     3.00000000E+03   # M_dR                
        48     3.00000000E+03   # M_sR                
        49     3.00000000E+03   # M_bR                
#
BLOCK MASS  # Mass Spectrum
# PDG code           mass       particle
        24     8.05385202E+01   # W+
        25     1.25000000E+02   # h
        35     2.00378835E+03   # H
        36     2.00000000E+03   # A
        37     2.00144835E+03   # H+
         5     4.87877839E+00   # b-quark pole mass calculated from mb(mb)_Msbar
   1000001     3.00022259E+03   # ~d_L
   2000001     3.00004244E+03   # ~d_R
   1000002     2.99981984E+03   # ~u_L
   2000002     2.99991511E+03   # ~u_R
   1000003     3.00022259E+03   # ~s_L
   2000003     3.00004244E+03   # ~s_R
   1000004     2.99981984E+03   # ~c_L
   2000004     2.99991511E+03   # ~c_R
   1000005     2.99811177E+03   # ~b_1
   2000005     3.00215432E+03   # ~b_2
   1000006     2.95235927E+03   # ~t_1
   2000006     3.05431999E+03   # ~t_2
   1000011     3.00013770E+03   # ~e_L
   2000011     3.00012733E+03   # ~e_R
   1000012     2.99973495E+03   # ~nu_eL
   1000013     3.00013770E+03   # ~mu_L
   2000013     3.00012733E+03   # ~mu_R
   1000014     2.99973495E+03   # ~nu_muL
   1000015     2.99879764E+03   # ~tau_1
   2000015     3.00146786E+03   # ~tau_2
   1000016     2.99973495E+03   # ~nu_tauL
   1000021     1.80000000E+03   # ~g
   1000022     1.69854352E+03   # ~chi_10
   1000023     2.92307169E+03   # ~chi_20
   1000025    -3.00005654E+03   # ~chi_30
   1000035     3.07844133E+03   # ~chi_40
   1000024     2.92231527E+03   # ~chi_1+
   1000037     3.07776528E+03   # ~chi_2+
   1000039     1.00000000E-06   # ~gravitino
#
BLOCK NMIX  # Neutralino Mixing Matrix
  1  1     9.99428938E-01   # N_11
  1  2    -1.98915150E-03   # N_12
  1  3     2.51348797E-02   # N_13
  1  4    -2.24962000E-02   # N_14
  2  1     2.51219522E-02   # N_21
  2  2     7.10331774E-01   # N_22
  2  3    -4.98682361E-01   # N_23
  2  4     4.96098338E-01   # N_24
  3  1     1.86013942E-03   # N_31
  3  2    -2.59140551E-03   # N_32
  3  3    -7.07069865E-01   # N_33
  3  4    -7.07136500E-01   # N_34
  4  1     2.25216630E-02   # N_41
  4  2    -7.03859431E-01   # N_42
  4  3    -5.00735805E-01   # N_43
  4  4     5.03327259E-01   # N_44
#
BLOCK UMIX  # Chargino Mixing Matrix U
  1  1    -7.05272431E-01   # U_11
  1  2     7.08936385E-01   # U_12
  2  1     7.08936385E-01   # U_21
  2  2     7.05272431E-01   # U_22
#
BLOCK VMIX  # Chargino Mixing Matrix V
  1  1    -7.08936385E-01   # V_11
  1  2     7.05272431E-01   # V_12
  2  1     7.05272431E-01   # V_21
  2  2     7.08936385E-01   # V_22
#
BLOCK STOPMIX  # Stop Mixing Matrix
  1  1     7.07436657E-01   # cos(theta_t)
  1  2     7.06776751E-01   # sin(theta_t)
  2  1    -7.06776751E-01   # -sin(theta_t)
  2  2     7.07436657E-01   # cos(theta_t)
#
BLOCK SBOTMIX  # Sbottom Mixing Matrix
  1  1     6.91172346E-01   # cos(theta_b)
  1  2     7.22689967E-01   # sin(theta_b)
  2  1    -7.22689967E-01   # -sin(theta_b)
  2  2     6.91172346E-01   # cos(theta_b)
#
BLOCK STAUMIX  # Stau Mixing Matrix
  1  1     7.05732344E-01   # cos(theta_tau)
  1  2     7.08478552E-01   # sin(theta_tau)
  2  1    -7.08478552E-01   # -sin(theta_tau)
  2  2     7.05732344E-01   # cos(theta_tau)
#
BLOCK ALPHA  # Higgs mixing
          -5.89894387E-01   # Mixing angle in the neutral Higgs boson sector
#
BLOCK HMIX Q=  9.11876000E+01  # DRbar Higgs Parameters
         1     3.00000000E+03   # mu(Q)               
         2     1.49999980E+00   # tanbeta(Q)          
         3     2.52453453E+02   # vev(Q)              
         4     2.81566014E+06   # MA^2(Q)             
#
BLOCK GAUGE Q=  9.11876000E+01  # The gauge couplings
     1     3.53088824E-01   # gprime(Q) DRbar
     2     6.27951518E-01   # g(Q) DRbar
     3     1.09038992E+00   # g3(Q) DRbar
#
BLOCK AU Q=  9.11876000E+01  # The trilinear couplings
  1  1     0.00000000E+00   # A_u(Q) DRbar
  2  2     0.00000000E+00   # A_c(Q) DRbar
  3  3     0.00000000E+00   # A_t(Q) DRbar
#
BLOCK AD Q=  9.11876000E+01  # The trilinear couplings
  1  1     0.00000000E+00   # A_d(Q) DRbar
  2  2     0.00000000E+00   # A_s(Q) DRbar
  3  3     0.00000000E+00   # A_b(Q) DRbar
#
BLOCK AE Q=  9.11876000E+01  # The trilinear couplings
  1  1     0.00000000E+00   # A_e(Q) DRbar
  2  2     0.00000000E+00   # A_mu(Q) DRbar
  3  3     0.00000000E+00   # A_tau(Q) DRbar
#
BLOCK Yu Q=  9.11876000E+01  # The Yukawa couplings
  1  1     0.00000000E+00   # y_u(Q) DRbar
  2  2     0.00000000E+00   # y_c(Q) DRbar
  3  3     1.03083909E+00   # y_t(Q) DRbar
#
BLOCK Yd Q=  9.11876000E+01  # The Yukawa couplings
  1  1     0.00000000E+00   # y_d(Q) DRbar
  2  2     0.00000000E+00   # y_s(Q) DRbar
  3  3     2.71910996E-02   # y_b(Q) DRbar
#
BLOCK Ye Q=  9.11876000E+01  # The Yukawa couplings
  1  1     0.00000000E+00   # y_e(Q) DRbar
  2  2     0.00000000E+00   # y_mu(Q) DRbar
  3  3     1.79782624E-02   # y_tau(Q) DRbar
#
BLOCK MSOFT Q=  9.11876000E+01  # The soft SUSY breaking masses at the scale Q
         1     1.70000000E+03   # M_1                 
         2     3.00000000E+03   # M_2                 
         3     1.80000000E+03   # M_3                 
        14     0.00000000E+00   # A_u                 
        15     0.00000000E+00   # A_d                 
        16     0.00000000E+00   # A_e                 
        21    -6.68341729E+06   # M^2_Hd              
        22    -9.06905031E+06   # M^2_Hu              
        31     3.00000000E+03   # M_eL                
        32     3.00000000E+03   # M_muL               
        33     3.00000000E+03   # M_tauL              
        34     3.00000000E+03   # M_eR                
        35     3.00000000E+03   # M_muR               
        36     3.00000000E+03   # M_tauR              
        41     3.00000000E+03   # M_q1L               
        42     3.00000000E+03   # M_q2L               
        43     3.00000000E+03   # M_q3L               
        44     3.00000000E+03   # M_uR                
        45     3.00000000E+03   # M_cR                
        46     3.00000000E+03   # M_tR                
        47     3.00000000E+03   # M_dR                
        48     3.00000000E+03   # M_sR                
        49     3.00000000E+03   # M_bR                
#
#
#
#                             =================
#                             |The decay table|
#                             =================
#
# - The QCD corrections to the decays gluino -> squark  + quark
#                                     squark -> gaugino + quark_prime
#                                     squark -> squark_prime + Higgs
#                                     squark -> gluino  + quark
#   are included.
#
# - The multi-body decays for the inos, stops and sbottoms are included.
#
# - The loop induced decays for the gluino, neutralinos and stops
#   are included.
#
# - The SUSY decays of the top quark are included.
#
# - Possible decays of the NLSP in GMSB models are included.
#
#
#         PDG            Width
DECAY         6     1.36287898E+00   # top decays
#          BR         NDA      ID1       ID2
     1.00000000E+00    2           5        24   # BR(t ->  b    W+)
#
#         PDG            Width
DECAY   1000021     1.E-04   # gluino decays (OJ Mods)
#          BR         NDA      ID1       ID2
     1.69612206E-02    2     1000022        21   # BR(~g -> ~chi_10 g)
#          BR         NDA      ID1       ID2
     9.42266222E-04    2     1000039        21   # BR(~g -> ~G      g)
#           BR         NDA      ID1       ID2       ID3
     1.00809314E-01    3     1000022         1        -1   # BR(~g -> ~chi_10 d  db)
     3.40986956E-01    3     1000022         2        -2   # BR(~g -> ~chi_10 u  ub)
     1.00809314E-01    3     1000022         3        -3   # BR(~g -> ~chi_10 s  sb)
     3.40986956E-01    3     1000022         4        -4   # BR(~g -> ~chi_10 c  cb)
     9.85039730E-02    3     1000022         5        -5   # BR(~g -> ~chi_10 b  bb)
#
#         PDG            Width
DECAY   1000006     7.76738712E+01   # stop1 decays
#          BR         NDA      ID1       ID2
     2.13857012E-02    2     1000022         6   # BR(~t_1 -> ~chi_10 t )
     2.04252812E-04    2     1000024         5   # BR(~t_1 -> ~chi_1+ b )
     9.78410046E-01    2     1000021         6   # BR(~t_1 -> ~g      t )
#
#         PDG            Width
DECAY   2000006     7.14021036E+01   # stop2 decays
#          BR         NDA      ID1       ID2
     1.99337485E-02    2     1000022         6   # BR(~t_2 -> ~chi_10 t )
     1.00473502E-04    2     1000024         5   # BR(~t_2 -> ~chi_1+ b )
     9.79074581E-01    2     1000021         6   # BR(~t_2 -> ~g      t )
     8.91197064E-04    2     1000006        23   # BR(~t_2 -> ~t_1    Z )
#
#         PDG            Width
DECAY   1000005     7.37021611E+01   # sbottom1 decays
#          BR         NDA      ID1       ID2
     6.50719295E-03    2     1000022         5   # BR(~b_1 -> ~chi_10 b )
     1.06125678E-04    2     1000023         5   # BR(~b_1 -> ~chi_20 b )
     9.93386681E-01    2     1000021         5   # BR(~b_1 -> ~g      b )
#
#         PDG            Width
DECAY   2000005     7.36764077E+01   # sbottom2 decays
#          BR         NDA      ID1       ID2
     6.02084992E-03    2     1000022         5   # BR(~b_2 -> ~chi_10 b )
     1.12416223E-04    2     1000023         5   # BR(~b_2 -> ~chi_20 b )
     9.93866734E-01    2     1000021         5   # BR(~b_2 -> ~g      b )
#
#         PDG            Width
DECAY   1000002     7.35080600E+01   # sup_L decays
#          BR         NDA      ID1       ID2
     2.60878347E-03    2     1000022         2   # BR(~u_L -> ~chi_10 u)
     5.47298729E-04    2     1000023         2   # BR(~u_L -> ~chi_20 u)
     1.09039381E-03    2     1000024         1   # BR(~u_L -> ~chi_1+ d)
     9.95753524E-01    2     1000021         2   # BR(~u_L -> ~g      u)
#
#         PDG            Width
DECAY   2000002     7.63382493E+01   # sup_R decays
#          BR         NDA      ID1       ID2
     4.10640231E-02    2     1000022         2   # BR(~u_R -> ~chi_10 u)
     3.66253025E-07    2     1000023         2   # BR(~u_R -> ~chi_20 u)
     9.58935611E-01    2     1000021         2   # BR(~u_R -> ~g      u)
#
#         PDG            Width
DECAY   1000001     7.35473518E+01   # sdown_L decays
#          BR         NDA      ID1       ID2
     2.72153494E-03    2     1000022         1   # BR(~d_L -> ~chi_10 d)
     5.36459843E-04    2     1000023         1   # BR(~d_L -> ~chi_20 d)
     1.23107893E-11    2     1000025         1   # BR(~d_L -> ~chi_30 d)
     1.08613789E-03    2    -1000024         2   # BR(~d_L -> ~chi_1- u)
     9.95655867E-01    2     1000021         1   # BR(~d_L -> ~g      d)
#
#         PDG            Width
DECAY   2000001     7.39973518E+01   # sdown_R decays
#          BR         NDA      ID1       ID2
     1.05920061E-02    2     1000022         1   # BR(~d_R -> ~chi_10 d)
     9.46706196E-08    2     1000023         1   # BR(~d_R -> ~chi_20 d)
     9.89407899E-01    2     1000021         1   # BR(~d_R -> ~g      d)
#
#         PDG            Width
DECAY   1000004     7.35080600E+01   # scharm_L decays
#          BR         NDA      ID1       ID2
     2.60878347E-03    2     1000022         4   # BR(~c_L -> ~chi_10 c)
     5.47298729E-04    2     1000023         4   # BR(~c_L -> ~chi_20 c)
     1.09039381E-03    2     1000024         3   # BR(~c_L -> ~chi_1+ s)
     9.95753524E-01    2     1000021         4   # BR(~c_L -> ~g      c)
#
#         PDG            Width
DECAY   2000004     7.63382493E+01   # scharm_R decays
#          BR         NDA      ID1       ID2
     4.10640231E-02    2     1000022         4   # BR(~c_R -> ~chi_10 c)
     3.66253025E-07    2     1000023         4   # BR(~c_R -> ~chi_20 c)
     9.58935611E-01    2     1000021         4   # BR(~c_R -> ~g      c)
#
#         PDG            Width
DECAY   1000003     7.35473518E+01   # sstrange_L decays
#          BR         NDA      ID1       ID2
     2.72153494E-03    2     1000022         3   # BR(~s_L -> ~chi_10 s)
     5.36459843E-04    2     1000023         3   # BR(~s_L -> ~chi_20 s)
     1.23107893E-11    2     1000025         3   # BR(~s_L -> ~chi_30 s)
     1.08613789E-03    2    -1000024         4   # BR(~s_L -> ~chi_1- c)
     9.95655867E-01    2     1000021         3   # BR(~s_L -> ~g      s)
#
#         PDG            Width
DECAY   2000003     7.39973518E+01   # sstrange_R decays
#          BR         NDA      ID1       ID2
     1.05920061E-02    2     1000022         3   # BR(~s_R -> ~chi_10 s)
     9.46706196E-08    2     1000023         3   # BR(~s_R -> ~chi_20 s)
     9.89407899E-01    2     1000021         3   # BR(~s_R -> ~g      s)
#
#         PDG            Width
DECAY   1000011     1.75019704E+00   # selectron_L decays
#          BR         NDA      ID1       ID2
     9.73384981E-01    2     1000022        11   # BR(~e_L -> ~chi_10 e-)
     9.07627469E-03    2     1000023        11   # BR(~e_L -> ~chi_20 e-)
     4.70088715E-14    2     1000025        11   # BR(~e_L -> ~chi_30 e-)
     1.75387442E-02    2    -1000024        12   # BR(~e_L -> ~chi_1- nu_e)
#
#         PDG            Width
DECAY   2000011     6.86291645E+00   # selectron_R decays
#          BR         NDA      ID1       ID2
     9.99996481E-01    2     1000022        11   # BR(~e_R -> ~chi_10 e-)
     3.51907558E-06    2     1000023        11   # BR(~e_R -> ~chi_20 e-)
     1.67095304E-14    2     1000025        11   # BR(~e_R -> ~chi_30 e-)
#
#         PDG            Width
DECAY   1000013     1.75019704E+00   # smuon_L decays
#          BR         NDA      ID1       ID2
     9.73384981E-01    2     1000022        13   # BR(~mu_L -> ~chi_10 mu-)
     9.07627469E-03    2     1000023        13   # BR(~mu_L -> ~chi_20 mu-)
     4.70088715E-14    2     1000025        13   # BR(~mu_L -> ~chi_30 mu-)
     1.75387442E-02    2    -1000024        14   # BR(~mu_L -> ~chi_1- nu_mu)
#
#         PDG            Width
DECAY   2000013     6.86291645E+00   # smuon_R decays
#          BR         NDA      ID1       ID2
     9.99996481E-01    2     1000022        13   # BR(~mu_R -> ~chi_10 mu-)
     3.51907558E-06    2     1000023        13   # BR(~mu_R -> ~chi_20 mu-)
     1.67095304E-14    2     1000025        13   # BR(~mu_R -> ~chi_30 mu-)
#
#         PDG            Width
DECAY   1000015     4.31798416E+00   # stau_1 decays
#          BR         NDA      ID1       ID2
     9.94504746E-01    2     1000022        15   # BR(~tau_1 -> ~chi_10  tau-)
     1.87180973E-03    2     1000023        15   # BR(~tau_1 -> ~chi_20  tau-)
     3.62344424E-03    2    -1000024        16   # BR(~tau_1 -> ~chi_1-  nu_tau)
     6.46608135E-11    2     1000039        15   # BR(~tau_1 -> ~G       tau-)
#
#         PDG            Width
DECAY   2000015     4.29506628E+00   # stau_2 decays
#          BR         NDA      ID1       ID2
     9.94685037E-01    2     1000022        15   # BR(~tau_2 -> ~chi_10  tau-)
     1.81677397E-03    2     1000023        15   # BR(~tau_2 -> ~chi_20  tau-)
     3.49818934E-03    2    -1000024        16   # BR(~tau_2 -> ~chi_1-  nu_tau)
#
#         PDG            Width
DECAY   1000012     1.77246364E+00   # snu_eL decays
#          BR         NDA      ID1       ID2
     9.74484424E-01    2     1000022        12   # BR(~nu_eL -> ~chi_10 nu_e)
     8.19278644E-03    2     1000023        12   # BR(~nu_eL -> ~chi_20 nu_e)
     1.73227899E-02    2     1000024        11   # BR(~nu_eL -> ~chi_1+ e-)
#
#         PDG            Width
DECAY   1000014     1.77246364E+00   # snu_muL decays
#          BR         NDA      ID1       ID2
     9.74484424E-01    2     1000022        14   # BR(~nu_muL -> ~chi_10 nu_mu)
     8.19278644E-03    2     1000023        14   # BR(~nu_muL -> ~chi_20 nu_mu)
     1.73227899E-02    2     1000024        13   # BR(~nu_muL -> ~chi_1+ mu-)
#
#         PDG            Width
DECAY   1000016     1.77244068E+00   # snu_tauL decays
#          BR         NDA      ID1       ID2
     9.74497045E-01    2     1000022        16   # BR(~nu_tauL -> ~chi_10 nu_tau)
     8.19289256E-03    2     1000023        16   # BR(~nu_tauL -> ~chi_20 nu_tau)
     1.73100622E-02    2     1000024        15   # BR(~nu_tauL -> ~chi_1+ tau-)
#
#         PDG            Width
DECAY   1000024     1.54862930E+00   # chargino1+ decays
#          BR         NDA      ID1       ID2
     1.00000000E+00    2     1000022        24   # BR(~chi_1+ -> ~chi_10  W+)
     1.18404558E-10    2     1000039        24   # BR(~chi_1+ -> ~G       W+)
     3.15383279E-12    2     1000039        37   # BR(~chi_1+ -> ~G       H+)
#
#         PDG            Width
DECAY   1000037     4.38747062E+00   # chargino2+ decays
#          BR         NDA      ID1       ID2
     2.70799153E-02    2     1000002        -1   # BR(~chi_2+ -> ~u_L     db)
     2.71709615E-02    2    -1000001         2   # BR(~chi_2+ -> ~d_L*    u )
     2.70799153E-02    2     1000004        -3   # BR(~chi_2+ -> ~c_L     sb)
     2.71709615E-02    2    -1000003         4   # BR(~chi_2+ -> ~s_L*    c )
     4.42910305E-03    2     1000006        -5   # BR(~chi_2+ -> ~t_1     bb)
     4.47562669E-03    2     2000006        -5   # BR(~chi_2+ -> ~t_2     bb)
     3.43022288E-03    2     1000012       -11   # BR(~chi_2+ -> ~nu_eL   e+  )
     3.43022288E-03    2     1000014       -13   # BR(~chi_2+ -> ~nu_muL  mu+ )
     3.42763769E-03    2     1000016       -15   # BR(~chi_2+ -> ~nu_tau1 tau+)
     3.43072433E-03    2    -1000011        12   # BR(~chi_2+ -> ~e_L+    nu_e)
     3.43072433E-03    2    -1000013        14   # BR(~chi_2+ -> ~mu_L+   nu_mu)
     1.66779676E-03    2    -1000015        16   # BR(~chi_2+ -> ~tau_1+  nu_tau)
     1.76001799E-03    2    -2000015        16   # BR(~chi_2+ -> ~tau_2+  nu_tau)
     2.61592677E-01    2     1000024        23   # BR(~chi_2+ -> ~chi_1+  Z )
     2.97633056E-01    2     1000022        24   # BR(~chi_2+ -> ~chi_10  W+)
     3.02787698E-01    2     1000023        24   # BR(~chi_2+ -> ~chi_20  W+)
     2.73896984E-06    2     1000024        25   # BR(~chi_2+ -> ~chi_1+  h )
     5.42433815E-11    2     1000039        24   # BR(~chi_2+ -> ~G       W+)
     2.00579217E-12    2     1000039        37   # BR(~chi_2+ -> ~G       H+)
#
#         PDG            Width
DECAY   1000022     3.3E-16   # neutralino1 decays (OJ Mods)
#          BR         NDA      ID1       ID2
     7.59780304E-01    2     1000039        22   # BR(~chi_10 -> ~G        gam)
     2.40208794E-01    2     1000039        23   # BR(~chi_10 -> ~G        Z)
     1.09018585E-05    2     1000039        25   # BR(~chi_10 -> ~G        h)
#
#         PDG            Width
DECAY   1000023     1.E-08   # neutralino2 decays (OJ Mods)
#          BR         NDA      ID1       ID2
     2.67383795E-03    2     1000022        23   # BR(~chi_20 -> ~chi_10   Z )
     9.97326162E-01    2     1000022        25   # BR(~chi_20 -> ~chi_10   h )
     2.09891105E-11    2     1000039        22   # BR(~chi_20 -> ~G        gam)
     9.25115162E-11    2     1000039        23   # BR(~chi_20 -> ~G        Z)
     1.38356733E-12    2     1000039        25   # BR(~chi_20 -> ~G        h)
     2.88390910E-12    2     1000039        35   # BR(~chi_20 -> ~G        H)
     1.19752340E-13    2     1000039        36   # BR(~chi_20 -> ~G        A)
#
#         PDG            Width
DECAY   1000025     2.97112190E+00   # neutralino3 decays
#          BR         NDA      ID1       ID2
     9.96995724E-01    2     1000022        23   # BR(~chi_30 -> ~chi_10   Z )
     3.00427404E-03    2     1000022        25   # BR(~chi_30 -> ~chi_10   h )
     7.58656070E-10    2     1000002        -2   # BR(~chi_30 -> ~u_L      ub)
     7.58656070E-10    2    -1000002         2   # BR(~chi_30 -> ~u_L*     u )
     1.75063703E-10    2     2000002        -2   # BR(~chi_30 -> ~u_R      ub)
     1.75063703E-10    2    -2000002         2   # BR(~chi_30 -> ~u_R*     u )
     4.36135985E-12    2     2000001        -1   # BR(~chi_30 -> ~d_R      db)
     4.36135985E-12    2    -2000001         1   # BR(~chi_30 -> ~d_R*     d )
     7.58656070E-10    2     1000004        -4   # BR(~chi_30 -> ~c_L      cb)
     7.58656070E-10    2    -1000004         4   # BR(~chi_30 -> ~c_L*     c )
     1.75063703E-10    2     2000004        -4   # BR(~chi_30 -> ~c_R      cb)
     1.75063703E-10    2    -2000004         4   # BR(~chi_30 -> ~c_R*     c )
     4.36135985E-12    2     2000003        -3   # BR(~chi_30 -> ~s_R      sb)
     4.36135985E-12    2    -2000003         3   # BR(~chi_30 -> ~s_R*     s )
     1.20408772E-12    2     1000012       -12   # BR(~chi_30 -> ~nu_eL    nu_eb)
     1.20408772E-12    2    -1000012        12   # BR(~chi_30 -> ~nu_eL*   nu_e )
     1.20408772E-12    2     1000014       -14   # BR(~chi_30 -> ~nu_muL   nu_mub)
     1.20408772E-12    2    -1000014        14   # BR(~chi_30 -> ~nu_muL*  nu_mu )
     1.20408772E-12    2     1000016       -16   # BR(~chi_30 -> ~nu_tau1  nu_taub)
     1.20408772E-12    2    -1000016        16   # BR(~chi_30 -> ~nu_tau1* nu_tau )
     1.16216919E-17    2     1000039        22   # BR(~chi_30 -> ~G        gam)
     1.80605472E-12    2     1000039        23   # BR(~chi_30 -> ~G        Z)
     4.49947728E-11    2     1000039        25   # BR(~chi_30 -> ~G        h)
     1.67157935E-13    2     1000039        35   # BR(~chi_30 -> ~G        H)
     4.31319970E-12    2     1000039        36   # BR(~chi_30 -> ~G        A)
#
#         PDG            Width
DECAY   1000035     4.62260531E+00   # neutralino4 decays
#          BR         NDA      ID1       ID2
     1.05797262E-03    2     1000022        23   # BR(~chi_40 -> ~chi_10   Z )
     1.75609856E-10    2     1000023        23   # BR(~chi_40 -> ~chi_20   Z )
     2.82247512E-01    2     1000024       -24   # BR(~chi_40 -> ~chi_1+   W-)
     2.82247512E-01    2    -1000024        24   # BR(~chi_40 -> ~chi_1-   W+)
     2.97219683E-01    2     1000022        25   # BR(~chi_40 -> ~chi_10   h )
     2.36603103E-05    2     1000023        25   # BR(~chi_40 -> ~chi_20   h )
     2.07119009E-02    2     1000002        -2   # BR(~chi_40 -> ~u_L      ub)
     2.07119009E-02    2    -1000002         2   # BR(~chi_40 -> ~u_L*     u )
     1.20456581E-05    2     2000002        -2   # BR(~chi_40 -> ~u_R      ub)
     1.20456581E-05    2    -2000002         2   # BR(~chi_40 -> ~u_R*     u )
     2.10835133E-02    2     1000001        -1   # BR(~chi_40 -> ~d_L      db)
     2.10835133E-02    2    -1000001         1   # BR(~chi_40 -> ~d_L*     d )
     3.00551437E-06    2     2000001        -1   # BR(~chi_40 -> ~d_R      db)
     3.00551437E-06    2    -2000001         1   # BR(~chi_40 -> ~d_R*     d )
     2.07119009E-02    2     1000004        -4   # BR(~chi_40 -> ~c_L      cb)
     2.07119009E-02    2    -1000004         4   # BR(~chi_40 -> ~c_L*     c )
     1.20456581E-05    2     2000004        -4   # BR(~chi_40 -> ~c_R      cb)
     1.20456581E-05    2    -2000004         4   # BR(~chi_40 -> ~c_R*     c )
     2.10835133E-02    2     1000003        -3   # BR(~chi_40 -> ~s_L      sb)
     2.10835133E-02    2    -1000003         3   # BR(~chi_40 -> ~s_L*     s )
     3.00551437E-06    2     2000003        -3   # BR(~chi_40 -> ~s_R      sb)
     3.00551437E-06    2    -2000003         3   # BR(~chi_40 -> ~s_R*     s )
     3.26551825E-03    2     1000005        -5   # BR(~chi_40 -> ~b_1      bb)
     3.26551825E-03    2    -1000005         5   # BR(~chi_40 -> ~b_1*     b )
     3.84835428E-03    2     2000005        -5   # BR(~chi_40 -> ~b_2      bb)
     3.84835428E-03    2    -2000005         5   # BR(~chi_40 -> ~b_2*     b )
     1.57403009E-03    2     1000011       -11   # BR(~chi_40 -> ~e_L-     e+)
     1.57403009E-03    2    -1000011        11   # BR(~chi_40 -> ~e_L+     e-)
     2.11398066E-06    2     2000011       -11   # BR(~chi_40 -> ~e_R-     e+)
     2.11398066E-06    2    -2000011        11   # BR(~chi_40 -> ~e_R+     e-)
     1.57403009E-03    2     1000013       -13   # BR(~chi_40 -> ~mu_L-    mu+)
     1.57403009E-03    2    -1000013        13   # BR(~chi_40 -> ~mu_L+    mu-)
     2.11398066E-06    2     2000013       -13   # BR(~chi_40 -> ~mu_R-    mu+)
     2.11398066E-06    2    -2000013        13   # BR(~chi_40 -> ~mu_R+    mu-)
     7.63749061E-04    2     1000015       -15   # BR(~chi_40 -> ~tau_1-   tau+)
     7.63749061E-04    2    -1000015        15   # BR(~chi_40 -> ~tau_1+   tau-)
     8.09757327E-04    2     2000015       -15   # BR(~chi_40 -> ~tau_2-   tau+)
     8.09757327E-04    2    -2000015        15   # BR(~chi_40 -> ~tau_2+   tau-)
     1.70871540E-03    2     1000012       -12   # BR(~chi_40 -> ~nu_eL    nu_eb)
     1.70871540E-03    2    -1000012        12   # BR(~chi_40 -> ~nu_eL*   nu_e )
     1.70871540E-03    2     1000014       -14   # BR(~chi_40 -> ~nu_muL   nu_mub)
     1.70871540E-03    2    -1000014        14   # BR(~chi_40 -> ~nu_muL*  nu_mu )
     1.70871540E-03    2     1000016       -16   # BR(~chi_40 -> ~nu_tau1  nu_taub)
     1.70871540E-03    2    -1000016        16   # BR(~chi_40 -> ~nu_tau1* nu_tau )
     7.28854623E-12    2     1000039        22   # BR(~chi_40 -> ~G        gam)
     4.34115545E-11    2     1000039        23   # BR(~chi_40 -> ~G        Z)
     6.67677418E-13    2     1000039        25   # BR(~chi_40 -> ~G        h)
     1.84038506E-12    2     1000039        35   # BR(~chi_40 -> ~G        H)
     7.25472945E-14    2     1000039        36   # BR(~chi_40 -> ~G        A)
#
#         PDG            Width
DECAY        25     4.10188966E-03   # h decays
#          BR         NDA      ID1       ID2
     6.19091855E-01    2           5        -5   # BR(h -> b       bb     )
     6.34384623E-02    2         -15        15   # BR(h -> tau+    tau-   )
     2.24548792E-04    2         -13        13   # BR(h -> mu+     mu-    )
     4.75845910E-04    2           3        -3   # BR(h -> s       sb     )
     2.05560019E-02    2           4        -4   # BR(h -> c       cb     )
     6.68771582E-02    2          21        21   # BR(h -> g       g      )
     2.29183752E-03    2          22        22   # BR(h -> gam     gam    )
     1.53119680E-03    2          22        23   # BR(h -> Z       gam    )
     1.99997102E-01    2          24       -24   # BR(h -> W+      W-     )
     2.55159917E-02    2          23        23   # BR(h -> Z       Z      )
#
#         PDG            Width
DECAY        35     3.75768877E+01   # H decays
#          BR         NDA      ID1       ID2
     1.45215038E-03    2           5        -5   # BR(H -> b       bb     )
     2.48031882E-04    2         -15        15   # BR(H -> tau+    tau-   )
     8.76885048E-07    2         -13        13   # BR(H -> mu+     mu-    )
     1.12271950E-06    2           3        -3   # BR(H -> s       sb     )
     1.01186497E-05    2           4        -4   # BR(H -> c       cb     )
     9.96300834E-01    2           6        -6   # BR(H -> t       tb     )
     7.94013282E-04    2          21        21   # BR(H -> g       g      )
     2.69530957E-06    2          22        22   # BR(H -> gam     gam    )
     1.15921963E-06    2          23        22   # BR(H -> Z       gam    )
     2.49016533E-04    2          24       -24   # BR(H -> W+      W-     )
     1.24168514E-04    2          23        23   # BR(H -> Z       Z      )
     8.15812184E-04    2          25        25   # BR(H -> h       h      )
     6.14024614E-24    2          36        36   # BR(H -> A       A      )
     2.24060637E-11    2          23        36   # BR(H -> Z       A      )
     4.90901849E-12    2          24       -37   # BR(H -> W+      H-     )
     4.90901849E-12    2         -24        37   # BR(H -> W-      H+     )
#
#         PDG            Width
DECAY        36     3.80421829E+01   # A decays
#          BR         NDA      ID1       ID2
     1.45330375E-03    2           5        -5   # BR(A -> b       bb     )
     2.45154610E-04    2         -15        15   # BR(A -> tau+    tau-   )
     8.66710107E-07    2         -13        13   # BR(A -> mu+     mu-    )
     1.14258966E-06    2           3        -3   # BR(A -> s       sb     )
     1.00127152E-05    2           4        -4   # BR(A -> c       cb     )
     9.97100114E-01    2           6        -6   # BR(A -> t       tb     )
     9.42404845E-04    2          21        21   # BR(A -> g       g      )
     3.11023202E-06    2          22        22   # BR(A -> gam     gam    )
     1.34993261E-06    2          23        22   # BR(A -> Z       gam    )
     2.42540872E-04    2          23        25   # BR(A -> Z       h      )
#
#         PDG            Width
DECAY        37     3.72543488E+01   # H+ decays
#          BR         NDA      ID1       ID2
     2.31455880E-06    2           4        -5   # BR(H+ -> c       bb     )
     2.50520292E-04    2         -15        16   # BR(H+ -> tau+    nu_tau )
     8.85679731E-07    2         -13        14   # BR(H+ -> mu+     nu_mu  )
     1.47127802E-08    2           2        -5   # BR(H+ -> u       bb     )
     5.48485185E-08    2           2        -3   # BR(H+ -> u       sb     )
     1.09287751E-05    2           4        -3   # BR(H+ -> c       sb     )
     9.99486721E-01    2           6        -5   # BR(H+ -> t       bb     )
     2.48559795E-04    2          24        25   # BR(H+ -> W+      h      )
     2.24987710E-13    2          24        36   # BR(H+ -> W+      A      )
