#
#                              ======================
#                              | THE SUSYHIT OUTPUT |
#                              ======================
#
#
#              ------------------------------------------------------
#              |     This is the output of the SUSY-HIT package     |
#              |  created by A.Djouadi, M.Muehlleitner and M.Spira. |
#              |  In case of problems with SUSY-HIT email to        |
#              |           margarete.muehlleitner@cern.ch           |
#              |           michael.spira@psi.ch                     |
#              |           abdelhak.djouadi@cern.ch                 |
#              ------------------------------------------------------
#
#              ------------------------------------------------------
#              |  SUSY Les Houches Accord - MSSM Spectrum + Decays  |
#              |              based on the decay programs           |
#              |                                                    |
#              |                     SDECAY 1.3b                    |
#              |                                                    |
#              |  Authors: M.Muhlleitner, A.Djouadi and Y.Mambrini  |
#              |  Ref.:    Comput.Phys.Commun.168(2005)46           |
#              |           [hep-ph/0311167]                         |
#              |                                                    |
#              |                     HDECAY 3.4                     |
#              |                                                    |
#              |  By: A.Djouadi,J.Kalinowski,M.Muhlleitner,M.Spira  |
#              |  Ref.:    Comput.Phys.Commun.108(1998)56           |
#              |           [hep-ph/9704448]                         |
#              |                                                    |
#              |                                                    |
#              |  If not stated otherwise all DRbar couplings and   |
#              |  soft SUSY breaking masses are given at the scale  |
#              |  Q=  0.91187600E+02
#              |                                                    |
#              ------------------------------------------------------
#
#
BLOCK DCINFO  # Decay Program information
     1   SDECAY/HDECAY # decay calculator
     2   1.3b  /3.4    # version number
#
BLOCK SPINFO  # Spectrum calculator information
     1   SuSpect     # RGE +Spectrum calculator            
     2   2.41         # version number                     
#
BLOCK MODSEL  # Model selection
     1     0   # #general MSSM low scale                           
#
BLOCK SMINPUTS  # Standard Model inputs
         1     1.27934000E+02   # alpha_em^-1(M_Z)^MSbar
         2     1.16639000E-05   # G_F [GeV^-2]
         3     1.17200000E-01   # alpha_S(M_Z)^MSbar
         4     9.11870000E+01   # M_Z pole mass
         5     4.25000000E+00   # mb(mb)^MSbar
         6     1.72500000E+02   # mt pole mass
         7     1.77700000E+00   # mtau pole mass
#
BLOCK MINPAR  # Input parameters - minimal models
#
BLOCK EXTPAR  # Input parameters - non-minimal models
         0     9.11876000E+01   # EWSB                
         1     9.00000000E+02   # M_1                 
         2     3.00000000E+03   # M_2                 
         3     1.00000000E+03   # M_3                 
        11     0.00000000E+00   # A_t                 
        12     0.00000000E+00   # A_b                 
        13     0.00000000E+00   # A_tau               
        14     0.00000000E+00   # A_u                 
        15     0.00000000E+00   # A_d                 
        16     0.00000000E+00   # A_e                 
        23     3.00000000E+03   # mu(EWSB)            
        25     1.50000000E+00   # tanbeta(in)         
        26     2.00000000E+03   # MA_pole             
        31     3.00000000E+03   # M_eL                
        32     3.00000000E+03   # M_muL               
        33     3.00000000E+03   # M_tauL              
        34     3.00000000E+03   # M_eR                
        35     3.00000000E+03   # M_muR               
        36     3.00000000E+03   # M_tauR              
        41     3.00000000E+03   # M_q1L               
        42     3.00000000E+03   # M_q2L               
        43     3.00000000E+03   # M_q3L               
        44     3.00000000E+03   # M_uR                
        45     3.00000000E+03   # M_cR                
        46     3.00000000E+03   # M_tR                
        47     3.00000000E+03   # M_dR                
        48     3.00000000E+03   # M_sR                
        49     3.00000000E+03   # M_bR                
#
BLOCK MASS  # Mass Spectrum
# PDG code           mass       particle
        24     8.05385277E+01   # W+
        25     1.25000000E+02   # h
        35     2.00380194E+03   # H
        36     2.00000000E+03   # A
        37     2.00144537E+03   # H+
         5     4.87877839E+00   # b-quark pole mass calculated from mb(mb)_Msbar
   1000001     3.00022257E+03   # ~d_L
   2000001     3.00004244E+03   # ~d_R
   1000002     2.99981986E+03   # ~u_L
   2000002     2.99991511E+03   # ~u_R
   1000003     3.00022257E+03   # ~s_L
   2000003     3.00004244E+03   # ~s_R
   1000004     2.99981986E+03   # ~c_L
   2000004     2.99991511E+03   # ~c_R
   1000005     2.99810426E+03   # ~b_1
   2000005     3.00216182E+03   # ~b_2
   1000006     2.95229915E+03   # ~t_1
   2000006     3.05439915E+03   # ~t_2
   1000011     3.00013769E+03   # ~e_L
   2000011     3.00012732E+03   # ~e_R
   1000012     2.99973496E+03   # ~nu_eL
   1000013     3.00013769E+03   # ~mu_L
   2000013     3.00012732E+03   # ~mu_R
   1000014     2.99973496E+03   # ~nu_muL
   1000015     2.99879763E+03   # ~tau_1
   2000015     3.00146785E+03   # ~tau_2
   1000016     2.99973496E+03   # ~nu_tauL
   1000021     1.00000000E+03   # ~g
   1000022     8.99109307E+02   # ~chi_10
   1000023     2.92276809E+03   # ~chi_20
   1000025    -3.00005987E+03   # ~chi_30
   1000035     3.07818248E+03   # ~chi_40
   1000024     2.92231767E+03   # ~chi_1+
   1000037     3.07776288E+03   # ~chi_2+
   1000039     1.00000000E-07   # ~gravitino
#
BLOCK NMIX  # Neutralino Mixing Matrix
  1  1     9.99780329E-01   # N_11
  1  2    -7.53824911E-04   # N_12
  1  3     1.63125083E-02   # N_13
  1  4    -1.31387638E-02   # N_14
  2  1     1.52230459E-02   # N_21
  2  2     7.09075155E-01   # N_22
  2  3    -4.99786396E-01   # N_23
  2  4     4.97186325E-01   # N_24
  3  1     2.24166300E-03   # N_31
  3  2    -2.59135799E-03   # N_32
  3  3    -7.07067348E-01   # N_33
  3  4    -7.07137911E-01   # N_34
  4  1     1.42312019E-02   # N_41
  4  2    -7.05127748E-01   # N_42
  4  3    -5.00003226E-01   # N_43
  4  4     5.02582438E-01   # N_44
#
BLOCK UMIX  # Chargino Mixing Matrix U
  1  1    -7.05272488E-01   # U_11
  1  2     7.08936329E-01   # U_12
  2  1     7.08936329E-01   # U_21
  2  2     7.05272488E-01   # U_22
#
BLOCK VMIX  # Chargino Mixing Matrix V
  1  1    -7.08936329E-01   # V_11
  1  2     7.05272488E-01   # V_12
  2  1     7.05272488E-01   # V_21
  2  2     7.08936329E-01   # V_22
#
BLOCK STOPMIX  # Stop Mixing Matrix
  1  1     7.07436185E-01   # cos(theta_t)
  1  2     7.06777224E-01   # sin(theta_t)
  2  1    -7.06777224E-01   # -sin(theta_t)
  2  2     7.07436185E-01   # cos(theta_t)
#
BLOCK SBOTMIX  # Sbottom Mixing Matrix
  1  1     6.91232961E-01   # cos(theta_b)
  1  2     7.22631990E-01   # sin(theta_b)
  2  1    -7.22631990E-01   # -sin(theta_b)
  2  2     6.91232961E-01   # cos(theta_b)
#
BLOCK STAUMIX  # Stau Mixing Matrix
  1  1     7.05732517E-01   # cos(theta_tau)
  1  2     7.08478380E-01   # sin(theta_tau)
  2  1    -7.08478380E-01   # -sin(theta_tau)
  2  2     7.05732517E-01   # cos(theta_tau)
#
BLOCK ALPHA  # Higgs mixing
          -5.89900803E-01   # Mixing angle in the neutral Higgs boson sector
#
BLOCK HMIX Q=  9.11876000E+01  # DRbar Higgs Parameters
         1     3.00000000E+03   # mu(Q)               
         2     1.49999980E+00   # tanbeta(Q)          
         3     2.52446242E+02   # vev(Q)              
         4     2.84450280E+06   # MA^2(Q)             
#
BLOCK GAUGE Q=  9.11876000E+01  # The gauge couplings
     1     3.53088610E-01   # gprime(Q) DRbar
     2     6.27950063E-01   # g(Q) DRbar
     3     1.10016335E+00   # g3(Q) DRbar
#
BLOCK AU Q=  9.11876000E+01  # The trilinear couplings
  1  1     0.00000000E+00   # A_u(Q) DRbar
  2  2     0.00000000E+00   # A_c(Q) DRbar
  3  3     0.00000000E+00   # A_t(Q) DRbar
#
BLOCK AD Q=  9.11876000E+01  # The trilinear couplings
  1  1     0.00000000E+00   # A_d(Q) DRbar
  2  2     0.00000000E+00   # A_s(Q) DRbar
  3  3     0.00000000E+00   # A_b(Q) DRbar
#
BLOCK AE Q=  9.11876000E+01  # The trilinear couplings
  1  1     0.00000000E+00   # A_e(Q) DRbar
  2  2     0.00000000E+00   # A_mu(Q) DRbar
  3  3     0.00000000E+00   # A_tau(Q) DRbar
#
BLOCK Yu Q=  9.11876000E+01  # The Yukawa couplings
  1  1     0.00000000E+00   # y_u(Q) DRbar
  2  2     0.00000000E+00   # y_c(Q) DRbar
  3  3     1.03228003E+00   # y_t(Q) DRbar
#
BLOCK Yd Q=  9.11876000E+01  # The Yukawa couplings
  1  1     0.00000000E+00   # y_d(Q) DRbar
  2  2     0.00000000E+00   # y_s(Q) DRbar
  3  3     2.72930336E-02   # y_b(Q) DRbar
#
BLOCK Ye Q=  9.11876000E+01  # The Yukawa couplings
  1  1     0.00000000E+00   # y_e(Q) DRbar
  2  2     0.00000000E+00   # y_mu(Q) DRbar
  3  3     1.79787905E-02   # y_tau(Q) DRbar
#
BLOCK MSOFT Q=  9.11876000E+01  # The soft SUSY breaking masses at the scale Q
         1     9.00000000E+02   # M_1                 
         2     3.00000000E+03   # M_2                 
         3     1.00000000E+03   # M_3                 
        14     0.00000000E+00   # A_u                 
        15     0.00000000E+00   # A_d                 
        16     0.00000000E+00   # A_e                 
        21    -6.69793487E+06   # M^2_Hd              
        22    -9.08606782E+06   # M^2_Hu              
        31     3.00000000E+03   # M_eL                
        32     3.00000000E+03   # M_muL               
        33     3.00000000E+03   # M_tauL              
        34     3.00000000E+03   # M_eR                
        35     3.00000000E+03   # M_muR               
        36     3.00000000E+03   # M_tauR              
        41     3.00000000E+03   # M_q1L               
        42     3.00000000E+03   # M_q2L               
        43     3.00000000E+03   # M_q3L               
        44     3.00000000E+03   # M_uR                
        45     3.00000000E+03   # M_cR                
        46     3.00000000E+03   # M_tR                
        47     3.00000000E+03   # M_dR                
        48     3.00000000E+03   # M_sR                
        49     3.00000000E+03   # M_bR                
#
#
#
#                             =================
#                             |The decay table|
#                             =================
#
# - The QCD corrections to the decays gluino -> squark  + quark
#                                     squark -> gaugino + quark_prime
#                                     squark -> squark_prime + Higgs
#                                     squark -> gluino  + quark
#   are included.
#
# - The multi-body decays for the inos, stops and sbottoms are included.
#
# - The loop induced decays for the gluino, neutralinos and stops
#   are included.
#
# - The SUSY decays of the top quark are included.
#
# - Possible decays of the NLSP in GMSB models are included.
#
#
#         PDG            Width
DECAY         6     1.36287234E+00   # top decays
#          BR         NDA      ID1       ID2
     1.00000000E+00    2           5        24   # BR(t ->  b    W+)
#
#         PDG            Width
DECAY   1000021     1.E-04   # gluino decays (OJ Mods)
#          BR         NDA      ID1       ID2
     8.22238278E-03    2     1000022        21   # BR(~g -> ~chi_10 g)
#          BR         NDA      ID1       ID2
     1.00461629E-02    2     1000039        21   # BR(~g -> ~G      g)
#           BR         NDA      ID1       ID2       ID3
     1.00534217E-01    3     1000022         1        -1   # BR(~g -> ~chi_10 d  db)
     3.41190423E-01    3     1000022         2        -2   # BR(~g -> ~chi_10 u  ub)
     1.00534217E-01    3     1000022         3        -3   # BR(~g -> ~chi_10 s  sb)
     3.41190423E-01    3     1000022         4        -4   # BR(~g -> ~chi_10 c  cb)
     9.82821734E-02    3     1000022         5        -5   # BR(~g -> ~chi_10 b  bb)
#
#         PDG            Width
DECAY   1000006     1.39384450E+02   # stop1 decays
#          BR         NDA      ID1       ID2
     2.08848615E-02    2     1000022         6   # BR(~t_1 -> ~chi_10 t )
     1.13929083E-04    2     1000024         5   # BR(~t_1 -> ~chi_1+ b )
     9.79001209E-01    2     1000021         6   # BR(~t_1 -> ~g      t )
#
#         PDG            Width
DECAY   2000006     1.36124630E+02   # stop2 decays
#          BR         NDA      ID1       ID2
     1.96682239E-02    2     1000022         6   # BR(~t_2 -> ~chi_10 t )
     5.68732405E-05    2     1000024         5   # BR(~t_2 -> ~chi_1+ b )
     9.79827034E-01    2     1000021         6   # BR(~t_2 -> ~g      t )
     4.47869163E-04    2     1000006        23   # BR(~t_2 -> ~t_1    Z )
#
#         PDG            Width
DECAY   1000005     1.36010298E+02   # sbottom1 decays
#          BR         NDA      ID1       ID2
     6.30529708E-03    2     1000022         5   # BR(~b_1 -> ~chi_10 b )
     5.80204187E-05    2     1000023         5   # BR(~b_1 -> ~chi_20 b )
     9.93636682E-01    2     1000021         5   # BR(~b_1 -> ~g      b )
#
#         PDG            Width
DECAY   2000005     1.36006971E+02   # sbottom2 decays
#          BR         NDA      ID1       ID2
     5.85884100E-03    2     1000022         5   # BR(~b_2 -> ~chi_10 b )
     6.10943541E-05    2     1000023         5   # BR(~b_2 -> ~chi_20 b )
     9.94080065E-01    2     1000021         5   # BR(~b_2 -> ~g      b )
#
#         PDG            Width
DECAY   1000002     1.35609955E+02   # sup_L decays
#          BR         NDA      ID1       ID2
     2.46971001E-03    2     1000022         2   # BR(~u_L -> ~chi_10 u)
     2.98436365E-04    2     1000023         2   # BR(~u_L -> ~chi_20 u)
     5.96546008E-04    2     1000024         1   # BR(~u_L -> ~chi_1+ d)
     9.96635308E-01    2     1000021         2   # BR(~u_L -> ~g      u)
#
#         PDG            Width
DECAY   2000002     1.40562403E+02   # sup_R decays
#          BR         NDA      ID1       ID2
     3.84333618E-02    2     1000022         2   # BR(~u_R -> ~chi_10 u)
     7.41172253E-08    2     1000023         2   # BR(~u_R -> ~chi_20 u)
     9.61566564E-01    2     1000021         2   # BR(~u_R -> ~g      u)
#
#         PDG            Width
DECAY   1000001     1.35642025E+02   # sdown_L decays
#          BR         NDA      ID1       ID2
     2.50963870E-03    2     1000022         1   # BR(~d_L -> ~chi_10 d)
     2.95663031E-04    2     1000023         1   # BR(~d_L -> ~chi_20 d)
     6.98726086E-12    2     1000025         1   # BR(~d_L -> ~chi_30 d)
     5.94379203E-04    2    -1000024         2   # BR(~d_L -> ~chi_1- u)
     9.96600319E-01    2     1000021         1   # BR(~d_L -> ~g      d)
#
#         PDG            Width
DECAY   2000001     1.36519365E+02   # sdown_R decays
#          BR         NDA      ID1       ID2
     9.89346585E-03    2     1000022         1   # BR(~d_R -> ~chi_10 d)
     1.91203207E-08    2     1000023         1   # BR(~d_R -> ~chi_20 d)
     9.90106515E-01    2     1000021         1   # BR(~d_R -> ~g      d)
#
#         PDG            Width
DECAY   1000004     1.35609955E+02   # scharm_L decays
#          BR         NDA      ID1       ID2
     2.46971001E-03    2     1000022         4   # BR(~c_L -> ~chi_10 c)
     2.98436365E-04    2     1000023         4   # BR(~c_L -> ~chi_20 c)
     5.96546008E-04    2     1000024         3   # BR(~c_L -> ~chi_1+ s)
     9.96635308E-01    2     1000021         4   # BR(~c_L -> ~g      c)
#
#         PDG            Width
DECAY   2000004     1.40562403E+02   # scharm_R decays
#          BR         NDA      ID1       ID2
     3.84333618E-02    2     1000022         4   # BR(~c_R -> ~chi_10 c)
     7.41172253E-08    2     1000023         4   # BR(~c_R -> ~chi_20 c)
     9.61566564E-01    2     1000021         4   # BR(~c_R -> ~g      c)
#
#         PDG            Width
DECAY   1000003     1.35642025E+02   # sstrange_L decays
#          BR         NDA      ID1       ID2
     2.50963870E-03    2     1000022         3   # BR(~s_L -> ~chi_10 s)
     2.95663031E-04    2     1000023         3   # BR(~s_L -> ~chi_20 s)
     6.98726086E-12    2     1000025         3   # BR(~s_L -> ~chi_30 s)
     5.94379203E-04    2    -1000024         4   # BR(~s_L -> ~chi_1- c)
     9.96600319E-01    2     1000021         3   # BR(~s_L -> ~g      s)
#
#         PDG            Width
DECAY   2000003     1.36519365E+02   # sstrange_R decays
#          BR         NDA      ID1       ID2
     9.89346585E-03    2     1000022         3   # BR(~s_R -> ~chi_10 s)
     1.91203207E-08    2     1000023         3   # BR(~s_R -> ~chi_20 s)
     9.90106515E-01    2     1000021         3   # BR(~s_R -> ~g      s)
#
#         PDG            Width
DECAY   1000011     3.11905250E+00   # selectron_L decays
#          BR         NDA      ID1       ID2
     9.85122697E-01    2     1000022        11   # BR(~e_L -> ~chi_10 e-)
     5.03641557E-03    2     1000023        11   # BR(~e_L -> ~chi_20 e-)
     1.79848776E-14    2     1000025        11   # BR(~e_L -> ~chi_30 e-)
     9.84088756E-03    2    -1000024        12   # BR(~e_L -> ~chi_1- nu_e)
#
#         PDG            Width
DECAY   2000011     1.23235753E+01   # selectron_R decays
#          BR         NDA      ID1       ID2
     9.99999275E-01    2     1000022        11   # BR(~e_R -> ~chi_10 e-)
     7.25215860E-07    2     1000023        11   # BR(~e_R -> ~chi_20 e-)
     1.22689086E-14    2     1000025        11   # BR(~e_R -> ~chi_30 e-)
#
#         PDG            Width
DECAY   1000013     3.11905250E+00   # smuon_L decays
#          BR         NDA      ID1       ID2
     9.85122697E-01    2     1000022        13   # BR(~mu_L -> ~chi_10 mu-)
     5.03641557E-03    2     1000023        13   # BR(~mu_L -> ~chi_20 mu-)
     1.79848776E-14    2     1000025        13   # BR(~mu_L -> ~chi_30 mu-)
     9.84088756E-03    2    -1000024        14   # BR(~mu_L -> ~chi_1- nu_mu)
#
#         PDG            Width
DECAY   2000013     1.23235753E+01   # smuon_R decays
#          BR         NDA      ID1       ID2
     9.99999275E-01    2     1000022        13   # BR(~mu_R -> ~chi_10 mu-)
     7.25215860E-07    2     1000023        13   # BR(~mu_R -> ~chi_20 mu-)
     1.22689086E-14    2     1000025        13   # BR(~mu_R -> ~chi_30 mu-)
#
#         PDG            Width
DECAY   1000015     7.74094950E+00   # stau_1 decays
#          BR         NDA      ID1       ID2
     9.96946432E-01    2     1000022        15   # BR(~tau_1 -> ~chi_10  tau-)
     1.03249887E-03    2     1000023        15   # BR(~tau_1 -> ~chi_20  tau-)
     2.02106558E-03    2    -1000024        16   # BR(~tau_1 -> ~chi_1-  nu_tau)
     3.60684905E-09    2     1000039        15   # BR(~tau_1 -> ~G       tau-)
#
#         PDG            Width
DECAY   2000015     7.70162016E+00   # stau_2 decays
#          BR         NDA      ID1       ID2
     9.97049284E-01    2     1000022        15   # BR(~tau_2 -> ~chi_10  tau-)
     9.99964272E-04    2     1000023        15   # BR(~tau_2 -> ~chi_20  tau-)
     1.95075182E-03    2    -1000024        16   # BR(~tau_2 -> ~chi_1-  nu_tau)
#
#         PDG            Width
DECAY   1000012     3.13411503E+00   # snu_eL decays
#          BR         NDA      ID1       ID2
     9.85476337E-01    2     1000022        12   # BR(~nu_eL -> ~chi_10 nu_e)
     4.72759669E-03    2     1000023        12   # BR(~nu_eL -> ~chi_20 nu_e)
     9.79606581E-03    2     1000024        11   # BR(~nu_eL -> ~chi_1+ e-)
#
#         PDG            Width
DECAY   1000014     3.13411503E+00   # snu_muL decays
#          BR         NDA      ID1       ID2
     9.85476337E-01    2     1000022        14   # BR(~nu_muL -> ~chi_10 nu_mu)
     4.72759669E-03    2     1000023        14   # BR(~nu_muL -> ~chi_20 nu_mu)
     9.79606581E-03    2     1000024        13   # BR(~nu_muL -> ~chi_1+ mu-)
#
#         PDG            Width
DECAY   1000016     3.13409208E+00   # snu_tauL decays
#          BR         NDA      ID1       ID2
     9.85483556E-01    2     1000022        16   # BR(~nu_tauL -> ~chi_10 nu_tau)
     4.72763132E-03    2     1000023        16   # BR(~nu_tauL -> ~chi_20 nu_tau)
     9.78881273E-03    2     1000024        15   # BR(~nu_tauL -> ~chi_1+ tau-)
#
#         PDG            Width
DECAY   1000024     1.41606163E+00   # chargino1+ decays
#          BR         NDA      ID1       ID2
     9.95306252E-01    2     1000022        24   # BR(~chi_1+ -> ~chi_10  W+)
     4.69373435E-03    2     1000022        37   # BR(~chi_1+ -> ~chi_10  H+)
     1.29489814E-08    2     1000039        24   # BR(~chi_1+ -> ~G       W+)
     3.44915590E-10    2     1000039        37   # BR(~chi_1+ -> ~G       H+)
#
#         PDG            Width
DECAY   1000037     4.38736399E+00   # chargino2+ decays
#          BR         NDA      ID1       ID2
     2.73351506E-02    2     1000002        -1   # BR(~chi_2+ -> ~u_L     db)
     2.74277860E-02    2    -1000001         2   # BR(~chi_2+ -> ~d_L*    u )
     2.73351506E-02    2     1000004        -3   # BR(~chi_2+ -> ~c_L     sb)
     2.74277860E-02    2    -1000003         4   # BR(~chi_2+ -> ~s_L*    c )
     4.64527353E-03    2     1000006        -5   # BR(~chi_2+ -> ~t_1     bb)
     4.49376248E-03    2     2000006        -5   # BR(~chi_2+ -> ~t_2     bb)
     3.43008432E-03    2     1000012       -11   # BR(~chi_2+ -> ~nu_eL   e+  )
     3.43008432E-03    2     1000014       -13   # BR(~chi_2+ -> ~nu_muL  mu+ )
     3.42749908E-03    2     1000016       -15   # BR(~chi_2+ -> ~nu_tau1 tau+)
     3.43058531E-03    2    -1000011        12   # BR(~chi_2+ -> ~e_L+    nu_e)
     3.43058531E-03    2    -1000013        14   # BR(~chi_2+ -> ~mu_L+   nu_mu)
     1.66772865E-03    2    -1000015        16   # BR(~chi_2+ -> ~tau_1+  nu_tau)
     1.75994707E-03    2    -2000015        16   # BR(~chi_2+ -> ~tau_2+  nu_tau)
     2.61561705E-01    2     1000024        23   # BR(~chi_2+ -> ~chi_1+  Z )
     2.89951698E-01    2     1000022        24   # BR(~chi_2+ -> ~chi_10  W+)
     3.01731727E-01    2     1000023        24   # BR(~chi_2+ -> ~chi_20  W+)
     2.73813475E-06    2     1000024        25   # BR(~chi_2+ -> ~chi_1+  h )
     7.51070301E-03    2     1000022        37   # BR(~chi_2+ -> ~chi_10  H+)
     5.42444956E-09    2     1000039        24   # BR(~chi_2+ -> ~G       W+)
     2.00584155E-10    2     1000039        37   # BR(~chi_2+ -> ~G       H+)
#
#         PDG            Width
DECAY   1000022     6.6E-18   # neutralino1 decays (OJ Mods)
#          BR         NDA      ID1       ID2
     7.66468386E-01    2     1000039        22   # BR(~chi_10 -> ~G        gam)
     2.33530026E-01    2     1000039        23   # BR(~chi_10 -> ~G        Z)
     1.58829672E-06    2     1000039        25   # BR(~chi_10 -> ~G        h)
#
#         PDG            Width
DECAY   1000023     1.E-08   # neutralino2 decays (OJ Mods)
#          BR         NDA      ID1       ID2
     1.03789920E-02    2     1000022        23   # BR(~chi_20 -> ~chi_10   Z )
     9.85208413E-01    2     1000022        25   # BR(~chi_20 -> ~chi_10   h )
     3.57184154E-03    2     1000022        35   # BR(~chi_20 -> ~chi_10   H )
     8.40740308E-04    2     1000022        36   # BR(~chi_20 -> ~chi_10   A )
     2.19208294E-09    2     1000039        22   # BR(~chi_20 -> ~G        gam)
     1.02575010E-08    2     1000039        23   # BR(~chi_20 -> ~G        Z)
     1.52641646E-10    2     1000039        25   # BR(~chi_20 -> ~G        h)
     3.17974030E-10    2     1000039        35   # BR(~chi_20 -> ~G        H)
     1.32056235E-11    2     1000039        36   # BR(~chi_20 -> ~G        A)
#
#         PDG            Width
DECAY   1000025     2.80674279E+00   # neutralino3 decays
#          BR         NDA      ID1       ID2
     9.74614852E-01    2     1000022        23   # BR(~chi_30 -> ~chi_10   Z )
     1.11447792E-02    2     1000022        25   # BR(~chi_30 -> ~chi_10   h )
     6.64552057E-03    2     1000022        35   # BR(~chi_30 -> ~chi_10   H )
     7.59484069E-03    2     1000022        36   # BR(~chi_30 -> ~chi_10   A )
     7.76538657E-10    2     1000002        -2   # BR(~chi_30 -> ~u_L      ub)
     7.76538657E-10    2    -1000002         2   # BR(~chi_30 -> ~u_L*     u )
     2.80493387E-10    2     2000002        -2   # BR(~chi_30 -> ~u_R      ub)
     2.80493387E-10    2    -2000002         2   # BR(~chi_30 -> ~u_R*     u )
     8.43796295E-12    2     2000001        -1   # BR(~chi_30 -> ~d_R      db)
     8.43796295E-12    2    -2000001         1   # BR(~chi_30 -> ~d_R*     d )
     7.76538657E-10    2     1000004        -4   # BR(~chi_30 -> ~c_L      cb)
     7.76538657E-10    2    -1000004         4   # BR(~chi_30 -> ~c_L*     c )
     2.80493387E-10    2     2000004        -4   # BR(~chi_30 -> ~c_R      cb)
     2.80493387E-10    2    -2000004         4   # BR(~chi_30 -> ~c_R*     c )
     8.43796295E-12    2     2000003        -3   # BR(~chi_30 -> ~s_R      sb)
     8.43796295E-12    2    -2000003         3   # BR(~chi_30 -> ~s_R*     s )
     1.45901031E-12    2     1000012       -12   # BR(~chi_30 -> ~nu_eL    nu_eb)
     1.45901031E-12    2    -1000012        12   # BR(~chi_30 -> ~nu_eL*   nu_e )
     1.45901031E-12    2     1000014       -14   # BR(~chi_30 -> ~nu_muL   nu_mub)
     1.45901031E-12    2    -1000014        14   # BR(~chi_30 -> ~nu_muL*  nu_mu )
     1.45901031E-12    2     1000016       -16   # BR(~chi_30 -> ~nu_tau1  nu_taub)
     1.45901031E-12    2    -1000016        16   # BR(~chi_30 -> ~nu_tau1* nu_tau )
     4.66219365E-15    2     1000039        22   # BR(~chi_30 -> ~G        gam)
     1.91200963E-10    2     1000039        23   # BR(~chi_30 -> ~G        Z)
     4.76302909E-09    2     1000039        25   # BR(~chi_30 -> ~G        h)
     1.76925476E-11    2     1000039        35   # BR(~chi_30 -> ~G        H)
     4.56585117E-10    2     1000039        36   # BR(~chi_30 -> ~G        A)
#
#         PDG            Width
DECAY   1000035     4.61528267E+00   # neutralino4 decays
#          BR         NDA      ID1       ID2
     3.62741598E-03    2     1000022        23   # BR(~chi_40 -> ~chi_10   Z )
     8.00641406E-10    2     1000023        23   # BR(~chi_40 -> ~chi_20   Z )
     2.83688785E-01    2     1000024       -24   # BR(~chi_40 -> ~chi_1+   W-)
     2.83688785E-01    2    -1000024        24   # BR(~chi_40 -> ~chi_1-   W+)
     2.83626324E-01    2     1000022        25   # BR(~chi_40 -> ~chi_10   h )
     2.62687869E-03    2     1000022        35   # BR(~chi_40 -> ~chi_10   H )
     4.59021795E-03    2     1000022        36   # BR(~chi_40 -> ~chi_10   A )
     8.76775803E-06    2     1000023        25   # BR(~chi_40 -> ~chi_20   h )
     2.10718583E-02    2     1000002        -2   # BR(~chi_40 -> ~u_L      ub)
     2.10718583E-02    2    -1000002         2   # BR(~chi_40 -> ~u_L*     u )
     4.85401593E-06    2     2000002        -2   # BR(~chi_40 -> ~u_R      ub)
     4.85401593E-06    2    -2000002         2   # BR(~chi_40 -> ~u_R*     u )
     2.12608927E-02    2     1000001        -1   # BR(~chi_40 -> ~d_L      db)
     2.12608927E-02    2    -1000001         1   # BR(~chi_40 -> ~d_L*     d )
     1.21112850E-06    2     2000001        -1   # BR(~chi_40 -> ~d_R      db)
     1.21112850E-06    2    -2000001         1   # BR(~chi_40 -> ~d_R*     d )
     2.10718583E-02    2     1000004        -4   # BR(~chi_40 -> ~c_L      cb)
     2.10718583E-02    2    -1000004         4   # BR(~chi_40 -> ~c_L*     c )
     4.85401593E-06    2     2000004        -4   # BR(~chi_40 -> ~c_R      cb)
     4.85401593E-06    2    -2000004         4   # BR(~chi_40 -> ~c_R*     c )
     2.12608927E-02    2     1000003        -3   # BR(~chi_40 -> ~s_L      sb)
     2.12608927E-02    2    -1000003         3   # BR(~chi_40 -> ~s_L*     s )
     1.21112850E-06    2     2000003        -3   # BR(~chi_40 -> ~s_R      sb)
     1.21112850E-06    2    -2000003         3   # BR(~chi_40 -> ~s_R*     s )
     3.25825075E-03    2     1000005        -5   # BR(~chi_40 -> ~b_1      bb)
     3.25825075E-03    2    -1000005         5   # BR(~chi_40 -> ~b_1*     b )
     3.83014610E-03    2     2000005        -5   # BR(~chi_40 -> ~b_2      bb)
     3.83014610E-03    2    -2000005         5   # BR(~chi_40 -> ~b_2*     b )
     1.59336827E-03    2     1000011       -11   # BR(~chi_40 -> ~e_L-     e+)
     1.59336827E-03    2    -1000011        11   # BR(~chi_40 -> ~e_L+     e-)
     8.39978610E-07    2     2000011       -11   # BR(~chi_40 -> ~e_R-     e+)
     8.39978610E-07    2    -2000011        11   # BR(~chi_40 -> ~e_R+     e-)
     1.59336827E-03    2     1000013       -13   # BR(~chi_40 -> ~mu_L-    mu+)
     1.59336827E-03    2    -1000013        13   # BR(~chi_40 -> ~mu_L+    mu-)
     8.39978610E-07    2     2000013       -13   # BR(~chi_40 -> ~mu_R-    mu+)
     8.39978610E-07    2    -2000013        13   # BR(~chi_40 -> ~mu_R+    mu-)
     7.73182318E-04    2     1000015       -15   # BR(~chi_40 -> ~tau_1-   tau+)
     7.73182318E-04    2    -1000015        15   # BR(~chi_40 -> ~tau_1+   tau-)
     8.18393641E-04    2     2000015       -15   # BR(~chi_40 -> ~tau_2-   tau+)
     8.18393641E-04    2    -2000015        15   # BR(~chi_40 -> ~tau_2+   tau-)
     1.68439580E-03    2     1000012       -12   # BR(~chi_40 -> ~nu_eL    nu_eb)
     1.68439580E-03    2    -1000012        12   # BR(~chi_40 -> ~nu_eL*   nu_e )
     1.68439580E-03    2     1000014       -14   # BR(~chi_40 -> ~nu_muL   nu_mub)
     1.68439580E-03    2    -1000014        14   # BR(~chi_40 -> ~nu_muL*  nu_mu )
     1.68439580E-03    2     1000016       -16   # BR(~chi_40 -> ~nu_tau1  nu_taub)
     1.68439580E-03    2    -1000016        16   # BR(~chi_40 -> ~nu_tau1* nu_tau )
     7.65335099E-10    2     1000039        22   # BR(~chi_40 -> ~G        gam)
     4.31598371E-09    2     1000039        23   # BR(~chi_40 -> ~G        Z)
     6.66390729E-11    2     1000039        25   # BR(~chi_40 -> ~G        h)
     1.83614103E-10    2     1000039        35   # BR(~chi_40 -> ~G        H)
     7.23888558E-12    2     1000039        36   # BR(~chi_40 -> ~G        A)
#
#         PDG            Width
DECAY        25     4.09512964E-03   # h decays
#          BR         NDA      ID1       ID2
     6.18462979E-01    2           5        -5   # BR(h -> b       bb     )
     6.35444012E-02    2         -15        15   # BR(h -> tau+    tau-   )
     2.24923777E-04    2         -13        13   # BR(h -> mu+     mu-    )
     4.76640376E-04    2           3        -3   # BR(h -> s       sb     )
     2.05897578E-02    2           4        -4   # BR(h -> c       cb     )
     6.69868123E-02    2          21        21   # BR(h -> g       g      )
     2.29562658E-03    2          22        22   # BR(h -> gam     gam    )
     1.53372562E-03    2          22        23   # BR(h -> Z       gam    )
     2.00327022E-01    2          24       -24   # BR(h -> W+      W-     )
     2.55581115E-02    2          23        23   # BR(h -> Z       Z      )
#
#         PDG            Width
DECAY        35     3.75783392E+01   # H decays
#          BR         NDA      ID1       ID2
     1.46313507E-03    2           5        -5   # BR(H -> b       bb     )
     2.48021853E-04    2         -15        15   # BR(H -> tau+    tau-   )
     8.76849590E-07    2         -13        13   # BR(H -> mu+     mu-    )
     1.12267286E-06    2           3        -3   # BR(H -> s       sb     )
     1.01185119E-05    2           4        -4   # BR(H -> c       cb     )
     9.96287641E-01    2           6        -6   # BR(H -> t       tb     )
     7.93996482E-04    2          21        21   # BR(H -> g       g      )
     2.69528895E-06    2          22        22   # BR(H -> gam     gam    )
     1.15917575E-06    2          23        22   # BR(H -> Z       gam    )
     2.50703983E-04    2          24       -24   # BR(H -> W+      W-     )
     1.25009941E-04    2          23        23   # BR(H -> Z       Z      )
     8.15088739E-04    2          25        25   # BR(H -> h       h      )
     6.19821820E-24    2          36        36   # BR(H -> A       A      )
     2.28098973E-11    2          23        36   # BR(H -> Z       A      )
     5.08508059E-12    2          24       -37   # BR(H -> W+      H-     )
     5.08508059E-12    2         -24        37   # BR(H -> W-      H+     )
     4.30017697E-07    2     1000022   1000022   # BR(H -> ~chi_10 ~chi_10)
#
#         PDG            Width
DECAY        36     3.80435787E+01   # A decays
#          BR         NDA      ID1       ID2
     1.46419507E-03    2           5        -5   # BR(A -> b       bb     )
     2.45145616E-04    2         -15        15   # BR(A -> tau+    tau-   )
     8.66678309E-07    2         -13        13   # BR(A -> mu+     mu-    )
     1.14254774E-06    2           3        -3   # BR(A -> s       sb     )
     1.00123478E-05    2           4        -4   # BR(A -> c       cb     )
     9.97063532E-01    2           6        -6   # BR(A -> t       tb     )
     9.42370271E-04    2          21        21   # BR(A -> g       g      )
     3.11011699E-06    2          22        22   # BR(A -> gam     gam    )
     1.34988561E-06    2          23        22   # BR(A -> Z       gam    )
     2.44179914E-04    2          23        25   # BR(A -> Z       h      )
     2.40950696E-05    2     1000022   1000022   # BR(A -> ~chi_10 ~chi_10)
#
#         PDG            Width
DECAY        37     3.72549109E+01   # H+ decays
#          BR         NDA      ID1       ID2
     2.33811859E-06    2           4        -5   # BR(H+ -> c       bb     )
     2.50516139E-04    2         -15        16   # BR(H+ -> tau+    nu_tau )
     8.85665048E-07    2         -13        14   # BR(H+ -> mu+     nu_mu  )
     1.48635641E-08    2           2        -5   # BR(H+ -> u       bb     )
     5.48476203E-08    2           2        -3   # BR(H+ -> u       sb     )
     1.09285961E-05    2           4        -3   # BR(H+ -> c       sb     )
     9.99485018E-01    2           6        -5   # BR(H+ -> t       bb     )
     2.50243785E-04    2          24        25   # BR(H+ -> W+      h      )
     2.22679751E-13    2          24        36   # BR(H+ -> W+      A      )
