## ## ## ## ## ## ## ## ## ## ## ## ## ## ## ## ## ## ## ## ## ## ## ## ## ## ## ## ## ## ## ## ## ## ##
## PARAM_CARD AUTOMATICALY GENERATED BY MG5 FOLLOWING UFO MODEL   ## ##
## ## ## ## ## ## ## ## ## ## ## ## ## ## ## ## ## ## ## ## ## ## ## ## ## ## ## ## ## ## ## ## ## ## ##
##                                                                  ##
##  Width set on Auto will be computed following the information    ##
##        present in the decay.py files of the model. By default,   ##
##        this is only 1->2 decay modes.                            ##
##                                                                  ##
## ## ## ## ## ## ## ## ## ## ## ## ## ## ## ## ## ## ## ## ## ## ## ## ## ## ## ## ## ## ## ## ## ## ##

## ## ## ## ## ## ## ## ## ## ## ## ## ## ## ## ## #
## INFORMATION FOR CHINPUTS
## ## ## ## ## ## ## ## ## ## ## ## ## ## ## ## ## #
Block chinputs 
    1 1 # cpsi 
    2 1 # aa 
    3 1 # bb 
    4 1 # d3 
    5 1 # d4 

## ## ## ## ## ## ## ## ## ## ## ## ## ## ## ## ## #
## INFORMATION FOR CKMBLOCK
## ## ## ## ## ## ## ## ## ## ## ## ## ## ## ## ## #
Block ckmblock 
    1 2.275900e-01 # cabi 

## ## ## ## ## ## ## ## ## ## ## ## ## ## ## ## ## #
## INFORMATION FOR MASS
## ## ## ## ## ## ## ## ## ## ## ## ## ## ## ## ## #
Block mass 
    4 1.420000e+00 # MC
    5 4.7 # MB 
    6 172.9 # MT 
   15 1.777 # MTA 
   23 91.1876 # MZ 
   25 125.5 # MH
## Dependent parameters, given by model restrictions.
## Those values should be edited following the 
## analytical expression. MG5 ignores those values 
## but they are important for interfacing the output of MG5
## to external program such as Pythia.
  1 0.000000 # d : 0.0 
  2 0.000000 # u : 0.0 
  3 0.000000 # s : 0.0 
  11 0.000000 # e- : 0.0 
  12 0.000000 # ve : 0.0 
  13 0.000000 # mu- : 0.0 
  14 0.000000 # vm : 0.0 
  16 0.000000 # vt : 0.0 
  21 0.000000 # g : 0.0 
  22 0.000000 # a : 0.0 
  24 79.8272 # w+ : cmath.sqrt(16*mV__exp __ 2 + 16*MWt__exp __ 2 + 16*cvvhh*gst__exp __ 2*vv__exp __ 2 - cmath.sqrt((-16*mV__exp __ 2 - 16*MWt__exp __ 2 - 16*cvvhh*gst__exp __ 2*vv__exp __ 2)**2 - 64*(16*mV__exp __ 2*MWt__exp __ 2 + 16*cvvhh*gst__exp __ 2*MWt__exp __ 2*vv__exp __ 2 - ch__exp __ 2*gst__exp __ 2*gw__exp __ 2*vv__exp __ 4)))/(4.*sqrt__ 2) 
  9000002 5400. # vc+ : cmath.sqrt(16*mV__exp __ 2 + 16*MWt__exp __ 2 + 16*cvvhh*gst__exp __ 2*vv__exp __ 2 + cmath.sqrt((-16*mV__exp __ 2 - 16*MWt__exp __ 2 - 16*cvvhh*gst__exp __ 2*vv__exp __ 2)**2 - 64*(16*mV__exp __ 2*MWt__exp __ 2 + 16*cvvhh*gst__exp __ 2*MWt__exp __ 2*vv__exp __ 2 - ch__exp __ 2*gst__exp __ 2*gw__exp __ 2*vv__exp __ 4)))/(4.*sqrt__ 2) 
  9000001 5400 # vz : MVz 

## ## ## ## ## ## ## ## ## ## ## ## ## ## ## ## ## #
## INFORMATION FOR RHOINPUTS
## ## ## ## ## ## ## ## ## ## ## ## ## ## ## ## ## #
Block rhoinputs 
    1 1 # gst 
    2 5400 # MVz 
    3 1. # cvvw 
    4 -1.3159 # cq 
    5 -1.3159 # cl 
    6 -1.3159 # c3 
    7 -0.555969 # ch 
    8 0.0772754 # cvvhh 
    9 -0.203965 # cvvv 
   10 1 # cvvvv 

## ## ## ## ## ## ## ## ## ## ## ## ## ## ## ## ## #
## INFORMATION FOR SMINPUTS
## ## ## ## ## ## ## ## ## ## ## ## ## ## ## ## ## #
Block sminputs 
    1 1.279000e+02 # aEWM1 
    2 1.166370e-05 # Gf 
    3 1.180000e-01 # aS 

## ## ## ## ## ## ## ## ## ## ## ## ## ## ## ## ## #
## INFORMATION FOR YUKAWA
## ## ## ## ## ## ## ## ## ## ## ## ## ## ## ## ## #
Block yukawa 
    4 1.420000e+00 # ymc
    5 4.7 # ymb 
    6 172.9 # ymt 
   15 1.777 # ymtau 

## ## ## ## ## ## ## ## ## ## ## ## ## ## ## ## ## #
## INFORMATION FOR DECAY
## ## ## ## ## ## ## ## ## ## ## ## ## ## ## ## ## #
DECAY   6 1.508336e+00 # WT 
DECAY  23 2.441404e+00 # WZ 
DECAY  24 2.047600e+00 # WW 
DECAY  25 5.753088e-03 # WH 
## Dependent parameters, given by model restrictions.
## Those values should be edited following the 
## analytical expression. MG5 ignores those values 
## but they are important for interfacing the output of MG5
## to external program such as Pythia.
DECAY  1 0.000000 # d : 0.0 
DECAY  2 0.000000 # u : 0.0 
DECAY  3 0.000000 # s : 0.0 
DECAY  4 0.000000 # c : 0.0 
DECAY  5 0.000000 # b : 0.0 
DECAY  11 0.000000 # e- : 0.0 
DECAY  12 0.000000 # ve : 0.0 
DECAY  13 0.000000 # mu- : 0.0 
DECAY  14 0.000000 # vm : 0.0 
DECAY  15 0.000000 # ta- : 0.0 
DECAY  16 0.000000 # vt : 0.0 
DECAY  21 0.000000 # g : 0.0 
DECAY  22 0.000000 # a : 0.0 
DECAY  9000001 137.138 # vz : (MVz*(cwt__exp __ 2*ee*gst*sN + cl*cN*cwt*gw__exp __ 2*swt + ee*gst*sN*swt__exp __ 2)**2)/(32.*cwt__exp __ 2*cmath.pi*gst__exp __ 2*swt__exp __ 2) + (MVz*(cwt__exp __ 4*ee__exp __ 2*gst__exp __ 2*sN__exp __ 2 + 2*cl*cN*cwt__exp __ 3*ee*gst*gw__exp __ 2*sN*swt + cwt__exp __ 2*(cl__exp __ 2*cN__exp __ 2*gw__exp __ 4 - 2*ee__exp __ 2*gst__exp __ 2*sN__exp __ 2)*swt__exp __ 2 - 2*cl*cN*cwt*ee*gst*gw__exp __ 2*sN*swt__exp __ 3 + 5*ee__exp __ 2*gst__exp __ 2*sN__exp __ 2*swt__exp __ 4))/(32.*cwt__exp __ 2*cmath.pi*gst__exp __ 2*swt__exp __ 2) + (MVz*(9*cwt__exp __ 4*ee__exp __ 2*gst__exp __ 2*sN__exp __ 2 + 18*cN*cq*cwt__exp __ 3*ee*gst*gw__exp __ 2*sN*swt + 3*cwt__exp __ 2*(3*cN__exp __ 2*cq__exp __ 2*gw__exp __ 4 + 2*ee__exp __ 2*gst__exp __ 2*sN__exp __ 2)*swt__exp __ 2 + 6*cN*cq*cwt*ee*gst*gw__exp __ 2*sN*swt__exp __ 3 + 5*ee__exp __ 2*gst__exp __ 2*sN__exp __ 2*swt__exp __ 4))/(144.*cwt__exp __ 2*cmath.pi*gst__exp __ 2*swt__exp __ 2) + (MVz*(9*cwt__exp __ 4*ee__exp __ 2*gst__exp __ 2*sN__exp __ 2 + 18*cN*cq*cwt__exp __ 3*ee*gst*gw__exp __ 2*sN*swt + 3*cwt__exp __ 2*(3*cN__exp __ 2*cq__exp __ 2*gw__exp __ 4 - 2*ee__exp __ 2*gst__exp __ 2*sN__exp __ 2)*swt__exp __ 2 - 6*cN*cq*cwt*ee*gst*gw__exp __ 2*sN*swt__exp __ 3 + 17*ee__exp __ 2*gst__exp __ 2*sN__exp __ 2*swt__exp __ 4))/(144.*cwt__exp __ 2*cmath.pi*gst__exp __ 2*swt__exp __ 2) + ((9*cwt__exp __ 4*ee__exp __ 2*gst__exp __ 2*(-MB__exp__ 2 + MVz__exp __ 2)*sN__exp __ 2 - 18*c3*cN*cwt__exp __ 3*ee*gst*gw__exp __ 2*(MB__exp __ 2 - MVz__exp __ 2)*sN*swt + 3*cwt__exp __ 2*(3*c3__exp __ 2*cN__exp __ 2*gw__exp __ 4*(-MB__exp__ 2 + MVz__exp __ 2) + 2*ee__exp __ 2*gst__exp __ 2*(-7*MB__exp __ 2 + MVz__exp __ 2)*sN__exp __ 2)*swt__exp __ 2 + 6*c3*cN*cwt*ee*gst*gw__exp __ 2*(-7*MB__exp __ 2 + MVz__exp __ 2)*sN*swt__exp __ 3 + ee__exp __ 2*gst__exp __ 2*(-17*MB__exp __ 2 + 5*MVz__exp __ 2)*sN__exp __ 2*swt__exp __ 4)*cmath.sqrt(-4*MB__exp __ 2*MVz__exp __ 2 + MVz__exp __ 4))/(288.*cwt__exp __ 2*cmath.pi*gst__exp __ 2*MVz__exp __ 3*swt__exp __ 2) + ((9*cwt__exp __ 4*ee__exp __ 2*gst__exp __ 2*(-MT__exp__ 2 + MVz__exp __ 2)*sN__exp __ 2 - 18*c3*cN*cwt__exp __ 3*ee*gst*gw__exp __ 2*(MT__exp __ 2 - MVz__exp __ 2)*sN*swt - 3*cwt__exp __ 2*(3*c3__exp __ 2*cN__exp __ 2*gw__exp __ 4*(MT__exp __ 2 - MVz__exp __ 2) + 2*ee__exp __ 2*gst__exp __ 2*(11*MT__exp __ 2 + MVz__exp __ 2)*sN__exp __ 2)*swt__exp __ 2 - 6*c3*cN*cwt*ee*gst*gw__exp __ 2*(11*MT__exp __ 2 + MVz__exp __ 2)*sN*swt__exp __ 3 + ee__exp __ 2*gst__exp __ 2*(7*MT__exp __ 2 + 17*MVz__exp __ 2)*sN__exp __ 2*swt__exp __ 4)*cmath.sqrt(-4*MT__exp __ 2*MVz__exp __ 2 + MVz__exp __ 4))/(288.*cwt__exp __ 2*cmath.pi*gst__exp __ 2*MVz__exp __ 3*swt__exp __ 2) + ((MVz - 2*MW)*(MVz + 2*MW)*(-4*cC__exp __ 3*cN*cwt*gw__exp __ 2*(MVz__exp __ 4 + 5*(3 + cvvw)*MVz__exp __ 2*MW__exp __ 2 + 6*(1 + cvvw)*MW__exp __ 4)*sC*sN + cC__exp __ 4*cwt__exp __ 2*gw__exp __ 2*(MVz__exp __ 4 + 20*MVz__exp __ 2*MW__exp __ 2 + 12*MW__exp __ 4)*sN__exp __ 2 + 4*cC*cN*gw*sC__exp __ 3*(cN*cvvv*gst*(MVz__exp __ 4 + 5*(3 + cvvw)*MVz__exp __ 2*MW__exp __ 2 + 6*(1 + cvvw)*MW__exp __ 4) - cwt*gw*(8*MVz__exp __ 2*MW__exp __ 2 + 3*cvvw__exp __ 2*MVz__exp __ 2*MW__exp __ 2 + 6*MW__exp __ 4 + cvvw*(MVz__exp __ 4 + 9*MVz__exp __ 2*MW__exp __ 2 + 6*MW__exp __ 4))*sN) + 2*cC__exp __ 2*gw*sC__exp __ 2*(2*cN__exp __ 2*gw*(MVz__exp __ 4 + (11 + 8*cvvw + cvvw__exp __ 2)*MVz__exp __ 2*MW__exp __ 2 + 3*(1 + cvvw)**2*MW__exp __ 4) - cN*cvvv*cwt*gst*(MVz__exp __ 4 + 20*MVz__exp __ 2*MW__exp __ 2 + 12*MW__exp __ 4)*sN + cwt__exp __ 2*gw*(cvvw*MVz__exp __ 4 + 10*MVz__exp __ 2*MW__exp __ 2 + 10*cvvw*MVz__exp __ 2*MW__exp __ 2 + 12*MW__exp __ 4)*sN__exp __ 2) + sC__exp __ 4*(cN__exp __ 2*cvvv__exp __ 2*gst__exp __ 2*(MVz__exp __ 4 + 20*MVz__exp __ 2*MW__exp __ 2 + 12*MW__exp __ 4) - 2*cN*cvvv*cwt*gst*gw*(cvvw*MVz__exp __ 4 + 10*MVz__exp __ 2*MW__exp __ 2 + 10*cvvw*MVz__exp __ 2*MW__exp __ 2 + 12*MW__exp __ 4)*sN + cwt__exp __ 2*gw__exp __ 2*(12*cvvw*MVz__exp __ 2*MW__exp __ 2 + 4*MW__exp __ 2*(MVz__exp __ 2 + 3*MW__exp __ 2) + cvvw__exp __ 2*(MVz__exp __ 4 + 4*MVz__exp __ 2*MW__exp __ 2))*sN__exp __ 2))*cmath.sqrt(MVz__exp __ 4 - 4*MVz__exp __ 2*MW__exp __ 2))/(192.*cmath.pi*MVz__exp __ 3*MW__exp __ 4) + ((MH__exp __ 4 + MVz__exp __ 4 + 10*MVz__exp __ 2*MZ__exp __ 2 + MZ__exp __ 4 - 2*MH__exp __ 2*(MVz__exp __ 2 + MZ__exp __ 2))*(4*aa*cN*MZt__exp __ 2*sN + gst*(-4*cN*cvvhh*gst*sN + ch*gz*(cN__exp __ 2 - sN__exp __ 2))*vv__exp __ 2)**2*cmath.sqrt(MH__exp __ 4 + (MVz__exp __ 2 - MZ__exp __ 2)**2 - 2*MH__exp __ 2*(MVz__exp __ 2 + MZ__exp __ 2)))/(768.*cmath.pi*MVz__exp __ 5*MZ__exp __ 2*vv__exp __ 2) 
DECAY  9000002 137.138 # vc+ : ((MVc__exp __ 4 + (MW__exp __ 2 - MZ__exp __ 2)**2 - 2*MVc__exp __ 2*(MW__exp __ 2 + MZ__exp __ 2))**1.5*(cC__exp __ 4*gw__exp __ 2*(MVc__exp __ 4 + 2*MW__exp __ 2*MZ__exp __ 2 + 6*cvvw*MW__exp __ 2*MZ__exp __ 2 + MZ__exp __ 4 + 2*MVc__exp __ 2*((1 + 3*cvvw + cvvw__exp __ 2)*MW__exp __ 2 + 5*MZ__exp __ 2) + cvvw__exp __ 2*(MW__exp __ 4 + 2*MW__exp __ 2*MZ__exp __ 2))*sN__exp __ 2 + gw__exp __ 2*(MW__exp __ 4 + 10*MW__exp __ 2*MZ__exp __ 2 + MZ__exp __ 4 + 2*MVc__exp __ 2*(MW__exp __ 2 + MZ__exp __ 2) + 6*cvvw*MVc__exp __ 2*(MW__exp __ 2 + MZ__exp __ 2) + cvvw__exp __ 2*MVc__exp __ 2*(MVc__exp __ 2 + 2*(MW__exp __ 2 + MZ__exp __ 2)))*sC__exp __ 4*sN__exp __ 2 + 2*cC__exp __ 3*gw*sC*sN*(cN*(-1 + cvvw)*cwt*gw*MZ__exp __ 2*(5*MVc__exp __ 2 + (2 + 3*cvvw)*MW__exp __ 2 + MZ__exp __ 2) + cvvv*gst*(MVc__exp __ 4 + 5*MW__exp __ 2*MZ__exp __ 2 + MZ__exp __ 4 + 5*MVc__exp __ 2*((1 + cvvw)*MW__exp __ 2 + 2*MZ__exp __ 2) + cvvw*(MW__exp __ 4 + 5*MW__exp __ 2*MZ__exp __ 2))*sN) - 2*cC*gw*sC__exp __ 3*sN*(cN*(-1 + cvvw)*cwt*gw*MZ__exp __ 2*((2 + 3*cvvw)*MVc__exp __ 2 + 5*MW__exp __ 2 + MZ__exp __ 2) + cvvv*gst*(MW__exp __ 4 + 10*MW__exp __ 2*MZ__exp __ 2 + MZ__exp __ 4 + 5*MVc__exp __ 2*(MW__exp __ 2 + MZ__exp __ 2) + cvvw*MVc__exp __ 2*(MVc__exp __ 2 + 5*(MW__exp __ 2 + MZ__exp __ 2)))*sN) + cC__exp __ 2*sC__exp __ 2*(cN__exp __ 2*(-1 + cvvw)**2*cwt__exp __ 2*gw__exp __ 2*MZ__exp __ 2*(2*MVc__exp __ 2 + 2*MW__exp __ 2 + MZ__exp __ 2) + 2*cN*cvvv*(-1 + cvvw)*cwt*gst*gw*MZ__exp __ 2*(5*MVc__exp __ 2 + 5*MW__exp __ 2 + MZ__exp __ 2)*sN + (cvvv__exp __ 2*gst__exp __ 2*(MVc__exp __ 4 + MW__exp __ 4 + 10*MW__exp __ 2*MZ__exp __ 2 + MZ__exp __ 4 + 10*MVc__exp __ 2*(MW__exp __ 2 + MZ__exp __ 2)) - 2*gw__exp __ 2*(3*cvvw__exp __ 2*MVc__exp __ 2*MW__exp __ 2 + 5*MW__exp __ 2*MZ__exp __ 2 + MZ__exp __ 4 + MVc__exp __ 2*(3*MW__exp __ 2 + 5*MZ__exp __ 2) + cvvw*(MVc__exp __ 4 + MW__exp __ 4 + 5*MW__exp __ 2*MZ__exp __ 2 + MVc__exp __ 2*(4*MW__exp __ 2 + 5*MZ__exp __ 2))))*sN__exp __ 2)))/(192.*cmath.pi*MVc__exp __ 5*MW__exp __ 2*MZ__exp __ 2) + (MVc*(ee*gst*sC + cC*cl*gw__exp __ 2*swt)**2)/(16.*cmath.pi*gst__exp __ 2*swt__exp __ 2) + (CKM1x1__exp __ 2*MVc*(ee*gst*sC + cC*cq*gw__exp __ 2*swt)**2)/(8.*cmath.pi*gst__exp __ 2*swt__exp __ 2) + (CKM1x2__exp __ 2*MVc*(ee*gst*sC + cC*cq*gw__exp __ 2*swt)**2)/(8.*cmath.pi*gst__exp __ 2*swt__exp __ 2) - ((MB__exp __ 4 + MT__exp __ 4 + MT__exp __ 2*MVc__exp __ 2 - 2*MVc__exp __ 4 + MB__exp __ 2*(-2*MT__exp __ 2 + MVc__exp __ 2))*(ee*gst*sC + c3*cC*gw__exp __ 2*swt)**2*cmath.sqrt(MB__exp __ 4 + (MT__exp __ 2 - MVc__exp __ 2)**2 - 2*MB__exp __ 2*(MT__exp __ 2 + MVc__exp __ 2)))/(32.*cmath.pi*gst__exp __ 2*MVc__exp __ 5*swt__exp __ 2) + ((MH__exp __ 4 + MVc__exp __ 4 + 10*MVc__exp __ 2*MW__exp __ 2 + MW__exp __ 4 - 2*MH__exp __ 2*(MVc__exp __ 2 + MW__exp __ 2))*(4*aa*cC*MWt__exp __ 2*sC + gst*(cC__exp __ 2*ch*gw - 4*cC*cvvhh*gst*sC - ch*gw*sC__exp __ 2)*vv__exp __ 2)**2*cmath.sqrt(MH__exp __ 4 + (MVc__exp __ 2 - MW__exp __ 2)**2 - 2*MH__exp __ 2*(MVc__exp __ 2 + MW__exp __ 2)))/(768.*cmath.pi*MVc__exp __ 5*MW__exp __ 2*vv__exp __ 2) 
#===========================================================
# QUANTUM NUMBERS OF NEW STATE(S) (NON SM PDG CODE)
#===========================================================

Block QNUMBERS 9000001  # vz 
        1 0  # 3 times electric charge
        2 3  # number of spin states (2S+1)
        3 1  # colour rep (1: singlet, 3: triplet, 8: octet)
        4 0  # Particle/Antiparticle distinction (0=own anti)
Block QNUMBERS 9000002  # vc+ 
        1 3  # 3 times electric charge
        2 3  # number of spin states (2S+1)
        3 1  # colour rep (1: singlet, 3: triplet, 8: octet)
        4 1  # Particle/Antiparticle distinction (0=own anti)
