#
#                              ======================
#                              | THE SUSYHIT OUTPUT |
#                              ======================
#
#
#              ------------------------------------------------------
#              |     This is the output of the SUSY-HIT package     |
#              |  created by A.Djouadi, M.Muehlleitner and M.Spira. |
#              |  In case of problems with SUSY-HIT email to        |
#              |           margarete.muehlleitner@cern.ch           |
#              |           michael.spira@psi.ch                     |
#              |           abdelhak.djouadi@cern.ch                 |
#              ------------------------------------------------------
#
#              ------------------------------------------------------
#              |  SUSY Les Houches Accord - MSSM Spectrum + Decays  |
#              |              based on the decay programs           |
#              |                                                    |
#              |                     SDECAY 1.3b                    |
#              |                                                    |
#              |  Authors: M.Muhlleitner, A.Djouadi and Y.Mambrini  |
#              |  Ref.:    Comput.Phys.Commun.168(2005)46           |
#              |           [hep-ph/0311167]                         |
#              |                                                    |
#              |                     HDECAY 3.4                     |
#              |                                                    |
#              |  By: A.Djouadi,J.Kalinowski,M.Muhlleitner,M.Spira  |
#              |  Ref.:    Comput.Phys.Commun.108(1998)56           |
#              |           [hep-ph/9704448]                         |
#              |                                                    |
#              |                                                    |
#              |  If not stated otherwise all DRbar couplings and   |
#              |  soft SUSY breaking masses are given at the scale  |
#              |  Q=  0.50007725E+04
#              |                                                    |
#              ------------------------------------------------------
#
#
BLOCK DCINFO  # Decay Program information
     1   SDECAY/HDECAY # decay calculator
     2   1.3b  /3.4    # version number
#
BLOCK SPINFO  # Spectrum calculator information
     1    SOFTSUSY    # spectrum calculator                
     2    3.4.0       # version number                     
#
BLOCK MODSEL  # Model selection
     1     0   #  nonUniversal                                     
#
BLOCK SMINPUTS  # Standard Model inputs
         1     1.25778332E+02   # alpha_em^-1(M_Z)^MSbar
         2     1.16570000E-05   # G_F [GeV^-2]
         3     1.17200002E-01   # alpha_S(M_Z)^MSbar
         4     9.11876000E+01   # M_Z pole mass
         5     4.25000000E+00   # mb(mb)^MSbar
         6     1.72500000E+02   # mt pole mass
         7     1.77682000E+00   # mtau pole mass
#
BLOCK MINPAR  # Input parameters - minimal models
         3     1.00000000E+01   # tanb                
#
BLOCK EXTPAR  # Input parameters - non-minimal models
         0    -1.00000000E+00   # Set                 
         1     6.00000000E+01   # M_1(MX)             
         2     3.00000000E+03   # M_2(MX)             
         3     1.76108800E+03   # M_3(MX)             
        11     5.00000000E+03   # At(MX)              
        12     5.00000000E+03   # Ab(MX)              
        13     0.00000000E+00   # Atau(MX)            
        23    -1.87276000E+02   # mu(MX)              
        26     3.00000000E+03   # mA(pole)            
        31     5.00000000E+03   # meL(MX)             
        32     5.00000000E+03   # mmuL(MX)            
        33     5.00000000E+03   # mtauL(MX)           
        34     5.00000000E+03   # meR(MX)             
        35     5.00000000E+03   # mmuR(MX)            
        36     5.00000000E+03   # mtauR(MX)           
        41     5.00000000E+03   # mqL1(MX)            
        42     5.00000000E+03   # mqL2(MX)            
        43     5.00000000E+03   # mqL3(MX)            
        44     5.00000000E+03   # muR(MX)             
        45     5.00000000E+03   # mcR(MX)             
        46     5.00000000E+03   # mtR(MX)             
        47     5.00000000E+03   # mdR(MX)             
        48     5.00000000E+03   # msR(MX)             
        49     5.00000000E+03   # mbR(MX)             
#
BLOCK MASS  # Mass Spectrum
# PDG code           mass       particle
        24     8.00908140E+01   # W+
        25     1.24763813E+02   # h
        35     3.00009103E+03   # H
        36     2.99999978E+03   # A
        37     3.00148190E+03   # H+
         5     4.87878001E+00   # b-quark pole mass calculated from mb(mb)_Msbar
   1000001     5.07338772E+03   # ~d_L
   2000001     5.05549342E+03   # ~d_R
   1000002     5.07291247E+03   # ~u_L
   2000002     5.05518321E+03   # ~u_R
   1000003     5.07338772E+03   # ~s_L
   2000003     5.05549342E+03   # ~s_R
   1000004     5.07291247E+03   # ~c_L
   2000004     5.05518321E+03   # ~c_R
   1000005     5.01942210E+03   # ~b_1
   2000005     5.05357484E+03   # ~b_2
   1000006     4.91072888E+03   # ~t_1
   2000006     5.06267090E+03   # ~t_2
   1000011     5.01916391E+03   # ~e_L
   2000011     5.00596031E+03   # ~e_R
   1000012     5.01821119E+03   # ~nu_eL
   1000013     5.01916391E+03   # ~mu_L
   2000013     5.00596031E+03   # ~mu_R
   1000014     5.01821119E+03   # ~nu_muL
   1000015     5.00483292E+03   # ~tau_1
   2000015     5.01862929E+03   # ~tau_2
   1000016     5.01765626E+03   # ~nu_tauL
   1000021     2.10000088E+03   # ~g
   1000022     5.87059079E+01   # ~chi_10
   1000023     2.04233084E+02   # ~chi_20
   1000025    -2.05084175E+02   # ~chi_30
   1000035     3.07431008E+03   # ~chi_40
   1000024     2.00000863E+02   # ~chi_1+
   1000037     3.07447823E+03   # ~chi_2+
#
BLOCK NMIX  # Neutralino Mixing Matrix
  1  1     9.72112603E-01   # N_11
  1  2    -5.01200556E-04   # N_12
  1  3    -2.30089758E-01   # N_13
  1  4    -4.53380436E-02   # N_14
  2  1     1.94543470E-01   # N_21
  2  2     1.71135791E-02   # N_22
  2  3     6.83258952E-01   # N_23
  2  4     7.03574564E-01   # N_24
  3  1    -1.30957084E-01   # N_31
  3  2     1.85835924E-02   # N_32
  3  3    -6.92975297E-01   # N_33
  3  4     7.08724298E-01   # N_34
  4  1    -4.08589075E-04   # N_41
  4  2     9.99680711E-01   # N_42
  4  3     1.06998486E-03   # N_43
  4  4    -2.52421054E-02   # N_44
#
BLOCK UMIX  # Chargino Mixing Matrix U
  1  1    -1.50924383E-03   # U_11
  1  2     9.99998861E-01   # U_12
  2  1    -9.99998861E-01   # U_21
  2  2    -1.50924383E-03   # U_22
#
BLOCK VMIX  # Chargino Mixing Matrix V
  1  1     3.57074679E-02   # V_11
  1  2    -9.99362285E-01   # V_12
  2  1    -9.99362285E-01   # V_21
  2  2    -3.57074679E-02   # V_22
#
BLOCK STOPMIX  # Stop Mixing Matrix
  1  1    -5.01972795E-01   # cos(theta_t)
  1  2     8.64883410E-01   # sin(theta_t)
  2  1    -8.64883410E-01   # -sin(theta_t)
  2  2    -5.01972795E-01   # cos(theta_t)
#
BLOCK SBOTMIX  # Sbottom Mixing Matrix
  1  1     9.99401718E-01   # cos(theta_b)
  1  2    -3.45862120E-02   # sin(theta_b)
  2  1     3.45862120E-02   # -sin(theta_b)
  2  2     9.99401718E-01   # cos(theta_b)
#
BLOCK STAUMIX  # Stau Mixing Matrix
  1  1    -2.21875748E-02   # cos(theta_tau)
  1  2     9.99753825E-01   # sin(theta_tau)
  2  1    -9.99753825E-01   # -sin(theta_tau)
  2  2    -2.21875748E-02   # cos(theta_tau)
#
BLOCK ALPHA  # Higgs mixing
          -1.05495710E-01   # Mixing angle in the neutral Higgs boson sector
#
BLOCK HMIX Q=  5.00077253E+03  # DRbar Higgs Parameters
         1    -1.90688883E+02   # mu(Q)MSSM           
         2     9.46865719E+00   # tan                 
         3     2.41664170E+02   # higgs               
         4     8.78989893E+06   # mA^2(Q)MSSM         
#
BLOCK GAUGE Q=  5.00077253E+03  # The gauge couplings
     1     3.71157383E-01   # gprime(Q) DRbar
     2     6.34353408E-01   # g(Q) DRbar
     3     9.97792496E-01   # g3(Q) DRbar
#
BLOCK AU Q=  5.00077253E+03  # The trilinear couplings
  1  1     5.00000001E+03   # A_u(Q) DRbar
  2  2     5.00000001E+03   # A_c(Q) DRbar
  3  3     5.00000002E+03   # A_t(Q) DRbar
#
BLOCK AD Q=  5.00077253E+03  # The trilinear couplings
  1  1     5.00000001E+03   # A_d(Q) DRbar
  2  2     5.00000001E+03   # A_s(Q) DRbar
  3  3     5.00000001E+03   # A_b(Q) DRbar
#
BLOCK AE Q=  5.00077253E+03  # The trilinear couplings
  1  1     0.00000000E+00   # A_e(Q) DRbar
  2  2     1.86164655E-07   # A_mu(Q) DRbar
  3  3     1.85847508E-07   # A_tau(Q) DRbar
#
BLOCK Yu Q=  5.00077253E+03  # The Yukawa couplings
  1  1     0.00000000E+00   # y_u(Q) DRbar
  2  2     0.00000000E+00   # y_c(Q) DRbar
  3  3     8.20783393E-01   # y_t(Q) DRbar
#
BLOCK Yd Q=  5.00077253E+03  # The Yukawa couplings
  1  1     0.00000000E+00   # y_d(Q) DRbar
  2  2     0.00000000E+00   # y_s(Q) DRbar
  3  3     1.29804173E-01   # y_b(Q) DRbar
#
BLOCK Ye Q=  5.00077253E+03  # The Yukawa couplings
  1  1     0.00000000E+00   # y_e(Q) DRbar
  2  2     0.00000000E+00   # y_mu(Q) DRbar
  3  3     9.73508118E-02   # y_tau(Q) DRbar
#
BLOCK MSOFT Q=  5.00077253E+03  # The soft SUSY breaking masses at the scale Q
         1     6.00000000E+01   # M_1(Q)              
         2     3.00000000E+03   # M_2(Q)              
         3     1.76108800E+03   # M_3(Q)              
        21     8.69783664E+06   # mH1^2(Q)            
        22     5.43588154E+05   # mH2^2(Q)            
        31     5.00000000E+03   # meL(Q)              
        32     5.00000000E+03   # mmuL(Q)             
        33     5.00000000E+03   # mtauL(Q)            
        34     5.00000000E+03   # meR(Q)              
        35     5.00000000E+03   # mmuR(Q)             
        36     5.00000000E+03   # mtauR(Q)            
        41     5.00000000E+03   # mqL1(Q)             
        42     5.00000000E+03   # mqL2(Q)             
        43     4.99999999E+03   # mqL3(Q)             
        44     5.00000000E+03   # muR(Q)              
        45     5.00000000E+03   # mcR(Q)              
        46     4.99999999E+03   # mtR(Q)              
        47     5.00000000E+03   # mdR(Q)              
        48     5.00000000E+03   # msR(Q)              
        49     5.00000000E+03   # mbR(Q)              
#
#
#
#                             =================
#                             |The decay table|
#                             =================
#
# - The QCD corrections to the decays gluino -> squark  + quark
#                                     squark -> gaugino + quark_prime
#                                     squark -> squark_prime + Higgs
#                                     squark -> gluino  + quark
#   are included.
#
# - The multi-body decays for the inos, stops and sbottoms are included.
#
# - The loop induced decays for the gluino, neutralinos and stops
#   are included.
#
# - The SUSY decays of the top quark are included.
#
#
#         PDG            Width
DECAY         6     1.41034504E+00   # top decays
#          BR         NDA      ID1       ID2
     1.00000000E+00    2           5        24   # BR(t ->  b    W+)
#
#         PDG            Width
DECAY   1000021     3.31059660E-03   # gluino decays
#          BR         NDA      ID1       ID2
     1.80944133E-05    2     1000022        21   # BR(~g -> ~chi_10 g)
     5.52412946E-03    2     1000023        21   # BR(~g -> ~chi_20 g)
     5.38373566E-03    2     1000025        21   # BR(~g -> ~chi_30 g)
#           BR         NDA      ID1       ID2       ID3
     8.63239001E-03    3     1000022         1        -1   # BR(~g -> ~chi_10 d  db)
     3.08797302E-04    3     1000023         1        -1   # BR(~g -> ~chi_20 d  db)
     1.62445026E-04    3     1000025         1        -1   # BR(~g -> ~chi_30 d  db)
     2.93811874E-02    3     1000022         2        -2   # BR(~g -> ~chi_10 u  ub)
     1.29926491E-03    3     1000023         2        -2   # BR(~g -> ~chi_20 u  ub)
     3.76368841E-04    3     1000025         2        -2   # BR(~g -> ~chi_30 u  ub)
     8.63239001E-03    3     1000022         3        -3   # BR(~g -> ~chi_10 s  sb)
     3.08797302E-04    3     1000023         3        -3   # BR(~g -> ~chi_20 s  sb)
     1.62445026E-04    3     1000025         3        -3   # BR(~g -> ~chi_30 s  sb)
     2.93811874E-02    3     1000022         4        -4   # BR(~g -> ~chi_10 c  cb)
     1.29926491E-03    3     1000023         4        -4   # BR(~g -> ~chi_20 c  cb)
     3.76368841E-04    3     1000025         4        -4   # BR(~g -> ~chi_30 c  cb)
     9.39811172E-03    3     1000022         5        -5   # BR(~g -> ~chi_10 b  bb)
     5.39508787E-03    3     1000023         5        -5   # BR(~g -> ~chi_20 b  bb)
     5.39845954E-03    3     1000025         5        -5   # BR(~g -> ~chi_30 b  bb)
     2.74426119E-02    3     1000022         6        -6   # BR(~g -> ~chi_10 t  tb)
     2.15180938E-01    3     1000023         6        -6   # BR(~g -> ~chi_20 t  tb)
     2.01594957E-01    3     1000025         6        -6   # BR(~g -> ~chi_30 t  tb)
     5.34405154E-05    3     1000024         1        -2   # BR(~g -> ~chi_1+ d  ub)
     5.34405154E-05    3    -1000024         2        -1   # BR(~g -> ~chi_1- u  db)
     5.34405154E-05    3     1000024         3        -4   # BR(~g -> ~chi_1+ s  cb)
     5.34405154E-05    3    -1000024         4        -3   # BR(~g -> ~chi_1- c  sb)
     2.22064603E-01    3     1000024         5        -6   # BR(~g -> ~chi_1+ b  tb)
     2.22064603E-01    3    -1000024         6        -5   # BR(~g -> ~chi_1- t  bb)
#
#         PDG            Width
DECAY   1000006     3.41974386E+02   # stop1 decays
#          BR         NDA      ID1       ID2
     2.27188974E-02    2     1000022         6   # BR(~t_1 -> ~chi_10 t )
     1.02468025E-01    2     1000023         6   # BR(~t_1 -> ~chi_20 t )
     9.08585349E-02    2     1000025         6   # BR(~t_1 -> ~chi_30 t )
     5.90824821E-03    2     1000035         6   # BR(~t_1 -> ~chi_40 t )
     1.42338243E-01    2     1000024         5   # BR(~t_1 -> ~chi_1+ b )
     1.17785935E-02    2     1000037         5   # BR(~t_1 -> ~chi_2+ b )
     6.23929458E-01    2     1000021         6   # BR(~t_1 -> ~g      t )
#
#         PDG            Width
DECAY   2000006     3.46284038E+02   # stop2 decays
#          BR         NDA      ID1       ID2
     1.21949213E-02    2     1000022         6   # BR(~t_2 -> ~chi_10 t )
     9.12721380E-02    2     1000023         6   # BR(~t_2 -> ~chi_20 t )
     1.05049534E-01    2     1000025         6   # BR(~t_2 -> ~chi_30 t )
     1.63331004E-02    2     1000035         6   # BR(~t_2 -> ~chi_40 t )
     5.62419651E-02    2     1000024         5   # BR(~t_2 -> ~chi_1+ b )
     3.25266375E-02    2     1000037         5   # BR(~t_2 -> ~chi_2+ b )
     6.82949851E-01    2     1000021         6   # BR(~t_2 -> ~g      t )
     8.00056054E-04    2     1000006        25   # BR(~t_2 -> ~t_1    h )
     2.63179689E-03    2     1000006        23   # BR(~t_2 -> ~t_1    Z )
#
#         PDG            Width
DECAY   1000005     3.21141865E+02   # sbottom1 decays
#          BR         NDA      ID1       ID2
     2.62267303E-03    2     1000022         5   # BR(~b_1 -> ~chi_10 b )
     2.40114214E-03    2     1000023         5   # BR(~b_1 -> ~chi_20 b )
     2.56240278E-03    2     1000025         5   # BR(~b_1 -> ~chi_30 b )
     2.37551115E-02    2     1000035         5   # BR(~b_1 -> ~chi_40 b )
     2.09219389E-01    2    -1000024         6   # BR(~b_1 -> ~chi_1- t )
     4.76885891E-02    2    -1000037         6   # BR(~b_1 -> ~chi_2- t )
     7.10050795E-01    2     1000021         5   # BR(~b_1 -> ~g      b )
     1.69989660E-03    2     1000006       -24   # BR(~b_1 -> ~t_1    W-)
#
#         PDG            Width
DECAY   2000005     2.37098599E+02   # sbottom2 decays
#          BR         NDA      ID1       ID2
     1.20355690E-02    2     1000022         5   # BR(~b_2 -> ~chi_10 b )
     3.91870748E-03    2     1000023         5   # BR(~b_2 -> ~chi_20 b )
     3.75524457E-03    2     1000025         5   # BR(~b_2 -> ~chi_30 b )
     3.30372883E-05    2     1000035         5   # BR(~b_2 -> ~chi_40 b )
     7.44456241E-03    2    -1000024         6   # BR(~b_2 -> ~chi_1- t )
     6.63465941E-05    2    -1000037         6   # BR(~b_2 -> ~chi_2- t )
     9.72735161E-01    2     1000021         5   # BR(~b_2 -> ~g      b )
     1.13711945E-05    2     1000006       -24   # BR(~b_2 -> ~t_1    W-)
#
#         PDG            Width
DECAY   1000002     2.56687602E+02   # sup_L decays
#          BR         NDA      ID1       ID2
     2.73693462E-03    2     1000022         2   # BR(~u_L -> ~chi_10 u)
     2.31413348E-04    2     1000023         2   # BR(~u_L -> ~chi_20 u)
     3.69523872E-06    2     1000025         2   # BR(~u_L -> ~chi_30 u)
     3.08138920E-02    2     1000035         2   # BR(~u_L -> ~chi_40 u)
     1.94708367E-04    2     1000024         1   # BR(~u_L -> ~chi_1+ d)
     6.15905852E-02    2     1000037         1   # BR(~u_L -> ~chi_2+ d)
     9.04428771E-01    2     1000021         2   # BR(~u_L -> ~g      u)
#
#         PDG            Width
DECAY   2000002     2.42586264E+02   # sup_R decays
#          BR         NDA      ID1       ID2
     4.64174637E-02    2     1000022         2   # BR(~u_R -> ~chi_10 u)
     1.85411808E-03    2     1000023         2   # BR(~u_R -> ~chi_20 u)
     8.40138859E-04    2     1000025         2   # BR(~u_R -> ~chi_30 u)
     3.27710246E-09    2     1000035         2   # BR(~u_R -> ~chi_40 u)
     9.50888276E-01    2     1000021         2   # BR(~u_R -> ~g      u)
#
#         PDG            Width
DECAY   1000001     2.56701323E+02   # sdown_L decays
#          BR         NDA      ID1       ID2
     2.76614401E-03    2     1000022         1   # BR(~d_L -> ~chi_10 d)
     3.31223546E-05    2     1000023         1   # BR(~d_L -> ~chi_20 d)
     1.48644154E-04    2     1000025         1   # BR(~d_L -> ~chi_30 d)
     3.08316182E-02    2     1000035         1   # BR(~d_L -> ~chi_40 d)
     3.47859235E-07    2    -1000024         2   # BR(~d_L -> ~chi_1- u)
     6.16848814E-02    2    -1000037         2   # BR(~d_L -> ~chi_2- u)
     9.04535242E-01    2     1000021         1   # BR(~d_L -> ~g      d)
#
#         PDG            Width
DECAY   2000001     2.33677041E+02   # sdown_R decays
#          BR         NDA      ID1       ID2
     1.20475458E-02    2     1000022         1   # BR(~d_R -> ~chi_10 d)
     4.81232229E-04    2     1000023         1   # BR(~d_R -> ~chi_20 d)
     2.18056175E-04    2     1000025         1   # BR(~d_R -> ~chi_30 d)
     8.50685393E-10    2     1000035         1   # BR(~d_R -> ~chi_40 d)
     9.87253165E-01    2     1000021         1   # BR(~d_R -> ~g      d)
#
#         PDG            Width
DECAY   1000004     2.56687602E+02   # scharm_L decays
#          BR         NDA      ID1       ID2
     2.73693462E-03    2     1000022         4   # BR(~c_L -> ~chi_10 c)
     2.31413348E-04    2     1000023         4   # BR(~c_L -> ~chi_20 c)
     3.69523872E-06    2     1000025         4   # BR(~c_L -> ~chi_30 c)
     3.08138920E-02    2     1000035         4   # BR(~c_L -> ~chi_40 c)
     1.94708367E-04    2     1000024         3   # BR(~c_L -> ~chi_1+ s)
     6.15905852E-02    2     1000037         3   # BR(~c_L -> ~chi_2+ s)
     9.04428771E-01    2     1000021         4   # BR(~c_L -> ~g      c)
#
#         PDG            Width
DECAY   2000004     2.42586264E+02   # scharm_R decays
#          BR         NDA      ID1       ID2
     4.64174637E-02    2     1000022         4   # BR(~c_R -> ~chi_10 c)
     1.85411808E-03    2     1000023         4   # BR(~c_R -> ~chi_20 c)
     8.40138859E-04    2     1000025         4   # BR(~c_R -> ~chi_30 c)
     3.27710246E-09    2     1000035         4   # BR(~c_R -> ~chi_40 c)
     9.50888276E-01    2     1000021         4   # BR(~c_R -> ~g      c)
#
#         PDG            Width
DECAY   1000003     2.56701323E+02   # sstrange_L decays
#          BR         NDA      ID1       ID2
     2.76614401E-03    2     1000022         3   # BR(~s_L -> ~chi_10 s)
     3.31223546E-05    2     1000023         3   # BR(~s_L -> ~chi_20 s)
     1.48644154E-04    2     1000025         3   # BR(~s_L -> ~chi_30 s)
     3.08316182E-02    2     1000035         3   # BR(~s_L -> ~chi_40 s)
     3.47859235E-07    2    -1000024         4   # BR(~s_L -> ~chi_1- c)
     6.16848814E-02    2    -1000037         4   # BR(~s_L -> ~chi_2- c)
     9.04535242E-01    2     1000021         3   # BR(~s_L -> ~g      s)
#
#         PDG            Width
DECAY   2000003     2.33677041E+02   # sstrange_R decays
#          BR         NDA      ID1       ID2
     1.20475458E-02    2     1000022         3   # BR(~s_R -> ~chi_10 s)
     4.81232229E-04    2     1000023         3   # BR(~s_R -> ~chi_20 s)
     2.18056175E-04    2     1000025         3   # BR(~s_R -> ~chi_30 s)
     8.50685393E-10    2     1000035         3   # BR(~s_R -> ~chi_40 s)
     9.87253165E-01    2     1000021         3   # BR(~s_R -> ~g      s)
#
#         PDG            Width
DECAY   1000011     3.04169363E+01   # selectron_L decays
#          BR         NDA      ID1       ID2
     2.13245979E-01    2     1000022        11   # BR(~e_L -> ~chi_10 e-)
     1.12871592E-02    2     1000023        11   # BR(~e_L -> ~chi_20 e-)
     2.21750391E-03    2     1000025        11   # BR(~e_L -> ~chi_30 e-)
     2.57579840E-01    2     1000035        11   # BR(~e_L -> ~chi_40 e-)
     2.99948828E-06    2    -1000024        12   # BR(~e_L -> ~chi_1- nu_e)
     5.15666518E-01    2    -1000037        12   # BR(~e_L -> ~chi_2- nu_e)
#
#         PDG            Width
DECAY   2000011     2.74265470E+01   # selectron_R decays
#          BR         NDA      ID1       ID2
     9.45162105E-01    2     1000022        11   # BR(~e_R -> ~chi_10 e-)
     3.77380089E-02    2     1000023        11   # BR(~e_R -> ~chi_20 e-)
     1.70998210E-02    2     1000025        11   # BR(~e_R -> ~chi_30 e-)
     6.47925805E-08    2     1000035        11   # BR(~e_R -> ~chi_40 e-)
#
#         PDG            Width
DECAY   1000013     3.04169363E+01   # smuon_L decays
#          BR         NDA      ID1       ID2
     2.13245979E-01    2     1000022        13   # BR(~mu_L -> ~chi_10 mu-)
     1.12871592E-02    2     1000023        13   # BR(~mu_L -> ~chi_20 mu-)
     2.21750391E-03    2     1000025        13   # BR(~mu_L -> ~chi_30 mu-)
     2.57579840E-01    2     1000035        13   # BR(~mu_L -> ~chi_40 mu-)
     2.99948828E-06    2    -1000024        14   # BR(~mu_L -> ~chi_1- nu_mu)
     5.15666518E-01    2    -1000037        14   # BR(~mu_L -> ~chi_2- nu_mu)
#
#         PDG            Width
DECAY   2000013     2.74265470E+01   # smuon_R decays
#          BR         NDA      ID1       ID2
     9.45162105E-01    2     1000022        13   # BR(~mu_R -> ~chi_10 mu-)
     3.77380089E-02    2     1000023        13   # BR(~mu_R -> ~chi_20 mu-)
     1.70998210E-02    2     1000025        13   # BR(~mu_R -> ~chi_30 mu-)
     6.47925805E-08    2     1000035        13   # BR(~mu_R -> ~chi_40 mu-)
#
#         PDG            Width
DECAY   1000015     2.93021842E+01   # stau_1 decays
#          BR         NDA      ID1       ID2
     8.86702724E-01    2     1000022        15   # BR(~tau_1 -> ~chi_10  tau-)
     4.98516559E-02    2     1000023        15   # BR(~tau_1 -> ~chi_20  tau-)
     3.09754909E-02    2     1000025        15   # BR(~tau_1 -> ~chi_30  tau-)
     1.33158880E-04    2     1000035        15   # BR(~tau_1 -> ~chi_40  tau-)
     3.20705400E-02    2    -1000024        16   # BR(~tau_1 -> ~chi_1-  nu_tau)
     2.66430239E-04    2    -1000037        16   # BR(~tau_1 -> ~chi_2-  nu_tau)
#
#         PDG            Width
DECAY   2000015     3.13502437E+01   # stau_2 decays
#          BR         NDA      ID1       ID2
     2.07971108E-01    2     1000022        15   # BR(~tau_2 -> ~chi_10  tau-)
     2.54117204E-02    2     1000023        15   # BR(~tau_2 -> ~chi_20  tau-)
     1.70086130E-02    2     1000025        15   # BR(~tau_2 -> ~chi_30  tau-)
     2.49695417E-01    2     1000035        15   # BR(~tau_2 -> ~chi_40  tau-)
     3.08464222E-05    2    -1000024        16   # BR(~tau_2 -> ~chi_1-  nu_tau)
     4.99882295E-01    2    -1000037        16   # BR(~tau_2 -> ~chi_2-  nu_tau)
#
#         PDG            Width
DECAY   1000012     3.04198774E+01   # snu_eL decays
#          BR         NDA      ID1       ID2
     2.13937616E-01    2     1000022        12   # BR(~nu_eL -> ~chi_10 nu_e)
     6.15578626E-03    2     1000023        12   # BR(~nu_eL -> ~chi_20 nu_e)
     5.96528146E-03    2     1000025        12   # BR(~nu_eL -> ~chi_30 nu_e)
     2.57634957E-01    2     1000035        12   # BR(~nu_eL -> ~chi_40 nu_e)
     1.67850060E-03    2     1000024        11   # BR(~nu_eL -> ~chi_1+ e-)
     5.14627859E-01    2     1000037        11   # BR(~nu_eL -> ~chi_2+ e-)
#
#         PDG            Width
DECAY   1000014     3.04198774E+01   # snu_muL decays
#          BR         NDA      ID1       ID2
     2.13937616E-01    2     1000022        14   # BR(~nu_muL -> ~chi_10 nu_mu)
     6.15578626E-03    2     1000023        14   # BR(~nu_muL -> ~chi_20 nu_mu)
     5.96528146E-03    2     1000025        14   # BR(~nu_muL -> ~chi_30 nu_mu)
     2.57634957E-01    2     1000035        14   # BR(~nu_muL -> ~chi_40 nu_mu)
     1.67850060E-03    2     1000024        13   # BR(~nu_muL -> ~chi_1+ mu-)
     5.14627859E-01    2     1000037        13   # BR(~nu_muL -> ~chi_2+ mu-)
#
#         PDG            Width
DECAY   1000016     3.13533125E+01   # snu_tauL decays
#          BR         NDA      ID1       ID2
     2.07545406E-01    2     1000022        16   # BR(~nu_tauL -> ~chi_10 nu_tau)
     5.97185443E-03    2     1000023        16   # BR(~nu_tauL -> ~chi_20 nu_tau)
     5.78704178E-03    2     1000025        16   # BR(~nu_tauL -> ~chi_30 nu_tau)
     2.49870707E-01    2     1000035        16   # BR(~nu_tauL -> ~chi_40 nu_tau)
     3.17064407E-02    2     1000024        15   # BR(~nu_tauL -> ~chi_1+ tau-)
     4.99118551E-01    2     1000037        15   # BR(~nu_tauL -> ~chi_2+ tau-)
#
#         PDG            Width
DECAY   1000024     8.36009070E-02   # chargino1+ decays
#          BR         NDA      ID1       ID2
     1.00000000E+00    2     1000022        24   # BR(~chi_1+ -> ~chi_10  W+)
#
#         PDG            Width
DECAY   1000037     2.33014292E+01   # chargino2+ decays
#          BR         NDA      ID1       ID2
     2.53776273E-01    2     1000024        23   # BR(~chi_2+ -> ~chi_1+  Z )
     7.55854952E-04    2     1000022        24   # BR(~chi_2+ -> ~chi_10  W+)
     2.44847127E-01    2     1000023        24   # BR(~chi_2+ -> ~chi_20  W+)
     2.44871392E-01    2     1000025        24   # BR(~chi_2+ -> ~chi_30  W+)
     2.55711852E-01    2     1000024        25   # BR(~chi_2+ -> ~chi_1+  h )
     3.75003903E-05    2     1000022        37   # BR(~chi_2+ -> ~chi_10  H+)
#
#         PDG            Width
DECAY   1000022     0.00000000E+00   # neutralino1 decays
#
#         PDG            Width
DECAY   1000023     6.58604235E-02   # neutralino2 decays
#          BR         NDA      ID1       ID2
     5.81641181E-01    2     1000022        23   # BR(~chi_20 -> ~chi_10   Z )
     4.18358819E-01    2     1000022        25   # BR(~chi_20 -> ~chi_10   h )
#
#         PDG            Width
DECAY   1000025     4.88315411E-02   # neutralino3 decays
#          BR         NDA      ID1       ID2
     9.01995614E-01    2     1000022        23   # BR(~chi_30 -> ~chi_10   Z )
     9.80043861E-02    2     1000022        25   # BR(~chi_30 -> ~chi_10   h )
#
#         PDG            Width
DECAY   1000035     2.33036680E+01   # neutralino4 decays
#          BR         NDA      ID1       ID2
     7.78262393E-04    2     1000022        23   # BR(~chi_40 -> ~chi_10   Z )
     1.35969545E-01    2     1000023        23   # BR(~chi_40 -> ~chi_20   Z )
     1.16845873E-01    2     1000025        23   # BR(~chi_40 -> ~chi_30   Z )
     2.45450092E-01    2     1000024       -24   # BR(~chi_40 -> ~chi_1+   W-)
     2.45450092E-01    2    -1000024        24   # BR(~chi_40 -> ~chi_1-   W+)
     1.15500171E-05    2     1000022        25   # BR(~chi_40 -> ~chi_10   h )
     3.59771503E-05    2     1000022        35   # BR(~chi_40 -> ~chi_10   H )
     3.92687011E-06    2     1000022        36   # BR(~chi_40 -> ~chi_10   A )
     1.18323585E-01    2     1000023        25   # BR(~chi_40 -> ~chi_20   h )
     1.37131098E-01    2     1000025        25   # BR(~chi_40 -> ~chi_30   h )
#
#         PDG            Width
DECAY        25     4.08349940E-03   # h decays
#          BR         NDA      ID1       ID2
     6.09625383E-01    2           5        -5   # BR(h -> b       bb     )
     6.35225762E-02    2         -15        15   # BR(h -> tau+    tau-   )
     2.24893058E-04    2         -13        13   # BR(h -> mu+     mu-    )
     4.76766101E-04    2           3        -3   # BR(h -> s       sb     )
     2.06557860E-02    2           4        -4   # BR(h -> c       cb     )
     6.68061657E-02    2          21        21   # BR(h -> g       g      )
     2.29356145E-03    2          22        22   # BR(h -> gam     gam    )
     1.47985546E-03    2          22        23   # BR(h -> Z       gam    )
     2.08835334E-01    2          24       -24   # BR(h -> W+      W-     )
     2.48658278E-02    2          23        23   # BR(h -> Z       Z      )
     1.21385205E-03    2     1000022   1000022   # BR(h -> ~chi_10 ~chi_10)
#
#         PDG            Width
DECAY        35     8.81576606E+00   # H decays
#          BR         NDA      ID1       ID2
     3.59194245E-01    2           5        -5   # BR(H -> b       bb     )
     6.31791630E-02    2         -15        15   # BR(H -> tau+    tau-   )
     2.23406539E-04    2         -13        13   # BR(H -> mu+     mu-    )
     2.73862037E-04    2           3        -3   # BR(H -> s       sb     )
     1.53291885E-06    2           4        -4   # BR(H -> c       cb     )
     1.53150744E-01    2           6        -6   # BR(H -> t       tb     )
     5.09662568E-05    2          21        21   # BR(H -> g       g      )
     1.46766773E-07    2          22        22   # BR(H -> gam     gam    )
     9.03295190E-08    2          23        22   # BR(H -> Z       gam    )
     7.51863120E-05    2          24       -24   # BR(H -> W+      W-     )
     3.75455553E-05    2          23        23   # BR(H -> Z       Z      )
     2.67037287E-04    2          25        25   # BR(H -> h       h      )
     9.31332632E-24    2          36        36   # BR(H -> A       A      )
     8.32818937E-19    2          23        36   # BR(H -> Z       A      )
     3.48359768E-03    2     1000024  -1000024   # BR(H -> ~chi_1+ ~chi_1-)
     4.37332506E-02    2     1000022   1000022   # BR(H -> ~chi_10 ~chi_10)
     1.24631351E-02    2     1000023   1000023   # BR(H -> ~chi_20 ~chi_20)
     8.48960972E-03    2     1000025   1000025   # BR(H -> ~chi_30 ~chi_30)
     2.02409260E-01    2     1000022   1000023   # BR(H -> ~chi_10 ~chi_20)
     1.31758716E-01    2     1000022   1000025   # BR(H -> ~chi_10 ~chi_30)
     2.12085048E-02    2     1000023   1000025   # BR(H -> ~chi_20 ~chi_30)
#
#         PDG            Width
DECAY        36     8.82075561E+00   # A decays
#          BR         NDA      ID1       ID2
     3.59114143E-01    2           5        -5   # BR(A -> b       bb     )
     6.31452545E-02    2         -15        15   # BR(A -> tau+    tau-   )
     2.23286323E-04    2         -13        13   # BR(A -> mu+     mu-    )
     2.73914873E-04    2           3        -3   # BR(A -> s       sb     )
     1.53807152E-06    2           4        -4   # BR(A -> c       cb     )
     1.53580743E-01    2           6        -6   # BR(A -> t       tb     )
     1.51966567E-04    2          21        21   # BR(A -> g       g      )
     5.33735691E-07    2          22        22   # BR(A -> gam     gam    )
     1.83861160E-07    2          23        22   # BR(A -> Z       gam    )
     7.48590942E-05    2          23        25   # BR(A -> Z       h      )
     3.60864122E-03    2     1000024  -1000024   # BR(A -> ~chi_1+ ~chi_1-)
     4.02754943E-02    2     1000022   1000022   # BR(A -> ~chi_10 ~chi_10)
     8.19642564E-03    2     1000023   1000023   # BR(A -> ~chi_20 ~chi_20)
     1.33504236E-02    2     1000025   1000025   # BR(A -> ~chi_30 ~chi_30)
     1.28576987E-01    2     1000022   1000023   # BR(A -> ~chi_10 ~chi_20)
     2.08645015E-01    2     1000022   1000025   # BR(A -> ~chi_10 ~chi_30)
     2.07805904E-02    2     1000023   1000025   # BR(A -> ~chi_20 ~chi_30)
#
#         PDG            Width
DECAY        37     8.75651117E+00   # H+ decays
#          BR         NDA      ID1       ID2
     5.75005033E-04    2           4        -5   # BR(H+ -> c       bb     )
     6.36399614E-02    2         -15        16   # BR(H+ -> tau+    nu_tau )
     2.25035644E-04    2         -13        14   # BR(H+ -> mu+     nu_mu  )
     3.68001275E-06    2           2        -5   # BR(H+ -> u       bb     )
     1.32042759E-05    2           2        -3   # BR(H+ -> u       sb     )
     2.73065982E-04    2           4        -3   # BR(H+ -> c       sb     )
     5.10895219E-01    2           6        -5   # BR(H+ -> t       bb     )
     7.55688359E-05    2          24        25   # BR(H+ -> W+      h      )
     1.07323249E-12    2          24        36   # BR(H+ -> W+      A      )
     3.98266116E-01    2     1000024   1000022   # BR(H+ -> ~chi_1+ ~chi_10)
     2.17870823E-02    2     1000024   1000023   # BR(H+ -> ~chi_1+ ~chi_20)
     4.24606171E-03    2     1000024   1000025   # BR(H+ -> ~chi_1+ ~chi_30)
