#
#                              ======================
#                              | THE SUSYHIT OUTPUT |
#                              ======================
#
#
#              ------------------------------------------------------
#              |     This is the output of the SUSY-HIT package     |
#              |  created by A.Djouadi, M.Muehlleitner and M.Spira. |
#              |  In case of problems with SUSY-HIT email to        |
#              |           margarete.muehlleitner@cern.ch           |
#              |           michael.spira@psi.ch                     |
#              |           abdelhak.djouadi@cern.ch                 |
#              ------------------------------------------------------
#
#              ------------------------------------------------------
#              |  SUSY Les Houches Accord - MSSM Spectrum + Decays  |
#              |              based on the decay programs           |
#              |                                                    |
#              |                     SDECAY 1.3b                    |
#              |                                                    |
#              |  Authors: M.Muhlleitner, A.Djouadi and Y.Mambrini  |
#              |  Ref.:    Comput.Phys.Commun.168(2005)46           |
#              |           [hep-ph/0311167]                         |
#              |                                                    |
#              |                     HDECAY 3.4                     |
#              |                                                    |
#              |  By: A.Djouadi,J.Kalinowski,M.Muhlleitner,M.Spira  |
#              |  Ref.:    Comput.Phys.Commun.108(1998)56           |
#              |           [hep-ph/9704448]                         |
#              |                                                    |
#              |                                                    |
#              |  If not stated otherwise all DRbar couplings and   |
#              |  soft SUSY breaking masses are given at the scale  |
#              |  Q=  0.50007681E+04
#              |                                                    |
#              ------------------------------------------------------
#
#
BLOCK DCINFO  # Decay Program information
     1   SDECAY/HDECAY # decay calculator
     2   1.3b  /3.4    # version number
#
BLOCK SPINFO  # Spectrum calculator information
     1    SOFTSUSY    # spectrum calculator                
     2    3.4.0       # version number                     
#
BLOCK MODSEL  # Model selection
     1     0   #  nonUniversal                                     
#
BLOCK SMINPUTS  # Standard Model inputs
         1     1.25778332E+02   # alpha_em^-1(M_Z)^MSbar
         2     1.16570000E-05   # G_F [GeV^-2]
         3     1.17200002E-01   # alpha_S(M_Z)^MSbar
         4     9.11876000E+01   # M_Z pole mass
         5     4.25000000E+00   # mb(mb)^MSbar
         6     1.72500000E+02   # mt pole mass
         7     1.77682000E+00   # mtau pole mass
#
BLOCK MINPAR  # Input parameters - minimal models
         3     1.00000000E+01   # tanb                
#
BLOCK EXTPAR  # Input parameters - non-minimal models
         0    -1.00000000E+00   # Set                 
         1     6.00000000E+01   # M_1(MX)             
         2     3.00000000E+03   # M_2(MX)             
         3     1.21156000E+03   # M_3(MX)             
        11     5.00000000E+03   # At(MX)              
        12     5.00000000E+03   # Ab(MX)              
        13     0.00000000E+00   # Atau(MX)            
        23    -1.58748000E+02   # mu(MX)              
        26     3.00000000E+03   # mA(pole)            
        31     5.00000000E+03   # meL(MX)             
        32     5.00000000E+03   # mmuL(MX)            
        33     5.00000000E+03   # mtauL(MX)           
        34     5.00000000E+03   # meR(MX)             
        35     5.00000000E+03   # mmuR(MX)            
        36     5.00000000E+03   # mtauR(MX)           
        41     5.00000000E+03   # mqL1(MX)            
        42     5.00000000E+03   # mqL2(MX)            
        43     5.00000000E+03   # mqL3(MX)            
        44     5.00000000E+03   # muR(MX)             
        45     5.00000000E+03   # mcR(MX)             
        46     5.00000000E+03   # mtR(MX)             
        47     5.00000000E+03   # mdR(MX)             
        48     5.00000000E+03   # msR(MX)             
        49     5.00000000E+03   # mbR(MX)             
#
BLOCK MASS  # Mass Spectrum
# PDG code           mass       particle
        24     8.00895771E+01   # W+
        25     1.24602984E+02   # h
        35     3.00009141E+03   # H
        36     2.99999979E+03   # A
        37     3.00148503E+03   # H+
         5     4.87878001E+00   # b-quark pole mass calculated from mb(mb)_Msbar
   1000001     5.06680263E+03   # ~d_L
   2000001     5.04887212E+03   # ~d_R
   1000002     5.06632475E+03   # ~u_L
   2000002     5.04855987E+03   # ~u_R
   1000003     5.06680263E+03   # ~s_L
   2000003     5.04887212E+03   # ~s_R
   1000004     5.06632475E+03   # ~c_L
   2000004     5.04855987E+03   # ~c_R
   1000005     5.01309546E+03   # ~b_1
   2000005     5.04695810E+03   # ~b_2
   1000006     4.90381683E+03   # ~t_1
   2000006     5.05703480E+03   # ~t_2
   1000011     5.01917618E+03   # ~e_L
   2000011     5.00596282E+03   # ~e_R
   1000012     5.01822271E+03   # ~nu_eL
   1000013     5.01917618E+03   # ~mu_L
   2000013     5.00596282E+03   # ~mu_R
   1000014     5.01822271E+03   # ~nu_muL
   1000015     5.00483761E+03   # ~tau_1
   2000015     5.01863732E+03   # ~tau_2
   1000016     5.01766733E+03   # ~nu_tauL
   1000021     1.50000109E+03   # ~g
   1000022     5.78419562E+01   # ~chi_10
   1000023    -1.75655643E+02   # ~chi_20
   1000025     1.75674568E+02   # ~chi_30
   1000035     3.07435533E+03   # ~chi_40
   1000024     1.70000329E+02   # ~chi_1+
   1000037     3.07452360E+03   # ~chi_2+
#
BLOCK NMIX  # Neutralino Mixing Matrix
  1  1     9.59057332E-01   # N_11
  1  2    -9.56607818E-04   # N_12
  1  3    -2.74958617E-01   # N_13
  1  4    -6.78666214E-02   # N_14
  2  1    -1.47319339E-01   # N_21
  2  2     1.87626722E-02   # N_22
  2  3    -6.89007534E-01   # N_23
  2  4     7.09375495E-01   # N_24
  3  1     2.41879878E-01   # N_31
  3  2     1.69317377E-02   # N_32
  3  3     6.70570397E-01   # N_33
  3  4     7.01101122E-01   # N_34
  4  1    -4.14032896E-04   # N_41
  4  2     9.99680130E-01   # N_42
  4  3     1.31109220E-03   # N_43
  4  4    -2.52536398E-02   # N_44
#
BLOCK UMIX  # Chargino Mixing Matrix U
  1  1    -1.84833439E-03   # U_11
  1  2     9.99998292E-01   # U_12
  2  1    -9.99998292E-01   # U_21
  2  2    -1.84833439E-03   # U_22
#
BLOCK VMIX  # Chargino Mixing Matrix V
  1  1     3.57328422E-02   # V_11
  1  2    -9.99361378E-01   # V_12
  2  1    -9.99361378E-01   # V_21
  2  2    -3.57328422E-02   # V_22
#
BLOCK STOPMIX  # Stop Mixing Matrix
  1  1    -5.04070270E-01   # cos(theta_t)
  1  2     8.63662644E-01   # sin(theta_t)
  2  1    -8.63662644E-01   # -sin(theta_t)
  2  2    -5.04070270E-01   # cos(theta_t)
#
BLOCK SBOTMIX  # Sbottom Mixing Matrix
  1  1     9.99437301E-01   # cos(theta_b)
  1  2    -3.35422326E-02   # sin(theta_b)
  2  1     3.35422326E-02   # -sin(theta_b)
  2  2     9.99437301E-01   # cos(theta_b)
#
BLOCK STAUMIX  # Stau Mixing Matrix
  1  1    -1.87277385E-02   # cos(theta_tau)
  1  2     9.99824621E-01   # sin(theta_tau)
  2  1    -9.99824621E-01   # -sin(theta_tau)
  2  2    -1.87277385E-02   # cos(theta_tau)
#
BLOCK ALPHA  # Higgs mixing
          -1.05476747E-01   # Mixing angle in the neutral Higgs boson sector
#
BLOCK HMIX Q=  5.00076815E+03  # DRbar Higgs Parameters
         1    -1.61606597E+02   # mu(Q)MSSM           
         2     9.47036917E+00   # tan                 
         3     2.41675501E+02   # higgs               
         4     8.80096540E+06   # mA^2(Q)MSSM         
#
BLOCK GAUGE Q=  5.00076815E+03  # The gauge couplings
     1     3.71203722E-01   # gprime(Q) DRbar
     2     6.34571891E-01   # g(Q) DRbar
     3     1.00271474E+00   # g3(Q) DRbar
#
BLOCK AU Q=  5.00076815E+03  # The trilinear couplings
  1  1     5.00000001E+03   # A_u(Q) DRbar
  2  2     5.00000001E+03   # A_c(Q) DRbar
  3  3     5.00000001E+03   # A_t(Q) DRbar
#
BLOCK AD Q=  5.00076815E+03  # The trilinear couplings
  1  1     5.00000000E+03   # A_d(Q) DRbar
  2  2     5.00000000E+03   # A_s(Q) DRbar
  3  3     5.00000001E+03   # A_b(Q) DRbar
#
BLOCK AE Q=  5.00076815E+03  # The trilinear couplings
  1  1     0.00000000E+00   # A_e(Q) DRbar
  2  2     9.51598577E-08   # A_mu(Q) DRbar
  3  3     9.44800774E-08   # A_tau(Q) DRbar
#
BLOCK Yu Q=  5.00076815E+03  # The Yukawa couplings
  1  1     0.00000000E+00   # y_u(Q) DRbar
  2  2     0.00000000E+00   # y_c(Q) DRbar
  3  3     8.18428886E-01   # y_t(Q) DRbar
#
BLOCK Yd Q=  5.00076815E+03  # The Yukawa couplings
  1  1     0.00000000E+00   # y_d(Q) DRbar
  2  2     0.00000000E+00   # y_s(Q) DRbar
  3  3     1.29406518E-01   # y_b(Q) DRbar
#
BLOCK Ye Q=  5.00076815E+03  # The Yukawa couplings
  1  1     0.00000000E+00   # y_e(Q) DRbar
  2  2     0.00000000E+00   # y_mu(Q) DRbar
  3  3     9.73832315E-02   # y_tau(Q) DRbar
#
BLOCK MSOFT Q=  5.00076815E+03  # The soft SUSY breaking masses at the scale Q
         1     6.00000000E+01   # M_1(Q)              
         2     3.00000000E+03   # M_2(Q)              
         3     1.21156000E+03   # M_3(Q)              
        21     8.70867152E+06   # mH1^2(Q)            
        22     5.51630087E+05   # mH2^2(Q)            
        31     5.00000000E+03   # meL(Q)              
        32     5.00000000E+03   # mmuL(Q)             
        33     5.00000000E+03   # mtauL(Q)            
        34     5.00000000E+03   # meR(Q)              
        35     5.00000000E+03   # mmuR(Q)             
        36     5.00000000E+03   # mtauR(Q)            
        41     5.00000000E+03   # mqL1(Q)             
        42     5.00000000E+03   # mqL2(Q)             
        43     5.00000000E+03   # mqL3(Q)             
        44     5.00000000E+03   # muR(Q)              
        45     5.00000000E+03   # mcR(Q)              
        46     5.00000000E+03   # mtR(Q)              
        47     5.00000000E+03   # mdR(Q)              
        48     5.00000000E+03   # msR(Q)              
        49     5.00000000E+03   # mbR(Q)              
#
#
#
#                             =================
#                             |The decay table|
#                             =================
#
# - The QCD corrections to the decays gluino -> squark  + quark
#                                     squark -> gaugino + quark_prime
#                                     squark -> squark_prime + Higgs
#                                     squark -> gluino  + quark
#   are included.
#
# - The multi-body decays for the inos, stops and sbottoms are included.
#
# - The loop induced decays for the gluino, neutralinos and stops
#   are included.
#
# - The SUSY decays of the top quark are included.
#
#
#         PDG            Width
DECAY         6     1.41137112E+00   # top decays
#          BR         NDA      ID1       ID2
     1.00000000E+00    2           5        24   # BR(t ->  b    W+)
#
#         PDG            Width
DECAY   1000021     5.29508572E-04   # gluino decays
#          BR         NDA      ID1       ID2
     9.95889398E-05    2     1000022        21   # BR(~g -> ~chi_10 g)
     1.13950946E-02    2     1000023        21   # BR(~g -> ~chi_20 g)
     1.15874383E-02    2     1000025        21   # BR(~g -> ~chi_30 g)
#           BR         NDA      ID1       ID2       ID3
     9.34604548E-03    3     1000022         1        -1   # BR(~g -> ~chi_10 d  db)
     2.02562408E-04    3     1000023         1        -1   # BR(~g -> ~chi_20 d  db)
     5.32818133E-04    3     1000025         1        -1   # BR(~g -> ~chi_30 d  db)
     3.17673703E-02    3     1000022         2        -2   # BR(~g -> ~chi_10 u  ub)
     4.87958643E-04    3     1000023         2        -2   # BR(~g -> ~chi_20 u  ub)
     2.15609218E-03    3     1000025         2        -2   # BR(~g -> ~chi_30 u  ub)
     9.34604548E-03    3     1000022         3        -3   # BR(~g -> ~chi_10 s  sb)
     2.02562408E-04    3     1000023         3        -3   # BR(~g -> ~chi_20 s  sb)
     5.32818133E-04    3     1000025         3        -3   # BR(~g -> ~chi_30 s  sb)
     3.17673703E-02    3     1000022         4        -4   # BR(~g -> ~chi_10 c  cb)
     4.87958643E-04    3     1000023         4        -4   # BR(~g -> ~chi_20 c  cb)
     2.15609218E-03    3     1000025         4        -4   # BR(~g -> ~chi_30 c  cb)
     1.04944877E-02    3     1000022         5        -5   # BR(~g -> ~chi_10 b  bb)
     5.64534386E-03    3     1000023         5        -5   # BR(~g -> ~chi_20 b  bb)
     5.67019224E-03    3     1000025         5        -5   # BR(~g -> ~chi_30 b  bb)
     2.55171408E-02    3     1000022         6        -6   # BR(~g -> ~chi_10 t  tb)
     1.86660989E-01    3     1000023         6        -6   # BR(~g -> ~chi_20 t  tb)
     2.09177529E-01    3     1000025         6        -6   # BR(~g -> ~chi_30 t  tb)
     5.66948344E-05    3     1000024         1        -2   # BR(~g -> ~chi_1+ d  ub)
     5.66948344E-05    3    -1000024         2        -1   # BR(~g -> ~chi_1- u  db)
     5.66948344E-05    3     1000024         3        -4   # BR(~g -> ~chi_1+ s  cb)
     5.66948344E-05    3    -1000024         4        -3   # BR(~g -> ~chi_1- c  sb)
     2.22269861E-01    3     1000024         5        -6   # BR(~g -> ~chi_1+ b  tb)
     2.22269861E-01    3    -1000024         6        -5   # BR(~g -> ~chi_1- t  bb)
#
#         PDG            Width
DECAY   1000006     3.92146307E+02   # stop1 decays
#          BR         NDA      ID1       ID2
     1.85990574E-02    2     1000022         6   # BR(~t_1 -> ~chi_10 t )
     7.88242807E-02    2     1000023         6   # BR(~t_1 -> ~chi_20 t )
     9.06585489E-02    2     1000025         6   # BR(~t_1 -> ~chi_30 t )
     5.22691644E-03    2     1000035         6   # BR(~t_1 -> ~chi_40 t )
     1.23100862E-01    2     1000024         5   # BR(~t_1 -> ~chi_1+ b )
     1.04208385E-02    2     1000037         5   # BR(~t_1 -> ~chi_2+ b )
     6.73169496E-01    2     1000021         6   # BR(~t_1 -> ~g      t )
#
#         PDG            Width
DECAY   2000006     3.93104885E+02   # stop2 decays
#          BR         NDA      ID1       ID2
     1.21022292E-02    2     1000022         6   # BR(~t_2 -> ~chi_10 t )
     9.31189198E-02    2     1000023         6   # BR(~t_2 -> ~chi_20 t )
     7.82569689E-02    2     1000025         6   # BR(~t_2 -> ~chi_30 t )
     1.42309829E-02    2     1000035         6   # BR(~t_2 -> ~chi_40 t )
     5.02989956E-02    2     1000024         5   # BR(~t_2 -> ~chi_1+ b )
     2.83401041E-02    2     1000037         5   # BR(~t_2 -> ~chi_2+ b )
     7.20546446E-01    2     1000021         6   # BR(~t_2 -> ~g      t )
     7.17290578E-04    2     1000006        25   # BR(~t_2 -> ~t_1    h )
     2.38806331E-03    2     1000006        23   # BR(~t_2 -> ~t_1    Z )
#
#         PDG            Width
DECAY   1000005     3.69370147E+02   # sbottom1 decays
#          BR         NDA      ID1       ID2
     2.36668820E-03    2     1000022         5   # BR(~b_1 -> ~chi_10 b )
     2.20887465E-03    2     1000023         5   # BR(~b_1 -> ~chi_20 b )
     2.01344720E-03    2     1000025         5   # BR(~b_1 -> ~chi_30 b )
     2.05731041E-02    2     1000035         5   # BR(~b_1 -> ~chi_40 b )
     1.81569084E-01    2    -1000024         6   # BR(~b_1 -> ~chi_1- t )
     4.13002014E-02    2    -1000037         6   # BR(~b_1 -> ~chi_2- t )
     7.48455995E-01    2     1000021         5   # BR(~b_1 -> ~g      b )
     1.51260523E-03    2     1000006       -24   # BR(~b_1 -> ~t_1    W-)
#
#         PDG            Width
DECAY   2000005     2.85243901E+02   # sbottom2 decays
#          BR         NDA      ID1       ID2
     9.86270329E-03    2     1000022         5   # BR(~b_2 -> ~chi_10 b )
     3.13764352E-03    2     1000023         5   # BR(~b_2 -> ~chi_20 b )
     3.38685844E-03    2     1000025         5   # BR(~b_2 -> ~chi_30 b )
     2.68954302E-05    2     1000035         5   # BR(~b_2 -> ~chi_40 b )
     6.17003604E-03    2    -1000024         6   # BR(~b_2 -> ~chi_1- t )
     5.40111053E-05    2    -1000037         6   # BR(~b_2 -> ~chi_2- t )
     9.77352981E-01    2     1000021         5   # BR(~b_2 -> ~g      b )
     8.87073099E-06    2     1000006       -24   # BR(~b_2 -> ~t_1    W-)
#
#         PDG            Width
DECAY   1000002     3.04610346E+02   # sup_L decays
#          BR         NDA      ID1       ID2
     2.23753085E-03    2     1000022         2   # BR(~u_L -> ~chi_10 u)
     6.40384058E-06    2     1000023         2   # BR(~u_L -> ~chi_20 u)
     2.65044344E-04    2     1000025         2   # BR(~u_L -> ~chi_30 u)
     2.58640844E-02    2     1000035         2   # BR(~u_L -> ~chi_40 u)
     1.64774213E-04    2     1000024         1   # BR(~u_L -> ~chi_1+ d)
     5.16969789E-02    2     1000037         1   # BR(~u_L -> ~chi_2+ d)
     9.19765183E-01    2     1000021         2   # BR(~u_L -> ~g      u)
#
#         PDG            Width
DECAY   2000002     2.90743724E+02   # sup_R decays
#          BR         NDA      ID1       ID2
     3.77609021E-02    2     1000022         2   # BR(~u_R -> ~chi_10 u)
     8.89230295E-04    2     1000023         2   # BR(~u_R -> ~chi_20 u)
     2.39714328E-03    2     1000025         2   # BR(~u_R -> ~chi_30 u)
     2.79518654E-09    2     1000035         2   # BR(~u_R -> ~chi_40 u)
     9.58952721E-01    2     1000021         2   # BR(~u_R -> ~g      u)
#
#         PDG            Width
DECAY   1000001     3.04620650E+02   # sdown_L decays
#          BR         NDA      ID1       ID2
     2.28392585E-03    2     1000022         1   # BR(~d_L -> ~chi_10 d)
     1.45499643E-04    2     1000023         1   # BR(~d_L -> ~chi_20 d)
     5.89694609E-05    2     1000025         1   # BR(~d_L -> ~chi_30 d)
     2.58796586E-02    2     1000035         1   # BR(~d_L -> ~chi_40 d)
     4.40901827E-07    2    -1000024         2   # BR(~d_L -> ~chi_1- u)
     5.17773380E-02    2    -1000037         2   # BR(~d_L -> ~chi_2- u)
     9.19854168E-01    2     1000021         1   # BR(~d_L -> ~g      d)
#
#         PDG            Width
DECAY   2000001     2.81817153E+02   # sdown_R decays
#          BR         NDA      ID1       ID2
     9.73985143E-03    2     1000022         1   # BR(~d_R -> ~chi_10 d)
     2.29363510E-04    2     1000023         1   # BR(~d_R -> ~chi_20 d)
     6.18306866E-04    2     1000025         1   # BR(~d_R -> ~chi_30 d)
     7.21080072E-10    2     1000035         1   # BR(~d_R -> ~chi_40 d)
     9.89412477E-01    2     1000021         1   # BR(~d_R -> ~g      d)
#
#         PDG            Width
DECAY   1000004     3.04610346E+02   # scharm_L decays
#          BR         NDA      ID1       ID2
     2.23753085E-03    2     1000022         4   # BR(~c_L -> ~chi_10 c)
     6.40384058E-06    2     1000023         4   # BR(~c_L -> ~chi_20 c)
     2.65044344E-04    2     1000025         4   # BR(~c_L -> ~chi_30 c)
     2.58640844E-02    2     1000035         4   # BR(~c_L -> ~chi_40 c)
     1.64774213E-04    2     1000024         3   # BR(~c_L -> ~chi_1+ s)
     5.16969789E-02    2     1000037         3   # BR(~c_L -> ~chi_2+ s)
     9.19765183E-01    2     1000021         4   # BR(~c_L -> ~g      c)
#
#         PDG            Width
DECAY   2000004     2.90743724E+02   # scharm_R decays
#          BR         NDA      ID1       ID2
     3.77609021E-02    2     1000022         4   # BR(~c_R -> ~chi_10 c)
     8.89230295E-04    2     1000023         4   # BR(~c_R -> ~chi_20 c)
     2.39714328E-03    2     1000025         4   # BR(~c_R -> ~chi_30 c)
     2.79518654E-09    2     1000035         4   # BR(~c_R -> ~chi_40 c)
     9.58952721E-01    2     1000021         4   # BR(~c_R -> ~g      c)
#
#         PDG            Width
DECAY   1000003     3.04620650E+02   # sstrange_L decays
#          BR         NDA      ID1       ID2
     2.28392585E-03    2     1000022         3   # BR(~s_L -> ~chi_10 s)
     1.45499643E-04    2     1000023         3   # BR(~s_L -> ~chi_20 s)
     5.89694609E-05    2     1000025         3   # BR(~s_L -> ~chi_30 s)
     2.58796586E-02    2     1000035         3   # BR(~s_L -> ~chi_40 s)
     4.40901827E-07    2    -1000024         4   # BR(~s_L -> ~chi_1- c)
     5.17773380E-02    2    -1000037         4   # BR(~s_L -> ~chi_2- c)
     9.19854168E-01    2     1000021         3   # BR(~s_L -> ~g      s)
#
#         PDG            Width
DECAY   2000003     2.81817153E+02   # sstrange_R decays
#          BR         NDA      ID1       ID2
     9.73985143E-03    2     1000022         3   # BR(~s_R -> ~chi_10 s)
     2.29363510E-04    2     1000023         3   # BR(~s_R -> ~chi_20 s)
     6.18306866E-04    2     1000025         3   # BR(~s_R -> ~chi_30 s)
     7.21080072E-10    2     1000035         3   # BR(~s_R -> ~chi_40 s)
     9.89412477E-01    2     1000021         3   # BR(~s_R -> ~g      s)
#
#         PDG            Width
DECAY   1000011     3.04343778E+01   # selectron_L decays
#          BR         NDA      ID1       ID2
     2.07149677E-01    2     1000022        11   # BR(~e_L -> ~chi_10 e-)
     2.99481122E-03    2     1000023        11   # BR(~e_L -> ~chi_20 e-)
     1.65388174E-02    2     1000025        11   # BR(~e_L -> ~chi_30 e-)
     2.57600705E-01    2     1000035        11   # BR(~e_L -> ~chi_40 e-)
     4.50322762E-06    2    -1000024        12   # BR(~e_L -> ~chi_1- nu_e)
     5.15711486E-01    2    -1000037        12   # BR(~e_L -> ~chi_2- nu_e)
#
#         PDG            Width
DECAY   2000011     2.74334179E+01   # selectron_R decays
#          BR         NDA      ID1       ID2
     9.19953026E-01    2     1000022        11   # BR(~e_R -> ~chi_10 e-)
     2.16591741E-02    2     1000023        11   # BR(~e_R -> ~chi_20 e-)
     5.83877339E-02    2     1000025        11   # BR(~e_R -> ~chi_30 e-)
     6.65282938E-08    2     1000035        11   # BR(~e_R -> ~chi_40 e-)
#
#         PDG            Width
DECAY   1000013     3.04343778E+01   # smuon_L decays
#          BR         NDA      ID1       ID2
     2.07149677E-01    2     1000022        13   # BR(~mu_L -> ~chi_10 mu-)
     2.99481122E-03    2     1000023        13   # BR(~mu_L -> ~chi_20 mu-)
     1.65388174E-02    2     1000025        13   # BR(~mu_L -> ~chi_30 mu-)
     2.57600705E-01    2     1000035        13   # BR(~mu_L -> ~chi_40 mu-)
     4.50322762E-06    2    -1000024        14   # BR(~mu_L -> ~chi_1- nu_mu)
     5.15711486E-01    2    -1000037        14   # BR(~mu_L -> ~chi_2- nu_mu)
#
#         PDG            Width
DECAY   2000013     2.74334179E+01   # smuon_R decays
#          BR         NDA      ID1       ID2
     9.19953026E-01    2     1000022        13   # BR(~mu_R -> ~chi_10 mu-)
     2.16591741E-02    2     1000023        13   # BR(~mu_R -> ~chi_20 mu-)
     5.83877339E-02    2     1000025        13   # BR(~mu_R -> ~chi_30 mu-)
     6.65282938E-08    2     1000035        13   # BR(~mu_R -> ~chi_40 mu-)
#
#         PDG            Width
DECAY   1000015     2.93117012E+01   # stau_1 decays
#          BR         NDA      ID1       ID2
     8.63876350E-01    2     1000022        15   # BR(~tau_1 -> ~chi_10  tau-)
     3.51160434E-02    2     1000023        15   # BR(~tau_1 -> ~chi_20  tau-)
     6.86061050E-02    2     1000025        15   # BR(~tau_1 -> ~chi_30  tau-)
     9.58092275E-05    2     1000035        15   # BR(~tau_1 -> ~chi_40  tau-)
     3.21140396E-02    2    -1000024        16   # BR(~tau_1 -> ~chi_1-  nu_tau)
     1.91652619E-04    2    -1000037        16   # BR(~tau_1 -> ~chi_2-  nu_tau)
#
#         PDG            Width
DECAY   2000015     3.13693768E+01   # stau_2 decays
#          BR         NDA      ID1       ID2
     2.02642694E-01    2     1000022        15   # BR(~tau_2 -> ~chi_10  tau-)
     1.75804800E-02    2     1000023        15   # BR(~tau_2 -> ~chi_20  tau-)
     3.00306487E-02    2     1000025        15   # BR(~tau_2 -> ~chi_30  tau-)
     2.49741021E-01    2     1000035        15   # BR(~tau_2 -> ~chi_40  tau-)
     2.85121385E-05    2    -1000024        16   # BR(~tau_2 -> ~chi_1-  nu_tau)
     4.99976644E-01    2    -1000037        16   # BR(~tau_2 -> ~chi_2-  nu_tau)
#
#         PDG            Width
DECAY   1000012     3.04372289E+01   # snu_eL decays
#          BR         NDA      ID1       ID2
     2.08508203E-01    2     1000022        12   # BR(~nu_eL -> ~chi_10 nu_e)
     7.25472498E-03    2     1000023        12   # BR(~nu_eL -> ~chi_20 nu_e)
     1.02211334E-02    2     1000025        12   # BR(~nu_eL -> ~chi_30 nu_e)
     2.57659697E-01    2     1000035        12   # BR(~nu_eL -> ~chi_40 nu_e)
     1.68257474E-03    2     1000024        11   # BR(~nu_eL -> ~chi_1+ e-)
     5.14673667E-01    2     1000037        11   # BR(~nu_eL -> ~chi_2+ e-)
#
#         PDG            Width
DECAY   1000014     3.04372289E+01   # snu_muL decays
#          BR         NDA      ID1       ID2
     2.08508203E-01    2     1000022        14   # BR(~nu_muL -> ~chi_10 nu_mu)
     7.25472498E-03    2     1000023        14   # BR(~nu_muL -> ~chi_20 nu_mu)
     1.02211334E-02    2     1000025        14   # BR(~nu_muL -> ~chi_30 nu_mu)
     2.57659697E-01    2     1000035        14   # BR(~nu_muL -> ~chi_40 nu_mu)
     1.68257474E-03    2     1000024        13   # BR(~nu_muL -> ~chi_1+ mu-)
     5.14673667E-01    2     1000037        13   # BR(~nu_muL -> ~chi_2+ mu-)
#
#         PDG            Width
DECAY   1000016     3.13721125E+01   # snu_tauL decays
#          BR         NDA      ID1       ID2
     2.02272293E-01    2     1000022        16   # BR(~nu_tauL -> ~chi_10 nu_tau)
     7.03775261E-03    2     1000023        16   # BR(~nu_tauL -> ~chi_20 nu_tau)
     9.91544248E-03    2     1000025        16   # BR(~nu_tauL -> ~chi_30 nu_tau)
     2.49887326E-01    2     1000035        16   # BR(~nu_tauL -> ~chi_40 nu_tau)
     3.17388908E-02    2     1000024        15   # BR(~nu_tauL -> ~chi_1+ tau-)
     4.99148295E-01    2     1000037        15   # BR(~nu_tauL -> ~chi_2+ tau-)
#
#         PDG            Width
DECAY   1000024     5.13485580E-02   # chargino1+ decays
#          BR         NDA      ID1       ID2
     1.00000000E+00    2     1000022        24   # BR(~chi_1+ -> ~chi_10  W+)
#
#         PDG            Width
DECAY   1000037     2.34394186E+01   # chargino2+ decays
#          BR         NDA      ID1       ID2
     2.53918683E-01    2     1000024        23   # BR(~chi_2+ -> ~chi_1+  Z )
     1.78488565E-03    2     1000022        24   # BR(~chi_2+ -> ~chi_10  W+)
     2.45155555E-01    2     1000023        24   # BR(~chi_2+ -> ~chi_20  W+)
     2.43636604E-01    2     1000025        24   # BR(~chi_2+ -> ~chi_30  W+)
     2.55448950E-01    2     1000024        25   # BR(~chi_2+ -> ~chi_1+  h )
     5.53228332E-05    2     1000022        37   # BR(~chi_2+ -> ~chi_10  H+)
#
#         PDG            Width
DECAY   1000022     0.00000000E+00   # neutralino1 decays
#
#         PDG            Width
DECAY   1000023     2.13779430E-02   # neutralino2 decays
#          BR         NDA      ID1       ID2
     1.00000000E+00    2     1000022        23   # BR(~chi_20 -> ~chi_10   Z )
#
#         PDG            Width
DECAY   1000025     2.52458252E-02   # neutralino3 decays
#          BR         NDA      ID1       ID2
     1.00000000E+00    2     1000022        23   # BR(~chi_30 -> ~chi_10   Z )
#
#         PDG            Width
DECAY   1000035     2.34502591E+01   # neutralino4 decays
#          BR         NDA      ID1       ID2
     1.72203979E-03    2     1000022        23   # BR(~chi_40 -> ~chi_10   Z )
     1.14749919E-01    2     1000023        23   # BR(~chi_40 -> ~chi_20   Z )
     1.37044190E-01    2     1000025        23   # BR(~chi_40 -> ~chi_30   Z )
     2.45654778E-01    2     1000024       -24   # BR(~chi_40 -> ~chi_1+   W-)
     2.45654778E-01    2    -1000024        24   # BR(~chi_40 -> ~chi_1-   W+)
     1.60988332E-04    2     1000022        25   # BR(~chi_40 -> ~chi_10   h )
     5.27350241E-05    2     1000022        35   # BR(~chi_40 -> ~chi_10   H )
     5.97524071E-06    2     1000022        36   # BR(~chi_40 -> ~chi_10   A )
     1.39344459E-01    2     1000023        25   # BR(~chi_40 -> ~chi_20   h )
     1.15610138E-01    2     1000025        25   # BR(~chi_40 -> ~chi_30   h )
#
#         PDG            Width
DECAY        25     4.08480439E-03   # h decays
#          BR         NDA      ID1       ID2
     6.10095316E-01    2           5        -5   # BR(h -> b       bb     )
     6.34201853E-02    2         -15        15   # BR(h -> tau+    tau-   )
     2.24531261E-04    2         -13        13   # BR(h -> mu+     mu-    )
     4.76118760E-04    2           3        -3   # BR(h -> s       sb     )
     2.06277656E-02    2           4        -4   # BR(h -> c       cb     )
     6.65317803E-02    2          21        21   # BR(h -> g       g      )
     2.27975105E-03    2          22        22   # BR(h -> gam     gam    )
     1.45796982E-03    2          22        23   # BR(h -> Z       gam    )
     2.05177441E-01    2          24       -24   # BR(h -> W+      W-     )
     2.43595710E-02    2          23        23   # BR(h -> Z       Z      )
     5.34957079E-03    2     1000022   1000022   # BR(h -> ~chi_10 ~chi_10)
#
#         PDG            Width
DECAY        35     8.82782808E+00   # H decays
#          BR         NDA      ID1       ID2
     3.58966897E-01    2           5        -5   # BR(H -> b       bb     )
     6.31156641E-02    2         -15        15   # BR(H -> tau+    tau-   )
     2.23182002E-04    2         -13        13   # BR(H -> mu+     mu-    )
     2.73586813E-04    2           3        -3   # BR(H -> s       sb     )
     1.53027015E-06    2           4        -4   # BR(H -> c       cb     )
     1.52886119E-01    2           6        -6   # BR(H -> t       tb     )
     5.08713035E-05    2          21        21   # BR(H -> g       g      )
     1.51789731E-07    2          22        22   # BR(H -> gam     gam    )
     9.01310940E-08    2          23        22   # BR(H -> Z       gam    )
     7.50387603E-05    2          24       -24   # BR(H -> W+      W-     )
     3.74718679E-05    2          23        23   # BR(H -> Z       Z      )
     2.66589692E-04    2          25        25   # BR(H -> h       h      )
     7.92338839E-24    2          36        36   # BR(H -> A       A      )
     9.40546920E-19    2          23        36   # BR(H -> Z       A      )
     3.50291626E-03    2     1000024  -1000024   # BR(H -> ~chi_1+ ~chi_1-)
     6.14507738E-02    2     1000022   1000022   # BR(H -> ~chi_10 ~chi_10)
     1.02236699E-02    2     1000023   1000023   # BR(H -> ~chi_20 ~chi_20)
     2.02301856E-02    2     1000025   1000025   # BR(H -> ~chi_30 ~chi_30)
     1.20890149E-01    2     1000022   1000023   # BR(H -> ~chi_10 ~chi_20)
     1.78627268E-01    2     1000022   1000025   # BR(H -> ~chi_10 ~chi_30)
     2.91778447E-02    2     1000023   1000025   # BR(H -> ~chi_20 ~chi_30)
#
#         PDG            Width
DECAY        36     8.83279897E+00   # A decays
#          BR         NDA      ID1       ID2
     3.58887912E-01    2           5        -5   # BR(A -> b       bb     )
     6.30819621E-02    2         -15        15   # BR(A -> tau+    tau-   )
     2.23062517E-04    2         -13        13   # BR(A -> mu+     mu-    )
     2.73640277E-04    2           3        -3   # BR(A -> s       sb     )
     1.53541912E-06    2           4        -4   # BR(A -> c       cb     )
     1.53315893E-01    2           6        -6   # BR(A -> t       tb     )
     1.51727306E-04    2          21        21   # BR(A -> g       g      )
     5.21067969E-07    2          22        22   # BR(A -> gam     gam    )
     1.83509668E-07    2          23        22   # BR(A -> Z       gam    )
     7.47133659E-05    2          23        25   # BR(A -> Z       h      )
     3.62498322E-03    2     1000024  -1000024   # BR(A -> ~chi_1+ ~chi_1-)
     5.54111307E-02    2     1000022   1000022   # BR(A -> ~chi_10 ~chi_10)
     1.60418130E-02    2     1000023   1000023   # BR(A -> ~chi_20 ~chi_20)
     1.31513016E-02    2     1000025   1000025   # BR(A -> ~chi_30 ~chi_30)
     1.94750594E-01    2     1000022   1000023   # BR(A -> ~chi_10 ~chi_20)
     1.11223979E-01    2     1000022   1000025   # BR(A -> ~chi_10 ~chi_30)
     2.97850478E-02    2     1000023   1000025   # BR(A -> ~chi_20 ~chi_30)
#
#         PDG            Width
DECAY        37     8.76165723E+00   # H+ decays
#          BR         NDA      ID1       ID2
     5.73829099E-04    2           4        -5   # BR(H+ -> c       bb     )
     6.36256510E-02    2         -15        16   # BR(H+ -> tau+    nu_tau )
     2.24985041E-04    2         -13        14   # BR(H+ -> mu+     nu_mu  )
     3.67248680E-06    2           2        -5   # BR(H+ -> u       bb     )
     1.32013049E-05    2           2        -3   # BR(H+ -> u       sb     )
     2.73003467E-04    2           4        -3   # BR(H+ -> c       sb     )
     5.10017235E-01    2           6        -5   # BR(H+ -> t       bb     )
     7.54805837E-05    2          24        25   # BR(H+ -> W+      h      )
     1.08393865E-12    2          24        36   # BR(H+ -> W+      A      )
     3.87442826E-01    2     1000024   1000022   # BR(H+ -> ~chi_1+ ~chi_10)
     5.78483457E-03    2     1000024   1000023   # BR(H+ -> ~chi_1+ ~chi_20)
     3.19652818E-02    2     1000024   1000025   # BR(H+ -> ~chi_1+ ~chi_30)
