#
#                              ======================
#                              | THE SUSYHIT OUTPUT |
#                              ======================
#
#
#              ------------------------------------------------------
#              |     This is the output of the SUSY-HIT package     |
#              |  created by A.Djouadi, M.Muehlleitner and M.Spira. |
#              |  In case of problems with SUSY-HIT email to        |
#              |           margarete.muehlleitner@cern.ch           |
#              |           michael.spira@psi.ch                     |
#              |           abdelhak.djouadi@cern.ch                 |
#              ------------------------------------------------------
#
#              ------------------------------------------------------
#              |  SUSY Les Houches Accord - MSSM Spectrum + Decays  |
#              |              based on the decay programs           |
#              |                                                    |
#              |                     SDECAY 1.3b                    |
#              |                                                    |
#              |  Authors: M.Muhlleitner, A.Djouadi and Y.Mambrini  |
#              |  Ref.:    Comput.Phys.Commun.168(2005)46           |
#              |           [hep-ph/0311167]                         |
#              |                                                    |
#              |                     HDECAY 3.4                     |
#              |                                                    |
#              |  By: A.Djouadi,J.Kalinowski,M.Muhlleitner,M.Spira  |
#              |  Ref.:    Comput.Phys.Commun.108(1998)56           |
#              |           [hep-ph/9704448]                         |
#              |                                                    |
#              |                                                    |
#              |  If not stated otherwise all DRbar couplings and   |
#              |  soft SUSY breaking masses are given at the scale  |
#              |  Q=  0.50007434E+04
#              |                                                    |
#              ------------------------------------------------------
#
#
BLOCK DCINFO  # Decay Program information
     1   SDECAY/HDECAY # decay calculator
     2   1.3b  /3.4    # version number
#
BLOCK SPINFO  # Spectrum calculator information
     1    SOFTSUSY    # spectrum calculator                
     2    3.4.0       # version number                     
#
BLOCK MODSEL  # Model selection
     1     0   #  nonUniversal                                     
#
BLOCK SMINPUTS  # Standard Model inputs
         1     1.25778332E+02   # alpha_em^-1(M_Z)^MSbar
         2     1.16570000E-05   # G_F [GeV^-2]
         3     1.17200002E-01   # alpha_S(M_Z)^MSbar
         4     9.11876000E+01   # M_Z pole mass
         5     4.25000000E+00   # mb(mb)^MSbar
         6     1.72500000E+02   # mt pole mass
         7     1.77682000E+00   # mtau pole mass
#
BLOCK MINPAR  # Input parameters - minimal models
         3     1.00000000E+01   # tanb                
#
BLOCK EXTPAR  # Input parameters - non-minimal models
         0    -1.00000000E+00   # Set                 
         1     6.00000000E+01   # M_1(MX)             
         2     3.00000000E+03   # M_2(MX)             
         3     7.73141000E+02   # M_3(MX)             
        11     5.00000000E+03   # At(MX)              
        12     5.00000000E+03   # Ab(MX)              
        13     0.00000000E+00   # Atau(MX)            
        23    -5.71623000E+02   # mu(MX)              
        26     3.00000000E+03   # mA(pole)            
        31     5.00000000E+03   # meL(MX)             
        32     5.00000000E+03   # mmuL(MX)            
        33     5.00000000E+03   # mtauL(MX)           
        34     5.00000000E+03   # meR(MX)             
        35     5.00000000E+03   # mmuR(MX)            
        36     5.00000000E+03   # mtauR(MX)           
        41     5.00000000E+03   # mqL1(MX)            
        42     5.00000000E+03   # mqL2(MX)            
        43     5.00000000E+03   # mqL3(MX)            
        44     5.00000000E+03   # muR(MX)             
        45     5.00000000E+03   # mcR(MX)             
        46     5.00000000E+03   # mtR(MX)             
        47     5.00000000E+03   # mdR(MX)             
        48     5.00000000E+03   # msR(MX)             
        49     5.00000000E+03   # mbR(MX)             
#
BLOCK MASS  # Mass Spectrum
# PDG code           mass       particle
        24     8.00907525E+01   # W+
        25     1.24302231E+02   # h
        35     3.00008403E+03   # H
        36     2.99999916E+03   # A
        37     3.00140237E+03   # H+
         5     4.87878001E+00   # b-quark pole mass calculated from mb(mb)_Msbar
   1000001     5.06382690E+03   # ~d_L
   2000001     5.04596245E+03   # ~d_R
   1000002     5.06334933E+03   # ~u_L
   2000002     5.04566424E+03   # ~u_R
   1000003     5.06382690E+03   # ~s_L
   2000003     5.04596245E+03   # ~s_R
   1000004     5.06334933E+03   # ~c_L
   2000004     5.04566424E+03   # ~c_R
   1000005     5.01028394E+03   # ~b_1
   2000005     5.04430365E+03   # ~b_2
   1000006     4.90076876E+03   # ~t_1
   2000006     5.05544141E+03   # ~t_2
   1000011     5.01910145E+03   # ~e_L
   2000011     5.00593983E+03   # ~e_R
   1000012     5.01815101E+03   # ~nu_eL
   1000013     5.01910145E+03   # ~mu_L
   2000013     5.00593983E+03   # ~mu_R
   1000014     5.01815101E+03   # ~nu_muL
   1000015     5.00474871E+03   # ~tau_1
   2000015     5.01865243E+03   # ~tau_2
   1000016     5.01760023E+03   # ~nu_tauL
   1000021     1.00000051E+03   # ~g
   1000022     6.02507410E+01   # ~chi_10
   1000023     6.00198210E+02   # ~chi_20
   1000025    -6.02419796E+02   # ~chi_30
   1000035     3.07419152E+03   # ~chi_40
   1000024     6.00000839E+02   # ~chi_1+
   1000037     3.07435923E+03   # ~chi_2+
#
BLOCK NMIX  # Neutralino Mixing Matrix
  1  1     9.97247959E-01   # N_11
  1  2     2.26974944E-04   # N_12
  1  3    -7.41377010E-02   # N_13
  1  4     2.39277917E-04   # N_14
  2  1     5.22814790E-02   # N_21
  2  2     1.97592830E-02   # N_22
  2  3     7.05593920E-01   # N_23
  2  4     7.06408832E-01   # N_24
  3  1    -5.25642728E-02   # N_31
  3  2     1.65525742E-02   # N_32
  3  3    -7.04723853E-01   # N_33
  3  4     7.07338180E-01   # N_34
  4  1    -3.89450227E-04   # N_41
  4  2     9.99667711E-01   # N_42
  4  3    -2.26096002E-03   # N_43
  4  4    -2.56749856E-02   # N_44
#
BLOCK UMIX  # Chargino Mixing Matrix U
  1  1     3.20460682E-03   # U_11
  1  2     9.99994865E-01   # U_12
  2  1    -9.99994865E-01   # U_21
  2  2     3.20460682E-03   # U_22
#
BLOCK VMIX  # Chargino Mixing Matrix V
  1  1     3.63338321E-02   # V_11
  1  2    -9.99339708E-01   # V_12
  2  1    -9.99339708E-01   # V_21
  2  2    -3.63338321E-02   # V_22
#
BLOCK STOPMIX  # Stop Mixing Matrix
  1  1    -5.07896995E-01   # cos(theta_t)
  1  2     8.61417809E-01   # sin(theta_t)
  2  1    -8.61417809E-01   # -sin(theta_t)
  2  2    -5.07896995E-01   # cos(theta_t)
#
BLOCK SBOTMIX  # Sbottom Mixing Matrix
  1  1     9.98432536E-01   # cos(theta_b)
  1  2    -5.59684827E-02   # sin(theta_b)
  2  1     5.59684827E-02   # -sin(theta_b)
  2  2     9.98432536E-01   # cos(theta_b)
#
BLOCK STAUMIX  # Stau Mixing Matrix
  1  1    -6.84724936E-02   # cos(theta_tau)
  1  2     9.97653005E-01   # sin(theta_tau)
  2  1    -9.97653005E-01   # -sin(theta_tau)
  2  2    -6.84724936E-02   # cos(theta_tau)
#
BLOCK ALPHA  # Higgs mixing
          -1.05431704E-01   # Mixing angle in the neutral Higgs boson sector
#
BLOCK HMIX Q=  5.00074339E+03  # DRbar Higgs Parameters
         1    -5.81774556E+02   # mu(Q)MSSM           
         2     9.47388967E+00   # tan                 
         3     2.41843180E+02   # higgs               
         4     8.63903584E+06   # mA^2(Q)MSSM         
#
BLOCK GAUGE Q=  5.00074339E+03  # The gauge couplings
     1     3.70933853E-01   # gprime(Q) DRbar
     2     6.33173973E-01   # g(Q) DRbar
     3     1.00864590E+00   # g3(Q) DRbar
#
BLOCK AU Q=  5.00074339E+03  # The trilinear couplings
  1  1     5.00000001E+03   # A_u(Q) DRbar
  2  2     5.00000001E+03   # A_c(Q) DRbar
  3  3     5.00000001E+03   # A_t(Q) DRbar
#
BLOCK AD Q=  5.00074339E+03  # The trilinear couplings
  1  1     5.00000000E+03   # A_d(Q) DRbar
  2  2     5.00000000E+03   # A_s(Q) DRbar
  3  3     5.00000001E+03   # A_b(Q) DRbar
#
BLOCK AE Q=  5.00074339E+03  # The trilinear couplings
  1  1     0.00000000E+00   # A_e(Q) DRbar
  2  2     1.62717696E-08   # A_mu(Q) DRbar
  3  3     1.52894741E-08   # A_tau(Q) DRbar
#
BLOCK Yu Q=  5.00074339E+03  # The Yukawa couplings
  1  1     0.00000000E+00   # y_u(Q) DRbar
  2  2     0.00000000E+00   # y_c(Q) DRbar
  3  3     8.14425514E-01   # y_t(Q) DRbar
#
BLOCK Yd Q=  5.00074339E+03  # The Yukawa couplings
  1  1     0.00000000E+00   # y_d(Q) DRbar
  2  2     0.00000000E+00   # y_s(Q) DRbar
  3  3     1.29114856E-01   # y_b(Q) DRbar
#
BLOCK Ye Q=  5.00074339E+03  # The Yukawa couplings
  1  1     0.00000000E+00   # y_e(Q) DRbar
  2  2     0.00000000E+00   # y_mu(Q) DRbar
  3  3     9.70946594E-02   # y_tau(Q) DRbar
#
BLOCK MSOFT Q=  5.00074339E+03  # The soft SUSY breaking masses at the scale Q
         1     6.00000000E+01   # M_1(Q)              
         2     3.00000000E+03   # M_2(Q)              
         3     7.73141000E+02   # M_3(Q)              
        21     8.38057108E+06   # mH1^2(Q)            
        22     2.30460121E+05   # mH2^2(Q)            
        31     5.00000000E+03   # meL(Q)              
        32     5.00000000E+03   # mmuL(Q)             
        33     5.00000000E+03   # mtauL(Q)            
        34     5.00000000E+03   # meR(Q)              
        35     5.00000000E+03   # mmuR(Q)             
        36     5.00000000E+03   # mtauR(Q)            
        41     5.00000000E+03   # mqL1(Q)             
        42     5.00000000E+03   # mqL2(Q)             
        43     5.00000000E+03   # mqL3(Q)             
        44     5.00000000E+03   # muR(Q)              
        45     5.00000000E+03   # mcR(Q)              
        46     5.00000000E+03   # mtR(Q)              
        47     5.00000000E+03   # mdR(Q)              
        48     5.00000000E+03   # msR(Q)              
        49     5.00000000E+03   # mbR(Q)              
#
#
#
#                             =================
#                             |The decay table|
#                             =================
#
# - The QCD corrections to the decays gluino -> squark  + quark
#                                     squark -> gaugino + quark_prime
#                                     squark -> squark_prime + Higgs
#                                     squark -> gluino  + quark
#   are included.
#
# - The multi-body decays for the inos, stops and sbottoms are included.
#
# - The loop induced decays for the gluino, neutralinos and stops
#   are included.
#
# - The SUSY decays of the top quark are included.
#
#
#         PDG            Width
DECAY         6     1.40510818E+00   # top decays
#          BR         NDA      ID1       ID2
     1.00000000E+00    2           5        24   # BR(t ->  b    W+)
#
#         PDG            Width
DECAY   1000021     1.04869693E-05   # gluino decays
#          BR         NDA      ID1       ID2
     8.06710704E-06    2     1000022        21   # BR(~g -> ~chi_10 g)
     4.66397550E-02    2     1000023        21   # BR(~g -> ~chi_20 g)
     4.50579092E-02    2     1000025        21   # BR(~g -> ~chi_30 g)
#           BR         NDA      ID1       ID2       ID3
     6.63943262E-02    3     1000022         1        -1   # BR(~g -> ~chi_10 d  db)
     1.61394209E-05    3     1000023         1        -1   # BR(~g -> ~chi_20 d  db)
     1.26049173E-05    3     1000025         1        -1   # BR(~g -> ~chi_30 d  db)
     2.26387434E-01    3     1000022         2        -2   # BR(~g -> ~chi_10 u  ub)
     8.13204050E-05    3     1000023         2        -2   # BR(~g -> ~chi_20 u  ub)
     1.92400394E-05    3     1000025         2        -2   # BR(~g -> ~chi_30 u  ub)
     6.63943262E-02    3     1000022         3        -3   # BR(~g -> ~chi_10 s  sb)
     1.61394209E-05    3     1000023         3        -3   # BR(~g -> ~chi_20 s  sb)
     1.26049173E-05    3     1000025         3        -3   # BR(~g -> ~chi_30 s  sb)
     2.26387434E-01    3     1000022         4        -4   # BR(~g -> ~chi_10 c  cb)
     8.13204050E-05    3     1000023         4        -4   # BR(~g -> ~chi_20 c  cb)
     1.92400394E-05    3     1000025         4        -4   # BR(~g -> ~chi_30 c  cb)
     6.77375237E-02    3     1000022         5        -5   # BR(~g -> ~chi_10 b  bb)
     2.73513551E-03    3     1000023         5        -5   # BR(~g -> ~chi_20 b  bb)
     2.65274446E-03    3     1000025         5        -5   # BR(~g -> ~chi_30 b  bb)
     1.45630644E-01    3     1000022         6        -6   # BR(~g -> ~chi_10 t  tb)
     8.72170266E-03    3     1000023         6        -6   # BR(~g -> ~chi_20 t  tb)
     2.58981807E-03    3     1000025         6        -6   # BR(~g -> ~chi_30 t  tb)
     3.07851979E-05    3     1000024         1        -2   # BR(~g -> ~chi_1+ d  ub)
     3.07851979E-05    3    -1000024         2        -1   # BR(~g -> ~chi_1- u  db)
     3.07851979E-05    3     1000024         3        -4   # BR(~g -> ~chi_1+ s  cb)
     3.07851979E-05    3    -1000024         4        -3   # BR(~g -> ~chi_1- c  sb)
     4.61407149E-02    3     1000024         5        -6   # BR(~g -> ~chi_1+ b  tb)
     4.61407149E-02    3    -1000024         6        -5   # BR(~g -> ~chi_1- t  bb)
#
#         PDG            Width
DECAY   1000006     4.21869693E+02   # stop1 decays
#          BR         NDA      ID1       ID2
     2.07593161E-02    2     1000022         6   # BR(~t_1 -> ~chi_10 t )
     7.60894318E-02    2     1000023         6   # BR(~t_1 -> ~chi_20 t )
     7.23595498E-02    2     1000025         6   # BR(~t_1 -> ~chi_30 t )
     4.94284548E-03    2     1000035         6   # BR(~t_1 -> ~chi_40 t )
     1.09417643E-01    2     1000024         5   # BR(~t_1 -> ~chi_1+ b )
     9.85309488E-03    2     1000037         5   # BR(~t_1 -> ~chi_2+ b )
     7.06578119E-01    2     1000021         6   # BR(~t_1 -> ~g      t )
#
#         PDG            Width
DECAY   2000006     4.20982860E+02   # stop2 decays
#          BR         NDA      ID1       ID2
     8.48397590E-03    2     1000022         6   # BR(~t_2 -> ~chi_10 t )
     7.66673524E-02    2     1000023         6   # BR(~t_2 -> ~chi_20 t )
     8.08317816E-02    2     1000025         6   # BR(~t_2 -> ~chi_30 t )
     1.30759380E-02    2     1000035         6   # BR(~t_2 -> ~chi_40 t )
     4.63946272E-02    2     1000024         5   # BR(~t_2 -> ~chi_1+ b )
     2.60342445E-02    2     1000037         5   # BR(~t_2 -> ~chi_2+ b )
     7.45500926E-01    2     1000021         6   # BR(~t_2 -> ~g      t )
     6.80826367E-04    2     1000006        25   # BR(~t_2 -> ~t_1    h )
     2.33032844E-03    2     1000006        23   # BR(~t_2 -> ~t_1    Z )
#
#         PDG            Width
DECAY   1000005     3.98830458E+02   # sbottom1 decays
#          BR         NDA      ID1       ID2
     1.94927031E-03    2     1000022         5   # BR(~b_1 -> ~chi_10 b )
     2.03099975E-03    2     1000023         5   # BR(~b_1 -> ~chi_20 b )
     2.01590168E-03    2     1000025         5   # BR(~b_1 -> ~chi_30 b )
     1.88777597E-02    2     1000035         5   # BR(~b_1 -> ~chi_40 b )
     1.62034922E-01    2    -1000024         6   # BR(~b_1 -> ~chi_1- t )
     3.79040743E-02    2    -1000037         6   # BR(~b_1 -> ~chi_2- t )
     7.73766315E-01    2     1000021         5   # BR(~b_1 -> ~g      b )
     1.42075670E-03    2     1000006       -24   # BR(~b_1 -> ~t_1    W-)
#
#         PDG            Width
DECAY   2000005     3.17318780E+02   # sbottom2 decays
#          BR         NDA      ID1       ID2
     9.26469615E-03    2     1000022         5   # BR(~b_2 -> ~chi_10 b )
     2.62014526E-03    2     1000023         5   # BR(~b_2 -> ~chi_20 b )
     2.66342454E-03    2     1000025         5   # BR(~b_2 -> ~chi_30 b )
     7.51063374E-05    2     1000035         5   # BR(~b_2 -> ~chi_40 b )
     5.79614386E-03    2    -1000024         6   # BR(~b_2 -> ~chi_1- t )
     1.50801218E-04    2    -1000037         6   # BR(~b_2 -> ~chi_2- t )
     9.79407153E-01    2     1000021         5   # BR(~b_2 -> ~g      b )
     2.25300214E-05    2     1000006       -24   # BR(~b_2 -> ~t_1    W-)
#
#         PDG            Width
DECAY   1000002     3.36327574E+02   # sup_L decays
#          BR         NDA      ID1       ID2
     2.21712929E-03    2     1000022         2   # BR(~u_L -> ~chi_10 u)
     5.09491138E-05    2     1000023         2   # BR(~u_L -> ~chi_20 u)
     2.24247970E-06    2     1000025         2   # BR(~u_L -> ~chi_30 u)
     2.32576390E-02    2     1000035         2   # BR(~u_L -> ~chi_40 u)
     1.49782818E-04    2     1000024         1   # BR(~u_L -> ~chi_1+ d)
     4.64859389E-02    2     1000037         1   # BR(~u_L -> ~chi_2+ d)
     9.27836318E-01    2     1000021         2   # BR(~u_L -> ~g      u)
#
#         PDG            Width
DECAY   2000002     3.22714942E+02   # sup_R decays
#          BR         NDA      ID1       ID2
     3.67551822E-02    2     1000022         2   # BR(~u_R -> ~chi_10 u)
     9.82326250E-05    2     1000023         2   # BR(~u_R -> ~chi_20 u)
     9.92770450E-05    2     1000025         2   # BR(~u_R -> ~chi_30 u)
     2.21883324E-09    2     1000035         2   # BR(~u_R -> ~chi_40 u)
     9.63047306E-01    2     1000021         2   # BR(~u_R -> ~g      u)
#
#         PDG            Width
DECAY   1000001     3.36336218E+02   # sdown_L decays
#          BR         NDA      ID1       ID2
     2.20696888E-03    2     1000022         1   # BR(~d_L -> ~chi_10 d)
     5.17404464E-06    2     1000023         1   # BR(~d_L -> ~chi_20 d)
     4.07913858E-05    2     1000025         1   # BR(~d_L -> ~chi_30 d)
     2.32714088E-02    2     1000035         1   # BR(~d_L -> ~chi_40 d)
     1.16525587E-06    2    -1000024         2   # BR(~d_L -> ~chi_1- u)
     4.65602998E-02    2    -1000037         2   # BR(~d_L -> ~chi_2- u)
     9.27914192E-01    2     1000021         1   # BR(~d_L -> ~g      d)
#
#         PDG            Width
DECAY   2000001     3.13792601E+02   # sdown_R decays
#          BR         NDA      ID1       ID2
     9.45062882E-03    2     1000022         1   # BR(~d_R -> ~chi_10 d)
     2.52580209E-05    2     1000023         1   # BR(~d_R -> ~chi_20 d)
     2.55265676E-05    2     1000025         1   # BR(~d_R -> ~chi_30 d)
     5.70593692E-10    2     1000035         1   # BR(~d_R -> ~chi_40 d)
     9.90498586E-01    2     1000021         1   # BR(~d_R -> ~g      d)
#
#         PDG            Width
DECAY   1000004     3.36327574E+02   # scharm_L decays
#          BR         NDA      ID1       ID2
     2.21712929E-03    2     1000022         4   # BR(~c_L -> ~chi_10 c)
     5.09491138E-05    2     1000023         4   # BR(~c_L -> ~chi_20 c)
     2.24247970E-06    2     1000025         4   # BR(~c_L -> ~chi_30 c)
     2.32576390E-02    2     1000035         4   # BR(~c_L -> ~chi_40 c)
     1.49782818E-04    2     1000024         3   # BR(~c_L -> ~chi_1+ s)
     4.64859389E-02    2     1000037         3   # BR(~c_L -> ~chi_2+ s)
     9.27836318E-01    2     1000021         4   # BR(~c_L -> ~g      c)
#
#         PDG            Width
DECAY   2000004     3.22714942E+02   # scharm_R decays
#          BR         NDA      ID1       ID2
     3.67551822E-02    2     1000022         4   # BR(~c_R -> ~chi_10 c)
     9.82326250E-05    2     1000023         4   # BR(~c_R -> ~chi_20 c)
     9.92770450E-05    2     1000025         4   # BR(~c_R -> ~chi_30 c)
     2.21883324E-09    2     1000035         4   # BR(~c_R -> ~chi_40 c)
     9.63047306E-01    2     1000021         4   # BR(~c_R -> ~g      c)
#
#         PDG            Width
DECAY   1000003     3.36336218E+02   # sstrange_L decays
#          BR         NDA      ID1       ID2
     2.20696888E-03    2     1000022         3   # BR(~s_L -> ~chi_10 s)
     5.17404464E-06    2     1000023         3   # BR(~s_L -> ~chi_20 s)
     4.07913858E-05    2     1000025         3   # BR(~s_L -> ~chi_30 s)
     2.32714088E-02    2     1000035         3   # BR(~s_L -> ~chi_40 s)
     1.16525587E-06    2    -1000024         4   # BR(~s_L -> ~chi_1- c)
     4.65602998E-02    2    -1000037         4   # BR(~s_L -> ~chi_2- c)
     9.27914192E-01    2     1000021         3   # BR(~s_L -> ~g      s)
#
#         PDG            Width
DECAY   2000003     3.13792601E+02   # sstrange_R decays
#          BR         NDA      ID1       ID2
     9.45062882E-03    2     1000022         3   # BR(~s_R -> ~chi_10 s)
     2.52580209E-05    2     1000023         3   # BR(~s_R -> ~chi_20 s)
     2.55265676E-05    2     1000025         3   # BR(~s_R -> ~chi_30 s)
     5.70593692E-10    2     1000035         3   # BR(~s_R -> ~chi_40 s)
     9.90498586E-01    2     1000021         3   # BR(~s_R -> ~g      s)
#
#         PDG            Width
DECAY   1000011     3.03221368E+01   # selectron_L decays
#          BR         NDA      ID1       ID2
     2.25412392E-01    2     1000022        11   # BR(~e_L -> ~chi_10 e-)
     1.62834714E-03    2     1000023        11   # BR(~e_L -> ~chi_20 e-)
     1.30048878E-04    2     1000025        11   # BR(~e_L -> ~chi_30 e-)
     2.57437088E-01    2     1000035        11   # BR(~e_L -> ~chi_40 e-)
     1.31731516E-05    2    -1000024        12   # BR(~e_L -> ~chi_1- nu_e)
     5.15378950E-01    2    -1000037        12   # BR(~e_L -> ~chi_2- nu_e)
#
#         PDG            Width
DECAY   2000011     2.73933477E+01   # selectron_R decays
#          BR         NDA      ID1       ID2
     9.94658674E-01    2     1000022        11   # BR(~e_R -> ~chi_10 e-)
     2.65651607E-03    2     1000023        11   # BR(~e_R -> ~chi_20 e-)
     2.68475140E-03    2     1000025        11   # BR(~e_R -> ~chi_30 e-)
     5.88698516E-08    2     1000035        11   # BR(~e_R -> ~chi_40 e-)
#
#         PDG            Width
DECAY   1000013     3.03221368E+01   # smuon_L decays
#          BR         NDA      ID1       ID2
     2.25412392E-01    2     1000022        13   # BR(~mu_L -> ~chi_10 mu-)
     1.62834714E-03    2     1000023        13   # BR(~mu_L -> ~chi_20 mu-)
     1.30048878E-04    2     1000025        13   # BR(~mu_L -> ~chi_30 mu-)
     2.57437088E-01    2     1000035        13   # BR(~mu_L -> ~chi_40 mu-)
     1.31731516E-05    2    -1000024        14   # BR(~mu_L -> ~chi_1- nu_mu)
     5.15378950E-01    2    -1000037        14   # BR(~mu_L -> ~chi_2- nu_mu)
#
#         PDG            Width
DECAY   2000013     2.73933477E+01   # smuon_R decays
#          BR         NDA      ID1       ID2
     9.94658674E-01    2     1000022        13   # BR(~mu_R -> ~chi_10 mu-)
     2.65651607E-03    2     1000023        13   # BR(~mu_R -> ~chi_20 mu-)
     2.68475140E-03    2     1000025        13   # BR(~mu_R -> ~chi_30 mu-)
     5.88698516E-08    2     1000035        13   # BR(~mu_R -> ~chi_40 mu-)
#
#         PDG            Width
DECAY   1000015     2.92219494E+01   # stau_1 decays
#          BR         NDA      ID1       ID2
     9.29969371E-01    2     1000022        15   # BR(~tau_1 -> ~chi_10  tau-)
     1.78695438E-02    2     1000023        15   # BR(~tau_1 -> ~chi_20  tau-)
     1.73437530E-02    2     1000025        15   # BR(~tau_1 -> ~chi_30  tau-)
     1.22264098E-03    2     1000035        15   # BR(~tau_1 -> ~chi_40  tau-)
     3.11471880E-02    2    -1000024        16   # BR(~tau_1 -> ~chi_1-  nu_tau)
     2.44750344E-03    2    -1000037        16   # BR(~tau_1 -> ~chi_2-  nu_tau)
#
#         PDG            Width
DECAY   2000015     3.12168279E+01   # stau_2 decays
#          BR         NDA      ID1       ID2
     2.21352375E-01    2     1000022        15   # BR(~tau_2 -> ~chi_10  tau-)
     1.63126010E-02    2     1000023        15   # BR(~tau_2 -> ~chi_20  tau-)
     1.52986531E-02    2     1000025        15   # BR(~tau_2 -> ~chi_30  tau-)
     2.48827151E-01    2     1000035        15   # BR(~tau_2 -> ~chi_40  tau-)
     6.64436712E-05    2    -1000024        16   # BR(~tau_2 -> ~chi_1-  nu_tau)
     4.98142777E-01    2    -1000037        16   # BR(~tau_2 -> ~chi_2-  nu_tau)
#
#         PDG            Width
DECAY   1000012     3.03252962E+01   # snu_eL decays
#          BR         NDA      ID1       ID2
     2.24996278E-01    2     1000022        12   # BR(~nu_eL -> ~chi_10 nu_e)
     7.57427530E-05    2     1000023        12   # BR(~nu_eL -> ~chi_20 nu_e)
     1.43697964E-03    2     1000025        12   # BR(~nu_eL -> ~chi_30 nu_e)
     2.57479411E-01    2     1000035        12   # BR(~nu_eL -> ~chi_40 nu_e)
     1.69289618E-03    2     1000024        11   # BR(~nu_eL -> ~chi_1+ e-)
     5.14318693E-01    2     1000037        11   # BR(~nu_eL -> ~chi_2+ e-)
#
#         PDG            Width
DECAY   1000014     3.03252962E+01   # snu_muL decays
#          BR         NDA      ID1       ID2
     2.24996278E-01    2     1000022        14   # BR(~nu_muL -> ~chi_10 nu_mu)
     7.57427530E-05    2     1000023        14   # BR(~nu_muL -> ~chi_20 nu_mu)
     1.43697964E-03    2     1000025        14   # BR(~nu_muL -> ~chi_30 nu_mu)
     2.57479411E-01    2     1000035        14   # BR(~nu_muL -> ~chi_40 nu_mu)
     1.69289618E-03    2     1000024        13   # BR(~nu_muL -> ~chi_1+ mu-)
     5.14318693E-01    2     1000037        13   # BR(~nu_muL -> ~chi_2+ mu-)
#
#         PDG            Width
DECAY   1000016     3.12301424E+01   # snu_tauL decays
#          BR         NDA      ID1       ID2
     2.18453358E-01    2     1000022        16   # BR(~nu_tauL -> ~chi_10 nu_tau)
     7.35396801E-05    2     1000023        16   # BR(~nu_tauL -> ~chi_20 nu_tau)
     1.39518322E-03    2     1000025        16   # BR(~nu_tauL -> ~chi_30 nu_tau)
     2.49925950E-01    2     1000035        16   # BR(~nu_tauL -> ~chi_40 nu_tau)
     3.09219826E-02    2     1000024        15   # BR(~nu_tauL -> ~chi_1+ tau-)
     4.99229987E-01    2     1000037        15   # BR(~nu_tauL -> ~chi_2+ tau-)
#
#         PDG            Width
DECAY   1000024     3.57663682E-01   # chargino1+ decays
#          BR         NDA      ID1       ID2
     1.00000000E+00    2     1000022        24   # BR(~chi_1+ -> ~chi_10  W+)
#
#         PDG            Width
DECAY   1000037     2.18242106E+01   # chargino2+ decays
#          BR         NDA      ID1       ID2
     2.53523642E-01    2     1000024        23   # BR(~chi_2+ -> ~chi_1+  Z )
     1.69236243E-04    2     1000022        24   # BR(~chi_2+ -> ~chi_10  W+)
     2.44796569E-01    2     1000023        24   # BR(~chi_2+ -> ~chi_20  W+)
     2.44368947E-01    2     1000025        24   # BR(~chi_2+ -> ~chi_30  W+)
     2.57138056E-01    2     1000024        25   # BR(~chi_2+ -> ~chi_1+  h )
     3.54982666E-06    2     1000022        37   # BR(~chi_2+ -> ~chi_10  H+)
#
#         PDG            Width
DECAY   1000022     0.00000000E+00   # neutralino1 decays
#
#         PDG            Width
DECAY   1000023     3.66428757E-01   # neutralino2 decays
#          BR         NDA      ID1       ID2
     5.13978076E-01    2     1000022        23   # BR(~chi_20 -> ~chi_10   Z )
     4.86021924E-01    2     1000022        25   # BR(~chi_20 -> ~chi_10   h )
#
#         PDG            Width
DECAY   1000025     3.62078256E-01   # neutralino3 decays
#          BR         NDA      ID1       ID2
     5.03939760E-01    2     1000022        23   # BR(~chi_30 -> ~chi_10   Z )
     4.96060240E-01    2     1000022        25   # BR(~chi_30 -> ~chi_10   h )
#
#         PDG            Width
DECAY   1000035     2.18377929E+01   # neutralino4 decays
#          BR         NDA      ID1       ID2
     1.29253235E-05    2     1000022        23   # BR(~chi_40 -> ~chi_10   Z )
     1.04466735E-01    2     1000023        23   # BR(~chi_40 -> ~chi_20   Z )
     1.48520444E-01    2     1000025        23   # BR(~chi_40 -> ~chi_30   Z )
     2.45132297E-01    2     1000024       -24   # BR(~chi_40 -> ~chi_1+   W-)
     2.45132297E-01    2    -1000024        24   # BR(~chi_40 -> ~chi_1-   W+)
     1.51293591E-04    2     1000022        25   # BR(~chi_40 -> ~chi_10   h )
     3.40321635E-06    2     1000022        35   # BR(~chi_40 -> ~chi_10   H )
     3.79505777E-07    2     1000022        36   # BR(~chi_40 -> ~chi_10   A )
     1.51881173E-01    2     1000023        25   # BR(~chi_40 -> ~chi_20   h )
     1.04699053E-01    2     1000025        25   # BR(~chi_40 -> ~chi_30   h )
#
#         PDG            Width
DECAY        25     4.02187619E-03   # h decays
#          BR         NDA      ID1       ID2
     6.17818254E-01    2           5        -5   # BR(h -> b       bb     )
     6.42491857E-02    2         -15        15   # BR(h -> tau+    tau-   )
     2.27467574E-04    2         -13        13   # BR(h -> mu+     mu-    )
     4.82573213E-04    2           3        -3   # BR(h -> s       sb     )
     2.09098484E-02    2           4        -4   # BR(h -> c       cb     )
     6.70942096E-02    2          21        21   # BR(h -> g       g      )
     2.29552735E-03    2          22        22   # BR(h -> gam     gam    )
     1.44090496E-03    2          22        23   # BR(h -> Z       gam    )
     2.01591546E-01    2          24       -24   # BR(h -> W+      W-     )
     2.38173382E-02    2          23        23   # BR(h -> Z       Z      )
     7.31453930E-05    2     1000022   1000022   # BR(h -> ~chi_10 ~chi_10)
#
#         PDG            Width
DECAY        35     8.58206489E+00   # H decays
#          BR         NDA      ID1       ID2
     3.73152934E-01    2           5        -5   # BR(H -> b       bb     )
     6.49713022E-02    2         -15        15   # BR(H -> tau+    tau-   )
     2.29743685E-04    2         -13        13   # BR(H -> mu+     mu-    )
     2.81630585E-04    2           3        -3   # BR(H -> s       sb     )
     1.57273686E-06    2           4        -4   # BR(H -> c       cb     )
     1.57128872E-01    2           6        -6   # BR(H -> t       tb     )
     5.22233961E-05    2          21        21   # BR(H -> g       g      )
     1.64055626E-07    2          22        22   # BR(H -> gam     gam    )
     9.26336661E-08    2          23        22   # BR(H -> Z       gam    )
     7.37139204E-05    2          24       -24   # BR(H -> W+      W-     )
     3.68102912E-05    2          23        23   # BR(H -> Z       Z      )
     2.71085638E-04    2          25        25   # BR(H -> h       h      )
     2.13142079E-23    2          36        36   # BR(H -> A       A      )
     6.85184037E-19    2          23        36   # BR(H -> Z       A      )
     3.01210042E-03    2     1000024  -1000024   # BR(H -> ~chi_1+ ~chi_1-)
     4.69323042E-03    2     1000022   1000022   # BR(H -> ~chi_10 ~chi_10)
     1.03198506E-04    2     1000023   1000023   # BR(H -> ~chi_20 ~chi_20)
     1.80840808E-03    2     1000025   1000025   # BR(H -> ~chi_30 ~chi_30)
     2.37385688E-01    2     1000022   1000023   # BR(H -> ~chi_10 ~chi_20)
     1.54587195E-01    2     1000022   1000025   # BR(H -> ~chi_10 ~chi_30)
     2.21003546E-03    2     1000023   1000025   # BR(H -> ~chi_20 ~chi_30)
#
#         PDG            Width
DECAY        36     8.59048046E+00   # A decays
#          BR         NDA      ID1       ID2
     3.72914642E-01    2           5        -5   # BR(A -> b       bb     )
     6.49095835E-02    2         -15        15   # BR(A -> tau+    tau-   )
     2.29525122E-04    2         -13        13   # BR(A -> mu+     mu-    )
     2.81568144E-04    2           3        -3   # BR(A -> s       sb     )
     1.57755653E-06    2           4        -4   # BR(A -> c       cb     )
     1.57523431E-01    2           6        -6   # BR(A -> t       tb     )
     1.55939488E-04    2          21        21   # BR(A -> g       g      )
     5.98599778E-07    2          22        22   # BR(A -> gam     gam    )
     1.88638560E-07    2          23        22   # BR(A -> Z       gam    )
     7.33660031E-05    2          23        25   # BR(A -> Z       h      )
     3.45133454E-03    2     1000024  -1000024   # BR(A -> ~chi_1+ ~chi_1-)
     4.70275423E-03    2     1000022   1000022   # BR(A -> ~chi_10 ~chi_10)
     8.02695689E-05    2     1000023   1000023   # BR(A -> ~chi_20 ~chi_20)
     3.29813400E-03    2     1000025   1000025   # BR(A -> ~chi_30 ~chi_30)
     1.57587249E-01    2     1000022   1000023   # BR(A -> ~chi_10 ~chi_20)
     2.33399005E-01    2     1000022   1000025   # BR(A -> ~chi_10 ~chi_30)
     1.39083437E-03    2     1000023   1000025   # BR(A -> ~chi_20 ~chi_30)
#
#         PDG            Width
DECAY        37     8.52152993E+00   # H+ decays
#          BR         NDA      ID1       ID2
     5.96694511E-04    2           4        -5   # BR(H+ -> c       bb     )
     6.54653948E-02    2         -15        16   # BR(H+ -> tau+    nu_tau )
     2.31490512E-04    2         -13        14   # BR(H+ -> mu+     nu_mu  )
     3.81882484E-06    2           2        -5   # BR(H+ -> u       bb     )
     1.35830708E-05    2           2        -3   # BR(H+ -> u       sb     )
     2.80896130E-04    2           4        -3   # BR(H+ -> c       sb     )
     5.28447609E-01    2           6        -5   # BR(H+ -> t       bb     )
     7.41111879E-05    2          24        25   # BR(H+ -> W+      h      )
     8.38904116E-13    2          24        36   # BR(H+ -> W+      A      )
     4.02252495E-01    2     1000024   1000022   # BR(H+ -> ~chi_1+ ~chi_10)
     2.49481916E-03    2     1000024   1000023   # BR(H+ -> ~chi_1+ ~chi_20)
     1.39087648E-04    2     1000024   1000025   # BR(H+ -> ~chi_1+ ~chi_30)
