#
#                              ======================
#                              | THE SUSYHIT OUTPUT |
#                              ======================
#
#
#              ------------------------------------------------------
#              |     This is the output of the SUSY-HIT package     |
#              |  created by A.Djouadi, M.Muehlleitner and M.Spira. |
#              |  In case of problems with SUSY-HIT email to        |
#              |           margarete.muehlleitner@cern.ch           |
#              |           michael.spira@psi.ch                     |
#              |           abdelhak.djouadi@cern.ch                 |
#              ------------------------------------------------------
#
#              ------------------------------------------------------
#              |  SUSY Les Houches Accord - MSSM Spectrum + Decays  |
#              |              based on the decay programs           |
#              |                                                    |
#              |                     SDECAY 1.3b                    |
#              |                                                    |
#              |  Authors: M.Muhlleitner, A.Djouadi and Y.Mambrini  |
#              |  Ref.:    Comput.Phys.Commun.168(2005)46           |
#              |           [hep-ph/0311167]                         |
#              |                                                    |
#              |                     HDECAY 3.4                     |
#              |                                                    |
#              |  By: A.Djouadi,J.Kalinowski,M.Muhlleitner,M.Spira  |
#              |  Ref.:    Comput.Phys.Commun.108(1998)56           |
#              |           [hep-ph/9704448]                         |
#              |                                                    |
#              |                                                    |
#              |  If not stated otherwise all DRbar couplings and   |
#              |  soft SUSY breaking masses are given at the scale  |
#              |  Q=  0.50007473E+04
#              |                                                    |
#              ------------------------------------------------------
#
#
BLOCK DCINFO  # Decay Program information
     1   SDECAY/HDECAY # decay calculator
     2   1.3b  /3.4    # version number
#
BLOCK SPINFO  # Spectrum calculator information
     1    SOFTSUSY    # spectrum calculator                
     2    3.4.0       # version number                     
#
BLOCK MODSEL  # Model selection
     1     0   #  nonUniversal                                     
#
BLOCK SMINPUTS  # Standard Model inputs
         1     1.25778332E+02   # alpha_em^-1(M_Z)^MSbar
         2     1.16570000E-05   # G_F [GeV^-2]
         3     1.17200002E-01   # alpha_S(M_Z)^MSbar
         4     9.11876000E+01   # M_Z pole mass
         5     4.25000000E+00   # mb(mb)^MSbar
         6     1.72500000E+02   # mt pole mass
         7     1.77682000E+00   # mtau pole mass
#
BLOCK MINPAR  # Input parameters - minimal models
         3     1.00000000E+01   # tanb                
#
BLOCK EXTPAR  # Input parameters - non-minimal models
         0    -1.00000000E+00   # Set                 
         1     6.00000000E+01   # M_1(MX)             
         2     3.00000000E+03   # M_2(MX)             
         3     1.57543300E+03   # M_3(MX)             
        11     5.00000000E+03   # At(MX)              
        12     5.00000000E+03   # Ab(MX)              
        13     0.00000000E+00   # Atau(MX)            
        23    -7.64875000E+02   # mu(MX)              
        26     3.00000000E+03   # mA(pole)            
        31     5.00000000E+03   # meL(MX)             
        32     5.00000000E+03   # mmuL(MX)            
        33     5.00000000E+03   # mtauL(MX)           
        34     5.00000000E+03   # meR(MX)             
        35     5.00000000E+03   # mmuR(MX)            
        36     5.00000000E+03   # mtauR(MX)           
        41     5.00000000E+03   # mqL1(MX)            
        42     5.00000000E+03   # mqL2(MX)            
        43     5.00000000E+03   # mqL3(MX)            
        44     5.00000000E+03   # muR(MX)             
        45     5.00000000E+03   # mcR(MX)             
        46     5.00000000E+03   # mtR(MX)             
        47     5.00000000E+03   # mdR(MX)             
        48     5.00000000E+03   # msR(MX)             
        49     5.00000000E+03   # mbR(MX)             
#
BLOCK MASS  # Mass Spectrum
# PDG code           mass       particle
        24     8.00942594E+01   # W+
        25     1.24740162E+02   # h
        35     3.00008281E+03   # H
        36     2.99999751E+03   # A
        37     3.00136099E+03   # H+
         5     4.87878001E+00   # b-quark pole mass calculated from mb(mb)_Msbar
   1000001     5.07067439E+03   # ~d_L
   2000001     5.05285449E+03   # ~d_R
   1000002     5.07020003E+03   # ~u_L
   2000002     5.05256317E+03   # ~u_R
   1000003     5.07067439E+03   # ~s_L
   2000003     5.05285449E+03   # ~s_R
   1000004     5.07020003E+03   # ~c_L
   2000004     5.05256317E+03   # ~c_R
   1000005     5.01645430E+03   # ~b_1
   2000005     5.05125716E+03   # ~b_2
   1000006     4.90732589E+03   # ~t_1
   2000006     5.06110425E+03   # ~t_2
   1000011     5.01908305E+03   # ~e_L
   2000011     5.00593144E+03   # ~e_R
   1000012     5.01813392E+03   # ~nu_eL
   1000013     5.01908305E+03   # ~mu_L
   2000013     5.00593144E+03   # ~mu_R
   1000014     5.01813392E+03   # ~nu_muL
   1000015     5.00468713E+03   # ~tau_1
   2000015     5.01869871E+03   # ~tau_2
   1000016     5.01758546E+03   # ~nu_tauL
   1000021     1.90000033E+03   # ~g
   1000022     6.02874644E+01   # ~chi_10
   1000023     7.99841605E+02   # ~chi_20
   1000025    -8.02072852E+02   # ~chi_30
   1000035     3.07421447E+03   # ~chi_40
   1000024     8.00000114E+02   # ~chi_1+
   1000037     3.07438200E+03   # ~chi_2+
#
BLOCK NMIX  # Neutralino Mixing Matrix
  1  1     9.98451973E-01   # N_11
  1  2     2.07809889E-04   # N_12
  1  3    -5.55973301E-02   # N_13
  1  4     1.59739938E-03   # N_14
  2  1     3.81992749E-02   # N_21
  2  2     2.14538185E-02   # N_22
  2  3     7.06384921E-01   # N_23
  2  4     7.06470731E-01   # N_24
  3  1    -4.04267115E-02   # N_31
  3  2     1.56885870E-02   # N_32
  3  3    -7.05629281E-01   # N_33
  3  4     7.07253044E-01   # N_34
  4  1    -3.92909333E-04   # N_41
  4  2     9.99646717E-01   # N_42
  4  3    -4.07421321E-03   # N_43
  4  4    -2.62619055E-02   # N_44
#
BLOCK UMIX  # Chargino Mixing Matrix U
  1  1     5.77259523E-03   # U_11
  1  2     9.99983338E-01   # U_12
  2  1    -9.99983338E-01   # U_21
  2  2     5.77259523E-03   # U_22
#
BLOCK VMIX  # Chargino Mixing Matrix V
  1  1     3.71681842E-02   # V_11
  1  2    -9.99309024E-01   # V_12
  2  1    -9.99309024E-01   # V_21
  2  2    -3.71681842E-02   # V_22
#
BLOCK STOPMIX  # Stop Mixing Matrix
  1  1    -5.05919457E-01   # cos(theta_t)
  1  2     8.62580723E-01   # sin(theta_t)
  2  1    -8.62580723E-01   # -sin(theta_t)
  2  2    -5.05919457E-01   # cos(theta_t)
#
BLOCK SBOTMIX  # Sbottom Mixing Matrix
  1  1     9.97847285E-01   # cos(theta_b)
  1  2    -6.55804530E-02   # sin(theta_b)
  2  1     6.55804530E-02   # -sin(theta_b)
  2  2     9.97847285E-01   # cos(theta_b)
#
BLOCK STAUMIX  # Stau Mixing Matrix
  1  1    -9.13546809E-02   # cos(theta_tau)
  1  2     9.95818418E-01   # sin(theta_tau)
  2  1    -9.95818418E-01   # -sin(theta_tau)
  2  2    -9.13546809E-02   # cos(theta_tau)
#
BLOCK ALPHA  # Higgs mixing
          -1.05475520E-01   # Mixing angle in the neutral Higgs boson sector
#
BLOCK HMIX Q=  5.00074728E+03  # DRbar Higgs Parameters
         1    -7.78848768E+02   # mu(Q)MSSM           
         2     9.46986079E+00   # tan                 
         3     2.41816874E+02   # higgs               
         4     8.57659237E+06   # mA^2(Q)MSSM         
#
BLOCK GAUGE Q=  5.00074728E+03  # The gauge couplings
     1     3.70850802E-01   # gprime(Q) DRbar
     2     6.32810081E-01   # g(Q) DRbar
     3     9.99256112E-01   # g3(Q) DRbar
#
BLOCK AU Q=  5.00074728E+03  # The trilinear couplings
  1  1     5.00000001E+03   # A_u(Q) DRbar
  2  2     5.00000001E+03   # A_c(Q) DRbar
  3  3     5.00000002E+03   # A_t(Q) DRbar
#
BLOCK AD Q=  5.00074728E+03  # The trilinear couplings
  1  1     5.00000001E+03   # A_d(Q) DRbar
  2  2     5.00000001E+03   # A_s(Q) DRbar
  3  3     5.00000001E+03   # A_b(Q) DRbar
#
BLOCK AE Q=  5.00074728E+03  # The trilinear couplings
  1  1     0.00000000E+00   # A_e(Q) DRbar
  2  2     1.58477647E-07   # A_mu(Q) DRbar
  3  3     1.58053933E-07   # A_tau(Q) DRbar
#
BLOCK Yu Q=  5.00074728E+03  # The Yukawa couplings
  1  1     0.00000000E+00   # y_u(Q) DRbar
  2  2     0.00000000E+00   # y_c(Q) DRbar
  3  3     8.19664619E-01   # y_t(Q) DRbar
#
BLOCK Yd Q=  5.00074728E+03  # The Yukawa couplings
  1  1     0.00000000E+00   # y_d(Q) DRbar
  2  2     0.00000000E+00   # y_s(Q) DRbar
  3  3     1.30313569E-01   # y_b(Q) DRbar
#
BLOCK Ye Q=  5.00074728E+03  # The Yukawa couplings
  1  1     0.00000000E+00   # y_e(Q) DRbar
  2  2     0.00000000E+00   # y_mu(Q) DRbar
  3  3     9.69621862E-02   # y_tau(Q) DRbar
#
BLOCK MSOFT Q=  5.00074728E+03  # The soft SUSY breaking masses at the scale Q
         1     6.00000000E+01   # M_1(Q)              
         2     3.00000000E+03   # M_2(Q)              
         3     1.57543300E+03   # M_3(Q)              
        21     8.10255562E+06   # mH1^2(Q)            
        22    -3.73565327E+04   # mH2^2(Q)            
        31     5.00000000E+03   # meL(Q)              
        32     5.00000000E+03   # mmuL(Q)             
        33     5.00000000E+03   # mtauL(Q)            
        34     5.00000000E+03   # meR(Q)              
        35     5.00000000E+03   # mmuR(Q)             
        36     5.00000000E+03   # mtauR(Q)            
        41     5.00000000E+03   # mqL1(Q)             
        42     5.00000000E+03   # mqL2(Q)             
        43     5.00000000E+03   # mqL3(Q)             
        44     5.00000000E+03   # muR(Q)              
        45     5.00000000E+03   # mcR(Q)              
        46     4.99999999E+03   # mtR(Q)              
        47     5.00000000E+03   # mdR(Q)              
        48     5.00000000E+03   # msR(Q)              
        49     5.00000000E+03   # mbR(Q)              
#
#
#
#                             =================
#                             |The decay table|
#                             =================
#
# - The QCD corrections to the decays gluino -> squark  + quark
#                                     squark -> gaugino + quark_prime
#                                     squark -> squark_prime + Higgs
#                                     squark -> gluino  + quark
#   are included.
#
# - The multi-body decays for the inos, stops and sbottoms are included.
#
# - The loop induced decays for the gluino, neutralinos and stops
#   are included.
#
# - The SUSY decays of the top quark are included.
#
#
#         PDG            Width
DECAY         6     1.40334016E+00   # top decays
#          BR         NDA      ID1       ID2
     1.00000000E+00    2           5        24   # BR(t ->  b    W+)
#
#         PDG            Width
DECAY   1000021     7.22948496E-04   # gluino decays
#          BR         NDA      ID1       ID2
     2.50569636E-06    2     1000022        21   # BR(~g -> ~chi_10 g)
     1.06411834E-02    2     1000023        21   # BR(~g -> ~chi_20 g)
     1.04201391E-02    2     1000025        21   # BR(~g -> ~chi_30 g)
#           BR         NDA      ID1       ID2       ID3
     2.47587986E-02    3     1000022         1        -1   # BR(~g -> ~chi_10 d  db)
     2.12491593E-05    3     1000023         1        -1   # BR(~g -> ~chi_20 d  db)
     1.65392598E-05    3     1000025         1        -1   # BR(~g -> ~chi_30 d  db)
     8.44241320E-02    3     1000022         2        -2   # BR(~g -> ~chi_10 u  ub)
     8.76970060E-05    3     1000023         2        -2   # BR(~g -> ~chi_20 u  ub)
     2.19462214E-05    3     1000025         2        -2   # BR(~g -> ~chi_30 u  ub)
     2.47587986E-02    3     1000022         3        -3   # BR(~g -> ~chi_10 s  sb)
     2.12491593E-05    3     1000023         3        -3   # BR(~g -> ~chi_20 s  sb)
     1.65392598E-05    3     1000025         3        -3   # BR(~g -> ~chi_30 s  sb)
     8.44241320E-02    3     1000022         4        -4   # BR(~g -> ~chi_10 c  cb)
     8.76970060E-05    3     1000023         4        -4   # BR(~g -> ~chi_20 c  cb)
     2.19462214E-05    3     1000025         4        -4   # BR(~g -> ~chi_30 c  cb)
     2.51567027E-02    3     1000022         5        -5   # BR(~g -> ~chi_10 b  bb)
     4.66833215E-03    3     1000023         5        -5   # BR(~g -> ~chi_20 b  bb)
     4.61097094E-03    3     1000025         5        -5   # BR(~g -> ~chi_30 b  bb)
     8.07757764E-02    3     1000022         6        -6   # BR(~g -> ~chi_10 t  tb)
     1.61313608E-01    3     1000023         6        -6   # BR(~g -> ~chi_20 t  tb)
     1.37670613E-01    3     1000025         6        -6   # BR(~g -> ~chi_30 t  tb)
     5.65731440E-05    3     1000024         1        -2   # BR(~g -> ~chi_1+ d  ub)
     5.65731440E-05    3    -1000024         2        -1   # BR(~g -> ~chi_1- u  db)
     5.65731440E-05    3     1000024         3        -4   # BR(~g -> ~chi_1+ s  cb)
     5.65731440E-05    3    -1000024         4        -3   # BR(~g -> ~chi_1- c  sb)
     1.72926576E-01    3     1000024         5        -6   # BR(~g -> ~chi_1+ b  tb)
     1.72926576E-01    3    -1000024         6        -5   # BR(~g -> ~chi_1- t  bb)
#
#         PDG            Width
DECAY   1000006     3.53671181E+02   # stop1 decays
#          BR         NDA      ID1       ID2
     2.50113658E-02    2     1000022         6   # BR(~t_1 -> ~chi_10 t )
     8.89841138E-02    2     1000023         6   # BR(~t_1 -> ~chi_20 t )
     8.52518049E-02    2     1000025         6   # BR(~t_1 -> ~chi_30 t )
     5.81950161E-03    2     1000035         6   # BR(~t_1 -> ~chi_40 t )
     1.29536535E-01    2     1000024         5   # BR(~t_1 -> ~chi_1+ b )
     1.15978237E-02    2     1000037         5   # BR(~t_1 -> ~chi_2+ b )
     6.53798855E-01    2     1000021         6   # BR(~t_1 -> ~g      t )
#
#         PDG            Width
DECAY   2000006     3.59154328E+02   # stop2 decays
#          BR         NDA      ID1       ID2
     9.69463662E-03    2     1000022         6   # BR(~t_2 -> ~chi_10 t )
     8.91486059E-02    2     1000023         6   # BR(~t_2 -> ~chi_20 t )
     9.32176055E-02    2     1000025         6   # BR(~t_2 -> ~chi_30 t )
     1.55069977E-02    2     1000035         6   # BR(~t_2 -> ~chi_40 t )
     5.27522548E-02    2     1000024         5   # BR(~t_2 -> ~chi_1+ b )
     3.08649119E-02    2     1000037         5   # BR(~t_2 -> ~chi_2+ b )
     7.05337310E-01    2     1000021         6   # BR(~t_2 -> ~g      t )
     7.95791908E-04    2     1000006        25   # BR(~t_2 -> ~t_1    h )
     2.68188595E-03    2     1000006        23   # BR(~t_2 -> ~t_1    Z )
#
#         PDG            Width
DECAY   1000005     3.34600355E+02   # sbottom1 decays
#          BR         NDA      ID1       ID2
     2.30866330E-03    2     1000022         5   # BR(~b_1 -> ~chi_10 b )
     2.42567141E-03    2     1000023         5   # BR(~b_1 -> ~chi_20 b )
     2.38340064E-03    2     1000025         5   # BR(~b_1 -> ~chi_30 b )
     2.25719795E-02    2     1000035         5   # BR(~b_1 -> ~chi_40 b )
     1.90344634E-01    2    -1000024         6   # BR(~b_1 -> ~chi_1- t )
     4.53352148E-02    2    -1000037         6   # BR(~b_1 -> ~chi_2- t )
     7.32957896E-01    2     1000021         5   # BR(~b_1 -> ~g      b )
     1.67253970E-03    2     1000006       -24   # BR(~b_1 -> ~t_1    W-)
#
#         PDG            Width
DECAY   2000005     2.54422966E+02   # sbottom2 decays
#          BR         NDA      ID1       ID2
     1.15483470E-02    2     1000022         5   # BR(~b_2 -> ~chi_10 b )
     3.22046638E-03    2     1000023         5   # BR(~b_2 -> ~chi_20 b )
     3.28919015E-03    2     1000025         5   # BR(~b_2 -> ~chi_30 b )
     1.27219587E-04    2     1000035         5   # BR(~b_2 -> ~chi_40 b )
     7.42739606E-03    2    -1000024         6   # BR(~b_2 -> ~chi_1- t )
     2.55503632E-04    2    -1000037         6   # BR(~b_2 -> ~chi_2- t )
     9.74092401E-01    2     1000021         5   # BR(~b_2 -> ~g      b )
     3.94759247E-05    2     1000006       -24   # BR(~b_2 -> ~t_1    W-)
#
#         PDG            Width
DECAY   1000002     2.73644405E+02   # sup_L decays
#          BR         NDA      ID1       ID2
     2.72543776E-03    2     1000022         2   # BR(~u_L -> ~chi_10 u)
     5.69213979E-05    2     1000023         2   # BR(~u_L -> ~chi_20 u)
     4.13151462E-06    2     1000025         2   # BR(~u_L -> ~chi_30 u)
     2.87138965E-02    2     1000035         2   # BR(~u_L -> ~chi_40 u)
     1.88090236E-04    2     1000024         1   # BR(~u_L -> ~chi_1+ d)
     5.73905898E-02    2     1000037         1   # BR(~u_L -> ~chi_2+ d)
     9.10920933E-01    2     1000021         2   # BR(~u_L -> ~g      u)
#
#         PDG            Width
DECAY   2000002     2.59734634E+02   # sup_R decays
#          BR         NDA      ID1       ID2
     4.56833754E-02    2     1000022         2   # BR(~u_R -> ~chi_10 u)
     6.36530198E-05    2     1000023         2   # BR(~u_R -> ~chi_20 u)
     7.12724848E-05    2     1000025         2   # BR(~u_R -> ~chi_30 u)
     2.82103232E-09    2     1000035         2   # BR(~u_R -> ~chi_40 u)
     9.54181696E-01    2     1000021         2   # BR(~u_R -> ~g      u)
#
#         PDG            Width
DECAY   1000001     2.73657857E+02   # sdown_L decays
#          BR         NDA      ID1       ID2
     2.71397040E-03    2     1000022         1   # BR(~d_L -> ~chi_10 d)
     1.33281409E-05    2     1000023         1   # BR(~d_L -> ~chi_20 d)
     3.78620256E-05    2     1000025         1   # BR(~d_L -> ~chi_30 d)
     2.87301987E-02    2     1000035         1   # BR(~d_L -> ~chi_40 d)
     4.53721643E-06    2    -1000024         2   # BR(~d_L -> ~chi_1- u)
     5.74830404E-02    2    -1000037         2   # BR(~d_L -> ~chi_2- u)
     9.11017063E-01    2     1000021         1   # BR(~d_L -> ~g      d)
#
#         PDG            Width
DECAY   2000001     2.50833061E+02   # sdown_R decays
#          BR         NDA      ID1       ID2
     1.18268365E-02    2     1000022         1   # BR(~d_R -> ~chi_10 d)
     1.64790398E-05    2     1000023         1   # BR(~d_R -> ~chi_20 d)
     1.84516329E-05    2     1000025         1   # BR(~d_R -> ~chi_30 d)
     7.30426748E-10    2     1000035         1   # BR(~d_R -> ~chi_40 d)
     9.88138232E-01    2     1000021         1   # BR(~d_R -> ~g      d)
#
#         PDG            Width
DECAY   1000004     2.73644405E+02   # scharm_L decays
#          BR         NDA      ID1       ID2
     2.72543776E-03    2     1000022         4   # BR(~c_L -> ~chi_10 c)
     5.69213979E-05    2     1000023         4   # BR(~c_L -> ~chi_20 c)
     4.13151462E-06    2     1000025         4   # BR(~c_L -> ~chi_30 c)
     2.87138965E-02    2     1000035         4   # BR(~c_L -> ~chi_40 c)
     1.88090236E-04    2     1000024         3   # BR(~c_L -> ~chi_1+ s)
     5.73905898E-02    2     1000037         3   # BR(~c_L -> ~chi_2+ s)
     9.10920933E-01    2     1000021         4   # BR(~c_L -> ~g      c)
#
#         PDG            Width
DECAY   2000004     2.59734634E+02   # scharm_R decays
#          BR         NDA      ID1       ID2
     4.56833754E-02    2     1000022         4   # BR(~c_R -> ~chi_10 c)
     6.36530198E-05    2     1000023         4   # BR(~c_R -> ~chi_20 c)
     7.12724848E-05    2     1000025         4   # BR(~c_R -> ~chi_30 c)
     2.82103232E-09    2     1000035         4   # BR(~c_R -> ~chi_40 c)
     9.54181696E-01    2     1000021         4   # BR(~c_R -> ~g      c)
#
#         PDG            Width
DECAY   1000003     2.73657857E+02   # sstrange_L decays
#          BR         NDA      ID1       ID2
     2.71397040E-03    2     1000022         3   # BR(~s_L -> ~chi_10 s)
     1.33281409E-05    2     1000023         3   # BR(~s_L -> ~chi_20 s)
     3.78620256E-05    2     1000025         3   # BR(~s_L -> ~chi_30 s)
     2.87301987E-02    2     1000035         3   # BR(~s_L -> ~chi_40 s)
     4.53721643E-06    2    -1000024         4   # BR(~s_L -> ~chi_1- c)
     5.74830404E-02    2    -1000037         4   # BR(~s_L -> ~chi_2- c)
     9.11017063E-01    2     1000021         3   # BR(~s_L -> ~g      s)
#
#         PDG            Width
DECAY   2000003     2.50833061E+02   # sstrange_R decays
#          BR         NDA      ID1       ID2
     1.18268365E-02    2     1000022         3   # BR(~s_R -> ~chi_10 s)
     1.64790398E-05    2     1000023         3   # BR(~s_R -> ~chi_20 s)
     1.84516329E-05    2     1000025         3   # BR(~s_R -> ~chi_30 s)
     7.30426748E-10    2     1000035         3   # BR(~s_R -> ~chi_40 s)
     9.88138232E-01    2     1000021         3   # BR(~s_R -> ~g      s)
#
#         PDG            Width
DECAY   1000011     3.02920040E+01   # selectron_L decays
#          BR         NDA      ID1       ID2
     2.26064530E-01    2     1000022        11   # BR(~e_L -> ~chi_10 e-)
     1.20487514E-03    2     1000023        11   # BR(~e_L -> ~chi_20 e-)
     4.01402190E-05    2     1000025        11   # BR(~e_L -> ~chi_30 e-)
     2.57377336E-01    2     1000035        11   # BR(~e_L -> ~chi_40 e-)
     4.17794998E-05    2    -1000024        12   # BR(~e_L -> ~chi_1- nu_e)
     5.15271340E-01    2    -1000037        12   # BR(~e_L -> ~chi_2- nu_e)
#
#         PDG            Width
DECAY   2000011     2.73810375E+01   # selectron_R decays
#          BR         NDA      ID1       ID2
     9.97061515E-01    2     1000022        11   # BR(~e_R -> ~chi_10 e-)
     1.38624959E-03    2     1000023        11   # BR(~e_R -> ~chi_20 e-)
     1.55217569E-03    2     1000025        11   # BR(~e_R -> ~chi_30 e-)
     5.99189342E-08    2     1000035        11   # BR(~e_R -> ~chi_40 e-)
#
#         PDG            Width
DECAY   1000013     3.02920040E+01   # smuon_L decays
#          BR         NDA      ID1       ID2
     2.26064530E-01    2     1000022        13   # BR(~mu_L -> ~chi_10 mu-)
     1.20487514E-03    2     1000023        13   # BR(~mu_L -> ~chi_20 mu-)
     4.01402190E-05    2     1000025        13   # BR(~mu_L -> ~chi_30 mu-)
     2.57377336E-01    2     1000035        13   # BR(~mu_L -> ~chi_40 mu-)
     4.17794998E-05    2    -1000024        14   # BR(~mu_L -> ~chi_1- nu_mu)
     5.15271340E-01    2    -1000037        14   # BR(~mu_L -> ~chi_2- nu_mu)
#
#         PDG            Width
DECAY   2000013     2.73810375E+01   # smuon_R decays
#          BR         NDA      ID1       ID2
     9.97061515E-01    2     1000022        13   # BR(~mu_R -> ~chi_10 mu-)
     1.38624959E-03    2     1000023        13   # BR(~mu_R -> ~chi_20 mu-)
     1.55217569E-03    2     1000025        13   # BR(~mu_R -> ~chi_30 mu-)
     5.99189342E-08    2     1000035        13   # BR(~mu_R -> ~chi_40 mu-)
#
#         PDG            Width
DECAY   1000015     2.91734680E+01   # stau_1 decays
#          BR         NDA      ID1       ID2
     9.30688536E-01    2     1000022        15   # BR(~tau_1 -> ~chi_10  tau-)
     1.64858232E-02    2     1000023        15   # BR(~tau_1 -> ~chi_20  tau-)
     1.59008627E-02    2     1000025        15   # BR(~tau_1 -> ~chi_30  tau-)
     2.16630756E-03    2     1000035        15   # BR(~tau_1 -> ~chi_40  tau-)
     3.04217202E-02    2    -1000024        16   # BR(~tau_1 -> ~chi_1-  nu_tau)
     4.33675025E-03    2    -1000037        16   # BR(~tau_1 -> ~chi_2-  nu_tau)
#
#         PDG            Width
DECAY   2000015     3.11541358E+01   # stau_2 decays
#          BR         NDA      ID1       ID2
     2.24560666E-01    2     1000022        15   # BR(~tau_2 -> ~chi_10  tau-)
     1.54689317E-02    2     1000023        15   # BR(~tau_2 -> ~chi_20  tau-)
     1.49637168E-02    2     1000025        15   # BR(~tau_2 -> ~chi_30  tau-)
     2.48141662E-01    2     1000035        15   # BR(~tau_2 -> ~chi_40  tau-)
     8.29489518E-05    2    -1000024        16   # BR(~tau_2 -> ~chi_1-  nu_tau)
     4.96782074E-01    2    -1000037        16   # BR(~tau_2 -> ~chi_2-  nu_tau)
#
#         PDG            Width
DECAY   1000012     3.02950130E+01   # snu_eL decays
#          BR         NDA      ID1       ID2
     2.25678479E-01    2     1000022        12   # BR(~nu_eL -> ~chi_10 nu_e)
     5.44855057E-07    2     1000023        12   # BR(~nu_eL -> ~chi_20 nu_e)
     9.71616838E-04    2     1000025        12   # BR(~nu_eL -> ~chi_30 nu_e)
     2.57423300E-01    2     1000035        12   # BR(~nu_eL -> ~chi_40 nu_e)
     1.73152942E-03    2     1000024        11   # BR(~nu_eL -> ~chi_1+ e-)
     5.14194530E-01    2     1000037        11   # BR(~nu_eL -> ~chi_2+ e-)
#
#         PDG            Width
DECAY   1000014     3.02950130E+01   # snu_muL decays
#          BR         NDA      ID1       ID2
     2.25678479E-01    2     1000022        14   # BR(~nu_muL -> ~chi_10 nu_mu)
     5.44855057E-07    2     1000023        14   # BR(~nu_muL -> ~chi_20 nu_mu)
     9.71616838E-04    2     1000025        14   # BR(~nu_muL -> ~chi_30 nu_mu)
     2.57423300E-01    2     1000035        14   # BR(~nu_muL -> ~chi_40 nu_mu)
     1.73152942E-03    2     1000024        13   # BR(~nu_muL -> ~chi_1+ mu-)
     5.14194530E-01    2     1000037        13   # BR(~nu_muL -> ~chi_2+ mu-)
#
#         PDG            Width
DECAY   1000016     3.11769454E+01   # snu_tauL decays
#          BR         NDA      ID1       ID2
     2.19270512E-01    2     1000022        16   # BR(~nu_tauL -> ~chi_10 nu_tau)
     5.29378315E-07    2     1000023        16   # BR(~nu_tauL -> ~chi_20 nu_tau)
     9.44017760E-04    2     1000025        16   # BR(~nu_tauL -> ~chi_30 nu_tau)
     2.50048279E-01    2     1000035        16   # BR(~nu_tauL -> ~chi_40 nu_tau)
     3.02740584E-02    2     1000024        15   # BR(~nu_tauL -> ~chi_1+ tau-)
     4.99462603E-01    2     1000037        15   # BR(~nu_tauL -> ~chi_2+ tau-)
#
#         PDG            Width
DECAY   1000024     4.83364349E-01   # chargino1+ decays
#          BR         NDA      ID1       ID2
     1.00000000E+00    2     1000022        24   # BR(~chi_1+ -> ~chi_10  W+)
#
#         PDG            Width
DECAY   1000037     2.11162725E+01   # chargino2+ decays
#          BR         NDA      ID1       ID2
     2.53360345E-01    2     1000024        23   # BR(~chi_2+ -> ~chi_1+  Z )
     1.84732517E-04    2     1000022        24   # BR(~chi_2+ -> ~chi_10  W+)
     2.44410363E-01    2     1000023        24   # BR(~chi_2+ -> ~chi_20  W+)
     2.44226803E-01    2     1000025        24   # BR(~chi_2+ -> ~chi_30  W+)
     2.57815833E-01    2     1000024        25   # BR(~chi_2+ -> ~chi_1+  h )
     1.92358743E-06    2     1000022        37   # BR(~chi_2+ -> ~chi_10  H+)
#
#         PDG            Width
DECAY   1000022     0.00000000E+00   # neutralino1 decays
#
#         PDG            Width
DECAY   1000023     5.01742512E-01   # neutralino2 decays
#          BR         NDA      ID1       ID2
     5.29405031E-01    2     1000022        23   # BR(~chi_20 -> ~chi_10   Z )
     4.70594969E-01    2     1000022        25   # BR(~chi_20 -> ~chi_10   h )
#
#         PDG            Width
DECAY   1000025     5.01538573E-01   # neutralino3 decays
#          BR         NDA      ID1       ID2
     4.69508403E-01    2     1000022        23   # BR(~chi_30 -> ~chi_10   Z )
     5.30491597E-01    2     1000022        25   # BR(~chi_30 -> ~chi_10   h )
#
#         PDG            Width
DECAY   1000035     2.11320282E+01   # neutralino4 decays
#          BR         NDA      ID1       ID2
     3.18527497E-05    2     1000022        23   # BR(~chi_40 -> ~chi_10   Z )
     8.82304518E-02    2     1000023        23   # BR(~chi_40 -> ~chi_20   Z )
     1.64469805E-01    2     1000025        23   # BR(~chi_40 -> ~chi_30   Z )
     2.44947495E-01    2     1000024       -24   # BR(~chi_40 -> ~chi_1+   W-)
     2.44947495E-01    2    -1000024        24   # BR(~chi_40 -> ~chi_1-   W+)
     1.51478762E-04    2     1000022        25   # BR(~chi_40 -> ~chi_10   h )
     1.83209296E-06    2     1000022        35   # BR(~chi_40 -> ~chi_10   H )
     2.13723142E-07    2     1000022        36   # BR(~chi_40 -> ~chi_10   A )
     1.68729935E-01    2     1000023        25   # BR(~chi_40 -> ~chi_20   h )
     8.84894411E-02    2     1000025        25   # BR(~chi_40 -> ~chi_30   h )
#
#         PDG            Width
DECAY        25     4.06102196E-03   # h decays
#          BR         NDA      ID1       ID2
     6.09396631E-01    2           5        -5   # BR(h -> b       bb     )
     6.38537311E-02    2         -15        15   # BR(h -> tau+    tau-   )
     2.26065571E-04    2         -13        13   # BR(h -> mu+     mu-    )
     4.79270312E-04    2           3        -3   # BR(h -> s       sb     )
     2.07669762E-02    2           4        -4   # BR(h -> c       cb     )
     6.71380768E-02    2          21        21   # BR(h -> g       g      )
     2.30735690E-03    2          22        22   # BR(h -> gam     gam    )
     1.48505757E-03    2          22        23   # BR(h -> Z       gam    )
     2.09346547E-01    2          24       -24   # BR(h -> W+      W-     )
     2.49292085E-02    2          23        23   # BR(h -> Z       Z      )
     7.10792124E-05    2     1000022   1000022   # BR(h -> ~chi_10 ~chi_10)
#
#         PDG            Width
DECAY        35     8.36737992E+00   # H decays
#          BR         NDA      ID1       ID2
     3.84097485E-01    2           5        -5   # BR(H -> b       bb     )
     6.65816093E-02    2         -15        15   # BR(H -> tau+    tau-   )
     2.35437859E-04    2         -13        13   # BR(H -> mu+     mu-    )
     2.88610716E-04    2           3        -3   # BR(H -> s       sb     )
     1.61443978E-06    2           4        -4   # BR(H -> c       cb     )
     1.61295322E-01    2           6        -6   # BR(H -> t       tb     )
     5.36138640E-05    2          21        21   # BR(H -> g       g      )
     2.09594982E-07    2          22        22   # BR(H -> gam     gam    )
     9.52103780E-08    2          23        22   # BR(H -> Z       gam    )
     7.52691195E-05    2          24       -24   # BR(H -> W+      W-     )
     3.75869201E-05    2          23        23   # BR(H -> Z       Z      )
     2.77046603E-04    2          25        25   # BR(H -> h       h      )
    -3.66964172E-23    2          36        36   # BR(H -> A       A      )
     9.50618836E-19    2          23        36   # BR(H -> Z       A      )
     2.57787285E-03    2     1000024  -1000024   # BR(H -> ~chi_1+ ~chi_1-)
     2.69835858E-03    2     1000022   1000022   # BR(H -> ~chi_10 ~chi_10)
     4.86797849E-07    2     1000023   1000023   # BR(H -> ~chi_20 ~chi_20)
     1.01767190E-03    2     1000025   1000025   # BR(H -> ~chi_30 ~chi_30)
     2.28952961E-01    2     1000022   1000023   # BR(H -> ~chi_10 ~chi_20)
     1.50746099E-01    2     1000022   1000025   # BR(H -> ~chi_10 ~chi_30)
     1.06264878E-03    2     1000023   1000025   # BR(H -> ~chi_20 ~chi_30)
#
#         PDG            Width
DECAY        36     8.37931164E+00   # A decays
#          BR         NDA      ID1       ID2
     3.83680716E-01    2           5        -5   # BR(A -> b       bb     )
     6.64887608E-02    2         -15        15   # BR(A -> tau+    tau-   )
     2.35109211E-04    2         -13        13   # BR(A -> mu+     mu-    )
     2.88418510E-04    2           3        -3   # BR(A -> s       sb     )
     1.61868853E-06    2           4        -4   # BR(A -> c       cb     )
     1.61630576E-01    2           6        -6   # BR(A -> t       tb     )
     1.59948827E-04    2          21        21   # BR(A -> g       g      )
     5.96155009E-07    2          22        22   # BR(A -> gam     gam    )
     1.93669698E-07    2          23        22   # BR(A -> Z       gam    )
     7.48778051E-05    2          23        25   # BR(A -> Z       h      )
     3.36889426E-03    2     1000024  -1000024   # BR(A -> ~chi_1+ ~chi_1-)
     2.73194807E-03    2     1000022   1000022   # BR(A -> ~chi_10 ~chi_10)
     4.44274866E-07    2     1000023   1000023   # BR(A -> ~chi_20 ~chi_20)
     2.17800699E-03    2     1000025   1000025   # BR(A -> ~chi_30 ~chi_30)
     1.53043300E-01    2     1000022   1000023   # BR(A -> ~chi_10 ~chi_20)
     2.25627966E-01    2     1000022   1000025   # BR(A -> ~chi_10 ~chi_30)
     4.88623981E-04    2     1000023   1000025   # BR(A -> ~chi_20 ~chi_30)
#
#         PDG            Width
DECAY        37     8.33240667E+00   # H+ decays
#          BR         NDA      ID1       ID2
     6.16644391E-04    2           4        -5   # BR(H+ -> c       bb     )
     6.68934297E-02    2         -15        16   # BR(H+ -> tau+    nu_tau )
     2.36540150E-04    2         -13        14   # BR(H+ -> mu+     nu_mu  )
     3.94650356E-06    2           2        -5   # BR(H+ -> u       bb     )
     1.38793910E-05    2           2        -3   # BR(H+ -> u       sb     )
     2.87026649E-04    2           4        -3   # BR(H+ -> c       sb     )
     5.44574031E-01    2           6        -5   # BR(H+ -> t       bb     )
     7.54505895E-05    2          24        25   # BR(H+ -> W+      h      )
     7.43181960E-13    2          24        36   # BR(H+ -> W+      A      )
     3.85833929E-01    2     1000024   1000022   # BR(H+ -> ~chi_1+ ~chi_10)
     1.44095501E-03    2     1000024   1000023   # BR(H+ -> ~chi_1+ ~chi_20)
     2.41673129E-05    2     1000024   1000025   # BR(H+ -> ~chi_1+ ~chi_30)
