#
#                              ======================
#                              | THE SUSYHIT OUTPUT |
#                              ======================
#
#
#              ------------------------------------------------------
#              |     This is the output of the SUSY-HIT package     |
#              |  created by A.Djouadi, M.Muehlleitner and M.Spira. |
#              |  In case of problems with SUSY-HIT email to        |
#              |           margarete.muehlleitner@cern.ch           |
#              |           michael.spira@psi.ch                     |
#              |           abdelhak.djouadi@cern.ch                 |
#              ------------------------------------------------------
#
#              ------------------------------------------------------
#              |  SUSY Les Houches Accord - MSSM Spectrum + Decays  |
#              |              based on the decay programs           |
#              |                                                    |
#              |                     SDECAY 1.3b                    |
#              |                                                    |
#              |  Authors: M.Muhlleitner, A.Djouadi and Y.Mambrini  |
#              |  Ref.:    Comput.Phys.Commun.168(2005)46           |
#              |           [hep-ph/0311167]                         |
#              |                                                    |
#              |                     HDECAY 3.4                     |
#              |                                                    |
#              |  By: A.Djouadi,J.Kalinowski,M.Muhlleitner,M.Spira  |
#              |  Ref.:    Comput.Phys.Commun.108(1998)56           |
#              |           [hep-ph/9704448]                         |
#              |                                                    |
#              |                                                    |
#              |  If not stated otherwise all DRbar couplings and   |
#              |  soft SUSY breaking masses are given at the scale  |
#              |  Q=  0.50007638E+04
#              |                                                    |
#              ------------------------------------------------------
#
#
BLOCK DCINFO  # Decay Program information
     1   SDECAY/HDECAY # decay calculator
     2   1.3b  /3.4    # version number
#
BLOCK SPINFO  # Spectrum calculator information
     1    SOFTSUSY    # spectrum calculator                
     2    3.4.0       # version number                     
#
BLOCK MODSEL  # Model selection
     1     0   #  nonUniversal                                     
#
BLOCK SMINPUTS  # Standard Model inputs
         1     1.25778332E+02   # alpha_em^-1(M_Z)^MSbar
         2     1.16570000E-05   # G_F [GeV^-2]
         3     1.17200002E-01   # alpha_S(M_Z)^MSbar
         4     9.11876000E+01   # M_Z pole mass
         5     4.25000000E+00   # mb(mb)^MSbar
         6     1.72500000E+02   # mt pole mass
         7     1.77682000E+00   # mtau pole mass
#
BLOCK MINPAR  # Input parameters - minimal models
         3     1.00000000E+01   # tanb                
#
BLOCK EXTPAR  # Input parameters - non-minimal models
         0    -1.00000000E+00   # Set                 
         1     6.00000000E+01   # M_1(MX)             
         2     3.00000000E+03   # M_2(MX)             
         3     9.46036000E+02   # M_3(MX)             
        11     5.00000000E+03   # At(MX)              
        12     5.00000000E+03   # Ab(MX)              
        13     0.00000000E+00   # Atau(MX)            
        23    -1.58773000E+02   # mu(MX)              
        26     3.00000000E+03   # mA(pole)            
        31     5.00000000E+03   # meL(MX)             
        32     5.00000000E+03   # mmuL(MX)            
        33     5.00000000E+03   # mtauL(MX)           
        34     5.00000000E+03   # meR(MX)             
        35     5.00000000E+03   # mmuR(MX)            
        36     5.00000000E+03   # mtauR(MX)           
        41     5.00000000E+03   # mqL1(MX)            
        42     5.00000000E+03   # mqL2(MX)            
        43     5.00000000E+03   # mqL3(MX)            
        44     5.00000000E+03   # muR(MX)             
        45     5.00000000E+03   # mcR(MX)             
        46     5.00000000E+03   # mtR(MX)             
        47     5.00000000E+03   # mdR(MX)             
        48     5.00000000E+03   # msR(MX)             
        49     5.00000000E+03   # mbR(MX)             
#
BLOCK MASS  # Mass Spectrum
# PDG code           mass       particle
        24     8.00886334E+01   # W+
        25     1.24446516E+02   # h
        35     3.00009117E+03   # H
        36     2.99999979E+03   # A
        37     3.00148527E+03   # H+
         5     4.87878001E+00   # b-quark pole mass calculated from mb(mb)_Msbar
   1000001     5.06481252E+03   # ~d_L
   2000001     5.04687398E+03   # ~d_R
   1000002     5.06433374E+03   # ~u_L
   2000002     5.04656138E+03   # ~u_R
   1000003     5.06481252E+03   # ~s_L
   2000003     5.04687398E+03   # ~s_R
   1000004     5.06433374E+03   # ~c_L
   2000004     5.04656138E+03   # ~c_R
   1000005     5.01133077E+03   # ~b_1
   2000005     5.04497274E+03   # ~b_2
   1000006     4.90195604E+03   # ~t_1
   2000006     5.05554640E+03   # ~t_2
   1000011     5.01917695E+03   # ~e_L
   2000011     5.00596301E+03   # ~e_R
   1000012     5.01822324E+03   # ~nu_eL
   1000013     5.01917695E+03   # ~mu_L
   2000013     5.00596301E+03   # ~mu_R
   1000014     5.01822324E+03   # ~nu_muL
   1000015     5.00483769E+03   # ~tau_1
   2000015     5.01863803E+03   # ~tau_2
   1000016     5.01766780E+03   # ~nu_tauL
   1000021     1.20000029E+03   # ~g
   1000022     5.78413802E+01   # ~chi_10
   1000023    -1.75656300E+02   # ~chi_20
   1000025     1.75675860E+02   # ~chi_30
   1000035     3.07435807E+03   # ~chi_40
   1000024     1.70000373E+02   # ~chi_1+
   1000037     3.07452637E+03   # ~chi_2+
#
BLOCK NMIX  # Neutralino Mixing Matrix
  1  1     9.59050839E-01   # N_11
  1  2    -9.56939227E-04   # N_12
  1  3    -2.74979396E-01   # N_13
  1  4    -6.78741851E-02   # N_14
  2  1    -1.47328551E-01   # N_21
  2  2     1.87642037E-02   # N_22
  2  3    -6.89004019E-01   # N_23
  2  4     7.09376955E-01   # N_24
  3  1     2.41900012E-01   # N_31
  3  2     1.69335155E-02   # N_32
  3  3     6.70565489E-01   # N_33
  3  4     7.01098827E-01   # N_34
  4  1    -4.14093775E-04   # N_41
  4  2     9.99680071E-01   # N_42
  4  3     1.31086146E-03   # N_43
  4  4    -2.52559931E-02   # N_44
#
BLOCK UMIX  # Chargino Mixing Matrix U
  1  1    -1.84800569E-03   # U_11
  1  2     9.99998292E-01   # U_12
  2  1    -9.99998292E-01   # U_21
  2  2    -1.84800569E-03   # U_22
#
BLOCK VMIX  # Chargino Mixing Matrix V
  1  1     3.57361886E-02   # V_11
  1  2    -9.99361258E-01   # V_12
  2  1    -9.99361258E-01   # V_21
  2  2    -3.57361886E-02   # V_22
#
BLOCK STOPMIX  # Stop Mixing Matrix
  1  1    -5.05115357E-01   # cos(theta_t)
  1  2     8.63051839E-01   # sin(theta_t)
  2  1    -8.63051839E-01   # -sin(theta_t)
  2  2    -5.05115357E-01   # cos(theta_t)
#
BLOCK SBOTMIX  # Sbottom Mixing Matrix
  1  1     9.99428575E-01   # cos(theta_b)
  1  2    -3.38012348E-02   # sin(theta_b)
  2  1     3.38012348E-02   # -sin(theta_b)
  2  2     9.99428575E-01   # cos(theta_b)
#
BLOCK STAUMIX  # Stau Mixing Matrix
  1  1    -1.87297320E-02   # cos(theta_tau)
  1  2     9.99824583E-01   # sin(theta_tau)
  2  1    -9.99824583E-01   # -sin(theta_tau)
  2  2    -1.87297320E-02   # cos(theta_tau)
#
BLOCK ALPHA  # Higgs mixing
          -1.05459202E-01   # Mixing angle in the neutral Higgs boson sector
#
BLOCK HMIX Q=  5.00076381E+03  # DRbar Higgs Parameters
         1    -1.61604205E+02   # mu(Q)MSSM           
         2     9.47191727E+00   # tan                 
         3     2.41700965E+02   # higgs               
         4     8.80058460E+06   # mA^2(Q)MSSM         
#
BLOCK GAUGE Q=  5.00076381E+03  # The gauge couplings
     1     3.71209503E-01   # gprime(Q) DRbar
     2     6.34585250E-01   # g(Q) DRbar
     3     1.00597519E+00   # g3(Q) DRbar
#
BLOCK AU Q=  5.00076381E+03  # The trilinear couplings
  1  1     5.00000001E+03   # A_u(Q) DRbar
  2  2     5.00000001E+03   # A_c(Q) DRbar
  3  3     5.00000001E+03   # A_t(Q) DRbar
#
BLOCK AD Q=  5.00076381E+03  # The trilinear couplings
  1  1     5.00000000E+03   # A_d(Q) DRbar
  2  2     5.00000000E+03   # A_s(Q) DRbar
  3  3     5.00000001E+03   # A_b(Q) DRbar
#
BLOCK AE Q=  5.00076381E+03  # The trilinear couplings
  1  1     0.00000000E+00   # A_e(Q) DRbar
  2  2     4.80737577E-08   # A_mu(Q) DRbar
  3  3     4.72070814E-08   # A_tau(Q) DRbar
#
BLOCK Yu Q=  5.00076381E+03  # The Yukawa couplings
  1  1     0.00000000E+00   # y_u(Q) DRbar
  2  2     0.00000000E+00   # y_c(Q) DRbar
  3  3     8.16513221E-01   # y_t(Q) DRbar
#
BLOCK Yd Q=  5.00076381E+03  # The Yukawa couplings
  1  1     0.00000000E+00   # y_d(Q) DRbar
  2  2     0.00000000E+00   # y_s(Q) DRbar
  3  3     1.29135492E-01   # y_b(Q) DRbar
#
BLOCK Ye Q=  5.00076381E+03  # The Yukawa couplings
  1  1     0.00000000E+00   # y_e(Q) DRbar
  2  2     0.00000000E+00   # y_mu(Q) DRbar
  3  3     9.73887360E-02   # y_tau(Q) DRbar
#
BLOCK MSOFT Q=  5.00076381E+03  # The soft SUSY breaking masses at the scale Q
         1     6.00000000E+01   # M_1(Q)              
         2     3.00000000E+03   # M_2(Q)              
         3     9.46036000E+02   # M_3(Q)              
        21     8.70859240E+06   # mH1^2(Q)            
        22     5.49997313E+05   # mH2^2(Q)            
        31     5.00000000E+03   # meL(Q)              
        32     5.00000000E+03   # mmuL(Q)             
        33     5.00000000E+03   # mtauL(Q)            
        34     5.00000000E+03   # meR(Q)              
        35     5.00000000E+03   # mmuR(Q)             
        36     5.00000000E+03   # mtauR(Q)            
        41     5.00000000E+03   # mqL1(Q)             
        42     5.00000000E+03   # mqL2(Q)             
        43     5.00000000E+03   # mqL3(Q)             
        44     5.00000000E+03   # muR(Q)              
        45     5.00000000E+03   # mcR(Q)              
        46     5.00000000E+03   # mtR(Q)              
        47     5.00000000E+03   # mdR(Q)              
        48     5.00000000E+03   # msR(Q)              
        49     5.00000000E+03   # mbR(Q)              
#
#
#
#                             =================
#                             |The decay table|
#                             =================
#
# - The QCD corrections to the decays gluino -> squark  + quark
#                                     squark -> gaugino + quark_prime
#                                     squark -> squark_prime + Higgs
#                                     squark -> gluino  + quark
#   are included.
#
# - The multi-body decays for the inos, stops and sbottoms are included.
#
# - The loop induced decays for the gluino, neutralinos and stops
#   are included.
#
# - The SUSY decays of the top quark are included.
#
#
#         PDG            Width
DECAY         6     1.41147207E+00   # top decays
#          BR         NDA      ID1       ID2
     1.00000000E+00    2           5        24   # BR(t ->  b    W+)
#
#         PDG            Width
DECAY   1000021     1.50817247E-04   # gluino decays
#          BR         NDA      ID1       ID2
     1.78120679E-04    2     1000022        21   # BR(~g -> ~chi_10 g)
     1.96049027E-02    2     1000023        21   # BR(~g -> ~chi_20 g)
     1.99217439E-02    2     1000025        21   # BR(~g -> ~chi_30 g)
#           BR         NDA      ID1       ID2       ID3
     1.06583930E-02    3     1000022         1        -1   # BR(~g -> ~chi_10 d  db)
     2.05773012E-04    3     1000023         1        -1   # BR(~g -> ~chi_20 d  db)
     5.86330695E-04    3     1000025         1        -1   # BR(~g -> ~chi_30 d  db)
     3.62269715E-02    3     1000022         2        -2   # BR(~g -> ~chi_10 u  ub)
     4.95647915E-04    3     1000023         2        -2   # BR(~g -> ~chi_20 u  ub)
     2.37264230E-03    3     1000025         2        -2   # BR(~g -> ~chi_30 u  ub)
     1.06583930E-02    3     1000022         3        -3   # BR(~g -> ~chi_10 s  sb)
     2.05773012E-04    3     1000023         3        -3   # BR(~g -> ~chi_20 s  sb)
     5.86330695E-04    3     1000025         3        -3   # BR(~g -> ~chi_30 s  sb)
     3.62269715E-02    3     1000022         4        -4   # BR(~g -> ~chi_10 c  cb)
     4.95647915E-04    3     1000023         4        -4   # BR(~g -> ~chi_20 c  cb)
     2.37264230E-03    3     1000025         4        -4   # BR(~g -> ~chi_30 c  cb)
     1.19676338E-02    3     1000022         5        -5   # BR(~g -> ~chi_10 b  bb)
     5.97352498E-03    3     1000023         5        -5   # BR(~g -> ~chi_20 b  bb)
     6.02348274E-03    3     1000025         5        -5   # BR(~g -> ~chi_30 b  bb)
     2.46729701E-02    3     1000022         6        -6   # BR(~g -> ~chi_10 t  tb)
     1.67653130E-01    3     1000023         6        -6   # BR(~g -> ~chi_20 t  tb)
     1.99232187E-01    3     1000025         6        -6   # BR(~g -> ~chi_30 t  tb)
     6.04421968E-05    3     1000024         1        -2   # BR(~g -> ~chi_1+ d  ub)
     6.04421968E-05    3    -1000024         2        -1   # BR(~g -> ~chi_1- u  db)
     6.04421968E-05    3     1000024         3        -4   # BR(~g -> ~chi_1+ s  cb)
     6.04421968E-05    3    -1000024         4        -3   # BR(~g -> ~chi_1- c  sb)
     2.21719509E-01    3     1000024         5        -6   # BR(~g -> ~chi_1+ b  tb)
     2.21719509E-01    3    -1000024         6        -5   # BR(~g -> ~chi_1- t  bb)
#
#         PDG            Width
DECAY   1000006     4.12997054E+02   # stop1 decays
#          BR         NDA      ID1       ID2
     1.76075766E-02    2     1000022         6   # BR(~t_1 -> ~chi_10 t )
     7.45653076E-02    2     1000023         6   # BR(~t_1 -> ~chi_20 t )
     8.58289700E-02    2     1000025         6   # BR(~t_1 -> ~chi_30 t )
     4.99707728E-03    2     1000035         6   # BR(~t_1 -> ~chi_40 t )
     1.16105372E-01    2     1000024         5   # BR(~t_1 -> ~chi_1+ b )
     9.96273781E-03    2     1000037         5   # BR(~t_1 -> ~chi_2+ b )
     6.90932959E-01    2     1000021         6   # BR(~t_1 -> ~g      t )
#
#         PDG            Width
DECAY   2000006     4.12116082E+02   # stop2 decays
#          BR         NDA      ID1       ID2
     1.16092069E-02    2     1000022         6   # BR(~t_2 -> ~chi_10 t )
     8.85229852E-02    2     1000023         6   # BR(~t_2 -> ~chi_20 t )
     7.43359704E-02    2     1000025         6   # BR(~t_2 -> ~chi_30 t )
     1.35070747E-02    2     1000035         6   # BR(~t_2 -> ~chi_40 t )
     4.81898662E-02    2     1000024         5   # BR(~t_2 -> ~chi_1+ b )
     2.68987852E-02    2     1000037         5   # BR(~t_2 -> ~chi_2+ b )
     7.33949885E-01    2     1000021         6   # BR(~t_2 -> ~g      t )
     6.85366181E-04    2     1000006        25   # BR(~t_2 -> ~t_1    h )
     2.30085976E-03    2     1000006        23   # BR(~t_2 -> ~t_1    Z )
#
#         PDG            Width
DECAY   1000005     3.89264646E+02   # sbottom1 decays
#          BR         NDA      ID1       ID2
     2.24868124E-03    2     1000022         5   # BR(~b_1 -> ~chi_10 b )
     2.08844212E-03    2     1000023         5   # BR(~b_1 -> ~chi_20 b )
     1.90309398E-03    2     1000025         5   # BR(~b_1 -> ~chi_30 b )
     1.94886932E-02    2     1000035         5   # BR(~b_1 -> ~chi_40 b )
     1.71660070E-01    2    -1000024         6   # BR(~b_1 -> ~chi_1- t )
     3.91226960E-02    2    -1000037         6   # BR(~b_1 -> ~chi_2- t )
     7.62047197E-01    2     1000021         5   # BR(~b_1 -> ~g      b )
     1.44112619E-03    2     1000006       -24   # BR(~b_1 -> ~t_1    W-)
#
#         PDG            Width
DECAY   2000005     3.05297981E+02   # sbottom2 decays
#          BR         NDA      ID1       ID2
     9.21446324E-03    2     1000022         5   # BR(~b_2 -> ~chi_10 b )
     2.92489282E-03    2     1000023         5   # BR(~b_2 -> ~chi_20 b )
     3.15859567E-03    2     1000025         5   # BR(~b_2 -> ~chi_30 b )
     2.61312314E-05    2     1000035         5   # BR(~b_2 -> ~chi_40 b )
     5.75523935E-03    2    -1000024         6   # BR(~b_2 -> ~chi_1- t )
     5.24738485E-05    2    -1000037         6   # BR(~b_2 -> ~chi_2- t )
     9.78859830E-01    2     1000021         5   # BR(~b_2 -> ~g      b )
     8.37366141E-06    2     1000006       -24   # BR(~b_2 -> ~t_1    W-)
#
#         PDG            Width
DECAY   1000002     3.24570283E+02   # sup_L decays
#          BR         NDA      ID1       ID2
     2.10097181E-03    2     1000022         2   # BR(~u_L -> ~chi_10 u)
     6.01298454E-06    2     1000023         2   # BR(~u_L -> ~chi_20 u)
     2.48904377E-04    2     1000025         2   # BR(~u_L -> ~chi_30 u)
     2.42311308E-02    2     1000035         2   # BR(~u_L -> ~chi_40 u)
     1.54743331E-04    2     1000024         1   # BR(~u_L -> ~chi_1+ d)
     4.84330239E-02    2     1000037         1   # BR(~u_L -> ~chi_2+ d)
     9.24825213E-01    2     1000021         2   # BR(~u_L -> ~g      u)
#
#         PDG            Width
DECAY   2000002     3.10806726E+02   # sup_R decays
#          BR         NDA      ID1       ID2
     3.53412277E-02    2     1000022         2   # BR(~u_R -> ~chi_10 u)
     8.32319928E-04    2     1000023         2   # BR(~u_R -> ~chi_20 u)
     2.24381998E-03    2     1000025         2   # BR(~u_R -> ~chi_30 u)
     2.61086515E-09    2     1000035         2   # BR(~u_R -> ~chi_40 u)
     9.61582630E-01    2     1000021         2   # BR(~u_R -> ~g      u)
#
#         PDG            Width
DECAY   1000001     3.24579074E+02   # sdown_L decays
#          BR         NDA      ID1       ID2
     2.14456544E-03    2     1000022         1   # BR(~d_L -> ~chi_10 d)
     1.36635345E-04    2     1000023         1   # BR(~d_L -> ~chi_20 d)
     5.53763823E-05    2     1000025         1   # BR(~d_L -> ~chi_30 d)
     2.42459122E-02    2     1000035         1   # BR(~d_L -> ~chi_40 d)
     4.13839272E-07    2    -1000024         2   # BR(~d_L -> ~chi_1- u)
     4.85086999E-02    2    -1000037         2   # BR(~d_L -> ~chi_2- u)
     9.24908397E-01    2     1000021         1   # BR(~d_L -> ~g      d)
#
#         PDG            Width
DECAY   2000001     3.01874580E+02   # sdown_R decays
#          BR         NDA      ID1       ID2
     9.09730005E-03    2     1000022         1   # BR(~d_R -> ~chi_10 d)
     2.14250226E-04    2     1000023         1   # BR(~d_R -> ~chi_20 d)
     5.77589124E-04    2     1000025         1   # BR(~d_R -> ~chi_30 d)
     6.72168752E-10    2     1000035         1   # BR(~d_R -> ~chi_40 d)
     9.90110860E-01    2     1000021         1   # BR(~d_R -> ~g      d)
#
#         PDG            Width
DECAY   1000004     3.24570283E+02   # scharm_L decays
#          BR         NDA      ID1       ID2
     2.10097181E-03    2     1000022         4   # BR(~c_L -> ~chi_10 c)
     6.01298454E-06    2     1000023         4   # BR(~c_L -> ~chi_20 c)
     2.48904377E-04    2     1000025         4   # BR(~c_L -> ~chi_30 c)
     2.42311308E-02    2     1000035         4   # BR(~c_L -> ~chi_40 c)
     1.54743331E-04    2     1000024         3   # BR(~c_L -> ~chi_1+ s)
     4.84330239E-02    2     1000037         3   # BR(~c_L -> ~chi_2+ s)
     9.24825213E-01    2     1000021         4   # BR(~c_L -> ~g      c)
#
#         PDG            Width
DECAY   2000004     3.10806726E+02   # scharm_R decays
#          BR         NDA      ID1       ID2
     3.53412277E-02    2     1000022         4   # BR(~c_R -> ~chi_10 c)
     8.32319928E-04    2     1000023         4   # BR(~c_R -> ~chi_20 c)
     2.24381998E-03    2     1000025         4   # BR(~c_R -> ~chi_30 c)
     2.61086515E-09    2     1000035         4   # BR(~c_R -> ~chi_40 c)
     9.61582630E-01    2     1000021         4   # BR(~c_R -> ~g      c)
#
#         PDG            Width
DECAY   1000003     3.24579074E+02   # sstrange_L decays
#          BR         NDA      ID1       ID2
     2.14456544E-03    2     1000022         3   # BR(~s_L -> ~chi_10 s)
     1.36635345E-04    2     1000023         3   # BR(~s_L -> ~chi_20 s)
     5.53763823E-05    2     1000025         3   # BR(~s_L -> ~chi_30 s)
     2.42459122E-02    2     1000035         3   # BR(~s_L -> ~chi_40 s)
     4.13839272E-07    2    -1000024         4   # BR(~s_L -> ~chi_1- c)
     4.85086999E-02    2    -1000037         4   # BR(~s_L -> ~chi_2- c)
     9.24908397E-01    2     1000021         3   # BR(~s_L -> ~g      s)
#
#         PDG            Width
DECAY   2000003     3.01874580E+02   # sstrange_R decays
#          BR         NDA      ID1       ID2
     9.09730005E-03    2     1000022         3   # BR(~s_R -> ~chi_10 s)
     2.14250226E-04    2     1000023         3   # BR(~s_R -> ~chi_20 s)
     5.77589124E-04    2     1000025         3   # BR(~s_R -> ~chi_30 s)
     6.72168752E-10    2     1000035         3   # BR(~s_R -> ~chi_40 s)
     9.90110860E-01    2     1000021         3   # BR(~s_R -> ~g      s)
#
#         PDG            Width
DECAY   1000011     3.04355485E+01   # selectron_L decays
#          BR         NDA      ID1       ID2
     2.07145135E-01    2     1000022        11   # BR(~e_L -> ~chi_10 e-)
     2.99512329E-03    2     1000023        11   # BR(~e_L -> ~chi_20 e-)
     1.65415481E-02    2     1000025        11   # BR(~e_L -> ~chi_30 e-)
     2.57601177E-01    2     1000035        11   # BR(~e_L -> ~chi_40 e-)
     4.50164316E-06    2    -1000024        12   # BR(~e_L -> ~chi_1- nu_e)
     5.15712515E-01    2    -1000037        12   # BR(~e_L -> ~chi_2- nu_e)
#
#         PDG            Width
DECAY   2000011     2.74342728E+01   # selectron_R decays
#          BR         NDA      ID1       ID2
     9.19940596E-01    2     1000022        11   # BR(~e_R -> ~chi_10 e-)
     2.16618830E-02    2     1000023        11   # BR(~e_R -> ~chi_20 e-)
     5.83974539E-02    2     1000025        11   # BR(~e_R -> ~chi_30 e-)
     6.65477238E-08    2     1000035        11   # BR(~e_R -> ~chi_40 e-)
#
#         PDG            Width
DECAY   1000013     3.04355485E+01   # smuon_L decays
#          BR         NDA      ID1       ID2
     2.07145135E-01    2     1000022        13   # BR(~mu_L -> ~chi_10 mu-)
     2.99512329E-03    2     1000023        13   # BR(~mu_L -> ~chi_20 mu-)
     1.65415481E-02    2     1000025        13   # BR(~mu_L -> ~chi_30 mu-)
     2.57601177E-01    2     1000035        13   # BR(~mu_L -> ~chi_40 mu-)
     4.50164316E-06    2    -1000024        14   # BR(~mu_L -> ~chi_1- nu_mu)
     5.15712515E-01    2    -1000037        14   # BR(~mu_L -> ~chi_2- nu_mu)
#
#         PDG            Width
DECAY   2000013     2.74342728E+01   # smuon_R decays
#          BR         NDA      ID1       ID2
     9.19940596E-01    2     1000022        13   # BR(~mu_R -> ~chi_10 mu-)
     2.16618830E-02    2     1000023        13   # BR(~mu_R -> ~chi_20 mu-)
     5.83974539E-02    2     1000025        13   # BR(~mu_R -> ~chi_30 mu-)
     6.65477238E-08    2     1000035        13   # BR(~mu_R -> ~chi_40 mu-)
#
#         PDG            Width
DECAY   1000015     2.93127685E+01   # stau_1 decays
#          BR         NDA      ID1       ID2
     8.63860874E-01    2     1000022        15   # BR(~tau_1 -> ~chi_10  tau-)
     3.51194010E-02    2     1000023        15   # BR(~tau_1 -> ~chi_20  tau-)
     6.86157033E-02    2     1000025        15   # BR(~tau_1 -> ~chi_30  tau-)
     9.58292478E-05    2     1000035        15   # BR(~tau_1 -> ~chi_40  tau-)
     3.21165003E-02    2    -1000024        16   # BR(~tau_1 -> ~chi_1-  nu_tau)
     1.91692682E-04    2    -1000037        16   # BR(~tau_1 -> ~chi_2-  nu_tau)
#
#         PDG            Width
DECAY   2000015     3.13706528E+01   # stau_2 decays
#          BR         NDA      ID1       ID2
     2.02638226E-01    2     1000022        15   # BR(~tau_2 -> ~chi_10  tau-)
     1.75817436E-02    2     1000023        15   # BR(~tau_2 -> ~chi_20  tau-)
     3.00341410E-02    2     1000025        15   # BR(~tau_2 -> ~chi_30  tau-)
     2.49740898E-01    2     1000035        15   # BR(~tau_2 -> ~chi_40  tau-)
     2.85131393E-05    2    -1000024        16   # BR(~tau_2 -> ~chi_1-  nu_tau)
     4.99976479E-01    2    -1000037        16   # BR(~tau_2 -> ~chi_2-  nu_tau)
#
#         PDG            Width
DECAY   1000012     3.04383999E+01   # snu_eL decays
#          BR         NDA      ID1       ID2
     2.08504130E-01    2     1000022        12   # BR(~nu_eL -> ~chi_10 nu_e)
     7.25564355E-03    2     1000023        12   # BR(~nu_eL -> ~chi_20 nu_e)
     1.02226852E-02    2     1000025        12   # BR(~nu_eL -> ~chi_30 nu_e)
     2.57660161E-01    2     1000035        12   # BR(~nu_eL -> ~chi_40 nu_e)
     1.68289619E-03    2     1000024        11   # BR(~nu_eL -> ~chi_1+ e-)
     5.14674484E-01    2     1000037        11   # BR(~nu_eL -> ~chi_2+ e-)
#
#         PDG            Width
DECAY   1000014     3.04383999E+01   # snu_muL decays
#          BR         NDA      ID1       ID2
     2.08504130E-01    2     1000022        14   # BR(~nu_muL -> ~chi_10 nu_mu)
     7.25564355E-03    2     1000023        14   # BR(~nu_muL -> ~chi_20 nu_mu)
     1.02226852E-02    2     1000025        14   # BR(~nu_muL -> ~chi_30 nu_mu)
     2.57660161E-01    2     1000035        14   # BR(~nu_muL -> ~chi_40 nu_mu)
     1.68289619E-03    2     1000024        13   # BR(~nu_muL -> ~chi_1+ mu-)
     5.14674484E-01    2     1000037        13   # BR(~nu_muL -> ~chi_2+ mu-)
#
#         PDG            Width
DECAY   1000016     3.13733889E+01   # snu_tauL decays
#          BR         NDA      ID1       ID2
     2.02267892E-01    2     1000022        16   # BR(~nu_tauL -> ~chi_10 nu_tau)
     7.03862804E-03    2     1000023        16   # BR(~nu_tauL -> ~chi_20 nu_tau)
     9.91692582E-03    2     1000025        16   # BR(~nu_tauL -> ~chi_30 nu_tau)
     2.49887212E-01    2     1000035        16   # BR(~nu_tauL -> ~chi_40 nu_tau)
     3.17413805E-02    2     1000024        15   # BR(~nu_tauL -> ~chi_1+ tau-)
     4.99147961E-01    2     1000037        15   # BR(~nu_tauL -> ~chi_2+ tau-)
#
#         PDG            Width
DECAY   1000024     5.13612856E-02   # chargino1+ decays
#          BR         NDA      ID1       ID2
     1.00000000E+00    2     1000022        24   # BR(~chi_1+ -> ~chi_10  W+)
#
#         PDG            Width
DECAY   1000037     2.34440161E+01   # chargino2+ decays
#          BR         NDA      ID1       ID2
     2.53926680E-01    2     1000024        23   # BR(~chi_2+ -> ~chi_1+  Z )
     1.78528174E-03    2     1000022        24   # BR(~chi_2+ -> ~chi_10  W+)
     2.45170443E-01    2     1000023        24   # BR(~chi_2+ -> ~chi_20  W+)
     2.43649350E-01    2     1000025        24   # BR(~chi_2+ -> ~chi_30  W+)
     2.55412915E-01    2     1000024        25   # BR(~chi_2+ -> ~chi_1+  h )
     5.53303699E-05    2     1000022        37   # BR(~chi_2+ -> ~chi_10  H+)
#
#         PDG            Width
DECAY   1000022     0.00000000E+00   # neutralino1 decays
#
#         PDG            Width
DECAY   1000023     2.13836242E-02   # neutralino2 decays
#          BR         NDA      ID1       ID2
     1.00000000E+00    2     1000022        23   # BR(~chi_20 -> ~chi_10   Z )
#
#         PDG            Width
DECAY   1000025     2.52506419E-02   # neutralino3 decays
#          BR         NDA      ID1       ID2
     1.00000000E+00    2     1000022        23   # BR(~chi_30 -> ~chi_10   Z )
#
#         PDG            Width
DECAY   1000035     2.34548742E+01   # neutralino4 decays
#          BR         NDA      ID1       ID2
     1.72229545E-03    2     1000022        23   # BR(~chi_40 -> ~chi_10   Z )
     1.14757374E-01    2     1000023        23   # BR(~chi_40 -> ~chi_20   Z )
     1.37044059E-01    2     1000025        23   # BR(~chi_40 -> ~chi_30   Z )
     2.45669109E-01    2     1000024       -24   # BR(~chi_40 -> ~chi_1+   W-)
     2.45669109E-01    2    -1000024        24   # BR(~chi_40 -> ~chi_1-   W+)
     1.61085238E-04    2     1000022        25   # BR(~chi_40 -> ~chi_10   h )
     5.27417403E-05    2     1000022        35   # BR(~chi_40 -> ~chi_10   H )
     5.97710102E-06    2     1000022        36   # BR(~chi_40 -> ~chi_10   A )
     1.39320595E-01    2     1000023        25   # BR(~chi_40 -> ~chi_20   h )
     1.15597655E-01    2     1000025        25   # BR(~chi_40 -> ~chi_30   h )
#
#         PDG            Width
DECAY        25     4.06677783E-03   # h decays
#          BR         NDA      ID1       ID2
     6.12827590E-01    2           5        -5   # BR(h -> b       bb     )
     6.36205972E-02    2         -15        15   # BR(h -> tau+    tau-   )
     2.25241484E-04    2         -13        13   # BR(h -> mu+     mu-    )
     4.77741823E-04    2           3        -3   # BR(h -> s       sb     )
     2.06982661E-02    2           4        -4   # BR(h -> c       cb     )
     6.65802458E-02    2          21        21   # BR(h -> g       g      )
     2.27786324E-03    2          22        22   # BR(h -> gam     gam    )
     1.44373791E-03    2          22        23   # BR(h -> Z       gam    )
     2.02615245E-01    2          24       -24   # BR(h -> W+      W-     )
     2.39887812E-02    2          23        23   # BR(h -> Z       Z      )
     5.24469052E-03    2     1000022   1000022   # BR(h -> ~chi_10 ~chi_10)
#
#         PDG            Width
DECAY        35     8.83101169E+00   # H decays
#          BR         NDA      ID1       ID2
     3.59195003E-01    2           5        -5   # BR(H -> b       bb     )
     6.31135416E-02    2         -15        15   # BR(H -> tau+    tau-   )
     2.23174496E-04    2         -13        13   # BR(H -> mu+     mu-    )
     2.73577643E-04    2           3        -3   # BR(H -> s       sb     )
     1.52920589E-06    2           4        -4   # BR(H -> c       cb     )
     1.52779790E-01    2           6        -6   # BR(H -> t       tb     )
     5.08272481E-05    2          21        21   # BR(H -> g       g      )
     1.51647539E-07    2          22        22   # BR(H -> gam     gam    )
     9.00341173E-08    2          23        22   # BR(H -> Z       gam    )
     7.47507640E-05    2          24       -24   # BR(H -> W+      W-     )
     3.73280483E-05    2          23        23   # BR(H -> Z       Z      )
     2.66300165E-04    2          25        25   # BR(H -> h       h      )
     2.10133784E-24    2          36        36   # BR(H -> A       A      )
     7.62078611E-19    2          23        36   # BR(H -> Z       A      )
     3.50225642E-03    2     1000024  -1000024   # BR(H -> ~chi_1+ ~chi_1-)
     6.14418409E-02    2     1000022   1000022   # BR(H -> ~chi_10 ~chi_10)
     1.02222819E-02    2     1000023   1000023   # BR(H -> ~chi_20 ~chi_20)
     2.02271575E-02    2     1000025   1000025   # BR(H -> ~chi_30 ~chi_30)
     1.20855849E-01    2     1000022   1000023   # BR(H -> ~chi_10 ~chi_20)
     1.78560911E-01    2     1000022   1000025   # BR(H -> ~chi_10 ~chi_30)
     2.91736391E-02    2     1000023   1000025   # BR(H -> ~chi_20 ~chi_30)
#
#         PDG            Width
DECAY        36     8.83599613E+00   # A decays
#          BR         NDA      ID1       ID2
     3.59115467E-01    2           5        -5   # BR(A -> b       bb     )
     6.30797549E-02    2         -15        15   # BR(A -> tau+    tau-   )
     2.23054712E-04    2         -13        13   # BR(A -> mu+     mu-    )
     2.73630663E-04    2           3        -3   # BR(A -> s       sb     )
     1.53436188E-06    2           4        -4   # BR(A -> c       cb     )
     1.53210324E-01    2           6        -6   # BR(A -> t       tb     )
     1.51643445E-04    2          21        21   # BR(A -> g       g      )
     5.20770498E-07    2          22        22   # BR(A -> gam     gam    )
     1.83359767E-07    2          23        22   # BR(A -> Z       gam    )
     7.44275009E-05    2          23        25   # BR(A -> Z       h      )
     3.62426085E-03    2     1000024  -1000024   # BR(A -> ~chi_1+ ~chi_1-)
     5.54037486E-02    2     1000022   1000022   # BR(A -> ~chi_10 ~chi_10)
     1.60384939E-02    2     1000023   1000023   # BR(A -> ~chi_20 ~chi_20)
     1.31502667E-02    2     1000025   1000025   # BR(A -> ~chi_30 ~chi_30)
     1.94681449E-01    2     1000022   1000023   # BR(A -> ~chi_10 ~chi_20)
     1.11190459E-01    2     1000022   1000025   # BR(A -> ~chi_10 ~chi_30)
     2.97807805E-02    2     1000023   1000025   # BR(A -> ~chi_20 ~chi_30)
#
#         PDG            Width
DECAY        37     8.76134388E+00   # H+ decays
#          BR         NDA      ID1       ID2
     5.73784335E-04    2           4        -5   # BR(H+ -> c       bb     )
     6.36487355E-02    2         -15        16   # BR(H+ -> tau+    nu_tau )
     2.25066670E-04    2         -13        14   # BR(H+ -> mu+     nu_mu  )
     3.67220031E-06    2           2        -5   # BR(H+ -> u       bb     )
     1.32060944E-05    2           2        -3   # BR(H+ -> u       sb     )
     2.73101544E-04    2           4        -3   # BR(H+ -> c       sb     )
     5.09945079E-01    2           6        -5   # BR(H+ -> t       bb     )
     7.52217106E-05    2          24        25   # BR(H+ -> W+      h      )
     1.08485628E-12    2          24        36   # BR(H+ -> W+      A      )
     3.87482027E-01    2     1000024   1000022   # BR(H+ -> ~chi_1+ ~chi_10)
     5.78620865E-03    2     1000024   1000023   # BR(H+ -> ~chi_1+ ~chi_20)
     3.19738968E-02    2     1000024   1000025   # BR(H+ -> ~chi_1+ ~chi_30)
