#
#                              ======================
#                              | THE SUSYHIT OUTPUT |
#                              ======================
#
#
#              ------------------------------------------------------
#              |     This is the output of the SUSY-HIT package     |
#              |  created by A.Djouadi, M.Muehlleitner and M.Spira. |
#              |  In case of problems with SUSY-HIT email to        |
#              |           margarete.muehlleitner@cern.ch           |
#              |           michael.spira@psi.ch                     |
#              |           abdelhak.djouadi@cern.ch                 |
#              ------------------------------------------------------
#
#              ------------------------------------------------------
#              |  SUSY Les Houches Accord - MSSM Spectrum + Decays  |
#              |              based on the decay programs           |
#              |                                                    |
#              |                     SDECAY 1.3b                    |
#              |                                                    |
#              |  Authors: M.Muhlleitner, A.Djouadi and Y.Mambrini  |
#              |  Ref.:    Comput.Phys.Commun.168(2005)46           |
#              |           [hep-ph/0311167]                         |
#              |                                                    |
#              |                     HDECAY 3.4                     |
#              |                                                    |
#              |  By: A.Djouadi,J.Kalinowski,M.Muhlleitner,M.Spira  |
#              |  Ref.:    Comput.Phys.Commun.108(1998)56           |
#              |           [hep-ph/9704448]                         |
#              |                                                    |
#              |                                                    |
#              |  If not stated otherwise all DRbar couplings and   |
#              |  soft SUSY breaking masses are given at the scale  |
#              |  Q=  0.50007737E+04
#              |                                                    |
#              ------------------------------------------------------
#
#
BLOCK DCINFO  # Decay Program information
     1   SDECAY/HDECAY # decay calculator
     2   1.3b  /3.4    # version number
#
BLOCK SPINFO  # Spectrum calculator information
     1    SOFTSUSY    # spectrum calculator                
     2    3.4.0       # version number                     
#
BLOCK MODSEL  # Model selection
     1     0   #  nonUniversal                                     
#
BLOCK SMINPUTS  # Standard Model inputs
         1     1.25778332E+02   # alpha_em^-1(M_Z)^MSbar
         2     1.16570000E-05   # G_F [GeV^-2]
         3     1.17200002E-01   # alpha_S(M_Z)^MSbar
         4     9.11876000E+01   # M_Z pole mass
         5     4.25000000E+00   # mb(mb)^MSbar
         6     1.72500000E+02   # mt pole mass
         7     1.77682000E+00   # mtau pole mass
#
BLOCK MINPAR  # Input parameters - minimal models
         3     1.00000000E+01   # tanb                
#
BLOCK EXTPAR  # Input parameters - non-minimal models
         0    -1.00000000E+00   # Set                 
         1     6.00000000E+01   # M_1(MX)             
         2     3.00000000E+03   # M_2(MX)             
         3     1.94902400E+03   # M_3(MX)             
        11     5.00000000E+03   # At(MX)              
        12     5.00000000E+03   # Ab(MX)              
        13     0.00000000E+00   # Atau(MX)            
        23    -1.87270000E+02   # mu(MX)              
        26     3.00000000E+03   # mA(pole)            
        31     5.00000000E+03   # meL(MX)             
        32     5.00000000E+03   # mmuL(MX)            
        33     5.00000000E+03   # mtauL(MX)           
        34     5.00000000E+03   # meR(MX)             
        35     5.00000000E+03   # mmuR(MX)            
        36     5.00000000E+03   # mtauR(MX)           
        41     5.00000000E+03   # mqL1(MX)            
        42     5.00000000E+03   # mqL2(MX)            
        43     5.00000000E+03   # mqL3(MX)            
        44     5.00000000E+03   # muR(MX)             
        45     5.00000000E+03   # mcR(MX)             
        46     5.00000000E+03   # mtR(MX)             
        47     5.00000000E+03   # mdR(MX)             
        48     5.00000000E+03   # msR(MX)             
        49     5.00000000E+03   # mbR(MX)             
#
BLOCK MASS  # Mass Spectrum
# PDG code           mass       particle
        24     8.00909873E+01   # W+
        25     1.24787250E+02   # h
        35     3.00009108E+03   # H
        36     2.99999978E+03   # A
        37     3.00148187E+03   # H+
         5     4.87878001E+00   # b-quark pole mass calculated from mb(mb)_Msbar
   1000001     5.07647017E+03   # ~d_L
   2000001     5.05858777E+03   # ~d_R
   1000002     5.07599592E+03   # ~u_L
   2000002     5.05827799E+03   # ~u_R
   1000003     5.07647017E+03   # ~s_L
   2000003     5.05858777E+03   # ~s_R
   1000004     5.07599592E+03   # ~c_L
   2000004     5.05827799E+03   # ~c_R
   1000005     5.02247592E+03   # ~b_1
   2000005     5.05666408E+03   # ~b_2
   1000006     4.91408704E+03   # ~t_1
   2000006     5.06542192E+03   # ~t_2
   1000011     5.01916318E+03   # ~e_L
   2000011     5.00596019E+03   # ~e_R
   1000012     5.01821052E+03   # ~nu_eL
   1000013     5.01916318E+03   # ~mu_L
   2000013     5.00596019E+03   # ~mu_R
   1000014     5.01821052E+03   # ~nu_muL
   1000015     5.00483286E+03   # ~tau_1
   2000015     5.01862858E+03   # ~tau_2
   1000016     5.01765561E+03   # ~nu_tauL
   1000021     2.30000034E+03   # ~g
   1000022     5.87059624E+01   # ~chi_10
   1000023     2.04232749E+02   # ~chi_20
   1000025    -2.05083599E+02   # ~chi_30
   1000035     3.07430738E+03   # ~chi_40
   1000024     2.00000447E+02   # ~chi_1+
   1000037     3.07447552E+03   # ~chi_2+
#
BLOCK NMIX  # Neutralino Mixing Matrix
  1  1     9.72112860E-01   # N_11
  1  2    -5.01165068E-04   # N_12
  1  3    -2.30088777E-01   # N_13
  1  4    -4.53375287E-02   # N_14
  2  1     1.94542369E-01   # N_21
  2  2     1.71132444E-02   # N_22
  2  3     6.83258948E-01   # N_23
  2  4     7.03574882E-01   # N_24
  3  1    -1.30956816E-01   # N_31
  3  2     1.85833075E-02   # N_32
  3  3    -6.92975627E-01   # N_33
  3  4     7.08724031E-01   # N_34
  4  1    -4.08581762E-04   # N_41
  4  2     9.99680722E-01   # N_42
  4  3     1.07003098E-03   # N_43
  4  4    -2.52416662E-02   # N_44
#
BLOCK UMIX  # Chargino Mixing Matrix U
  1  1    -1.50930949E-03   # U_11
  1  2     9.99998861E-01   # U_12
  2  1    -9.99998861E-01   # U_21
  2  2    -1.50930949E-03   # U_22
#
BLOCK VMIX  # Chargino Mixing Matrix V
  1  1     3.57068430E-02   # V_11
  1  2    -9.99362307E-01   # V_12
  2  1    -9.99362307E-01   # V_21
  2  2    -3.57068430E-02   # V_22
#
BLOCK STOPMIX  # Stop Mixing Matrix
  1  1    -5.01172903E-01   # cos(theta_t)
  1  2     8.65347168E-01   # sin(theta_t)
  2  1    -8.65347168E-01   # -sin(theta_t)
  2  2    -5.01172903E-01   # cos(theta_t)
#
BLOCK SBOTMIX  # Sbottom Mixing Matrix
  1  1     9.99406405E-01   # cos(theta_b)
  1  2    -3.44505101E-02   # sin(theta_b)
  2  1     3.44505101E-02   # -sin(theta_b)
  2  2     9.99406405E-01   # cos(theta_b)
#
BLOCK STAUMIX  # Stau Mixing Matrix
  1  1    -2.21879747E-02   # cos(theta_tau)
  1  2     9.99753817E-01   # sin(theta_tau)
  2  1    -9.99753817E-01   # -sin(theta_tau)
  2  2    -2.21879747E-02   # cos(theta_tau)
#
BLOCK ALPHA  # Higgs mixing
          -1.05499120E-01   # Mixing angle in the neutral Higgs boson sector
#
BLOCK HMIX Q=  5.00077368E+03  # DRbar Higgs Parameters
         1    -1.90689497E+02   # mu(Q)MSSM           
         2     9.46835544E+00   # tan                 
         3     2.41662537E+02   # higgs               
         4     8.79005263E+06   # mA^2(Q)MSSM         
#
BLOCK GAUGE Q=  5.00077368E+03  # The gauge couplings
     1     3.71153410E-01   # gprime(Q) DRbar
     2     6.34340954E-01   # g(Q) DRbar
     3     9.96452523E-01   # g3(Q) DRbar
#
BLOCK AU Q=  5.00077368E+03  # The trilinear couplings
  1  1     5.00000001E+03   # A_u(Q) DRbar
  2  2     5.00000001E+03   # A_c(Q) DRbar
  3  3     5.00000002E+03   # A_t(Q) DRbar
#
BLOCK AD Q=  5.00077368E+03  # The trilinear couplings
  1  1     5.00000001E+03   # A_d(Q) DRbar
  2  2     5.00000001E+03   # A_s(Q) DRbar
  3  3     5.00000001E+03   # A_b(Q) DRbar
#
BLOCK AE Q=  5.00077368E+03  # The trilinear couplings
  1  1     0.00000000E+00   # A_e(Q) DRbar
  2  2     2.15776201E-07   # A_mu(Q) DRbar
  3  3     2.15576783E-07   # A_tau(Q) DRbar
#
BLOCK Yu Q=  5.00077368E+03  # The Yukawa couplings
  1  1     0.00000000E+00   # y_u(Q) DRbar
  2  2     0.00000000E+00   # y_c(Q) DRbar
  3  3     8.21275727E-01   # y_t(Q) DRbar
#
BLOCK Yd Q=  5.00077368E+03  # The Yukawa couplings
  1  1     0.00000000E+00   # y_d(Q) DRbar
  2  2     0.00000000E+00   # y_s(Q) DRbar
  3  3     1.29892037E-01   # y_b(Q) DRbar
#
BLOCK Ye Q=  5.00077368E+03  # The Yukawa couplings
  1  1     0.00000000E+00   # y_e(Q) DRbar
  2  2     0.00000000E+00   # y_mu(Q) DRbar
  3  3     9.73483701E-02   # y_tau(Q) DRbar
#
BLOCK MSOFT Q=  5.00077368E+03  # The soft SUSY breaking masses at the scale Q
         1     6.00000000E+01   # M_1(Q)              
         2     3.00000000E+03   # M_2(Q)              
         3     1.94902400E+03   # M_3(Q)              
        21     8.69788080E+06   # mH1^2(Q)            
        22     5.44290272E+05   # mH2^2(Q)            
        31     5.00000000E+03   # meL(Q)              
        32     5.00000000E+03   # mmuL(Q)             
        33     5.00000000E+03   # mtauL(Q)            
        34     5.00000000E+03   # meR(Q)              
        35     5.00000000E+03   # mmuR(Q)             
        36     5.00000000E+03   # mtauR(Q)            
        41     5.00000000E+03   # mqL1(Q)             
        42     5.00000000E+03   # mqL2(Q)             
        43     4.99999999E+03   # mqL3(Q)             
        44     5.00000000E+03   # muR(Q)              
        45     5.00000000E+03   # mcR(Q)              
        46     4.99999999E+03   # mtR(Q)              
        47     5.00000000E+03   # mdR(Q)              
        48     5.00000000E+03   # msR(Q)              
        49     5.00000000E+03   # mbR(Q)              
#
#
#
#                             =================
#                             |The decay table|
#                             =================
#
# - The QCD corrections to the decays gluino -> squark  + quark
#                                     squark -> gaugino + quark_prime
#                                     squark -> squark_prime + Higgs
#                                     squark -> gluino  + quark
#   are included.
#
# - The multi-body decays for the inos, stops and sbottoms are included.
#
# - The loop induced decays for the gluino, neutralinos and stops
#   are included.
#
# - The SUSY decays of the top quark are included.
#
#
#         PDG            Width
DECAY         6     1.41028204E+00   # top decays
#          BR         NDA      ID1       ID2
     1.00000000E+00    2           5        24   # BR(t ->  b    W+)
#
#         PDG            Width
DECAY   1000021     5.47652510E-03   # gluino decays
#          BR         NDA      ID1       ID2
     1.44362075E-05    2     1000022        21   # BR(~g -> ~chi_10 g)
     4.53278667E-03    2     1000023        21   # BR(~g -> ~chi_20 g)
     4.41541277E-03    2     1000025        21   # BR(~g -> ~chi_30 g)
#           BR         NDA      ID1       ID2       ID3
     8.41313704E-03    3     1000022         1        -1   # BR(~g -> ~chi_10 d  db)
     3.02102158E-04    3     1000023         1        -1   # BR(~g -> ~chi_20 d  db)
     1.63480783E-04    3     1000025         1        -1   # BR(~g -> ~chi_30 d  db)
     2.86360047E-02    3     1000022         2        -2   # BR(~g -> ~chi_10 u  ub)
     1.27108150E-03    3     1000023         2        -2   # BR(~g -> ~chi_20 u  ub)
     3.78813055E-04    3     1000025         2        -2   # BR(~g -> ~chi_30 u  ub)
     8.41313704E-03    3     1000022         3        -3   # BR(~g -> ~chi_10 s  sb)
     3.02102158E-04    3     1000023         3        -3   # BR(~g -> ~chi_20 s  sb)
     1.63480783E-04    3     1000025         3        -3   # BR(~g -> ~chi_30 s  sb)
     2.86360047E-02    3     1000022         4        -4   # BR(~g -> ~chi_10 c  cb)
     1.27108150E-03    3     1000023         4        -4   # BR(~g -> ~chi_20 c  cb)
     3.78813055E-04    3     1000025         4        -4   # BR(~g -> ~chi_30 c  cb)
     9.16071006E-03    3     1000022         5        -5   # BR(~g -> ~chi_10 b  bb)
     5.34674790E-03    3     1000023         5        -5   # BR(~g -> ~chi_20 b  bb)
     5.35648095E-03    3     1000025         5        -5   # BR(~g -> ~chi_30 b  bb)
     2.74425428E-02    3     1000022         6        -6   # BR(~g -> ~chi_10 t  tb)
     2.16339401E-01    3     1000023         6        -6   # BR(~g -> ~chi_20 t  tb)
     2.04419730E-01    3     1000025         6        -6   # BR(~g -> ~chi_30 t  tb)
     5.29305118E-05    3     1000024         1        -2   # BR(~g -> ~chi_1+ d  ub)
     5.29305118E-05    3    -1000024         2        -1   # BR(~g -> ~chi_1- u  db)
     5.29305118E-05    3     1000024         3        -4   # BR(~g -> ~chi_1+ s  cb)
     5.29305118E-05    3    -1000024         4        -3   # BR(~g -> ~chi_1- c  sb)
     2.22215396E-01    3     1000024         5        -6   # BR(~g -> ~chi_1+ b  tb)
     2.22215396E-01    3    -1000024         6        -5   # BR(~g -> ~chi_1- t  bb)
#
#         PDG            Width
DECAY   1000006     3.23268059E+02   # stop1 decays
#          BR         NDA      ID1       ID2
     2.40827428E-02    2     1000022         6   # BR(~t_1 -> ~chi_10 t )
     1.08350044E-01    2     1000023         6   # BR(~t_1 -> ~chi_20 t )
     9.61084993E-02    2     1000025         6   # BR(~t_1 -> ~chi_30 t )
     6.21934340E-03    2     1000035         6   # BR(~t_1 -> ~chi_40 t )
     1.50919586E-01    2     1000024         5   # BR(~t_1 -> ~chi_1+ b )
     1.23987435E-02    2     1000037         5   # BR(~t_1 -> ~chi_2+ b )
     6.01921042E-01    2     1000021         6   # BR(~t_1 -> ~g      t )
#
#         PDG            Width
DECAY   2000006     3.28424431E+02   # stop2 decays
#          BR         NDA      ID1       ID2
     1.27849009E-02    2     1000022         6   # BR(~t_2 -> ~chi_10 t )
     9.62536755E-02    2     1000023         6   # BR(~t_2 -> ~chi_20 t )
     1.10742884E-01    2     1000025         6   # BR(~t_2 -> ~chi_30 t )
     1.72978855E-02    2     1000035         6   # BR(~t_2 -> ~chi_40 t )
     5.89215081E-02    2     1000024         5   # BR(~t_2 -> ~chi_1+ b )
     3.44480141E-02    2     1000037         5   # BR(~t_2 -> ~chi_2+ b )
     6.65976978E-01    2     1000021         6   # BR(~t_2 -> ~g      t )
     8.34610401E-04    2     1000006        25   # BR(~t_2 -> ~t_1    h )
     2.73954326E-03    2     1000006        23   # BR(~t_2 -> ~t_1    Z )
#
#         PDG            Width
DECAY   1000005     3.02970084E+02   # sbottom1 decays
#          BR         NDA      ID1       ID2
     2.77615270E-03    2     1000022         5   # BR(~b_1 -> ~chi_10 b )
     2.54631946E-03    2     1000023         5   # BR(~b_1 -> ~chi_20 b )
     2.71719354E-03    2     1000025         5   # BR(~b_1 -> ~chi_30 b )
     2.52279054E-02    2     1000035         5   # BR(~b_1 -> ~chi_40 b )
     2.21753274E-01    2    -1000024         6   # BR(~b_1 -> ~chi_1- t )
     5.06453505E-02    2    -1000037         6   # BR(~b_1 -> ~chi_2- t )
     6.92551746E-01    2     1000021         5   # BR(~b_1 -> ~g      b )
     1.78205834E-03    2     1000006       -24   # BR(~b_1 -> ~t_1    W-)
#
#         PDG            Width
DECAY   2000005     2.18977646E+02   # sbottom2 decays
#          BR         NDA      ID1       ID2
     1.30267313E-02    2     1000022         5   # BR(~b_2 -> ~chi_10 b )
     4.24155041E-03    2     1000023         5   # BR(~b_2 -> ~chi_20 b )
     4.06468984E-03    2     1000025         5   # BR(~b_2 -> ~chi_30 b )
     3.48446104E-05    2     1000035         5   # BR(~b_2 -> ~chi_40 b )
     8.05279231E-03    2    -1000024         6   # BR(~b_2 -> ~chi_1- t )
     6.99781717E-05    2    -1000037         6   # BR(~b_2 -> ~chi_2- t )
     9.70497212E-01    2     1000021         5   # BR(~b_2 -> ~g      b )
     1.22015472E-05    2     1000006       -24   # BR(~b_2 -> ~t_1    W-)
#
#         PDG            Width
DECAY   1000002     2.38657333E+02   # sup_L decays
#          BR         NDA      ID1       ID2
     2.94188385E-03    2     1000022         2   # BR(~u_L -> ~chi_10 u)
     2.48748368E-04    2     1000023         2   # BR(~u_L -> ~chi_20 u)
     3.97260430E-06    2     1000025         2   # BR(~u_L -> ~chi_30 u)
     3.32025706E-02    2     1000035         2   # BR(~u_L -> ~chi_40 u)
     2.09287794E-04    2     1000024         1   # BR(~u_L -> ~chi_1+ d)
     6.63650810E-02    2     1000037         1   # BR(~u_L -> ~chi_2+ d)
     8.97028456E-01    2     1000021         2   # BR(~u_L -> ~g      u)
#
#         PDG            Width
DECAY   2000002     2.24468683E+02   # sup_R decays
#          BR         NDA      ID1       ID2
     5.01326148E-02    2     1000022         2   # BR(~u_R -> ~chi_10 u)
     2.00259712E-03    2     1000023         2   # BR(~u_R -> ~chi_20 u)
     9.07424599E-04    2     1000025         2   # BR(~u_R -> ~chi_30 u)
     3.54813612E-09    2     1000035         2   # BR(~u_R -> ~chi_40 u)
     9.46957360E-01    2     1000021         2   # BR(~u_R -> ~g      u)
#
#         PDG            Width
DECAY   1000001     2.38672044E+02   # sdown_L decays
#          BR         NDA      ID1       ID2
     2.97325366E-03    2     1000022         1   # BR(~d_L -> ~chi_10 d)
     3.56050771E-05    2     1000023         1   # BR(~d_L -> ~chi_20 d)
     1.59778163E-04    2     1000025         1   # BR(~d_L -> ~chi_30 d)
     3.32213582E-02    2     1000035         1   # BR(~d_L -> ~chi_40 d)
     3.73948894E-07    2    -1000024         2   # BR(~d_L -> ~chi_1- u)
     6.64660586E-02    2    -1000037         2   # BR(~d_L -> ~chi_2- u)
     8.97143572E-01    2     1000021         1   # BR(~d_L -> ~g      d)
#
#         PDG            Width
DECAY   2000001     2.15565650E+02   # sdown_R decays
#          BR         NDA      ID1       ID2
     1.30515953E-02    2     1000022         1   # BR(~d_R -> ~chi_10 d)
     5.21359103E-04    2     1000023         1   # BR(~d_R -> ~chi_20 d)
     2.36240267E-04    2     1000025         1   # BR(~d_R -> ~chi_30 d)
     9.23857483E-10    2     1000035         1   # BR(~d_R -> ~chi_40 d)
     9.86190804E-01    2     1000021         1   # BR(~d_R -> ~g      d)
#
#         PDG            Width
DECAY   1000004     2.38657333E+02   # scharm_L decays
#          BR         NDA      ID1       ID2
     2.94188385E-03    2     1000022         4   # BR(~c_L -> ~chi_10 c)
     2.48748368E-04    2     1000023         4   # BR(~c_L -> ~chi_20 c)
     3.97260430E-06    2     1000025         4   # BR(~c_L -> ~chi_30 c)
     3.32025706E-02    2     1000035         4   # BR(~c_L -> ~chi_40 c)
     2.09287794E-04    2     1000024         3   # BR(~c_L -> ~chi_1+ s)
     6.63650810E-02    2     1000037         3   # BR(~c_L -> ~chi_2+ s)
     8.97028456E-01    2     1000021         4   # BR(~c_L -> ~g      c)
#
#         PDG            Width
DECAY   2000004     2.24468683E+02   # scharm_R decays
#          BR         NDA      ID1       ID2
     5.01326148E-02    2     1000022         4   # BR(~c_R -> ~chi_10 c)
     2.00259712E-03    2     1000023         4   # BR(~c_R -> ~chi_20 c)
     9.07424599E-04    2     1000025         4   # BR(~c_R -> ~chi_30 c)
     3.54813612E-09    2     1000035         4   # BR(~c_R -> ~chi_40 c)
     9.46957360E-01    2     1000021         4   # BR(~c_R -> ~g      c)
#
#         PDG            Width
DECAY   1000003     2.38672044E+02   # sstrange_L decays
#          BR         NDA      ID1       ID2
     2.97325366E-03    2     1000022         3   # BR(~s_L -> ~chi_10 s)
     3.56050771E-05    2     1000023         3   # BR(~s_L -> ~chi_20 s)
     1.59778163E-04    2     1000025         3   # BR(~s_L -> ~chi_30 s)
     3.32213582E-02    2     1000035         3   # BR(~s_L -> ~chi_40 s)
     3.73948894E-07    2    -1000024         4   # BR(~s_L -> ~chi_1- c)
     6.64660586E-02    2    -1000037         4   # BR(~s_L -> ~chi_2- c)
     8.97143572E-01    2     1000021         3   # BR(~s_L -> ~g      s)
#
#         PDG            Width
DECAY   2000003     2.15565650E+02   # sstrange_R decays
#          BR         NDA      ID1       ID2
     1.30515953E-02    2     1000022         3   # BR(~s_R -> ~chi_10 s)
     5.21359103E-04    2     1000023         3   # BR(~s_R -> ~chi_20 s)
     2.36240267E-04    2     1000025         3   # BR(~s_R -> ~chi_30 s)
     9.23857483E-10    2     1000035         3   # BR(~s_R -> ~chi_40 s)
     9.86190804E-01    2     1000021         3   # BR(~s_R -> ~g      s)
#
#         PDG            Width
DECAY   1000011     3.04159016E+01   # selectron_L decays
#          BR         NDA      ID1       ID2
     2.13248780E-01    2     1000022        11   # BR(~e_L -> ~chi_10 e-)
     1.12871049E-02    2     1000023        11   # BR(~e_L -> ~chi_20 e-)
     2.21755405E-03    2     1000025        11   # BR(~e_L -> ~chi_30 e-)
     2.57578911E-01    2     1000035        11   # BR(~e_L -> ~chi_40 e-)
     2.99973314E-06    2    -1000024        12   # BR(~e_L -> ~chi_1- nu_e)
     5.15664650E-01    2    -1000037        12   # BR(~e_L -> ~chi_2- nu_e)
#
#         PDG            Width
DECAY   2000011     2.74259593E+01   # selectron_R decays
#          BR         NDA      ID1       ID2
     9.45162602E-01    2     1000022        11   # BR(~e_R -> ~chi_10 e-)
     3.77375821E-02    2     1000023        11   # BR(~e_R -> ~chi_20 e-)
     1.70997513E-02    2     1000025        11   # BR(~e_R -> ~chi_30 e-)
     6.47903951E-08    2     1000035        11   # BR(~e_R -> ~chi_40 e-)
#
#         PDG            Width
DECAY   1000013     3.04159016E+01   # smuon_L decays
#          BR         NDA      ID1       ID2
     2.13248780E-01    2     1000022        13   # BR(~mu_L -> ~chi_10 mu-)
     1.12871049E-02    2     1000023        13   # BR(~mu_L -> ~chi_20 mu-)
     2.21755405E-03    2     1000025        13   # BR(~mu_L -> ~chi_30 mu-)
     2.57578911E-01    2     1000035        13   # BR(~mu_L -> ~chi_40 mu-)
     2.99973314E-06    2    -1000024        14   # BR(~mu_L -> ~chi_1- nu_mu)
     5.15664650E-01    2    -1000037        14   # BR(~mu_L -> ~chi_2- nu_mu)
#
#         PDG            Width
DECAY   2000013     2.74259593E+01   # smuon_R decays
#          BR         NDA      ID1       ID2
     9.45162602E-01    2     1000022        13   # BR(~mu_R -> ~chi_10 mu-)
     3.77375821E-02    2     1000023        13   # BR(~mu_R -> ~chi_20 mu-)
     1.70997513E-02    2     1000025        13   # BR(~mu_R -> ~chi_30 mu-)
     6.47903951E-08    2     1000035        13   # BR(~mu_R -> ~chi_40 mu-)
#
#         PDG            Width
DECAY   1000015     2.93015024E+01   # stau_1 decays
#          BR         NDA      ID1       ID2
     8.86704754E-01    2     1000022        15   # BR(~tau_1 -> ~chi_10  tau-)
     4.98509166E-02    2     1000023        15   # BR(~tau_1 -> ~chi_20  tau-)
     3.09750555E-02    2     1000025        15   # BR(~tau_1 -> ~chi_30  tau-)
     1.33161883E-04    2     1000035        15   # BR(~tau_1 -> ~chi_40  tau-)
     3.20696760E-02    2    -1000024        16   # BR(~tau_1 -> ~chi_1-  nu_tau)
     2.66436249E-04    2    -1000037        16   # BR(~tau_1 -> ~chi_2-  nu_tau)
#
#         PDG            Width
DECAY   2000015     3.13491624E+01   # stau_2 decays
#          BR         NDA      ID1       ID2
     2.07973890E-01    2     1000022        15   # BR(~tau_2 -> ~chi_10  tau-)
     2.54114574E-02    2     1000023        15   # BR(~tau_2 -> ~chi_20  tau-)
     1.70084528E-02    2     1000025        15   # BR(~tau_2 -> ~chi_30  tau-)
     2.49694634E-01    2     1000035        15   # BR(~tau_2 -> ~chi_40  tau-)
     3.08476325E-05    2    -1000024        16   # BR(~tau_2 -> ~chi_1-  nu_tau)
     4.99880718E-01    2    -1000037        16   # BR(~tau_2 -> ~chi_2-  nu_tau)
#
#         PDG            Width
DECAY   1000012     3.04188425E+01   # snu_eL decays
#          BR         NDA      ID1       ID2
     2.13940368E-01    2     1000022        12   # BR(~nu_eL -> ~chi_10 nu_e)
     6.15584319E-03    2     1000023        12   # BR(~nu_eL -> ~chi_20 nu_e)
     5.96527986E-03    2     1000025        12   # BR(~nu_eL -> ~chi_30 nu_e)
     2.57634037E-01    2     1000035        12   # BR(~nu_eL -> ~chi_40 nu_e)
     1.67843284E-03    2     1000024        11   # BR(~nu_eL -> ~chi_1+ e-)
     5.14626039E-01    2     1000037        11   # BR(~nu_eL -> ~chi_2+ e-)
#
#         PDG            Width
DECAY   1000014     3.04188425E+01   # snu_muL decays
#          BR         NDA      ID1       ID2
     2.13940368E-01    2     1000022        14   # BR(~nu_muL -> ~chi_10 nu_mu)
     6.15584319E-03    2     1000023        14   # BR(~nu_muL -> ~chi_20 nu_mu)
     5.96527986E-03    2     1000025        14   # BR(~nu_muL -> ~chi_30 nu_mu)
     2.57634037E-01    2     1000035        14   # BR(~nu_muL -> ~chi_40 nu_mu)
     1.67843284E-03    2     1000024        13   # BR(~nu_muL -> ~chi_1+ mu-)
     5.14626039E-01    2     1000037        13   # BR(~nu_muL -> ~chi_2+ mu-)
#
#         PDG            Width
DECAY   1000016     3.13522310E+01   # snu_tauL decays
#          BR         NDA      ID1       ID2
     2.07548176E-01    2     1000022        16   # BR(~nu_tauL -> ~chi_10 nu_tau)
     5.97191253E-03    2     1000023        16   # BR(~nu_tauL -> ~chi_20 nu_tau)
     5.78704301E-03    2     1000025        16   # BR(~nu_tauL -> ~chi_30 nu_tau)
     2.49869937E-01    2     1000035        16   # BR(~nu_tauL -> ~chi_40 nu_tau)
     3.17059010E-02    2     1000024        15   # BR(~nu_tauL -> ~chi_1+ tau-)
     4.99117031E-01    2     1000037        15   # BR(~nu_tauL -> ~chi_2+ tau-)
#
#         PDG            Width
DECAY   1000024     8.35956102E-02   # chargino1+ decays
#          BR         NDA      ID1       ID2
     1.00000000E+00    2     1000022        24   # BR(~chi_1+ -> ~chi_10  W+)
#
#         PDG            Width
DECAY   1000037     2.32998281E+01   # chargino2+ decays
#          BR         NDA      ID1       ID2
     2.53775423E-01    2     1000024        23   # BR(~chi_2+ -> ~chi_1+  Z )
     7.55844344E-04    2     1000022        24   # BR(~chi_2+ -> ~chi_10  W+)
     2.44844364E-01    2     1000023        24   # BR(~chi_2+ -> ~chi_20  W+)
     2.44868247E-01    2     1000025        24   # BR(~chi_2+ -> ~chi_30  W+)
     2.55718626E-01    2     1000024        25   # BR(~chi_2+ -> ~chi_1+  h )
     3.74959486E-05    2     1000022        37   # BR(~chi_2+ -> ~chi_10  H+)
#
#         PDG            Width
DECAY   1000022     0.00000000E+00   # neutralino1 decays
#
#         PDG            Width
DECAY   1000023     6.58387751E-02   # neutralino2 decays
#          BR         NDA      ID1       ID2
     5.81805669E-01    2     1000022        23   # BR(~chi_20 -> ~chi_10   Z )
     4.18194331E-01    2     1000022        25   # BR(~chi_20 -> ~chi_10   h )
#
#         PDG            Width
DECAY   1000025     4.88210636E-02   # neutralino3 decays
#          BR         NDA      ID1       ID2
     9.02132283E-01    2     1000022        23   # BR(~chi_30 -> ~chi_10   Z )
     9.78677166E-02    2     1000022        25   # BR(~chi_30 -> ~chi_10   h )
#
#         PDG            Width
DECAY   1000035     2.33020644E+01   # neutralino4 decays
#          BR         NDA      ID1       ID2
     7.78260750E-04    2     1000022        23   # BR(~chi_40 -> ~chi_10   Z )
     1.35969864E-01    2     1000023        23   # BR(~chi_40 -> ~chi_20   Z )
     1.16844782E-01    2     1000025        23   # BR(~chi_40 -> ~chi_30   Z )
     2.45447057E-01    2     1000024       -24   # BR(~chi_40 -> ~chi_1+   W-)
     2.45447057E-01    2    -1000024        24   # BR(~chi_40 -> ~chi_1-   W+)
     1.15464733E-05    2     1000022        25   # BR(~chi_40 -> ~chi_10   h )
     3.59736336E-05    2     1000022        35   # BR(~chi_40 -> ~chi_10   H )
     3.92587656E-06    2     1000022        36   # BR(~chi_40 -> ~chi_10   A )
     1.18325974E-01    2     1000023        25   # BR(~chi_40 -> ~chi_20   h )
     1.37135560E-01    2     1000025        25   # BR(~chi_40 -> ~chi_30   h )
#
#         PDG            Width
DECAY        25     4.08527092E-03   # h decays
#          BR         NDA      ID1       ID2
     6.09131035E-01    2           5        -5   # BR(h -> b       bb     )
     6.35070743E-02    2         -15        15   # BR(h -> tau+    tau-   )
     2.24838073E-04    2         -13        13   # BR(h -> mu+     mu-    )
     4.76632084E-04    2           3        -3   # BR(h -> s       sb     )
     2.06499495E-02    2           4        -4   # BR(h -> c       cb     )
     6.68142011E-02    2          21        21   # BR(h -> g       g      )
     2.29436915E-03    2          22        22   # BR(h -> gam     gam    )
     1.48235229E-03    2          22        23   # BR(h -> Z       gam    )
     2.09272512E-01    2          24       -24   # BR(h -> W+      W-     )
     2.49283702E-02    2          23        23   # BR(h -> Z       Z      )
     1.21866680E-03    2     1000022   1000022   # BR(h -> ~chi_10 ~chi_10)
#
#         PDG            Width
DECAY        35     8.81462874E+00   # H decays
#          BR         NDA      ID1       ID2
     3.59111747E-01    2           5        -5   # BR(H -> b       bb     )
     6.31832873E-02    2         -15        15   # BR(H -> tau+    tau-   )
     2.23421123E-04    2         -13        13   # BR(H -> mu+     mu-    )
     2.73879909E-04    2           3        -3   # BR(H -> s       sb     )
     1.53321648E-06    2           4        -4   # BR(H -> c       cb     )
     1.53180480E-01    2           6        -6   # BR(H -> t       tb     )
     5.09778026E-05    2          21        21   # BR(H -> g       g      )
     1.46801656E-07    2          22        22   # BR(H -> gam     gam    )
     9.03534622E-08    2          23        22   # BR(H -> Z       gam    )
     7.52406513E-05    2          24       -24   # BR(H -> W+      W-     )
     3.75726912E-05    2          23        23   # BR(H -> Z       Z      )
     2.67140095E-04    2          25        25   # BR(H -> h       h      )
     5.46617551E-25    2          36        36   # BR(H -> A       A      )
     7.21317795E-19    2          23        36   # BR(H -> Z       A      )
     3.48393530E-03    2     1000024  -1000024   # BR(H -> ~chi_1+ ~chi_1-)
     4.37379141E-02    2     1000022   1000022   # BR(H -> ~chi_10 ~chi_10)
     1.24645145E-02    2     1000023   1000023   # BR(H -> ~chi_20 ~chi_20)
     8.49047100E-03    2     1000025   1000025   # BR(H -> ~chi_30 ~chi_30)
     2.02433945E-01    2     1000022   1000023   # BR(H -> ~chi_10 ~chi_20)
     1.31772931E-01    2     1000022   1000025   # BR(H -> ~chi_10 ~chi_30)
     2.12107721E-02    2     1000023   1000025   # BR(H -> ~chi_20 ~chi_30)
#
#         PDG            Width
DECAY        36     8.81961543E+00   # A decays
#          BR         NDA      ID1       ID2
     3.59031746E-01    2           5        -5   # BR(A -> b       bb     )
     6.31493926E-02    2         -15        15   # BR(A -> tau+    tau-   )
     2.23300956E-04    2         -13        13   # BR(A -> mu+     mu-    )
     2.73932831E-04    2           3        -3   # BR(A -> s       sb     )
     1.53836841E-06    2           4        -4   # BR(A -> c       cb     )
     1.53610388E-01    2           6        -6   # BR(A -> t       tb     )
     1.51991874E-04    2          21        21   # BR(A -> g       g      )
     5.33825999E-07    2          22        22   # BR(A -> gam     gam    )
     1.83900791E-07    2          23        22   # BR(A -> Z       gam    )
     7.49130668E-05    2          23        25   # BR(A -> Z       h      )
     3.60899761E-03    2     1000024  -1000024   # BR(A -> ~chi_1+ ~chi_1-)
     4.02797151E-02    2     1000022   1000022   # BR(A -> ~chi_10 ~chi_10)
     8.19721647E-03    2     1000023   1000023   # BR(A -> ~chi_20 ~chi_20)
     1.33519635E-02    2     1000025   1000025   # BR(A -> ~chi_30 ~chi_30)
     1.28590780E-01    2     1000022   1000023   # BR(A -> ~chi_10 ~chi_20)
     2.08670600E-01    2     1000022   1000025   # BR(A -> ~chi_10 ~chi_30)
     2.07828056E-02    2     1000023   1000025   # BR(A -> ~chi_20 ~chi_30)
#
#         PDG            Width
DECAY        37     8.75709999E+00   # H+ decays
#          BR         NDA      ID1       ID2
     5.75074837E-04    2           4        -5   # BR(H+ -> c       bb     )
     6.36316258E-02    2         -15        16   # BR(H+ -> tau+    nu_tau )
     2.25006168E-04    2         -13        14   # BR(H+ -> mu+     nu_mu  )
     3.68045949E-06    2           2        -5   # BR(H+ -> u       bb     )
     1.32025464E-05    2           2        -3   # BR(H+ -> u       sb     )
     2.73030405E-04    2           4        -3   # BR(H+ -> c       sb     )
     5.10938250E-01    2           6        -5   # BR(H+ -> t       bb     )
     7.56084580E-05    2          24        25   # BR(H+ -> W+      h      )
     1.07305543E-12    2          24        36   # BR(H+ -> W+      A      )
     3.98233747E-01    2     1000024   1000022   # BR(H+ -> ~chi_1+ ~chi_10)
     2.17850486E-02    2     1000024   1000023   # BR(H+ -> ~chi_1+ ~chi_20)
     4.24572512E-03    2     1000024   1000025   # BR(H+ -> ~chi_1+ ~chi_30)
