#
#                              ======================
#                              | THE SUSYHIT OUTPUT |
#                              ======================
#
#
#              ------------------------------------------------------
#              |     This is the output of the SUSY-HIT package     |
#              |  created by A.Djouadi, M.Muehlleitner and M.Spira. |
#              |  In case of problems with SUSY-HIT email to        |
#              |           margarete.muehlleitner@cern.ch           |
#              |           michael.spira@psi.ch                     |
#              |           abdelhak.djouadi@cern.ch                 |
#              ------------------------------------------------------
#
#              ------------------------------------------------------
#              |  SUSY Les Houches Accord - MSSM Spectrum + Decays  |
#              |              based on the decay programs           |
#              |                                                    |
#              |                     SDECAY 1.3b                    |
#              |                                                    |
#              |  Authors: M.Muhlleitner, A.Djouadi and Y.Mambrini  |
#              |  Ref.:    Comput.Phys.Commun.168(2005)46           |
#              |           [hep-ph/0311167]                         |
#              |                                                    |
#              |                     HDECAY 3.4                     |
#              |                                                    |
#              |  By: A.Djouadi,J.Kalinowski,M.Muhlleitner,M.Spira  |
#              |  Ref.:    Comput.Phys.Commun.108(1998)56           |
#              |           [hep-ph/9704448]                         |
#              |                                                    |
#              |                                                    |
#              |  If not stated otherwise all DRbar couplings and   |
#              |  soft SUSY breaking masses are given at the scale  |
#              |  Q=  0.50007693E+04
#              |                                                    |
#              ------------------------------------------------------
#
#
BLOCK DCINFO  # Decay Program information
     1   SDECAY/HDECAY # decay calculator
     2   1.3b  /3.4    # version number
#
BLOCK SPINFO  # Spectrum calculator information
     1    SOFTSUSY    # spectrum calculator                
     2    3.4.0       # version number                     
#
BLOCK MODSEL  # Model selection
     1     0   #  nonUniversal                                     
#
BLOCK SMINPUTS  # Standard Model inputs
         1     1.25778332E+02   # alpha_em^-1(M_Z)^MSbar
         2     1.16570000E-05   # G_F [GeV^-2]
         3     1.17200002E-01   # alpha_S(M_Z)^MSbar
         4     9.11876000E+01   # M_Z pole mass
         5     4.25000000E+00   # mb(mb)^MSbar
         6     1.72500000E+02   # mt pole mass
         7     1.77682000E+00   # mtau pole mass
#
BLOCK MINPAR  # Input parameters - minimal models
         3     1.00000000E+01   # tanb                
#
BLOCK EXTPAR  # Input parameters - non-minimal models
         0    -1.00000000E+00   # Set                 
         1     6.00000000E+01   # M_1(MX)             
         2     3.00000000E+03   # M_2(MX)             
         3     1.39219300E+03   # M_3(MX)             
        11     5.00000000E+03   # At(MX)              
        12     5.00000000E+03   # Ab(MX)              
        13     0.00000000E+00   # Atau(MX)            
        23    -1.87295000E+02   # mu(MX)              
        26     3.00000000E+03   # mA(pole)            
        31     5.00000000E+03   # meL(MX)             
        32     5.00000000E+03   # mmuL(MX)            
        33     5.00000000E+03   # mtauL(MX)           
        34     5.00000000E+03   # meR(MX)             
        35     5.00000000E+03   # mmuR(MX)            
        36     5.00000000E+03   # mtauR(MX)           
        41     5.00000000E+03   # mqL1(MX)            
        42     5.00000000E+03   # mqL2(MX)            
        43     5.00000000E+03   # mqL3(MX)            
        44     5.00000000E+03   # muR(MX)             
        45     5.00000000E+03   # mcR(MX)             
        46     5.00000000E+03   # mtR(MX)             
        47     5.00000000E+03   # mdR(MX)             
        48     5.00000000E+03   # msR(MX)             
        49     5.00000000E+03   # mbR(MX)             
#
BLOCK MASS  # Mass Spectrum
# PDG code           mass       particle
        24     8.00902157E+01   # W+
        25     1.24673689E+02   # h
        35     3.00009086E+03   # H
        36     2.99999978E+03   # A
        37     3.00148202E+03   # H+
         5     4.87878001E+00   # b-quark pole mass calculated from mb(mb)_Msbar
   1000001     5.06857888E+03   # ~d_L
   2000001     5.05066581E+03   # ~d_R
   1000002     5.06810195E+03   # ~u_L
   2000002     5.05035491E+03   # ~u_R
   1000003     5.06857888E+03   # ~s_L
   2000003     5.05066581E+03   # ~s_R
   1000004     5.06810195E+03   # ~c_L
   2000004     5.05035491E+03   # ~c_R
   1000005     5.01474233E+03   # ~b_1
   2000005     5.04875942E+03   # ~b_2
   1000006     4.90559414E+03   # ~t_1
   2000006     5.05851584E+03   # ~t_2
   1000011     5.01916521E+03   # ~e_L
   2000011     5.00596054E+03   # ~e_R
   1000012     5.01821233E+03   # ~nu_eL
   1000013     5.01916521E+03   # ~mu_L
   2000013     5.00596054E+03   # ~mu_R
   1000014     5.01821233E+03   # ~nu_muL
   1000015     5.00483303E+03   # ~tau_1
   2000015     5.01863053E+03   # ~tau_2
   1000016     5.01765733E+03   # ~nu_tauL
   1000021     1.70000109E+03   # ~g
   1000022     5.87056581E+01   # ~chi_10
   1000023     2.04232968E+02   # ~chi_20
   1000025    -2.05084678E+02   # ~chi_30
   1000035     3.07431479E+03   # ~chi_40
   1000024     2.00000696E+02   # ~chi_1+
   1000037     3.07448296E+03   # ~chi_2+
#
BLOCK NMIX  # Neutralino Mixing Matrix
  1  1     9.72110343E-01   # N_11
  1  2    -5.01349623E-04   # N_12
  1  3    -2.30098639E-01   # N_13
  1  4    -4.53414367E-02   # N_14
  2  1     1.94552244E-01   # N_21
  2  2     1.71147113E-02   # N_22
  2  3     6.83257575E-01   # N_23
  2  4     7.03573448E-01   # N_24
  3  1    -1.30960826E-01   # N_31
  3  2     1.85845453E-02   # N_32
  3  3    -6.92973707E-01   # N_33
  3  4     7.08725136E-01   # N_34
  4  1    -4.08621433E-04   # N_41
  4  2     9.99680674E-01   # N_42
  4  3     1.06982685E-03   # N_43
  4  4    -2.52435837E-02   # N_44
#
BLOCK UMIX  # Chargino Mixing Matrix U
  1  1    -1.50901902E-03   # U_11
  1  2     9.99998861E-01   # U_12
  2  1    -9.99998861E-01   # U_21
  2  2    -1.50901902E-03   # U_22
#
BLOCK VMIX  # Chargino Mixing Matrix V
  1  1     3.57095693E-02   # V_11
  1  2    -9.99362210E-01   # V_12
  2  1    -9.99362210E-01   # V_21
  2  2    -3.57095693E-02   # V_22
#
BLOCK STOPMIX  # Stop Mixing Matrix
  1  1    -5.03494608E-01   # cos(theta_t)
  1  2     8.63998368E-01   # sin(theta_t)
  2  1    -8.63998368E-01   # -sin(theta_t)
  2  2    -5.03494608E-01   # cos(theta_t)
#
BLOCK SBOTMIX  # Sbottom Mixing Matrix
  1  1     9.99391627E-01   # cos(theta_b)
  1  2    -3.48765807E-02   # sin(theta_b)
  2  1     3.48765807E-02   # -sin(theta_b)
  2  2     9.99391627E-01   # cos(theta_b)
#
BLOCK STAUMIX  # Stau Mixing Matrix
  1  1    -2.21878361E-02   # cos(theta_tau)
  1  2     9.99753820E-01   # sin(theta_tau)
  2  1    -9.99753820E-01   # -sin(theta_tau)
  2  2    -2.21878361E-02   # cos(theta_tau)
#
BLOCK ALPHA  # Higgs mixing
          -1.05484222E-01   # Mixing angle in the neutral Higgs boson sector
#
BLOCK HMIX Q=  5.00076926E+03  # DRbar Higgs Parameters
         1    -1.90686204E+02   # mu(Q)MSSM           
         2     9.46967244E+00   # tan                 
         3     2.41675954E+02   # higgs               
         4     8.78948756E+06   # mA^2(Q)MSSM         
#
BLOCK GAUGE Q=  5.00076926E+03  # The gauge couplings
     1     3.71165037E-01   # gprime(Q) DRbar
     2     6.34375595E-01   # g(Q) DRbar
     3     1.00088687E+00   # g3(Q) DRbar
#
BLOCK AU Q=  5.00076926E+03  # The trilinear couplings
  1  1     5.00000001E+03   # A_u(Q) DRbar
  2  2     5.00000001E+03   # A_c(Q) DRbar
  3  3     5.00000001E+03   # A_t(Q) DRbar
#
BLOCK AD Q=  5.00076926E+03  # The trilinear couplings
  1  1     5.00000000E+03   # A_d(Q) DRbar
  2  2     5.00000000E+03   # A_s(Q) DRbar
  3  3     5.00000001E+03   # A_b(Q) DRbar
#
BLOCK AE Q=  5.00076926E+03  # The trilinear couplings
  1  1     0.00000000E+00   # A_e(Q) DRbar
  2  2     1.25963050E-07   # A_mu(Q) DRbar
  3  3     1.25406630E-07   # A_tau(Q) DRbar
#
BLOCK Yu Q=  5.00076926E+03  # The Yukawa couplings
  1  1     0.00000000E+00   # y_u(Q) DRbar
  2  2     0.00000000E+00   # y_c(Q) DRbar
  3  3     8.19364930E-01   # y_t(Q) DRbar
#
BLOCK Yd Q=  5.00076926E+03  # The Yukawa couplings
  1  1     0.00000000E+00   # y_d(Q) DRbar
  2  2     0.00000000E+00   # y_s(Q) DRbar
  3  3     1.29574223E-01   # y_b(Q) DRbar
#
BLOCK Ye Q=  5.00076926E+03  # The Yukawa couplings
  1  1     0.00000000E+00   # y_e(Q) DRbar
  2  2     0.00000000E+00   # y_mu(Q) DRbar
  3  3     9.73564396E-02   # y_tau(Q) DRbar
#
BLOCK MSOFT Q=  5.00076926E+03  # The soft SUSY breaking masses at the scale Q
         1     6.00000000E+01   # M_1(Q)              
         2     3.00000000E+03   # M_2(Q)              
         3     1.39219300E+03   # M_3(Q)              
        21     8.69774455E+06   # mH1^2(Q)            
        22     5.42073981E+05   # mH2^2(Q)            
        31     5.00000000E+03   # meL(Q)              
        32     5.00000000E+03   # mmuL(Q)             
        33     5.00000000E+03   # mtauL(Q)            
        34     5.00000000E+03   # meR(Q)              
        35     5.00000000E+03   # mmuR(Q)             
        36     5.00000000E+03   # mtauR(Q)            
        41     5.00000000E+03   # mqL1(Q)             
        42     5.00000000E+03   # mqL2(Q)             
        43     5.00000000E+03   # mqL3(Q)             
        44     5.00000000E+03   # muR(Q)              
        45     5.00000000E+03   # mcR(Q)              
        46     4.99999999E+03   # mtR(Q)              
        47     5.00000000E+03   # mdR(Q)              
        48     5.00000000E+03   # msR(Q)              
        49     5.00000000E+03   # mbR(Q)              
#
#
#
#                             =================
#                             |The decay table|
#                             =================
#
# - The QCD corrections to the decays gluino -> squark  + quark
#                                     squark -> gaugino + quark_prime
#                                     squark -> squark_prime + Higgs
#                                     squark -> gluino  + quark
#   are included.
#
# - The multi-body decays for the inos, stops and sbottoms are included.
#
# - The loop induced decays for the gluino, neutralinos and stops
#   are included.
#
# - The SUSY decays of the top quark are included.
#
#
#         PDG            Width
DECAY         6     1.41047000E+00   # top decays
#          BR         NDA      ID1       ID2
     1.00000000E+00    2           5        24   # BR(t ->  b    W+)
#
#         PDG            Width
DECAY   1000021     1.02940587E-03   # gluino decays
#          BR         NDA      ID1       ID2
     3.07696739E-05    2     1000022        21   # BR(~g -> ~chi_10 g)
     8.87034579E-03    2     1000023        21   # BR(~g -> ~chi_20 g)
     8.65207672E-03    2     1000025        21   # BR(~g -> ~chi_30 g)
#           BR         NDA      ID1       ID2       ID3
     9.33154704E-03    3     1000022         1        -1   # BR(~g -> ~chi_10 d  db)
     3.27978680E-04    3     1000023         1        -1   # BR(~g -> ~chi_20 d  db)
     1.60752140E-04    3     1000025         1        -1   # BR(~g -> ~chi_30 d  db)
     3.17589233E-02    3     1000022         2        -2   # BR(~g -> ~chi_10 u  ub)
     1.37999397E-03    3     1000023         2        -2   # BR(~g -> ~chi_20 u  ub)
     3.72375458E-04    3     1000025         2        -2   # BR(~g -> ~chi_30 u  ub)
     9.33154704E-03    3     1000022         3        -3   # BR(~g -> ~chi_10 s  sb)
     3.27978680E-04    3     1000023         3        -3   # BR(~g -> ~chi_20 s  sb)
     1.60752140E-04    3     1000025         3        -3   # BR(~g -> ~chi_30 s  sb)
     3.17589233E-02    3     1000022         4        -4   # BR(~g -> ~chi_10 c  cb)
     1.37999397E-03    3     1000023         4        -4   # BR(~g -> ~chi_20 c  cb)
     3.72375458E-04    3     1000025         4        -4   # BR(~g -> ~chi_30 c  cb)
     1.01576757E-02    3     1000022         5        -5   # BR(~g -> ~chi_10 b  bb)
     5.54961850E-03    3     1000023         5        -5   # BR(~g -> ~chi_20 b  bb)
     5.53664652E-03    3     1000025         5        -5   # BR(~g -> ~chi_30 b  bb)
     2.74552964E-02    3     1000022         6        -6   # BR(~g -> ~chi_10 t  tb)
     2.11171677E-01    3     1000023         6        -6   # BR(~g -> ~chi_20 t  tb)
     1.92459023E-01    3     1000025         6        -6   # BR(~g -> ~chi_30 t  tb)
     5.50904143E-05    3     1000024         1        -2   # BR(~g -> ~chi_1+ d  ub)
     5.50904143E-05    3    -1000024         2        -1   # BR(~g -> ~chi_1- u  db)
     5.50904143E-05    3     1000024         3        -4   # BR(~g -> ~chi_1+ s  cb)
     5.50904143E-05    3    -1000024         4        -3   # BR(~g -> ~chi_1- c  sb)
     2.21616684E-01    3     1000024         5        -6   # BR(~g -> ~chi_1+ b  tb)
     2.21616684E-01    3    -1000024         6        -5   # BR(~g -> ~chi_1- t  bb)
#
#         PDG            Width
DECAY   1000006     3.76498188E+02   # stop1 decays
#          BR         NDA      ID1       ID2
     2.05553681E-02    2     1000022         6   # BR(~t_1 -> ~chi_10 t )
     9.30162284E-02    2     1000023         6   # BR(~t_1 -> ~chi_20 t )
     8.24144843E-02    2     1000025         6   # BR(~t_1 -> ~chi_30 t )
     5.41849835E-03    2     1000035         6   # BR(~t_1 -> ~chi_40 t )
     1.28531907E-01    2     1000024         5   # BR(~t_1 -> ~chi_1+ b )
     1.08023091E-02    2     1000037         5   # BR(~t_1 -> ~chi_2+ b )
     6.59261204E-01    2     1000021         6   # BR(~t_1 -> ~g      t )
#
#         PDG            Width
DECAY   2000006     3.78695206E+02   # stop2 decays
#          BR         NDA      ID1       ID2
     1.12683981E-02    2     1000022         6   # BR(~t_2 -> ~chi_10 t )
     8.33018220E-02    2     1000023         6   # BR(~t_2 -> ~chi_20 t )
     9.59496319E-02    2     1000025         6   # BR(~t_2 -> ~chi_30 t )
     1.48150601E-02    2     1000035         6   # BR(~t_2 -> ~chi_40 t )
     5.19756803E-02    2     1000024         5   # BR(~t_2 -> ~chi_1+ b )
     2.95035023E-02    2     1000037         5   # BR(~t_2 -> ~chi_2+ b )
     7.09982100E-01    2     1000021         6   # BR(~t_2 -> ~g      t )
     7.42490092E-04    2     1000006        25   # BR(~t_2 -> ~t_1    h )
     2.46131472E-03    2     1000006        23   # BR(~t_2 -> ~t_1    Z )
#
#         PDG            Width
DECAY   1000005     3.54421038E+02   # sbottom1 decays
#          BR         NDA      ID1       ID2
     2.38221668E-03    2     1000022         5   # BR(~b_1 -> ~chi_10 b )
     2.17088847E-03    2     1000023         5   # BR(~b_1 -> ~chi_20 b )
     2.31701925E-03    2     1000025         5   # BR(~b_1 -> ~chi_30 b )
     2.14550267E-02    2     1000035         5   # BR(~b_1 -> ~chi_40 b )
     1.89314010E-01    2    -1000024         6   # BR(~b_1 -> ~chi_1- t )
     4.30709096E-02    2    -1000037         6   # BR(~b_1 -> ~chi_2- t )
     7.37721904E-01    2     1000021         5   # BR(~b_1 -> ~g      b )
     1.56802563E-03    2     1000006       -24   # BR(~b_1 -> ~t_1    W-)
#
#         PDG            Width
DECAY   2000005     2.70352586E+02   # sbottom2 decays
#          BR         NDA      ID1       ID2
     1.05609474E-02    2     1000022         5   # BR(~b_2 -> ~chi_10 b )
     3.43511776E-03    2     1000023         5   # BR(~b_2 -> ~chi_20 b )
     3.29146333E-03    2     1000025         5   # BR(~b_2 -> ~chi_30 b )
     3.04931248E-05    2     1000035         5   # BR(~b_2 -> ~chi_40 b )
     6.53310709E-03    2    -1000024         6   # BR(~b_2 -> ~chi_1- t )
     6.12339431E-05    2    -1000037         6   # BR(~b_2 -> ~chi_2- t )
     9.76077488E-01    2     1000021         5   # BR(~b_2 -> ~g      b )
     1.01496143E-05    2     1000006       -24   # BR(~b_2 -> ~t_1    W-)
#
#         PDG            Width
DECAY   1000002     2.89771800E+02   # sup_L decays
#          BR         NDA      ID1       ID2
     2.42704953E-03    2     1000022         2   # BR(~u_L -> ~chi_10 u)
     2.05215756E-04    2     1000023         2   # BR(~u_L -> ~chi_20 u)
     3.27608103E-06    2     1000025         2   # BR(~u_L -> ~chi_30 u)
     2.72097713E-02    2     1000035         2   # BR(~u_L -> ~chi_40 u)
     1.72672455E-04    2     1000024         1   # BR(~u_L -> ~chi_1+ d)
     5.43866632E-02    2     1000037         1   # BR(~u_L -> ~chi_2+ d)
     9.15595352E-01    2     1000021         2   # BR(~u_L -> ~g      u)
#
#         PDG            Width
DECAY   2000002     2.75839641E+02   # sup_R decays
#          BR         NDA      ID1       ID2
     4.08659391E-02    2     1000022         2   # BR(~u_R -> ~chi_10 u)
     1.63235611E-03    2     1000023         2   # BR(~u_R -> ~chi_20 u)
     7.39629063E-04    2     1000025         2   # BR(~u_R -> ~chi_30 u)
     2.87319261E-09    2     1000035         2   # BR(~u_R -> ~chi_40 u)
     9.56762073E-01    2     1000021         2   # BR(~u_R -> ~g      u)
#
#         PDG            Width
DECAY   1000001     2.89783302E+02   # sdown_L decays
#          BR         NDA      ID1       ID2
     2.45299356E-03    2     1000022         1   # BR(~d_L -> ~chi_10 d)
     2.93707231E-05    2     1000023         1   # BR(~d_L -> ~chi_20 d)
     1.31815194E-04    2     1000025         1   # BR(~d_L -> ~chi_30 d)
     2.72258552E-02    2     1000035         1   # BR(~d_L -> ~chi_40 d)
     3.08366685E-07    2    -1000024         2   # BR(~d_L -> ~chi_1- u)
     5.44707993E-02    2    -1000037         2   # BR(~d_L -> ~chi_2- u)
     9.15688858E-01    2     1000021         1   # BR(~d_L -> ~g      d)
#
#         PDG            Width
DECAY   2000001     2.66919326E+02   # sdown_R decays
#          BR         NDA      ID1       ID2
     1.05585703E-02    2     1000022         1   # BR(~d_R -> ~chi_10 d)
     4.21753491E-04    2     1000023         1   # BR(~d_R -> ~chi_20 d)
     1.91098706E-04    2     1000025         1   # BR(~d_R -> ~chi_30 d)
     7.42455910E-10    2     1000035         1   # BR(~d_R -> ~chi_40 d)
     9.88828577E-01    2     1000021         1   # BR(~d_R -> ~g      d)
#
#         PDG            Width
DECAY   1000004     2.89771800E+02   # scharm_L decays
#          BR         NDA      ID1       ID2
     2.42704953E-03    2     1000022         4   # BR(~c_L -> ~chi_10 c)
     2.05215756E-04    2     1000023         4   # BR(~c_L -> ~chi_20 c)
     3.27608103E-06    2     1000025         4   # BR(~c_L -> ~chi_30 c)
     2.72097713E-02    2     1000035         4   # BR(~c_L -> ~chi_40 c)
     1.72672455E-04    2     1000024         3   # BR(~c_L -> ~chi_1+ s)
     5.43866632E-02    2     1000037         3   # BR(~c_L -> ~chi_2+ s)
     9.15595352E-01    2     1000021         4   # BR(~c_L -> ~g      c)
#
#         PDG            Width
DECAY   2000004     2.75839641E+02   # scharm_R decays
#          BR         NDA      ID1       ID2
     4.08659391E-02    2     1000022         4   # BR(~c_R -> ~chi_10 c)
     1.63235611E-03    2     1000023         4   # BR(~c_R -> ~chi_20 c)
     7.39629063E-04    2     1000025         4   # BR(~c_R -> ~chi_30 c)
     2.87319261E-09    2     1000035         4   # BR(~c_R -> ~chi_40 c)
     9.56762073E-01    2     1000021         4   # BR(~c_R -> ~g      c)
#
#         PDG            Width
DECAY   1000003     2.89783302E+02   # sstrange_L decays
#          BR         NDA      ID1       ID2
     2.45299356E-03    2     1000022         3   # BR(~s_L -> ~chi_10 s)
     2.93707231E-05    2     1000023         3   # BR(~s_L -> ~chi_20 s)
     1.31815194E-04    2     1000025         3   # BR(~s_L -> ~chi_30 s)
     2.72258552E-02    2     1000035         3   # BR(~s_L -> ~chi_40 s)
     3.08366685E-07    2    -1000024         4   # BR(~s_L -> ~chi_1- c)
     5.44707993E-02    2    -1000037         4   # BR(~s_L -> ~chi_2- c)
     9.15688858E-01    2     1000021         3   # BR(~s_L -> ~g      s)
#
#         PDG            Width
DECAY   2000003     2.66919326E+02   # sstrange_R decays
#          BR         NDA      ID1       ID2
     1.05585703E-02    2     1000022         3   # BR(~s_R -> ~chi_10 s)
     4.21753491E-04    2     1000023         3   # BR(~s_R -> ~chi_20 s)
     1.91098706E-04    2     1000025         3   # BR(~s_R -> ~chi_30 s)
     7.42455910E-10    2     1000035         3   # BR(~s_R -> ~chi_40 s)
     9.88828577E-01    2     1000021         3   # BR(~s_R -> ~g      s)
#
#         PDG            Width
DECAY   1000011     3.04188036E+01   # selectron_L decays
#          BR         NDA      ID1       ID2
     2.13240630E-01    2     1000022        11   # BR(~e_L -> ~chi_10 e-)
     1.12880574E-02    2     1000023        11   # BR(~e_L -> ~chi_20 e-)
     2.21753388E-03    2     1000025        11   # BR(~e_L -> ~chi_30 e-)
     2.57581297E-01    2     1000035        11   # BR(~e_L -> ~chi_40 e-)
     2.99862124E-06    2    -1000024        12   # BR(~e_L -> ~chi_1- nu_e)
     5.15669483E-01    2    -1000037        12   # BR(~e_L -> ~chi_2- nu_e)
#
#         PDG            Width
DECAY   2000011     2.74276791E+01   # selectron_R decays
#          BR         NDA      ID1       ID2
     9.45157723E-01    2     1000022        11   # BR(~e_R -> ~chi_10 e-)
     3.77414136E-02    2     1000023        11   # BR(~e_R -> ~chi_20 e-)
     1.71007982E-02    2     1000025        11   # BR(~e_R -> ~chi_30 e-)
     6.48026108E-08    2     1000035        11   # BR(~e_R -> ~chi_40 e-)
#
#         PDG            Width
DECAY   1000013     3.04188036E+01   # smuon_L decays
#          BR         NDA      ID1       ID2
     2.13240630E-01    2     1000022        13   # BR(~mu_L -> ~chi_10 mu-)
     1.12880574E-02    2     1000023        13   # BR(~mu_L -> ~chi_20 mu-)
     2.21753388E-03    2     1000025        13   # BR(~mu_L -> ~chi_30 mu-)
     2.57581297E-01    2     1000035        13   # BR(~mu_L -> ~chi_40 mu-)
     2.99862124E-06    2    -1000024        14   # BR(~mu_L -> ~chi_1- nu_mu)
     5.15669483E-01    2    -1000037        14   # BR(~mu_L -> ~chi_2- nu_mu)
#
#         PDG            Width
DECAY   2000013     2.74276791E+01   # smuon_R decays
#          BR         NDA      ID1       ID2
     9.45157723E-01    2     1000022        13   # BR(~mu_R -> ~chi_10 mu-)
     3.77414136E-02    2     1000023        13   # BR(~mu_R -> ~chi_20 mu-)
     1.71007982E-02    2     1000025        13   # BR(~mu_R -> ~chi_30 mu-)
     6.48026108E-08    2     1000035        13   # BR(~mu_R -> ~chi_40 mu-)
#
#         PDG            Width
DECAY   1000015     2.93035333E+01   # stau_1 decays
#          BR         NDA      ID1       ID2
     8.86694705E-01    2     1000022        15   # BR(~tau_1 -> ~chi_10  tau-)
     4.98556189E-02    2     1000023        15   # BR(~tau_1 -> ~chi_20  tau-)
     3.09772963E-02    2     1000025        15   # BR(~tau_1 -> ~chi_30  tau-)
     1.33164332E-04    2     1000035        15   # BR(~tau_1 -> ~chi_40  tau-)
     3.20727741E-02    2    -1000024        16   # BR(~tau_1 -> ~chi_1-  nu_tau)
     2.66441152E-04    2    -1000037        16   # BR(~tau_1 -> ~chi_2-  nu_tau)
#
#         PDG            Width
DECAY   2000015     3.13522183E+01   # stau_2 decays
#          BR         NDA      ID1       ID2
     2.07965741E-01    2     1000022        15   # BR(~tau_2 -> ~chi_10  tau-)
     2.54132875E-02    2     1000023        15   # BR(~tau_2 -> ~chi_20  tau-)
     1.70093611E-02    2     1000025        15   # BR(~tau_2 -> ~chi_30  tau-)
     2.49696419E-01    2     1000035        15   # BR(~tau_2 -> ~chi_40  tau-)
     3.08453027E-05    2    -1000024        16   # BR(~tau_2 -> ~chi_1-  nu_tau)
     4.99884346E-01    2    -1000037        16   # BR(~tau_2 -> ~chi_2-  nu_tau)
#
#         PDG            Width
DECAY   1000012     3.04217451E+01   # snu_eL decays
#          BR         NDA      ID1       ID2
     2.13932477E-01    2     1000022        12   # BR(~nu_eL -> ~chi_10 nu_e)
     6.15614175E-03    2     1000023        12   # BR(~nu_eL -> ~chi_20 nu_e)
     5.96558971E-03    2     1000025        12   # BR(~nu_eL -> ~chi_30 nu_e)
     2.57636400E-01    2     1000035        12   # BR(~nu_eL -> ~chi_40 nu_e)
     1.67871292E-03    2     1000024        11   # BR(~nu_eL -> ~chi_1+ e-)
     5.14630678E-01    2     1000037        11   # BR(~nu_eL -> ~chi_2+ e-)
#
#         PDG            Width
DECAY   1000014     3.04217451E+01   # snu_muL decays
#          BR         NDA      ID1       ID2
     2.13932477E-01    2     1000022        14   # BR(~nu_muL -> ~chi_10 nu_mu)
     6.15614175E-03    2     1000023        14   # BR(~nu_muL -> ~chi_20 nu_mu)
     5.96558971E-03    2     1000025        14   # BR(~nu_muL -> ~chi_30 nu_mu)
     2.57636400E-01    2     1000035        14   # BR(~nu_muL -> ~chi_40 nu_mu)
     1.67871292E-03    2     1000024        13   # BR(~nu_muL -> ~chi_1+ mu-)
     5.14630678E-01    2     1000037        13   # BR(~nu_muL -> ~chi_2+ mu-)
#
#         PDG            Width
DECAY   1000016     3.13552877E+01   # snu_tauL decays
#          BR         NDA      ID1       ID2
     2.07540086E-01    2     1000022        16   # BR(~nu_tauL -> ~chi_10 nu_tau)
     5.97218967E-03    2     1000023        16   # BR(~nu_tauL -> ~chi_20 nu_tau)
     5.78733149E-03    2     1000025        16   # BR(~nu_tauL -> ~chi_30 nu_tau)
     2.49871695E-01    2     1000035        16   # BR(~nu_tauL -> ~chi_40 nu_tau)
     3.17082335E-02    2     1000024        15   # BR(~nu_tauL -> ~chi_1+ tau-)
     4.99120464E-01    2     1000037        15   # BR(~nu_tauL -> ~chi_2+ tau-)
#
#         PDG            Width
DECAY   1000024     8.36147262E-02   # chargino1+ decays
#          BR         NDA      ID1       ID2
     1.00000000E+00    2     1000022        24   # BR(~chi_1+ -> ~chi_10  W+)
#
#         PDG            Width
DECAY   1000037     2.33053443E+01   # chargino2+ decays
#          BR         NDA      ID1       ID2
     2.53780358E-01    2     1000024        23   # BR(~chi_2+ -> ~chi_1+  Z )
     7.55941365E-04    2     1000022        24   # BR(~chi_2+ -> ~chi_10  W+)
     2.44855817E-01    2     1000023        24   # BR(~chi_2+ -> ~chi_20  W+)
     2.44881214E-01    2     1000025        24   # BR(~chi_2+ -> ~chi_30  W+)
     2.55689161E-01    2     1000024        25   # BR(~chi_2+ -> ~chi_1+  h )
     3.75087848E-05    2     1000022        37   # BR(~chi_2+ -> ~chi_10  H+)
#
#         PDG            Width
DECAY   1000022     0.00000000E+00   # neutralino1 decays
#
#         PDG            Width
DECAY   1000023     6.59390118E-02   # neutralino2 decays
#          BR         NDA      ID1       ID2
     5.81015720E-01    2     1000022        23   # BR(~chi_20 -> ~chi_10   Z )
     4.18984280E-01    2     1000022        25   # BR(~chi_20 -> ~chi_10   h )
#
#         PDG            Width
DECAY   1000025     4.88679047E-02   # neutralino3 decays
#          BR         NDA      ID1       ID2
     9.01476804E-01    2     1000022        23   # BR(~chi_30 -> ~chi_10   Z )
     9.85231957E-02    2     1000022        25   # BR(~chi_30 -> ~chi_10   h )
#
#         PDG            Width
DECAY   1000035     2.33075906E+01   # neutralino4 decays
#          BR         NDA      ID1       ID2
     7.78324561E-04    2     1000022        23   # BR(~chi_40 -> ~chi_10   Z )
     1.35969080E-01    2     1000023        23   # BR(~chi_40 -> ~chi_20   Z )
     1.16850140E-01    2     1000025        23   # BR(~chi_40 -> ~chi_30   Z )
     2.45459605E-01    2     1000024       -24   # BR(~chi_40 -> ~chi_1+   W-)
     2.45459605E-01    2    -1000024        24   # BR(~chi_40 -> ~chi_1-   W+)
     1.15650113E-05    2     1000022        25   # BR(~chi_40 -> ~chi_10   h )
     3.59840926E-05    2     1000022        35   # BR(~chi_40 -> ~chi_10   H )
     3.92872458E-06    2     1000022        36   # BR(~chi_40 -> ~chi_10   A )
     1.18315593E-01    2     1000023        25   # BR(~chi_40 -> ~chi_20   h )
     1.37116174E-01    2     1000025        25   # BR(~chi_40 -> ~chi_30   h )
#
#         PDG            Width
DECAY        25     4.07465502E-03   # h decays
#          BR         NDA      ID1       ID2
     6.11326018E-01    2           5        -5   # BR(h -> b       bb     )
     6.36140462E-02    2         -15        15   # BR(h -> tau+    tau-   )
     2.25217291E-04    2         -13        13   # BR(h -> mu+     mu-    )
     4.77520724E-04    2           3        -3   # BR(h -> s       sb     )
     2.06885888E-02    2           4        -4   # BR(h -> c       cb     )
     6.68088924E-02    2          21        21   # BR(h -> g       g      )
     2.29159988E-03    2          22        22   # BR(h -> gam     gam    )
     1.47101571E-03    2          22        23   # BR(h -> Z       gam    )
     2.07262282E-01    2          24       -24   # BR(h -> W+      W-     )
     2.46388098E-02    2          23        23   # BR(h -> Z       Z      )
     1.19600901E-03    2     1000022   1000022   # BR(h -> ~chi_10 ~chi_10)
#
#         PDG            Width
DECAY        35     8.81861006E+00   # H decays
#          BR         NDA      ID1       ID2
     3.59399703E-01    2           5        -5   # BR(H -> b       bb     )
     6.31723332E-02    2         -15        15   # BR(H -> tau+    tau-   )
     2.23382388E-04    2         -13        13   # BR(H -> mu+     mu-    )
     2.73832451E-04    2           3        -3   # BR(H -> s       sb     )
     1.53208829E-06    2           4        -4   # BR(H -> c       cb     )
     1.53067765E-01    2           6        -6   # BR(H -> t       tb     )
     5.09330086E-05    2          21        21   # BR(H -> g       g      )
     1.46664238E-07    2          22        22   # BR(H -> gam     gam    )
     9.02586176E-08    2          23        22   # BR(H -> Z       gam    )
     7.50030273E-05    2          24       -24   # BR(H -> W+      W-     )
     3.74540265E-05    2          23        23   # BR(H -> Z       Z      )
     2.66779931E-04    2          25        25   # BR(H -> h       h      )
     6.47161336E-24    2          36        36   # BR(H -> A       A      )
     1.14771938E-18    2          23        36   # BR(H -> Z       A      )
     3.48285045E-03    2     1000024  -1000024   # BR(H -> ~chi_1+ ~chi_1-)
     4.37245185E-02    2     1000022   1000022   # BR(H -> ~chi_10 ~chi_10)
     1.24606357E-02    2     1000023   1000023   # BR(H -> ~chi_20 ~chi_20)
     8.48794877E-03    2     1000025   1000025   # BR(H -> ~chi_30 ~chi_30)
     2.02346468E-01    2     1000022   1000023   # BR(H -> ~chi_10 ~chi_20)
     1.31724420E-01    2     1000022   1000025   # BR(H -> ~chi_10 ~chi_30)
     2.12042035E-02    2     1000023   1000025   # BR(H -> ~chi_20 ~chi_30)
#
#         PDG            Width
DECAY        36     8.82360866E+00   # A decays
#          BR         NDA      ID1       ID2
     3.59319258E-01    2           5        -5   # BR(A -> b       bb     )
     6.31383744E-02    2         -15        15   # BR(A -> tau+    tau-   )
     2.23261995E-04    2         -13        13   # BR(A -> mu+     mu-    )
     2.73885002E-04    2           3        -3   # BR(A -> s       sb     )
     1.53724453E-06    2           4        -4   # BR(A -> c       cb     )
     1.53498165E-01    2           6        -6   # BR(A -> t       tb     )
     1.51898397E-04    2          21        21   # BR(A -> g       g      )
     5.33490861E-07    2          22        22   # BR(A -> gam     gam    )
     1.83747722E-07    2          23        22   # BR(A -> Z       gam    )
     7.46771142E-05    2          23        25   # BR(A -> Z       h      )
     3.60784360E-03    2     1000024  -1000024   # BR(A -> ~chi_1+ ~chi_1-)
     4.02676601E-02    2     1000022   1000022   # BR(A -> ~chi_10 ~chi_10)
     8.19516440E-03    2     1000023   1000023   # BR(A -> ~chi_20 ~chi_20)
     1.33471872E-02    2     1000025   1000025   # BR(A -> ~chi_30 ~chi_30)
     1.28543163E-01    2     1000022   1000023   # BR(A -> ~chi_10 ~chi_20)
     2.08580741E-01    2     1000022   1000025   # BR(A -> ~chi_10 ~chi_30)
     2.07764661E-02    2     1000023   1000025   # BR(A -> ~chi_20 ~chi_30)
#
#         PDG            Width
DECAY        37     8.75542584E+00   # H+ decays
#          BR         NDA      ID1       ID2
     5.74873996E-04    2           4        -5   # BR(H+ -> c       bb     )
     6.36615025E-02    2         -15        16   # BR(H+ -> tau+    nu_tau )
     2.25111815E-04    2         -13        14   # BR(H+ -> mu+     nu_mu  )
     3.67917411E-06    2           2        -5   # BR(H+ -> u       bb     )
     1.32087452E-05    2           2        -3   # BR(H+ -> u       sb     )
     2.73157771E-04    2           4        -3   # BR(H+ -> c       sb     )
     5.10799683E-01    2           6        -5   # BR(H+ -> t       bb     )
     7.54188721E-05    2          24        25   # BR(H+ -> W+      h      )
     1.07380467E-12    2          24        36   # BR(H+ -> W+      A      )
     3.98333662E-01    2     1000024   1000022   # BR(H+ -> ~chi_1+ ~chi_10)
     2.17926936E-02    2     1000024   1000023   # BR(H+ -> ~chi_1+ ~chi_20)
     4.24700820E-03    2     1000024   1000025   # BR(H+ -> ~chi_1+ ~chi_30)
