#
#                              ======================
#                              | THE SUSYHIT OUTPUT |
#                              ======================
#
#
#              ------------------------------------------------------
#              |     This is the output of the SUSY-HIT package     |
#              |  created by A.Djouadi, M.Muehlleitner and M.Spira. |
#              |  In case of problems with SUSY-HIT email to        |
#              |           margarete.muehlleitner@cern.ch           |
#              |           michael.spira@psi.ch                     |
#              |           abdelhak.djouadi@cern.ch                 |
#              ------------------------------------------------------
#
#              ------------------------------------------------------
#              |  SUSY Les Houches Accord - MSSM Spectrum + Decays  |
#              |              based on the decay programs           |
#              |                                                    |
#              |                     SDECAY 1.3b                    |
#              |                                                    |
#              |  Authors: M.Muhlleitner, A.Djouadi and Y.Mambrini  |
#              |  Ref.:    Comput.Phys.Commun.168(2005)46           |
#              |           [hep-ph/0311167]                         |
#              |                                                    |
#              |                     HDECAY 3.4                     |
#              |                                                    |
#              |  By: A.Djouadi,J.Kalinowski,M.Muhlleitner,M.Spira  |
#              |  Ref.:    Comput.Phys.Commun.108(1998)56           |
#              |           [hep-ph/9704448]                         |
#              |                                                    |
#              |                                                    |
#              |  If not stated otherwise all DRbar couplings and   |
#              |  soft SUSY breaking masses are given at the scale  |
#              |  Q=  0.50007605E+04
#              |                                                    |
#              ------------------------------------------------------
#
#
BLOCK DCINFO  # Decay Program information
     1   SDECAY/HDECAY # decay calculator
     2   1.3b  /3.4    # version number
#
BLOCK SPINFO  # Spectrum calculator information
     1    SOFTSUSY    # spectrum calculator                
     2    3.4.0       # version number                     
#
BLOCK MODSEL  # Model selection
     1     0   #  nonUniversal                                     
#
BLOCK SMINPUTS  # Standard Model inputs
         1     1.25778332E+02   # alpha_em^-1(M_Z)^MSbar
         2     1.16570000E-05   # G_F [GeV^-2]
         3     1.17200002E-01   # alpha_S(M_Z)^MSbar
         4     9.11876000E+01   # M_Z pole mass
         5     4.25000000E+00   # mb(mb)^MSbar
         6     1.72500000E+02   # mt pole mass
         7     1.77682000E+00   # mtau pole mass
#
BLOCK MINPAR  # Input parameters - minimal models
         3     1.00000000E+01   # tanb                
#
BLOCK EXTPAR  # Input parameters - non-minimal models
         0    -1.00000000E+00   # Set                 
         1     6.00000000E+01   # M_1(MX)             
         2     3.00000000E+03   # M_2(MX)             
         3     1.30153800E+03   # M_3(MX)             
        11     5.00000000E+03   # At(MX)              
        12     5.00000000E+03   # Ab(MX)              
        13     0.00000000E+00   # Atau(MX)            
        23    -3.78744000E+02   # mu(MX)              
        26     3.00000000E+03   # mA(pole)            
        31     5.00000000E+03   # meL(MX)             
        32     5.00000000E+03   # mmuL(MX)            
        33     5.00000000E+03   # mtauL(MX)           
        34     5.00000000E+03   # meR(MX)             
        35     5.00000000E+03   # mmuR(MX)            
        36     5.00000000E+03   # mtauR(MX)           
        41     5.00000000E+03   # mqL1(MX)            
        42     5.00000000E+03   # mqL2(MX)            
        43     5.00000000E+03   # mqL3(MX)            
        44     5.00000000E+03   # muR(MX)             
        45     5.00000000E+03   # mcR(MX)             
        46     5.00000000E+03   # mtR(MX)             
        47     5.00000000E+03   # mdR(MX)             
        48     5.00000000E+03   # msR(MX)             
        49     5.00000000E+03   # mbR(MX)             
#
BLOCK MASS  # Mass Spectrum
# PDG code           mass       particle
        24     8.00915873E+01   # W+
        25     1.24639780E+02   # h
        35     3.00008708E+03   # H
        36     2.99999960E+03   # A
        37     3.00145155E+03   # H+
         5     4.87878001E+00   # b-quark pole mass calculated from mb(mb)_Msbar
   1000001     5.06759083E+03   # ~d_L
   2000001     5.04971694E+03   # ~d_R
   1000002     5.06711453E+03   # ~u_L
   2000002     5.04941279E+03   # ~u_R
   1000003     5.06759083E+03   # ~s_L
   2000003     5.04971694E+03   # ~s_R
   1000004     5.06711453E+03   # ~c_L
   2000004     5.04941279E+03   # ~c_R
   1000005     5.01366421E+03   # ~b_1
   2000005     5.04791565E+03   # ~b_2
   1000006     4.90434608E+03   # ~t_1
   2000006     5.05791611E+03   # ~t_2
   1000011     5.01912324E+03   # ~e_L
   2000011     5.00594893E+03   # ~e_R
   1000012     5.01817224E+03   # ~nu_eL
   1000013     5.01912324E+03   # ~mu_L
   2000013     5.00594893E+03   # ~mu_R
   1000014     5.01817224E+03   # ~nu_muL
   1000015     5.00479708E+03   # ~tau_1
   2000015     5.01862423E+03   # ~tau_2
   1000016     5.01761944E+03   # ~nu_tauL
   1000021     1.60000025E+03   # ~g
   1000022     6.00912052E+01   # ~chi_10
   1000023     4.01021407E+02   # ~chi_20
   1000025    -4.03142580E+02   # ~chi_30
   1000035     3.07419788E+03   # ~chi_40
   1000024     4.00000356E+02   # ~chi_1+
   1000037     3.07436571E+03   # ~chi_2+
#
BLOCK NMIX  # Neutralino Mixing Matrix
  1  1     9.93745092E-01   # N_11
  1  2     1.92513638E-04   # N_12
  1  3    -1.11545563E-01   # N_13
  1  4    -5.31430365E-03   # N_14
  2  1     8.26763462E-02   # N_21
  2  2     1.83238099E-02   # N_22
  2  3     7.02939954E-01   # N_23
  2  4     7.06189975E-01   # N_24
  3  1    -7.50676996E-02   # N_31
  3  2     1.75076166E-02   # N_32
  3  3    -7.02447645E-01   # N_33
  3  4     7.07549030E-01   # N_34
  4  1    -3.92124588E-04   # N_41
  4  2     9.99678791E-01   # N_42
  4  3    -5.61060253E-04   # N_43
  4  4    -2.53347027E-02   # N_44
#
BLOCK UMIX  # Chargino Mixing Matrix U
  1  1     7.97033855E-04   # U_11
  1  2     9.99999682E-01   # U_12
  2  1    -9.99999682E-01   # U_21
  2  2     7.97033855E-04   # U_22
#
BLOCK VMIX  # Chargino Mixing Matrix V
  1  1     3.58439257E-02   # V_11
  1  2    -9.99357400E-01   # V_12
  2  1    -9.99357400E-01   # V_21
  2  2    -3.58439257E-02   # V_22
#
BLOCK STOPMIX  # Stop Mixing Matrix
  1  1    -5.04824794E-01   # cos(theta_t)
  1  2     8.63221830E-01   # sin(theta_t)
  2  1    -8.63221830E-01   # -sin(theta_t)
  2  2    -5.04824794E-01   # cos(theta_t)
#
BLOCK SBOTMIX  # Sbottom Mixing Matrix
  1  1     9.98985303E-01   # cos(theta_b)
  1  2    -4.50373666E-02   # sin(theta_b)
  2  1     4.50373666E-02   # -sin(theta_b)
  2  2     9.98985303E-01   # cos(theta_b)
#
BLOCK STAUMIX  # Stau Mixing Matrix
  1  1    -4.53435990E-02   # cos(theta_tau)
  1  2     9.98971450E-01   # sin(theta_tau)
  2  1    -9.98971450E-01   # -sin(theta_tau)
  2  2    -4.53435990E-02   # cos(theta_tau)
#
BLOCK ALPHA  # Higgs mixing
          -1.05474103E-01   # Mixing angle in the neutral Higgs boson sector
#
BLOCK HMIX Q=  5.00076046E+03  # DRbar Higgs Parameters
         1    -3.85604684E+02   # mu(Q)MSSM           
         2     9.47034494E+00   # tan                 
         3     2.41741157E+02   # higgs               
         4     8.71315091E+06   # mA^2(Q)MSSM         
#
BLOCK GAUGE Q=  5.00076046E+03  # The gauge couplings
     1     3.71013751E-01   # gprime(Q) DRbar
     2     6.33601256E-01   # g(Q) DRbar
     3     1.00177067E+00   # g3(Q) DRbar
#
BLOCK AU Q=  5.00076046E+03  # The trilinear couplings
  1  1     5.00000001E+03   # A_u(Q) DRbar
  2  2     5.00000001E+03   # A_c(Q) DRbar
  3  3     5.00000001E+03   # A_t(Q) DRbar
#
BLOCK AD Q=  5.00076046E+03  # The trilinear couplings
  1  1     5.00000000E+03   # A_d(Q) DRbar
  2  2     5.00000000E+03   # A_s(Q) DRbar
  3  3     5.00000001E+03   # A_b(Q) DRbar
#
BLOCK AE Q=  5.00076046E+03  # The trilinear couplings
  1  1     0.00000000E+00   # A_e(Q) DRbar
  2  2     1.11250451E-07   # A_mu(Q) DRbar
  3  3     1.10639550E-07   # A_tau(Q) DRbar
#
BLOCK Yu Q=  5.00076046E+03  # The Yukawa couplings
  1  1     0.00000000E+00   # y_u(Q) DRbar
  2  2     0.00000000E+00   # y_c(Q) DRbar
  3  3     8.18688508E-01   # y_t(Q) DRbar
#
BLOCK Yd Q=  5.00076046E+03  # The Yukawa couplings
  1  1     0.00000000E+00   # y_d(Q) DRbar
  2  2     0.00000000E+00   # y_s(Q) DRbar
  3  3     1.29661583E-01   # y_b(Q) DRbar
#
BLOCK Ye Q=  5.00076046E+03  # The Yukawa couplings
  1  1     0.00000000E+00   # y_e(Q) DRbar
  2  2     0.00000000E+00   # y_mu(Q) DRbar
  3  3     9.72130328E-02   # y_tau(Q) DRbar
#
BLOCK MSOFT Q=  5.00076046E+03  # The soft SUSY breaking masses at the scale Q
         1     6.00000000E+01   # M_1(Q)              
         2     3.00000000E+03   # M_2(Q)              
         3     1.30153800E+03   # M_3(Q)              
        21     8.57904303E+06   # mH1^2(Q)            
        22     4.27165238E+05   # mH2^2(Q)            
        31     5.00000000E+03   # meL(Q)              
        32     5.00000000E+03   # mmuL(Q)             
        33     5.00000000E+03   # mtauL(Q)            
        34     5.00000000E+03   # meR(Q)              
        35     5.00000000E+03   # mmuR(Q)             
        36     5.00000000E+03   # mtauR(Q)            
        41     5.00000000E+03   # mqL1(Q)             
        42     5.00000000E+03   # mqL2(Q)             
        43     5.00000000E+03   # mqL3(Q)             
        44     5.00000000E+03   # muR(Q)              
        45     5.00000000E+03   # mcR(Q)              
        46     4.99999999E+03   # mtR(Q)              
        47     5.00000000E+03   # mdR(Q)              
        48     5.00000000E+03   # msR(Q)              
        49     5.00000000E+03   # mbR(Q)              
#
#
#
#                             =================
#                             |The decay table|
#                             =================
#
# - The QCD corrections to the decays gluino -> squark  + quark
#                                     squark -> gaugino + quark_prime
#                                     squark -> squark_prime + Higgs
#                                     squark -> gluino  + quark
#   are included.
#
# - The multi-body decays for the inos, stops and sbottoms are included.
#
# - The loop induced decays for the gluino, neutralinos and stops
#   are included.
#
# - The SUSY decays of the top quark are included.
#
#
#         PDG            Width
DECAY         6     1.40696862E+00   # top decays
#          BR         NDA      ID1       ID2
     1.00000000E+00    2           5        24   # BR(t ->  b    W+)
#
#         PDG            Width
DECAY   1000021     5.43605134E-04   # gluino decays
#          BR         NDA      ID1       ID2
     1.47453566E-10    2     1000022        21   # BR(~g -> ~chi_10 g)
     1.20069751E-02    2     1000023        21   # BR(~g -> ~chi_20 g)
     1.16562600E-02    2     1000025        21   # BR(~g -> ~chi_30 g)
#           BR         NDA      ID1       ID2       ID3
     1.35384120E-02    3     1000022         1        -1   # BR(~g -> ~chi_10 d  db)
     6.04925566E-05    3     1000023         1        -1   # BR(~g -> ~chi_20 d  db)
     5.45192091E-05    3     1000025         1        -1   # BR(~g -> ~chi_30 d  db)
     4.61612772E-02    3     1000022         2        -2   # BR(~g -> ~chi_10 u  ub)
     3.08615762E-04    3     1000023         2        -2   # BR(~g -> ~chi_20 u  ub)
     9.99940184E-05    3     1000025         2        -2   # BR(~g -> ~chi_30 u  ub)
     1.35384120E-02    3     1000022         3        -3   # BR(~g -> ~chi_10 s  sb)
     6.04925566E-05    3     1000023         3        -3   # BR(~g -> ~chi_20 s  sb)
     5.45192091E-05    3     1000025         3        -3   # BR(~g -> ~chi_30 s  sb)
     4.61612772E-02    3     1000022         4        -4   # BR(~g -> ~chi_10 c  cb)
     3.08615762E-04    3     1000023         4        -4   # BR(~g -> ~chi_20 c  cb)
     9.99940184E-05    3     1000025         4        -4   # BR(~g -> ~chi_30 c  cb)
     1.39436134E-02    3     1000022         5        -5   # BR(~g -> ~chi_10 b  bb)
     5.53318758E-03    3     1000023         5        -5   # BR(~g -> ~chi_20 b  bb)
     5.48954509E-03    3     1000025         5        -5   # BR(~g -> ~chi_30 b  bb)
     4.10227613E-02    3     1000022         6        -6   # BR(~g -> ~chi_10 t  tb)
     1.96215995E-01    3     1000023         6        -6   # BR(~g -> ~chi_20 t  tb)
     1.72342038E-01    3     1000025         6        -6   # BR(~g -> ~chi_30 t  tb)
     5.60584476E-05    3     1000024         1        -2   # BR(~g -> ~chi_1+ d  ub)
     5.60584476E-05    3    -1000024         2        -1   # BR(~g -> ~chi_1- u  db)
     5.60584476E-05    3     1000024         3        -4   # BR(~g -> ~chi_1+ s  cb)
     5.60584476E-05    3    -1000024         4        -3   # BR(~g -> ~chi_1- c  sb)
     2.10559384E-01    3     1000024         5        -6   # BR(~g -> ~chi_1+ b  tb)
     2.10559384E-01    3    -1000024         6        -5   # BR(~g -> ~chi_1- t  bb)
#
#         PDG            Width
DECAY   1000006     3.83106179E+02   # stop1 decays
#          BR         NDA      ID1       ID2
     2.25891530E-02    2     1000022         6   # BR(~t_1 -> ~chi_10 t )
     8.68067340E-02    2     1000023         6   # BR(~t_1 -> ~chi_20 t )
     8.12388043E-02    2     1000025         6   # BR(~t_1 -> ~chi_30 t )
     5.34735545E-03    2     1000035         6   # BR(~t_1 -> ~chi_40 t )
     1.24573282E-01    2     1000024         5   # BR(~t_1 -> ~chi_1+ b )
     1.06602169E-02    2     1000037         5   # BR(~t_1 -> ~chi_2+ b )
     6.68784454E-01    2     1000021         6   # BR(~t_1 -> ~g      t )
#
#         PDG            Width
DECAY   2000006     3.85199575E+02   # stop2 decays
#          BR         NDA      ID1       ID2
     9.30740490E-03    2     1000022         6   # BR(~t_2 -> ~chi_10 t )
     8.49572622E-02    2     1000023         6   # BR(~t_2 -> ~chi_20 t )
     9.11973897E-02    2     1000025         6   # BR(~t_2 -> ~chi_30 t )
     1.44807022E-02    2     1000035         6   # BR(~t_2 -> ~chi_40 t )
     5.08995392E-02    2     1000024         5   # BR(~t_2 -> ~chi_1+ b )
     2.88355247E-02    2     1000037         5   # BR(~t_2 -> ~chi_2+ b )
     7.17118430E-01    2     1000021         6   # BR(~t_2 -> ~g      t )
     7.37898509E-04    2     1000006        25   # BR(~t_2 -> ~t_1    h )
     2.46584828E-03    2     1000006        23   # BR(~t_2 -> ~t_1    Z )
#
#         PDG            Width
DECAY   1000005     3.61174454E+02   # sbottom1 decays
#          BR         NDA      ID1       ID2
     2.17722927E-03    2     1000022         5   # BR(~b_1 -> ~chi_10 b )
     2.25651971E-03    2     1000023         5   # BR(~b_1 -> ~chi_20 b )
     2.27772626E-03    2     1000025         5   # BR(~b_1 -> ~chi_30 b )
     2.09696594E-02    2     1000035         5   # BR(~b_1 -> ~chi_40 b )
     1.83611786E-01    2    -1000024         6   # BR(~b_1 -> ~chi_1- t )
     4.20990610E-02    2    -1000037         6   # BR(~b_1 -> ~chi_2- t )
     7.45055271E-01    2     1000021         5   # BR(~b_1 -> ~g      b )
     1.55274734E-03    2     1000006       -24   # BR(~b_1 -> ~t_1    W-)
#
#         PDG            Width
DECAY   2000005     2.78004697E+02   # sbottom2 decays
#          BR         NDA      ID1       ID2
     1.05286055E-02    2     1000022         5   # BR(~b_2 -> ~chi_10 b )
     3.09925915E-03    2     1000023         5   # BR(~b_2 -> ~chi_20 b )
     3.12121888E-03    2     1000025         5   # BR(~b_2 -> ~chi_30 b )
     5.24716825E-05    2     1000035         5   # BR(~b_2 -> ~chi_40 b )
     6.49295490E-03    2    -1000024         6   # BR(~b_2 -> ~chi_1- t )
     1.05354532E-04    2    -1000037         6   # BR(~b_2 -> ~chi_2- t )
     9.76583472E-01    2     1000021         5   # BR(~b_2 -> ~g      b )
     1.66636059E-05    2     1000006       -24   # BR(~b_2 -> ~t_1    W-)
#
#         PDG            Width
DECAY   1000002     2.97272577E+02   # sup_L decays
#          BR         NDA      ID1       ID2
     2.48881483E-03    2     1000022         2   # BR(~u_L -> ~chi_10 u)
     7.74855044E-05    2     1000023         2   # BR(~u_L -> ~chi_20 u)
     5.31875853E-07    2     1000025         2   # BR(~u_L -> ~chi_30 u)
     2.64414629E-02    2     1000035         2   # BR(~u_L -> ~chi_40 u)
     1.67666954E-04    2     1000024         1   # BR(~u_L -> ~chi_1+ d)
     5.28503400E-02    2     1000037         1   # BR(~u_L -> ~chi_2+ d)
     9.17973698E-01    2     1000021         2   # BR(~u_L -> ~g      u)
#
#         PDG            Width
DECAY   2000002     2.83431754E+02   # sup_R decays
#          BR         NDA      ID1       ID2
     4.15361199E-02    2     1000022         2   # BR(~u_R -> ~chi_10 u)
     2.84109843E-04    2     1000023         2   # BR(~u_R -> ~chi_20 u)
     2.34192262E-04    2     1000025         2   # BR(~u_R -> ~chi_30 u)
     2.57130595E-09    2     1000035         2   # BR(~u_R -> ~chi_40 u)
     9.57945575E-01    2     1000021         2   # BR(~u_R -> ~g      u)
#
#         PDG            Width
DECAY   1000001     2.97283831E+02   # sdown_L decays
#          BR         NDA      ID1       ID2
     2.47909466E-03    2     1000022         1   # BR(~d_L -> ~chi_10 d)
     3.11918716E-07    2     1000023         1   # BR(~d_L -> ~chi_20 d)
     6.74772726E-05    2     1000025         1   # BR(~d_L -> ~chi_30 d)
     2.64568012E-02    2     1000035         1   # BR(~d_L -> ~chi_40 d)
     8.29078234E-08    2    -1000024         2   # BR(~d_L -> ~chi_1- u)
     5.29327810E-02    2    -1000037         2   # BR(~d_L -> ~chi_2- u)
     9.18063451E-01    2     1000021         1   # BR(~d_L -> ~g      d)
#
#         PDG            Width
DECAY   2000001     2.74515921E+02   # sdown_R decays
#          BR         NDA      ID1       ID2
     1.07219372E-02    2     1000022         1   # BR(~d_R -> ~chi_10 d)
     7.33388727E-05    2     1000023         1   # BR(~d_R -> ~chi_20 d)
     6.04533677E-05    2     1000025         1   # BR(~d_R -> ~chi_30 d)
     6.63837991E-10    2     1000035         1   # BR(~d_R -> ~chi_40 d)
     9.89144270E-01    2     1000021         1   # BR(~d_R -> ~g      d)
#
#         PDG            Width
DECAY   1000004     2.97272577E+02   # scharm_L decays
#          BR         NDA      ID1       ID2
     2.48881483E-03    2     1000022         4   # BR(~c_L -> ~chi_10 c)
     7.74855044E-05    2     1000023         4   # BR(~c_L -> ~chi_20 c)
     5.31875853E-07    2     1000025         4   # BR(~c_L -> ~chi_30 c)
     2.64414629E-02    2     1000035         4   # BR(~c_L -> ~chi_40 c)
     1.67666954E-04    2     1000024         3   # BR(~c_L -> ~chi_1+ s)
     5.28503400E-02    2     1000037         3   # BR(~c_L -> ~chi_2+ s)
     9.17973698E-01    2     1000021         4   # BR(~c_L -> ~g      c)
#
#         PDG            Width
DECAY   2000004     2.83431754E+02   # scharm_R decays
#          BR         NDA      ID1       ID2
     4.15361199E-02    2     1000022         4   # BR(~c_R -> ~chi_10 c)
     2.84109843E-04    2     1000023         4   # BR(~c_R -> ~chi_20 c)
     2.34192262E-04    2     1000025         4   # BR(~c_R -> ~chi_30 c)
     2.57130595E-09    2     1000035         4   # BR(~c_R -> ~chi_40 c)
     9.57945575E-01    2     1000021         4   # BR(~c_R -> ~g      c)
#
#         PDG            Width
DECAY   1000003     2.97283831E+02   # sstrange_L decays
#          BR         NDA      ID1       ID2
     2.47909466E-03    2     1000022         3   # BR(~s_L -> ~chi_10 s)
     3.11918716E-07    2     1000023         3   # BR(~s_L -> ~chi_20 s)
     6.74772726E-05    2     1000025         3   # BR(~s_L -> ~chi_30 s)
     2.64568012E-02    2     1000035         3   # BR(~s_L -> ~chi_40 s)
     8.29078234E-08    2    -1000024         4   # BR(~s_L -> ~chi_1- c)
     5.29327810E-02    2    -1000037         4   # BR(~s_L -> ~chi_2- c)
     9.18063451E-01    2     1000021         3   # BR(~s_L -> ~g      s)
#
#         PDG            Width
DECAY   2000003     2.74515921E+02   # sstrange_R decays
#          BR         NDA      ID1       ID2
     1.07219372E-02    2     1000022         3   # BR(~s_R -> ~chi_10 s)
     7.33388727E-05    2     1000023         3   # BR(~s_R -> ~chi_20 s)
     6.04533677E-05    2     1000025         3   # BR(~s_R -> ~chi_30 s)
     6.63837991E-10    2     1000035         3   # BR(~s_R -> ~chi_40 s)
     9.89144270E-01    2     1000021         3   # BR(~s_R -> ~g      s)
#
#         PDG            Width
DECAY   1000011     3.03568307E+01   # selectron_L decays
#          BR         NDA      ID1       ID2
     2.23647675E-01    2     1000022        11   # BR(~e_L -> ~chi_10 e-)
     2.90310048E-03    2     1000023        11   # BR(~e_L -> ~chi_20 e-)
     4.55942087E-04    2     1000025        11   # BR(~e_L -> ~chi_30 e-)
     2.57497522E-01    2     1000035        11   # BR(~e_L -> ~chi_40 e-)
     8.28233666E-07    2    -1000024        12   # BR(~e_L -> ~chi_1- nu_e)
     5.15494933E-01    2    -1000037        12   # BR(~e_L -> ~chi_2- nu_e)
#
#         PDG            Width
DECAY   2000011     2.74052188E+01   # selectron_R decays
#          BR         NDA      ID1       ID2
     9.87684229E-01    2     1000022        11   # BR(~e_R -> ~chi_10 e-)
     6.75093238E-03    2     1000023        11   # BR(~e_R -> ~chi_20 e-)
     5.56477892E-03    2     1000025        11   # BR(~e_R -> ~chi_30 e-)
     5.96810703E-08    2     1000035        11   # BR(~e_R -> ~chi_40 e-)
#
#         PDG            Width
DECAY   1000013     3.03568307E+01   # smuon_L decays
#          BR         NDA      ID1       ID2
     2.23647675E-01    2     1000022        13   # BR(~mu_L -> ~chi_10 mu-)
     2.90310048E-03    2     1000023        13   # BR(~mu_L -> ~chi_20 mu-)
     4.55942087E-04    2     1000025        13   # BR(~mu_L -> ~chi_30 mu-)
     2.57497522E-01    2     1000035        13   # BR(~mu_L -> ~chi_40 mu-)
     8.28233666E-07    2    -1000024        14   # BR(~mu_L -> ~chi_1- nu_mu)
     5.15494933E-01    2    -1000037        14   # BR(~mu_L -> ~chi_2- nu_mu)
#
#         PDG            Width
DECAY   2000013     2.74052188E+01   # smuon_R decays
#          BR         NDA      ID1       ID2
     9.87684229E-01    2     1000022        13   # BR(~mu_R -> ~chi_10 mu-)
     6.75093238E-03    2     1000023        13   # BR(~mu_R -> ~chi_20 mu-)
     5.56477892E-03    2     1000025        13   # BR(~mu_R -> ~chi_30 mu-)
     5.96810703E-08    2     1000035        13   # BR(~mu_R -> ~chi_40 mu-)
#
#         PDG            Width
DECAY   1000015     2.92612304E+01   # stau_1 decays
#          BR         NDA      ID1       ID2
     9.24668263E-01    2     1000022        15   # BR(~tau_1 -> ~chi_10  tau-)
     2.17190915E-02    2     1000023        15   # BR(~tau_1 -> ~chi_20  tau-)
     2.02915973E-02    2     1000025        15   # BR(~tau_1 -> ~chi_30  tau-)
     5.41063181E-04    2     1000035        15   # BR(~tau_1 -> ~chi_40  tau-)
     3.16969558E-02    2    -1000024        16   # BR(~tau_1 -> ~chi_1-  nu_tau)
     1.08302898E-03    2    -1000037        16   # BR(~tau_1 -> ~chi_2-  nu_tau)
#
#         PDG            Width
DECAY   2000015     3.12751298E+01   # stau_2 decays
#          BR         NDA      ID1       ID2
     2.17955315E-01    2     1000022        15   # BR(~tau_2 -> ~chi_10  tau-)
     1.78052798E-02    2     1000023        15   # BR(~tau_2 -> ~chi_20  tau-)
     1.56832812E-02    2     1000025        15   # BR(~tau_2 -> ~chi_30  tau-)
     2.49341210E-01    2     1000035        15   # BR(~tau_2 -> ~chi_40  tau-)
     4.80274820E-05    2    -1000024        16   # BR(~tau_2 -> ~chi_1-  nu_tau)
     4.99166886E-01    2    -1000037        16   # BR(~tau_2 -> ~chi_2-  nu_tau)
#
#         PDG            Width
DECAY   1000012     3.03600263E+01   # snu_eL decays
#          BR         NDA      ID1       ID2
     2.23286059E-01    2     1000022        12   # BR(~nu_eL -> ~chi_10 nu_e)
     5.89943112E-04    2     1000023        12   # BR(~nu_eL -> ~chi_20 nu_e)
     2.46150432E-03    2     1000025        12   # BR(~nu_eL -> ~chi_30 nu_e)
     2.57540985E-01    2     1000035        12   # BR(~nu_eL -> ~chi_40 nu_e)
     1.67455865E-03    2     1000024        11   # BR(~nu_eL -> ~chi_1+ e-)
     5.14446951E-01    2     1000037        11   # BR(~nu_eL -> ~chi_2+ e-)
#
#         PDG            Width
DECAY   1000014     3.03600263E+01   # snu_muL decays
#          BR         NDA      ID1       ID2
     2.23286059E-01    2     1000022        14   # BR(~nu_muL -> ~chi_10 nu_mu)
     5.89943112E-04    2     1000023        14   # BR(~nu_muL -> ~chi_20 nu_mu)
     2.46150432E-03    2     1000025        14   # BR(~nu_muL -> ~chi_30 nu_mu)
     2.57540985E-01    2     1000035        14   # BR(~nu_muL -> ~chi_40 nu_mu)
     1.67455865E-03    2     1000024        13   # BR(~nu_muL -> ~chi_1+ mu-)
     5.14446951E-01    2     1000037        13   # BR(~nu_muL -> ~chi_2+ mu-)
#
#         PDG            Width
DECAY   1000016     3.12818939E+01   # snu_tauL decays
#          BR         NDA      ID1       ID2
     2.16682003E-01    2     1000022        16   # BR(~nu_tauL -> ~chi_10 nu_tau)
     5.72492979E-04    2     1000023        16   # BR(~nu_tauL -> ~chi_20 nu_tau)
     2.38869455E-03    2     1000025        16   # BR(~nu_tauL -> ~chi_30 nu_tau)
     2.49857633E-01    2     1000035        16   # BR(~nu_tauL -> ~chi_40 nu_tau)
     3.14004071E-02    2     1000024        15   # BR(~nu_tauL -> ~chi_1+ tau-)
     4.99098770E-01    2     1000037        15   # BR(~nu_tauL -> ~chi_2+ tau-)
#
#         PDG            Width
DECAY   1000024     2.29989634E-01   # chargino1+ decays
#          BR         NDA      ID1       ID2
     1.00000000E+00    2     1000022        24   # BR(~chi_1+ -> ~chi_10  W+)
#
#         PDG            Width
DECAY   1000037     2.25301162E+01   # chargino2+ decays
#          BR         NDA      ID1       ID2
     2.53612831E-01    2     1000024        23   # BR(~chi_2+ -> ~chi_1+  Z )
     1.38091941E-04    2     1000022        24   # BR(~chi_2+ -> ~chi_10  W+)
     2.45226724E-01    2     1000023        24   # BR(~chi_2+ -> ~chi_20  W+)
     2.44447439E-01    2     1000025        24   # BR(~chi_2+ -> ~chi_30  W+)
     2.56566676E-01    2     1000024        25   # BR(~chi_2+ -> ~chi_1+  h )
     8.23819544E-06    2     1000022        37   # BR(~chi_2+ -> ~chi_10  H+)
#
#         PDG            Width
DECAY   1000022     0.00000000E+00   # neutralino1 decays
#
#         PDG            Width
DECAY   1000023     2.27266403E-01   # neutralino2 decays
#          BR         NDA      ID1       ID2
     4.94263919E-01    2     1000022        23   # BR(~chi_20 -> ~chi_10   Z )
     5.05736081E-01    2     1000022        25   # BR(~chi_20 -> ~chi_10   h )
#
#         PDG            Width
DECAY   1000025     2.16696345E-01   # neutralino3 decays
#          BR         NDA      ID1       ID2
     5.81654513E-01    2     1000022        23   # BR(~chi_30 -> ~chi_10   Z )
     4.18345487E-01    2     1000022        25   # BR(~chi_30 -> ~chi_10   h )
#
#         PDG            Width
DECAY   1000035     2.25369965E+01   # neutralino4 decays
#          BR         NDA      ID1       ID2
     2.15582252E-06    2     1000022        23   # BR(~chi_40 -> ~chi_10   Z )
     1.20956375E-01    2     1000023        23   # BR(~chi_40 -> ~chi_20   Z )
     1.32339883E-01    2     1000025        23   # BR(~chi_40 -> ~chi_30   Z )
     2.45220328E-01    2     1000024       -24   # BR(~chi_40 -> ~chi_1+   W-)
     2.45220328E-01    2    -1000024        24   # BR(~chi_40 -> ~chi_1-   W+)
     1.25340121E-04    2     1000022        25   # BR(~chi_40 -> ~chi_10   h )
     7.94462320E-06    2     1000022        35   # BR(~chi_40 -> ~chi_10   H )
     8.51583757E-07    2     1000022        36   # BR(~chi_40 -> ~chi_10   A )
     1.34933407E-01    2     1000023        25   # BR(~chi_40 -> ~chi_20   h )
     1.21193386E-01    2     1000025        25   # BR(~chi_40 -> ~chi_30   h )
#
#         PDG            Width
DECAY        25     4.06151487E-03   # h decays
#          BR         NDA      ID1       ID2
     6.12208189E-01    2           5        -5   # BR(h -> b       bb     )
     6.37992211E-02    2         -15        15   # BR(h -> tau+    tau-   )
     2.25873028E-04    2         -13        13   # BR(h -> mu+     mu-    )
     4.78936766E-04    2           3        -3   # BR(h -> s       sb     )
     2.07509916E-02    2           4        -4   # BR(h -> c       cb     )
     6.69713480E-02    2          21        21   # BR(h -> g       g      )
     2.29838845E-03    2          22        22   # BR(h -> gam     gam    )
     1.47132838E-03    2          22        23   # BR(h -> Z       gam    )
     2.07123928E-01    2          24       -24   # BR(h -> W+      W-     )
     2.46131585E-02    2          23        23   # BR(h -> Z       Z      )
     5.86371923E-05    2     1000022   1000022   # BR(h -> ~chi_10 ~chi_10)
#
#         PDG            Width
DECAY        35     8.73131439E+00   # H decays
#          BR         NDA      ID1       ID2
     3.64777139E-01    2           5        -5   # BR(H -> b       bb     )
     6.38129490E-02    2         -15        15   # BR(H -> tau+    tau-   )
     2.25647656E-04    2         -13        13   # BR(H -> mu+     mu-    )
     2.76609381E-04    2           3        -3   # BR(H -> s       sb     )
     1.54710623E-06    2           4        -4   # BR(H -> c       cb     )
     1.54568172E-01    2           6        -6   # BR(H -> t       tb     )
     5.14106785E-05    2          21        21   # BR(H -> g       g      )
     1.39831155E-07    2          22        22   # BR(H -> gam     gam    )
     9.11717265E-08    2          23        22   # BR(H -> Z       gam    )
     7.42647615E-05    2          24       -24   # BR(H -> W+      W-     )
     3.70853664E-05    2          23        23   # BR(H -> Z       Z      )
     2.68076688E-04    2          25        25   # BR(H -> h       h      )
     3.14214572E-23    2          36        36   # BR(H -> A       A      )
     1.10159514E-18    2          23        36   # BR(H -> Z       A      )
     3.30445532E-03    2     1000024  -1000024   # BR(H -> ~chi_1+ ~chi_1-)
     1.04820535E-02    2     1000022   1000022   # BR(H -> ~chi_10 ~chi_10)
     1.10130277E-03    2     1000023   1000023   # BR(H -> ~chi_20 ~chi_20)
     3.42826944E-03    2     1000025   1000025   # BR(H -> ~chi_30 ~chi_30)
     2.38901217E-01    2     1000022   1000023   # BR(H -> ~chi_10 ~chi_20)
     1.53371874E-01    2     1000022   1000025   # BR(H -> ~chi_10 ~chi_30)
     5.31769509E-03    2     1000023   1000025   # BR(H -> ~chi_20 ~chi_30)
#
#         PDG            Width
DECAY        36     8.73734416E+00   # A decays
#          BR         NDA      ID1       ID2
     3.64650121E-01    2           5        -5   # BR(A -> b       bb     )
     6.37707973E-02    2         -15        15   # BR(A -> tau+    tau-   )
     2.25498290E-04    2         -13        13   # BR(A -> mu+     mu-    )
     2.76628345E-04    2           3        -3   # BR(A -> s       sb     )
     1.55220131E-06    2           4        -4   # BR(A -> c       cb     )
     1.54991642E-01    2           6        -6   # BR(A -> t       tb     )
     1.53385376E-04    2          21        21   # BR(A -> g       g      )
     5.82350868E-07    2          22        22   # BR(A -> gam     gam    )
     1.85603150E-07    2          23        22   # BR(A -> Z       gam    )
     7.39333980E-05    2          23        25   # BR(A -> Z       h      )
     3.52179573E-03    2     1000024  -1000024   # BR(A -> ~chi_1+ ~chi_1-)
     1.02826653E-02    2     1000022   1000022   # BR(A -> ~chi_10 ~chi_10)
     7.73800003E-04    2     1000023   1000023   # BR(A -> ~chi_20 ~chi_20)
     5.66344899E-03    2     1000025   1000025   # BR(A -> ~chi_30 ~chi_30)
     1.57062074E-01    2     1000022   1000023   # BR(A -> ~chi_10 ~chi_20)
     2.34341141E-01    2     1000022   1000025   # BR(A -> ~chi_10 ~chi_30)
     4.21074919E-03    2     1000023   1000025   # BR(A -> ~chi_20 ~chi_30)
#
#         PDG            Width
DECAY        37     8.67374028E+00   # H+ decays
#          BR         NDA      ID1       ID2
     5.84002204E-04    2           4        -5   # BR(H+ -> c       bb     )
     6.42695141E-02    2         -15        16   # BR(H+ -> tau+    nu_tau )
     2.27261789E-04    2         -13        14   # BR(H+ -> mu+     nu_mu  )
     3.73759444E-06    2           2        -5   # BR(H+ -> u       bb     )
     1.33349155E-05    2           2        -3   # BR(H+ -> u       sb     )
     2.75766554E-04    2           4        -3   # BR(H+ -> c       sb     )
     5.17905004E-01    2           6        -5   # BR(H+ -> t       bb     )
     7.46318128E-05    2          24        25   # BR(H+ -> W+      h      )
     9.77603297E-13    2          24        36   # BR(H+ -> W+      A      )
     4.10672914E-01    2     1000024   1000022   # BR(H+ -> ~chi_1+ ~chi_10)
     5.22662527E-03    2     1000024   1000023   # BR(H+ -> ~chi_1+ ~chi_20)
     7.47207546E-04    2     1000024   1000025   # BR(H+ -> ~chi_1+ ~chi_30)
