#
#                              ======================
#                              | THE SUSYHIT OUTPUT |
#                              ======================
#
#
#              ------------------------------------------------------
#              |     This is the output of the SUSY-HIT package     |
#              |  created by A.Djouadi, M.Muehlleitner and M.Spira. |
#              |  In case of problems with SUSY-HIT email to        |
#              |           margarete.muehlleitner@cern.ch           |
#              |           michael.spira@psi.ch                     |
#              |           abdelhak.djouadi@cern.ch                 |
#              ------------------------------------------------------
#
#              ------------------------------------------------------
#              |  SUSY Les Houches Accord - MSSM Spectrum + Decays  |
#              |              based on the decay programs           |
#              |                                                    |
#              |                     SDECAY 1.3b                    |
#              |                                                    |
#              |  Authors: M.Muhlleitner, A.Djouadi and Y.Mambrini  |
#              |  Ref.:    Comput.Phys.Commun.168(2005)46           |
#              |           [hep-ph/0311167]                         |
#              |                                                    |
#              |                     HDECAY 3.4                     |
#              |                                                    |
#              |  By: A.Djouadi,J.Kalinowski,M.Muhlleitner,M.Spira  |
#              |  Ref.:    Comput.Phys.Commun.108(1998)56           |
#              |           [hep-ph/9704448]                         |
#              |                                                    |
#              |                                                    |
#              |  If not stated otherwise all DRbar couplings and   |
#              |  soft SUSY breaking masses are given at the scale  |
#              |  Q=  0.50007680E+04
#              |                                                    |
#              ------------------------------------------------------
#
#
BLOCK DCINFO  # Decay Program information
     1   SDECAY/HDECAY # decay calculator
     2   1.3b  /3.4    # version number
#
BLOCK SPINFO  # Spectrum calculator information
     1    SOFTSUSY    # spectrum calculator                
     2    3.4.0       # version number                     
#
BLOCK MODSEL  # Model selection
     1     0   #  nonUniversal                                     
#
BLOCK SMINPUTS  # Standard Model inputs
         1     1.25778332E+02   # alpha_em^-1(M_Z)^MSbar
         2     1.16570000E-05   # G_F [GeV^-2]
         3     1.17200002E-01   # alpha_S(M_Z)^MSbar
         4     9.11876000E+01   # M_Z pole mass
         5     4.25000000E+00   # mb(mb)^MSbar
         6     1.72500000E+02   # mt pole mass
         7     1.77682000E+00   # mtau pole mass
#
BLOCK MINPAR  # Input parameters - minimal models
         3     1.00000000E+01   # tanb                
#
BLOCK EXTPAR  # Input parameters - non-minimal models
         0    -1.00000000E+00   # Set                 
         1     6.00000000E+01   # M_1(MX)             
         2     3.00000000E+03   # M_2(MX)             
         3     1.66796600E+03   # M_3(MX)             
        11     5.00000000E+03   # At(MX)              
        12     5.00000000E+03   # Ab(MX)              
        13     0.00000000E+00   # Atau(MX)            
        23    -2.82792000E+02   # mu(MX)              
        26     3.00000000E+03   # mA(pole)            
        31     5.00000000E+03   # meL(MX)             
        32     5.00000000E+03   # mmuL(MX)            
        33     5.00000000E+03   # mtauL(MX)           
        34     5.00000000E+03   # meR(MX)             
        35     5.00000000E+03   # mmuR(MX)            
        36     5.00000000E+03   # mtauR(MX)           
        41     5.00000000E+03   # mqL1(MX)            
        42     5.00000000E+03   # mqL2(MX)            
        43     5.00000000E+03   # mqL3(MX)            
        44     5.00000000E+03   # muR(MX)             
        45     5.00000000E+03   # mcR(MX)             
        46     5.00000000E+03   # mtR(MX)             
        47     5.00000000E+03   # mdR(MX)             
        48     5.00000000E+03   # msR(MX)             
        49     5.00000000E+03   # mbR(MX)             
#
BLOCK MASS  # Mass Spectrum
# PDG code           mass       particle
        24     8.00915224E+01   # W+
        25     1.24745434E+02   # h
        35     3.00008898E+03   # H
        36     2.99999971E+03   # A
        37     3.00146925E+03   # H+
         5     4.87878001E+00   # b-quark pole mass calculated from mb(mb)_Msbar
   1000001     5.07199474E+03   # ~d_L
   2000001     5.05412039E+03   # ~d_R
   1000002     5.07151963E+03   # ~u_L
   2000002     5.05381347E+03   # ~u_R
   1000003     5.07199474E+03   # ~s_L
   2000003     5.05412039E+03   # ~s_R
   1000004     5.07151963E+03   # ~c_L
   2000004     5.05381347E+03   # ~c_R
   1000005     5.01797895E+03   # ~b_1
   2000005     5.05225350E+03   # ~b_2
   1000006     4.90910547E+03   # ~t_1
   2000006     5.06155002E+03   # ~t_2
   1000011     5.01913917E+03   # ~e_L
   2000011     5.00595412E+03   # ~e_R
   1000012     5.01818757E+03   # ~nu_eL
   1000013     5.01913917E+03   # ~mu_L
   2000013     5.00595412E+03   # ~mu_R
   1000014     5.01818757E+03   # ~nu_muL
   1000015     5.00481638E+03   # ~tau_1
   2000015     5.01862059E+03   # ~tau_2
   1000016     5.01763374E+03   # ~nu_tauL
   1000021     2.00000001E+03   # ~g
   1000022     5.97918748E+01   # ~chi_10
   1000023     3.01966532E+02   # ~chi_20
   1000025    -3.03836222E+02   # ~chi_30
   1000035     3.07423104E+03   # ~chi_40
   1000024     3.00000240E+02   # ~chi_1+
   1000037     3.07439899E+03   # ~chi_2+
#
BLOCK NMIX  # Neutralino Mixing Matrix
  1  1     9.88607121E-01   # N_11
  1  2     6.01610753E-05   # N_12
  1  3    -1.49797270E-01   # N_13
  1  4    -1.47219186E-02   # N_14
  2  1     1.16362759E-01   # N_21
  2  2     1.76952977E-02   # N_22
  2  3     6.98596489E-01   # N_23
  2  4     7.05768751E-01   # N_24
  3  1    -9.54751845E-02   # N_31
  3  2     1.80276034E-02   # N_32
  3  3    -6.99659671E-01   # N_33
  3  4     7.07838851E-01   # N_34
  4  1    -3.97487411E-04   # N_41
  4  2     9.99680888E-01   # N_42
  4  3     2.60409323E-04   # N_43
  4  4    -2.52566002E-02   # N_44
#
BLOCK UMIX  # Chargino Mixing Matrix U
  1  1    -3.65727962E-04   # U_11
  1  2     9.99999933E-01   # U_12
  2  1    -9.99999933E-01   # U_21
  2  2    -3.65727962E-04   # U_22
#
BLOCK VMIX  # Chargino Mixing Matrix V
  1  1     3.57272806E-02   # V_11
  1  2    -9.99361577E-01   # V_12
  2  1    -9.99361577E-01   # V_21
  2  2    -3.57272806E-02   # V_22
#
BLOCK STOPMIX  # Stop Mixing Matrix
  1  1    -5.02850205E-01   # cos(theta_t)
  1  2     8.64373572E-01   # sin(theta_t)
  2  1    -8.64373572E-01   # -sin(theta_t)
  2  2    -5.02850205E-01   # cos(theta_t)
#
BLOCK SBOTMIX  # Sbottom Mixing Matrix
  1  1     9.99213088E-01   # cos(theta_b)
  1  2    -3.96636454E-02   # sin(theta_b)
  2  1     3.96636454E-02   # -sin(theta_b)
  2  2     9.99213088E-01   # cos(theta_b)
#
BLOCK STAUMIX  # Stau Mixing Matrix
  1  1    -3.37555501E-02   # cos(theta_tau)
  1  2     9.99430119E-01   # sin(theta_tau)
  2  1    -9.99430119E-01   # -sin(theta_tau)
  2  2    -3.37555501E-02   # cos(theta_tau)
#
BLOCK ALPHA  # Higgs mixing
          -1.05490157E-01   # Mixing angle in the neutral Higgs boson sector
#
BLOCK HMIX Q=  5.00076799E+03  # DRbar Higgs Parameters
         1    -2.87947358E+02   # mu(Q)MSSM           
         2     9.46903365E+00   # tan                 
         3     2.41699025E+02   # higgs               
         4     8.75142047E+06   # mA^2(Q)MSSM         
#
BLOCK GAUGE Q=  5.00076799E+03  # The gauge couplings
     1     3.71070363E-01   # gprime(Q) DRbar
     2     6.33901871E-01   # g(Q) DRbar
     3     9.98507924E-01   # g3(Q) DRbar
#
BLOCK AU Q=  5.00076799E+03  # The trilinear couplings
  1  1     5.00000001E+03   # A_u(Q) DRbar
  2  2     5.00000001E+03   # A_c(Q) DRbar
  3  3     5.00000002E+03   # A_t(Q) DRbar
#
BLOCK AD Q=  5.00076799E+03  # The trilinear couplings
  1  1     5.00000001E+03   # A_d(Q) DRbar
  2  2     5.00000001E+03   # A_s(Q) DRbar
  3  3     5.00000001E+03   # A_b(Q) DRbar
#
BLOCK AE Q=  5.00076799E+03  # The trilinear couplings
  1  1     0.00000000E+00   # A_e(Q) DRbar
  2  2     1.71680782E-07   # A_mu(Q) DRbar
  3  3     1.71307817E-07   # A_tau(Q) DRbar
#
BLOCK Yu Q=  5.00076799E+03  # The Yukawa couplings
  1  1     0.00000000E+00   # y_u(Q) DRbar
  2  2     0.00000000E+00   # y_c(Q) DRbar
  3  3     8.20369831E-01   # y_t(Q) DRbar
#
BLOCK Yd Q=  5.00076799E+03  # The Yukawa couplings
  1  1     0.00000000E+00   # y_d(Q) DRbar
  2  2     0.00000000E+00   # y_s(Q) DRbar
  3  3     1.29847717E-01   # y_b(Q) DRbar
#
BLOCK Ye Q=  5.00076799E+03  # The Yukawa couplings
  1  1     0.00000000E+00   # y_e(Q) DRbar
  2  2     0.00000000E+00   # y_mu(Q) DRbar
  3  3     9.72773232E-02   # y_tau(Q) DRbar
#
BLOCK MSOFT Q=  5.00076799E+03  # The soft SUSY breaking masses at the scale Q
         1     6.00000000E+01   # M_1(Q)              
         2     3.00000000E+03   # M_2(Q)              
         3     1.66796600E+03   # M_3(Q)              
        21     8.64839108E+06   # mH1^2(Q)            
        22     4.95774709E+05   # mH2^2(Q)            
        31     5.00000000E+03   # meL(Q)              
        32     5.00000000E+03   # mmuL(Q)             
        33     5.00000000E+03   # mtauL(Q)            
        34     5.00000000E+03   # meR(Q)              
        35     5.00000000E+03   # mmuR(Q)             
        36     5.00000000E+03   # mtauR(Q)            
        41     5.00000000E+03   # mqL1(Q)             
        42     5.00000000E+03   # mqL2(Q)             
        43     5.00000000E+03   # mqL3(Q)             
        44     5.00000000E+03   # muR(Q)              
        45     5.00000000E+03   # mcR(Q)              
        46     4.99999999E+03   # mtR(Q)              
        47     5.00000000E+03   # mdR(Q)              
        48     5.00000000E+03   # msR(Q)              
        49     5.00000000E+03   # mbR(Q)              
#
#
#
#                             =================
#                             |The decay table|
#                             =================
#
# - The QCD corrections to the decays gluino -> squark  + quark
#                                     squark -> gaugino + quark_prime
#                                     squark -> squark_prime + Higgs
#                                     squark -> gluino  + quark
#   are included.
#
# - The multi-body decays for the inos, stops and sbottoms are included.
#
# - The loop induced decays for the gluino, neutralinos and stops
#   are included.
#
# - The SUSY decays of the top quark are included.
#
#
#         PDG            Width
DECAY         6     1.40830687E+00   # top decays
#          BR         NDA      ID1       ID2
     1.00000000E+00    2           5        24   # BR(t ->  b    W+)
#
#         PDG            Width
DECAY   1000021     2.33078236E-03   # gluino decays
#          BR         NDA      ID1       ID2
     1.07106035E-06    2     1000022        21   # BR(~g -> ~chi_10 g)
     6.45858751E-03    2     1000023        21   # BR(~g -> ~chi_20 g)
     6.26470978E-03    2     1000025        21   # BR(~g -> ~chi_30 g)
#           BR         NDA      ID1       ID2       ID3
     9.82840759E-03    3     1000022         1        -1   # BR(~g -> ~chi_10 d  db)
     1.10139557E-04    3     1000023         1        -1   # BR(~g -> ~chi_20 d  db)
     8.89309140E-05    3     1000025         1        -1   # BR(~g -> ~chi_30 d  db)
     3.35017905E-02    3     1000022         2        -2   # BR(~g -> ~chi_10 u  ub)
     5.20338694E-04    3     1000023         2        -2   # BR(~g -> ~chi_20 u  ub)
     1.82174939E-04    3     1000025         2        -2   # BR(~g -> ~chi_30 u  ub)
     9.82840759E-03    3     1000022         3        -3   # BR(~g -> ~chi_10 s  sb)
     1.10139557E-04    3     1000023         3        -3   # BR(~g -> ~chi_20 s  sb)
     8.89309140E-05    3     1000025         3        -3   # BR(~g -> ~chi_30 s  sb)
     3.35017905E-02    3     1000022         4        -4   # BR(~g -> ~chi_10 c  cb)
     5.20338694E-04    3     1000023         4        -4   # BR(~g -> ~chi_20 c  cb)
     1.82174939E-04    3     1000025         4        -4   # BR(~g -> ~chi_30 c  cb)
     1.02624844E-02    3     1000022         5        -5   # BR(~g -> ~chi_10 b  bb)
     5.43999605E-03    3     1000023         5        -5   # BR(~g -> ~chi_20 b  bb)
     5.42364217E-03    3     1000025         5        -5   # BR(~g -> ~chi_30 b  bb)
     3.16868673E-02    3     1000022         6        -6   # BR(~g -> ~chi_10 t  tb)
     2.10588761E-01    3     1000023         6        -6   # BR(~g -> ~chi_20 t  tb)
     1.96193589E-01    3     1000025         6        -6   # BR(~g -> ~chi_30 t  tb)
     5.37472038E-05    3     1000024         1        -2   # BR(~g -> ~chi_1+ d  ub)
     5.37472038E-05    3    -1000024         2        -1   # BR(~g -> ~chi_1- u  db)
     5.37472038E-05    3     1000024         3        -4   # BR(~g -> ~chi_1+ s  cb)
     5.37472038E-05    3    -1000024         4        -3   # BR(~g -> ~chi_1- c  sb)
     2.19500869E-01    3     1000024         5        -6   # BR(~g -> ~chi_1+ b  tb)
     2.19500869E-01    3    -1000024         6        -5   # BR(~g -> ~chi_1- t  bb)
#
#         PDG            Width
DECAY   1000006     3.50434417E+02   # stop1 decays
#          BR         NDA      ID1       ID2
     2.41022781E-02    2     1000022         6   # BR(~t_1 -> ~chi_10 t )
     9.68100621E-02    2     1000023         6   # BR(~t_1 -> ~chi_20 t )
     8.90260478E-02    2     1000025         6   # BR(~t_1 -> ~chi_30 t )
     5.78315910E-03    2     1000035         6   # BR(~t_1 -> ~chi_40 t )
     1.38004181E-01    2     1000024         5   # BR(~t_1 -> ~chi_1+ b )
     1.15290289E-02    2     1000037         5   # BR(~t_1 -> ~chi_2+ b )
     6.34745243E-01    2     1000021         6   # BR(~t_1 -> ~g      t )
#
#         PDG            Width
DECAY   2000006     3.54477934E+02   # stop2 decays
#          BR         NDA      ID1       ID2
     1.03978297E-02    2     1000022         6   # BR(~t_2 -> ~chi_10 t )
     9.18566495E-02    2     1000023         6   # BR(~t_2 -> ~chi_20 t )
     1.00638299E-01    2     1000025         6   # BR(~t_2 -> ~chi_30 t )
     1.58879275E-02    2     1000035         6   # BR(~t_2 -> ~chi_40 t )
     5.49773312E-02    2     1000024         5   # BR(~t_2 -> ~chi_1+ b )
     3.16394208E-02    2     1000037         5   # BR(~t_2 -> ~chi_2+ b )
     6.91209132E-01    2     1000021         6   # BR(~t_2 -> ~g      t )
     7.88597260E-04    2     1000006        25   # BR(~t_2 -> ~t_1    h )
     2.60481352E-03    2     1000006        23   # BR(~t_2 -> ~t_1    Z )
#
#         PDG            Width
DECAY   1000005     3.29507062E+02   # sbottom1 decays
#          BR         NDA      ID1       ID2
     2.42817974E-03    2     1000022         5   # BR(~b_1 -> ~chi_10 b )
     2.44578547E-03    2     1000023         5   # BR(~b_1 -> ~chi_20 b )
     2.50889363E-03    2     1000025         5   # BR(~b_1 -> ~chi_30 b )
     2.30896818E-02    2     1000035         5   # BR(~b_1 -> ~chi_40 b )
     2.02927676E-01    2    -1000024         6   # BR(~b_1 -> ~chi_1- t )
     4.63535933E-02    2    -1000037         6   # BR(~b_1 -> ~chi_2- t )
     7.18576262E-01    2     1000021         5   # BR(~b_1 -> ~g      b )
     1.66992828E-03    2     1000006       -24   # BR(~b_1 -> ~t_1    W-)
#
#         PDG            Width
DECAY   2000005     2.45838778E+02   # sbottom2 decays
#          BR         NDA      ID1       ID2
     1.18282037E-02    2     1000022         5   # BR(~b_2 -> ~chi_10 b )
     3.58471436E-03    2     1000023         5   # BR(~b_2 -> ~chi_20 b )
     3.57032315E-03    2     1000025         5   # BR(~b_2 -> ~chi_30 b )
     4.37710699E-05    2     1000035         5   # BR(~b_2 -> ~chi_40 b )
     7.26001779E-03    2    -1000024         6   # BR(~b_2 -> ~chi_1- t )
     8.78914957E-05    2    -1000037         6   # BR(~b_2 -> ~chi_2- t )
     9.73610555E-01    2     1000021         5   # BR(~b_2 -> ~g      b )
     1.45237898E-05    2     1000006       -24   # BR(~b_2 -> ~t_1    W-)
#
#         PDG            Width
DECAY   1000002     2.65320806E+02   # sup_L decays
#          BR         NDA      ID1       ID2
     2.75420059E-03    2     1000022         2   # BR(~u_L -> ~chi_10 u)
     1.19976262E-04    2     1000023         2   # BR(~u_L -> ~chi_20 u)
     2.66359787E-08    2     1000025         2   # BR(~u_L -> ~chi_30 u)
     2.97443898E-02    2     1000035         2   # BR(~u_L -> ~chi_40 u)
     1.87667196E-04    2     1000024         1   # BR(~u_L -> ~chi_1+ d)
     5.94525145E-02    2     1000037         1   # BR(~u_L -> ~chi_2+ d)
     9.07741225E-01    2     1000021         2   # BR(~u_L -> ~g      u)
#
#         PDG            Width
DECAY   2000002     2.51293256E+02   # sup_R decays
#          BR         NDA      ID1       ID2
     4.63337916E-02    2     1000022         2   # BR(~u_R -> ~chi_10 u)
     6.37864191E-04    2     1000023         2   # BR(~u_R -> ~chi_20 u)
     4.29382340E-04    2     1000025         2   # BR(~u_R -> ~chi_30 u)
     2.99012219E-09    2     1000035         2   # BR(~u_R -> ~chi_40 u)
     9.52598959E-01    2     1000021         2   # BR(~u_R -> ~g      u)
#
#         PDG            Width
DECAY   1000001     2.65334167E+02   # sdown_L decays
#          BR         NDA      ID1       ID2
     2.75088917E-03    2     1000022         1   # BR(~d_L -> ~chi_10 d)
     1.84507231E-06    2     1000023         1   # BR(~d_L -> ~chi_20 d)
     9.87692337E-05    2     1000025         1   # BR(~d_L -> ~chi_30 d)
     2.97613442E-02    2     1000035         1   # BR(~d_L -> ~chi_40 d)
     1.96663870E-08    2    -1000024         2   # BR(~d_L -> ~chi_1- u)
     5.95439430E-02    2    -1000037         2   # BR(~d_L -> ~chi_2- u)
     9.07843190E-01    2     1000021         1   # BR(~d_L -> ~g      d)
#
#         PDG            Width
DECAY   2000001     2.42385104E+02   # sdown_R decays
#          BR         NDA      ID1       ID2
     1.20099017E-02    2     1000022         1   # BR(~d_R -> ~chi_10 d)
     1.65337042E-04    2     1000023         1   # BR(~d_R -> ~chi_20 d)
     1.11297684E-04    2     1000025         1   # BR(~d_R -> ~chi_30 d)
     7.75160736E-10    2     1000035         1   # BR(~d_R -> ~chi_40 d)
     9.87713463E-01    2     1000021         1   # BR(~d_R -> ~g      d)
#
#         PDG            Width
DECAY   1000004     2.65320806E+02   # scharm_L decays
#          BR         NDA      ID1       ID2
     2.75420059E-03    2     1000022         4   # BR(~c_L -> ~chi_10 c)
     1.19976262E-04    2     1000023         4   # BR(~c_L -> ~chi_20 c)
     2.66359787E-08    2     1000025         4   # BR(~c_L -> ~chi_30 c)
     2.97443898E-02    2     1000035         4   # BR(~c_L -> ~chi_40 c)
     1.87667196E-04    2     1000024         3   # BR(~c_L -> ~chi_1+ s)
     5.94525145E-02    2     1000037         3   # BR(~c_L -> ~chi_2+ s)
     9.07741225E-01    2     1000021         4   # BR(~c_L -> ~g      c)
#
#         PDG            Width
DECAY   2000004     2.51293256E+02   # scharm_R decays
#          BR         NDA      ID1       ID2
     4.63337916E-02    2     1000022         4   # BR(~c_R -> ~chi_10 c)
     6.37864191E-04    2     1000023         4   # BR(~c_R -> ~chi_20 c)
     4.29382340E-04    2     1000025         4   # BR(~c_R -> ~chi_30 c)
     2.99012219E-09    2     1000035         4   # BR(~c_R -> ~chi_40 c)
     9.52598959E-01    2     1000021         4   # BR(~c_R -> ~g      c)
#
#         PDG            Width
DECAY   1000003     2.65334167E+02   # sstrange_L decays
#          BR         NDA      ID1       ID2
     2.75088917E-03    2     1000022         3   # BR(~s_L -> ~chi_10 s)
     1.84507231E-06    2     1000023         3   # BR(~s_L -> ~chi_20 s)
     9.87692337E-05    2     1000025         3   # BR(~s_L -> ~chi_30 s)
     2.97613442E-02    2     1000035         3   # BR(~s_L -> ~chi_40 s)
     1.96663870E-08    2    -1000024         4   # BR(~s_L -> ~chi_1- c)
     5.95439430E-02    2    -1000037         4   # BR(~s_L -> ~chi_2- c)
     9.07843190E-01    2     1000021         3   # BR(~s_L -> ~g      s)
#
#         PDG            Width
DECAY   2000003     2.42385104E+02   # sstrange_R decays
#          BR         NDA      ID1       ID2
     1.20099017E-02    2     1000022         3   # BR(~s_R -> ~chi_10 s)
     1.65337042E-04    2     1000023         3   # BR(~s_R -> ~chi_20 s)
     1.11297684E-04    2     1000025         3   # BR(~s_R -> ~chi_30 s)
     7.75160736E-10    2     1000035         3   # BR(~s_R -> ~chi_40 s)
     9.87713463E-01    2     1000021         3   # BR(~s_R -> ~g      s)
#
#         PDG            Width
DECAY   1000011     3.03809763E+01   # selectron_L decays
#          BR         NDA      ID1       ID2
     2.21133574E-01    2     1000022        11   # BR(~e_L -> ~chi_10 e-)
     4.82735919E-03    2     1000023        11   # BR(~e_L -> ~chi_20 e-)
     9.39661511E-04    2     1000025        11   # BR(~e_L -> ~chi_30 e-)
     2.57532688E-01    2     1000035        11   # BR(~e_L -> ~chi_40 e-)
     1.75391837E-07    2    -1000024        12   # BR(~e_L -> ~chi_1- nu_e)
     5.15566542E-01    2    -1000037        12   # BR(~e_L -> ~chi_2- nu_e)
#
#         PDG            Width
DECAY   2000011     2.74136289E+01   # selectron_R decays
#          BR         NDA      ID1       ID2
     9.77499534E-01    2     1000022        11   # BR(~e_R -> ~chi_10 e-)
     1.34479087E-02    2     1000023        11   # BR(~e_R -> ~chi_20 e-)
     9.05249601E-03    2     1000025        11   # BR(~e_R -> ~chi_30 e-)
     6.13231810E-08    2     1000035        11   # BR(~e_R -> ~chi_40 e-)
#
#         PDG            Width
DECAY   1000013     3.03809763E+01   # smuon_L decays
#          BR         NDA      ID1       ID2
     2.21133574E-01    2     1000022        13   # BR(~mu_L -> ~chi_10 mu-)
     4.82735919E-03    2     1000023        13   # BR(~mu_L -> ~chi_20 mu-)
     9.39661511E-04    2     1000025        13   # BR(~mu_L -> ~chi_30 mu-)
     2.57532688E-01    2     1000035        13   # BR(~mu_L -> ~chi_40 mu-)
     1.75391837E-07    2    -1000024        14   # BR(~mu_L -> ~chi_1- nu_mu)
     5.15566542E-01    2    -1000037        14   # BR(~mu_L -> ~chi_2- nu_mu)
#
#         PDG            Width
DECAY   2000013     2.74136289E+01   # smuon_R decays
#          BR         NDA      ID1       ID2
     9.77499534E-01    2     1000022        13   # BR(~mu_R -> ~chi_10 mu-)
     1.34479087E-02    2     1000023        13   # BR(~mu_R -> ~chi_20 mu-)
     9.05249601E-03    2     1000025        13   # BR(~mu_R -> ~chi_30 mu-)
     6.13231810E-08    2     1000035        13   # BR(~mu_R -> ~chi_40 mu-)
#
#         PDG            Width
DECAY   1000015     2.92803585E+01   # stau_1 decays
#          BR         NDA      ID1       ID2
     9.15779114E-01    2     1000022        15   # BR(~tau_1 -> ~chi_10  tau-)
     2.78181314E-02    2     1000023        15   # BR(~tau_1 -> ~chi_20  tau-)
     2.35884511E-02    2     1000025        15   # BR(~tau_1 -> ~chi_30  tau-)
     3.02591485E-04    2     1000035        15   # BR(~tau_1 -> ~chi_40  tau-)
     3.19060826E-02    2    -1000024        16   # BR(~tau_1 -> ~chi_1-  nu_tau)
     6.05628990E-04    2    -1000037        16   # BR(~tau_1 -> ~chi_2-  nu_tau)
#
#         PDG            Width
DECAY   2000015     3.13078244E+01   # stau_2 decays
#          BR         NDA      ID1       ID2
     2.15162056E-01    2     1000022        15   # BR(~tau_2 -> ~chi_10  tau-)
     1.96421865E-02    2     1000023        15   # BR(~tau_2 -> ~chi_20  tau-)
     1.60657072E-02    2     1000025        15   # BR(~tau_2 -> ~chi_30  tau-)
     2.49535012E-01    2     1000035        15   # BR(~tau_2 -> ~chi_40  tau-)
     3.91282247E-05    2    -1000024        16   # BR(~tau_2 -> ~chi_1-  nu_tau)
     4.99555910E-01    2    -1000037        16   # BR(~tau_2 -> ~chi_2-  nu_tau)
#
#         PDG            Width
DECAY   1000012     3.03841051E+01   # snu_eL decays
#          BR         NDA      ID1       ID2
     2.20976950E-01    2     1000022        12   # BR(~nu_eL -> ~chi_10 nu_e)
     1.66613119E-03    2     1000023        12   # BR(~nu_eL -> ~chi_20 nu_e)
     3.58043835E-03    2     1000025        12   # BR(~nu_eL -> ~chi_30 nu_e)
     2.57579797E-01    2     1000035        12   # BR(~nu_eL -> ~chi_40 nu_e)
     1.67326495E-03    2     1000024        11   # BR(~nu_eL -> ~chi_1+ e-)
     5.14523419E-01    2     1000037        11   # BR(~nu_eL -> ~chi_2+ e-)
#
#         PDG            Width
DECAY   1000014     3.03841051E+01   # snu_muL decays
#          BR         NDA      ID1       ID2
     2.20976950E-01    2     1000022        14   # BR(~nu_muL -> ~chi_10 nu_mu)
     1.66613119E-03    2     1000023        14   # BR(~nu_muL -> ~chi_20 nu_mu)
     3.58043835E-03    2     1000025        14   # BR(~nu_muL -> ~chi_30 nu_mu)
     2.57579797E-01    2     1000035        14   # BR(~nu_muL -> ~chi_40 nu_mu)
     1.67326495E-03    2     1000024        13   # BR(~nu_muL -> ~chi_1+ mu-)
     5.14523419E-01    2     1000037        13   # BR(~nu_muL -> ~chi_2+ mu-)
#
#         PDG            Width
DECAY   1000016     3.13124060E+01   # snu_tauL decays
#          BR         NDA      ID1       ID2
     2.14402095E-01    2     1000022        16   # BR(~nu_tauL -> ~chi_10 nu_tau)
     1.61655533E-03    2     1000023        16   # BR(~nu_tauL -> ~chi_20 nu_tau)
     3.47390207E-03    2     1000025        16   # BR(~nu_tauL -> ~chi_30 nu_tau)
     2.49849604E-01    2     1000035        16   # BR(~nu_tauL -> ~chi_40 nu_tau)
     3.15760237E-02    2     1000024        15   # BR(~nu_tauL -> ~chi_1+ tau-)
     4.99081821E-01    2     1000037        15   # BR(~nu_tauL -> ~chi_2+ tau-)
#
#         PDG            Width
DECAY   1000024     1.63078890E-01   # chargino1+ decays
#          BR         NDA      ID1       ID2
     1.00000000E+00    2     1000022        24   # BR(~chi_1+ -> ~chi_10  W+)
#
#         PDG            Width
DECAY   1000037     2.29010565E+01   # chargino2+ decays
#          BR         NDA      ID1       ID2
     2.53649625E-01    2     1000024        23   # BR(~chi_2+ -> ~chi_1+  Z )
     1.47781071E-04    2     1000022        24   # BR(~chi_2+ -> ~chi_10  W+)
     2.45434782E-01    2     1000023        24   # BR(~chi_2+ -> ~chi_20  W+)
     2.44539582E-01    2     1000025        24   # BR(~chi_2+ -> ~chi_30  W+)
     2.56213094E-01    2     1000024        25   # BR(~chi_2+ -> ~chi_1+  h )
     1.51368558E-05    2     1000022        37   # BR(~chi_2+ -> ~chi_10  H+)
#
#         PDG            Width
DECAY   1000022     0.00000000E+00   # neutralino1 decays
#
#         PDG            Width
DECAY   1000023     1.53446806E-01   # neutralino2 decays
#          BR         NDA      ID1       ID2
     4.91700631E-01    2     1000022        23   # BR(~chi_20 -> ~chi_10   Z )
     5.08299369E-01    2     1000022        25   # BR(~chi_20 -> ~chi_10   h )
#
#         PDG            Width
DECAY   1000025     1.38297667E-01   # neutralino3 decays
#          BR         NDA      ID1       ID2
     6.71360269E-01    2     1000022        23   # BR(~chi_30 -> ~chi_10   Z )
     3.28639731E-01    2     1000022        25   # BR(~chi_30 -> ~chi_10   h )
#
#         PDG            Width
DECAY   1000035     2.29025517E+01   # neutralino4 decays
#          BR         NDA      ID1       ID2
     6.90270754E-05    2     1000022        23   # BR(~chi_40 -> ~chi_10   Z )
     1.29011008E-01    2     1000023        23   # BR(~chi_40 -> ~chi_20   Z )
     1.24404336E-01    2     1000025        23   # BR(~chi_40 -> ~chi_30   Z )
     2.45266278E-01    2     1000024       -24   # BR(~chi_40 -> ~chi_1+   W-)
     2.45266278E-01    2    -1000024        24   # BR(~chi_40 -> ~chi_1-   W+)
     6.83167374E-05    2     1000022        25   # BR(~chi_40 -> ~chi_10   h )
     1.46097600E-05    2     1000022        35   # BR(~chi_40 -> ~chi_10   H )
     1.54926887E-06    2     1000022        36   # BR(~chi_40 -> ~chi_10   A )
     1.26590484E-01    2     1000023        25   # BR(~chi_40 -> ~chi_20   h )
     1.29308114E-01    2     1000025        25   # BR(~chi_40 -> ~chi_30   h )
#
#         PDG            Width
DECAY        25     4.07402654E-03   # h decays
#          BR         NDA      ID1       ID2
     6.10474696E-01    2           5        -5   # BR(h -> b       bb     )
     6.36592047E-02    2         -15        15   # BR(h -> tau+    tau-   )
     2.25376853E-04    2         -13        13   # BR(h -> mu+     mu-    )
     4.77805611E-04    2           3        -3   # BR(h -> s       sb     )
     2.07013663E-02    2           4        -4   # BR(h -> c       cb     )
     6.69324201E-02    2          21        21   # BR(h -> g       g      )
     2.29882063E-03    2          22        22   # BR(h -> gam     gam    )
     1.48087653E-03    2          22        23   # BR(h -> Z       gam    )
     2.08881111E-01    2          24       -24   # BR(h -> W+      W-     )
     2.48661145E-02    2          23        23   # BR(h -> Z       Z      )
     2.20837587E-06    2     1000022   1000022   # BR(h -> ~chi_10 ~chi_10)
#
#         PDG            Width
DECAY        35     8.78106034E+00   # H decays
#          BR         NDA      ID1       ID2
     3.61586169E-01    2           5        -5   # BR(H -> b       bb     )
     6.34338878E-02    2         -15        15   # BR(H -> tau+    tau-   )
     2.24307266E-04    2         -13        13   # BR(H -> mu+     mu-    )
     2.74966223E-04    2           3        -3   # BR(H -> s       sb     )
     1.53881379E-06    2           4        -4   # BR(H -> c       cb     )
     1.53739694E-01    2           6        -6   # BR(H -> t       tb     )
     5.11514100E-05    2          21        21   # BR(H -> g       g      )
     1.38292620E-07    2          22        22   # BR(H -> gam     gam    )
     9.06912876E-08    2          23        22   # BR(H -> Z       gam    )
     7.47140963E-05    2          24       -24   # BR(H -> W+      W-     )
     3.73097492E-05    2          23        23   # BR(H -> Z       Z      )
     2.67385581E-04    2          25        25   # BR(H -> h       h      )
    -9.11785451E-25    2          36        36   # BR(H -> A       A      )
     6.47838140E-19    2          23        36   # BR(H -> Z       A      )
     3.40625552E-03    2     1000024  -1000024   # BR(H -> ~chi_1+ ~chi_1-)
     1.88115828E-02    2     1000022   1000022   # BR(H -> ~chi_10 ~chi_10)
     3.32911876E-03    2     1000023   1000023   # BR(H -> ~chi_20 ~chi_20)
     5.10537347E-03    2     1000025   1000025   # BR(H -> ~chi_30 ~chi_30)
     2.32088104E-01    2     1000022   1000023   # BR(H -> ~chi_10 ~chi_20)
     1.48058743E-01    2     1000022   1000025   # BR(H -> ~chi_10 ~chi_30)
     9.50946981E-03    2     1000023   1000025   # BR(H -> ~chi_20 ~chi_30)
#
#         PDG            Width
DECAY        36     8.78639670E+00   # A decays
#          BR         NDA      ID1       ID2
     3.61490323E-01    2           5        -5   # BR(A -> b       bb     )
     6.33972213E-02    2         -15        15   # BR(A -> tau+    tau-   )
     2.24177297E-04    2         -13        13   # BR(A -> mu+     mu-    )
     2.75007859E-04    2           3        -3   # BR(A -> s       sb     )
     1.54396330E-06    2           4        -4   # BR(A -> c       cb     )
     1.54169053E-01    2           6        -6   # BR(A -> t       tb     )
     1.52553740E-04    2          21        21   # BR(A -> g       g      )
     5.63789347E-07    2          22        22   # BR(A -> gam     gam    )
     1.84600535E-07    2          23        22   # BR(A -> Z       gam    )
     7.43860987E-05    2          23        25   # BR(A -> Z       h      )
     3.56149183E-03    2     1000024  -1000024   # BR(A -> ~chi_1+ ~chi_1-)
     1.80638399E-02    2     1000022   1000022   # BR(A -> ~chi_10 ~chi_10)
     2.25825857E-03    2     1000023   1000023   # BR(A -> ~chi_20 ~chi_20)
     8.17626473E-03    2     1000025   1000025   # BR(A -> ~chi_30 ~chi_30)
     1.51186903E-01    2     1000022   1000023   # BR(A -> ~chi_10 ~chi_20)
     2.28631945E-01    2     1000022   1000025   # BR(A -> ~chi_10 ~chi_30)
     8.33628357E-03    2     1000023   1000025   # BR(A -> ~chi_20 ~chi_30)
#
#         PDG            Width
DECAY        37     8.72449175E+00   # H+ decays
#          BR         NDA      ID1       ID2
     5.79111201E-04    2           4        -5   # BR(H+ -> c       bb     )
     6.38783339E-02    2         -15        16   # BR(H+ -> tau+    nu_tau )
     2.25878547E-04    2         -13        14   # BR(H+ -> mu+     nu_mu  )
     3.70629214E-06    2           2        -5   # BR(H+ -> u       bb     )
     1.32537416E-05    2           2        -3   # BR(H+ -> u       sb     )
     2.74088701E-04    2           4        -3   # BR(H+ -> c       sb     )
     5.14003105E-01    2           6        -5   # BR(H+ -> t       bb     )
     7.50724222E-05    2          24        25   # BR(H+ -> W+      h      )
     1.03222918E-12    2          24        36   # BR(H+ -> W+      A      )
     4.10127854E-01    2     1000024   1000022   # BR(H+ -> ~chi_1+ ~chi_10)
     9.11419229E-03    2     1000024   1000023   # BR(H+ -> ~chi_1+ ~chi_20)
     1.70540359E-03    2     1000024   1000025   # BR(H+ -> ~chi_1+ ~chi_30)
