#
#                              ======================
#                              | THE SUSYHIT OUTPUT |
#                              ======================
#
#
#              ------------------------------------------------------
#              |     This is the output of the SUSY-HIT package     |
#              |  created by A.Djouadi, M.Muehlleitner and M.Spira. |
#              |  In case of problems with SUSY-HIT email to        |
#              |           margarete.muehlleitner@cern.ch           |
#              |           michael.spira@psi.ch                     |
#              |           abdelhak.djouadi@cern.ch                 |
#              ------------------------------------------------------
#
#              ------------------------------------------------------
#              |  SUSY Les Houches Accord - MSSM Spectrum + Decays  |
#              |              based on the decay programs           |
#              |                                                    |
#              |                     SDECAY 1.3b                    |
#              |                                                    |
#              |  Authors: M.Muhlleitner, A.Djouadi and Y.Mambrini  |
#              |  Ref.:    Comput.Phys.Commun.168(2005)46           |
#              |           [hep-ph/0311167]                         |
#              |                                                    |
#              |                     HDECAY 3.4                     |
#              |                                                    |
#              |  By: A.Djouadi,J.Kalinowski,M.Muhlleitner,M.Spira  |
#              |  Ref.:    Comput.Phys.Commun.108(1998)56           |
#              |           [hep-ph/9704448]                         |
#              |                                                    |
#              |                                                    |
#              |  If not stated otherwise all DRbar couplings and   |
#              |  soft SUSY breaking masses are given at the scale  |
#              |  Q=  0.50007373E+04
#              |                                                    |
#              ------------------------------------------------------
#
#
BLOCK DCINFO  # Decay Program information
     1   SDECAY/HDECAY # decay calculator
     2   1.3b  /3.4    # version number
#
BLOCK SPINFO  # Spectrum calculator information
     1    SOFTSUSY    # spectrum calculator                
     2    3.4.0       # version number                     
#
BLOCK MODSEL  # Model selection
     1     0   #  nonUniversal                                     
#
BLOCK SMINPUTS  # Standard Model inputs
         1     1.25778332E+02   # alpha_em^-1(M_Z)^MSbar
         2     1.16570000E-05   # G_F [GeV^-2]
         3     1.17200002E-01   # alpha_S(M_Z)^MSbar
         4     9.11876000E+01   # M_Z pole mass
         5     4.25000000E+00   # mb(mb)^MSbar
         6     1.72500000E+02   # mt pole mass
         7     1.77682000E+00   # mtau pole mass
#
BLOCK MINPAR  # Input parameters - minimal models
         3     1.00000000E+01   # tanb                
#
BLOCK EXTPAR  # Input parameters - non-minimal models
         0    -1.00000000E+00   # Set                 
         1     6.00000000E+01   # M_1(MX)             
         2     3.00000000E+03   # M_2(MX)             
         3     8.59143000E+02   # M_3(MX)             
        11     5.00000000E+03   # At(MX)              
        12     5.00000000E+03   # Ab(MX)              
        13     0.00000000E+00   # Atau(MX)            
        23    -7.65156000E+02   # mu(MX)              
        26     3.00000000E+03   # mA(pole)            
        31     5.00000000E+03   # meL(MX)             
        32     5.00000000E+03   # mmuL(MX)            
        33     5.00000000E+03   # mtauL(MX)           
        34     5.00000000E+03   # meR(MX)             
        35     5.00000000E+03   # mmuR(MX)            
        36     5.00000000E+03   # mtauR(MX)           
        41     5.00000000E+03   # mqL1(MX)            
        42     5.00000000E+03   # mqL2(MX)            
        43     5.00000000E+03   # mqL3(MX)            
        44     5.00000000E+03   # muR(MX)             
        45     5.00000000E+03   # mcR(MX)             
        46     5.00000000E+03   # mtR(MX)             
        47     5.00000000E+03   # mdR(MX)             
        48     5.00000000E+03   # msR(MX)             
        49     5.00000000E+03   # mbR(MX)             
#
BLOCK MASS  # Mass Spectrum
# PDG code           mass       particle
        24     8.00921020E+01   # W+
        25     1.24386353E+02   # h
        35     3.00008234E+03   # H
        36     2.99999722E+03   # A
        37     3.00136281E+03   # H+
         5     4.87878001E+00   # b-quark pole mass calculated from mb(mb)_Msbar
   1000001     5.06421684E+03   # ~d_L
   2000001     5.04637134E+03   # ~d_R
   1000002     5.06373983E+03   # ~u_L
   2000002     5.04607928E+03   # ~u_R
   1000003     5.06421684E+03   # ~s_L
   2000003     5.04637134E+03   # ~s_R
   1000004     5.06373983E+03   # ~c_L
   2000004     5.04607928E+03   # ~c_R
   1000005     5.01050353E+03   # ~b_1
   2000005     5.04482183E+03   # ~b_2
   1000006     4.90094054E+03   # ~t_1
   2000006     5.05598086E+03   # ~t_2
   1000011     5.01908532E+03   # ~e_L
   2000011     5.00593164E+03   # ~e_R
   1000012     5.01813567E+03   # ~nu_eL
   1000013     5.01908532E+03   # ~mu_L
   2000013     5.00593164E+03   # ~mu_R
   1000014     5.01813567E+03   # ~nu_muL
   1000015     5.00468702E+03   # ~tau_1
   2000015     5.01870094E+03   # ~tau_2
   1000016     5.01758709E+03   # ~nu_tauL
   1000021     1.10000089E+03   # ~g
   1000022     6.02872598E+01   # ~chi_10
   1000023     7.99841231E+02   # ~chi_20
   1000025    -8.02075317E+02   # ~chi_30
   1000035     3.07421985E+03   # ~chi_40
   1000024     8.00000831E+02   # ~chi_1+
   1000037     3.07438744E+03   # ~chi_2+
#
BLOCK NMIX  # Neutralino Mixing Matrix
  1  1     9.98451447E-01   # N_11
  1  2     2.07767954E-04   # N_12
  1  3    -5.56068209E-02   # N_13
  1  4     1.59578982E-03   # N_14
  2  1     3.82071601E-02   # N_21
  2  2     2.14590912E-02   # N_22
  2  3     7.06385111E-01   # N_23
  2  4     7.06469953E-01   # N_24
  3  1    -4.04322480E-02   # N_31
  3  2     1.56913693E-02   # N_32
  3  3    -7.05628332E-01   # N_33
  3  4     7.07253612E-01   # N_34
  4  1    -3.93038727E-04   # N_41
  4  2     9.99646560E-01   # N_42
  4  3    -4.07599507E-03   # N_43
  4  4    -2.62675964E-02   # N_44
#
BLOCK UMIX  # Chargino Mixing Matrix U
  1  1     5.77512002E-03   # U_11
  1  2     9.99983324E-01   # U_12
  2  1    -9.99983324E-01   # U_21
  2  2     5.77512002E-03   # U_22
#
BLOCK VMIX  # Chargino Mixing Matrix V
  1  1     3.71762311E-02   # V_11
  1  2    -9.99308725E-01   # V_12
  2  1    -9.99308725E-01   # V_21
  2  2    -3.71762311E-02   # V_22
#
BLOCK STOPMIX  # Stop Mixing Matrix
  1  1    -5.08699462E-01   # cos(theta_t)
  1  2     8.60944166E-01   # sin(theta_t)
  2  1    -8.60944166E-01   # -sin(theta_t)
  2  2    -5.08699462E-01   # cos(theta_t)
#
BLOCK SBOTMIX  # Sbottom Mixing Matrix
  1  1     9.97795292E-01   # cos(theta_b)
  1  2    -6.63668235E-02   # sin(theta_b)
  2  1     6.63668235E-02   # -sin(theta_b)
  2  2     9.97795292E-01   # cos(theta_b)
#
BLOCK STAUMIX  # Stau Mixing Matrix
  1  1    -9.13700615E-02   # cos(theta_tau)
  1  2     9.95817007E-01   # sin(theta_tau)
  2  1    -9.95817007E-01   # -sin(theta_tau)
  2  2    -9.13700615E-02   # cos(theta_tau)
#
BLOCK ALPHA  # Higgs mixing
          -1.05435735E-01   # Mixing angle in the neutral Higgs boson sector
#
BLOCK HMIX Q=  5.00073734E+03  # DRbar Higgs Parameters
         1    -7.78820081E+02   # mu(Q)MSSM           
         2     9.47336311E+00   # tan                 
         3     2.41872116E+02   # higgs               
         4     8.57248455E+06   # mA^2(Q)MSSM         
#
BLOCK GAUGE Q=  5.00073734E+03  # The gauge couplings
     1     3.70866018E-01   # gprime(Q) DRbar
     2     6.32847189E-01   # g(Q) DRbar
     3     1.00724503E+00   # g3(Q) DRbar
#
BLOCK AU Q=  5.00073734E+03  # The trilinear couplings
  1  1     5.00000001E+03   # A_u(Q) DRbar
  2  2     5.00000001E+03   # A_c(Q) DRbar
  3  3     5.00000001E+03   # A_t(Q) DRbar
#
BLOCK AD Q=  5.00073734E+03  # The trilinear couplings
  1  1     5.00000000E+03   # A_d(Q) DRbar
  2  2     5.00000000E+03   # A_s(Q) DRbar
  3  3     5.00000001E+03   # A_b(Q) DRbar
#
BLOCK AE Q=  5.00073734E+03  # The trilinear couplings
  1  1     0.00000000E+00   # A_e(Q) DRbar
  2  2     3.28915872E-08   # A_mu(Q) DRbar
  3  3     3.19766838E-08   # A_tau(Q) DRbar
#
BLOCK Yu Q=  5.00073734E+03  # The Yukawa couplings
  1  1     0.00000000E+00   # y_u(Q) DRbar
  2  2     0.00000000E+00   # y_c(Q) DRbar
  3  3     8.15171661E-01   # y_t(Q) DRbar
#
BLOCK Yd Q=  5.00073734E+03  # The Yukawa couplings
  1  1     0.00000000E+00   # y_d(Q) DRbar
  2  2     0.00000000E+00   # y_s(Q) DRbar
  3  3     1.29394957E-01   # y_b(Q) DRbar
#
BLOCK Ye Q=  5.00073734E+03  # The Yukawa couplings
  1  1     0.00000000E+00   # y_e(Q) DRbar
  2  2     0.00000000E+00   # y_mu(Q) DRbar
  3  3     9.69753380E-02   # y_tau(Q) DRbar
#
BLOCK MSOFT Q=  5.00073734E+03  # The soft SUSY breaking masses at the scale Q
         1     6.00000000E+01   # M_1(Q)              
         2     3.00000000E+03   # M_2(Q)              
         3     8.59143000E+02   # M_3(Q)              
        21     8.10204837E+06   # mH1^2(Q)            
        22    -4.13204851E+04   # mH2^2(Q)            
        31     5.00000000E+03   # meL(Q)              
        32     5.00000000E+03   # mmuL(Q)             
        33     5.00000000E+03   # mtauL(Q)            
        34     5.00000000E+03   # meR(Q)              
        35     5.00000000E+03   # mmuR(Q)             
        36     5.00000000E+03   # mtauR(Q)            
        41     5.00000000E+03   # mqL1(Q)             
        42     5.00000000E+03   # mqL2(Q)             
        43     5.00000000E+03   # mqL3(Q)             
        44     5.00000000E+03   # muR(Q)              
        45     5.00000000E+03   # mcR(Q)              
        46     5.00000000E+03   # mtR(Q)              
        47     5.00000000E+03   # mdR(Q)              
        48     5.00000000E+03   # msR(Q)              
        49     5.00000000E+03   # mbR(Q)              
#
#
#
#                             =================
#                             |The decay table|
#                             =================
#
# - The QCD corrections to the decays gluino -> squark  + quark
#                                     squark -> gaugino + quark_prime
#                                     squark -> squark_prime + Higgs
#                                     squark -> gluino  + quark
#   are included.
#
# - The multi-body decays for the inos, stops and sbottoms are included.
#
# - The loop induced decays for the gluino, neutralinos and stops
#   are included.
#
# - The SUSY decays of the top quark are included.
#
#
#         PDG            Width
DECAY         6     1.40359914E+00   # top decays
#          BR         NDA      ID1       ID2
     1.00000000E+00    2           5        24   # BR(t ->  b    W+)
#
#         PDG            Width
DECAY   1000021     1.44522082E-05   # gluino decays
#          BR         NDA      ID1       ID2
     1.45102569E-05    2     1000022        21   # BR(~g -> ~chi_10 g)
     1.81856894E-02    2     1000023        21   # BR(~g -> ~chi_20 g)
     1.75531495E-02    2     1000025        21   # BR(~g -> ~chi_30 g)
#           BR         NDA      ID1       ID2       ID3
     7.77531904E-02    3     1000022         1        -1   # BR(~g -> ~chi_10 d  db)
     3.01134565E-06    3     1000023         1        -1   # BR(~g -> ~chi_20 d  db)
     1.91832160E-06    3     1000025         1        -1   # BR(~g -> ~chi_30 d  db)
     2.65104768E-01    3     1000022         2        -2   # BR(~g -> ~chi_10 u  ub)
     1.24275405E-05    3     1000023         2        -2   # BR(~g -> ~chi_20 u  ub)
     2.54416977E-06    3     1000025         2        -2   # BR(~g -> ~chi_30 u  ub)
     7.77531904E-02    3     1000022         3        -3   # BR(~g -> ~chi_10 s  sb)
     3.01134565E-06    3     1000023         3        -3   # BR(~g -> ~chi_20 s  sb)
     1.91832160E-06    3     1000025         3        -3   # BR(~g -> ~chi_30 s  sb)
     2.65104768E-01    3     1000022         4        -4   # BR(~g -> ~chi_10 c  cb)
     1.24275405E-05    3     1000023         4        -4   # BR(~g -> ~chi_20 c  cb)
     2.54416977E-06    3     1000025         4        -4   # BR(~g -> ~chi_30 c  cb)
     7.90161260E-02    3     1000022         5        -5   # BR(~g -> ~chi_10 b  bb)
     6.20196425E-04    3     1000023         5        -5   # BR(~g -> ~chi_20 b  bb)
     5.93399176E-04    3     1000025         5        -5   # BR(~g -> ~chi_30 b  bb)
     1.88775556E-01    3     1000022         6        -6   # BR(~g -> ~chi_10 t  tb)
     7.77513840E-06    3     1000024         1        -2   # BR(~g -> ~chi_1+ d  ub)
     7.77513840E-06    3    -1000024         2        -1   # BR(~g -> ~chi_1- u  db)
     7.77513840E-06    3     1000024         3        -4   # BR(~g -> ~chi_1+ s  cb)
     7.77513840E-06    3    -1000024         4        -3   # BR(~g -> ~chi_1- c  sb)
     4.72727605E-03    3     1000024         5        -6   # BR(~g -> ~chi_1+ b  tb)
     4.72727605E-03    3    -1000024         6        -5   # BR(~g -> ~chi_1- t  bb)
#
#         PDG            Width
DECAY   1000006     4.13126646E+02   # stop1 decays
#          BR         NDA      ID1       ID2
     2.12861088E-02    2     1000022         6   # BR(~t_1 -> ~chi_10 t )
     7.56381056E-02    2     1000023         6   # BR(~t_1 -> ~chi_20 t )
     7.24270139E-02    2     1000025         6   # BR(~t_1 -> ~chi_30 t )
     5.07072526E-03    2     1000035         6   # BR(~t_1 -> ~chi_40 t )
     1.09101712E-01    2     1000024         5   # BR(~t_1 -> ~chi_1+ b )
     1.01058264E-02    2     1000037         5   # BR(~t_1 -> ~chi_2+ b )
     7.06370508E-01    2     1000021         6   # BR(~t_1 -> ~g      t )
#
#         PDG            Width
DECAY   2000006     4.13764577E+02   # stop2 decays
#          BR         NDA      ID1       ID2
     8.60059995E-03    2     1000022         6   # BR(~t_2 -> ~chi_10 t )
     7.67381239E-02    2     1000023         6   # BR(~t_2 -> ~chi_20 t )
     8.02795092E-02    2     1000025         6   # BR(~t_2 -> ~chi_30 t )
     1.32739113E-02    2     1000035         6   # BR(~t_2 -> ~chi_40 t )
     4.63956810E-02    2     1000024         5   # BR(~t_2 -> ~chi_1+ b )
     2.64207763E-02    2     1000037         5   # BR(~t_2 -> ~chi_2+ b )
     7.45192425E-01    2     1000021         6   # BR(~t_2 -> ~g      t )
     6.97725603E-04    2     1000006        25   # BR(~t_2 -> ~t_1    h )
     2.40124775E-03    2     1000006        23   # BR(~t_2 -> ~t_1    Z )
#
#         PDG            Width
DECAY   1000005     3.91445308E+02   # sbottom1 decays
#          BR         NDA      ID1       ID2
     1.97933116E-03    2     1000022         5   # BR(~b_1 -> ~chi_10 b )
     2.05080342E-03    2     1000023         5   # BR(~b_1 -> ~chi_20 b )
     2.01363765E-03    2     1000025         5   # BR(~b_1 -> ~chi_30 b )
     1.91947485E-02    2     1000035         5   # BR(~b_1 -> ~chi_40 b )
     1.61385341E-01    2    -1000024         6   # BR(~b_1 -> ~chi_1- t )
     3.85509192E-02    2    -1000037         6   # BR(~b_1 -> ~chi_2- t )
     7.73370806E-01    2     1000021         5   # BR(~b_1 -> ~g      b )
     1.45441386E-03    2     1000006       -24   # BR(~b_1 -> ~t_1    W-)
#
#         PDG            Width
DECAY   2000005     3.11540364E+02   # sbottom2 decays
#          BR         NDA      ID1       ID2
     9.44279539E-03    2     1000022         5   # BR(~b_2 -> ~chi_10 b )
     2.60089990E-03    2     1000023         5   # BR(~b_2 -> ~chi_20 b )
     2.65854180E-03    2     1000025         5   # BR(~b_2 -> ~chi_30 b )
     1.09182709E-04    2     1000035         5   # BR(~b_2 -> ~chi_40 b )
     6.04674363E-03    2    -1000024         6   # BR(~b_2 -> ~chi_1- t )
     2.19265316E-04    2    -1000037         6   # BR(~b_2 -> ~chi_2- t )
     9.78889862E-01    2     1000021         5   # BR(~b_2 -> ~g      b )
     3.27091874E-05    2     1000006       -24   # BR(~b_2 -> ~t_1    W-)
#
#         PDG            Width
DECAY   1000002     3.30497130E+02   # sup_L decays
#          BR         NDA      ID1       ID2
     2.26018188E-03    2     1000022         2   # BR(~u_L -> ~chi_10 u)
     4.71792743E-05    2     1000023         2   # BR(~u_L -> ~chi_20 u)
     3.42442546E-06    2     1000025         2   # BR(~u_L -> ~chi_30 u)
     2.36534114E-02    2     1000035         2   # BR(~u_L -> ~chi_40 u)
     1.55893902E-04    2     1000024         1   # BR(~u_L -> ~chi_1+ d)
     4.72761290E-02    2     1000037         1   # BR(~u_L -> ~chi_2+ d)
     9.26603780E-01    2     1000021         2   # BR(~u_L -> ~g      u)
#
#         PDG            Width
DECAY   2000002     3.16879562E+02   # sup_R decays
#          BR         NDA      ID1       ID2
     3.75050172E-02    2     1000022         2   # BR(~u_R -> ~chi_10 u)
     5.22249278E-05    2     1000023         2   # BR(~u_R -> ~chi_20 u)
     5.84680636E-05    2     1000025         2   # BR(~u_R -> ~chi_30 u)
     2.30179693E-09    2     1000035         2   # BR(~u_R -> ~chi_40 u)
     9.62384288E-01    2     1000021         2   # BR(~u_R -> ~g      u)
#
#         PDG            Width
DECAY   1000001     3.30506452E+02   # sdown_L decays
#          BR         NDA      ID1       ID2
     2.25072094E-03    2     1000022         1   # BR(~d_L -> ~chi_10 d)
     1.10482534E-05    2     1000023         1   # BR(~d_L -> ~chi_20 d)
     3.13778768E-05    2     1000025         1   # BR(~d_L -> ~chi_30 d)
     2.36674139E-02    2     1000035         1   # BR(~d_L -> ~chi_40 d)
     3.76229954E-06    2    -1000024         2   # BR(~d_L -> ~chi_1- u)
     4.73534560E-02    2    -1000037         2   # BR(~d_L -> ~chi_2- u)
     9.26682221E-01    2     1000021         1   # BR(~d_L -> ~g      d)
#
#         PDG            Width
DECAY   2000001     3.07961170E+02   # sdown_R decays
#          BR         NDA      ID1       ID2
     9.64834603E-03    2     1000022         1   # BR(~d_R -> ~chi_10 d)
     1.34351928E-05    2     1000023         1   # BR(~d_R -> ~chi_20 d)
     1.50412795E-05    2     1000025         1   # BR(~d_R -> ~chi_30 d)
     5.92228633E-10    2     1000035         1   # BR(~d_R -> ~chi_40 d)
     9.90323177E-01    2     1000021         1   # BR(~d_R -> ~g      d)
#
#         PDG            Width
DECAY   1000004     3.30497130E+02   # scharm_L decays
#          BR         NDA      ID1       ID2
     2.26018188E-03    2     1000022         4   # BR(~c_L -> ~chi_10 c)
     4.71792743E-05    2     1000023         4   # BR(~c_L -> ~chi_20 c)
     3.42442546E-06    2     1000025         4   # BR(~c_L -> ~chi_30 c)
     2.36534114E-02    2     1000035         4   # BR(~c_L -> ~chi_40 c)
     1.55893902E-04    2     1000024         3   # BR(~c_L -> ~chi_1+ s)
     4.72761290E-02    2     1000037         3   # BR(~c_L -> ~chi_2+ s)
     9.26603780E-01    2     1000021         4   # BR(~c_L -> ~g      c)
#
#         PDG            Width
DECAY   2000004     3.16879562E+02   # scharm_R decays
#          BR         NDA      ID1       ID2
     3.75050172E-02    2     1000022         4   # BR(~c_R -> ~chi_10 c)
     5.22249278E-05    2     1000023         4   # BR(~c_R -> ~chi_20 c)
     5.84680636E-05    2     1000025         4   # BR(~c_R -> ~chi_30 c)
     2.30179693E-09    2     1000035         4   # BR(~c_R -> ~chi_40 c)
     9.62384288E-01    2     1000021         4   # BR(~c_R -> ~g      c)
#
#         PDG            Width
DECAY   1000003     3.30506452E+02   # sstrange_L decays
#          BR         NDA      ID1       ID2
     2.25072094E-03    2     1000022         3   # BR(~s_L -> ~chi_10 s)
     1.10482534E-05    2     1000023         3   # BR(~s_L -> ~chi_20 s)
     3.13778768E-05    2     1000025         3   # BR(~s_L -> ~chi_30 s)
     2.36674139E-02    2     1000035         3   # BR(~s_L -> ~chi_40 s)
     3.76229954E-06    2    -1000024         4   # BR(~s_L -> ~chi_1- c)
     4.73534560E-02    2    -1000037         4   # BR(~s_L -> ~chi_2- c)
     9.26682221E-01    2     1000021         3   # BR(~s_L -> ~g      s)
#
#         PDG            Width
DECAY   2000003     3.07961170E+02   # sstrange_R decays
#          BR         NDA      ID1       ID2
     9.64834603E-03    2     1000022         3   # BR(~s_R -> ~chi_10 s)
     1.34351928E-05    2     1000023         3   # BR(~s_R -> ~chi_20 s)
     1.50412795E-05    2     1000025         3   # BR(~s_R -> ~chi_30 s)
     5.92228633E-10    2     1000035         3   # BR(~s_R -> ~chi_40 s)
     9.90323177E-01    2     1000021         3   # BR(~s_R -> ~g      s)
#
#         PDG            Width
DECAY   1000011     3.02952605E+01   # selectron_L decays
#          BR         NDA      ID1       ID2
     2.26058615E-01    2     1000022        11   # BR(~e_L -> ~chi_10 e-)
     1.20540980E-03    2     1000023        11   # BR(~e_L -> ~chi_20 e-)
     4.01410708E-05    2     1000025        11   # BR(~e_L -> ~chi_30 e-)
     2.57379050E-01    2     1000035        11   # BR(~e_L -> ~chi_40 e-)
     4.18164805E-05    2    -1000024        12   # BR(~e_L -> ~chi_1- nu_e)
     5.15274968E-01    2    -1000037        12   # BR(~e_L -> ~chi_2- nu_e)
#
#         PDG            Width
DECAY   2000011     2.73832841E+01   # selectron_R decays
#          BR         NDA      ID1       ID2
     9.97060517E-01    2     1000022        11   # BR(~e_R -> ~chi_10 e-)
     1.38682210E-03    2     1000023        11   # BR(~e_R -> ~chi_20 e-)
     1.55260045E-03    2     1000025        11   # BR(~e_R -> ~chi_30 e-)
     5.99581608E-08    2     1000035        11   # BR(~e_R -> ~chi_40 e-)
#
#         PDG            Width
DECAY   1000013     3.02952605E+01   # smuon_L decays
#          BR         NDA      ID1       ID2
     2.26058615E-01    2     1000022        13   # BR(~mu_L -> ~chi_10 mu-)
     1.20540980E-03    2     1000023        13   # BR(~mu_L -> ~chi_20 mu-)
     4.01410708E-05    2     1000025        13   # BR(~mu_L -> ~chi_30 mu-)
     2.57379050E-01    2     1000035        13   # BR(~mu_L -> ~chi_40 mu-)
     4.18164805E-05    2    -1000024        14   # BR(~mu_L -> ~chi_1- nu_mu)
     5.15274968E-01    2    -1000037        14   # BR(~mu_L -> ~chi_2- nu_mu)
#
#         PDG            Width
DECAY   2000013     2.73832841E+01   # smuon_R decays
#          BR         NDA      ID1       ID2
     9.97060517E-01    2     1000022        13   # BR(~mu_R -> ~chi_10 mu-)
     1.38682210E-03    2     1000023        13   # BR(~mu_R -> ~chi_20 mu-)
     1.55260045E-03    2     1000025        13   # BR(~mu_R -> ~chi_30 mu-)
     5.99581608E-08    2     1000035        13   # BR(~mu_R -> ~chi_40 mu-)
#
#         PDG            Width
DECAY   1000015     2.91762103E+01   # stau_1 decays
#          BR         NDA      ID1       ID2
     9.30674888E-01    2     1000022        15   # BR(~tau_1 -> ~chi_10  tau-)
     1.64890630E-02    2     1000023        15   # BR(~tau_1 -> ~chi_20  tau-)
     1.59035893E-02    2     1000025        15   # BR(~tau_1 -> ~chi_30  tau-)
     2.16706265E-03    2     1000035        15   # BR(~tau_1 -> ~chi_40  tau-)
     3.04271338E-02    2    -1000024        16   # BR(~tau_1 -> ~chi_1-  nu_tau)
     4.33826349E-03    2    -1000037        16   # BR(~tau_1 -> ~chi_2-  nu_tau)
#
#         PDG            Width
DECAY   2000015     3.11576163E+01   # stau_2 decays
#          BR         NDA      ID1       ID2
     2.24555387E-01    2     1000022        15   # BR(~tau_2 -> ~chi_10  tau-)
     1.54717267E-02    2     1000023        15   # BR(~tau_2 -> ~chi_20  tau-)
     1.49662221E-02    2     1000025        15   # BR(~tau_2 -> ~chi_30  tau-)
     2.48141586E-01    2     1000035        15   # BR(~tau_2 -> ~chi_40  tau-)
     8.29681160E-05    2    -1000024        16   # BR(~tau_2 -> ~chi_1-  nu_tau)
     4.96782111E-01    2    -1000037        16   # BR(~tau_2 -> ~chi_2-  nu_tau)
#
#         PDG            Width
DECAY   1000012     3.02982705E+01   # snu_eL decays
#          BR         NDA      ID1       ID2
     2.25672604E-01    2     1000022        12   # BR(~nu_eL -> ~chi_10 nu_e)
     5.43638875E-07    2     1000023        12   # BR(~nu_eL -> ~chi_20 nu_e)
     9.71903212E-04    2     1000025        12   # BR(~nu_eL -> ~chi_30 nu_e)
     2.57424990E-01    2     1000035        12   # BR(~nu_eL -> ~chi_40 nu_e)
     1.73229666E-03    2     1000024        11   # BR(~nu_eL -> ~chi_1+ e-)
     5.14197662E-01    2     1000037        11   # BR(~nu_eL -> ~chi_2+ e-)
#
#         PDG            Width
DECAY   1000014     3.02982705E+01   # snu_muL decays
#          BR         NDA      ID1       ID2
     2.25672604E-01    2     1000022        14   # BR(~nu_muL -> ~chi_10 nu_mu)
     5.43638875E-07    2     1000023        14   # BR(~nu_muL -> ~chi_20 nu_mu)
     9.71903212E-04    2     1000025        14   # BR(~nu_muL -> ~chi_30 nu_mu)
     2.57424990E-01    2     1000035        14   # BR(~nu_muL -> ~chi_40 nu_mu)
     1.73229666E-03    2     1000024        13   # BR(~nu_muL -> ~chi_1+ mu-)
     5.14197662E-01    2     1000037        13   # BR(~nu_muL -> ~chi_2+ mu-)
#
#         PDG            Width
DECAY   1000016     3.11804418E+01   # snu_tauL decays
#          BR         NDA      ID1       ID2
     2.19263785E-01    2     1000022        16   # BR(~nu_tauL -> ~chi_10 nu_tau)
     5.28194224E-07    2     1000023        16   # BR(~nu_tauL -> ~chi_20 nu_tau)
     9.44291612E-04    2     1000025        16   # BR(~nu_tauL -> ~chi_30 nu_tau)
     2.50048745E-01    2     1000035        16   # BR(~nu_tauL -> ~chi_40 nu_tau)
     3.02793528E-02    2     1000024        15   # BR(~nu_tauL -> ~chi_1+ tau-)
     4.99463297E-01    2     1000037        15   # BR(~nu_tauL -> ~chi_2+ tau-)
#
#         PDG            Width
DECAY   1000024     4.83612423E-01   # chargino1+ decays
#          BR         NDA      ID1       ID2
     1.00000000E+00    2     1000022        24   # BR(~chi_1+ -> ~chi_10  W+)
#
#         PDG            Width
DECAY   1000037     2.11266477E+01   # chargino2+ decays
#          BR         NDA      ID1       ID2
     2.53376924E-01    2     1000024        23   # BR(~chi_2+ -> ~chi_1+  Z )
     1.84743193E-04    2     1000022        24   # BR(~chi_2+ -> ~chi_10  W+)
     2.44441771E-01    2     1000023        24   # BR(~chi_2+ -> ~chi_20  W+)
     2.44258524E-01    2     1000025        24   # BR(~chi_2+ -> ~chi_30  W+)
     2.57736114E-01    2     1000024        25   # BR(~chi_2+ -> ~chi_1+  h )
     1.92395422E-06    2     1000022        37   # BR(~chi_2+ -> ~chi_10  H+)
#
#         PDG            Width
DECAY   1000022     0.00000000E+00   # neutralino1 decays
#
#         PDG            Width
DECAY   1000023     5.01948537E-01   # neutralino2 decays
#          BR         NDA      ID1       ID2
     5.29390447E-01    2     1000022        23   # BR(~chi_20 -> ~chi_10   Z )
     4.70609553E-01    2     1000022        25   # BR(~chi_20 -> ~chi_10   h )
#
#         PDG            Width
DECAY   1000025     5.01750528E-01   # neutralino3 decays
#          BR         NDA      ID1       ID2
     4.69557096E-01    2     1000022        23   # BR(~chi_30 -> ~chi_10   Z )
     5.30442904E-01    2     1000022        25   # BR(~chi_30 -> ~chi_10   h )
#
#         PDG            Width
DECAY   1000035     2.11423995E+01   # neutralino4 decays
#          BR         NDA      ID1       ID2
     3.18655468E-05    2     1000022        23   # BR(~chi_40 -> ~chi_10   Z )
     8.82281092E-02    2     1000023        23   # BR(~chi_40 -> ~chi_20   Z )
     1.64488851E-01    2     1000025        23   # BR(~chi_40 -> ~chi_30   Z )
     2.44979091E-01    2     1000024       -24   # BR(~chi_40 -> ~chi_1+   W-)
     2.44979091E-01    2    -1000024        24   # BR(~chi_40 -> ~chi_1-   W+)
     1.51429170E-04    2     1000022        25   # BR(~chi_40 -> ~chi_10   h )
     1.83257607E-06    2     1000022        35   # BR(~chi_40 -> ~chi_10   H )
     2.13845863E-07    2     1000022        36   # BR(~chi_40 -> ~chi_10   A )
     1.68686200E-01    2     1000023        25   # BR(~chi_40 -> ~chi_20   h )
     8.84533158E-02    2     1000025        25   # BR(~chi_40 -> ~chi_30   h )
#
#         PDG            Width
DECAY        25     4.02743510E-03   # h decays
#          BR         NDA      ID1       ID2
     6.16065567E-01    2           5        -5   # BR(h -> b       bb     )
     6.42018652E-02    2         -15        15   # BR(h -> tau+    tau-   )
     2.27299665E-04    2         -13        13   # BR(h -> mu+     mu-    )
     4.82153611E-04    2           3        -3   # BR(h -> s       sb     )
     2.08923641E-02    2           4        -4   # BR(h -> c       cb     )
     6.71348258E-02    2          21        21   # BR(h -> g       g      )
     2.29914269E-03    2          22        22   # BR(h -> gam     gam    )
     1.45006336E-03    2          22        23   # BR(h -> Z       gam    )
     2.03144405E-01    2          24       -24   # BR(h -> W+      W-     )
     2.40393813E-02    2          23        23   # BR(h -> Z       Z      )
     6.29317011E-05    2     1000022   1000022   # BR(h -> ~chi_10 ~chi_10)
#
#         PDG            Width
DECAY        35     8.36808914E+00   # H decays
#          BR         NDA      ID1       ID2
     3.84152793E-01    2           5        -5   # BR(H -> b       bb     )
     6.66252278E-02    2         -15        15   # BR(H -> tau+    tau-   )
     2.35592097E-04    2         -13        13   # BR(H -> mu+     mu-    )
     2.88799858E-04    2           3        -3   # BR(H -> s       sb     )
     1.61307651E-06    2           4        -4   # BR(H -> c       cb     )
     1.61159120E-01    2           6        -6   # BR(H -> t       tb     )
     5.35471004E-05    2          21        21   # BR(H -> g       g      )
     2.09339746E-07    2          22        22   # BR(H -> gam     gam    )
     9.50473263E-08    2          23        22   # BR(H -> Z       gam    )
     7.46020706E-05    2          24       -24   # BR(H -> W+      W-     )
     3.72538093E-05    2          23        23   # BR(H -> Z       Z      )
     2.76735125E-04    2          25        25   # BR(H -> h       h      )
    -7.07071829E-24    2          36        36   # BR(H -> A       A      )
     4.34738634E-19    2          23        36   # BR(H -> Z       A      )
     2.57863640E-03    2     1000024  -1000024   # BR(H -> ~chi_1+ ~chi_1-)
     2.69958787E-03    2     1000022   1000022   # BR(H -> ~chi_10 ~chi_10)
     4.84548679E-07    2     1000023   1000023   # BR(H -> ~chi_20 ~chi_20)
     1.01807691E-03    2     1000025   1000025   # BR(H -> ~chi_30 ~chi_30)
     2.28960253E-01    2     1000022   1000023   # BR(H -> ~chi_10 ~chi_20)
     1.50774395E-01    2     1000022   1000025   # BR(H -> ~chi_10 ~chi_30)
     1.06297791E-03    2     1000023   1000025   # BR(H -> ~chi_20 ~chi_30)
#
#         PDG            Width
DECAY        36     8.38005506E+00   # A decays
#          BR         NDA      ID1       ID2
     3.83734651E-01    2           5        -5   # BR(A -> b       bb     )
     6.65320409E-02    2         -15        15   # BR(A -> tau+    tau-   )
     2.35262252E-04    2         -13        13   # BR(A -> mu+     mu-    )
     2.88606163E-04    2           3        -3   # BR(A -> s       sb     )
     1.61734826E-06    2           4        -4   # BR(A -> c       cb     )
     1.61496746E-01    2           6        -6   # BR(A -> t       tb     )
     1.59865568E-04    2          21        21   # BR(A -> g       g      )
     5.95850759E-07    2          22        22   # BR(A -> gam     gam    )
     1.93452167E-07    2          23        22   # BR(A -> Z       gam    )
     7.42161168E-05    2          23        25   # BR(A -> Z       h      )
     3.36991509E-03    2     1000024  -1000024   # BR(A -> ~chi_1+ ~chi_1-)
     2.73312968E-03    2     1000022   1000022   # BR(A -> ~chi_10 ~chi_10)
     4.42291277E-07    2     1000023   1000023   # BR(A -> ~chi_20 ~chi_20)
     2.17852164E-03    2     1000025   1000025   # BR(A -> ~chi_30 ~chi_30)
     1.53072100E-01    2     1000022   1000023   # BR(A -> ~chi_10 ~chi_20)
     2.25633224E-01    2     1000022   1000025   # BR(A -> ~chi_10 ~chi_30)
     4.88872757E-04    2     1000023   1000025   # BR(A -> ~chi_20 ~chi_30)
#
#         PDG            Width
DECAY        37     8.31738761E+00   # H+ decays
#          BR         NDA      ID1       ID2
     6.14865184E-04    2           4        -5   # BR(H+ -> c       bb     )
     6.70638408E-02    2         -15        16   # BR(H+ -> tau+    nu_tau )
     2.37142736E-04    2         -13        14   # BR(H+ -> mu+     nu_mu  )
     3.93511663E-06    2           2        -5   # BR(H+ -> u       bb     )
     1.39147477E-05    2           2        -3   # BR(H+ -> u       sb     )
     2.87755513E-04    2           4        -3   # BR(H+ -> c       sb     )
     5.43633871E-01    2           6        -5   # BR(H+ -> t       bb     )
     7.49256909E-05    2          24        25   # BR(H+ -> W+      h      )
     7.50303669E-13    2          24        36   # BR(H+ -> W+      A      )
     3.86601301E-01    2     1000024   1000022   # BR(H+ -> ~chi_1+ ~chi_10)
     1.44424255E-03    2     1000024   1000023   # BR(H+ -> ~chi_1+ ~chi_20)
     2.42051546E-05    2     1000024   1000025   # BR(H+ -> ~chi_1+ ~chi_30)
