# SUSY Les Houches Accord 2 - MSSM spectrum + Decays
# SPheno v3.3.6  
# W. Porod, Comput. Phys. Commun. 153 (2003) 275-315, hep-ph/0301101
# in case of problems send email to porod@physik.uni-wuerzburg.de
# Created: 06.12.2016,  13:43
Block SPINFO         # Program information
     1   SPheno      # spectrum calculator
     2   v3.3.6      # version number
#
Block SPhenoINFO     # SPheno specific information
    1      2         # using 2-loop RGEs
    2      1         # using running masses for boundary conditions at mZ
Block MODSEL  # Model selection
    1    2    # mGMSB model
Block MINPAR  # Input parameters
    1    1.20000000E+05  # Lambda, scale of SUSY breaking
    2    5.00000000E+05  # M_M, messenger mass scale
    3    1.00000000E+01  # tanb at m_Z   
    4    1.00000000E+00  # Sign(mu)
    5    3.00000000E+00  # N_5 number of effective five-plets
    6    1.00000000E+05  # c_grav, Gravitino mass factor
Block gauge Q=  5.00000000E+05  # (GMSB scale)
   1    4.96888478E-01  # g'(Q)^DRbar
   2    6.50476252E-01  # g(Q)^DRbar
   3    9.30432153E-01  # g3(Q)^DRbar
Block SMINPUTS  # SM parameters
         1     1.27931319E+02  # alpha_em^-1(MZ)^MSbar
         2     1.16637900E-05  # G_mu [GeV^-2]
         3     1.18400000E-01  # alpha_s(MZ)^MSbar
         4     9.11876000E+01  # m_Z(pole)
         5     4.18000000E+00  # m_b(m_b), MSbar
         6     1.73100000E+02  # m_t(pole)
         7     1.77682000E+00  # m_tau(pole)
         8     0.00000000E+00  # m_nu_3
        11     5.10998930E-04  # m_e(pole)
        12     0.00000000E+00  # m_nu_1
        13     1.05658372E-01  # m_muon(pole)
        14     0.00000000E+00  # m_nu_2
        21     5.00000000E-03  # m_d(2 GeV), MSbar
        22     2.50000000E-03  # m_u(2 GeV), MSbar
        23     9.50000000E-02  # m_s(2 GeV), MSbar
        24     1.27000000E+00  # m_c(m_c), MSbar
Block gauge Q=  2.20125218E+03  # (SUSY scale)
   1    3.64689453E-01  # g'(Q)^DRbar
   2    6.39529639E-01  # g(Q)^DRbar
   3    1.02304100E+00  # g3(Q)^DRbar
Block Yu Q=  2.20125218E+03  # (SUSY scale)
#   1  1     6.90130358E-06   # Y_u(Q)^DRbar
  1  1     0.0   # Y_u(Q)^DRbar
#   2  2     3.50586251E-03   # Y_c(Q)^DRbar
  2  2     0.0   # Y_c(Q)^DRbar
#   3  3     8.44933579E-01   # Y_t(Q)^DRbar
  3  3     0.0   # Y_t(Q)^DRbar
Block Yd Q=  2.20125218E+03  # (SUSY scale)
#   1  1     1.30091522E-04   # Y_d(Q)^DRbar
  1  1     0.0   # Y_d(Q)^DRbar
#   2  2     2.47173804E-03   # Y_s(Q)^DRbar
  2  2     0.0   # Y_s(Q)^DRbar
#   3  3     1.27901256E-01   # Y_b(Q)^DRbar
  3  3     0.0   # Y_b(Q)^DRbar
Block Ye Q=  2.20125218E+03  # (SUSY scale)
#   1  1     2.85154451E-05   # Y_e(Q)^DRbar
  1  1     0.0   # Y_e(Q)^DRbar
#   2  2     5.89609301E-03   # Y_mu(Q)^DRbar
  2  2     0.0   # Y_mu(Q)^DRbar
#   3  3     9.91687220E-02   # Y_tau(Q)^DRbar
  3  3     0.0   # Y_tau(Q)^DRbar
Block Au Q=  2.20125218E+03  # (SUSY scale)
#   1  1    -7.87546947E+02   # A_u(Q)^DRbar
  1  1    0.0   # A_u(Q)^DRbar
#   2  2    -7.87545938E+02   # A_c(Q)^DRbar
  2  2    0.0   # A_c(Q)^DRbar
#   3  3    -7.37530506E+02   # A_t(Q)^DRbar
  3  3    0.0   # A_t(Q)^DRbar
Block Ad Q=  2.20125218E+03  # (SUSY scale)
#   1  1    -8.43789486E+02   # A_d(Q)^DRbar
  1  1    0.0   # A_d(Q)^DRbar
#   2  2    -8.43788760E+02   # A_s(Q)^DRbar
  2  2    0.0   # A_s(Q)^DRbar
#   3  3    -8.26432545E+02   # A_b(Q)^DRbar
  3  3    0.0   # A_b(Q)^DRbar
Block Ae Q=  2.20125218E+03  # (SUSY scale)
#   1  1    -9.42753786E+01   # A_e(Q)^DRbar
  1  1    0.0   # A_e(Q)^DRbar
#   2  2    -9.42750106E+01   # A_mu(Q)^DRbar
  2  2    0.0   # A_mu(Q)^DRbar
#   3  3    -9.41712819E+01   # A_tau(Q)^DRbar
  3  3    0.0   # A_tau(Q)^DRbar
Block MSOFT Q=  2.20125218E+03  # soft SUSY breaking masses at Q
   1    5.06591073E+02  # M_1
   2    9.31148957E+02  # M_2
   3    2.39488770E+03  # M_3
  21    5.43281110E+05  # M^2_(H,d)
  22   -6.49610889E+05  # M^2_(H,u)
  31    7.56623355E+02  # M_(L,11)
  32    7.56621567E+02  # M_(L,22)
  33    7.56117523E+02  # M_(L,33)
  34    3.68009369E+02  # M_(E,11)
  35    3.68001897E+02  # M_(E,22)
  36    3.65889528E+02  # M_(E,33)
  41    2.37561906E+03  # M_(Q,11)
  42    2.37561699E+03  # M_(Q,22)
  43    2.29411609E+03  # M_(Q,33)
  44    2.27645981E+03  # M_(U,11)
  45    2.27645692E+03  # M_(U,22)
  46    2.10375805E+03  # M_(U,33)
  47    2.26667844E+03  # M_(D,11)
  48    2.26667696E+03  # M_(D,22)
  49    2.26273747E+03  # M_(D,33)
Block MASS  # Mass spectrum
#   PDG code      mass          particle
         6     1.73100000E+02  # m_t(pole)
        23     9.11876000E+01  # m_Z(pole)
        24     8.03979097E+01  # W+
        15     1.77682000E+00  # m_tau(pole)
        25     1.18802467E+02  # h0
        35     1.16293974E+03  # H0
        36     1.16270181E+03  # A0
        37     1.16584472E+03  # H+
   1000001     2.46949333E+03  # ~d_L
   2000001     2.35545934E+03  # ~d_R
   1000002     2.46822789E+03  # ~u_L
   2000002     2.36435209E+03  # ~u_R
   1000003     2.46949096E+03  # ~s_L
   2000003     2.35545752E+03  # ~s_R
   1000004     2.46822570E+03  # ~c_L
   2000004     2.36434866E+03  # ~c_R
   1000005     2.34983594E+03  # ~b_1
   2000005     2.37418213E+03  # ~b_2
   1000006     2.16505462E+03  # ~t_1
   2000006     2.38191702E+03  # ~t_2
   1000011     7.72241091E+02  # ~e_L-
   2000011     3.83135879E+02  # ~e_R-
   1000012     7.67815017E+02  # ~nu_eL
   1000013     7.72239894E+02  # ~mu_L-
   2000013     3.83124424E+02  # ~mu_R-
   1000014     7.67812593E+02  # ~nu_muL
   1000015     3.79885491E+02  # ~tau_1-
   2000015     7.71901640E+02  # ~tau_2-
   1000016     7.67129617E+02  # ~nu_tauL
   1000021     2.52772413E+03  # ~g
   1000022     4.93356030E+02  # ~chi_10
   1000023     8.50840265E+02  # ~chi_20
   1000025    -8.85391124E+02  # ~chi_30
   1000035     9.88483460E+02  # ~chi_40
   1000024     8.49527086E+02  # ~chi_1+
   1000037     9.88392932E+02  # ~chi_2+
   1000039     1.44000000E-03  # ~G
# Higgs mixing
Block alpha # Effective Higgs mixing angle
          -1.06118932E-01   # alpha
Block Hmix Q=  2.20125218E+03  # Higgs mixing parameters
   1    8.73453648E+02  # mu
   2    9.54420215E+00  # tan[beta](Q)
   3    2.43318894E+02  # v(Q)
   4    1.21135160E+06  # m^2_A(Q)
Block stopmix # stop mixing matrix
   1  1     1.45306349E-01   # Re[R_st(1,1)]
   1  2     9.89386712E-01   # Re[R_st(1,2)]
   2  1    -9.89386712E-01   # Re[R_st(2,1)]
   2  2     1.45306349E-01   # Re[R_st(2,2)]
Block sbotmix # sbottom mixing matrix
   1  1     1.99552609E-01   # Re[R_sb(1,1)]
   1  2     9.79887114E-01   # Re[R_sb(1,2)]
   2  1    -9.79887114E-01   # Re[R_sb(2,1)]
   2  2     1.99552609E-01   # Re[R_sb(2,2)]
Block staumix # stau mixing matrix
   1  1     3.39787867E-02   # Re[R_sta(1,1)]
   1  2     9.99422554E-01   # Re[R_sta(1,2)]
   2  1    -9.99422554E-01   # Re[R_sta(2,1)]
   2  2     3.39787867E-02   # Re[R_sta(2,2)]
Block Nmix # neutralino mixing matrix
   1  1    -9.95686249E-01   # Re[N(1,1)]
   1  2     9.65606196E-03   # Re[N(1,2)]
   1  3    -7.81160552E-02   # Re[N(1,3)]
   1  4     4.91277611E-02   # Re[N(1,4)]
   2  1     8.27154002E-02   # Re[N(2,1)]
   2  2     5.06878769E-01   # Re[N(2,2)]
   2  3    -6.16009861E-01   # Re[N(2,3)]
   2  4     5.97297185E-01   # Re[N(2,4)]
   3  1     2.01917341E-02   # Re[N(3,1)]
   3  2    -2.71387772E-02   # Re[N(3,2)]
   3  3    -7.05763260E-01   # Re[N(3,3)]
   3  4    -7.07639740E-01   # Re[N(3,4)]
   4  1    -3.68693771E-02   # Re[N(4,1)]
   4  2     8.61535931E-01   # Re[N(4,2)]
   4  3     3.41068841E-01   # Re[N(4,3)]
   4  4    -3.74257310E-01   # Re[N(4,4)]
Block Umix # chargino mixing matrix
   1  1    -4.79712502E-01   # Re[U(1,1)]
   1  2     8.77425732E-01   # Re[U(1,2)]
   2  1     8.77425732E-01   # Re[U(2,1)]
   2  2     4.79712502E-01   # Re[U(2,2)]
Block Vmix # chargino mixing matrix
   1  1    -5.26515263E-01   # Re[V(1,1)]
   1  2     8.50165677E-01   # Re[V(1,2)]
   2  1     8.50165677E-01   # Re[V(2,1)]
   2  2     5.26515263E-01   # Re[V(2,2)]
DECAY        23     2.49520000E+00   # Z
DECAY        24     2.08500000E+00   # W
DECAY   2000011     1.05690775E-13   # ~e^-_R
#    BR                NDA      ID1      ID2
     4.31672793E-08    2     1000039        11   # BR(~e^-_R -> ~G e^-)
#    BR                NDA      ID1      ID2       ID3
     3.73727480E-01    3     1000015        11       -15   # BR(~e^-_R -> ~tau^-_1 e^- tau^+)
     6.26272477E-01    3    -1000015        15        11   # BR(~e^-_R -> ~tau^+_1 tau^- e^-)
     5.73400475E-12    3     1000015        12       -16   # BR(~e^-_R -> ~tau^-_1 nu_e nu_bar_tau)
DECAY   1000011     3.42827475E-01   # ~e^-_L
#    BR                NDA      ID1      ID2
     9.99999960E-01    2     1000022        11   # BR(~e^-_L -> chi^0_1 e^-)
     1.63394694E-08    2     2000011        23   # BR(~e^-_L -> ~e^-_R Z)
     1.68255523E-08    2     2000011        25   # BR(~e^-_L -> ~e^-_R h^0)
#    BR                NDA      ID1      ID2       ID3
     3.97118964E-09    3     1000012         1        -2   # BR(~e^-_L -> ~nu_e d u_bar)
     2.67265414E-09    3     1000012         3        -4   # BR(~e^-_L -> ~nu_e s c_bar)
DECAY   2000013     1.01180337E-13   # ~mu^-_R
#    BR                NDA      ID1      ID2
     4.50848454E-08    2     1000039        13   # BR(~mu^-_R -> ~G mu^-)
#    BR                NDA      ID1      ID2       ID3
     3.73706443E-01    3     1000015        13       -15   # BR(~mu^-_R -> ~tau^-_1 mu^- tau^+)
     6.26293261E-01    3    -1000015        15        13   # BR(~mu^-_R -> ~tau^+_1 tau^- mu^-)
     2.51600659E-07    3     1000015        14       -16   # BR(~mu^-_R -> ~tau^-_1 nu_mu nu_bar_tau)
DECAY   1000013     3.43314012E-01   # ~mu^-_L
#    BR                NDA      ID1      ID2
     9.98584072E-01    2     1000022        13   # BR(~mu^-_L -> chi^0_1 mu^-)
     6.97590198E-04    2     2000013        23   # BR(~mu^-_L -> ~mu^-_R Z)
     7.18330680E-04    2     2000013        25   # BR(~mu^-_L -> ~mu^-_R h^0)
#    BR                NDA      ID1      ID2       ID3
     3.97103903E-09    3     1000014         1        -2   # BR(~mu^-_L -> ~nu_mu d u_bar)
     2.67313805E-09    3     1000014         3        -4   # BR(~mu^-_L -> ~nu_mu s c_bar)
DECAY   1000015     4.37172840E-21   # ~tau^-_1
#    BR                NDA      ID1      ID2
     1.00000000E+00    2     1000039        15   # BR(~tau^-_1 -> ~G tau^-)
DECAY   2000015     4.81020091E-01   # ~tau^-_2
#    BR                NDA      ID1      ID2
     7.12952792E-01    2     1000022        15   # BR(~tau^-_2 -> chi^0_1 tau^-)
     1.41760305E-01    2     1000015        23   # BR(~tau^-_2 -> ~tau^-_1 Z)
     1.45286896E-01    2     1000015        25   # BR(~tau^-_2 -> ~tau^-_1 h^0)
#    BR                NDA      ID1      ID2       ID3
     4.11697971E-09    3     1000016         1        -2   # BR(~tau^-_2 -> ~nu_tau d u_bar)
     2.92781282E-09    3     1000016         3        -4   # BR(~tau^-_2 -> ~nu_tau s c_bar)
DECAY   1000012     3.59064226E-01   # ~nu_e
#    BR                NDA      ID1      ID2
     9.99999970E-01    2     1000022        12   # BR(~nu_e -> chi^0_1 nu_e)
     3.00225293E-08    2     2000011        24   # BR(~nu_e -> ~e^-_R W^+)
DECAY   1000014     3.59520781E-01   # ~nu_mu
#    BR                NDA      ID1      ID2
     9.98718048E-01    2     1000022        14   # BR(~nu_mu -> chi^0_1 nu_mu)
     1.28195221E-03    2     2000013        24   # BR(~nu_mu -> ~mu^-_R W^+)
DECAY   1000016     4.88908868E-01   # ~nu_tau
#    BR                NDA      ID1      ID2
     7.31920263E-01    2     1000022        16   # BR(~nu_tau -> chi^0_1 nu_tau)
     2.68079737E-01    2     1000015        24   # BR(~nu_tau -> ~tau^-_1 W^+)
DECAY   2000001     1.26407551E+00   # ~d_R
#    BR                NDA      ID1      ID2
     9.92991106E-01    2     1000022         1   # BR(~d_R -> chi^0_1 d)
     5.66780921E-03    2     1000023         1   # BR(~d_R -> chi^0_2 d)
     3.29612189E-04    2     1000025         1   # BR(~d_R -> chi^0_3 d)
     1.01098201E-03    2     1000035         1   # BR(~d_R -> chi^0_4 d)
     4.51733590E-07    2    -1000024         2   # BR(~d_R -> chi^-_1 u)
     3.84478724E-08    2    -1000037         2   # BR(~d_R -> chi^-_2 u)
DECAY   1000001     2.21057908E+01   # ~d_L
#    BR                NDA      ID1      ID2
     1.65765581E-02    2     1000022         1   # BR(~d_L -> chi^0_1 d)
     8.51533819E-02    2     1000023         1   # BR(~d_L -> chi^0_2 d)
     3.31212920E-04    2     1000025         1   # BR(~d_L -> chi^0_3 d)
     2.41788547E-01    2     1000035         1   # BR(~d_L -> chi^0_4 d)
     1.62598190E-01    2    -1000024         2   # BR(~d_L -> chi^-_1 u)
     4.93552109E-01    2    -1000037         2   # BR(~d_L -> chi^-_2 u)
     4.38519851E-13    2     2000002       -24   # BR(~d_L -> ~u_R W^-)
     6.06127160E-11    2     2000001        23   # BR(~d_L -> ~d_R Z)
DECAY   2000003     1.26451442E+00   # ~s_R
#    BR                NDA      ID1      ID2
     9.92648977E-01    2     1000022         3   # BR(~s_R -> chi^0_1 s)
     5.74547866E-03    2     1000023         3   # BR(~s_R -> chi^0_2 s)
     4.11102644E-04    2     1000025         3   # BR(~s_R -> chi^0_3 s)
     1.01754816E-03    2     1000035         3   # BR(~s_R -> chi^0_4 s)
     1.63018891E-04    2    -1000024         4   # BR(~s_R -> chi^-_1 c)
     1.38747362E-05    2    -1000037         4   # BR(~s_R -> chi^-_2 c)
DECAY   1000003     2.21064202E+01   # ~s_L
#    BR                NDA      ID1      ID2
     1.65760077E-02    2     1000022         3   # BR(~s_L -> chi^0_1 s)
     8.51538736E-02    2     1000023         3   # BR(~s_L -> chi^0_2 s)
     3.36403082E-04    2     1000025         3   # BR(~s_L -> chi^0_3 s)
     2.41783082E-01    2     1000035         3   # BR(~s_L -> chi^0_4 s)
     1.62605378E-01    2    -1000024         4   # BR(~s_L -> chi^-_1 c)
     4.93545120E-01    2    -1000037         4   # BR(~s_L -> chi^-_2 c)
     1.13167853E-07    2     2000004       -24   # BR(~s_L -> ~c_R W^-)
     2.18799250E-08    2     2000003        23   # BR(~s_L -> ~s_R Z)
DECAY   1000005     4.08384915E+00   # ~b_1
#    BR                NDA      ID1      ID2
     3.09295684E-01    2     1000022         5   # BR(~b_1 -> chi^0_1 b)
     1.27656419E-01    2     1000023         5   # BR(~b_1 -> chi^0_2 b)
     6.36660929E-02    2     1000025         5   # BR(~b_1 -> chi^0_3 b)
     9.89608671E-03    2     1000035         5   # BR(~b_1 -> chi^0_4 b)
     3.99270432E-01    2    -1000024         6   # BR(~b_1 -> chi^-_1 t)
     8.59844593E-02    2    -1000037         6   # BR(~b_1 -> chi^-_2 t)
     4.23082656E-03    2     1000006       -24   # BR(~b_1 -> ~t_1 W^-)
DECAY   2000005     4.47377759E+01   # ~b_2
#    BR                NDA      ID1      ID2
     7.75080708E-03    2     1000022         5   # BR(~b_2 -> chi^0_1 b)
     3.77987437E-02    2     1000023         5   # BR(~b_2 -> chi^0_2 b)
     7.00019687E-03    2     1000025         5   # BR(~b_2 -> chi^0_3 b)
     1.13197295E-01    2     1000035         5   # BR(~b_2 -> chi^0_4 b)
     4.34775715E-01    2    -1000024         6   # BR(~b_2 -> chi^-_1 t)
     3.85141223E-01    2    -1000037         6   # BR(~b_2 -> chi^-_2 t)
     1.43360193E-02    2     1000006       -24   # BR(~b_2 -> ~t_1 W^-)
DECAY   2000002     5.07894510E+00   # ~u_R
#    BR                NDA      ID1      ID2
     9.92980138E-01    2     1000022         2   # BR(~u_R -> chi^0_1 u)
     5.67639201E-03    2     1000023         2   # BR(~u_R -> chi^0_2 u)
     3.29968917E-04    2     1000025         2   # BR(~u_R -> chi^0_3 u)
     1.01350084E-03    2     1000035         2   # BR(~u_R -> chi^0_4 u)
     3.18398525E-10    2     1000024         1   # BR(~u_R -> chi^+_1 d)
     3.15435195E-11    2     1000037         1   # BR(~u_R -> chi^+_2 d)
DECAY   1000002     2.21615176E+01   # ~u_L
#    BR                NDA      ID1      ID2
     1.34720690E-02    2     1000022         2   # BR(~u_L -> chi^0_1 u)
     9.60877654E-02    2     1000023         2   # BR(~u_L -> chi^0_2 u)
     1.86768478E-04    2     1000025         2   # BR(~u_L -> chi^0_3 u)
     2.33248150E-01    2     1000035         2   # BR(~u_L -> chi^0_4 u)
     1.95227052E-01    2     1000024         1   # BR(~u_L -> chi^+_1 d)
     4.61778195E-01    2     1000037         1   # BR(~u_L -> chi^+_2 d)
     1.80945772E-10    2     2000001        24   # BR(~u_L -> ~d_R W^+)
DECAY   2000004     5.07983024E+00   # ~c_R
#    BR                NDA      ID1      ID2
     9.92804343E-01    2     1000022         4   # BR(~c_R -> chi^0_1 c)
     5.71521282E-03    2     1000023         4   # BR(~c_R -> chi^0_2 c)
     3.72924732E-04    2     1000025         4   # BR(~c_R -> chi^0_3 c)
     1.01722795E-03    2     1000035         4   # BR(~c_R -> chi^0_4 c)
     8.21523290E-05    2     1000024         3   # BR(~c_R -> chi^+_1 s)
     8.13894577E-06    2     1000037         3   # BR(~c_R -> chi^+_2 s)
DECAY   1000004     2.21621248E+01   # ~c_L
#    BR                NDA      ID1      ID2
     1.34718645E-02    2     1000022         4   # BR(~c_L -> chi^0_1 c)
     9.60896658E-02    2     1000023         4   # BR(~c_L -> chi^0_2 c)
     1.96962630E-04    2     1000025         4   # BR(~c_L -> chi^0_3 c)
     2.33246435E-01    2     1000035         4   # BR(~c_L -> chi^0_4 c)
     1.95224593E-01    2     1000024         3   # BR(~c_L -> chi^+_1 s)
     4.61770391E-01    2     1000037         3   # BR(~c_L -> chi^+_2 s)
     6.53189696E-08    2     2000003        24   # BR(~c_L -> ~s_R W^+)
     2.30317578E-08    2     2000004        23   # BR(~c_L -> ~c_R Z)
DECAY   1000006     4.69845955E+01   # ~t_1
#    BR                NDA      ID1      ID2
     1.92250390E-07    2     1000022         4   # BR(~t_1 -> chi^0_1 c)
     9.66063027E-02    2     1000022         6   # BR(~t_1 -> chi^0_1 t)
     1.29466846E-06    2     1000023         4   # BR(~t_1 -> chi^0_2 c)
     1.82326544E-01    2     1000023         6   # BR(~t_1 -> chi^0_2 t)
     2.30497416E-01    2     1000025         6   # BR(~t_1 -> chi^0_3 t)
     3.68137047E-02    2     1000035         6   # BR(~t_1 -> chi^0_4 t)
     3.78788746E-01    2     1000024         5   # BR(~t_1 -> chi^+_1 b)
     7.49578768E-02    2     1000037         5   # BR(~t_1 -> chi^+_2 b)
#    BR                NDA      ID1      ID2       ID3
     7.92258040E-06    3     1000022        24         5   # BR(~t_1 -> chi^0_1 W^+ b)
DECAY   2000006     4.65508482E+01   # ~t_2
#    BR                NDA      ID1      ID2
     6.90506641E-03    2     1000022         6   # BR(~t_2 -> chi^0_1 t)
     2.05940022E-01    2     1000023         6   # BR(~t_2 -> chi^0_2 t)
     2.60059095E-01    2     1000025         6   # BR(~t_2 -> chi^0_3 t)
     2.07572146E-01    2     1000035         6   # BR(~t_2 -> chi^0_4 t)
     5.00868607E-02    2     1000024         5   # BR(~t_2 -> chi^+_1 b)
     2.55948092E-01    2     1000037         5   # BR(~t_2 -> chi^+_2 b)
     7.62250608E-03    2     1000006        23   # BR(~t_2 -> ~t_1 Z)
     5.86621305E-03    2     1000006        25   # BR(~t_2 -> ~t_1 h^0)
DECAY   1000024     6.45995075E-01   # chi^+_1
#    BR                NDA      ID1      ID2
     6.52171266E-09    2    -2000011        12   # BR(chi^+_1 -> ~e^+_R nu_e)
     3.71365733E-02    2    -1000011        12   # BR(chi^+_1 -> ~e^+_L nu_e)
     2.78830549E-04    2    -2000013        14   # BR(chi^+_1 -> ~mu^+_R nu_mu)
     3.71349760E-02    2    -1000013        14   # BR(chi^+_1 -> ~mu^+_L nu_mu)
     7.94094851E-02    2    -1000015        16   # BR(chi^+_1 -> ~tau^+_1 nu_tau)
     3.66867010E-02    2    -2000015        16   # BR(chi^+_1 -> ~tau^+_2 nu_tau)
     4.97346116E-02    2     1000012       -11   # BR(chi^+_1 -> ~nu_e e^+)
     4.97511921E-02    2     1000014       -13   # BR(chi^+_1 -> ~nu_mu mu^+)
     5.44842360E-02    2     1000016       -15   # BR(chi^+_1 -> ~nu_tau tau^+)
     6.53486169E-01    2     1000022        24   # BR(chi^+_1 -> chi^0_1 W^+)
#    BR                NDA      ID1      ID2       ID3
     5.98491330E-08    3     1000022        -1         2   # BR(chi^+_1 -> chi^0_1 d_bar u)
     6.00172381E-08    3     1000022        -3         4   # BR(chi^+_1 -> chi^0_1 s_bar c)
     1.88854281E-03    3     1000022        -5         6   # BR(chi^+_1 -> chi^0_1 b_bar t)
     7.22319658E-13    3     1000022       -11        12   # BR(chi^+_1 -> chi^0_1 e^+ nu_e)
     3.08787950E-08    3     1000022       -13        14   # BR(chi^+_1 -> chi^0_1 mu^+ nu_mu)
     8.52490649E-06    3     1000022       -15        16   # BR(chi^+_1 -> chi^0_1 tau^+ nu_tau)
DECAY   1000037     4.20587401E+00   # chi^+_2
#    BR                NDA      ID1      ID2
     1.12798582E-10    2    -2000011        12   # BR(chi^+_2 -> ~e^+_R nu_e)
     1.11699991E-01    2    -1000011        12   # BR(chi^+_2 -> ~e^+_L nu_e)
     4.82265736E-06    2    -2000013        14   # BR(chi^+_2 -> ~mu^+_R nu_mu)
     1.11702901E-01    2    -1000013        14   # BR(chi^+_2 -> ~mu^+_L nu_mu)
     1.37708105E-03    2    -1000015        16   # BR(chi^+_2 -> ~tau^+_1 nu_tau)
     1.12524449E-01    2    -2000015        16   # BR(chi^+_2 -> ~tau^+_2 nu_tau)
     1.08657426E-01    2     1000012       -11   # BR(chi^+_2 -> ~nu_e e^+)
     1.08661836E-01    2     1000014       -13   # BR(chi^+_2 -> ~nu_mu mu^+)
     1.09909205E-01    2     1000016       -15   # BR(chi^+_2 -> ~nu_tau tau^+)
     2.53088902E-02    2     1000022        24   # BR(chi^+_2 -> chi^0_1 W^+)
     1.33998636E-01    2     1000023        24   # BR(chi^+_2 -> chi^0_2 W^+)
     3.50074084E-02    2     1000025        24   # BR(chi^+_2 -> chi^0_3 W^+)
     1.08093894E-01    2     1000024        23   # BR(chi^+_2 -> chi^+_1 Z)
     3.28748081E-02    2     1000024        25   # BR(chi^+_2 -> chi^+_1 h^0)
#    BR                NDA      ID1      ID2       ID3
     2.13256232E-09    3     1000024         2        -2   # BR(chi^+_2 -> chi^+_1 u u_bar)
     2.12956603E-09    3     1000024         4        -4   # BR(chi^+_2 -> chi^+_1 c c_bar)
     2.41759323E-09    3     1000024         1        -1   # BR(chi^+_2 -> chi^+_1 d d_bar)
     2.41928245E-09    3     1000024         3        -3   # BR(chi^+_2 -> chi^+_1 s s_bar)
     9.14990818E-09    3     1000024         5        -5   # BR(chi^+_2 -> chi^+_1 b b_bar)
     3.76392412E-07    3     1000024        11       -11   # BR(chi^+_2 -> chi^+_1 e^- e^+)
     3.76466177E-07    3     1000024        13       -13   # BR(chi^+_2 -> chi^+_1 mu^- mu^+)
     3.88575683E-07    3     1000024        15       -15   # BR(chi^+_2 -> chi^+_1 tau^- tau^+)
     1.04990295E-06    3     1000024        12       -12   # BR(chi^+_2 -> chi^+_1 nu_e nu_bar_e)
     1.21862230E-07    3     1000022        -1         2   # BR(chi^+_2 -> chi^0_1 d_bar u)
     1.21867320E-07    3     1000022        -3         4   # BR(chi^+_2 -> chi^0_1 s_bar c)
     1.75315516E-04    3     1000022        -5         6   # BR(chi^+_2 -> chi^0_1 b_bar t)
     1.04801692E-09    3     1000022       -13        14   # BR(chi^+_2 -> chi^0_1 mu^+ nu_mu)
     2.91887701E-07    3     1000022       -15        16   # BR(chi^+_2 -> chi^0_1 tau^+ nu_tau)
     1.11083623E-09    3     1000023        -1         2   # BR(chi^+_2 -> chi^0_2 d_bar u)
     1.11192227E-09    3     1000023        -3         4   # BR(chi^+_2 -> chi^0_2 s_bar c)
     1.94515481E-07    3     1000023       -11        12   # BR(chi^+_2 -> chi^0_2 e^+ nu_e)
     1.94533352E-07    3     1000023       -13        14   # BR(chi^+_2 -> chi^0_2 mu^+ nu_mu)
     1.94713839E-07    3     1000023       -15        16   # BR(chi^+_2 -> chi^0_2 tau^+ nu_tau)
     2.42341282E-12    3     1000025        -1         2   # BR(chi^+_2 -> chi^0_3 d_bar u)
     2.63882093E-12    3     1000025        -3         4   # BR(chi^+_2 -> chi^0_3 s_bar c)
     2.85647127E-10    3     1000025       -11        12   # BR(chi^+_2 -> chi^0_3 e^+ nu_e)
     2.95876640E-10    3     1000025       -13        14   # BR(chi^+_2 -> chi^0_3 mu^+ nu_mu)
     3.16175239E-09    3     1000025       -15        16   # BR(chi^+_2 -> chi^0_3 tau^+ nu_tau)
DECAY   1000022     1.24439221E+00   # chi^0_1
#    BR                NDA      ID1      ID2
     1.63832777E-01    2     2000011       -11   # BR(chi^0_1 -> ~e^-_R e^+)
     1.63832777E-01    2    -2000011        11   # BR(chi^0_1 -> ~e^+_R e^-)
     1.63862379E-01    2     2000013       -13   # BR(chi^0_1 -> ~mu^-_R mu^+)
     1.63862379E-01    2    -2000013        13   # BR(chi^0_1 -> ~mu^+_R mu^-)
     1.72304844E-01    2     1000015       -15   # BR(chi^0_1 -> ~tau^-_1 tau^+)
     1.72304844E-01    2    -1000015        15   # BR(chi^0_1 -> ~tau^+_1 tau^-)
DECAY   1000023     7.51444638E-01   # chi^0_2
#    BR                NDA      ID1      ID2
     1.30276090E-02    2     2000011       -11   # BR(chi^0_2 -> ~e^-_R e^+)
     1.30276090E-02    2    -2000011        11   # BR(chi^0_2 -> ~e^+_R e^-)
     2.19563457E-02    2     1000011       -11   # BR(chi^0_2 -> ~e^-_L e^+)
     2.19563457E-02    2    -1000011        11   # BR(chi^0_2 -> ~e^+_L e^-)
     1.31453704E-02    2     2000013       -13   # BR(chi^0_2 -> ~mu^-_R mu^+)
     1.31453704E-02    2    -2000013        13   # BR(chi^0_2 -> ~mu^+_R mu^-)
     2.19613378E-02    2     1000013       -13   # BR(chi^0_2 -> ~mu^-_L mu^+)
     2.19613378E-02    2    -1000013        13   # BR(chi^0_2 -> ~mu^+_L mu^-)
     4.66070135E-02    2     1000015       -15   # BR(chi^0_2 -> ~tau^-_1 tau^+)
     4.66070135E-02    2    -1000015        15   # BR(chi^0_2 -> ~tau^+_1 tau^-)
     2.33771944E-02    2     2000015       -15   # BR(chi^0_2 -> ~tau^-_2 tau^+)
     2.33771944E-02    2    -2000015        15   # BR(chi^0_2 -> ~tau^+_2 tau^-)
     1.67744611E-02    2     1000012       -12   # BR(chi^0_2 -> ~nu_e nu_bar_e)
     1.67744611E-02    2    -1000012        12   # BR(chi^0_2 -> ~nu^*_e nu_e)
     1.67753903E-02    2     1000014       -14   # BR(chi^0_2 -> ~nu_mu nu_bar_mu)
     1.67753903E-02    2    -1000014        14   # BR(chi^0_2 -> ~nu^*_mu nu_mu)
     1.70381230E-02    2     1000016       -16   # BR(chi^0_2 -> ~nu_tau nu_bar_tau)
     1.70381230E-02    2    -1000016        16   # BR(chi^0_2 -> ~nu^*_tau nu_tau)
     2.97339036E-02    2     1000022        23   # BR(chi^0_2 -> chi^0_1 Z)
     5.88917645E-01    2     1000022        25   # BR(chi^0_2 -> chi^0_1 h^0)
     1.02708441E-06    2     1000022        22   # BR(chi^0_2 -> chi^0_1 photon)
#    BR                NDA      ID1      ID2       ID3
     3.34985957E-08    3     1000022         2        -2   # BR(chi^0_2 -> chi^0_1 u u_bar)
     3.35361500E-08    3     1000022         4        -4   # BR(chi^0_2 -> chi^0_1 c c_bar)
     5.55890142E-07    3     1000022         6        -6   # BR(chi^0_2 -> chi^0_1 t t_bar)
     2.81447826E-08    3     1000022         1        -1   # BR(chi^0_2 -> chi^0_1 d d_bar)
     2.83282904E-08    3     1000022         3        -3   # BR(chi^0_2 -> chi^0_1 s s_bar)
     5.29450647E-07    3     1000022         5        -5   # BR(chi^0_2 -> chi^0_1 b b_bar)
     4.53970316E-06    3     1000022        11       -11   # BR(chi^0_2 -> chi^0_1 e^- e^+)
     4.56512989E-06    3     1000022        13       -13   # BR(chi^0_2 -> chi^0_1 mu^- mu^+)
     1.14202105E-05    3     1000022        15       -15   # BR(chi^0_2 -> chi^0_1 tau^- tau^+)
     3.27751386E-12    3     1000024         1        -2   # BR(chi^0_2 -> chi^+_1 d u_bar)
     3.27751386E-12    3    -1000024        -1         2   # BR(chi^0_2 -> chi^-_1 d_bar u)
     1.07008231E-12    3     1000024        11       -12   # BR(chi^0_2 -> chi^+_1 e^- nu_bar_e)
     1.07008231E-12    3    -1000024       -11        12   # BR(chi^0_2 -> chi^-_1 e^+ nu_e)
     1.03643738E-12    3     1000024        13       -14   # BR(chi^0_2 -> chi^+_1 mu^- nu_bar_mu)
     1.03643738E-12    3    -1000024       -13        14   # BR(chi^0_2 -> chi^-_1 mu^+ nu_mu)
DECAY   1000025     6.47057262E-01   # chi^0_3
#    BR                NDA      ID1      ID2
     9.75047046E-04    2     2000011       -11   # BR(chi^0_3 -> ~e^-_R e^+)
     9.75047046E-04    2    -2000011        11   # BR(chi^0_3 -> ~e^+_R e^-)
     3.88996474E-05    2     1000011       -11   # BR(chi^0_3 -> ~e^-_L e^+)
     3.88996474E-05    2    -1000011        11   # BR(chi^0_3 -> ~e^+_L e^-)
     1.12833259E-03    2     2000013       -13   # BR(chi^0_3 -> ~mu^-_R mu^+)
     1.12833259E-03    2    -2000013        13   # BR(chi^0_3 -> ~mu^+_R mu^-)
     5.26686716E-05    2     1000013       -13   # BR(chi^0_3 -> ~mu^-_L mu^+)
     5.26686716E-05    2    -1000013        13   # BR(chi^0_3 -> ~mu^+_L mu^-)
     4.46645915E-02    2     1000015       -15   # BR(chi^0_3 -> ~tau^-_1 tau^+)
     4.46645915E-02    2    -1000015        15   # BR(chi^0_3 -> ~tau^+_1 tau^-)
     3.95946429E-03    2     2000015       -15   # BR(chi^0_3 -> ~tau^-_2 tau^+)
     3.95946429E-03    2    -2000015        15   # BR(chi^0_3 -> ~tau^+_2 tau^-)
     2.55683548E-04    2     1000012       -12   # BR(chi^0_3 -> ~nu_e nu_bar_e)
     2.55683548E-04    2    -1000012        12   # BR(chi^0_3 -> ~nu^*_e nu_e)
     2.55693341E-04    2     1000014       -14   # BR(chi^0_3 -> ~nu_mu nu_bar_mu)
     2.55693341E-04    2    -1000014        14   # BR(chi^0_3 -> ~nu^*_mu nu_mu)
     2.58458767E-04    2     1000016       -16   # BR(chi^0_3 -> ~nu_tau nu_bar_tau)
     2.58458767E-04    2    -1000016        16   # BR(chi^0_3 -> ~nu^*_tau nu_tau)
     8.53011664E-01    2     1000022        23   # BR(chi^0_3 -> chi^0_1 Z)
     4.33096951E-02    2     1000022        25   # BR(chi^0_3 -> chi^0_1 h^0)
     8.98599072E-07    2     1000022        22   # BR(chi^0_3 -> chi^0_1 photon)
     4.18727701E-09    2     1000023        22   # BR(chi^0_3 -> chi^0_2 photon)
#    BR                NDA      ID1      ID2       ID3
     3.41986811E-10    3     1000022         2        -2   # BR(chi^0_3 -> chi^0_1 u u_bar)
     4.23809624E-10    3     1000022         4        -4   # BR(chi^0_3 -> chi^0_1 c c_bar)
     2.52852433E-04    3     1000022         6        -6   # BR(chi^0_3 -> chi^0_1 t t_bar)
     9.22956619E-11    3     1000022         1        -1   # BR(chi^0_3 -> chi^0_1 d d_bar)
     4.38152789E-10    3     1000022         3        -3   # BR(chi^0_3 -> chi^0_1 s s_bar)
     9.34555899E-07    3     1000022         5        -5   # BR(chi^0_3 -> chi^0_1 b b_bar)
     1.65241957E-07    3     1000022        11       -11   # BR(chi^0_3 -> chi^0_1 e^- e^+)
     2.06969261E-07    3     1000022        13       -13   # BR(chi^0_3 -> chi^0_1 mu^- mu^+)
     1.17272652E-05    3     1000022        15       -15   # BR(chi^0_3 -> chi^0_1 tau^- tau^+)
     6.89474131E-06    3     1000023         2        -2   # BR(chi^0_3 -> chi^0_2 u u_bar)
     6.84073066E-06    3     1000023         4        -4   # BR(chi^0_3 -> chi^0_2 c c_bar)
     8.94629060E-06    3     1000023         1        -1   # BR(chi^0_3 -> chi^0_2 d d_bar)
     8.94577504E-06    3     1000023         3        -3   # BR(chi^0_3 -> chi^0_2 s s_bar)
     7.95585882E-06    3     1000023         5        -5   # BR(chi^0_3 -> chi^0_2 b b_bar)
     2.05512748E-06    3     1000023        11       -11   # BR(chi^0_3 -> chi^0_2 e^- e^+)
     2.05500042E-06    3     1000023        13       -13   # BR(chi^0_3 -> chi^0_2 mu^- mu^+)
     2.01896069E-06    3     1000023        15       -15   # BR(chi^0_3 -> chi^0_2 tau^- tau^+)
     1.22987783E-05    3     1000023        12       -12   # BR(chi^0_3 -> chi^0_2 nu_e nu_bar_e)
     2.94611404E-05    3     1000024         1        -2   # BR(chi^0_3 -> chi^+_1 d u_bar)
     2.94611404E-05    3    -1000024        -1         2   # BR(chi^0_3 -> chi^-_1 d_bar u)
     2.92943434E-05    3     1000024         3        -4   # BR(chi^0_3 -> chi^+_1 s c_bar)
     2.92943434E-05    3    -1000024        -3         4   # BR(chi^0_3 -> chi^-_1 s_bar c)
     9.81445168E-06    3     1000024        11       -12   # BR(chi^0_3 -> chi^+_1 e^- nu_bar_e)
     9.81445168E-06    3    -1000024       -11        12   # BR(chi^0_3 -> chi^-_1 e^+ nu_e)
     9.81439762E-06    3     1000024        13       -14   # BR(chi^0_3 -> chi^+_1 mu^- nu_bar_mu)
     9.81439762E-06    3    -1000024       -13        14   # BR(chi^0_3 -> chi^-_1 mu^+ nu_mu)
     9.69555842E-06    3     1000024        15       -16   # BR(chi^0_3 -> chi^+_1 tau^- nu_bar_tau)
     9.69555842E-06    3    -1000024       -15        16   # BR(chi^0_3 -> chi^-_1 tau^+ nu_tau)
DECAY   1000035     4.23360728E+00   # chi^0_4
#    BR                NDA      ID1      ID2
     6.06409818E-04    2     2000011       -11   # BR(chi^0_4 -> ~e^-_R e^+)
     6.06409818E-04    2    -2000011        11   # BR(chi^0_4 -> ~e^+_R e^-)
     5.09476614E-02    2     1000011       -11   # BR(chi^0_4 -> ~e^-_L e^+)
     5.09476614E-02    2    -1000011        11   # BR(chi^0_4 -> ~e^+_L e^-)
     6.08719078E-04    2     2000013       -13   # BR(chi^0_4 -> ~mu^-_R mu^+)
     6.08719078E-04    2    -2000013        13   # BR(chi^0_4 -> ~mu^+_R mu^-)
     5.09502153E-02    2     1000013       -13   # BR(chi^0_4 -> ~mu^-_L mu^+)
     5.09502153E-02    2    -1000013        13   # BR(chi^0_4 -> ~mu^+_L mu^-)
     1.26871626E-03    2     1000015       -15   # BR(chi^0_4 -> ~tau^-_1 tau^+)
     1.26871626E-03    2    -1000015        15   # BR(chi^0_4 -> ~tau^+_1 tau^-)
     5.16710992E-02    2     2000015       -15   # BR(chi^0_4 -> ~tau^-_2 tau^+)
     5.16710992E-02    2    -2000015        15   # BR(chi^0_4 -> ~tau^+_2 tau^-)
     5.82021272E-02    2     1000012       -12   # BR(chi^0_4 -> ~nu_e nu_bar_e)
     5.82021272E-02    2    -1000012        12   # BR(chi^0_4 -> ~nu^*_e nu_e)
     5.82032452E-02    2     1000014       -14   # BR(chi^0_4 -> ~nu_mu nu_bar_mu)
     5.82032452E-02    2    -1000014        14   # BR(chi^0_4 -> ~nu^*_mu nu_mu)
     5.85185415E-02    2     1000016       -16   # BR(chi^0_4 -> ~nu_tau nu_bar_tau)
     5.85185415E-02    2    -1000016        16   # BR(chi^0_4 -> ~nu^*_tau nu_tau)
     1.30452145E-01    2     1000024       -24   # BR(chi^0_4 -> chi^+_1 W^-)
     1.30452145E-01    2    -1000024        24   # BR(chi^0_4 -> chi^-_1 W^+)
     2.22774827E-03    2     1000022        23   # BR(chi^0_4 -> chi^0_1 Z)
     3.25723217E-04    2     1000023        23   # BR(chi^0_4 -> chi^0_2 Z)
     1.48829971E-02    2     1000025        23   # BR(chi^0_4 -> chi^0_3 Z)
     2.64701589E-02    2     1000022        25   # BR(chi^0_4 -> chi^0_1 h^0)
     3.32078691E-02    2     1000023        25   # BR(chi^0_4 -> chi^0_2 h^0)
     3.35586688E-07    2     1000022        22   # BR(chi^0_4 -> chi^0_1 photon)
     8.15938159E-07    2     1000023        22   # BR(chi^0_4 -> chi^0_2 photon)
     5.84693486E-07    2     1000025        22   # BR(chi^0_4 -> chi^0_3 photon)
#    BR                NDA      ID1      ID2       ID3
     5.45153989E-08    3     1000022         2        -2   # BR(chi^0_4 -> chi^0_1 u u_bar)
     5.45083775E-08    3     1000022         4        -4   # BR(chi^0_4 -> chi^0_1 c c_bar)
     2.14248886E-05    3     1000022         6        -6   # BR(chi^0_4 -> chi^0_1 t t_bar)
     6.74443166E-08    3     1000022         1        -1   # BR(chi^0_4 -> chi^0_1 d d_bar)
     6.74590459E-08    3     1000022         3        -3   # BR(chi^0_4 -> chi^0_1 s s_bar)
     1.18371553E-07    3     1000022         5        -5   # BR(chi^0_4 -> chi^0_1 b b_bar)
     4.15202215E-07    3     1000022        11       -11   # BR(chi^0_4 -> chi^0_1 e^- e^+)
     4.16113884E-07    3     1000022        13       -13   # BR(chi^0_4 -> chi^0_1 mu^- mu^+)
     6.64367774E-07    3     1000022        15       -15   # BR(chi^0_4 -> chi^0_1 tau^- tau^+)
     1.71629101E-09    3     1000023         2        -2   # BR(chi^0_4 -> chi^0_2 u u_bar)
     1.71389806E-09    3     1000023         4        -4   # BR(chi^0_4 -> chi^0_2 c c_bar)
     1.56235043E-09    3     1000023         1        -1   # BR(chi^0_4 -> chi^0_2 d d_bar)
     1.56277961E-09    3     1000023         3        -3   # BR(chi^0_4 -> chi^0_2 s s_bar)
     2.91438198E-09    3     1000023         5        -5   # BR(chi^0_4 -> chi^0_2 b b_bar)
     2.98952918E-07    3     1000023        11       -11   # BR(chi^0_4 -> chi^0_2 e^- e^+)
     2.98986417E-07    3     1000023        13       -13   # BR(chi^0_4 -> chi^0_2 mu^- mu^+)
     3.00841243E-07    3     1000023        15       -15   # BR(chi^0_4 -> chi^0_2 tau^- tau^+)
     6.39885487E-07    3     1000023        12       -12   # BR(chi^0_4 -> chi^0_2 nu_e nu_bar_e)
     2.88869780E-13    3     1000025         2        -2   # BR(chi^0_4 -> chi^0_3 u u_bar)
     1.52669721E-11    3     1000025         4        -4   # BR(chi^0_4 -> chi^0_3 c c_bar)
     5.26784500E-13    3     1000025         1        -1   # BR(chi^0_4 -> chi^0_3 d d_bar)
     8.88965686E-13    3     1000025         3        -3   # BR(chi^0_4 -> chi^0_3 s s_bar)
     9.64748431E-10    3     1000025         5        -5   # BR(chi^0_4 -> chi^0_3 b b_bar)
     1.53504456E-11    3     1000025        11       -11   # BR(chi^0_4 -> chi^0_3 e^- e^+)
     2.40223925E-11    3     1000025        13       -13   # BR(chi^0_4 -> chi^0_3 mu^- mu^+)
     2.45341900E-09    3     1000025        15       -15   # BR(chi^0_4 -> chi^0_3 tau^- tau^+)
     2.94137872E-10    3     1000025        12       -12   # BR(chi^0_4 -> chi^0_3 nu_e nu_bar_e)
     1.13947882E-09    3     1000024         1        -2   # BR(chi^0_4 -> chi^+_1 d u_bar)
     1.13947882E-09    3    -1000024        -1         2   # BR(chi^0_4 -> chi^-_1 d_bar u)
     1.14024740E-09    3     1000024         3        -4   # BR(chi^0_4 -> chi^+_1 s c_bar)
     1.14024740E-09    3    -1000024        -3         4   # BR(chi^0_4 -> chi^-_1 s_bar c)
     1.93816969E-07    3     1000024        11       -12   # BR(chi^0_4 -> chi^+_1 e^- nu_bar_e)
     1.93816969E-07    3    -1000024       -11        12   # BR(chi^0_4 -> chi^-_1 e^+ nu_e)
     1.93833083E-07    3     1000024        13       -14   # BR(chi^0_4 -> chi^+_1 mu^- nu_bar_mu)
     1.93833083E-07    3    -1000024       -13        14   # BR(chi^0_4 -> chi^-_1 mu^+ nu_mu)
     1.95863592E-07    3     1000024        15       -16   # BR(chi^0_4 -> chi^+_1 tau^- nu_bar_tau)
     1.95863592E-07    3    -1000024       -15        16   # BR(chi^0_4 -> chi^-_1 tau^+ nu_tau)
DECAY   1000021     8.79303125E+00   # ~g
#    BR                NDA      ID1      ID2
     4.68274438E-02    2     2000002        -2   # BR(~g -> ~u_R u_bar)
     4.68274438E-02    2    -2000002         2   # BR(~g -> ~u^*_R u)
     6.47700397E-03    2     1000002        -2   # BR(~g -> ~u_L u_bar)
     6.47700397E-03    2    -1000002         2   # BR(~g -> ~u^*_L u)
     4.68270431E-02    2     2000004        -4   # BR(~g -> ~c_R c_bar)
     4.68270431E-02    2    -2000004         4   # BR(~g -> ~c^*_R c)
     6.47639833E-03    2     1000004        -4   # BR(~g -> ~c_L c_bar)
     6.47639833E-03    2    -1000004         4   # BR(~g -> ~c^*_L c)
     7.51003691E-06    2     1000006        -4   # BR(~g -> ~t_1 c_bar)
     7.51003691E-06    2    -1000006         4   # BR(~g -> ~t^*_1 c)
     1.62184340E-01    2     1000006        -6   # BR(~g -> ~t_1 t_bar)
     1.62184340E-01    2    -1000006         6   # BR(~g -> ~t^*_1 t)
     5.18749509E-02    2     2000001        -1   # BR(~g -> ~d_R d_bar)
     5.18749509E-02    2    -2000001         1   # BR(~g -> ~d^*_R d)
     6.20755480E-03    2     1000001        -1   # BR(~g -> ~d_L d_bar)
     6.20755480E-03    2    -1000001         1   # BR(~g -> ~d^*_L d)
     5.18759564E-02    2     2000003        -3   # BR(~g -> ~s_R s_bar)
     5.18759564E-02    2    -2000003         3   # BR(~g -> ~s^*_R s)
     6.20806244E-03    2     1000003        -3   # BR(~g -> ~s_L s_bar)
     6.20806244E-03    2    -1000003         3   # BR(~g -> ~s^*_L s)
     5.46500399E-02    2     1000005        -5   # BR(~g -> ~b_1 b_bar)
     5.46500399E-02    2    -1000005         5   # BR(~g -> ~b^*_1 b)
     4.19695593E-02    2     2000005        -5   # BR(~g -> ~b_2 b_bar)
     4.19695593E-02    2    -2000005         5   # BR(~g -> ~b^*_2 b)
     6.48540940E-08    2     1000039        21   # BR(~g -> ~G g)
     6.32680939E-06    2     1000022        21   # BR(~g -> chi^0_1 g)
     1.46471103E-04    2     1000023        21   # BR(~g -> chi^0_2 g)
     1.84462138E-04    2     1000025        21   # BR(~g -> chi^0_3 g)
     4.59606089E-05    2     1000035        21   # BR(~g -> chi^0_4 g)
#    BR                NDA      ID1      ID2       ID3
     2.92452177E-04    3     1000022         6        -6   # BR(~g -> chi^0_1 t t_bar)
     7.24347569E-03    3     1000023         6        -6   # BR(~g -> chi^0_2 t t_bar)
     9.38276089E-03    3     1000025         6        -6   # BR(~g -> chi^0_3 t t_bar)
     8.63445578E-03    3     1000035         6        -6   # BR(~g -> chi^0_4 t t_bar)
     9.25893066E-04    3     1000024         5        -6   # BR(~g -> chi^+_1 b t_bar)
     9.25893066E-04    3    -1000024        -5         6   # BR(~g -> chi^-_1 b_bar t)
     4.52002866E-03    3     1000037         5        -6   # BR(~g -> chi^+_2 b t_bar)
     4.52002866E-03    3    -1000037        -5         6   # BR(~g -> chi^-_2 b_bar t)
DECAY        25     2.85162856E-03   # h^0
#    BR                NDA      ID1      ID2
     7.99936441E-09    2          11       -11   # BR(h^0 -> e^- e^+)
     3.41995215E-04    2          13       -13   # BR(h^0 -> mu^- mu^+)
     9.65099417E-02    2          15       -15   # BR(h^0 -> tau^- tau^+)
     6.86000669E-07    2           1        -1   # BR(h^0 -> d d_bar)
     2.47645811E-04    2           3        -3   # BR(h^0 -> s s_bar)
     6.41830082E-01    2           5        -5   # BR(h^0 -> b b_bar)
     1.57109000E-07    2           2        -2   # BR(h^0 -> u u_bar)
     4.05359676E-02    2           4        -4   # BR(h^0 -> c c_bar)
     9.18571929E-02    2          21        21   # BR(h^0 -> g g)
     3.12034642E-03    2          22        22   # BR(h^0 -> photon photon)
# writing decays into V V* as 3-body decays
#    BR                NDA      ID1      ID2       ID3
     5.75921379E-03    3          24        11        12   # BR(h^0 -> W^+ e^- nu_e)
     5.75921379E-03    3          24        13        14   # BR(h^0 -> W^+ mu^- nu_mu)
     5.75921379E-03    3          24        15        16   # BR(h^0 -> W^+ tau^- nu_tau)
     2.01572483E-02    3          24         1        -2   # BR(h^0 -> W^+ d u_bar)
     2.01572483E-02    3          24         3        -4   # BR(h^0 -> W^+ s c_bar)
     5.75921379E-03    3         -24       -11       -12   # BR(h^0 -> W^- e^+ nu_bar_e)
     5.75921379E-03    3         -24       -13       -14   # BR(h^0 -> W^- mu^+ nu_bar_mu)
     5.75921379E-03    3         -24       -15       -16   # BR(h^0 -> W^- tau^+ nu_bar_tau)
     2.01572483E-02    3         -24        -1         2   # BR(h^0 -> W^- d_bar u)
     2.01572483E-02    3         -24        -3         4   # BR(h^0 -> W^- s_bar c)
     3.48489162E-04    3          23        11       -11   # BR(h^0 -> Z e^- e^+)
     3.48489162E-04    3          23        13       -13   # BR(h^0 -> Z mu^- mu^+)
     3.50563503E-04    3          23        15       -15   # BR(h^0 -> Z tau^- tau^+)
     2.07434025E-03    3          23        12       -12   # BR(h^0 -> Z nu_e nu_bar_e)
     1.61798540E-03    3          23         1        -1   # BR(h^0 -> Z d d_bar)
     1.61798540E-03    3          23         3        -3   # BR(h^0 -> Z s s_bar)
     1.56612689E-03    3          23         5        -5   # BR(h^0 -> Z b b_bar)
     1.20311735E-03    3          23         2        -2   # BR(h^0 -> Z u u_bar)
     1.24460415E-03    3          23         4        -4   # BR(h^0 -> Z c c_bar)
DECAY        35     2.12385176E+00   # H^0
#    BR                NDA      ID1      ID2
     8.75837566E-09    2          11       -11   # BR(H^0 -> e^- e^+)
     3.74448321E-04    2          13       -13   # BR(H^0 -> mu^- mu^+)
     1.05926984E-01    2          15       -15   # BR(H^0 -> tau^- tau^+)
     6.22425649E-07    2           1        -1   # BR(H^0 -> d d_bar)
     2.24695496E-04    2           3        -3   # BR(H^0 -> s s_bar)
     6.01643562E-01    2           5        -5   # BR(H^0 -> b b_bar)
     1.98749681E-11    2           2        -2   # BR(H^0 -> u u_bar)
     5.12902299E-06    2           4        -4   # BR(H^0 -> c c_bar)
     2.73875911E-01    2           6        -6   # BR(H^0 -> t t_bar)
     7.21295039E-05    2     2000011  -2000011   # BR(H^0 -> ~e^-_R ~e^+_R)
     7.20955370E-05    2     2000013  -2000013   # BR(H^0 -> ~mu^-_R ~mu^+_R)
     2.50851018E-11    2     2000013  -1000013   # BR(H^0 -> ~mu^-_R ~mu^+_L)
     2.50851018E-11    2    -2000013   1000013   # BR(H^0 -> ~mu^+_R ~mu^-_L)
     6.27861228E-05    2     1000015  -1000015   # BR(H^0 -> ~tau^-_1 ~tau^+_1)
     7.24249409E-09    2     1000015  -2000015   # BR(H^0 -> ~tau^-_1 ~tau^+_2)
     7.24249409E-09    2    -1000015   2000015   # BR(H^0 -> ~tau^+_1 ~tau^-_2)
     1.15676856E-03    2     1000022   1000022   # BR(H^0 -> chi^0_1 chi^0_1)
     5.05702484E-03    2          23        23   # BR(H^0 -> Z Z)
     9.60959412E-03    2          24       -24   # BR(H^0 -> W^+ W^-)
     1.74883458E-03    2          25        25   # BR(H^0 -> h^0 h^0)
     1.67840106E-04    2          21        21   # BR(H^0 -> g g)
     1.55063562E-06    2          22        22   # BR(H^0 -> photon photon)
DECAY        36     2.11846159E+00   # A^0
#    BR                NDA      ID1      ID2
     8.78206270E-09    2          11       -11   # BR(A^0 -> e^- e^+)
     3.75461029E-04    2          13       -13   # BR(A^0 -> mu^- mu^+)
     1.06214455E-01    2          15       -15   # BR(A^0 -> tau^- tau^+)
     6.24107622E-07    2           1        -1   # BR(A^0 -> d d_bar)
     2.25302701E-04    2           3        -3   # BR(A^0 -> s s_bar)
     6.03272196E-01    2           5        -5   # BR(A^0 -> b b_bar)
     1.92816776E-11    2           2        -2   # BR(A^0 -> u u_bar)
     4.97590883E-06    2           4        -4   # BR(A^0 -> c c_bar)
     2.83723637E-01    2           6        -6   # BR(A^0 -> t t_bar)
     1.11677877E-10    2     2000013  -1000013   # BR(A^0 -> ~mu^-_R ~mu^+_L)
     1.11677877E-10    2    -2000013   1000013   # BR(A^0 -> ~mu^+_R ~mu^-_L)
     3.56270779E-08    2     1000015  -2000015   # BR(A^0 -> ~tau^-_1 ~tau^+_2)
     3.56270779E-08    2    -1000015   2000015   # BR(A^0 -> ~tau^+_1 ~tau^-_2)
     5.40156067E-03    2     1000022   1000022   # BR(A^0 -> chi^0_1 chi^0_1)
     6.79789206E-04    2          25        23   # BR(A^0 -> h^0 Z)
     1.01213231E-04    2          21        21   # BR(A^0 -> g g)
     7.04109634E-07    2          22        22   # BR(A^0 -> photon photon)
DECAY        37     1.81929158E+00   # H^+
#    BR                NDA      ID1      ID2
     1.02538552E-08    2         -11        12   # BR(H^+ -> e^+ nu_e)
     4.38384826E-04    2         -13        12   # BR(H^+ -> mu^+ nu_e)
     1.24015019E-01    2         -15        12   # BR(H^+ -> tau^+ nu_e)
     6.40264662E-07    2          -1         2   # BR(H^+ -> d_bar u)
     2.36232225E-04    2          -3         4   # BR(H^+ -> s_bar c)
     8.74531125E-01    2          -5         6   # BR(H^+ -> b_bar t)
     1.37968727E-09    2    -2000013   1000014   # BR(H^+ -> ~mu^+_R ~nu_mu)
     4.09581173E-07    2    -1000015   1000016   # BR(H^+ -> ~tau^+_1 ~nu_tau)
     7.78177052E-04    2          25        24   # BR(H^+ -> h^0 W^+)
DECAY         6     2.43000000E+00   # top
#    BR                NDA      ID1      ID2
     1.00000000E+00    2           5        24   # BR(t -> b W)
Block HiggsBoundsInputHiggsCouplingsFermions
# ScalarNormEffCoupSq PseudoSNormEffCoupSq NP IP1 IP2 IP2
    1.03317963E+00    0.00000000E+00        3  25   5   5  # h0-b-b eff. coupling^2, normalised to SM
    9.10586151E+01    0.00000000E+00        3  35   5   5  # H0-b-b eff. coupling^2, normalised to SM
    0.00000000E+00    9.10917947E+01        3  36   5   5  # A0-b-b eff. coupling^2, normalised to SM
#
    9.99635756E-01    0.00000000E+00        3  25   6   6  # h0-t-t eff. coupling^2, normalised to SM
    1.13421811E-02    0.00000000E+00        3  35   6   6  # H0-t-t eff. coupling^2, normalised to SM
    0.00000000E+00    1.09779372E-02        3  36   6   6  # A0-t-t eff. coupling^2, normalised to SM
#
    1.03317963E+00    0.00000000E+00        3  25  15  15  # h0-tau-tau eff. coupling^2, normalised to SM
    9.10586151E+01    0.00000000E+00        3  35  15  15  # H0-tau-tau eff. coupling^2, normalised to SM
    0.00000000E+00    9.10917947E+01        3  36  15  15  # A0-tau-tau eff. coupling^2, normalised to SM
#
Block HiggsBoundsInputHiggsCouplingsBosons
    9.99997027E-01        3  25  24  24  # h0-W-W eff. coupling^2, normalised to SM
    2.97279833E-06        3  35  24  24  # H0-W-W eff. coupling^2, normalised to SM
    0.00000000E+00        3  36  24  24  # A0-W-W eff. coupling^2, normalised to SM
#
    9.99997027E-01        3  25  23  23  # h0-Z-Z eff. coupling^2, normalised to SM
    2.97279833E-06        3  35  23  23  # H0-Z-Z eff. coupling^2, normalised to SM
    0.00000000E+00        3  36  23  23  # A0-Z-Z eff. coupling^2, normalised to SM
#
    1.16067845E+00        3  25  21  21  # h0-g-g eff. coupling^2, normalised to SM
    8.58263312E-03        3  35  21  21  # H0-g-g eff. coupling^2, normalised to SM
    1.28817817E-01        3  36  21  21  # A0-g-g eff. coupling^2, normalised to SM
#
    0.00000000E+00        3  25  25  23  # h0-h0-Z eff. coupling^2, normalised to SM
    0.00000000E+00        3  35  25  23  # H0-h0-Z eff. coupling^2, normalised to SM
    2.97279833E-06        3  36  25  23  # A0-h0-Z eff. coupling^2, normalised to SM
    0.00000000E+00        3  35  35  23  # H0-H0-Z eff. coupling^2, normalised to SM
    9.99997027E-01        3  36  35  23  # A0-H0-Z eff. coupling^2, normalised to SM
    0.00000000E+00        3  36  36  23  # A0-A0-Z eff. coupling^2, normalised to SM
#
    0.00000000E+00        4  25  21  21  23  # h0-g-g-Z eff. coupling^2, normalised to SM
    0.00000000E+00        4  35  21  21  23  # H0-g-g-Z eff. coupling^2, normalised to SM
    0.00000000E+00        4  36  21  21  23  # A0-g-g-Z eff. coupling^2, normalised to SM
Block SPhenoLowEnergy  # low energy observables
    1    3.37209882E-04   # BR(b -> s gamma)
    2    1.58873263E-06   # BR(b -> s mu+ mu-)
    3    3.52844393E-05   # BR(b -> s nu nu)
    4    2.09434255E-15   # BR(Bd -> e+ e-)
    5    8.94679419E-11   # BR(Bd -> mu+ mu-)
    6    1.87273911E-08   # BR(Bd -> tau+ tau-)
    7    7.05772561E-14   # BR(Bs -> e+ e-)
    8    3.01505833E-09   # BR(Bs -> mu+ mu-)
    9    6.39454492E-07   # BR(Bs -> tau+ tau-)
   10    9.65237895E-05   # BR(B_u -> tau nu)
   11    9.97203677E-01   # BR(B_u -> tau nu)/BR(B_u -> tau nu)_SM
   12    5.42028715E-01   # |Delta(M_Bd)| [ps^-1] 
   13    1.93666737E+01   # |Delta(M_Bs)| [ps^-1] 
   16    2.15706683E-03   # epsilon_K
   17    2.28165567E-15   # Delta(M_K)
   18    2.48199750E-11   # BR(K^0 -> pi^0 nu nu)
   19    8.29540625E-11   # BR(K^+ -> pi^+ nu nu)
   20    4.25110218E-15   # Delta(g-2)_electron/2
   21    1.81749949E-10   # Delta(g-2)_muon/2
   22    5.15651783E-08   # Delta(g-2)_tau/2
   23    0.00000000E+00   # electric dipole moment of the electron
   24    0.00000000E+00   # electric dipole moment of the muon
   25    0.00000000E+00   # electric dipole moment of the tau
   26    0.00000000E+00   # Br(mu -> e gamma)
   27    0.00000000E+00   # Br(tau -> e gamma)
   28    0.00000000E+00   # Br(tau -> mu gamma)
   29    0.00000000E+00   # Br(mu -> 3 e)
   30    0.00000000E+00   # Br(tau -> 3 e)
   31    0.00000000E+00   # Br(tau -> 3 mu)
   39    1.82136033E-06   # Delta(rho_parameter)
   40    0.00000000E+00   # BR(Z -> e mu)
   41    0.00000000E+00   # BR(Z -> e tau)
   42    0.00000000E+00   # BR(Z -> mu tau)
Block FWCOEF Q=  1.60000000E+02  # Wilson coefficients at scale Q
#    id        order  M        value         comment
     0305 4422   00   0    -1.88866096E-01   # C7
     0305 4422   00   2    -2.05583030E-01   # C7
     0305 4322   00   2    -3.33769575E-04   # C7'
     0305 6421   00   0    -9.52427691E-02   # C8
     0305 6421   00   2    -1.17436342E-01   # C8
     0305 6321   00   2    -4.37895498E-04   # C8'
 03051111 4133   00   0     1.19467344E+00   # C9 e+e-
 03051111 4133   00   2     1.19565550E+00   # C9 e+e-
 03051111 4233   00   2    -1.52225032E-06   # C9' e+e-
 03051111 4137   00   0    -4.01973898E+00   # C10 e+e-
 03051111 4137   00   2    -4.01820710E+00   # C10 e+e-
 03051111 4237   00   2     3.64492697E-05   # C10' e+e-
 03051313 4133   00   0     1.19467344E+00   # C9 mu+mu-
 03051313 4133   00   2     1.19565533E+00   # C9 mu+mu-
 03051313 4233   00   2    -1.52227924E-06   # C9' mu+mu-
 03051313 4137   00   0    -4.01973898E+00   # C10 mu+mu-
 03051313 4137   00   2    -4.01820727E+00   # C10 mu+mu-
 03051313 4237   00   2     3.64492917E-05   # C10' mu+mu-
 03051212 4137   00   0     1.50602798E+00   # C11 nu_1 nu_1
 03051212 4137   00   2     1.50566763E+00   # C11 nu_1 nu_1
 03051212 4237   00   2    -8.72952426E-06   # C11' nu_1 nu_1
 03051414 4137   00   0     1.50602798E+00   # C11 nu_2 nu_2
 03051414 4137   00   2     1.50566763E+00   # C11 nu_2 nu_2
 03051414 4237   00   2    -8.72951781E-06   # C11' nu_2 nu_2
 03051616 4137   00   0     1.50602798E+00   # C11 nu_3 nu_3
 03051616 4137   00   2     1.50566765E+00   # C11 nu_3 nu_3
 03051616 4237   00   2    -8.72770142E-06   # C11' nu_3 nu_3
Block IMFWCOEF Q=  1.60000000E+02  # Im(Wilson coefficients) at scale Q
#    id        order  M        value         comment
     0305 4422   00   0     3.86134609E-07   # C7
     0305 4422   00   2     3.35567104E-06   # C7
     0305 4322   00   2     8.14820027E-07   # C7'
     0305 6421   00   0     3.30749676E-07   # C8
     0305 6421   00   2     4.16956251E-07   # C8
     0305 6321   00   2     3.14323913E-07   # C8'
 03051111 4133   00   2     4.61378234E-08   # C9 e+e-
 03051111 4233   00   2     2.46974346E-08   # C9' e+e-
 03051111 4137   00   2    -2.03921511E-06   # C10 e+e-
 03051111 4237   00   2    -5.83844768E-07   # C10' e+e-
 03051313 4133   00   2     4.61354778E-08   # C9 mu+mu-
 03051313 4233   00   2     2.46974012E-08   # C9' mu+mu-
 03051313 4137   00   2    -2.03921689E-06   # C10 mu+mu-
 03051313 4237   00   2    -5.83844860E-07   # C10' mu+mu-
 03051212 4137   00   2     6.02638946E-07   # C11 nu_1 nu_1
 03051212 4237   00   2     1.39829938E-07   # C11' nu_1 nu_1
 03051414 4137   00   2     6.02638912E-07   # C11 nu_2 nu_2
 03051414 4237   00   2     1.39829938E-07   # C11' nu_2 nu_2
 03051616 4137   00   2     6.02629256E-07   # C11 nu_3 nu_3
 03051616 4237   00   2     1.39829938E-07   # C11' nu_3 nu_3
