# SUSY Les Houches Accord 2 - MSSM spectrum + Decays
# SPheno v3.3.6  
# W. Porod, Comput. Phys. Commun. 153 (2003) 275-315, hep-ph/0301101
# in case of problems send email to porod@physik.uni-wuerzburg.de
# Created: 06.12.2016,  13:43
Block SPINFO         # Program information
     1   SPheno      # spectrum calculator
     2   v3.3.6      # version number
#
Block SPhenoINFO     # SPheno specific information
    1      2         # using 2-loop RGEs
    2      1         # using running masses for boundary conditions at mZ
Block MODSEL  # Model selection
    1    2    # mGMSB model
Block MINPAR  # Input parameters
    1    1.10000000E+05  # Lambda, scale of SUSY breaking
    2    5.00000000E+05  # M_M, messenger mass scale
    3    1.00000000E+01  # tanb at m_Z   
    4    1.00000000E+00  # Sign(mu)
    5    3.00000000E+00  # N_5 number of effective five-plets
    6    1.00000000E+05  # c_grav, Gravitino mass factor
Block gauge Q=  5.00000000E+05  # (GMSB scale)
   1    4.97048580E-01  # g'(Q)^DRbar
   2    6.51081822E-01  # g(Q)^DRbar
   3    9.32128825E-01  # g3(Q)^DRbar
Block SMINPUTS  # SM parameters
         1     1.27931335E+02  # alpha_em^-1(MZ)^MSbar
         2     1.16637900E-05  # G_mu [GeV^-2]
         3     1.18400000E-01  # alpha_s(MZ)^MSbar
         4     9.11876000E+01  # m_Z(pole)
         5     4.18000000E+00  # m_b(m_b), MSbar
         6     1.73100000E+02  # m_t(pole)
         7     1.77682000E+00  # m_tau(pole)
         8     0.00000000E+00  # m_nu_3
        11     5.10998930E-04  # m_e(pole)
        12     0.00000000E+00  # m_nu_1
        13     1.05658372E-01  # m_muon(pole)
        14     0.00000000E+00  # m_nu_2
        21     5.00000000E-03  # m_d(2 GeV), MSbar
        22     2.50000000E-03  # m_u(2 GeV), MSbar
        23     9.50000000E-02  # m_s(2 GeV), MSbar
        24     1.27000000E+00  # m_c(m_c), MSbar
Block gauge Q=  2.03052406E+03  # (SUSY scale)
   1    3.64516200E-01  # g'(Q)^DRbar
   2    6.39938458E-01  # g(Q)^DRbar
   3    1.02688565E+00  # g3(Q)^DRbar
Block Yu Q=  2.03052406E+03  # (SUSY scale)
#   1  1     6.92211867E-06   # Y_u(Q)^DRbar
  1  1     0.0   # Y_u(Q)^DRbar
#   2  2     3.51643655E-03   # Y_c(Q)^DRbar
  2  2     0.0   # Y_c(Q)^DRbar
#   3  3     8.47082858E-01   # Y_t(Q)^DRbar
  3  3     0.0   # Y_t(Q)^DRbar
Block Yd Q=  2.03052406E+03  # (SUSY scale)
#   1  1     1.30520121E-04   # Y_d(Q)^DRbar
  1  1     0.0   # Y_d(Q)^DRbar
#   2  2     2.47988145E-03   # Y_s(Q)^DRbar
  2  2     0.0   # Y_s(Q)^DRbar
#   3  3     1.28403938E-01   # Y_b(Q)^DRbar
  3  3     0.0   # Y_b(Q)^DRbar
Block Ye Q=  2.03052406E+03  # (SUSY scale)
#   1  1     2.85360337E-05   # Y_e(Q)^DRbar
  1  1     0.0   # Y_e(Q)^DRbar
#   2  2     5.90035010E-03   # Y_mu(Q)^DRbar
  2  2     0.0   # Y_mu(Q)^DRbar
#   3  3     9.92403938E-02   # Y_tau(Q)^DRbar
  3  3     0.0   # Y_tau(Q)^DRbar
Block Au Q=  2.03052406E+03  # (SUSY scale)
#   1  1    -7.38214972E+02   # A_u(Q)^DRbar
  1  1    0.0   # A_u(Q)^DRbar
#   2  2    -7.38214009E+02   # A_c(Q)^DRbar
  2  2    0.0   # A_c(Q)^DRbar
#   3  3    -6.90548352E+02   # A_t(Q)^DRbar
  3  3    0.0   # A_t(Q)^DRbar
Block Ad Q=  2.03052406E+03  # (SUSY scale)
#   1  1    -7.91809989E+02   # A_d(Q)^DRbar
  1  1    0.0   # A_d(Q)^DRbar
#   2  2    -7.91809296E+02   # A_s(Q)^DRbar
  2  2    0.0   # A_s(Q)^DRbar
#   3  3    -7.75262456E+02   # A_b(Q)^DRbar
  3  3    0.0   # A_b(Q)^DRbar
Block Ae Q=  2.03052406E+03  # (SUSY scale)
#   1  1    -8.77491218E+01   # A_e(Q)^DRbar
  1  1    0.0   # A_e(Q)^DRbar
#   2  2    -8.77487742E+01   # A_mu(Q)^DRbar
  2  2    0.0   # A_mu(Q)^DRbar
#   3  3    -8.76507938E+01   # A_tau(Q)^DRbar
  3  3    0.0   # A_tau(Q)^DRbar
Block MSOFT Q=  2.03052406E+03  # soft SUSY breaking masses at Q
   1    4.63113960E+02  # M_1
   2    8.53057227E+02  # M_2
   3    2.20800660E+03  # M_3
  21    4.58128235E+05  # M^2_(H,d)
  22   -5.71501346E+05  # M^2_(H,u)
  31    6.95271297E+02  # M_(L,11)
  32    6.95269631E+02  # M_(L,22)
  33    6.94799827E+02  # M_(L,33)
  34    3.37591984E+02  # M_(E,11)
  35    3.37585007E+02  # M_(E,22)
  36    3.35612678E+02  # M_(E,33)
  41    2.19190114E+03  # M_(Q,11)
  42    2.19189920E+03  # M_(Q,22)
  43    2.11567234E+03  # M_(Q,33)
  44    2.10120278E+03  # M_(U,11)
  45    2.10120007E+03  # M_(U,22)
  46    1.93969678E+03  # M_(U,33)
  47    2.09228997E+03  # M_(D,11)
  48    2.09228858E+03  # M_(D,22)
  49    2.08859481E+03  # M_(D,33)
Block MASS  # Mass spectrum
#   PDG code      mass          particle
         6     1.73100000E+02  # m_t(pole)
        23     9.11876000E+01  # m_Z(pole)
        24     8.03967513E+01  # W+
        15     1.77682000E+00  # m_tau(pole)
        25     1.18242502E+02  # h0
        35     1.07900306E+03  # H0
        36     1.07875133E+03  # A0
        37     1.08212206E+03  # H+
   1000001     2.27900843E+03  # ~d_L
   2000001     2.17475954E+03  # ~d_R
   1000002     2.27770256E+03  # ~u_L
   2000002     2.18277162E+03  # ~u_R
   1000003     2.27900622E+03  # ~s_L
   2000003     2.17475783E+03  # ~s_R
   1000004     2.27770056E+03  # ~c_L
   2000004     2.18276839E+03  # ~c_R
   1000005     2.16923484E+03  # ~b_1
   2000005     2.19012162E+03  # ~b_2
   1000006     1.99673170E+03  # ~t_1
   2000006     2.19869970E+03  # ~t_2
   1000011     7.09754393E+02  # ~e_L-
   2000011     3.51935289E+02  # ~e_R-
   1000012     7.04975529E+02  # ~nu_eL
   1000013     7.09753516E+02  # ~mu_L-
   2000013     3.51924155E+02  # ~mu_R-
   1000014     7.04973270E+02  # ~nu_muL
   1000015     3.48775786E+02  # ~tau_1-
   2000015     7.09505336E+02  # ~tau_2-
   1000016     7.04336813E+02  # ~nu_tauL
   1000021     2.33179507E+03  # ~g
   1000022     4.50736310E+02  # ~chi_10
   1000023     7.87028981E+02  # ~chi_20
   1000025    -8.28095016E+02  # ~chi_30
   1000035     9.15316706E+02  # ~chi_40
   1000024     7.85854120E+02  # ~chi_1+
   1000037     9.15130984E+02  # ~chi_2+
   1000039     1.32000000E-03  # ~G
# Higgs mixing
Block alpha # Effective Higgs mixing angle
          -1.06282917E-01   # alpha
Block Hmix Q=  2.03052406E+03  # Higgs mixing parameters
   1    8.16954297E+02  # mu
   2    9.55361140E+00  # tan[beta](Q)
   3    2.43375089E+02  # v(Q)
   4    1.04440974E+06  # m^2_A(Q)
Block stopmix # stop mixing matrix
   1  1     1.58751479E-01   # Re[R_st(1,1)]
   1  2     9.87318575E-01   # Re[R_st(1,2)]
   2  1    -9.87318575E-01   # Re[R_st(2,1)]
   2  2     1.58751479E-01   # Re[R_st(2,2)]
Block sbotmix # sbottom mixing matrix
   1  1     2.36966870E-01   # Re[R_sb(1,1)]
   1  2     9.71517732E-01   # Re[R_sb(1,2)]
   2  1    -9.71517732E-01   # Re[R_sb(2,1)]
   2  2     2.36966870E-01   # Re[R_sb(2,2)]
Block staumix # stau mixing matrix
   1  1     3.76166852E-02   # Re[R_sta(1,1)]
   1  2     9.99292242E-01   # Re[R_sta(1,2)]
   2  1    -9.99292242E-01   # Re[R_sta(2,1)]
   2  2     3.76166852E-02   # Re[R_sta(2,2)]
Block Nmix # neutralino mixing matrix
   1  1    -9.95304038E-01   # Re[N(1,1)]
   1  2     1.08431855E-02   # Re[N(1,2)]
   1  3    -8.18448426E-02   # Re[N(1,3)]
   1  4     5.05343446E-02   # Re[N(1,4)]
   2  1     8.33661112E-02   # Re[N(2,1)]
   2  2     5.71174827E-01   # Re[N(2,2)]
   2  3    -5.88764122E-01   # Re[N(2,3)]
   2  4     5.65832322E-01   # Re[N(2,4)]
   3  1     2.17652982E-02   # Re[N(3,1)]
   3  2    -2.93529715E-02   # Re[N(3,2)]
   3  3    -7.05548288E-01   # Re[N(3,3)]
   3  4    -7.07719075E-01   # Re[N(3,4)]
   4  1    -4.41161672E-02   # Re[N(4,1)]
   4  2     8.20231763E-01   # Re[N(4,2)]
   4  3     3.85823593E-01   # Re[N(4,3)]
   4  4    -4.20016397E-01   # Re[N(4,4)]
Block Umix # chargino mixing matrix
   1  1    -5.42479749E-01   # Re[U(1,1)]
   1  2     8.40068879E-01   # Re[U(1,2)]
   2  1     8.40068879E-01   # Re[U(2,1)]
   2  2     5.42479749E-01   # Re[U(2,2)]
Block Vmix # chargino mixing matrix
   1  1    -5.90728809E-01   # Re[V(1,1)]
   1  2     8.06870172E-01   # Re[V(1,2)]
   2  1     8.06870172E-01   # Re[V(2,1)]
   2  2     5.90728809E-01   # Re[V(2,2)]
DECAY        23     2.49520000E+00   # Z
DECAY        24     2.08500000E+00   # W
DECAY   2000011     1.21745635E-13   # ~e^-_R
#    BR                NDA      ID1      ID2
     2.91652328E-08    2     1000039        11   # BR(~e^-_R -> ~G e^-)
#    BR                NDA      ID1      ID2       ID3
     3.76018553E-01    3     1000015        11       -15   # BR(~e^-_R -> ~tau^-_1 e^- tau^+)
     6.23981418E-01    3    -1000015        15        11   # BR(~e^-_R -> ~tau^+_1 tau^- e^-)
     5.87899747E-12    3     1000015        12       -16   # BR(~e^-_R -> ~tau^-_1 nu_e nu_bar_tau)
DECAY   1000011     3.18339926E-01   # ~e^-_L
#    BR                NDA      ID1      ID2
     9.99999956E-01    2     1000022        11   # BR(~e^-_L -> chi^0_1 e^-)
     1.64926889E-08    2     2000011        23   # BR(~e^-_L -> ~e^-_R Z)
     1.71042765E-08    2     2000011        25   # BR(~e^-_L -> ~e^-_R h^0)
#    BR                NDA      ID1      ID2       ID3
     6.28406386E-09    3     1000012         1        -2   # BR(~e^-_L -> ~nu_e d u_bar)
     4.47327174E-09    3     1000012         3        -4   # BR(~e^-_L -> ~nu_e s c_bar)
DECAY   2000013     1.16234995E-13   # ~mu^-_R
#    BR                NDA      ID1      ID2
     3.05430986E-08    2     1000039        13   # BR(~mu^-_R -> ~G mu^-)
#    BR                NDA      ID1      ID2       ID3
     3.75997895E-01    3     1000015        13       -15   # BR(~mu^-_R -> ~tau^-_1 mu^- tau^+)
     6.24001816E-01    3    -1000015        15        13   # BR(~mu^-_R -> ~tau^+_1 tau^- mu^-)
     2.58662458E-07    3     1000015        14       -16   # BR(~mu^-_R -> ~tau^-_1 nu_mu nu_bar_tau)
DECAY   1000013     3.18798537E-01   # ~mu^-_L
#    BR                NDA      ID1      ID2
     9.98565658E-01    2     1000022        13   # BR(~mu^-_L -> chi^0_1 mu^-)
     7.04118240E-04    2     2000013        23   # BR(~mu^-_L -> ~mu^-_R Z)
     7.30213149E-04    2     2000013        25   # BR(~mu^-_L -> ~mu^-_R h^0)
#    BR                NDA      ID1      ID2       ID3
     6.28406177E-09    3     1000014         1        -2   # BR(~mu^-_L -> ~nu_mu d u_bar)
     4.47414456E-09    3     1000014         3        -4   # BR(~mu^-_L -> ~nu_mu s c_bar)
DECAY   1000015     3.39383957E-21   # ~tau^-_1
#    BR                NDA      ID1      ID2
     1.00000000E+00    2     1000039        15   # BR(~tau^-_1 -> ~G tau^-)
DECAY   2000015     4.48601273E-01   # ~tau^-_2
#    BR                NDA      ID1      ID2
     7.10462207E-01    2     1000022        15   # BR(~tau^-_2 -> chi^0_1 tau^-)
     1.42563286E-01    2     1000015        23   # BR(~tau^-_2 -> ~tau^-_1 Z)
     1.46974496E-01    2     1000015        25   # BR(~tau^-_2 -> ~tau^-_1 h^0)
#    BR                NDA      ID1      ID2       ID3
     6.58648704E-09    3     1000016         1        -2   # BR(~tau^-_2 -> ~nu_tau d u_bar)
     4.92400190E-09    3     1000016         3        -4   # BR(~tau^-_2 -> ~nu_tau s c_bar)
DECAY   1000012     3.35091300E-01   # ~nu_e
#    BR                NDA      ID1      ID2
     9.99999970E-01    2     1000022        12   # BR(~nu_e -> chi^0_1 nu_e)
     3.01237330E-08    2     2000011        24   # BR(~nu_e -> ~e^-_R W^+)
DECAY   1000014     3.35518814E-01   # ~nu_mu
#    BR                NDA      ID1      ID2
     9.98713730E-01    2     1000022        14   # BR(~nu_mu -> chi^0_1 nu_mu)
     1.28626960E-03    2     2000013        24   # BR(~nu_mu -> ~mu^-_R W^+)
DECAY   1000016     4.56717760E-01   # ~nu_tau
#    BR                NDA      ID1      ID2
     7.31191550E-01    2     1000022        16   # BR(~nu_tau -> chi^0_1 nu_tau)
     2.68808450E-01    2     1000015        24   # BR(~nu_tau -> ~tau^-_1 W^+)
DECAY   2000001     1.16797790E+00   # ~d_R
#    BR                NDA      ID1      ID2
     9.92437976E-01    2     1000022         1   # BR(~d_R -> chi^0_1 d)
     5.74112194E-03    2     1000023         1   # BR(~d_R -> chi^0_2 d)
     3.79016239E-04    2     1000025         1   # BR(~d_R -> chi^0_3 d)
     1.44139095E-03    2     1000035         1   # BR(~d_R -> chi^0_4 d)
     4.42258305E-07    2    -1000024         2   # BR(~d_R -> chi^-_1 u)
     5.30373849E-08    2    -1000037         2   # BR(~d_R -> chi^-_2 u)
DECAY   1000001     2.05150964E+01   # ~d_L
#    BR                NDA      ID1      ID2
     1.66831320E-02    2     1000022         1   # BR(~d_L -> chi^0_1 d)
     1.08261296E-01    2     1000023         1   # BR(~d_L -> chi^0_2 d)
     3.82288340E-04    2     1000025         1   # BR(~d_L -> chi^0_3 d)
     2.18551727E-01    2     1000035         1   # BR(~d_L -> chi^0_4 d)
     2.06772912E-01    2    -1000024         2   # BR(~d_L -> chi^-_1 u)
     4.49348645E-01    2    -1000037         2   # BR(~d_L -> chi^-_2 u)
     2.78926911E-13    2     2000002       -24   # BR(~d_L -> ~u_R W^-)
     3.24364511E-11    2     2000001        23   # BR(~d_L -> ~d_R Z)
DECAY   2000003     1.16838641E+00   # ~s_R
#    BR                NDA      ID1      ID2
     9.92093987E-01    2     1000022         3   # BR(~s_R -> chi^0_1 s)
     5.81689104E-03    2     1000023         3   # BR(~s_R -> chi^0_2 s)
     4.59951497E-04    2     1000025         3   # BR(~s_R -> chi^0_3 s)
     1.45043195E-03    2     1000035         3   # BR(~s_R -> chi^0_4 s)
     1.59599111E-04    2    -1000024         4   # BR(~s_R -> chi^-_1 c)
     1.91396352E-05    2    -1000037         4   # BR(~s_R -> chi^-_2 c)
DECAY   1000003     2.05156698E+01   # ~s_L
#    BR                NDA      ID1      ID2
     1.66825738E-02    2     1000022         3   # BR(~s_L -> chi^0_1 s)
     1.08260590E-01    2     1000023         3   # BR(~s_L -> chi^0_2 s)
     3.87452900E-04    2     1000025         3   # BR(~s_L -> chi^0_3 s)
     2.18547533E-01    2     1000035         3   # BR(~s_L -> chi^0_4 s)
     2.06776666E-01    2    -1000024         4   # BR(~s_L -> chi^-_1 c)
     4.49345101E-01    2    -1000037         4   # BR(~s_L -> chi^-_2 c)
     7.19841531E-08    2     2000004       -24   # BR(~s_L -> ~c_R W^-)
     1.17086423E-08    2     2000003        23   # BR(~s_L -> ~s_R Z)
DECAY   1000005     4.41328239E+00   # ~b_1
#    BR                NDA      ID1      ID2
     2.63500106E-01    2     1000022         5   # BR(~b_1 -> chi^0_1 b)
     1.30526783E-01    2     1000023         5   # BR(~b_1 -> chi^0_2 b)
     5.31690423E-02    2     1000025         5   # BR(~b_1 -> chi^0_3 b)
     1.10854988E-02    2     1000035         5   # BR(~b_1 -> chi^0_4 b)
     4.14768903E-01    2    -1000024         6   # BR(~b_1 -> chi^-_1 t)
     1.21863492E-01    2    -1000037         6   # BR(~b_1 -> chi^-_2 t)
     5.08617413E-03    2     1000006       -24   # BR(~b_1 -> ~t_1 W^-)
DECAY   2000005     4.05479816E+01   # ~b_2
#    BR                NDA      ID1      ID2
     8.08941240E-03    2     1000022         5   # BR(~b_2 -> chi^0_1 b)
     4.64739621E-02    2     1000023         5   # BR(~b_2 -> chi^0_2 b)
     7.26299248E-03    2     1000025         5   # BR(~b_2 -> chi^0_3 b)
     1.05363797E-01    2     1000035         5   # BR(~b_2 -> chi^0_4 b)
     4.09917235E-01    2    -1000024         6   # BR(~b_2 -> chi^-_1 t)
     4.08845640E-01    2    -1000037         6   # BR(~b_2 -> chi^-_2 t)
     1.40469610E-02    2     1000006       -24   # BR(~b_2 -> ~t_1 W^-)
DECAY   2000002     4.69226583E+00   # ~u_R
#    BR                NDA      ID1      ID2
     9.92425834E-01    2     1000022         2   # BR(~u_R -> chi^0_1 u)
     5.74973935E-03    2     1000023         2   # BR(~u_R -> chi^0_2 u)
     3.79478802E-04    2     1000025         2   # BR(~u_R -> chi^0_3 u)
     1.44494717E-03    2     1000035         2   # BR(~u_R -> chi^0_4 u)
     3.11574570E-10    2     1000024         1   # BR(~u_R -> chi^+_1 d)
     4.29045694E-11    2     1000037         1   # BR(~u_R -> chi^+_2 d)
DECAY   1000002     2.05765335E+01   # ~u_L
#    BR                NDA      ID1      ID2
     1.32100496E-02    2     1000022         2   # BR(~u_L -> chi^0_1 u)
     1.20488285E-01    2     1000023         2   # BR(~u_L -> chi^0_2 u)
     2.16005093E-04    2     1000025         2   # BR(~u_L -> chi^0_3 u)
     2.08965232E-01    2     1000035         2   # BR(~u_L -> chi^0_4 u)
     2.44242317E-01    2     1000024         1   # BR(~u_L -> chi^+_1 d)
     4.12878112E-01    2     1000037         1   # BR(~u_L -> chi^+_2 d)
     1.29585507E-10    2     2000001        24   # BR(~u_L -> ~d_R W^+)
DECAY   2000004     4.69308935E+00   # ~c_R
#    BR                NDA      ID1      ID2
     9.92248573E-01    2     1000022         4   # BR(~c_R -> chi^0_1 c)
     5.78752366E-03    2     1000023         4   # BR(~c_R -> chi^0_2 c)
     4.22467174E-04    2     1000025         4   # BR(~c_R -> chi^0_3 c)
     1.44997407E-03    2     1000035         4   # BR(~c_R -> chi^0_4 c)
     8.03913998E-05    2     1000024         3   # BR(~c_R -> chi^+_1 s)
     1.10703359E-05    2     1000037         3   # BR(~c_R -> chi^+_2 s)
DECAY   1000004     2.05770822E+01   # ~c_L
#    BR                NDA      ID1      ID2
     1.32099148E-02    2     1000022         4   # BR(~c_L -> chi^0_1 c)
     1.20488176E-01    2     1000023         4   # BR(~c_L -> chi^0_2 c)
     2.26087162E-04    2     1000025         4   # BR(~c_L -> chi^0_3 c)
     2.08965540E-01    2     1000035         4   # BR(~c_L -> chi^0_4 c)
     2.44236939E-01    2     1000024         3   # BR(~c_L -> chi^+_1 s)
     4.12873293E-01    2     1000037         3   # BR(~c_L -> chi^+_2 s)
     4.67785438E-08    2     2000003        24   # BR(~c_L -> ~s_R W^+)
     4.59575767E-09    2     2000004        23   # BR(~c_L -> ~c_R Z)
DECAY   1000006     4.30490183E+01   # ~t_1
#    BR                NDA      ID1      ID2
     2.34459751E-07    2     1000022         4   # BR(~t_1 -> chi^0_1 c)
     9.70236419E-02    2     1000022         6   # BR(~t_1 -> chi^0_1 t)
     2.01653856E-06    2     1000023         4   # BR(~t_1 -> chi^0_2 c)
     1.70077317E-01    2     1000023         6   # BR(~t_1 -> chi^0_2 t)
     2.31234450E-01    2     1000025         6   # BR(~t_1 -> chi^0_3 t)
     4.78012119E-02    2     1000035         6   # BR(~t_1 -> chi^0_4 t)
     3.56017617E-01    2     1000024         5   # BR(~t_1 -> chi^+_1 b)
     9.78353234E-02    2     1000037         5   # BR(~t_1 -> chi^+_2 b)
#    BR                NDA      ID1      ID2       ID3
     8.18755521E-06    3     1000022        24         5   # BR(~t_1 -> chi^0_1 W^+ b)
DECAY   2000006     4.29094649E+01   # ~t_2
#    BR                NDA      ID1      ID2
     6.95510337E-03    2     1000022         6   # BR(~t_2 -> chi^0_1 t)
     1.91601277E-01    2     1000023         6   # BR(~t_2 -> chi^0_2 t)
     2.57653824E-01    2     1000025         6   # BR(~t_2 -> chi^0_3 t)
     2.21985726E-01    2     1000035         6   # BR(~t_2 -> chi^0_4 t)
     6.30831418E-02    2     1000024         5   # BR(~t_2 -> chi^+_1 b)
     2.45330701E-01    2     1000037         5   # BR(~t_2 -> chi^+_2 b)
     7.54702783E-03    2     1000006        23   # BR(~t_2 -> ~t_1 Z)
     5.84319844E-03    2     1000006        25   # BR(~t_2 -> ~t_1 h^0)
DECAY   1000024     6.35347020E-01   # chi^+_1
#    BR                NDA      ID1      ID2
     6.05247562E-09    2    -2000011        12   # BR(chi^+_1 -> ~e^+_R nu_e)
     5.03626866E-02    2    -1000011        12   # BR(chi^+_1 -> ~e^+_L nu_e)
     2.58768523E-04    2    -2000013        14   # BR(chi^+_1 -> ~mu^+_R nu_mu)
     5.03603033E-02    2    -1000013        14   # BR(chi^+_1 -> ~mu^+_L nu_mu)
     7.36819038E-02    2    -1000015        16   # BR(chi^+_1 -> ~tau^+_1 nu_tau)
     4.96934958E-02    2    -2000015        16   # BR(chi^+_1 -> ~tau^+_2 nu_tau)
     6.70253778E-02    2     1000012       -11   # BR(chi^+_1 -> ~nu_e e^+)
     6.70428119E-02    2     1000014       -13   # BR(chi^+_1 -> ~nu_mu mu^+)
     7.20130286E-02    2     1000016       -15   # BR(chi^+_1 -> ~nu_tau tau^+)
     5.68246823E-01    2     1000022        24   # BR(chi^+_1 -> chi^0_1 W^+)
#    BR                NDA      ID1      ID2       ID3
     7.71458276E-08    3     1000022        -1         2   # BR(chi^+_1 -> chi^0_1 d_bar u)
     7.73069637E-08    3     1000022        -3         4   # BR(chi^+_1 -> chi^0_1 s_bar c)
     1.30600700E-03    3     1000022        -5         6   # BR(chi^+_1 -> chi^0_1 b_bar t)
     7.30355296E-13    3     1000022       -11        12   # BR(chi^+_1 -> chi^0_1 e^+ nu_e)
     3.12220879E-08    3     1000022       -13        14   # BR(chi^+_1 -> chi^0_1 mu^+ nu_mu)
     8.60224118E-06    3     1000022       -15        16   # BR(chi^+_1 -> chi^0_1 tau^+ nu_tau)
DECAY   1000037     3.50326626E+00   # chi^+_2
#    BR                NDA      ID1      ID2
     1.75320579E-10    2    -2000011        12   # BR(chi^+_2 -> ~e^+_R nu_e)
     1.19242420E-01    2    -1000011        12   # BR(chi^+_2 -> ~e^+_L nu_e)
     7.49575609E-06    2    -2000013        14   # BR(chi^+_2 -> ~mu^+_R nu_mu)
     1.19245897E-01    2    -1000013        14   # BR(chi^+_2 -> ~mu^+_L nu_mu)
     2.14006213E-03    2    -1000015        16   # BR(chi^+_2 -> ~tau^+_1 nu_tau)
     1.20227418E-01    2    -2000015        16   # BR(chi^+_2 -> ~tau^+_2 nu_tau)
     1.14506314E-01    2     1000012       -11   # BR(chi^+_2 -> ~nu_e e^+)
     1.14512040E-01    2     1000014       -13   # BR(chi^+_2 -> ~nu_mu mu^+)
     1.16132155E-01    2     1000016       -15   # BR(chi^+_2 -> ~nu_tau tau^+)
     3.75912752E-02    2     1000022        24   # BR(chi^+_2 -> chi^0_1 W^+)
     1.33367872E-01    2     1000023        24   # BR(chi^+_2 -> chi^0_2 W^+)
     7.66922096E-03    2     1000025        24   # BR(chi^+_2 -> chi^0_3 W^+)
     1.00077467E-01    2     1000024        23   # BR(chi^+_2 -> chi^+_1 Z)
     1.50512236E-02    2     1000024        25   # BR(chi^+_2 -> chi^+_1 h^0)
#    BR                NDA      ID1      ID2       ID3
     2.90227213E-09    3     1000024         2        -2   # BR(chi^+_2 -> chi^+_1 u u_bar)
     2.89774117E-09    3     1000024         4        -4   # BR(chi^+_2 -> chi^+_1 c c_bar)
     3.18334217E-09    3     1000024         1        -1   # BR(chi^+_2 -> chi^+_1 d d_bar)
     3.18505327E-09    3     1000024         3        -3   # BR(chi^+_2 -> chi^+_1 s s_bar)
     1.08820693E-08    3     1000024         5        -5   # BR(chi^+_2 -> chi^+_1 b b_bar)
     4.52004784E-07    3     1000024        11       -11   # BR(chi^+_2 -> chi^+_1 e^- e^+)
     4.52072917E-07    3     1000024        13       -13   # BR(chi^+_2 -> chi^+_1 mu^- mu^+)
     4.60504750E-07    3     1000024        15       -15   # BR(chi^+_2 -> chi^+_1 tau^- tau^+)
     1.31333076E-06    3     1000024        12       -12   # BR(chi^+_2 -> chi^+_1 nu_e nu_bar_e)
     1.31130910E-07    3     1000022        -1         2   # BR(chi^+_2 -> chi^0_1 d_bar u)
     1.31142346E-07    3     1000022        -3         4   # BR(chi^+_2 -> chi^0_1 s_bar c)
     2.24975384E-04    3     1000022        -5         6   # BR(chi^+_2 -> chi^0_1 b_bar t)
     1.73849395E-09    3     1000022       -13        14   # BR(chi^+_2 -> chi^0_1 mu^+ nu_mu)
     4.83378895E-07    3     1000022       -15        16   # BR(chi^+_2 -> chi^0_1 tau^+ nu_tau)
     1.49019759E-09    3     1000023        -1         2   # BR(chi^+_2 -> chi^0_2 d_bar u)
     1.49130839E-09    3     1000023        -3         4   # BR(chi^+_2 -> chi^0_2 s_bar c)
     2.37947263E-07    3     1000023       -11        12   # BR(chi^+_2 -> chi^0_2 e^+ nu_e)
     2.37958061E-07    3     1000023       -13        14   # BR(chi^+_2 -> chi^0_2 mu^+ nu_mu)
     2.35239048E-07    3     1000023       -15        16   # BR(chi^+_2 -> chi^0_2 tau^+ nu_tau)
     1.88237306E-12    3     1000025        -1         2   # BR(chi^+_2 -> chi^0_3 d_bar u)
     2.02051321E-12    3     1000025        -3         4   # BR(chi^+_2 -> chi^0_3 s_bar c)
     1.89749083E-10    3     1000025       -11        12   # BR(chi^+_2 -> chi^0_3 e^+ nu_e)
     1.95682177E-10    3     1000025       -13        14   # BR(chi^+_2 -> chi^0_3 mu^+ nu_mu)
     1.85864980E-09    3     1000025       -15        16   # BR(chi^+_2 -> chi^0_3 tau^+ nu_tau)
DECAY   1000022     1.09935763E+00   # chi^0_1
#    BR                NDA      ID1      ID2
     1.63594000E-01    2     2000011       -11   # BR(chi^0_1 -> ~e^-_R e^+)
     1.63594000E-01    2    -2000011        11   # BR(chi^0_1 -> ~e^+_R e^-)
     1.63626068E-01    2     2000013       -13   # BR(chi^0_1 -> ~mu^-_R mu^+)
     1.63626068E-01    2    -2000013        13   # BR(chi^0_1 -> ~mu^+_R mu^-)
     1.72779932E-01    2     1000015       -15   # BR(chi^0_1 -> ~tau^-_1 tau^+)
     1.72779932E-01    2    -1000015        15   # BR(chi^0_1 -> ~tau^+_1 tau^-)
DECAY   1000023     7.33830846E-01   # chi^0_2
#    BR                NDA      ID1      ID2
     1.26113222E-02    2     2000011       -11   # BR(chi^0_2 -> ~e^-_R e^+)
     1.26113222E-02    2    -2000011        11   # BR(chi^0_2 -> ~e^+_R e^-)
     2.91524704E-02    2     1000011       -11   # BR(chi^0_2 -> ~e^-_L e^+)
     2.91524704E-02    2    -1000011        11   # BR(chi^0_2 -> ~e^+_L e^-)
     1.27212099E-02    2     2000013       -13   # BR(chi^0_2 -> ~mu^-_R mu^+)
     1.27212099E-02    2    -2000013        13   # BR(chi^0_2 -> ~mu^+_R mu^-)
     2.91571122E-02    2     1000013       -13   # BR(chi^0_2 -> ~mu^-_L mu^+)
     2.91571122E-02    2    -1000013        13   # BR(chi^0_2 -> ~mu^+_L mu^-)
     4.39450026E-02    2     1000015       -15   # BR(chi^0_2 -> ~tau^-_1 tau^+)
     4.39450026E-02    2    -1000015        15   # BR(chi^0_2 -> ~tau^+_1 tau^-)
     3.04718423E-02    2     2000015       -15   # BR(chi^0_2 -> ~tau^-_2 tau^+)
     3.04718423E-02    2    -2000015        15   # BR(chi^0_2 -> ~tau^+_2 tau^-)
     2.34023011E-02    2     1000012       -12   # BR(chi^0_2 -> ~nu_e nu_bar_e)
     2.34023011E-02    2    -1000012        12   # BR(chi^0_2 -> ~nu^*_e nu_e)
     2.34035188E-02    2     1000014       -14   # BR(chi^0_2 -> ~nu_mu nu_bar_mu)
     2.34035188E-02    2    -1000014        14   # BR(chi^0_2 -> ~nu^*_mu nu_mu)
     2.37477076E-02    2     1000016       -16   # BR(chi^0_2 -> ~nu_tau nu_bar_tau)
     2.37477076E-02    2    -1000016        16   # BR(chi^0_2 -> ~nu^*_tau nu_tau)
     2.74968491E-02    2     1000022        23   # BR(chi^0_2 -> chi^0_1 Z)
     5.15255105E-01    2     1000022        25   # BR(chi^0_2 -> chi^0_1 h^0)
     1.11877605E-06    2     1000022        22   # BR(chi^0_2 -> chi^0_1 photon)
#    BR                NDA      ID1      ID2       ID3
     4.07631242E-08    3     1000022         2        -2   # BR(chi^0_2 -> chi^0_1 u u_bar)
     4.07991674E-08    3     1000022         4        -4   # BR(chi^0_2 -> chi^0_1 c c_bar)
     3.70978556E-08    3     1000022         1        -1   # BR(chi^0_2 -> chi^0_1 d d_bar)
     3.72771282E-08    3     1000022         3        -3   # BR(chi^0_2 -> chi^0_1 s s_bar)
     5.29462030E-07    3     1000022         5        -5   # BR(chi^0_2 -> chi^0_1 b b_bar)
     4.76613323E-06    3     1000022        11       -11   # BR(chi^0_2 -> chi^0_1 e^- e^+)
     4.79188054E-06    3     1000022        13       -13   # BR(chi^0_2 -> chi^0_1 mu^- mu^+)
     1.17089647E-05    3     1000022        15       -15   # BR(chi^0_2 -> chi^0_1 tau^- tau^+)
     2.14635737E-12    3     1000024         1        -2   # BR(chi^0_2 -> chi^+_1 d u_bar)
     2.14635737E-12    3    -1000024        -1         2   # BR(chi^0_2 -> chi^-_1 d_bar u)
     6.96011429E-13    3     1000024        11       -12   # BR(chi^0_2 -> chi^+_1 e^- nu_bar_e)
     6.96011429E-13    3    -1000024       -11        12   # BR(chi^0_2 -> chi^-_1 e^+ nu_e)
     6.68835632E-13    3     1000024        13       -14   # BR(chi^0_2 -> chi^+_1 mu^- nu_bar_mu)
     6.68835632E-13    3    -1000024       -13        14   # BR(chi^0_2 -> chi^-_1 mu^+ nu_mu)
DECAY   1000025     6.10817313E-01   # chi^0_3
#    BR                NDA      ID1      ID2
     1.13981462E-03    2     2000011       -11   # BR(chi^0_3 -> ~e^-_R e^+)
     1.13981462E-03    2    -2000011        11   # BR(chi^0_3 -> ~e^+_R e^-)
     5.59112882E-05    2     1000011       -11   # BR(chi^0_3 -> ~e^-_L e^+)
     5.59112882E-05    2    -1000011        11   # BR(chi^0_3 -> ~e^+_L e^-)
     1.29381644E-03    2     2000013       -13   # BR(chi^0_3 -> ~mu^-_R mu^+)
     1.29381644E-03    2    -2000013        13   # BR(chi^0_3 -> ~mu^+_R mu^-)
     7.27674227E-05    2     1000013       -13   # BR(chi^0_3 -> ~mu^-_L mu^+)
     7.27674227E-05    2    -1000013        13   # BR(chi^0_3 -> ~mu^+_L mu^-)
     4.50361914E-02    2     1000015       -15   # BR(chi^0_3 -> ~tau^-_1 tau^+)
     4.50361914E-02    2    -1000015        15   # BR(chi^0_3 -> ~tau^+_1 tau^-)
     4.84765983E-03    2     2000015       -15   # BR(chi^0_3 -> ~tau^-_2 tau^+)
     4.84765983E-03    2    -2000015        15   # BR(chi^0_3 -> ~tau^+_2 tau^-)
     3.64670628E-04    2     1000012       -12   # BR(chi^0_3 -> ~nu_e nu_bar_e)
     3.64670628E-04    2    -1000012        12   # BR(chi^0_3 -> ~nu^*_e nu_e)
     3.64682935E-04    2     1000014       -14   # BR(chi^0_3 -> ~nu_mu nu_bar_mu)
     3.64682935E-04    2    -1000014        14   # BR(chi^0_3 -> ~nu^*_mu nu_mu)
     3.68157141E-04    2     1000016       -16   # BR(chi^0_3 -> ~nu_tau nu_bar_tau)
     3.68157141E-04    2    -1000016        16   # BR(chi^0_3 -> ~nu^*_tau nu_tau)
     8.46189970E-01    2     1000022        23   # BR(chi^0_3 -> chi^0_1 Z)
     4.60473272E-02    2     1000022        25   # BR(chi^0_3 -> chi^0_1 h^0)
     9.41698285E-07    2     1000022        22   # BR(chi^0_3 -> chi^0_1 photon)
     2.72682931E-09    2     1000023        22   # BR(chi^0_3 -> chi^0_2 photon)
#    BR                NDA      ID1      ID2       ID3
     4.68296406E-10    3     1000022         2        -2   # BR(chi^0_3 -> chi^0_1 u u_bar)
     5.64553331E-10    3     1000022         4        -4   # BR(chi^0_3 -> chi^0_1 c c_bar)
     1.22300949E-04    3     1000022         6        -6   # BR(chi^0_3 -> chi^0_1 t t_bar)
     1.28310185E-10    3     1000022         1        -1   # BR(chi^0_3 -> chi^0_1 d d_bar)
     5.33501982E-10    3     1000022         3        -3   # BR(chi^0_3 -> chi^0_1 s s_bar)
     1.09645704E-06    3     1000022         5        -5   # BR(chi^0_3 -> chi^0_1 b b_bar)
     2.21327950E-07    3     1000022        11       -11   # BR(chi^0_3 -> chi^0_1 e^- e^+)
     2.68999224E-07    3     1000022        13       -13   # BR(chi^0_3 -> chi^0_1 mu^- mu^+)
     1.34160671E-05    3     1000022        15       -15   # BR(chi^0_3 -> chi^0_1 tau^- tau^+)
     1.60851923E-05    3     1000023         2        -2   # BR(chi^0_3 -> chi^0_2 u u_bar)
     1.59980365E-05    3     1000023         4        -4   # BR(chi^0_3 -> chi^0_2 c c_bar)
     2.08669960E-05    3     1000023         1        -1   # BR(chi^0_3 -> chi^0_2 d d_bar)
     2.08661675E-05    3     1000023         3        -3   # BR(chi^0_3 -> chi^0_2 s s_bar)
     1.92421717E-05    3     1000023         5        -5   # BR(chi^0_3 -> chi^0_2 b b_bar)
     4.79266853E-06    3     1000023        11       -11   # BR(chi^0_3 -> chi^0_2 e^- e^+)
     4.79243703E-06    3     1000023        13       -13   # BR(chi^0_3 -> chi^0_2 mu^- mu^+)
     4.72700314E-06    3     1000023        15       -15   # BR(chi^0_3 -> chi^0_2 tau^- tau^+)
     2.86577031E-05    3     1000023        12       -12   # BR(chi^0_3 -> chi^0_2 nu_e nu_bar_e)
     6.70171973E-05    3     1000024         1        -2   # BR(chi^0_3 -> chi^+_1 d u_bar)
     6.70171973E-05    3    -1000024        -1         2   # BR(chi^0_3 -> chi^-_1 d_bar u)
     6.67553452E-05    3     1000024         3        -4   # BR(chi^0_3 -> chi^+_1 s c_bar)
     6.67553452E-05    3    -1000024        -3         4   # BR(chi^0_3 -> chi^-_1 s_bar c)
     2.23210340E-05    3     1000024        11       -12   # BR(chi^0_3 -> chi^+_1 e^- nu_bar_e)
     2.23210340E-05    3    -1000024       -11        12   # BR(chi^0_3 -> chi^-_1 e^+ nu_e)
     2.23209181E-05    3     1000024        13       -14   # BR(chi^0_3 -> chi^+_1 mu^- nu_bar_mu)
     2.23209181E-05    3    -1000024       -13        14   # BR(chi^0_3 -> chi^-_1 mu^+ nu_mu)
     2.21262041E-05    3     1000024        15       -16   # BR(chi^0_3 -> chi^+_1 tau^- nu_bar_tau)
     2.21262041E-05    3    -1000024       -15        16   # BR(chi^0_3 -> chi^-_1 tau^+ nu_tau)
DECAY   1000035     3.60456268E+00   # chi^0_4
#    BR                NDA      ID1      ID2
     9.48688535E-04    2     2000011       -11   # BR(chi^0_4 -> ~e^-_R e^+)
     9.48688535E-04    2    -2000011        11   # BR(chi^0_4 -> ~e^+_R e^-)
     5.19826002E-02    2     1000011       -11   # BR(chi^0_4 -> ~e^-_L e^+)
     5.19826002E-02    2    -1000011        11   # BR(chi^0_4 -> ~e^+_L e^-)
     9.52199318E-04    2     2000013       -13   # BR(chi^0_4 -> ~mu^-_R mu^+)
     9.52199318E-04    2    -2000013        13   # BR(chi^0_4 -> ~mu^+_R mu^-)
     5.19859837E-02    2     1000013       -13   # BR(chi^0_4 -> ~mu^-_L mu^+)
     5.19859837E-02    2    -1000013        13   # BR(chi^0_4 -> ~mu^+_L mu^-)
     1.95599782E-03    2     1000015       -15   # BR(chi^0_4 -> ~tau^-_1 tau^+)
     1.95599782E-03    2    -1000015        15   # BR(chi^0_4 -> ~tau^+_1 tau^-)
     5.29403138E-02    2     2000015       -15   # BR(chi^0_4 -> ~tau^-_2 tau^+)
     5.29403138E-02    2    -2000015        15   # BR(chi^0_4 -> ~tau^+_2 tau^-)
     6.11644912E-02    2     1000012       -12   # BR(chi^0_4 -> ~nu_e nu_bar_e)
     6.11644912E-02    2    -1000012        12   # BR(chi^0_4 -> ~nu^*_e nu_e)
     6.11656344E-02    2     1000014       -14   # BR(chi^0_4 -> ~nu_mu nu_bar_mu)
     6.11656344E-02    2    -1000014        14   # BR(chi^0_4 -> ~nu^*_mu nu_mu)
     6.14880104E-02    2     1000016       -16   # BR(chi^0_4 -> ~nu_tau nu_bar_tau)
     6.14880104E-02    2    -1000016        16   # BR(chi^0_4 -> ~nu^*_tau nu_tau)
     1.26293353E-01    2     1000024       -24   # BR(chi^0_4 -> chi^+_1 W^-)
     1.26293353E-01    2    -1000024        24   # BR(chi^0_4 -> chi^-_1 W^+)
     3.37295858E-03    2     1000022        23   # BR(chi^0_4 -> chi^0_1 Z)
     1.89770643E-04    2     1000023        23   # BR(chi^0_4 -> chi^0_2 Z)
     3.86218420E-02    2     1000022        25   # BR(chi^0_4 -> chi^0_1 h^0)
     1.49252782E-02    2     1000023        25   # BR(chi^0_4 -> chi^0_2 h^0)
     3.54159683E-07    2     1000022        22   # BR(chi^0_4 -> chi^0_1 photon)
     1.02744687E-06    2     1000023        22   # BR(chi^0_4 -> chi^0_2 photon)
     5.69663869E-07    2     1000025        22   # BR(chi^0_4 -> chi^0_3 photon)
#    BR                NDA      ID1      ID2       ID3
     5.69925670E-08    3     1000022         2        -2   # BR(chi^0_4 -> chi^0_1 u u_bar)
     5.69844886E-08    3     1000022         4        -4   # BR(chi^0_4 -> chi^0_1 c c_bar)
     1.87034254E-05    3     1000022         6        -6   # BR(chi^0_4 -> chi^0_1 t t_bar)
     7.19827698E-08    3     1000022         1        -1   # BR(chi^0_4 -> chi^0_1 d d_bar)
     7.20075536E-08    3     1000022         3        -3   # BR(chi^0_4 -> chi^0_1 s s_bar)
     1.50778341E-07    3     1000022         5        -5   # BR(chi^0_4 -> chi^0_1 b b_bar)
     6.92511930E-07    3     1000022        11       -11   # BR(chi^0_4 -> chi^0_1 e^- e^+)
     6.93978754E-07    3     1000022        13       -13   # BR(chi^0_4 -> chi^0_1 mu^- mu^+)
     1.09219207E-06    3     1000022        15       -15   # BR(chi^0_4 -> chi^0_1 tau^- tau^+)
     2.23296937E-09    3     1000023         2        -2   # BR(chi^0_4 -> chi^0_2 u u_bar)
     2.22953279E-09    3     1000023         4        -4   # BR(chi^0_4 -> chi^0_2 c c_bar)
     2.07635851E-09    3     1000023         1        -1   # BR(chi^0_4 -> chi^0_2 d d_bar)
     2.07664495E-09    3     1000023         3        -3   # BR(chi^0_4 -> chi^0_2 s s_bar)
     3.09795474E-09    3     1000023         5        -5   # BR(chi^0_4 -> chi^0_2 b b_bar)
     3.50438553E-07    3     1000023        11       -11   # BR(chi^0_4 -> chi^0_2 e^- e^+)
     3.50471500E-07    3     1000023        13       -13   # BR(chi^0_4 -> chi^0_2 mu^- mu^+)
     3.50785543E-07    3     1000023        15       -15   # BR(chi^0_4 -> chi^0_2 tau^- tau^+)
     7.95204489E-07    3     1000023        12       -12   # BR(chi^0_4 -> chi^0_2 nu_e nu_bar_e)
     1.29510972E-04    3     1000025         2        -2   # BR(chi^0_4 -> chi^0_3 u u_bar)
     1.29486627E-04    3     1000025         4        -4   # BR(chi^0_4 -> chi^0_3 c c_bar)
     1.68058755E-04    3     1000025         1        -1   # BR(chi^0_4 -> chi^0_3 d d_bar)
     1.68058715E-04    3     1000025         3        -3   # BR(chi^0_4 -> chi^0_3 s s_bar)
     1.66694631E-04    3     1000025         5        -5   # BR(chi^0_4 -> chi^0_3 b b_bar)
     3.85292609E-05    3     1000025        11       -11   # BR(chi^0_4 -> chi^0_3 e^- e^+)
     3.85286468E-05    3     1000025        13       -13   # BR(chi^0_4 -> chi^0_3 mu^- mu^+)
     3.83273438E-05    3     1000025        15       -15   # BR(chi^0_4 -> chi^0_3 tau^- tau^+)
     2.31616461E-04    3     1000025        12       -12   # BR(chi^0_4 -> chi^0_3 nu_e nu_bar_e)
     1.49178988E-09    3     1000024         1        -2   # BR(chi^0_4 -> chi^+_1 d u_bar)
     1.49178988E-09    3    -1000024        -1         2   # BR(chi^0_4 -> chi^-_1 d_bar u)
     1.49238080E-09    3     1000024         3        -4   # BR(chi^0_4 -> chi^+_1 s c_bar)
     1.49238080E-09    3    -1000024        -3         4   # BR(chi^0_4 -> chi^-_1 s_bar c)
     2.31574501E-07    3     1000024        11       -12   # BR(chi^0_4 -> chi^+_1 e^- nu_bar_e)
     2.31574501E-07    3    -1000024       -11        12   # BR(chi^0_4 -> chi^-_1 e^+ nu_e)
     2.31582468E-07    3     1000024        13       -14   # BR(chi^0_4 -> chi^+_1 mu^- nu_bar_mu)
     2.31582468E-07    3    -1000024       -13        14   # BR(chi^0_4 -> chi^-_1 mu^+ nu_mu)
     2.31018253E-07    3     1000024        15       -16   # BR(chi^0_4 -> chi^+_1 tau^- nu_bar_tau)
     2.31018253E-07    3    -1000024       -15        16   # BR(chi^0_4 -> chi^-_1 tau^+ nu_tau)
DECAY   1000021     7.88808300E+00   # ~g
#    BR                NDA      ID1      ID2
     4.74726055E-02    2     2000002        -2   # BR(~g -> ~u_R u_bar)
     4.74726055E-02    2    -2000002         2   # BR(~g -> ~u^*_R u)
     6.52053285E-03    2     1000002        -2   # BR(~g -> ~u_L u_bar)
     6.52053285E-03    2    -1000002         2   # BR(~g -> ~u^*_L u)
     4.74717672E-02    2     2000004        -4   # BR(~g -> ~c_R c_bar)
     4.74717672E-02    2    -2000004         4   # BR(~g -> ~c^*_R c)
     6.51970413E-03    2     1000004        -4   # BR(~g -> ~c_L c_bar)
     6.51970413E-03    2    -1000004         4   # BR(~g -> ~c^*_L c)
     9.57839703E-06    2     1000006        -4   # BR(~g -> ~t_1 c_bar)
     9.57839703E-06    2    -1000006         4   # BR(~g -> ~t^*_1 c)
     1.59709975E-01    2     1000006        -6   # BR(~g -> ~t_1 t_bar)
     1.59709975E-01    2    -1000006         6   # BR(~g -> ~t^*_1 t)
     5.25275080E-02    2     2000001        -1   # BR(~g -> ~d_R d_bar)
     5.25275080E-02    2    -2000001         1   # BR(~g -> ~d^*_R d)
     6.21302286E-03    2     1000001        -1   # BR(~g -> ~d_L d_bar)
     6.21302286E-03    2    -1000001         1   # BR(~g -> ~d^*_L d)
     5.25285507E-02    2     2000003        -3   # BR(~g -> ~s_R s_bar)
     5.25285507E-02    2    -2000003         3   # BR(~g -> ~s^*_R s)
     6.21354779E-03    2     1000003        -3   # BR(~g -> ~s_L s_bar)
     6.21354779E-03    2    -1000003         3   # BR(~g -> ~s^*_L s)
     5.54447376E-02    2     1000005        -5   # BR(~g -> ~b_1 b_bar)
     5.54447376E-02    2    -1000005         5   # BR(~g -> ~b^*_1 b)
     4.36303369E-02    2     2000005        -5   # BR(~g -> ~b_2 b_bar)
     4.36303369E-02    2    -2000005         5   # BR(~g -> ~b^*_2 b)
     5.74758219E-08    2     1000039        21   # BR(~g -> ~G g)
     5.99276406E-06    2     1000022        21   # BR(~g -> chi^0_1 g)
     1.47832749E-04    2     1000023        21   # BR(~g -> chi^0_2 g)
     1.97391449E-04    2     1000025        21   # BR(~g -> chi^0_3 g)
     5.84895509E-05    2     1000035        21   # BR(~g -> chi^0_4 g)
#    BR                NDA      ID1      ID2       ID3
     2.55027249E-04    3     1000022         6        -6   # BR(~g -> chi^0_1 t t_bar)
     5.62309606E-03    3     1000023         6        -6   # BR(~g -> chi^0_2 t t_bar)
     7.84324762E-03    3     1000025         6        -6   # BR(~g -> chi^0_3 t t_bar)
     8.02164308E-03    3     1000035         6        -6   # BR(~g -> chi^0_4 t t_bar)
     9.96132300E-04    3     1000024         5        -6   # BR(~g -> chi^+_1 b t_bar)
     9.96132300E-04    3    -1000024        -5         6   # BR(~g -> chi^-_1 b_bar t)
     3.66561169E-03    3     1000037         5        -6   # BR(~g -> chi^+_2 b t_bar)
     3.66561169E-03    3    -1000037        -5         6   # BR(~g -> chi^-_2 b_bar t)
DECAY        25     2.82670627E-03   # h^0
#    BR                NDA      ID1      ID2
     8.05680958E-09    2          11       -11   # BR(h^0 -> e^- e^+)
     3.44451178E-04    2          13       -13   # BR(h^0 -> mu^- mu^+)
     9.72046716E-02    2          15       -15   # BR(h^0 -> tau^- tau^+)
     6.92002823E-07    2           1        -1   # BR(h^0 -> d d_bar)
     2.49812603E-04    2           3        -3   # BR(h^0 -> s s_bar)
     6.48669707E-01    2           5        -5   # BR(h^0 -> b b_bar)
     1.58176778E-07    2           2        -2   # BR(h^0 -> u u_bar)
     4.08114544E-02    2           4        -4   # BR(h^0 -> c c_bar)
     9.15233728E-02    2          21        21   # BR(h^0 -> g g)
     3.08558379E-03    2          22        22   # BR(h^0 -> photon photon)
# writing decays into V V* as 3-body decays
#    BR                NDA      ID1      ID2       ID3
     5.42899568E-03    3          24        11        12   # BR(h^0 -> W^+ e^- nu_e)
     5.42899568E-03    3          24        13        14   # BR(h^0 -> W^+ mu^- nu_mu)
     5.42899568E-03    3          24        15        16   # BR(h^0 -> W^+ tau^- nu_tau)
     1.90014849E-02    3          24         1        -2   # BR(h^0 -> W^+ d u_bar)
     1.90014849E-02    3          24         3        -4   # BR(h^0 -> W^+ s c_bar)
     5.42899568E-03    3         -24       -11       -12   # BR(h^0 -> W^- e^+ nu_bar_e)
     5.42899568E-03    3         -24       -13       -14   # BR(h^0 -> W^- mu^+ nu_bar_mu)
     5.42899568E-03    3         -24       -15       -16   # BR(h^0 -> W^- tau^+ nu_bar_tau)
     1.90014849E-02    3         -24        -1         2   # BR(h^0 -> W^- d_bar u)
     1.90014849E-02    3         -24        -3         4   # BR(h^0 -> W^- s_bar c)
     3.20213885E-04    3          23        11       -11   # BR(h^0 -> Z e^- e^+)
     3.20213885E-04    3          23        13       -13   # BR(h^0 -> Z mu^- mu^+)
     3.22119920E-04    3          23        15       -15   # BR(h^0 -> Z tau^- tau^+)
     1.90603503E-03    3          23        12       -12   # BR(h^0 -> Z nu_e nu_bar_e)
     1.48670732E-03    3          23         1        -1   # BR(h^0 -> Z d d_bar)
     1.48670732E-03    3          23         3        -3   # BR(h^0 -> Z s s_bar)
     1.43905645E-03    3          23         5        -5   # BR(h^0 -> Z b b_bar)
     1.10550032E-03    3          23         2        -2   # BR(h^0 -> Z u u_bar)
     1.14362102E-03    3          23         4        -4   # BR(h^0 -> Z c c_bar)
DECAY        35     1.97389734E+00   # H^0
#    BR                NDA      ID1      ID2
     8.75589204E-09    2          11       -11   # BR(H^0 -> e^- e^+)
     3.74342137E-04    2          13       -13   # BR(H^0 -> mu^- mu^+)
     1.05896857E-01    2          15       -15   # BR(H^0 -> tau^- tau^+)
     6.25413575E-07    2           1        -1   # BR(H^0 -> d d_bar)
     2.25774147E-04    2           3        -3   # BR(H^0 -> s s_bar)
     6.05297333E-01    2           5        -5   # BR(H^0 -> b b_bar)
     2.00214939E-11    2           2        -2   # BR(H^0 -> u u_bar)
     5.16683654E-06    2           4        -4   # BR(H^0 -> c c_bar)
     2.71130287E-01    2           6        -6   # BR(H^0 -> t t_bar)
     8.41051486E-05    2     2000011  -2000011   # BR(H^0 -> ~e^-_R ~e^+_R)
     8.40650504E-05    2     2000013  -2000013   # BR(H^0 -> ~mu^-_R ~mu^+_R)
     1.21025107E-11    2     2000013  -1000013   # BR(H^0 -> ~mu^-_R ~mu^+_L)
     1.21025107E-11    2    -2000013   1000013   # BR(H^0 -> ~mu^+_R ~mu^-_L)
     7.30786985E-05    2     1000015  -1000015   # BR(H^0 -> ~tau^-_1 ~tau^+_1)
     2.70548660E-09    2     1000015  -2000015   # BR(H^0 -> ~tau^-_1 ~tau^+_2)
     2.70548660E-09    2    -1000015   2000015   # BR(H^0 -> ~tau^+_1 ~tau^-_2)
     1.42595336E-03    2     1000022   1000022   # BR(H^0 -> chi^0_1 chi^0_1)
     4.54128770E-03    2          23        23   # BR(H^0 -> Z Z)
     8.65097497E-03    2          24       -24   # BR(H^0 -> W^+ W^-)
     2.02579644E-03    2          25        25   # BR(H^0 -> h^0 h^0)
     1.82767467E-04    2          21        21   # BR(H^0 -> g g)
     1.57097095E-06    2          22        22   # BR(H^0 -> photon photon)
DECAY        36     1.97639332E+00   # A^0
#    BR                NDA      ID1      ID2
     8.74647258E-09    2          11       -11   # BR(A^0 -> e^- e^+)
     3.73939440E-04    2          13       -13   # BR(A^0 -> mu^- mu^+)
     1.05784082E-01    2          15       -15   # BR(A^0 -> tau^- tau^+)
     6.24739303E-07    2           1        -1   # BR(A^0 -> d d_bar)
     2.25530711E-04    2           3        -3   # BR(A^0 -> s s_bar)
     6.04648381E-01    2           5        -5   # BR(A^0 -> b b_bar)
     1.92524946E-11    2           2        -2   # BR(A^0 -> u u_bar)
     4.96837905E-06    2           4        -4   # BR(A^0 -> c c_bar)
     2.81961293E-01    2           6        -6   # BR(A^0 -> t t_bar)
     1.34311763E-10    2     2000013  -1000013   # BR(A^0 -> ~mu^-_R ~mu^+_L)
     1.34311763E-10    2    -2000013   1000013   # BR(A^0 -> ~mu^+_R ~mu^-_L)
     3.79693928E-08    2     1000015  -2000015   # BR(A^0 -> ~tau^-_1 ~tau^+_2)
     3.79693928E-08    2    -1000015   2000015   # BR(A^0 -> ~tau^+_1 ~tau^-_2)
     6.12336261E-03    2     1000022   1000022   # BR(A^0 -> chi^0_1 chi^0_1)
     7.69795946E-04    2          25        23   # BR(A^0 -> h^0 Z)
     1.07206327E-04    2          21        21   # BR(A^0 -> g g)
     7.31149242E-07    2          22        22   # BR(A^0 -> photon photon)
DECAY        37     1.68752226E+00   # H^+
#    BR                NDA      ID1      ID2
     1.02757069E-08    2         -11        12   # BR(H^+ -> e^+ nu_e)
     4.39319058E-04    2         -13        12   # BR(H^+ -> mu^+ nu_e)
     1.24279388E-01    2         -15        12   # BR(H^+ -> tau^+ nu_e)
     6.44932204E-07    2          -1         2   # BR(H^+ -> d_bar u)
     2.37941322E-04    2          -3         4   # BR(H^+ -> s_bar c)
     8.74153487E-01    2          -5         6   # BR(H^+ -> b_bar t)
     1.96751141E-09    2    -2000013   1000014   # BR(H^+ -> ~mu^+_R ~nu_mu)
     5.54794563E-07    2    -1000015   1000016   # BR(H^+ -> ~tau^+_1 ~nu_tau)
     8.88653019E-04    2          25        24   # BR(H^+ -> h^0 W^+)
DECAY         6     2.43000000E+00   # top
#    BR                NDA      ID1      ID2
     1.00000000E+00    2           5        24   # BR(t -> b W)
Block HiggsBoundsInputHiggsCouplingsFermions
# ScalarNormEffCoupSq PseudoSNormEffCoupSq NP IP1 IP2 IP2
    1.03838541E+00    0.00000000E+00        3  25   5   5  # h0-b-b eff. coupling^2, normalised to SM
    9.12331053E+01    0.00000000E+00        3  35   5   5  # H0-b-b eff. coupling^2, normalised to SM
    0.00000000E+00    9.12714908E+01        3  36   5   5  # A0-b-b eff. coupling^2, normalised to SM
#
    9.99579437E-01    0.00000000E+00        3  25   6   6  # h0-t-t eff. coupling^2, normalised to SM
    1.13768868E-02    0.00000000E+00        3  35   6   6  # H0-t-t eff. coupling^2, normalised to SM
    0.00000000E+00    1.09563237E-02        3  36   6   6  # A0-t-t eff. coupling^2, normalised to SM
#
    1.03838541E+00    0.00000000E+00        3  25  15  15  # h0-tau-tau eff. coupling^2, normalised to SM
    9.12331053E+01    0.00000000E+00        3  35  15  15  # H0-tau-tau eff. coupling^2, normalised to SM
    0.00000000E+00    9.12714908E+01        3  36  15  15  # A0-tau-tau eff. coupling^2, normalised to SM
#
Block HiggsBoundsInputHiggsCouplingsBosons
    9.99996039E-01        3  25  24  24  # h0-W-W eff. coupling^2, normalised to SM
    3.96104714E-06        3  35  24  24  # H0-W-W eff. coupling^2, normalised to SM
    0.00000000E+00        3  36  24  24  # A0-W-W eff. coupling^2, normalised to SM
#
    9.99996039E-01        3  25  23  23  # h0-Z-Z eff. coupling^2, normalised to SM
    3.96104714E-06        3  35  23  23  # H0-Z-Z eff. coupling^2, normalised to SM
    0.00000000E+00        3  36  23  23  # A0-Z-Z eff. coupling^2, normalised to SM
#
    1.16209683E+00        3  25  21  21  # h0-g-g eff. coupling^2, normalised to SM
    8.89797816E-03        3  35  21  21  # H0-g-g eff. coupling^2, normalised to SM
    1.28645229E-01        3  36  21  21  # A0-g-g eff. coupling^2, normalised to SM
#
    0.00000000E+00        3  25  25  23  # h0-h0-Z eff. coupling^2, normalised to SM
    0.00000000E+00        3  35  25  23  # H0-h0-Z eff. coupling^2, normalised to SM
    3.96104714E-06        3  36  25  23  # A0-h0-Z eff. coupling^2, normalised to SM
    0.00000000E+00        3  35  35  23  # H0-H0-Z eff. coupling^2, normalised to SM
    9.99996039E-01        3  36  35  23  # A0-H0-Z eff. coupling^2, normalised to SM
    0.00000000E+00        3  36  36  23  # A0-A0-Z eff. coupling^2, normalised to SM
#
    0.00000000E+00        4  25  21  21  23  # h0-g-g-Z eff. coupling^2, normalised to SM
    0.00000000E+00        4  35  21  21  23  # H0-g-g-Z eff. coupling^2, normalised to SM
    0.00000000E+00        4  36  21  21  23  # A0-g-g-Z eff. coupling^2, normalised to SM
Block SPhenoLowEnergy  # low energy observables
    1    3.38991678E-04   # BR(b -> s gamma)
    2    1.58845282E-06   # BR(b -> s mu+ mu-)
    3    3.52812840E-05   # BR(b -> s nu nu)
    4    2.09796701E-15   # BR(Bd -> e+ e-)
    5    8.96227760E-11   # BR(Bd -> mu+ mu-)
    6    1.87598823E-08   # BR(Bd -> tau+ tau-)
    7    7.06964307E-14   # BR(Bs -> e+ e-)
    8    3.02014951E-09   # BR(Bs -> mu+ mu-)
    9    6.40537106E-07   # BR(Bs -> tau+ tau-)
   10    9.64795911E-05   # BR(B_u -> tau nu)
   11    9.96747056E-01   # BR(B_u -> tau nu)/BR(B_u -> tau nu)_SM
   12    5.42152302E-01   # |Delta(M_Bd)| [ps^-1] 
   13    1.93709942E+01   # |Delta(M_Bs)| [ps^-1] 
   16    2.15757239E-03   # epsilon_K
   17    2.28166007E-15   # Delta(M_K)
   18    2.48175379E-11   # BR(K^0 -> pi^0 nu nu)
   19    8.29484794E-11   # BR(K^+ -> pi^+ nu nu)
   20    5.06342593E-15   # Delta(g-2)_electron/2
   21    2.16479822E-10   # Delta(g-2)_muon/2
   22    6.14270475E-08   # Delta(g-2)_tau/2
   23    0.00000000E+00   # electric dipole moment of the electron
   24    0.00000000E+00   # electric dipole moment of the muon
   25    0.00000000E+00   # electric dipole moment of the tau
   26    0.00000000E+00   # Br(mu -> e gamma)
   27    0.00000000E+00   # Br(tau -> e gamma)
   28    0.00000000E+00   # Br(tau -> mu gamma)
   29    0.00000000E+00   # Br(mu -> 3 e)
   30    0.00000000E+00   # Br(tau -> 3 e)
   31    0.00000000E+00   # Br(tau -> 3 mu)
   39    9.17287019E-06   # Delta(rho_parameter)
   40    0.00000000E+00   # BR(Z -> e mu)
   41    0.00000000E+00   # BR(Z -> e tau)
   42    0.00000000E+00   # BR(Z -> mu tau)
Block FWCOEF Q=  1.60000000E+02  # Wilson coefficients at scale Q
#    id        order  M        value         comment
     0305 4422   00   0    -1.88867793E-01   # C7
     0305 4422   00   2    -2.07293306E-01   # C7
     0305 4322   00   2    -3.68066291E-04   # C7'
     0305 6421   00   0    -9.52433083E-02   # C8
     0305 6421   00   2    -1.19676043E-01   # C8
     0305 6321   00   2    -4.81885790E-04   # C8'
 03051111 4133   00   0     1.19834689E+00   # C9 e+e-
 03051111 4133   00   2     1.19950926E+00   # C9 e+e-
 03051111 4233   00   2    -1.91452000E-06   # C9' e+e-
 03051111 4137   00   0    -4.02349816E+00   # C10 e+e-
 03051111 4137   00   2    -4.02157605E+00   # C10 e+e-
 03051111 4237   00   2     4.48824311E-05   # C10' e+e-
 03051313 4133   00   0     1.19834689E+00   # C9 mu+mu-
 03051313 4133   00   2     1.19950906E+00   # C9 mu+mu-
 03051313 4233   00   2    -1.91455705E-06   # C9' mu+mu-
 03051313 4137   00   0    -4.02349816E+00   # C10 mu+mu-
 03051313 4137   00   2    -4.02157625E+00   # C10 mu+mu-
 03051313 4237   00   2     4.48824601E-05   # C10' mu+mu-
 03051212 4137   00   0     1.50605246E+00   # C11 nu_1 nu_1
 03051212 4137   00   2     1.50560022E+00   # C11 nu_1 nu_1
 03051212 4237   00   2    -1.07394439E-05   # C11' nu_1 nu_1
 03051414 4137   00   0     1.50605246E+00   # C11 nu_2 nu_2
 03051414 4137   00   2     1.50560022E+00   # C11 nu_2 nu_2
 03051414 4237   00   2    -1.07394356E-05   # C11' nu_2 nu_2
 03051616 4137   00   0     1.50605246E+00   # C11 nu_3 nu_3
 03051616 4137   00   2     1.50560026E+00   # C11 nu_3 nu_3
 03051616 4237   00   2    -1.07370951E-05   # C11' nu_3 nu_3
Block IMFWCOEF Q=  1.60000000E+02  # Im(Wilson coefficients) at scale Q
#    id        order  M        value         comment
     0305 4422   00   0     3.86145792E-07   # C7
     0305 4422   00   2     3.82537356E-06   # C7
     0305 4322   00   2     9.61908502E-07   # C7'
     0305 6421   00   0     3.30759250E-07   # C8
     0305 6421   00   2     4.26476968E-07   # C8
     0305 6321   00   2     3.71860384E-07   # C8'
 03051111 4133   00   2     5.82601361E-08   # C9 e+e-
 03051111 4233   00   2     2.46668259E-08   # C9' e+e-
 03051111 4137   00   2    -2.40926440E-06   # C10 e+e-
 03051111 4237   00   2    -5.70615901E-07   # C10' e+e-
 03051313 4133   00   2     5.82569697E-08   # C9 mu+mu-
 03051313 4233   00   2     2.46667875E-08   # C9' mu+mu-
 03051313 4137   00   2    -2.40926699E-06   # C10 mu+mu-
 03051313 4237   00   2    -5.70616006E-07   # C10' mu+mu-
 03051212 4137   00   2     7.10418166E-07   # C11 nu_1 nu_1
 03051212 4237   00   2     1.36537110E-07   # C11' nu_1 nu_1
 03051414 4137   00   2     7.10418128E-07   # C11 nu_2 nu_2
 03051414 4237   00   2     1.36537110E-07   # C11' nu_2 nu_2
 03051616 4137   00   2     7.10407244E-07   # C11 nu_3 nu_3
 03051616 4237   00   2     1.36537111E-07   # C11' nu_3 nu_3
