#  ISAJET SUSY parameters in SUSY Les Houches Accord 2 format
#  Created by ISALHA 2.0 Last revision: C. Balazs 21 Apr 2009
Block SPINFO   # Program information
     1   ISASUGRA from ISAJET          # Spectrum Calculator
     2   7.80   29-OCT-2009 12:50:36   # Version number
Block MODSEL   # Model selection
     1     3   # Minimal anomaly mediated (AMSB) model             
Block SMINPUTS   # Standard Model inputs
     1     1.27836258E+02   # alpha_em^(-1)
     2     1.16570000E-05   # G_Fermi
     3     1.17200002E-01   # alpha_s(M_Z)
     4     9.11699982E+01   # m_{Z}(pole)
     5     4.19999981E+00   # m_{b}(m_{b})
     6     1.72500000E+02   # m_{top}(pole)
     7     1.77699995E+00   # m_{tau}(pole)
Block MINPAR   # SUSY breaking input parameters
     1     5.00000000E+03   # m_0
     2     2.61600000E+05   # m_{3/2}
     3     5.00000000E+00   # tan(beta)
     4     1.00000000E+00   # sign(mu)
Block EXTPAR   # Non-universal SUSY breaking parameters
     0     8.56621349E+15   # Input scale
Block MASS   # Scalar and gaugino mass spectrum
#  PDG code   mass                 particle
         5     4.80000000E+00   # b-quark pole mass calculated from mb(mb)_Msbar
         6     1.72500000E+02   # t-quark pole mass (not read by ME)
        15     1.77682000E+00   # tau pole mass (not read by ME)
        23     9.11876000E+01   # Z pole mass (not read by ME)
        24     8.04229965E+01   #  W^+
        25     1.16893112E+02   #  h^0            
        35     6.49585547E+03   #  H^0            
        36     6.45328320E+03   #  A^0            
        37     6.49622363E+03   #  H^+            
   1000001     6.79083301E+03   #  dnl            
   1000002     6.79038965E+03   #  upl            
   1000003     6.79083301E+03   #  stl            
   1000004     6.79038965E+03   #  chl            
   1000005     5.80112451E+03   #  b1             
   1000006     4.58355420E+03   #  t1             
   1000011     4.88522461E+03   #  el-            
   1000012     4.88425928E+03   #  nuel           
   1000013     4.88522461E+03   #  mul-           
   1000014     4.88425928E+03   #  numl           
   1000015     4.84715283E+03   #  tau1           
   1000016     4.87737109E+03   #  nutl           
   1000021     5.15916162E+03   #  glss           
   1000022     7.49596619E+02   #  z1ss           
   1000023     2.43574438E+03   #  z2ss           
   1000024     7.49770203E+02   #  w1ss           
   1000025    -4.06203003E+03   #  z3ss           
   1000035     4.06338306E+03   #  z4ss           
   1000037     4.06754395E+03   #  w2ss           
   2000001     6.85852539E+03   #  dnr            
   2000002     6.82421387E+03   #  upr            
   2000003     6.85852539E+03   #  str            
   2000004     6.82421387E+03   #  chr            
   2000005     6.81556152E+03   #  b2             
   2000006     5.83776221E+03   #  t2             
   2000011     4.86129443E+03   #  er-            
   2000013     4.86129443E+03   #  mur-           
   2000015     4.87898877E+03   #  tau2           
Block ALPHA   # Effective Higgs mixing parameter
         -1.97501391E-01   # alpha
Block STOPMIX   # stop mixing matrix
  1  1     3.19723971E-02   # O_{11}
  1  2    -9.99488771E-01   # O_{12}
  2  1     9.99488771E-01   # O_{21}
  2  2     3.19723971E-02   # O_{22}
Block SBOTMIX   # sbottom mixing matrix
  1  1     9.99994040E-01   # O_{11}
  1  2     3.45949968E-03   # O_{12}
  2  1    -3.45949968E-03   # O_{21}
  2  2     9.99994040E-01   # O_{22}
Block STAUMIX   # stau mixing matrix
  1  1     1.30961046E-01   # O_{11}
  1  2     9.91387486E-01   # O_{12}
  2  1    -9.91387486E-01   # O_{21}
  2  2     1.30961046E-01   # O_{22}
Block NMIX   # neutralino mixing matrix
  1  1    -4.04696184E-04   #
  1  2     9.99796391E-01   #
  1  3    -1.93747468E-02   #
  1  4     5.64598851E-03   #
  2  1     9.99807537E-01   #
  2  2     7.82267656E-04   #
  2  3     1.63110197E-02   #
  2  4    -1.08874738E-02   #
  3  1    -3.84092331E-03   #
  3  2     9.70566366E-03   #
  3  3     7.06989408E-01   #
  3  4     7.07147241E-01   #
  4  1     1.92426331E-02   #
  4  2    -1.76807214E-02   #
  4  3    -7.06770718E-01   #
  4  4     7.06960082E-01   #
Block UMIX   # chargino U mixing matrix
  1  1    -9.99602318E-01   # U_{11}
  1  2     2.81991959E-02   # U_{12}
  2  1    -2.81991959E-02   # U_{21}
  2  2    -9.99602318E-01   # U_{22}
Block VMIX   # chargino V mixing matrix
  1  1    -9.99940455E-01   # V_{11}
  1  2     1.09148677E-02   # V_{12}
  2  1    -1.09148677E-02   # V_{21}
  2  2    -9.99940455E-01   # V_{22}
Block GAUGE Q=  4.96469482E+03   #
     1     3.57524991E-01   # g`
     2     6.52378619E-01   # g_2
     3     1.21928012E+00   # g_3
Block YU Q=  4.96469482E+03   #
  3  3     8.26414764E-01   # y_t
Block YD Q=  4.96469482E+03   #
  3  3     6.37722090E-02   # y_b
Block YE Q=  4.96469482E+03   #
  3  3     5.14685102E-02   # y_tau
Block HMIX Q=  4.96469482E+03   # Higgs mixing parameters
     1     4.04105542E+03   # mu(Q)
     2     5.00000000E+00   # tan(beta)(M_GUT)
     3     2.52312912E+02   # Higgs vev at Q
     4     4.16448640E+07   # m_A^2(Q)
Block MSOFT Q=  4.96469482E+03   # DRbar SUSY breaking parameters
     1     2.44665723E+03   # M_1(Q)          
     2     6.99794983E+02   # M_2(Q)          
     3    -4.74872119E+03   # M_3(Q)          
    21     3.23374943E+04   # mH1^2(Q)            
    22    -1.28800134E+05   # mH2^2(Q)            
    31     4.86738672E+03   # MeL(Q)          
    32     4.86738672E+03   # MmuL(Q)         
    33     4.86070801E+03   # MtauL(Q)        
    34     4.85379980E+03   # MeR(Q)          
    35     4.85379980E+03   # MmuR(Q)         
    36     4.84030664E+03   # MtauR(Q)        
    41     6.55650488E+03   # MqL1(Q)         
    42     6.55650488E+03   # MqL2(Q)         
    43     5.58666260E+03   # MqL3(Q)         
    44     6.59069238E+03   # MuR(Q)          
    45     6.59069238E+03   # McR(Q)          
    46     4.41197119E+03   # MtR(Q)          
    47     6.62534521E+03   # MdR(Q)          
    48     6.62534521E+03   # MsR(Q)          
    49     6.63894678E+03   # MbR(Q)          
Block AU Q=  4.96469482E+03   #
  1  1     4.04891870E+03   # A_u
  2  2     4.04891870E+03   # A_c
  3  3     4.04891870E+03   # A_t
Block AD Q=  4.96469482E+03   #
  1  1     9.59805371E+03   # A_d
  2  2     9.59805371E+03   # A_s
  3  3     9.59805371E+03   # A_b
Block AE Q=  4.96469482E+03   #
  1  1     2.72080737E+03   # A_e
  2  2     2.72080737E+03   # A_mu
  3  3     2.72080737E+03   # A_tau
#
#  ISAJET decay tables in SUSY Les Houches accord format
#  Created by ISALHD. Last revision: C. Balazs, 2005 May 25
Block DCINFO                           # Program information
     1   ISASUGRA from ISAJET          # Spectrum Calculator
     2   7.80   29-OCT-2009 12:50:36   # Version number
#         PDG         Width
DECAY        23     2.49520000E+00   # Z width (SM calculation)
DECAY        24     2.08500000E+00   # W width (SM calculation)
#
#         PDG            Width  
DECAY         6  1.14680779E+00   # TP    decays
#          BR          NDA       ID1       ID2       ID3       ID4
      3.33333343E-01    3            2        -1         5             # TP     -->  UP     DB     BT          
      3.33333343E-01    3            4        -3         5             # TP     -->  CH     SB     BT          
      1.11111112E-01    3          -11        12         5             # TP     -->  E+     NUE    BT          
      1.11111112E-01    3          -13        14         5             # TP     -->  MU+    NUM    BT          
      1.11111112E-01    3          -15        16         5             # TP     -->  TAU+   NUT    BT          
#         PDG         Width
DECAY   1000021  4.38431931E+00   # GLSS  decays
#          BR          NDA       ID1       ID2       ID3       ID4
      2.23751063E-03    3      1000024         1        -2             # GLSS   -->  W1SS+  DN     UB          
      2.23751063E-03    3     -1000024         2        -1             # GLSS   -->  W1SS-  UP     DB          
      2.23751063E-03    3      1000024         3        -4             # GLSS   -->  W1SS+  ST     CB          
      2.23751063E-03    3     -1000024         4        -3             # GLSS   -->  W1SS-  CH     SB          
      6.17947662E-03    3      1000024         5        -6             # GLSS   -->  W1SS+  BT     TB          
      6.17947662E-03    3     -1000024         6        -5             # GLSS   -->  W1SS-  TP     BB          
      7.29928029E-09    3      1000037         1        -2             # GLSS   -->  W2SS+  DN     UB          
      7.29928029E-09    3     -1000037         2        -1             # GLSS   -->  W2SS-  UP     DB          
      7.29928029E-09    3      1000037         3        -4             # GLSS   -->  W2SS+  ST     CB          
      7.29928029E-09    3     -1000037         4        -3             # GLSS   -->  W2SS-  CH     SB          
      7.36792645E-05    3      1000037         5        -6             # GLSS   -->  W2SS+  BT     TB          
      7.36792645E-05    3     -1000037         6        -5             # GLSS   -->  W2SS-  TP     BB          
      1.03688604E-08    2      1000022        21                       # GLSS   -->  Z1SS   GL                 
      1.11897383E-03    3      1000022         2        -2             # GLSS   -->  Z1SS   UP     UB          
      1.11887662E-03    3      1000022         1        -1             # GLSS   -->  Z1SS   DN     DB          
      1.11887662E-03    3      1000022         3        -3             # GLSS   -->  Z1SS   ST     SB          
      1.11897383E-03    3      1000022         4        -4             # GLSS   -->  Z1SS   CH     CB          
      3.20400205E-03    3      1000022         5        -5             # GLSS   -->  Z1SS   BT     BB          
      2.97493557E-03    3      1000022         6        -6             # GLSS   -->  Z1SS   TP     TB          
      6.66515461E-06    2      1000023        21                       # GLSS   -->  Z2SS   GL                 
      1.33509748E-04    3      1000023         2        -2             # GLSS   -->  Z2SS   UP     UB          
      3.83495681E-05    3      1000023         1        -1             # GLSS   -->  Z2SS   DN     DB          
      3.83495681E-05    3      1000023         3        -3             # GLSS   -->  Z2SS   ST     SB          
      1.33509748E-04    3      1000023         4        -4             # GLSS   -->  Z2SS   CH     CB          
      5.88810326E-05    3      1000023         5        -5             # GLSS   -->  Z2SS   BT     BB          
      2.65725685E-05    3      1000023         6        -6             # GLSS   -->  Z2SS   TP     TB          
      1.85664737E-06    2      1000025        21                       # GLSS   -->  Z3SS   GL                 
      1.58564961E-09    3      1000025         2        -2             # GLSS   -->  Z3SS   UP     UB          
      1.96962180E-09    3      1000025         1        -1             # GLSS   -->  Z3SS   DN     DB          
      1.96962180E-09    3      1000025         3        -3             # GLSS   -->  Z3SS   ST     SB          
      1.58564961E-09    3      1000025         4        -4             # GLSS   -->  Z3SS   CH     CB          
      8.98498911E-07    3      1000025         5        -5             # GLSS   -->  Z3SS   BT     BB          
      6.29523565E-05    3      1000025         6        -6             # GLSS   -->  Z3SS   TP     TB          
      2.31266972E-06    2      1000035        21                       # GLSS   -->  Z4SS   GL                 
      2.44102205E-09    3      1000035         2        -2             # GLSS   -->  Z4SS   UP     UB          
      3.08753689E-09    3      1000035         1        -1             # GLSS   -->  Z4SS   DN     DB          
      3.08753689E-09    3      1000035         3        -3             # GLSS   -->  Z4SS   ST     SB          
      2.44102205E-09    3      1000035         4        -4             # GLSS   -->  Z4SS   CH     CB          
      9.00116277E-07    3      1000035         5        -5             # GLSS   -->  Z4SS   BT     BB          
      5.29126228E-05    3      1000035         6        -6             # GLSS   -->  Z4SS   TP     TB          
      4.83665645E-01    2     -1000006         6                       # GLSS   -->  TB1    TP                 
      4.83665645E-01    2      1000006        -6                       # GLSS   -->  TP1    TB                 
#         PDG         Width
DECAY   1000002  1.46665359E+02   # UPL   decays
#          BR          NDA       ID1       ID2       ID3       ID4
      1.90058872E-01    2      1000022         2                       # UPL    -->  Z1SS   UP                 
      5.00684371E-03    2      1000023         2                       # UPL    -->  Z2SS   UP                 
      6.51227674E-06    2      1000025         2                       # UPL    -->  Z3SS   UP                 
      1.60906893E-05    2      1000035         2                       # UPL    -->  Z4SS   UP                 
      4.24613208E-01    2      1000021         2                       # UPL    -->  GLSS   UP                 
      3.80279392E-01    2      1000024         1                       # UPL    -->  W1SS+  DN                 
      1.90900828E-05    2      1000037         1                       # UPL    -->  W2SS+  DN                 
#         PDG         Width
DECAY   1000001  1.46674393E+02   # DNL   decays
#          BR          NDA       ID1       ID2       ID3       ID4
      1.90116584E-01    2      1000022         1                       # DNL    -->  Z1SS   DN                 
      4.92224796E-03    2      1000023         1                       # DNL    -->  Z2SS   DN                 
      8.70900749E-06    2      1000025         1                       # DNL    -->  Z3SS   DN                 
      3.61177772E-05    2      1000035         1                       # DNL    -->  Z4SS   DN                 
      4.24763918E-01    2      1000021         1                       # DNL    -->  GLSS   DN                 
      3.80024910E-01    2     -1000024         2                       # DNL    -->  W1SS-  UP                 
      1.27441061E-04    2     -1000037         2                       # DNL    -->  W2SS-  UP                 
#         PDG         Width
DECAY   1000003  1.46674377E+02   # STL   decays
#          BR          NDA       ID1       ID2       ID3       ID4
      1.90116599E-01    2      1000022         3                       # STL    -->  Z1SS   ST                 
      4.92224842E-03    2      1000023         3                       # STL    -->  Z2SS   ST                 
      8.70900840E-06    2      1000025         3                       # STL    -->  Z3SS   ST                 
      3.61177808E-05    2      1000035         3                       # STL    -->  Z4SS   ST                 
      4.24763978E-01    2      1000021         3                       # STL    -->  GLSS   ST                 
      3.80024910E-01    2     -1000024         4                       # STL    -->  W1SS-  CH                 
      1.27441046E-04    2     -1000037         4                       # STL    -->  W2SS-  CH                 
#         PDG         Width
DECAY   1000004  1.46665344E+02   # CHL   decays
#          BR          NDA       ID1       ID2       ID3       ID4
      1.90058902E-01    2      1000022         4                       # CHL    -->  Z1SS   CH                 
      5.00684371E-03    2      1000023         4                       # CHL    -->  Z2SS   CH                 
      6.51227538E-06    2      1000025         4                       # CHL    -->  Z3SS   CH                 
      1.60906875E-05    2      1000035         4                       # CHL    -->  Z4SS   CH                 
      4.24613148E-01    2      1000021         4                       # CHL    -->  GLSS   CH                 
      3.80279452E-01    2      1000024         3                       # CHL    -->  W1SS+  ST                 
      1.90900846E-05    2      1000037         3                       # CHL    -->  W2SS+  ST                 
#         PDG         Width
DECAY   1000005  1.10605637E+02   # BT1   decays
#          BR          NDA       ID1       ID2       ID3       ID4
      2.13410005E-01    2      1000022         5                       # BT1    -->  Z1SS   BT                 
      4.98512620E-03    2      1000023         5                       # BT1    -->  Z2SS   BT                 
      5.88723691E-04    2      1000025         5                       # BT1    -->  Z3SS   BT                 
      6.07350958E-04    2      1000035         5                       # BT1    -->  Z4SS   BT                 
      1.19258657E-01    2      1000021         5                       # BT1    -->  GLSS   BT                 
      4.25790161E-01    2     -1000024         6                       # BT1    -->  W1SS-  TP                 
      1.73493281E-01    2     -1000037         6                       # BT1    -->  W2SS-  TP                 
      6.18666522E-02    2          -24   1000006                       # BT1    -->  W-     TP1                
#         PDG         Width
DECAY   1000006  1.04970856E+01   # TP1   decays
#          BR          NDA       ID1       ID2       ID3       ID4
      8.48490512E-04    2      1000022         6                       # TP1    -->  Z1SS   TP                 
      5.02624333E-01    2      1000023         6                       # TP1    -->  Z2SS   TP                 
      1.18674286E-01    2      1000025         6                       # TP1    -->  Z3SS   TP                 
      1.23767272E-01    2      1000035         6                       # TP1    -->  Z4SS   TP                 
      1.19172898E-03    2      1000024         5                       # TP1    -->  W1SS+  BT                 
      2.52893835E-01    2      1000037         5                       # TP1    -->  W2SS+  BT                 
#         PDG         Width
DECAY   2000002  7.60047684E+01   # UPR   decays
#          BR          NDA       ID1       ID2       ID3       ID4
      3.24445963E-08    2      1000022         2                       # UPR    -->  Z1SS   UP                 
      1.54487953E-01    2      1000023         2                       # UPR    -->  Z2SS   UP                 
      1.24838959E-06    2      1000025         2                       # UPR    -->  Z3SS   UP                 
      3.13105120E-05    2      1000035         2                       # UPR    -->  Z4SS   UP                 
      8.45479429E-01    2      1000021         2                       # UPR    -->  GLSS   UP                 
#         PDG         Width
DECAY   2000001  6.92456589E+01   # DNR   decays
#          BR          NDA       ID1       ID2       ID3       ID4
      8.94982843E-09    2      1000022         1                       # DNR    -->  Z1SS   DN                 
      4.27292958E-02    2      1000023         1                       # DNR    -->  Z2SS   DN                 
      3.48064987E-07    2      1000025         1                       # DNR    -->  Z3SS   DN                 
      8.72982218E-06    2      1000035         1                       # DNR    -->  Z4SS   DN                 
      9.57261562E-01    2      1000021         1                       # DNR    -->  GLSS   DN                 
#         PDG         Width
DECAY   2000003  6.92456589E+01   # STR   decays
#          BR          NDA       ID1       ID2       ID3       ID4
      8.94982843E-09    2      1000022         3                       # STR    -->  Z1SS   ST                 
      4.27292958E-02    2      1000023         3                       # STR    -->  Z2SS   ST                 
      3.48064987E-07    2      1000025         3                       # STR    -->  Z3SS   ST                 
      8.72982218E-06    2      1000035         3                       # STR    -->  Z4SS   ST                 
      9.57261562E-01    2      1000021         3                       # STR    -->  GLSS   ST                 
#         PDG         Width
DECAY   2000004  7.60047379E+01   # CHR   decays
#          BR          NDA       ID1       ID2       ID3       ID4
      3.24446070E-08    2      1000022         4                       # CHR    -->  Z1SS   CH                 
      1.54487982E-01    2      1000023         4                       # CHR    -->  Z2SS   CH                 
      1.24838971E-06    2      1000025         4                       # CHR    -->  Z3SS   CH                 
      3.13105156E-05    2      1000035         4                       # CHR    -->  Z4SS   CH                 
      8.45479488E-01    2      1000021         4                       # CHR    -->  GLSS   CH                 
#         PDG         Width
DECAY   2000005  6.72771759E+01   # BT2   decays
#          BR          NDA       ID1       ID2       ID3       ID4
      2.09347832E-07    2      1000022         5                       # BT2    -->  Z1SS   BT                 
      4.35428135E-02    2      1000023         5                       # BT2    -->  Z2SS   BT                 
      1.80462329E-03    2      1000025         5                       # BT2    -->  Z3SS   BT                 
      1.81311648E-03    2      1000035         5                       # BT2    -->  Z4SS   BT                 
      9.47608352E-01    2      1000021         5                       # BT2    -->  GLSS   BT                 
      3.14908561E-07    2     -1000024         6                       # BT2    -->  W1SS-  TP                 
      3.60983866E-03    2     -1000037         6                       # BT2    -->  W2SS-  TP                 
      6.14437340E-06    2          -24   1000006                       # BT2    -->  W-     TP1                
      6.84819592E-04    2          -24   2000006                       # BT2    -->  W-     TP2                
      3.83671926E-04    2           23   1000005                       # BT2    -->  Z0     BT1                
      5.46102761E-04    2           25   1000005                       # BT2    -->  HL0    BT1                
#         PDG         Width
DECAY   2000006  1.15959969E+02   # TP2   decays
#          BR          NDA       ID1       ID2       ID3       ID4
      1.19033933E-01    2      1000021         6                       # TP2    -->  GLSS   TP                 
      4.09839720E-01    2      1000024         5                       # TP2    -->  W1SS+  BT                 
      1.22931949E-03    2      1000037         5                       # TP2    -->  W2SS+  BT                 
      3.23259346E-02    2           23   1000006                       # TP2    -->  Z0     TP1                
      5.71261384E-02    2           25   1000006                       # TP2    -->  HL0    TP1                
      2.04404354E-01    2      1000022         6                       # TP2    -->  Z1SS   TP                 
      5.16829826E-03    2      1000023         6                       # TP2    -->  Z2SS   TP                 
      8.60049352E-02    2      1000025         6                       # TP2    -->  Z3SS   TP                 
      8.48673582E-02    2      1000035         6                       # TP2    -->  Z4SS   TP                 
#         PDG         Width
DECAY   1000011  6.22901649E+01   # EL-   decays
#          BR          NDA       ID1       ID2       ID3       ID4
      3.14493775E-01    2      1000022        11                       # EL-    -->  Z1SS   E-                 
      5.64441755E-02    2      1000023        11                       # EL-    -->  Z2SS   E-                 
      1.81357188E-06    2      1000025        11                       # EL-    -->  Z3SS   E-                 
      1.58234502E-06    2      1000035        11                       # EL-    -->  Z4SS   E-                 
      6.29009247E-01    2     -1000024        12                       # EL-    -->  W1SS-  NUE                
      4.93997322E-05    2     -1000037        12                       # EL-    -->  W2SS-  NUE                
#         PDG         Width
DECAY   1000013  6.22901649E+01   # MUL-  decays
#          BR          NDA       ID1       ID2       ID3       ID4
      3.14493775E-01    2      1000022        13                       # MUL-   -->  Z1SS   MU-                
      5.64441755E-02    2      1000023        13                       # MUL-   -->  Z2SS   MU-                
      1.81357188E-06    2      1000025        13                       # MUL-   -->  Z3SS   MU-                
      1.58234502E-06    2      1000035        13                       # MUL-   -->  Z4SS   MU-                
      6.29009247E-01    2     -1000024        14                       # MUL-   -->  W1SS-  NUM                
      4.93997322E-05    2     -1000037        14                       # MUL-   -->  W2SS-  NUM                
#         PDG         Width
DECAY   1000015  1.46750469E+01   # TAU1- decays
#          BR          NDA       ID1       ID2       ID3       ID4
      2.34730560E-02    2      1000022        15                       # TAU1-  -->  Z1SS   TAU-               
      9.26511049E-01    2      1000023        15                       # TAU1-  -->  Z2SS   TAU-               
      7.88029865E-04    2      1000025        15                       # TAU1-  -->  Z3SS   TAU-               
      7.94402848E-04    2      1000035        15                       # TAU1-  -->  Z4SS   TAU-               
      4.69918177E-02    2     -1000024        16                       # TAU1-  -->  W1SS-  NUT                
      1.44164357E-03    2     -1000037        16                       # TAU1-  -->  W2SS-  NUT                
#         PDG         Width
DECAY   1000012  6.22988014E+01   # NUEL  decays
#          BR          NDA       ID1       ID2       ID3       ID4
      3.14661980E-01    2      1000022        12                       # NUEL   -->  Z1SS   NUE                
      5.60901351E-02    2      1000023        12                       # NUEL   -->  Z2SS   NUE                
      4.38128609E-06    2      1000025        12                       # NUEL   -->  Z3SS   NUE                
      2.49779696E-05    2      1000035        12                       # NUEL   -->  Z4SS   NUE                
      6.29211068E-01    2      1000024        11                       # NUEL   -->  W1SS+  E-                 
      7.38525659E-06    2      1000037        11                       # NUEL   -->  W2SS+  E-                 
#         PDG         Width
DECAY   1000014  6.22988014E+01   # NUML  decays
#          BR          NDA       ID1       ID2       ID3       ID4
      3.14661980E-01    2      1000022        14                       # NUML   -->  Z1SS   NUM                
      5.60901351E-02    2      1000023        14                       # NUML   -->  Z2SS   NUM                
      4.38128609E-06    2      1000025        14                       # NUML   -->  Z3SS   NUM                
      2.49779696E-05    2      1000035        14                       # NUML   -->  Z4SS   NUM                
      6.29211068E-01    2      1000024        13                       # NUML   -->  W1SS+  MU-                
      7.38525659E-06    2      1000037        13                       # NUML   -->  W2SS+  MU-                
#         PDG         Width
DECAY   1000016  6.22217712E+01   # NUTL  decays
#          BR          NDA       ID1       ID2       ID3       ID4
      3.14564317E-01    2      1000022        16                       # NUTL   -->  Z1SS   NUT                
      5.59754856E-02    2      1000023        16                       # NUTL   -->  Z2SS   NUT                
      4.32515117E-06    2      1000025        16                       # NUTL   -->  Z3SS   NUT                
      2.46572690E-05    2      1000035        16                       # NUTL   -->  Z4SS   NUT                
      6.29018605E-01    2      1000024        15                       # NUTL   -->  W1SS+  TAU-               
      4.12626745E-04    2      1000037        15                       # NUTL   -->  W2SS+  TAU-               
      2.16283835E-09    3      1000015        16       -15             # NUTL   -->  TAU1-  NUT    TAU+        
      2.16283835E-09    3      1000015        12       -11             # NUTL   -->  TAU1-  NUE    E+          
      2.16283835E-09    3      1000015        14       -13             # NUTL   -->  TAU1-  NUM    MU+         
      6.48851506E-09    3      1000015         2        -1             # NUTL   -->  TAU1-  UP     DB          
      6.48851506E-09    3      1000015         4        -3             # NUTL   -->  TAU1-  CH     SB          
#         PDG         Width
DECAY   2000011  1.38649044E+01   # ER-   decays
#          BR          NDA       ID1       ID2       ID3       ID4
      2.78349489E-07    2      1000022        11                       # ER-    -->  Z1SS   E-                 
      9.99937356E-01    2      1000023        11                       # ER-    -->  Z2SS   E-                 
      2.39624796E-06    2      1000025        11                       # ER-    -->  Z3SS   E-                 
      5.99583400E-05    2      1000035        11                       # ER-    -->  Z4SS   E-                 
#         PDG         Width
DECAY   2000013  1.38649044E+01   # MUR-  decays
#          BR          NDA       ID1       ID2       ID3       ID4
      2.78349489E-07    2      1000022        13                       # MUR-   -->  Z1SS   MU-                
      9.99937356E-01    2      1000023        13                       # MUR-   -->  Z2SS   MU-                
      2.39624796E-06    2      1000025        13                       # MUR-   -->  Z3SS   MU-                
      5.99583400E-05    2      1000035        13                       # MUR-   -->  Z4SS   MU-                
#         PDG         Width
DECAY   2000015  6.13619194E+01   # TAU2- decays
#          BR          NDA       ID1       ID2       ID3       ID4
      3.13153237E-01    2      1000022        15                       # TAU2-  -->  Z1SS   TAU-               
      5.99923134E-02    2      1000023        15                       # TAU2-  -->  Z2SS   TAU-               
      2.18220899E-04    2      1000025        15                       # TAU2-  -->  Z3SS   TAU-               
      2.28722260E-04    2      1000035        15                       # TAU2-  -->  Z4SS   TAU-               
      6.26314700E-01    2     -1000024        16                       # TAU2-  -->  W1SS-  NUT                
      9.28183144E-05    2     -1000037        16                       # TAU2-  -->  W2SS-  NUT                
#         PDG         Width
DECAY   1000023  1.28959762E-02   # Z2SS  decays
#          BR          NDA       ID1       ID2       ID3       ID4
      9.63292166E-08    2      1000022        22                       # Z2SS   -->  Z1SS   GM                 
      3.75718176E-01    2      1000024       -24                       # Z2SS   -->  W1SS+  W-                 
      3.75718176E-01    2     -1000024        24                       # Z2SS   -->  W1SS-  W+                 
      1.78170316E-02    2      1000022        23                       # Z2SS   -->  Z1SS   Z0                 
      1.16598218E-04    3      1000022         2        -2             # Z2SS   -->  Z1SS   UP     UB          
      1.14625247E-04    3      1000022         1        -1             # Z2SS   -->  Z1SS   DN     DB          
      1.14625247E-04    3      1000022         3        -3             # Z2SS   -->  Z1SS   ST     SB          
      1.16598218E-04    3      1000022         4        -4             # Z2SS   -->  Z1SS   CH     CB          
      2.26206525E-04    3      1000022         5        -5             # Z2SS   -->  Z1SS   BT     BB          
      1.47392449E-03    3      1000022        11       -11             # Z2SS   -->  Z1SS   E-     E+          
      1.47392449E-03    3      1000022        13       -13             # Z2SS   -->  Z1SS   MU-    MU+         
      1.48345937E-03    3      1000022        15       -15             # Z2SS   -->  Z1SS   TAU-   TAU+        
      1.46817951E-03    3      1000022        12       -12             # Z2SS   -->  Z1SS   NUE    ANUE        
      1.46817951E-03    3      1000022        14       -14             # Z2SS   -->  Z1SS   NUM    ANUM        
      1.47764455E-03    3      1000022        16       -16             # Z2SS   -->  Z1SS   NUT    ANUT        
      2.21212581E-01    2      1000022        25                       # Z2SS   -->  Z1SS   HL0                
#         PDG         Width
DECAY   1000025  2.97239189E+01   # Z3SS  decays
#          BR          NDA       ID1       ID2       ID3       ID4
      4.46956179E-08    2      1000022        22                       # Z3SS   -->  Z1SS   GM                 
      2.77511187E-08    2      1000023        22                       # Z3SS   -->  Z2SS   GM                 
      3.29538912E-01    2      1000024       -24                       # Z3SS   -->  W1SS+  W-                 
      3.29538912E-01    2     -1000024        24                       # Z3SS   -->  W1SS-  W+                 
      2.09560066E-01    2      1000022        23                       # Z3SS   -->  Z1SS   Z0                 
      7.19012842E-02    2      1000023        23                       # Z3SS   -->  Z2SS   Z0                 
      1.65737690E-09    3      1000022         2        -2             # Z3SS   -->  Z1SS   UP     UB          
      2.21606067E-09    3      1000022         1        -1             # Z3SS   -->  Z1SS   DN     DB          
      2.21606067E-09    3      1000022         3        -3             # Z3SS   -->  Z1SS   ST     SB          
      1.65737690E-09    3      1000022         4        -4             # Z3SS   -->  Z1SS   CH     CB          
      1.23281279E-06    3      1000022         5        -5             # Z3SS   -->  Z1SS   BT     BB          
      2.50146170E-09    3      1000022        11       -11             # Z3SS   -->  Z1SS   E-     E+          
      2.50146170E-09    3      1000022        13       -13             # Z3SS   -->  Z1SS   MU-    MU+         
      5.53915982E-07    3      1000022        15       -15             # Z3SS   -->  Z1SS   TAU-   TAU+        
      6.06944894E-09    3      1000022        12       -12             # Z3SS   -->  Z1SS   NUE    ANUE        
      6.06944894E-09    3      1000022        14       -14             # Z3SS   -->  Z1SS   NUM    ANUM        
      6.12835205E-09    3      1000022        16       -16             # Z3SS   -->  Z1SS   NUT    ANUT        
      1.03893586E-11    3      1000023         2        -2             # Z3SS   -->  Z2SS   UP     UB          
      5.81859300E-12    3      1000023         1        -1             # Z3SS   -->  Z2SS   DN     DB          
      5.81859300E-12    3      1000023         3        -3             # Z3SS   -->  Z2SS   ST     SB          
      1.03893586E-11    3      1000023         4        -4             # Z3SS   -->  Z2SS   CH     CB          
      1.39792924E-08    3      1000023         5        -5             # Z3SS   -->  Z2SS   BT     BB          
      1.68235120E-10    3      1000023        11       -11             # Z3SS   -->  Z2SS   E-     E+          
      1.68235120E-10    3      1000023        13       -13             # Z3SS   -->  Z2SS   MU-    MU+         
      1.10511195E-07    3      1000023        15       -15             # Z3SS   -->  Z2SS   TAU-   TAU+        
      1.77519582E-10    3      1000023        12       -12             # Z3SS   -->  Z2SS   NUE    ANUE        
      1.77519582E-10    3      1000023        14       -14             # Z3SS   -->  Z2SS   NUM    ANUM        
      1.79645104E-10    3      1000023        16       -16             # Z3SS   -->  Z2SS   NUT    ANUT        
      5.67422099E-02    2      1000022        25                       # Z3SS   -->  Z1SS   HL0                
      2.71658925E-03    2      1000023        25                       # Z3SS   -->  Z2SS   HL0                
#         PDG         Width
DECAY   1000035  2.56402359E+01   # Z4SS  decays
#          BR          NDA       ID1       ID2       ID3       ID4
      6.30943831E-09    2      1000022        22                       # Z4SS   -->  Z1SS   GM                 
      4.90759717E-08    2      1000023        22                       # Z4SS   -->  Z2SS   GM                 
      6.26144712E-15    2      1000025        22                       # Z4SS   -->  Z3SS   GM                 
      2.48937443E-01    2      1000024       -24                       # Z4SS   -->  W1SS+  W-                 
      2.48937443E-01    2     -1000024        24                       # Z4SS   -->  W1SS-  W+                 
      7.32369125E-02    2      1000022        23                       # Z4SS   -->  Z1SS   Z0                 
      3.34451743E-03    2      1000023        23                       # Z4SS   -->  Z2SS   Z0                 
      7.96370614E-09    3      1000022         2        -2             # Z4SS   -->  Z1SS   UP     UB          
      1.78726864E-08    3      1000022         1        -1             # Z4SS   -->  Z1SS   DN     DB          
      1.78726864E-08    3      1000022         3        -3             # Z4SS   -->  Z1SS   ST     SB          
      7.96370614E-09    3      1000022         4        -4             # Z4SS   -->  Z1SS   CH     CB          
      1.45858894E-06    3      1000022         5        -5             # Z4SS   -->  Z1SS   BT     BB          
      3.90726962E-09    3      1000022        11       -11             # Z4SS   -->  Z1SS   E-     E+          
      3.90726962E-09    3      1000022        13       -13             # Z4SS   -->  Z1SS   MU-    MU+         
      6.41721329E-07    3      1000022        15       -15             # Z4SS   -->  Z1SS   TAU-   TAU+        
      6.19409661E-08    3      1000022        12       -12             # Z4SS   -->  Z1SS   NUE    ANUE        
      6.19409661E-08    3      1000022        14       -14             # Z4SS   -->  Z1SS   NUM    ANUM        
      6.24999572E-08    3      1000022        16       -16             # Z4SS   -->  Z1SS   NUT    ANUT        
      5.25813282E-10    3      1000023         2        -2             # Z4SS   -->  Z2SS   UP     UB          
      1.01031690E-10    3      1000023         1        -1             # Z4SS   -->  Z2SS   DN     DB          
      1.01031690E-10    3      1000023         3        -3             # Z4SS   -->  Z2SS   ST     SB          
      5.25813282E-10    3      1000023         4        -4             # Z4SS   -->  Z2SS   CH     CB          
      1.61889151E-08    3      1000023         5        -5             # Z4SS   -->  Z2SS   BT     BB          
      6.99212421E-09    3      1000023        11       -11             # Z4SS   -->  Z2SS   E-     E+          
      6.99212421E-09    3      1000023        13       -13             # Z4SS   -->  Z2SS   MU-    MU+         
      1.35270213E-07    3      1000023        15       -15             # Z4SS   -->  Z2SS   TAU-   TAU+        
      2.91873414E-09    3      1000023        12       -12             # Z4SS   -->  Z2SS   NUE    ANUE        
      2.91873414E-09    3      1000023        14       -14             # Z4SS   -->  Z2SS   NUM    ANUM        
      2.95096569E-09    3      1000023        16       -16             # Z4SS   -->  Z2SS   NUT    ANUT        
      6.53749990E-14    3      1000025         2        -2             # Z4SS   -->  Z3SS   UP     UB          
      8.43014894E-14    3      1000025         1        -1             # Z4SS   -->  Z3SS   DN     DB          
      1.91237491E-14    3      1000025        11       -11             # Z4SS   -->  Z3SS   E-     E+          
      1.91237491E-14    3      1000025        13       -13             # Z4SS   -->  Z3SS   MU-    MU+         
      3.80502379E-14    3      1000025        12       -12             # Z4SS   -->  Z3SS   NUE    ANUE        
      3.80502379E-14    3      1000025        14       -14             # Z4SS   -->  Z3SS   NUM    ANUM        
      3.80502379E-14    3      1000025        16       -16             # Z4SS   -->  Z3SS   NUT    ANUT        
      3.12169880E-01    2      1000022        25                       # Z4SS   -->  Z1SS   HL0                
      1.13371372E-01    2      1000023        25                       # Z4SS   -->  Z2SS   HL0                
#         PDG         Width
DECAY   1000024  1.18352238E-14   # W1SS+ decays
#          BR          NDA       ID1       ID2       ID3       ID4
      3.84638369E-01    2      1000022         0                       # W1SS+  -->  Z1SS   PI+                
      3.07680815E-01    3      1000022       -11        12             # W1SS+  -->  Z1SS   E+     NUE         
      3.07680815E-01    3      1000022       -13        14             # W1SS+  -->  Z1SS   MU+    NUM         
#         PDG         Width
DECAY   1000037  3.12390938E+01   # W2SS+ decays
#          BR          NDA       ID1       ID2       ID3       ID4
      1.99231138E-08    3      1000022         2        -1             # W2SS+  -->  Z1SS   UP     DB          
      1.99231138E-08    3      1000022         4        -3             # W2SS+  -->  Z1SS   CH     SB          
      4.15018881E-08    3      1000022       -11        12             # W2SS+  -->  Z1SS   E+     NUE         
      4.15018881E-08    3      1000022       -13        14             # W2SS+  -->  Z1SS   MU+    NUM         
      5.69879489E-07    3      1000022       -15        16             # W2SS+  -->  Z1SS   TAU+   NUT         
      3.26125205E-01    2      1000022        24                       # W2SS+  -->  Z1SS   W+                 
      1.07991290E-10    3      1000023         2        -1             # W2SS+  -->  Z2SS   UP     DB          
      1.07991290E-10    3      1000023         4        -3             # W2SS+  -->  Z2SS   CH     SB          
      2.52066812E-09    3      1000023       -11        12             # W2SS+  -->  Z2SS   E+     NUE         
      2.52066812E-09    3      1000023       -13        14             # W2SS+  -->  Z2SS   MU+    NUM         
      1.09179538E-07    3      1000023       -15        16             # W2SS+  -->  Z2SS   TAU+   NUT         
      7.11114779E-02    2      1000023        24                       # W2SS+  -->  Z2SS   W+                 
      6.72106537E-11    3      1000025         2        -1             # W2SS+  -->  Z3SS   UP     DB          
      6.72106537E-11    3      1000025         4        -3             # W2SS+  -->  Z3SS   CH     SB          
      2.24035478E-11    3      1000025       -11        12             # W2SS+  -->  Z3SS   E+     NUE         
      2.24035478E-11    3      1000025       -13        14             # W2SS+  -->  Z3SS   MU+    NUM         
      2.24036917E-11    3      1000025       -15        16             # W2SS+  -->  Z3SS   TAU+   NUT         
      1.89092891E-11    3      1000035         2        -1             # W2SS+  -->  Z4SS   UP     DB          
      1.89092891E-11    3      1000035         4        -3             # W2SS+  -->  Z4SS   CH     SB          
      6.30309780E-12    3      1000035       -11        12             # W2SS+  -->  Z4SS   E+     NUE         
      6.30309780E-12    3      1000035       -13        14             # W2SS+  -->  Z4SS   MU+    NUM         
      6.30313336E-12    3      1000035       -15        16             # W2SS+  -->  Z4SS   TAU+   NUT         
      2.92393625E-01    2      1000024        23                       # W2SS+  -->  W1SS+  Z0                 
      6.25193364E-09    3      1000024         1        -1             # W2SS+  -->  W1SS+  DN     DB          
      6.25193364E-09    3      1000024         3        -3             # W2SS+  -->  W1SS+  ST     SB          
      4.16888604E-08    3      1000024         2        -2             # W2SS+  -->  W1SS+  UP     UB          
      4.16888604E-08    3      1000024         4        -4             # W2SS+  -->  W1SS+  CH     CB          
      8.41113987E-08    3      1000024        12       -12             # W2SS+  -->  W1SS+  NUE    ANUE        
      8.41113987E-08    3      1000024        14       -14             # W2SS+  -->  W1SS+  NUM    ANUM        
      8.85722500E-08    3      1000024        16       -16             # W2SS+  -->  W1SS+  NUT    ANUT        
      1.26262654E-08    3      1000024        11       -11             # W2SS+  -->  W1SS+  E-     E+          
      1.26262654E-08    3      1000024        13       -13             # W2SS+  -->  W1SS+  MU-    MU+         
      1.27438495E-08    3      1000024        15       -15             # W2SS+  -->  W1SS+  TAU-   TAU+        
      3.10368568E-01    2      1000024        25                       # W2SS+  -->  W1SS+  HL0                
#         PDG         Width
DECAY        25  4.18238621E-03   # HL0   decays
#          BR          NDA       ID1       ID2       ID3       ID4
      4.75464157E-09    2           11       -11                       # HL0    -->  E-     E+                 
      2.00748589E-04    2           13       -13                       # HL0    -->  MU-    MU+                
      5.74180409E-02    2           15       -15                       # HL0    -->  TAU-   TAU+               
      5.96611062E-06    2            1        -1                       # HL0    -->  DN     DB                 
      2.41060765E-03    2            3        -3                       # HL0    -->  ST     SB                 
      7.88420916E-01    2            5        -5                       # HL0    -->  BT     BB                 
      1.90686046E-06    2            2        -2                       # HL0    -->  UP     UB                 
      3.58067378E-02    2            4        -4                       # HL0    -->  CH     CB                 
      1.89796323E-03    2           22        22                       # HL0    -->  GM     GM                 
      4.05744836E-02    2           21        21                       # HL0    -->  GL     GL                 
      3.76135367E-03    3           24        11       -12             # HL0    -->  W+     E-     ANUE        
      3.76135367E-03    3           24        13       -14             # HL0    -->  W+     MU-    ANUM        
      3.76135367E-03    3           24        15       -16             # HL0    -->  W+     TAU-   ANUT        
      1.12840608E-02    3           24        -2         1             # HL0    -->  W+     UB     DN          
      1.12840608E-02    3           24        -4         3             # HL0    -->  W+     CB     ST          
      3.76135367E-03    3          -24       -11        12             # HL0    -->  W-     E+     NUE         
      3.76135367E-03    3          -24       -13        14             # HL0    -->  W-     MU+    NUM         
      3.76135367E-03    3          -24       -15        16             # HL0    -->  W-     TAU+   NUT         
      1.12840608E-02    3          -24         2        -1             # HL0    -->  W-     UP     DB          
      1.12840608E-02    3          -24         4        -3             # HL0    -->  W-     CH     SB          
      3.80161451E-04    3           23        12       -12             # HL0    -->  Z0     NUE    ANUE        
      3.80161451E-04    3           23        14       -14             # HL0    -->  Z0     NUM    ANUM        
      3.80161451E-04    3           23        16       -16             # HL0    -->  Z0     NUT    ANUT        
      1.91331448E-04    3           23        11       -11             # HL0    -->  Z0     E-     E+          
      1.91331448E-04    3           23        13       -13             # HL0    -->  Z0     MU-    MU+         
      1.91331448E-04    3           23        15       -15             # HL0    -->  Z0     TAU-   TAU+        
      6.55485259E-04    3           23         2        -2             # HL0    -->  Z0     UP     UB          
      6.55485259E-04    3           23         4        -4             # HL0    -->  Z0     CH     CB          
      8.44426570E-04    3           23         1        -1             # HL0    -->  Z0     DN     DB          
      8.44426570E-04    3           23         3        -3             # HL0    -->  Z0     ST     SB          
      8.44426570E-04    3           23         5        -5             # HL0    -->  Z0     BT     BB          
#         PDG         Width
DECAY        35  4.31883926E+01   # HH0   decays
#          BR          NDA       ID1       ID2       ID3       ID4
      6.38975928E-10    2           11       -11                       # HH0    -->  E-     E+                 
      2.69787142E-05    2           13       -13                       # HH0    -->  MU-    MU+                
      7.72711402E-03    2           15       -15                       # HH0    -->  TAU-   TAU+               
      7.72597730E-07    2            1        -1                       # HH0    -->  DN     DB                 
      3.12168413E-04    2            3        -3                       # HH0    -->  ST     SB                 
      3.83662060E-02    2            5        -5                       # HH0    -->  BT     BB                 
      3.95964400E-10    2            2        -2                       # HH0    -->  UP     UB                 
      4.56005500E-06    2            4        -4                       # HH0    -->  CH     CB                 
      2.39541844E-01    2            6        -6                       # HH0    -->  TP     TB                 
      2.58209241E-07    2           22        22                       # HH0    -->  GM     GM                 
      2.10359667E-05    2           21        21                       # HH0    -->  GL     GL                 
      2.31272734E-05    2           24       -24                       # HH0    -->  W+     W-                 
      1.18678299E-05    2           23        23                       # HH0    -->  Z0     Z0                 
      3.73338611E-04    2      1000022   1000022                       # HH0    -->  Z1SS   Z1SS               
      2.26848220E-04    2      1000022   1000023                       # HH0    -->  Z1SS   Z2SS               
      1.87324613E-01    2      1000022   1000025                       # HH0    -->  Z1SS   Z3SS               
      5.05887233E-02    2      1000022   1000035                       # HH0    -->  Z1SS   Z4SS               
      2.11940896E-05    2      1000023   1000023                       # HH0    -->  Z2SS   Z2SS               
      7.58938433E-04    2      1000024  -1000024                       # HH0    -->  W1SS+  W1SS-              
      2.37285852E-01    2      1000024  -1000037                       # HH0    -->  W1SS+  W2SS-              
      2.37285852E-01    2     -1000024   1000037                       # HH0    -->  W1SS-  W2SS+              
      9.87163294E-05    2           25        25                       # HH0    -->  HL0    HL0                
#         PDG         Width
DECAY        36  4.23865204E+01   # HA0   decays
#          BR          NDA       ID1       ID2       ID3       ID4
      6.46824594E-10    2           11       -11                       # HA0    -->  E-     E+                 
      2.73100995E-05    2           13       -13                       # HA0    -->  MU-    MU+                
      7.82203022E-03    2           15       -15                       # HA0    -->  TAU-   TAU+               
      7.82118150E-07    2            1        -1                       # HA0    -->  DN     DB                 
      3.16015125E-04    2            3        -3                       # HA0    -->  ST     SB                 
      3.88390087E-02    2            5        -5                       # HA0    -->  BT     BB                 
      4.00403766E-10    2            2        -2                       # HA0    -->  UP     UB                 
      4.61417039E-06    2            4        -4                       # HA0    -->  CH     CB                 
      2.42855608E-01    2            6        -6                       # HA0    -->  TP     TB                 
      1.56904036E-07    2           22        22                       # HA0    -->  GM     GM                 
      2.42311653E-05    2           21        21                       # HA0    -->  GL     GL                 
      5.03970659E-04    2      1000022   1000022                       # HA0    -->  Z1SS   Z1SS               
      4.26298997E-04    2      1000022   1000023                       # HA0    -->  Z1SS   Z2SS               
      5.00150807E-02    2      1000022   1000025                       # HA0    -->  Z1SS   Z3SS               
      1.86328158E-01    2      1000022   1000035                       # HA0    -->  Z1SS   Z4SS               
      8.31949437E-05    2      1000023   1000023                       # HA0    -->  Z2SS   Z2SS               
      1.10630039E-03    2      1000024  -1000024                       # HA0    -->  W1SS+  W1SS-              
      2.35811949E-01    2      1000024  -1000037                       # HA0    -->  W1SS+  W2SS-              
      2.35811949E-01    2     -1000024   1000037                       # HA0    -->  W1SS-  W2SS+              
      2.33939609E-05    2           25        23                       # HA0    -->  HL0    Z0                 
#         PDG         Width
DECAY        37  4.23626976E+01   # H+    decays
#          BR          NDA       ID1       ID2       ID3       ID4
      6.51494692E-10    2           12       -11                       # H+     -->  NUE    E+                 
      2.75072816E-05    2           14       -13                       # H+     -->  NUM    MU+                
      7.87850656E-03    2           16       -15                       # H+     -->  NUT    TAU+               
      7.33978027E-07    2            2        -1                       # H+     -->  UP     DB                 
      3.00737593E-04    2            4        -3                       # H+     -->  CH     SB                 
      2.63842791E-01    2            6        -5                       # H+     -->  TP     BB                 
      5.90708680E-07    2      1000024   1000022                       # H+     -->  W1SS+  Z1SS               
      6.80754019E-04    2      1000024   1000023                       # H+     -->  W1SS+  Z2SS               
      2.42774621E-01    2      1000024   1000025                       # H+     -->  W1SS+  Z3SS               
      2.42418170E-01    2      1000024   1000035                       # H+     -->  W1SS+  Z4SS               
      2.42052078E-01    2      1000037   1000022                       # H+     -->  W2SS+  Z1SS               
      2.35699845E-05    2           25        24                       # H+     -->  HL0    W+                 
