#  ISAJET SUSY parameters in SUSY Les Houches Accord 2 format
#  Created by ISALHA 2.0 Last revision: C. Balazs 21 Apr 2009
Block SPINFO   # Program information
     1   ISASUGRA from ISAJET          # Spectrum Calculator
     2   7.80   29-OCT-2009 12:50:36   # Version number
Block MODSEL   # Model selection
     1     3   # Minimal anomaly mediated (AMSB) model             
Block SMINPUTS   # Standard Model inputs
     1     1.27836258E+02   # alpha_em^(-1)
     2     1.16570000E-05   # G_Fermi
     3     1.17200002E-01   # alpha_s(M_Z)
     4     9.11699982E+01   # m_{Z}(pole)
     5     4.19999981E+00   # m_{b}(m_{b})
     6     1.72500000E+02   # m_{top}(pole)
     7     1.77699995E+00   # m_{tau}(pole)
Block MINPAR   # SUSY breaking input parameters
     1     5.00000000E+03   # m_0
     2     8.52000000E+04   # m_{3/2}
     3     5.00000000E+00   # tan(beta)
     4     1.00000000E+00   # sign(mu)
Block EXTPAR   # Non-universal SUSY breaking parameters
     0     8.56622691E+15   # Input scale
Block MASS   # Scalar and gaugino mass spectrum
#  PDG code   mass                 particle
         5     4.80000000E+00   # b-quark pole mass calculated from mb(mb)_Msbar
         6     1.72500000E+02   # t-quark pole mass (not read by ME)
        15     1.77682000E+00   # tau pole mass (not read by ME)
        23     9.11876000E+01   # Z pole mass (not read by ME)
        24     8.04229965E+01   #  W^+
        25     1.15299606E+02   #  h^0            
        35     5.33666211E+03   #  H^0            
        36     5.30164404E+03   #  A^0            
        37     5.33711816E+03   #  H^+            
   1000001     5.20462109E+03   #  dnl            
   1000002     5.20404053E+03   #  upl            
   1000003     5.20462109E+03   #  stl            
   1000004     5.20404102E+03   #  chl            
   1000005     4.30099805E+03   #  b1             
   1000006     3.12440332E+03   #  t1             
   1000011     4.98088770E+03   #  el-            
   1000012     4.98216260E+03   #  nuel           
   1000013     4.98088770E+03   #  mul-           
   1000014     4.98216260E+03   #  numl           
   1000015     4.96852979E+03   #  tau1           
   1000016     4.97630957E+03   #  nutl           
   1000021     1.96874744E+03   #  glss           
   1000022     2.49832230E+02   #  z1ss           
   1000023     7.92159302E+02   #  z2ss           
   1000024     2.50003891E+02   #  w1ss           
   1000025    -1.58195532E+03   #  z3ss           
   1000035     1.58540161E+03   #  z4ss           
   1000037     1.58681738E+03   #  w2ss           
   2000001     5.23311523E+03   #  dnr            
   2000002     5.22556836E+03   #  upr            
   2000003     5.23311523E+03   #  str            
   2000004     5.22556836E+03   #  chr            
   2000005     5.21176465E+03   #  b2             
   2000006     4.31843896E+03   #  t2             
   2000011     4.98137451E+03   #  er-            
   2000013     4.98137451E+03   #  mur-           
   2000015     4.97477832E+03   #  tau2           
Block ALPHA   # Effective Higgs mixing parameter
         -1.97544575E-01   # alpha
Block STOPMIX   # stop mixing matrix
  1  1     1.24739315E-02   # O_{11}
  1  2    -9.99922216E-01   # O_{12}
  2  1     9.99922216E-01   # O_{21}
  2  2     1.24739315E-02   # O_{22}
Block SBOTMIX   # sbottom mixing matrix
  1  1     9.99997318E-01   # O_{11}
  1  2     2.31536059E-03   # O_{12}
  2  1    -2.31536059E-03   # O_{21}
  2  2     9.99997318E-01   # O_{22}
Block STAUMIX   # stau mixing matrix
  1  1     3.25818479E-01   # O_{11}
  1  2     9.45432365E-01   # O_{12}
  2  1    -9.45432365E-01   # O_{21}
  2  2     3.25818479E-01   # O_{22}
Block NMIX   # neutralino mixing matrix
  1  1     9.51117370E-04   #
  1  2    -9.98569489E-01   #
  1  3     5.06133959E-02   #
  1  4    -1.72152314E-02   #
  2  1    -9.99005795E-01   #
  2  2    -3.27044819E-03   #
  2  3    -3.77729610E-02   #
  2  4     2.34549940E-02   #
  3  1     1.01799592E-02   #
  3  2    -2.36010067E-02   #
  3  3    -7.06410825E-01   #
  3  4    -7.07335353E-01   #
  4  1     4.33945954E-02   #
  4  2    -4.78673130E-02   #
  4  3    -7.04978824E-01   #
  4  4     7.06279635E-01   #
Block UMIX   # chargino U mixing matrix
  1  1    -9.97489214E-01   # U_{11}
  1  2     7.08186254E-02   # U_{12}
  2  1    -7.08186254E-02   # U_{21}
  2  2    -9.97489214E-01   # U_{22}
Block VMIX   # chargino V mixing matrix
  1  1    -9.99664366E-01   # V_{11}
  1  2     2.59057339E-02   # V_{12}
  2  1    -2.59057339E-02   # V_{21}
  2  2    -9.99664366E-01   # V_{22}
Block GAUGE Q=  3.63577710E+03   #
     1     3.57524991E-01   # g`
     2     6.52378619E-01   # g_2
     3     1.21928012E+00   # g_3
Block YU Q=  3.63577710E+03   #
  3  3     8.41193676E-01   # y_t
Block YD Q=  3.63577710E+03   #
  3  3     6.44701347E-02   # y_b
Block YE Q=  3.63577710E+03   #
  3  3     5.15097603E-02   # y_tau
Block HMIX Q=  3.63577710E+03   # Higgs mixing parameters
     1     1.56015686E+03   # mu(Q)
     2     5.00000000E+00   # tan(beta)(M_GUT)
     3     2.52216904E+02   # Higgs vev at Q
     4     2.81074300E+07   # m_A^2(Q)
Block MSOFT Q=  3.63577710E+03   # DRbar SUSY breaking parameters
     1     7.94913208E+02   # M_1(Q)          
     2     2.31651382E+02   # M_2(Q)          
     3    -1.69260596E+03   # M_3(Q)          
    21     3.23374943E+04   # mH1^2(Q)            
    22    -1.28800134E+05   # mH2^2(Q)            
    31     4.96409229E+03   # MeL(Q)          
    32     4.96409229E+03   # MmuL(Q)         
    33     4.95841699E+03   # MtauL(Q)        
    34     4.97618359E+03   # MeR(Q)          
    35     4.97618359E+03   # MmuR(Q)         
    36     4.96515430E+03   # MtauR(Q)        
    41     5.11532471E+03   # MqL1(Q)         
    42     5.11532471E+03   # MqL2(Q)         
    43     4.23285645E+03   # MqL3(Q)         
    44     5.13654590E+03   # MuR(Q)          
    45     5.13654590E+03   # McR(Q)          
    46     3.12292090E+03   # MtR(Q)          
    47     5.14386230E+03   # MdR(Q)          
    48     5.14386230E+03   # MsR(Q)          
    49     5.13702295E+03   # MbR(Q)          
Block AU Q=  3.63577710E+03   #
  1  1     1.36582593E+03   # A_u
  2  2     1.36582593E+03   # A_c
  3  3     1.36582593E+03   # A_t
Block AD Q=  3.63577710E+03   #
  1  1     3.24208911E+03   # A_d
  2  2     3.24208911E+03   # A_s
  3  3     3.24208911E+03   # A_b
Block AE Q=  3.63577710E+03   #
  1  1     8.93687439E+02   # A_e
  2  2     8.93687439E+02   # A_mu
  3  3     8.93687439E+02   # A_tau
#
#  ISAJET decay tables in SUSY Les Houches accord format
#  Created by ISALHD. Last revision: C. Balazs, 2005 May 25
Block DCINFO                           # Program information
     1   ISASUGRA from ISAJET          # Spectrum Calculator
     2   7.80   29-OCT-2009 12:50:36   # Version number
#         PDG         Width
DECAY        23     2.49520000E+00   # Z width (SM calculation)
DECAY        24     2.08500000E+00   # W width (SM calculation)
#
#         PDG            Width  
DECAY         6  1.14680779E+00   # TP    decays
#          BR          NDA       ID1       ID2       ID3       ID4
      3.33333343E-01    3            2        -1         5             # TP     -->  UP     DB     BT          
      3.33333343E-01    3            4        -3         5             # TP     -->  CH     SB     BT          
      1.11111112E-01    3          -11        12         5             # TP     -->  E+     NUE    BT          
      1.11111112E-01    3          -13        14         5             # TP     -->  MU+    NUM    BT          
      1.11111112E-01    3          -15        16         5             # TP     -->  TAU+   NUT    BT          
#         PDG         Width
DECAY   1000021  2.08101724E-03   # GLSS  decays
#          BR          NDA       ID1       ID2       ID3       ID4
      7.41043910E-02    3      1000024         1        -2             # GLSS   -->  W1SS+  DN     UB          
      7.41043910E-02    3     -1000024         2        -1             # GLSS   -->  W1SS-  UP     DB          
      7.41043687E-02    3      1000024         3        -4             # GLSS   -->  W1SS+  ST     CB          
      7.41043687E-02    3     -1000024         4        -3             # GLSS   -->  W1SS-  CH     SB          
      1.61334753E-01    3      1000024         5        -6             # GLSS   -->  W1SS+  BT     TB          
      1.61334753E-01    3     -1000024         6        -5             # GLSS   -->  W1SS-  TP     BB          
      5.96653877E-07    3      1000037         1        -2             # GLSS   -->  W2SS+  DN     UB          
      5.96653877E-07    3     -1000037         2        -1             # GLSS   -->  W2SS-  UP     DB          
      5.96653820E-07    3      1000037         3        -4             # GLSS   -->  W2SS+  ST     CB          
      5.96653820E-07    3     -1000037         4        -3             # GLSS   -->  W2SS-  CH     SB          
      1.85525685E-03    3      1000037         5        -6             # GLSS   -->  W2SS+  BT     TB          
      1.85525685E-03    3     -1000037         6        -5             # GLSS   -->  W2SS-  TP     BB          
      7.63002572E-06    2      1000022        21                       # GLSS   -->  Z1SS   GL                 
      3.70584689E-02    3      1000022         2        -2             # GLSS   -->  Z1SS   UP     UB          
      3.70666012E-02    3      1000022         1        -1             # GLSS   -->  Z1SS   DN     DB          
      3.70666012E-02    3      1000022         3        -3             # GLSS   -->  Z1SS   ST     SB          
      3.70584615E-02    3      1000022         4        -4             # GLSS   -->  Z1SS   CH     CB          
      8.51187110E-02    3      1000022         5        -5             # GLSS   -->  Z1SS   BT     BB          
      7.59641305E-02    3      1000022         6        -6             # GLSS   -->  Z1SS   TP     TB          
      7.60599971E-04    2      1000023        21                       # GLSS   -->  Z2SS   GL                 
      5.60695445E-03    3      1000023         2        -2             # GLSS   -->  Z2SS   UP     UB          
      1.62950798E-03    3      1000023         1        -1             # GLSS   -->  Z2SS   DN     DB          
      1.62950798E-03    3      1000023         3        -3             # GLSS   -->  Z2SS   ST     SB          
      5.60695399E-03    3      1000023         4        -4             # GLSS   -->  Z2SS   CH     CB          
      2.08931859E-03    3      1000023         5        -5             # GLSS   -->  Z2SS   BT     BB          
      4.73279096E-02    3      1000023         6        -6             # GLSS   -->  Z2SS   TP     TB          
      1.46883749E-03    2      1000025        21                       # GLSS   -->  Z3SS   GL                 
      1.28638206E-07    3      1000025         2        -2             # GLSS   -->  Z3SS   UP     UB          
      1.61509007E-07    3      1000025         1        -1             # GLSS   -->  Z3SS   DN     DB          
      1.61509007E-07    3      1000025         3        -3             # GLSS   -->  Z3SS   ST     SB          
      1.28638177E-07    3      1000025         4        -4             # GLSS   -->  Z3SS   CH     CB          
      8.62897195E-06    3      1000025         5        -5             # GLSS   -->  Z3SS   BT     BB          
      3.00253741E-04    3      1000025         6        -6             # GLSS   -->  Z3SS   TP     TB          
      1.38125755E-03    2      1000035        21                       # GLSS   -->  Z4SS   GL                 
      2.05119278E-07    3      1000035         2        -2             # GLSS   -->  Z4SS   UP     UB          
      2.66563916E-07    3      1000035         1        -1             # GLSS   -->  Z4SS   DN     DB          
      2.66563916E-07    3      1000035         3        -3             # GLSS   -->  Z4SS   ST     SB          
      2.05119207E-07    3      1000035         4        -4             # GLSS   -->  Z4SS   CH     CB          
      8.64084905E-06    3      1000035         5        -5             # GLSS   -->  Z4SS   BT     BB          
      3.98316915E-05    3      1000035         6        -6             # GLSS   -->  Z4SS   TP     TB          
#         PDG         Width
DECAY   1000002  2.66769470E+02   # UPL   decays
#          BR          NDA       ID1       ID2       ID3       ID4
      8.14737156E-02    2      1000022         2                       # UPL    -->  Z1SS   UP                 
      2.71930313E-03    2      1000023         2                       # UPL    -->  Z2SS   UP                 
      3.19562932E-05    2      1000025         2                       # UPL    -->  Z3SS   UP                 
      1.07678999E-04    2      1000035         2                       # UPL    -->  Z4SS   UP                 
      7.52215743E-01    2      1000021         2                       # UPL    -->  GLSS   UP                 
      1.63360909E-01    2      1000024         1                       # UPL    -->  W1SS+  DN                 
      9.06725036E-05    2      1000037         1                       # UPL    -->  W2SS+  DN                 
#         PDG         Width
DECAY   1000001  2.66775177E+02   # DNL   decays
#          BR          NDA       ID1       ID2       ID3       ID4
      8.15380290E-02    2      1000022         1                       # DNL    -->  Z1SS   DN                 
      2.53195921E-03    2      1000023         1                       # DNL    -->  Z2SS   DN                 
      4.38712887E-05    2      1000025         1                       # DNL    -->  Z3SS   DN                 
      2.10577782E-04    2      1000035         1                       # DNL    -->  Z4SS   DN                 
      7.52332270E-01    2      1000021         1                       # DNL    -->  GLSS   DN                 
      1.62665606E-01    2     -1000024         2                       # DNL    -->  W1SS-  UP                 
      6.77700620E-04    2     -1000037         2                       # DNL    -->  W2SS-  UP                 
#         PDG         Width
DECAY   1000003  2.66775177E+02   # STL   decays
#          BR          NDA       ID1       ID2       ID3       ID4
      8.15380290E-02    2      1000022         3                       # STL    -->  Z1SS   ST                 
      2.53195921E-03    2      1000023         3                       # STL    -->  Z2SS   ST                 
      4.38712887E-05    2      1000025         3                       # STL    -->  Z3SS   ST                 
      2.10577782E-04    2      1000035         3                       # STL    -->  Z4SS   ST                 
      7.52332270E-01    2      1000021         3                       # STL    -->  GLSS   ST                 
      1.62665606E-01    2     -1000024         4                       # STL    -->  W1SS-  CH                 
      6.77700446E-04    2     -1000037         4                       # STL    -->  W2SS-  CH                 
#         PDG         Width
DECAY   1000004  2.66769440E+02   # CHL   decays
#          BR          NDA       ID1       ID2       ID3       ID4
      8.14737231E-02    2      1000022         4                       # CHL    -->  Z1SS   CH                 
      2.71930336E-03    2      1000023         4                       # CHL    -->  Z2SS   CH                 
      3.19562969E-05    2      1000025         4                       # CHL    -->  Z3SS   CH                 
      1.07679014E-04    2      1000035         4                       # CHL    -->  Z4SS   CH                 
      7.52215743E-01    2      1000021         4                       # CHL    -->  GLSS   CH                 
      1.63360938E-01    2      1000024         3                       # CHL    -->  W1SS+  ST                 
      9.06725400E-05    2      1000037         3                       # CHL    -->  W2SS+  ST                 
#         PDG         Width
DECAY   1000005  2.41885544E+02   # BT1   decays
#          BR          NDA       ID1       ID2       ID3       ID4
      7.41613060E-02    2      1000022         5                       # BT1    -->  Z1SS   BT                 
      2.26011034E-03    2      1000023         5                       # BT1    -->  Z2SS   BT                 
      6.14806020E-04    2      1000025         5                       # BT1    -->  Z3SS   BT                 
      7.49296916E-04    2      1000035         5                       # BT1    -->  Z4SS   BT                 
      5.93404591E-01    2      1000021         5                       # BT1    -->  GLSS   BT                 
      1.47575513E-01    2     -1000024         6                       # BT1    -->  W1SS-  TP                 
      1.77750617E-01    2     -1000037         6                       # BT1    -->  W2SS-  TP                 
      3.48378741E-03    2          -24   1000006                       # BT1    -->  W-     TP1                
#         PDG         Width
DECAY   1000006  1.13566803E+02   # TP1   decays
#          BR          NDA       ID1       ID2       ID3       ID4
      5.42226553E-01    2      1000021         6                       # TP1    -->  GLSS   TP                 
      3.77332653E-05    2      1000022         6                       # TP1    -->  Z1SS   TP                 
      5.38826212E-02    2      1000023         6                       # TP1    -->  Z2SS   TP                 
      1.00485355E-01    2      1000025         6                       # TP1    -->  Z3SS   TP                 
      1.00812778E-01    2      1000035         6                       # TP1    -->  Z4SS   TP                 
      9.30512469E-05    2      1000024         5                       # TP1    -->  W1SS+  BT                 
      2.02461883E-01    2      1000037         5                       # TP1    -->  W2SS+  BT                 
#         PDG         Width
DECAY   2000002  2.13251938E+02   # UPR   decays
#          BR          NDA       ID1       ID2       ID3       ID4
      4.98812618E-08    2      1000022         2                       # UPR    -->  Z1SS   UP                 
      5.27714938E-02    2      1000023         2                       # UPR    -->  Z2SS   UP                 
      4.73649970E-06    2      1000025         2                       # UPR    -->  Z3SS   UP                 
      8.59912980E-05    2      1000035         2                       # UPR    -->  Z4SS   UP                 
      9.47137713E-01    2      1000021         2                       # UPR    -->  GLSS   UP                 
#         PDG         Width
DECAY   2000001  2.05260666E+02   # DNR   decays
#          BR          NDA       ID1       ID2       ID3       ID4
      1.29746960E-08    2      1000022         1                       # DNR    -->  Z1SS   DN                 
      1.37281604E-02    2      1000023         1                       # DNR    -->  Z2SS   DN                 
      1.23271900E-06    2      1000025         1                       # DNR    -->  Z3SS   DN                 
      2.23801126E-05    2      1000035         1                       # DNR    -->  Z4SS   DN                 
      9.86248195E-01    2      1000021         1                       # DNR    -->  GLSS   DN                 
#         PDG         Width
DECAY   2000003  2.05260666E+02   # STR   decays
#          BR          NDA       ID1       ID2       ID3       ID4
      1.29746960E-08    2      1000022         3                       # STR    -->  Z1SS   ST                 
      1.37281604E-02    2      1000023         3                       # STR    -->  Z2SS   ST                 
      1.23271900E-06    2      1000025         3                       # STR    -->  Z3SS   ST                 
      2.23801126E-05    2      1000035         3                       # STR    -->  Z4SS   ST                 
      9.86248195E-01    2      1000021         3                       # STR    -->  GLSS   ST                 
#         PDG         Width
DECAY   2000004  2.13251892E+02   # CHR   decays
#          BR          NDA       ID1       ID2       ID3       ID4
      4.98812582E-08    2      1000022         4                       # CHR    -->  Z1SS   CH                 
      5.27714975E-02    2      1000023         4                       # CHR    -->  Z2SS   CH                 
      4.73650016E-06    2      1000025         4                       # CHR    -->  Z3SS   CH                 
      8.59913052E-05    2      1000035         4                       # CHR    -->  Z4SS   CH                 
      9.47137713E-01    2      1000021         4                       # CHR    -->  GLSS   CH                 
#         PDG         Width
DECAY   2000005  2.04732666E+02   # BT2   decays
#          BR          NDA       ID1       ID2       ID3       ID4
      2.65566155E-06    2      1000022         5                       # BT2    -->  Z1SS   BT                 
      1.37035605E-02    2      1000023         5                       # BT2    -->  Z2SS   BT                 
      9.17016354E-04    2      1000025         5                       # BT2    -->  Z3SS   BT                 
      9.35580174E-04    2      1000035         5                       # BT2    -->  Z4SS   BT                 
      9.82447207E-01    2      1000021         5                       # BT2    -->  GLSS   BT                 
      5.12134466E-06    2     -1000024         6                       # BT2    -->  W1SS-  TP                 
      1.82620867E-03    2     -1000037         6                       # BT2    -->  W2SS-  TP                 
      9.84504780E-08    2          -24   1000006                       # BT2    -->  W-     TP1                
      7.33614361E-05    2          -24   2000006                       # BT2    -->  W-     TP2                
      3.90598871E-05    2           23   1000005                       # BT2    -->  Z0     BT1                
      5.01227223E-05    2           25   1000005                       # BT2    -->  HL0    BT1                
#         PDG         Width
DECAY   2000006  2.43507584E+02   # TP2   decays
#          BR          NDA       ID1       ID2       ID3       ID4
      5.90466857E-01    2      1000021         6                       # TP2    -->  GLSS   TP                 
      1.48304954E-01    2      1000024         5                       # TP2    -->  W1SS+  BT                 
      1.16490154E-03    2      1000037         5                       # TP2    -->  W2SS+  BT                 
      1.81938650E-03    2           23   1000006                       # TP2    -->  Z0     TP1                
      4.84584924E-03    2           25   1000006                       # TP2    -->  HL0    TP1                
      7.37690926E-02    2      1000022         6                       # TP2    -->  Z1SS   TP                 
      2.59740395E-03    2      1000023         6                       # TP2    -->  Z2SS   TP                 
      8.87963250E-02    2      1000025         6                       # TP2    -->  Z3SS   TP                 
      8.82351771E-02    2      1000035         6                       # TP2    -->  Z4SS   TP                 
#         PDG         Width
DECAY   1000011  6.85534515E+01   # EL-   decays
#          BR          NDA       ID1       ID2       ID3       ID4
      3.03112149E-01    2      1000022        11                       # EL-    -->  Z1SS   E-                 
      8.86457860E-02    2      1000023        11                       # EL-    -->  Z2SS   E-                 
      8.01605493E-05    2      1000025        11                       # EL-    -->  Z3SS   E-                 
      1.42473567E-04    2      1000035        11                       # EL-    -->  Z4SS   E-                 
      6.05542898E-01    2     -1000024        12                       # EL-    -->  W1SS-  NUE                
      2.47660349E-03    2     -1000037        12                       # EL-    -->  W2SS-  NUE                
#         PDG         Width
DECAY   1000013  6.85534515E+01   # MUL-  decays
#          BR          NDA       ID1       ID2       ID3       ID4
      3.03112149E-01    2      1000022        13                       # MUL-   -->  Z1SS   MU-                
      8.86457860E-02    2      1000023        13                       # MUL-   -->  Z2SS   MU-                
      8.01605493E-05    2      1000025        13                       # MUL-   -->  Z3SS   MU-                
      1.42473567E-04    2      1000035        13                       # MUL-   -->  Z4SS   MU-                
      6.05542898E-01    2     -1000024        14                       # MUL-   -->  W1SS-  NUM                
      2.47660349E-03    2     -1000037        14                       # MUL-   -->  W2SS-  NUM                
#         PDG         Width
DECAY   1000015  2.91783886E+01   # TAU1- decays
#          BR          NDA       ID1       ID2       ID3       ID4
      7.79926628E-02    2      1000022        15                       # TAU1-  -->  Z1SS   TAU-               
      7.56919622E-01    2      1000023        15                       # TAU1-  -->  Z2SS   TAU-               
      3.06489528E-03    2      1000025        15                       # TAU1-  -->  Z3SS   TAU-               
      2.94586318E-03    2      1000035        15                       # TAU1-  -->  Z4SS   TAU-               
      1.55746132E-01    2     -1000024        16                       # TAU1-  -->  W1SS-  NUT                
      3.33086983E-03    2     -1000037        16                       # TAU1-  -->  W2SS-  NUT                
#         PDG         Width
DECAY   1000012  6.85922852E+01   # NUEL  decays
#          BR          NDA       ID1       ID2       ID3       ID4
      3.03653985E-01    2      1000022        12                       # NUEL   -->  Z1SS   NUE                
      8.65341425E-02    2      1000023        12                       # NUEL   -->  Z2SS   NUE                
      2.10715807E-04    2      1000025        12                       # NUEL   -->  Z3SS   NUE                
      1.27021375E-03    2      1000035        12                       # NUEL   -->  Z4SS   NUE                
      6.07999563E-01    2      1000024        11                       # NUEL   -->  W1SS+  E-                 
      3.31335934E-04    2      1000037        11                       # NUEL   -->  W2SS+  E-                 
#         PDG         Width
DECAY   1000014  6.85922852E+01   # NUML  decays
#          BR          NDA       ID1       ID2       ID3       ID4
      3.03653985E-01    2      1000022        14                       # NUML   -->  Z1SS   NUM                
      8.65341425E-02    2      1000023        14                       # NUML   -->  Z2SS   NUM                
      2.10715807E-04    2      1000025        14                       # NUML   -->  Z3SS   NUM                
      1.27021375E-03    2      1000035        14                       # NUML   -->  Z4SS   NUM                
      6.07999563E-01    2      1000024        13                       # NUML   -->  W1SS+  MU-                
      3.31335934E-04    2      1000037        13                       # NUML   -->  W2SS+  MU-                
#         PDG         Width
DECAY   1000016  6.87343597E+01   # NUTL  decays
#          BR          NDA       ID1       ID2       ID3       ID4
      3.02666724E-01    2      1000022        16                       # NUTL   -->  Z1SS   NUT                
      8.62432942E-02    2      1000023        16                       # NUTL   -->  Z2SS   NUT                
      2.09922349E-04    2      1000025        16                       # NUTL   -->  Z3SS   NUT                
      1.26542768E-03    2      1000035        16                       # NUTL   -->  Z4SS   NUT                
      6.06042504E-01    2      1000024        15                       # NUTL   -->  W1SS+  TAU-               
      3.57219786E-03    2      1000037        15                       # NUTL   -->  W2SS+  TAU-               
      1.15735459E-11    3      1000015        16       -15             # NUTL   -->  TAU1-  NUT    TAU+        
      1.15735459E-11    3      1000015        12       -11             # NUTL   -->  TAU1-  NUE    E+          
      1.15735459E-11    3      1000015        14       -13             # NUTL   -->  TAU1-  NUM    MU+         
      3.47206361E-11    3      1000015         2        -1             # NUTL   -->  TAU1-  UP     DB          
      3.47206361E-11    3      1000015         4        -3             # NUTL   -->  TAU1-  CH     SB          
#         PDG         Width
DECAY   2000011  2.40641651E+01   # ER-   decays
#          BR          NDA       ID1       ID2       ID3       ID4
      9.47671538E-07    2      1000022        11                       # ER-    -->  Z1SS   E-                 
      9.98309493E-01    2      1000023        11                       # ER-    -->  Z2SS   E-                 
      8.82125532E-05    2      1000025        11                       # ER-    -->  Z3SS   E-                 
      1.60134374E-03    2      1000035        11                       # ER-    -->  Z4SS   E-                 
#         PDG         Width
DECAY   2000013  2.40641651E+01   # MUR-  decays
#          BR          NDA       ID1       ID2       ID3       ID4
      9.47671538E-07    2      1000022        13                       # MUR-   -->  Z1SS   MU-                
      9.98309493E-01    2      1000023        13                       # MUR-   -->  Z2SS   MU-                
      8.82125532E-05    2      1000025        13                       # MUR-   -->  Z3SS   MU-                
      1.60134374E-03    2      1000035        13                       # MUR-   -->  Z4SS   MU-                
#         PDG         Width
DECAY   2000015  6.39510117E+01   # TAU2- decays
#          BR          NDA       ID1       ID2       ID3       ID4
      2.88916022E-01    2      1000022        15                       # TAU2-  -->  Z1SS   TAU-               
      1.24180757E-01    2      1000023        15                       # TAU2-  -->  Z2SS   TAU-               
      2.21564504E-03    2      1000025        15                       # TAU2-  -->  Z3SS   TAU-               
      2.88852304E-03    2      1000035        15                       # TAU2-  -->  Z4SS   TAU-               
      5.77188969E-01    2     -1000024        16                       # TAU2-  -->  W1SS-  NUT                
      4.61007608E-03    2     -1000037        16                       # TAU2-  -->  W2SS-  NUT                
#         PDG         Width
DECAY   1000023  9.93757136E-03   # Z2SS  decays
#          BR          NDA       ID1       ID2       ID3       ID4
      1.76987896E-07    2      1000022        22                       # Z2SS   -->  Z1SS   GM                 
      2.31768817E-01    2      1000024       -24                       # Z2SS   -->  W1SS+  W-                 
      2.31768817E-01    2     -1000024        24                       # Z2SS   -->  W1SS-  W+                 
      2.81997323E-02    2      1000022        23                       # Z2SS   -->  Z1SS   Z0                 
      1.42849296E-06    3      1000022         2        -2             # Z2SS   -->  Z1SS   UP     UB          
      1.33026322E-06    3      1000022         1        -1             # Z2SS   -->  Z1SS   DN     DB          
      1.33026322E-06    3      1000022         3        -3             # Z2SS   -->  Z1SS   ST     SB          
      1.42849251E-06    3      1000022         4        -4             # Z2SS   -->  Z1SS   CH     CB          
      2.88830438E-06    3      1000022         5        -5             # Z2SS   -->  Z1SS   BT     BB          
      4.99438693E-06    3      1000022        11       -11             # Z2SS   -->  Z1SS   E-     E+          
      4.99438693E-06    3      1000022        13       -13             # Z2SS   -->  Z1SS   MU-    MU+         
      5.02408466E-06    3      1000022        15       -15             # Z2SS   -->  Z1SS   TAU-   TAU+        
      4.88193928E-06    3      1000022        12       -12             # Z2SS   -->  Z1SS   NUE    ANUE        
      4.88193928E-06    3      1000022        14       -14             # Z2SS   -->  Z1SS   NUM    ANUM        
      4.90522598E-06    3      1000022        16       -16             # Z2SS   -->  Z1SS   NUT    ANUT        
      5.08224368E-01    2      1000022        25                       # Z2SS   -->  Z1SS   HL0                
#         PDG         Width
DECAY   1000025  1.15752077E+01   # Z3SS  decays
#          BR          NDA       ID1       ID2       ID3       ID4
      4.38162061E-07    2      1000022        22                       # Z3SS   -->  Z1SS   GM                 
      2.70649316E-08    2      1000023        22                       # Z3SS   -->  Z2SS   GM                 
      3.04055423E-01    2      1000024       -24                       # Z3SS   -->  W1SS+  W-                 
      3.04055423E-01    2     -1000024        24                       # Z3SS   -->  W1SS-  W+                 
      2.39354894E-01    2      1000022        23                       # Z3SS   -->  Z1SS   Z0                 
      8.72418210E-02    2      1000023        23                       # Z3SS   -->  Z2SS   Z0                 
      5.26479527E-10    3      1000022         2        -2             # Z3SS   -->  Z1SS   UP     UB          
      7.22848115E-10    3      1000022         1        -1             # Z3SS   -->  Z1SS   DN     DB          
      7.22848115E-10    3      1000022         3        -3             # Z3SS   -->  Z1SS   ST     SB          
      5.26479305E-10    3      1000022         4        -4             # Z3SS   -->  Z1SS   CH     CB          
      6.49647021E-08    3      1000022         5        -5             # Z3SS   -->  Z1SS   BT     BB          
      1.44614515E-10    3      1000022        11       -11             # Z3SS   -->  Z1SS   E-     E+          
      1.44614515E-10    3      1000022        13       -13             # Z3SS   -->  Z1SS   MU-    MU+         
      9.24024590E-09    3      1000022        15       -15             # Z3SS   -->  Z1SS   TAU-   TAU+        
      3.80605936E-10    3      1000022        12       -12             # Z3SS   -->  Z1SS   NUE    ANUE        
      3.80605936E-10    3      1000022        14       -14             # Z3SS   -->  Z1SS   NUM    ANUM        
      3.82490040E-10    3      1000022        16       -16             # Z3SS   -->  Z1SS   NUT    ANUT        
      7.42913023E-12    3      1000023         2        -2             # Z3SS   -->  Z2SS   UP     UB          
      3.70022936E-12    3      1000023         1        -1             # Z3SS   -->  Z2SS   DN     DB          
      3.70022936E-12    3      1000023         3        -3             # Z3SS   -->  Z2SS   ST     SB          
      7.42912936E-12    3      1000023         4        -4             # Z3SS   -->  Z2SS   CH     CB          
      1.57285218E-09    3      1000023         5        -5             # Z3SS   -->  Z2SS   BT     BB          
      1.63149771E-11    3      1000023        11       -11             # Z3SS   -->  Z2SS   E-     E+          
      1.63149771E-11    3      1000023        13       -13             # Z3SS   -->  Z2SS   MU-    MU+         
      1.94032657E-09    3      1000023        15       -15             # Z3SS   -->  Z2SS   TAU-   TAU+        
      1.65631519E-11    3      1000023        12       -12             # Z3SS   -->  Z2SS   NUE    ANUE        
      1.65631519E-11    3      1000023        14       -14             # Z3SS   -->  Z2SS   NUM    ANUM        
      1.66465279E-11    3      1000023        16       -16             # Z3SS   -->  Z2SS   NUT    ANUT        
      6.04981706E-02    2      1000022        25                       # Z3SS   -->  Z1SS   HL0                
      4.79373662E-03    2      1000023        25                       # Z3SS   -->  Z2SS   HL0                
#         PDG         Width
DECAY   1000035  1.14228439E+01   # Z4SS  decays
#          BR          NDA       ID1       ID2       ID3       ID4
      7.33927905E-08    2      1000022        22                       # Z4SS   -->  Z1SS   GM                 
      2.67946554E-10    2      1000023        22                       # Z4SS   -->  Z2SS   GM                 
      1.30137014E-12    2      1000025        22                       # Z4SS   -->  Z3SS   GM                 
      2.88738579E-01    2      1000024       -24                       # Z4SS   -->  W1SS+  W-                 
      2.88738579E-01    2     -1000024        24                       # Z4SS   -->  W1SS-  W+                 
      5.92071414E-02    2      1000022        23                       # Z4SS   -->  Z1SS   Z0                 
      5.00612240E-03    2      1000023        23                       # Z4SS   -->  Z2SS   Z0                 
      2.99347880E-09    3      1000022         2        -2             # Z4SS   -->  Z1SS   UP     UB          
      5.85463855E-09    3      1000022         1        -1             # Z4SS   -->  Z1SS   DN     DB          
      5.85463855E-09    3      1000022         3        -3             # Z4SS   -->  Z1SS   ST     SB          
      2.99347813E-09    3      1000022         4        -4             # Z4SS   -->  Z1SS   CH     CB          
      7.72732989E-08    3      1000022         5        -5             # Z4SS   -->  Z1SS   BT     BB          
      4.33300729E-10    3      1000022        11       -11             # Z4SS   -->  Z1SS   E-     E+          
      4.33300729E-10    3      1000022        13       -13             # Z4SS   -->  Z1SS   MU-    MU+         
      9.63628821E-09    3      1000022        15       -15             # Z4SS   -->  Z1SS   TAU-   TAU+        
      3.86776478E-09    3      1000022        12       -12             # Z4SS   -->  Z1SS   NUE    ANUE        
      3.86776478E-09    3      1000022        14       -14             # Z4SS   -->  Z1SS   NUM    ANUM        
      3.88679577E-09    3      1000022        16       -16             # Z4SS   -->  Z1SS   NUT    ANUT        
      2.59102295E-10    3      1000023         2        -2             # Z4SS   -->  Z2SS   UP     UB          
      5.89252883E-11    3      1000023         1        -1             # Z4SS   -->  Z2SS   DN     DB          
      5.89252883E-11    3      1000023         3        -3             # Z4SS   -->  Z2SS   ST     SB          
      2.59102295E-10    3      1000023         4        -4             # Z4SS   -->  Z2SS   CH     CB          
      1.68155168E-09    3      1000023         5        -5             # Z4SS   -->  Z2SS   BT     BB          
      5.16332588E-10    3      1000023        11       -11             # Z4SS   -->  Z2SS   E-     E+          
      5.16332588E-10    3      1000023        13       -13             # Z4SS   -->  Z2SS   MU-    MU+         
      2.49191578E-09    3      1000023        15       -15             # Z4SS   -->  Z2SS   TAU-   TAU+        
      2.70756861E-10    3      1000023        12       -12             # Z4SS   -->  Z2SS   NUE    ANUE        
      2.70756861E-10    3      1000023        14       -14             # Z4SS   -->  Z2SS   NUM    ANUM        
      2.72113471E-10    3      1000023        16       -16             # Z4SS   -->  Z2SS   NUT    ANUT        
      5.96531245E-12    3      1000025         2        -2             # Z4SS   -->  Z3SS   UP     UB          
      7.69231987E-12    3      1000025         1        -1             # Z4SS   -->  Z3SS   DN     DB          
      7.69231987E-12    3      1000025         3        -3             # Z4SS   -->  Z3SS   ST     SB          
      1.74499846E-12    3      1000025        11       -11             # Z4SS   -->  Z3SS   E-     E+          
      1.74499846E-12    3      1000025        13       -13             # Z4SS   -->  Z3SS   MU-    MU+         
      3.47199288E-12    3      1000025        12       -12             # Z4SS   -->  Z3SS   NUE    ANUE        
      3.47199288E-12    3      1000025        14       -14             # Z4SS   -->  Z3SS   NUM    ANUM        
      3.47199288E-12    3      1000025        16       -16             # Z4SS   -->  Z3SS   NUT    ANUT        
      2.59315491E-01    2      1000022        25                       # Z4SS   -->  Z1SS   HL0                
      9.89938751E-02    2      1000023        25                       # Z4SS   -->  Z2SS   HL0                
#         PDG         Width
DECAY   1000024  4.63693703E-15   # W1SS+ decays
#          BR          NDA       ID1       ID2       ID3       ID4
      9.25956428E-01    2      1000022         0                       # W1SS+  -->  Z1SS   PI+                
      3.70217860E-02    3      1000022       -11        12             # W1SS+  -->  Z1SS   E+     NUE         
      3.70217860E-02    3      1000022       -13        14             # W1SS+  -->  Z1SS   MU+    NUM         
#         PDG         Width
DECAY   1000037  1.16063166E+01   # W2SS+ decays
#          BR          NDA       ID1       ID2       ID3       ID4
      7.16707715E-09    3      1000022         2        -1             # W2SS+  -->  Z1SS   UP     DB          
      7.16707715E-09    3      1000022         4        -3             # W2SS+  -->  Z1SS   CH     SB          
      2.86763702E-09    3      1000022       -11        12             # W2SS+  -->  Z1SS   E+     NUE         
      2.86763702E-09    3      1000022       -13        14             # W2SS+  -->  Z1SS   MU+    NUM         
      1.20436088E-08    3      1000022       -15        16             # W2SS+  -->  Z1SS   TAU+   NUT         
      2.93298125E-01    2      1000022        24                       # W2SS+  -->  Z1SS   W+                 
      7.25588270E-11    3      1000023         2        -1             # W2SS+  -->  Z2SS   UP     DB          
      7.25588131E-11    3      1000023         4        -3             # W2SS+  -->  Z2SS   CH     SB          
      2.69715278E-10    3      1000023       -11        12             # W2SS+  -->  Z2SS   E+     NUE         
      2.69715278E-10    3      1000023       -13        14             # W2SS+  -->  Z2SS   MU+    NUM         
      2.22046737E-09    3      1000023       -15        16             # W2SS+  -->  Z2SS   TAU+   NUT         
      9.36505049E-02    2      1000023        24                       # W2SS+  -->  Z2SS   W+                 
      9.68124678E-11    3      1000025         2        -1             # W2SS+  -->  Z3SS   UP     DB          
      9.68124678E-11    3      1000025         4        -3             # W2SS+  -->  Z3SS   CH     SB          
      3.22708180E-11    3      1000025       -11        12             # W2SS+  -->  Z3SS   E+     NUE         
      3.22708180E-11    3      1000025       -13        14             # W2SS+  -->  Z3SS   MU+    NUM         
      3.22708839E-11    3      1000025       -15        16             # W2SS+  -->  Z3SS   TAU+   NUT         
      3.30581428E-13    3      1000035         2        -1             # W2SS+  -->  Z4SS   UP     DB          
      1.10193796E-13    3      1000035       -11        12             # W2SS+  -->  Z4SS   E+     NUE         
      1.10193796E-13    3      1000035       -13        14             # W2SS+  -->  Z4SS   MU+    NUM         
      2.97280759E-01    2      1000024        23                       # W2SS+  -->  W1SS+  Z0                 
      2.01063144E-09    3      1000024         1        -1             # W2SS+  -->  W1SS+  DN     DB          
      2.01063077E-09    3      1000024         3        -3             # W2SS+  -->  W1SS+  ST     SB          
      1.49534625E-08    3      1000024         2        -2             # W2SS+  -->  W1SS+  UP     UB          
      1.49534625E-08    3      1000024         4        -4             # W2SS+  -->  W1SS+  CH     CB          
      5.98872552E-09    3      1000024        12       -12             # W2SS+  -->  W1SS+  NUE    ANUE        
      5.98872552E-09    3      1000024        14       -14             # W2SS+  -->  W1SS+  NUM    ANUM        
      6.05133144E-09    3      1000024        16       -16             # W2SS+  -->  W1SS+  NUT    ANUT        
      8.04003475E-10    3      1000024        11       -11             # W2SS+  -->  W1SS+  E-     E+          
      8.04003475E-10    3      1000024        13       -13             # W2SS+  -->  W1SS+  MU-    MU+         
      8.07969469E-10    3      1000024        15       -15             # W2SS+  -->  W1SS+  TAU-   TAU+        
      3.15770566E-01    2      1000024        25                       # W2SS+  -->  W1SS+  HL0                
#         PDG         Width
DECAY        25  4.07206593E-03   # HL0   decays
#          BR          NDA       ID1       ID2       ID3       ID4
      4.81896167E-09    2           11       -11                       # HL0    -->  E-     E+                 
      2.03464253E-04    2           13       -13                       # HL0    -->  MU-    MU+                
      5.81925362E-02    2           15       -15                       # HL0    -->  TAU-   TAU+               
      6.04806610E-06    2            1        -1                       # HL0    -->  DN     DB                 
      2.44372175E-03    2            3        -3                       # HL0    -->  ST     SB                 
      8.00806820E-01    2            5        -5                       # HL0    -->  BT     BB                 
      1.93218693E-06    2            2        -2                       # HL0    -->  UP     UB                 
      3.63587886E-02    2            4        -4                       # HL0    -->  CH     CB                 
      1.85865769E-03    2           22        22                       # HL0    -->  GM     GM                 
      3.98224331E-02    2           21        21                       # HL0    -->  GL     GL                 
      3.11556039E-03    3           24        11       -12             # HL0    -->  W+     E-     ANUE        
      3.11556039E-03    3           24        13       -14             # HL0    -->  W+     MU-    ANUM        
      3.11556039E-03    3           24        15       -16             # HL0    -->  W+     TAU-   ANUT        
      9.34668072E-03    3           24        -2         1             # HL0    -->  W+     UB     DN          
      9.34668072E-03    3           24        -4         3             # HL0    -->  W+     CB     ST          
      3.11556039E-03    3          -24       -11        12             # HL0    -->  W-     E+     NUE         
      3.11556039E-03    3          -24       -13        14             # HL0    -->  W-     MU+    NUM         
      3.11556039E-03    3          -24       -15        16             # HL0    -->  W-     TAU+   NUT         
      9.34668072E-03    3          -24         2        -1             # HL0    -->  W-     UP     DB          
      9.34668072E-03    3          -24         4        -3             # HL0    -->  W-     CH     SB          
      2.88979820E-04    3           23        12       -12             # HL0    -->  Z0     NUE    ANUE        
      2.88979820E-04    3           23        14       -14             # HL0    -->  Z0     NUM    ANUM        
      2.88979820E-04    3           23        16       -16             # HL0    -->  Z0     NUT    ANUT        
      1.45440630E-04    3           23        11       -11             # HL0    -->  Z0     E-     E+          
      1.45440630E-04    3           23        13       -13             # HL0    -->  Z0     MU-    MU+         
      1.45440630E-04    3           23        15       -15             # HL0    -->  Z0     TAU-   TAU+        
      4.98267298E-04    3           23         2        -2             # HL0    -->  Z0     UP     UB          
      4.98267298E-04    3           23         4        -4             # HL0    -->  Z0     CH     CB          
      6.41891034E-04    3           23         1        -1             # HL0    -->  Z0     DN     DB          
      6.41891034E-04    3           23         3        -3             # HL0    -->  Z0     ST     SB          
      6.41891034E-04    3           23         5        -5             # HL0    -->  Z0     BT     BB          
#         PDG         Width
DECAY        35  7.23004990E+01   # HH0   decays
#          BR          NDA       ID1       ID2       ID3       ID4
      3.13571114E-10    2           11       -11                       # HH0    -->  E-     E+                 
      1.32395371E-05    2           13       -13                       # HH0    -->  MU-    MU+                
      3.79200396E-03    2           15       -15                       # HH0    -->  TAU-   TAU+               
      3.79592905E-07    2            1        -1                       # HH0    -->  DN     DB                 
      1.53374756E-04    2            3        -3                       # HH0    -->  ST     SB                 
      1.90699808E-02    2            5        -5                       # HH0    -->  BT     BB                 
      1.94632921E-10    2            2        -2                       # HH0    -->  UP     UB                 
      2.28585941E-06    2            4        -4                       # HH0    -->  CH     CB                 
      1.19913466E-01    2            6        -6                       # HH0    -->  TP     TB                 
      1.65637459E-07    2           22        22                       # HH0    -->  GM     GM                 
      1.39015210E-05    2           21        21                       # HH0    -->  GL     GL                 
      1.51772329E-05    2           24       -24                       # HH0    -->  W+     W-                 
      7.78725916E-06    2           23        23                       # HH0    -->  Z0     Z0                 
      1.30940974E-03    2      1000022   1000022                       # HH0    -->  Z1SS   Z1SS               
      9.69062618E-04    2      1000022   1000023                       # HH0    -->  Z1SS   Z2SS               
      1.82275072E-01    2      1000022   1000025                       # HH0    -->  Z1SS   Z3SS               
      7.50215948E-02    2      1000022   1000035                       # HH0    -->  Z1SS   Z4SS               
      1.69577514E-04    2      1000023   1000023                       # HH0    -->  Z2SS   Z2SS               
      5.52083738E-02    2      1000023   1000025                       # HH0    -->  Z2SS   Z3SS               
      1.97519884E-02    2      1000023   1000035                       # HH0    -->  Z2SS   Z4SS               
      1.91257684E-04    2      1000025   1000025                       # HH0    -->  Z3SS   Z3SS               
      1.43555272E-03    2      1000025   1000035                       # HH0    -->  Z3SS   Z4SS               
      5.08001947E-04    2      1000035   1000035                       # HH0    -->  Z4SS   Z4SS               
      2.53907614E-03    2      1000024  -1000024                       # HH0    -->  W1SS+  W1SS-              
      4.22872690E-05    2      1000037  -1000037                       # HH0    -->  W2SS+  W2SS-              
      2.58769155E-01    2      1000024  -1000037                       # HH0    -->  W1SS+  W2SS-              
      2.58769155E-01    2     -1000024   1000037                       # HH0    -->  W1SS-  W2SS+              
      5.87338982E-05    2           25        25                       # HH0    -->  HL0    HL0                
#         PDG         Width
DECAY        36  7.16886902E+01   # HA0   decays
#          BR          NDA       ID1       ID2       ID3       ID4
      3.14190812E-10    2           11       -11                       # HA0    -->  E-     E+                 
      1.32657024E-05    2           13       -13                       # HA0    -->  MU-    MU+                
      3.79949971E-03    2           15       -15                       # HA0    -->  TAU-   TAU+               
      3.80358472E-07    2            1        -1                       # HA0    -->  DN     DB                 
      1.53684057E-04    2            3        -3                       # HA0    -->  ST     SB                 
      1.91084649E-02    2            5        -5                       # HA0    -->  BT     BB                 
      1.94723460E-10    2            2        -2                       # HA0    -->  UP     UB                 
      2.28843896E-06    2            4        -4                       # HA0    -->  CH     CB                 
      1.20401606E-01    2            6        -6                       # HA0    -->  TP     TB                 
      1.44749450E-07    2           22        22                       # HA0    -->  GM     GM                 
      1.59715364E-05    2           21        21                       # HA0    -->  GL     GL                 
      1.73835037E-03    2      1000022   1000022                       # HA0    -->  Z1SS   Z1SS               
      1.49467739E-03    2      1000022   1000023                       # HA0    -->  Z1SS   Z2SS               
      7.58490413E-02    2      1000022   1000025                       # HA0    -->  Z1SS   Z3SS               
      1.80264980E-01    2      1000022   1000035                       # HA0    -->  Z1SS   Z4SS               
      3.06881266E-04    2      1000023   1000023                       # HA0    -->  Z2SS   Z2SS               
      1.99550260E-02    2      1000023   1000025                       # HA0    -->  Z2SS   Z3SS               
      5.44428751E-02    2      1000023   1000035                       # HA0    -->  Z2SS   Z4SS               
      1.30684333E-04    2      1000025   1000025                       # HA0    -->  Z3SS   Z3SS               
      6.56660239E-04    2      1000025   1000035                       # HA0    -->  Z3SS   Z4SS               
      1.76715560E-03    2      1000035   1000035                       # HA0    -->  Z4SS   Z4SS               
      3.43900383E-03    2      1000024  -1000024                       # HA0    -->  W1SS+  W1SS-              
      7.67245656E-04    2      1000037  -1000037                       # HA0    -->  W2SS+  W2SS-              
      2.57838458E-01    2      1000024  -1000037                       # HA0    -->  W1SS+  W2SS-              
      2.57838458E-01    2     -1000024   1000037                       # HA0    -->  W1SS-  W2SS+              
      1.51911518E-05    2           25        23                       # HA0    -->  HL0    Z0                 
#         PDG         Width
DECAY        37  7.15880814E+01   # H+    decays
#          BR          NDA       ID1       ID2       ID3       ID4
      3.16737608E-10    2           12       -11                       # H+     -->  NUE    E+                 
      1.33732328E-05    2           14       -13                       # H+     -->  NUM    MU+                
      3.83029808E-03    2           16       -15                       # H+     -->  NUT    TAU+               
      3.56838541E-07    2            2        -1                       # H+     -->  UP     DB                 
      1.46251434E-04    2            4        -3                       # H+     -->  CH     SB                 
      1.30575776E-01    2            6        -5                       # H+     -->  TP     BB                 
      1.81224493E-07    2      1000024   1000022                       # H+     -->  W1SS+  Z1SS               
      2.48584198E-03    2      1000024   1000023                       # H+     -->  W1SS+  Z2SS               
      2.61647165E-01    2      1000024   1000025                       # H+     -->  W1SS+  Z3SS               
      2.60626674E-01    2      1000024   1000035                       # H+     -->  W1SS+  Z4SS               
      2.62737095E-01    2      1000037   1000022                       # H+     -->  W2SS+  Z1SS               
      7.68729225E-02    2      1000037   1000023                       # H+     -->  W2SS+  Z2SS               
      6.12462871E-04    2      1000037   1000025                       # H+     -->  W2SS+  Z3SS               
      4.36313218E-04    2      1000037   1000035                       # H+     -->  W2SS+  Z4SS               
      1.53211640E-05    2           25        24                       # H+     -->  HL0    W+                 
