# SUSY Les Houches Accord 2 - MSSM spectrum + Decays
# SPheno v3.3.6  
# W. Porod, Comput. Phys. Commun. 153 (2003) 275-315, hep-ph/0301101
# in case of problems send email to porod@physik.uni-wuerzburg.de
# Created: 06.12.2016,  13:43
Block SPINFO         # Program information
     1   SPheno      # spectrum calculator
     2   v3.3.6      # version number
#
Block SPhenoINFO     # SPheno specific information
    1      2         # using 2-loop RGEs
    2      1         # using running masses for boundary conditions at mZ
Block MODSEL  # Model selection
    1    2    # mGMSB model
Block MINPAR  # Input parameters
    1    1.00000000E+05  # Lambda, scale of SUSY breaking
    2    5.00000000E+05  # M_M, messenger mass scale
    3    1.00000000E+01  # tanb at m_Z   
    4    1.00000000E+00  # Sign(mu)
    5    3.00000000E+00  # N_5 number of effective five-plets
    6    1.00000000E+05  # c_grav, Gravitino mass factor
Block gauge Q=  5.00000000E+05  # (GMSB scale)
   1    4.97223703E-01  # g'(Q)^DRbar
   2    6.51747656E-01  # g(Q)^DRbar
   3    9.33992825E-01  # g3(Q)^DRbar
Block SMINPUTS  # SM parameters
         1     1.27931351E+02  # alpha_em^-1(MZ)^MSbar
         2     1.16637900E-05  # G_mu [GeV^-2]
         3     1.18400000E-01  # alpha_s(MZ)^MSbar
         4     9.11876000E+01  # m_Z(pole)
         5     4.18000000E+00  # m_b(m_b), MSbar
         6     1.73100000E+02  # m_t(pole)
         7     1.77682000E+00  # m_tau(pole)
         8     0.00000000E+00  # m_nu_3
        11     5.10998930E-04  # m_e(pole)
        12     0.00000000E+00  # m_nu_1
        13     1.05658372E-01  # m_muon(pole)
        14     0.00000000E+00  # m_nu_2
        21     5.00000000E-03  # m_d(2 GeV), MSbar
        22     2.50000000E-03  # m_u(2 GeV), MSbar
        23     9.50000000E-02  # m_s(2 GeV), MSbar
        24     1.27000000E+00  # m_c(m_c), MSbar
Block gauge Q=  1.85906818E+03  # (SUSY scale)
   1    3.64327093E-01  # g'(Q)^DRbar
   2    6.40387805E-01  # g(Q)^DRbar
   3    1.03113510E+00  # g3(Q)^DRbar
Block Yu Q=  1.85906818E+03  # (SUSY scale)
#   1  1     6.94521177E-06   # Y_u(Q)^DRbar
  1  1     0.0   # Y_u(Q)^DRbar
#   2  2     3.52816782E-03   # Y_c(Q)^DRbar
  2  2     0.0   # Y_c(Q)^DRbar
#   3  3     8.49468867E-01   # Y_t(Q)^DRbar
  3  3     0.0   # Y_t(Q)^DRbar
Block Yd Q=  1.85906818E+03  # (SUSY scale)
#   1  1     1.30995424E-04   # Y_d(Q)^DRbar
  1  1     0.0   # Y_d(Q)^DRbar
#   2  2     2.48891224E-03   # Y_s(Q)^DRbar
  2  2     0.0   # Y_s(Q)^DRbar
#   3  3     1.28960946E-01   # Y_b(Q)^DRbar
  3  3     0.0   # Y_b(Q)^DRbar
Block Ye Q=  1.85906818E+03  # (SUSY scale)
#   1  1     2.85583244E-05   # Y_e(Q)^DRbar
  1  1     0.0   # Y_e(Q)^DRbar
#   2  2     5.90495912E-03   # Y_mu(Q)^DRbar
  2  2     0.0   # Y_mu(Q)^DRbar
#   3  3     9.93179994E-02   # Y_tau(Q)^DRbar
  3  3     0.0   # Y_tau(Q)^DRbar
Block Au Q=  1.85906818E+03  # (SUSY scale)
#   1  1    -6.87756731E+02   # A_u(Q)^DRbar
  1  1    0.0   # A_u(Q)^DRbar
#   2  2    -6.87755817E+02   # A_c(Q)^DRbar
  2  2    0.0   # A_c(Q)^DRbar
#   3  3    -6.42546207E+02   # A_t(Q)^DRbar
  3  3    0.0   # A_t(Q)^DRbar
Block Ad Q=  1.85906818E+03  # (SUSY scale)
#   1  1    -7.38585528E+02   # A_d(Q)^DRbar
  1  1    0.0   # A_d(Q)^DRbar
#   2  2    -7.38584870E+02   # A_s(Q)^DRbar
  2  2    0.0   # A_s(Q)^DRbar
#   3  3    -7.22884467E+02   # A_b(Q)^DRbar
  3  3    0.0   # A_b(Q)^DRbar
Block Ae Q=  1.85906818E+03  # (SUSY scale)
#   1  1    -8.11187770E+01   # A_e(Q)^DRbar
  1  1    0.0   # A_e(Q)^DRbar
#   2  2    -8.11184505E+01   # A_mu(Q)^DRbar
  2  2    0.0   # A_mu(Q)^DRbar
#   3  3    -8.10264239E+01   # A_tau(Q)^DRbar
  3  3    0.0   # A_tau(Q)^DRbar
Block MSOFT Q=  1.85906818E+03  # soft SUSY breaking masses at Q
   1    4.19885268E+02  # M_1
   2    7.75242949E+02  # M_2
   3    2.02067521E+03  # M_3
  21    3.80118620E+05  # M^2_(H,d)
  22   -4.96178649E+05  # M^2_(H,u)
  31    6.33795404E+02  # M_(L,11)
  32    6.33793861E+02  # M_(L,22)
  33    6.33359022E+02  # M_(L,33)
  34    3.07160329E+02  # M_(E,11)
  35    3.07153859E+02  # M_(E,22)
  36    3.05324752E+02  # M_(E,33)
  41    2.00719289E+03  # M_(Q,11)
  42    2.00719108E+03  # M_(Q,22)
  43    1.93636398E+03  # M_(Q,33)
  44    1.92494113E+03  # M_(U,11)
  45    1.92493861E+03  # M_(U,22)
  46    1.77489721E+03  # M_(U,33)
  47    1.91689251E+03  # M_(D,11)
  48    1.91689122E+03  # M_(D,22)
  49    1.91344964E+03  # M_(D,33)
Block MASS  # Mass spectrum
#   PDG code      mass          particle
         6     1.73100000E+02  # m_t(pole)
        23     9.11876000E+01  # m_Z(pole)
        24     8.03955738E+01  # W+
        15     1.77682000E+00  # m_tau(pole)
        25     1.17617318E+02  # h0
        35     9.93898972E+02  # H0
        36     9.93630008E+02  # A0
        37     9.97268322E+02  # H+
   1000001     2.08754259E+03  # ~d_L
   2000001     1.99299885E+03  # ~d_R
   1000002     2.08615825E+03  # ~u_L
   2000002     2.00013650E+03  # ~u_R
   1000003     2.08754056E+03  # ~s_L
   2000003     1.99299724E+03  # ~s_R
   1000004     2.08615645E+03  # ~c_L
   2000004     2.00013348E+03  # ~c_R
   1000005     1.98750573E+03  # ~b_1
   2000005     2.00531384E+03  # ~b_2
   1000006     1.82759861E+03  # ~t_1
   2000006     2.01452276E+03  # ~t_2
   1000011     6.47172533E+02  # ~e_L-
   2000011     3.20760310E+02  # ~e_R-
   1000012     6.41970644E+02  # ~nu_eL
   1000013     6.47172015E+02  # ~mu_L-
   2000013     3.20749439E+02  # ~mu_R-
   1000014     6.41968551E+02  # ~nu_muL
   1000015     3.17675238E+02  # ~tau_1-
   2000015     6.47024431E+02  # ~tau_2-
   1000016     6.41379120E+02  # ~nu_tauL
   1000021     2.13522125E+03  # ~g
   1000022     4.08338347E+02  # ~chi_10
   1000023     7.20766060E+02  # ~chi_20
   1000025    -7.69248943E+02  # ~chi_30
   1000035     8.43450009E+02  # ~chi_40
   1000024     7.19710547E+02  # ~chi_1+
   1000037     8.43156053E+02  # ~chi_2+
   1000039     1.20000000E-03  # ~G
# Higgs mixing
Block alpha # Effective Higgs mixing angle
          -1.06510174E-01   # alpha
Block Hmix Q=  1.85906818E+03  # Higgs mixing parameters
   1    7.58908683E+02  # mu
   2    9.56398245E+00  # tan[beta](Q)
   3    2.43438873E+02  # v(Q)
   4    8.87627052E+05  # m^2_A(Q)
Block stopmix # stop mixing matrix
   1  1     1.74643481E-01   # Re[R_st(1,1)]
   1  2     9.84631736E-01   # Re[R_st(1,2)]
   2  1    -9.84631736E-01   # Re[R_st(2,1)]
   2  2     1.74643481E-01   # Re[R_st(2,2)]
Block sbotmix # sbottom mixing matrix
   1  1     2.85511782E-01   # Re[R_sb(1,1)]
   1  2     9.58375199E-01   # Re[R_sb(1,2)]
   2  1    -9.58375199E-01   # Re[R_sb(2,1)]
   2  2     2.85511782E-01   # Re[R_sb(2,2)]
Block staumix # stau mixing matrix
   1  1     4.20217549E-02   # Re[R_sta(1,1)]
   1  2     9.99116696E-01   # Re[R_sta(1,2)]
   2  1    -9.99116696E-01   # Re[R_sta(2,1)]
   2  2     4.20217549E-02   # Re[R_sta(2,2)]
Block Nmix # neutralino mixing matrix
   1  1    -9.94812370E-01   # Re[N(1,1)]
   1  2     1.23484613E-02   # Re[N(1,2)]
   1  3    -8.63770798E-02   # Re[N(1,3)]
   1  4     5.22959222E-02   # Re[N(1,4)]
   2  1     8.40995322E-02   # Re[N(2,1)]
   2  2     6.33943397E-01   # Re[N(2,2)]
   2  3    -5.57362953E-01   # Re[N(2,3)]
   2  4     5.29518249E-01   # Re[N(2,4)]
   3  1     2.36309136E-02   # Re[N(3,1)]
   3  2    -3.19848240E-02   # Re[N(3,2)]
   3  3    -7.05272592E-01   # Re[N(3,3)]
   3  4    -7.07819978E-01   # Re[N(3,4)]
   4  1    -5.21267350E-02   # Re[N(4,1)]
   4  2     7.72619088E-01   # Re[N(4,2)]
   4  3     4.29506821E-01   # Re[N(4,3)]
   4  4    -4.64614290E-01   # Re[N(4,4)]
Block Umix # chargino mixing matrix
   1  1    -6.04082969E-01   # Re[U(1,1)]
   1  2     7.96921431E-01   # Re[U(1,2)]
   2  1     7.96921431E-01   # Re[U(2,1)]
   2  2     6.04082969E-01   # Re[U(2,2)]
Block Vmix # chargino mixing matrix
   1  1    -6.53672276E-01   # Re[V(1,1)]
   1  2     7.56777745E-01   # Re[V(1,2)]
   2  1     7.56777745E-01   # Re[V(2,1)]
   2  2     6.53672276E-01   # Re[V(2,2)]
DECAY        23     2.49520000E+00   # Z
DECAY        24     2.08500000E+00   # W
DECAY   2000011     1.50215187E-13   # ~e^-_R
#    BR                NDA      ID1      ID2
     1.79878565E-08    2     1000039        11   # BR(~e^-_R -> ~G e^-)
#    BR                NDA      ID1      ID2       ID3
     3.78550048E-01    3     1000015        11       -15   # BR(~e^-_R -> ~tau^-_1 e^- tau^+)
     6.21449934E-01    3    -1000015        15        11   # BR(~e^-_R -> ~tau^+_1 tau^- e^-)
     6.01941392E-12    3     1000015        12       -16   # BR(~e^-_R -> ~tau^-_1 nu_e nu_bar_tau)
DECAY   1000011     2.93131579E-01   # ~e^-_L
#    BR                NDA      ID1      ID2
     9.99999948E-01    2     1000022        11   # BR(~e^-_L -> chi^0_1 e^-)
     1.65988736E-08    2     2000011        23   # BR(~e^-_L -> ~e^-_R Z)
     1.73792690E-08    2     2000011        25   # BR(~e^-_L -> ~e^-_R h^0)
#    BR                NDA      ID1      ID2       ID3
     1.04425237E-08    3     1000012         1        -2   # BR(~e^-_L -> ~nu_e d u_bar)
     7.83557644E-09    3     1000012         3        -4   # BR(~e^-_L -> ~nu_e s c_bar)
DECAY   2000013     1.43044753E-13   # ~mu^-_R
#    BR                NDA      ID1      ID2
     1.88863287E-08    2     1000039        13   # BR(~mu^-_R -> ~G mu^-)
#    BR                NDA      ID1      ID2       ID3
     3.78530145E-01    3     1000015        13       -15   # BR(~mu^-_R -> ~tau^-_1 mu^- tau^+)
     6.21469570E-01    3    -1000015        15        13   # BR(~mu^-_R -> ~tau^+_1 tau^- mu^-)
     2.65528160E-07    3     1000015        14       -16   # BR(~mu^-_R -> ~tau^-_1 nu_mu nu_bar_tau)
DECAY   1000013     2.93559840E-01   # ~mu^-_L
#    BR                NDA      ID1      ID2
     9.98549406E-01    2     1000022        13   # BR(~mu^-_L -> chi^0_1 mu^-)
     7.08639492E-04    2     2000013        23   # BR(~mu^-_L -> ~mu^-_R Z)
     7.41936119E-04    2     2000013        25   # BR(~mu^-_L -> ~mu^-_R h^0)
#    BR                NDA      ID1      ID2       ID3
     1.04429823E-08    3     1000014         1        -2   # BR(~mu^-_L -> ~nu_mu d u_bar)
     7.83727035E-09    3     1000014         3        -4   # BR(~mu^-_L -> ~nu_mu s c_bar)
DECAY   1000015     2.57426119E-21   # ~tau^-_1
#    BR                NDA      ID1      ID2
     1.00000000E+00    2     1000039        15   # BR(~tau^-_1 -> ~G tau^-)
DECAY   2000015     4.14775939E-01   # ~tau^-_2
#    BR                NDA      ID1      ID2
     7.08355550E-01    2     1000022        15   # BR(~tau^-_2 -> chi^0_1 tau^-)
     1.43024860E-01    2     1000015        23   # BR(~tau^-_2 -> ~tau^-_1 Z)
     1.48619570E-01    2     1000015        25   # BR(~tau^-_2 -> ~tau^-_1 h^0)
#    BR                NDA      ID1      ID2       ID3
     1.10829701E-08    3     1000016         1        -2   # BR(~tau^-_2 -> ~nu_tau d u_bar)
     8.68134268E-09    3     1000016         3        -4   # BR(~tau^-_2 -> ~nu_tau s c_bar)
DECAY   1000012     3.10504089E-01   # ~nu_e
#    BR                NDA      ID1      ID2
     9.99999970E-01    2     1000022        12   # BR(~nu_e -> chi^0_1 nu_e)
     3.00840009E-08    2     2000011        24   # BR(~nu_e -> ~e^-_R W^+)
DECAY   1000014     3.10899692E-01   # ~nu_mu
#    BR                NDA      ID1      ID2
     9.98715423E-01    2     1000022        14   # BR(~nu_mu -> chi^0_1 nu_mu)
     1.28457748E-03    2     2000013        24   # BR(~nu_mu -> ~mu^-_R W^+)
DECAY   1000016     4.23106176E-01   # ~nu_tau
#    BR                NDA      ID1      ID2
     7.31354183E-01    2     1000022        16   # BR(~nu_tau -> chi^0_1 nu_tau)
     2.68645817E-01    2     1000015        24   # BR(~nu_tau -> ~tau^-_1 W^+)
DECAY   2000001     1.07114872E+00   # ~d_R
#    BR                NDA      ID1      ID2
     9.91723884E-01    2     1000022         1   # BR(~d_R -> chi^0_1 d)
     5.83458737E-03    2     1000023         1   # BR(~d_R -> chi^0_2 d)
     4.41795271E-04    2     1000025         1   # BR(~d_R -> chi^0_3 d)
     1.99923101E-03    2     1000035         1   # BR(~d_R -> chi^0_4 d)
     4.33409329E-07    2    -1000024         2   # BR(~d_R -> chi^-_1 u)
     6.92801791E-08    2    -1000037         2   # BR(~d_R -> chi^-_2 u)
DECAY   1000001     1.89011817E+01   # ~d_L
#    BR                NDA      ID1      ID2
     1.68365513E-02    2     1000022         1   # BR(~d_L -> chi^0_1 d)
     1.33489072E-01    2     1000023         1   # BR(~d_L -> chi^0_2 d)
     4.47472847E-04    2     1000025         1   # BR(~d_L -> chi^0_3 d)
     1.93152189E-01    2     1000035         1   # BR(~d_L -> chi^0_4 d)
     2.55295481E-01    2    -1000024         2   # BR(~d_L -> chi^-_1 u)
     4.00779235E-01    2    -1000037         2   # BR(~d_L -> chi^-_2 u)
     1.04611598E-13    2     2000002       -24   # BR(~d_L -> ~u_R W^-)
     5.35484691E-12    2     2000001        23   # BR(~d_L -> ~d_R Z)
DECAY   2000003     1.07152741E+00   # ~s_R
#    BR                NDA      ID1      ID2
     9.91377015E-01    2     1000022         3   # BR(~s_R -> chi^0_1 s)
     5.90853754E-03    2     1000023         3   # BR(~s_R -> chi^0_2 s)
     5.22075396E-04    2     1000025         3   # BR(~s_R -> chi^0_3 s)
     2.01096533E-03    2     1000035         3   # BR(~s_R -> chi^0_4 s)
     1.56405166E-04    2    -1000024         4   # BR(~s_R -> chi^-_1 c)
     2.50010985E-05    2    -1000037         4   # BR(~s_R -> chi^-_2 c)
DECAY   1000003     1.89016988E+01   # ~s_L
#    BR                NDA      ID1      ID2
     1.68359814E-02    2     1000022         3   # BR(~s_L -> chi^0_1 s)
     1.33487082E-01    2     1000023         3   # BR(~s_L -> chi^0_2 s)
     4.52614472E-04    2     1000025         3   # BR(~s_L -> chi^0_3 s)
     1.93149360E-01    2     1000035         3   # BR(~s_L -> chi^0_4 s)
     2.55295538E-01    2    -1000024         4   # BR(~s_L -> chi^-_1 c)
     4.00779395E-01    2    -1000037         4   # BR(~s_L -> chi^-_2 c)
     2.70006793E-08    2     2000004       -24   # BR(~s_L -> ~c_R W^-)
     1.93269359E-09    2     2000003        23   # BR(~s_L -> ~s_R Z)
DECAY   1000005     4.95701016E+00   # ~b_1
#    BR                NDA      ID1      ID2
     2.13640713E-01    2     1000022         5   # BR(~b_1 -> chi^0_1 b)
     1.33431942E-01    2     1000023         5   # BR(~b_1 -> chi^0_2 b)
     4.20482094E-02    2     1000025         5   # BR(~b_1 -> chi^0_3 b)
     1.26859357E-02    2     1000035         5   # BR(~b_1 -> chi^0_4 b)
     4.23288943E-01    2    -1000024         6   # BR(~b_1 -> chi^-_1 t)
     1.68994862E-01    2    -1000037         6   # BR(~b_1 -> chi^-_2 t)
     5.90939381E-03    2     1000006       -24   # BR(~b_1 -> ~t_1 W^-)
DECAY   2000005     3.61107443E+01   # ~b_2
#    BR                NDA      ID1      ID2
     8.65034938E-03    2     1000022         5   # BR(~b_2 -> chi^0_1 b)
     5.58027068E-02    2     1000023         5   # BR(~b_2 -> chi^0_2 b)
     7.66123945E-03    2     1000025         5   # BR(~b_2 -> chi^0_3 b)
     9.69170385E-02    2     1000035         5   # BR(~b_2 -> chi^0_4 b)
     3.83059565E-01    2    -1000024         6   # BR(~b_2 -> chi^-_1 t)
     4.34306420E-01    2    -1000037         6   # BR(~b_2 -> chi^-_2 t)
     1.36026804E-02    2     1000006       -24   # BR(~b_2 -> ~t_1 W^-)
DECAY   2000002     4.30268354E+00   # ~u_R
#    BR                NDA      ID1      ID2
     9.91710307E-01    2     1000022         2   # BR(~u_R -> chi^0_1 u)
     5.84316330E-03    2     1000023         2   # BR(~u_R -> chi^0_2 u)
     4.42391741E-04    2     1000025         2   # BR(~u_R -> chi^0_3 u)
     2.00413752E-03    2     1000035         2   # BR(~u_R -> chi^0_4 u)
     3.05516054E-10    2     1000024         1   # BR(~u_R -> chi^+_1 d)
     5.55657428E-11    2     1000037         1   # BR(~u_R -> chi^+_2 d)
DECAY   1000002     1.89689859E+01   # ~u_L
#    BR                NDA      ID1      ID2
     1.28971510E-02    2     1000022         2   # BR(~u_L -> chi^0_1 u)
     1.46946386E-01    2     1000023         2   # BR(~u_L -> chi^0_2 u)
     2.53351678E-04    2     1000025         2   # BR(~u_L -> chi^0_3 u)
     1.82643355E-01    2     1000035         2   # BR(~u_L -> chi^0_4 u)
     2.97557768E-01    2     1000024         1   # BR(~u_L -> chi^+_1 d)
     3.59701988E-01    2     1000037         1   # BR(~u_L -> chi^+_2 d)
     6.95638054E-11    2     2000001        24   # BR(~u_L -> ~d_R W^+)
DECAY   2000004     4.30344679E+00   # ~c_R
#    BR                NDA      ID1      ID2
     9.91530834E-01    2     1000022         4   # BR(~c_R -> chi^0_1 c)
     5.87998931E-03    2     1000023         4   # BR(~c_R -> chi^0_2 c)
     4.85465464E-04    2     1000025         4   # BR(~c_R -> chi^0_3 c)
     2.01054659E-03    2     1000035         4   # BR(~c_R -> chi^0_4 c)
     7.88278675E-05    2     1000024         3   # BR(~c_R -> chi^+_1 s)
     1.43371766E-05    2     1000037         3   # BR(~c_R -> chi^+_2 s)
DECAY   1000004     1.89694750E+01   # ~c_L
#    BR                NDA      ID1      ID2
     1.28971111E-02    2     1000022         4   # BR(~c_L -> chi^0_1 c)
     1.46944132E-01    2     1000023         4   # BR(~c_L -> chi^0_2 c)
     2.63308845E-04    2     1000025         4   # BR(~c_L -> chi^0_3 c)
     1.82645817E-01    2     1000035         4   # BR(~c_L -> chi^0_4 c)
     2.97549263E-01    2     1000024         3   # BR(~c_L -> chi^+_1 s)
     3.59700343E-01    2     1000037         3   # BR(~c_L -> chi^+_2 s)
     2.51114933E-08    2     2000003        24   # BR(~c_L -> ~s_R W^+)
DECAY   1000006     3.91159493E+01   # ~t_1
#    BR                NDA      ID1      ID2
     2.90103395E-07    2     1000022         4   # BR(~t_1 -> chi^0_1 c)
     9.74163249E-02    2     1000022         6   # BR(~t_1 -> chi^0_1 t)
     3.11407887E-06    2     1000023         4   # BR(~t_1 -> chi^0_2 c)
     1.56654930E-01    2     1000023         6   # BR(~t_1 -> chi^0_2 t)
     2.32228075E-01    2     1000025         6   # BR(~t_1 -> chi^0_3 t)
     5.96140554E-02    2     1000035         6   # BR(~t_1 -> chi^0_4 t)
     3.31002382E-01    2     1000024         5   # BR(~t_1 -> chi^+_1 b)
     1.23072359E-01    2     1000037         5   # BR(~t_1 -> chi^+_2 b)
#    BR                NDA      ID1      ID2       ID3
     8.46860648E-06    3     1000022        24         5   # BR(~t_1 -> chi^0_1 W^+ b)
DECAY   2000006     3.92282941E+01   # ~t_2
#    BR                NDA      ID1      ID2
     7.03689672E-03    2     1000022         6   # BR(~t_2 -> chi^0_1 t)
     1.76587370E-01    2     1000023         6   # BR(~t_2 -> chi^0_2 t)
     2.54863816E-01    2     1000025         6   # BR(~t_2 -> chi^0_3 t)
     2.37225656E-01    2     1000035         6   # BR(~t_2 -> chi^0_4 t)
     7.78082317E-02    2     1000024         5   # BR(~t_2 -> chi^+_1 b)
     2.33349896E-01    2     1000037         5   # BR(~t_2 -> chi^+_2 b)
     7.37040372E-03    2     1000006        23   # BR(~t_2 -> ~t_1 Z)
     5.75772968E-03    2     1000006        25   # BR(~t_2 -> ~t_1 h^0)
DECAY   1000024     6.19628585E-01   # chi^+_1
#    BR                NDA      ID1      ID2
     5.59336378E-09    2    -2000011        12   # BR(chi^+_1 -> ~e^+_R nu_e)
     6.33531844E-02    2    -1000011        12   # BR(chi^+_1 -> ~e^+_L nu_e)
     2.39139396E-04    2    -2000013        14   # BR(chi^+_1 -> ~mu^+_R nu_mu)
     6.33497730E-02    2    -1000013        14   # BR(chi^+_1 -> ~mu^+_L nu_mu)
     6.80779408E-02    2    -1000015        16   # BR(chi^+_1 -> ~tau^+_1 nu_tau)
     6.23981387E-02    2    -2000015        16   # BR(chi^+_1 -> ~tau^+_2 nu_tau)
     8.45551795E-02    2     1000012       -11   # BR(chi^+_1 -> ~nu_e e^+)
     8.45728186E-02    2     1000014       -13   # BR(chi^+_1 -> ~nu_mu mu^+)
     8.95962376E-02    2     1000016       -15   # BR(chi^+_1 -> ~nu_tau tau^+)
     4.83037533E-01    2     1000022        24   # BR(chi^+_1 -> chi^0_1 W^+)
#    BR                NDA      ID1      ID2       ID3
     9.43699926E-08    3     1000022        -1         2   # BR(chi^+_1 -> chi^0_1 d_bar u)
     9.45185323E-08    3     1000022        -3         4   # BR(chi^+_1 -> chi^0_1 s_bar c)
     8.11256783E-04    3     1000022        -5         6   # BR(chi^+_1 -> chi^0_1 b_bar t)
     7.29826929E-13    3     1000022       -11        12   # BR(chi^+_1 -> chi^0_1 e^+ nu_e)
     3.11991905E-08    3     1000022       -13        14   # BR(chi^+_1 -> chi^0_1 mu^+ nu_mu)
     8.57214487E-06    3     1000022       -15        16   # BR(chi^+_1 -> chi^0_1 tau^+ nu_tau)
DECAY   1000037     3.03142794E+00   # chi^+_2
#    BR                NDA      ID1      ID2
     2.47319190E-10    2    -2000011        12   # BR(chi^+_2 -> ~e^+_R nu_e)
     1.21632407E-01    2    -1000011        12   # BR(chi^+_2 -> ~e^+_L nu_e)
     1.05740264E-05    2    -2000013        14   # BR(chi^+_2 -> ~mu^+_R nu_mu)
     1.21636468E-01    2    -1000013        14   # BR(chi^+_2 -> ~mu^+_L nu_mu)
     3.01895740E-03    2    -1000015        16   # BR(chi^+_2 -> ~tau^+_1 nu_tau)
     1.22782287E-01    2    -2000015        16   # BR(chi^+_2 -> ~tau^+_2 nu_tau)
     1.14781473E-01    2     1000012       -11   # BR(chi^+_2 -> ~nu_e e^+)
     1.14788736E-01    2     1000014       -13   # BR(chi^+_2 -> ~nu_mu mu^+)
     1.16844453E-01    2     1000016       -15   # BR(chi^+_2 -> ~nu_tau tau^+)
     5.12481240E-02    2     1000022        24   # BR(chi^+_2 -> chi^0_1 W^+)
     1.33903429E-01    2     1000023        24   # BR(chi^+_2 -> chi^0_2 W^+)
     9.41564911E-02    2     1000024        23   # BR(chi^+_2 -> chi^+_1 Z)
     4.21823598E-03    2     1000024        25   # BR(chi^+_2 -> chi^+_1 h^0)
#    BR                NDA      ID1      ID2       ID3
     4.20567753E-09    3     1000024         2        -2   # BR(chi^+_2 -> chi^+_1 u u_bar)
     4.19864993E-09    3     1000024         4        -4   # BR(chi^+_2 -> chi^+_1 c c_bar)
     4.45461888E-09    3     1000024         1        -1   # BR(chi^+_2 -> chi^+_1 d d_bar)
     4.45660223E-09    3     1000024         3        -3   # BR(chi^+_2 -> chi^+_1 s s_bar)
     1.44895420E-08    3     1000024         5        -5   # BR(chi^+_2 -> chi^+_1 b b_bar)
     5.77078399E-07    3     1000024        11       -11   # BR(chi^+_2 -> chi^+_1 e^- e^+)
     5.77150820E-07    3     1000024        13       -13   # BR(chi^+_2 -> chi^+_1 mu^- mu^+)
     5.83570241E-07    3     1000024        15       -15   # BR(chi^+_2 -> chi^+_1 tau^- tau^+)
     1.75428683E-06    3     1000024        12       -12   # BR(chi^+_2 -> chi^+_1 nu_e nu_bar_e)
     1.35346281E-07    3     1000022        -1         2   # BR(chi^+_2 -> chi^0_1 d_bar u)
     1.35366952E-07    3     1000022        -3         4   # BR(chi^+_2 -> chi^0_1 s_bar c)
     2.59772456E-04    3     1000022        -5         6   # BR(chi^+_2 -> chi^0_1 b_bar t)
     2.65262211E-09    3     1000022       -13        14   # BR(chi^+_2 -> chi^0_1 mu^+ nu_mu)
     7.36134338E-07    3     1000022       -15        16   # BR(chi^+_2 -> chi^0_1 tau^+ nu_tau)
     2.12788821E-09    3     1000023        -1         2   # BR(chi^+_2 -> chi^0_2 d_bar u)
     2.12915078E-09    3     1000023        -3         4   # BR(chi^+_2 -> chi^0_2 s_bar c)
     3.11965549E-07    3     1000023       -11        12   # BR(chi^+_2 -> chi^0_2 e^+ nu_e)
     3.11971636E-07    3     1000023       -13        14   # BR(chi^+_2 -> chi^0_2 mu^+ nu_mu)
     3.06350026E-07    3     1000023       -15        16   # BR(chi^+_2 -> chi^0_2 tau^+ nu_tau)
     2.37816486E-04    3     1000025        -1         2   # BR(chi^+_2 -> chi^0_3 d_bar u)
     2.37664323E-04    3     1000025        -3         4   # BR(chi^+_2 -> chi^0_3 s_bar c)
     7.92938585E-05    3     1000025       -11        12   # BR(chi^+_2 -> chi^0_3 e^+ nu_e)
     7.92933598E-05    3     1000025       -13        14   # BR(chi^+_2 -> chi^0_3 mu^+ nu_mu)
     7.90550638E-05    3     1000025       -15        16   # BR(chi^+_2 -> chi^0_3 tau^+ nu_tau)
DECAY   1000022     9.58419020E-01   # chi^0_1
#    BR                NDA      ID1      ID2
     1.63283583E-01    2     2000011       -11   # BR(chi^0_1 -> ~e^-_R e^+)
     1.63283583E-01    2    -2000011        11   # BR(chi^0_1 -> ~e^+_R e^-)
     1.63318851E-01    2     2000013       -13   # BR(chi^0_1 -> ~mu^-_R mu^+)
     1.63318851E-01    2    -2000013        13   # BR(chi^0_1 -> ~mu^+_R mu^-)
     1.73397567E-01    2     1000015       -15   # BR(chi^0_1 -> ~tau^-_1 tau^+)
     1.73397567E-01    2    -1000015        15   # BR(chi^0_1 -> ~tau^+_1 tau^-)
DECAY   1000023     7.10080634E-01   # chi^0_2
#    BR                NDA      ID1      ID2
     1.21922170E-02    2     2000011       -11   # BR(chi^0_2 -> ~e^-_R e^+)
     1.21922170E-02    2    -2000011        11   # BR(chi^0_2 -> ~e^+_R e^-)
     3.61391573E-02    2     1000011       -11   # BR(chi^0_2 -> ~e^-_L e^+)
     3.61391573E-02    2    -1000011        11   # BR(chi^0_2 -> ~e^+_L e^-)
     1.22944343E-02    2     2000013       -13   # BR(chi^0_2 -> ~mu^-_R mu^+)
     1.22944343E-02    2    -2000013        13   # BR(chi^0_2 -> ~mu^+_R mu^-)
     3.61430307E-02    2     1000013       -13   # BR(chi^0_2 -> ~mu^-_L mu^+)
     3.61430307E-02    2    -1000013        13   # BR(chi^0_2 -> ~mu^+_L mu^-)
     4.13381495E-02    2     1000015       -15   # BR(chi^0_2 -> ~tau^-_1 tau^+)
     4.13381495E-02    2    -1000015        15   # BR(chi^0_2 -> ~tau^+_1 tau^-)
     3.72392412E-02    2     2000015       -15   # BR(chi^0_2 -> ~tau^-_2 tau^+)
     3.72392412E-02    2    -2000015        15   # BR(chi^0_2 -> ~tau^+_2 tau^-)
     3.03830666E-02    2     1000012       -12   # BR(chi^0_2 -> ~nu_e nu_bar_e)
     3.03830666E-02    2    -1000012        12   # BR(chi^0_2 -> ~nu^*_e nu_e)
     3.03845868E-02    2     1000014       -14   # BR(chi^0_2 -> ~nu_mu nu_bar_mu)
     3.03845868E-02    2    -1000014        14   # BR(chi^0_2 -> ~nu^*_mu nu_mu)
     3.08141867E-02    2     1000016       -16   # BR(chi^0_2 -> ~nu_tau nu_bar_tau)
     3.08141867E-02    2    -1000016        16   # BR(chi^0_2 -> ~nu^*_tau nu_tau)
     2.48548841E-02    2     1000022        23   # BR(chi^0_2 -> chi^0_1 Z)
     4.41265249E-01    2     1000022        25   # BR(chi^0_2 -> chi^0_1 h^0)
     1.20613375E-06    2     1000022        22   # BR(chi^0_2 -> chi^0_1 photon)
#    BR                NDA      ID1      ID2       ID3
     4.75677040E-08    3     1000022         2        -2   # BR(chi^0_2 -> chi^0_1 u u_bar)
     4.76002854E-08    3     1000022         4        -4   # BR(chi^0_2 -> chi^0_1 c c_bar)
     4.65273557E-08    3     1000022         1        -1   # BR(chi^0_2 -> chi^0_1 d d_bar)
     4.66971914E-08    3     1000022         3        -3   # BR(chi^0_2 -> chi^0_1 s s_bar)
     5.15984970E-07    3     1000022         5        -5   # BR(chi^0_2 -> chi^0_1 b b_bar)
     4.95716996E-06    3     1000022        11       -11   # BR(chi^0_2 -> chi^0_1 e^- e^+)
     4.98295104E-06    3     1000022        13       -13   # BR(chi^0_2 -> chi^0_1 mu^- mu^+)
     1.18763616E-05    3     1000022        15       -15   # BR(chi^0_2 -> chi^0_1 tau^- tau^+)
     1.45449820E-12    3     1000024         1        -2   # BR(chi^0_2 -> chi^+_1 d u_bar)
     1.45449820E-12    3    -1000024        -1         2   # BR(chi^0_2 -> chi^-_1 d_bar u)
     4.67272391E-13    3     1000024        11       -12   # BR(chi^0_2 -> chi^+_1 e^- nu_bar_e)
     4.67272391E-13    3    -1000024       -11        12   # BR(chi^0_2 -> chi^-_1 e^+ nu_e)
     4.44824485E-13    3     1000024        13       -14   # BR(chi^0_2 -> chi^+_1 mu^- nu_bar_mu)
     4.44824485E-13    3    -1000024       -13        14   # BR(chi^0_2 -> chi^-_1 mu^+ nu_mu)
DECAY   1000025     5.72705663E-01   # chi^0_3
#    BR                NDA      ID1      ID2
     1.35178093E-03    2     2000011       -11   # BR(chi^0_3 -> ~e^-_R e^+)
     1.35178093E-03    2    -2000011        11   # BR(chi^0_3 -> ~e^+_R e^-)
     8.04141698E-05    2     1000011       -11   # BR(chi^0_3 -> ~e^-_L e^+)
     8.04141698E-05    2    -1000011        11   # BR(chi^0_3 -> ~e^+_L e^-)
     1.50635228E-03    2     2000013       -13   # BR(chi^0_3 -> ~mu^-_R mu^+)
     1.50635228E-03    2    -2000013        13   # BR(chi^0_3 -> ~mu^+_R mu^-)
     1.00767701E-04    2     1000013       -13   # BR(chi^0_3 -> ~mu^-_L mu^+)
     1.00767701E-04    2    -1000013        13   # BR(chi^0_3 -> ~mu^+_L mu^-)
     4.54166190E-02    2     1000015       -15   # BR(chi^0_3 -> ~tau^-_1 tau^+)
     4.54166190E-02    2    -1000015        15   # BR(chi^0_3 -> ~tau^+_1 tau^-)
     5.85723480E-03    2     2000015       -15   # BR(chi^0_3 -> ~tau^-_2 tau^+)
     5.85723480E-03    2    -2000015        15   # BR(chi^0_3 -> ~tau^+_2 tau^-)
     5.20937017E-04    2     1000012       -12   # BR(chi^0_3 -> ~nu_e nu_bar_e)
     5.20937017E-04    2    -1000012        12   # BR(chi^0_3 -> ~nu^*_e nu_e)
     5.20952599E-04    2     1000014       -14   # BR(chi^0_3 -> ~nu_mu nu_bar_mu)
     5.20952599E-04    2    -1000014        14   # BR(chi^0_3 -> ~nu^*_mu nu_mu)
     5.25349675E-04    2     1000016       -16   # BR(chi^0_3 -> ~nu_tau nu_bar_tau)
     5.25349675E-04    2    -1000016        16   # BR(chi^0_3 -> ~nu^*_tau nu_tau)
     8.38084503E-01    2     1000022        23   # BR(chi^0_3 -> chi^0_1 Z)
     4.88996196E-02    2     1000022        25   # BR(chi^0_3 -> chi^0_1 h^0)
     9.90432384E-07    2     1000022        22   # BR(chi^0_3 -> chi^0_1 photon)
     2.69418624E-10    2     1000023        22   # BR(chi^0_3 -> chi^0_2 photon)
#    BR                NDA      ID1      ID2       ID3
     6.52583444E-10    3     1000022         2        -2   # BR(chi^0_3 -> chi^0_1 u u_bar)
     7.66083535E-10    3     1000022         4        -4   # BR(chi^0_3 -> chi^0_1 c c_bar)
     2.87392821E-05    3     1000022         6        -6   # BR(chi^0_3 -> chi^0_1 t t_bar)
     1.82161764E-10    3     1000022         1        -1   # BR(chi^0_3 -> chi^0_1 d d_bar)
     6.58805082E-10    3     1000022         3        -3   # BR(chi^0_3 -> chi^0_1 s s_bar)
     1.29183617E-06    3     1000022         5        -5   # BR(chi^0_3 -> chi^0_1 b b_bar)
     3.01741948E-07    3     1000022        11       -11   # BR(chi^0_3 -> chi^0_1 e^- e^+)
     3.56297677E-07    3     1000022        13       -13   # BR(chi^0_3 -> chi^0_1 mu^- mu^+)
     1.53800466E-05    3     1000022        15       -15   # BR(chi^0_3 -> chi^0_1 tau^- tau^+)
     3.62149152E-05    3     1000023         2        -2   # BR(chi^0_3 -> chi^0_2 u u_bar)
     3.60788419E-05    3     1000023         4        -4   # BR(chi^0_3 -> chi^0_2 c c_bar)
     4.69691889E-05    3     1000023         1        -1   # BR(chi^0_3 -> chi^0_2 d d_bar)
     4.69679022E-05    3     1000023         3        -3   # BR(chi^0_3 -> chi^0_2 s s_bar)
     4.43888186E-05    3     1000023         5        -5   # BR(chi^0_3 -> chi^0_2 b b_bar)
     1.07867436E-05    3     1000023        11       -11   # BR(chi^0_3 -> chi^0_2 e^- e^+)
     1.07863229E-05    3     1000023        13       -13   # BR(chi^0_3 -> chi^0_2 mu^- mu^+)
     1.06676284E-05    3     1000023        15       -15   # BR(chi^0_3 -> chi^0_2 tau^- tau^+)
     6.44231649E-05    3     1000023        12       -12   # BR(chi^0_3 -> chi^0_2 nu_e nu_bar_e)
     1.50413309E-04    3     1000024         1        -2   # BR(chi^0_3 -> chi^+_1 d u_bar)
     1.50413309E-04    3    -1000024        -1         2   # BR(chi^0_3 -> chi^-_1 d_bar u)
     1.50013643E-04    3     1000024         3        -4   # BR(chi^0_3 -> chi^+_1 s c_bar)
     1.50013643E-04    3    -1000024        -3         4   # BR(chi^0_3 -> chi^-_1 s_bar c)
     5.00821521E-05    3     1000024        11       -12   # BR(chi^0_3 -> chi^+_1 e^- nu_bar_e)
     5.00821521E-05    3    -1000024       -11        12   # BR(chi^0_3 -> chi^-_1 e^+ nu_e)
     5.00819042E-05    3     1000024        13       -14   # BR(chi^0_3 -> chi^+_1 mu^- nu_bar_mu)
     5.00819042E-05    3    -1000024       -13        14   # BR(chi^0_3 -> chi^-_1 mu^+ nu_mu)
     4.97668225E-05    3     1000024        15       -16   # BR(chi^0_3 -> chi^+_1 tau^- nu_bar_tau)
     4.97668225E-05    3    -1000024       -15        16   # BR(chi^0_3 -> chi^-_1 tau^+ nu_tau)
DECAY   1000035     3.16747387E+00   # chi^0_4
#    BR                NDA      ID1      ID2
     1.39795713E-03    2     2000011       -11   # BR(chi^0_4 -> ~e^-_R e^+)
     1.39795713E-03    2    -2000011        11   # BR(chi^0_4 -> ~e^+_R e^-)
     5.07079721E-02    2     1000011       -11   # BR(chi^0_4 -> ~e^-_L e^+)
     5.07079721E-02    2    -1000011        11   # BR(chi^0_4 -> ~e^+_L e^-)
     1.40281118E-03    2     2000013       -13   # BR(chi^0_4 -> ~mu^-_R mu^+)
     1.40281118E-03    2    -2000013        13   # BR(chi^0_4 -> ~mu^+_R mu^-)
     5.07123579E-02    2     1000013       -13   # BR(chi^0_4 -> ~mu^-_L mu^+)
     5.07123579E-02    2    -1000013        13   # BR(chi^0_4 -> ~mu^+_L mu^-)
     2.79193075E-03    2     1000015       -15   # BR(chi^0_4 -> ~tau^-_1 tau^+)
     2.79193075E-03    2    -1000015        15   # BR(chi^0_4 -> ~tau^+_1 tau^-)
     5.19479984E-02    2     2000015       -15   # BR(chi^0_4 -> ~tau^-_2 tau^+)
     5.19479984E-02    2    -2000015        15   # BR(chi^0_4 -> ~tau^+_2 tau^-)
     6.18687851E-02    2     1000012       -12   # BR(chi^0_4 -> ~nu_e nu_bar_e)
     6.18687851E-02    2    -1000012        12   # BR(chi^0_4 -> ~nu^*_e nu_e)
     6.18698957E-02    2     1000014       -14   # BR(chi^0_4 -> ~nu_mu nu_bar_mu)
     6.18698957E-02    2    -1000014        14   # BR(chi^0_4 -> ~nu^*_mu nu_mu)
     6.21830452E-02    2     1000016       -16   # BR(chi^0_4 -> ~nu_tau nu_bar_tau)
     6.21830452E-02    2    -1000016        16   # BR(chi^0_4 -> ~nu^*_tau nu_tau)
     1.24342584E-01    2     1000024       -24   # BR(chi^0_4 -> chi^+_1 W^-)
     1.24342584E-01    2    -1000024        24   # BR(chi^0_4 -> chi^-_1 W^+)
     4.77393618E-03    2     1000022        23   # BR(chi^0_4 -> chi^0_1 Z)
     7.43634573E-05    2     1000023        23   # BR(chi^0_4 -> chi^0_2 Z)
     5.20153524E-02    2     1000022        25   # BR(chi^0_4 -> chi^0_1 h^0)
     4.22454101E-03    2     1000023        25   # BR(chi^0_4 -> chi^0_2 h^0)
     3.52898598E-07    2     1000022        22   # BR(chi^0_4 -> chi^0_1 photon)
     1.32209668E-06    2     1000023        22   # BR(chi^0_4 -> chi^0_2 photon)
     5.40601405E-07    2     1000025        22   # BR(chi^0_4 -> chi^0_3 photon)
#    BR                NDA      ID1      ID2       ID3
     5.76556420E-08    3     1000022         2        -2   # BR(chi^0_4 -> chi^0_1 u u_bar)
     5.76467648E-08    3     1000022         4        -4   # BR(chi^0_4 -> chi^0_1 c c_bar)
     1.27892538E-05    3     1000022         6        -6   # BR(chi^0_4 -> chi^0_1 t t_bar)
     7.44433989E-08    3     1000022         1        -1   # BR(chi^0_4 -> chi^0_1 d d_bar)
     7.44820377E-08    3     1000022         3        -3   # BR(chi^0_4 -> chi^0_1 s s_bar)
     1.91068877E-07    3     1000022         5        -5   # BR(chi^0_4 -> chi^0_1 b b_bar)
     1.10187652E-06    3     1000022        11       -11   # BR(chi^0_4 -> chi^0_1 e^- e^+)
     1.10403843E-06    3     1000022        13       -13   # BR(chi^0_4 -> chi^0_1 mu^- mu^+)
     1.68882160E-06    3     1000022        15       -15   # BR(chi^0_4 -> chi^0_1 tau^- tau^+)
     3.11258075E-09    3     1000023         2        -2   # BR(chi^0_4 -> chi^0_2 u u_bar)
     3.10746669E-09    3     1000023         4        -4   # BR(chi^0_4 -> chi^0_2 c c_bar)
     2.95312283E-09    3     1000023         1        -1   # BR(chi^0_4 -> chi^0_2 d d_bar)
     2.95328779E-09    3     1000023         3        -3   # BR(chi^0_4 -> chi^0_2 s s_bar)
     3.74738785E-09    3     1000023         5        -5   # BR(chi^0_4 -> chi^0_2 b b_bar)
     4.40709273E-07    3     1000023        11       -11   # BR(chi^0_4 -> chi^0_2 e^- e^+)
     4.40748935E-07    3     1000023        13       -13   # BR(chi^0_4 -> chi^0_2 mu^- mu^+)
     4.40521687E-07    3     1000023        15       -15   # BR(chi^0_4 -> chi^0_2 tau^- tau^+)
     1.05471461E-06    3     1000023        12       -12   # BR(chi^0_4 -> chi^0_2 nu_e nu_bar_e)
     5.12152843E-05    3     1000025         2        -2   # BR(chi^0_4 -> chi^0_3 u u_bar)
     5.11555323E-05    3     1000025         4        -4   # BR(chi^0_4 -> chi^0_3 c c_bar)
     6.64517567E-05    3     1000025         1        -1   # BR(chi^0_4 -> chi^0_3 d d_bar)
     6.64515037E-05    3     1000025         3        -3   # BR(chi^0_4 -> chi^0_3 s s_bar)
     6.51708457E-05    3     1000025         5        -5   # BR(chi^0_4 -> chi^0_3 b b_bar)
     1.52226512E-05    3     1000025        11       -11   # BR(chi^0_4 -> chi^0_3 e^- e^+)
     1.52223642E-05    3     1000025        13       -13   # BR(chi^0_4 -> chi^0_3 mu^- mu^+)
     1.51166898E-05    3     1000025        15       -15   # BR(chi^0_4 -> chi^0_3 tau^- tau^+)
     9.15865662E-05    3     1000025        12       -12   # BR(chi^0_4 -> chi^0_3 nu_e nu_bar_e)
     2.09372540E-09    3     1000024         1        -2   # BR(chi^0_4 -> chi^+_1 d u_bar)
     2.09372540E-09    3    -1000024        -1         2   # BR(chi^0_4 -> chi^-_1 d_bar u)
     2.09417499E-09    3     1000024         3        -4   # BR(chi^0_4 -> chi^+_1 s c_bar)
     2.09417499E-09    3    -1000024        -3         4   # BR(chi^0_4 -> chi^-_1 s_bar c)
     2.98040378E-07    3     1000024        11       -12   # BR(chi^0_4 -> chi^+_1 e^- nu_bar_e)
     2.98040378E-07    3    -1000024       -11        12   # BR(chi^0_4 -> chi^-_1 e^+ nu_e)
     2.98042326E-07    3     1000024        13       -14   # BR(chi^0_4 -> chi^+_1 mu^- nu_bar_mu)
     2.98042326E-07    3    -1000024       -13        14   # BR(chi^0_4 -> chi^-_1 mu^+ nu_mu)
     2.95179320E-07    3     1000024        15       -16   # BR(chi^0_4 -> chi^+_1 tau^- nu_bar_tau)
     2.95179320E-07    3    -1000024       -15        16   # BR(chi^0_4 -> chi^-_1 tau^+ nu_tau)
DECAY   1000021     7.02172153E+00   # ~g
#    BR                NDA      ID1      ID2
     4.82834024E-02    2     2000002        -2   # BR(~g -> ~u_R u_bar)
     4.82834024E-02    2    -2000002         2   # BR(~g -> ~u^*_R u)
     6.63706611E-03    2     1000002        -2   # BR(~g -> ~u_L u_bar)
     6.63706611E-03    2    -1000002         2   # BR(~g -> ~u^*_L u)
     4.82819618E-02    2     2000004        -4   # BR(~g -> ~c_R c_bar)
     4.82819618E-02    2    -2000004         4   # BR(~g -> ~c^*_R c)
     6.63594263E-03    2     1000004        -4   # BR(~g -> ~c_L c_bar)
     6.63594263E-03    2    -1000004         4   # BR(~g -> ~c^*_L c)
     1.24732933E-05    2     1000006        -4   # BR(~g -> ~t_1 c_bar)
     1.24732933E-05    2    -1000006         4   # BR(~g -> ~t^*_1 c)
     1.54961483E-01    2     1000006        -6   # BR(~g -> ~t_1 t_bar)
     1.54961483E-01    2    -1000006         6   # BR(~g -> ~t^*_1 t)
     5.33360387E-02    2     2000001        -1   # BR(~g -> ~d_R d_bar)
     5.33360387E-02    2    -2000001         1   # BR(~g -> ~d^*_R d)
     6.27192275E-03    2     1000001        -1   # BR(~g -> ~d_L d_bar)
     6.27192275E-03    2    -1000001         1   # BR(~g -> ~d^*_L d)
     5.33371229E-02    2     2000003        -3   # BR(~g -> ~s_R s_bar)
     5.33371229E-02    2    -2000003         3   # BR(~g -> ~s^*_R s)
     6.27246492E-03    2     1000003        -3   # BR(~g -> ~s_L s_bar)
     6.27246492E-03    2    -1000003         3   # BR(~g -> ~s^*_L s)
     5.64411698E-02    2     1000005        -5   # BR(~g -> ~b_1 b_bar)
     5.64411698E-02    2    -1000005         5   # BR(~g -> ~b^*_1 b)
     4.55559534E-02    2     2000005        -5   # BR(~g -> ~b_2 b_bar)
     4.55559534E-02    2    -2000005         5   # BR(~g -> ~b^*_2 b)
     5.02991852E-08    2     1000039        21   # BR(~g -> ~G g)
     5.54042492E-06    2     1000022        21   # BR(~g -> chi^0_1 g)
     1.48848930E-04    2     1000023        21   # BR(~g -> chi^0_2 g)
     2.14132995E-04    2     1000025        21   # BR(~g -> chi^0_3 g)
     7.54330158E-05    2     1000035        21   # BR(~g -> chi^0_4 g)
#    BR                NDA      ID1      ID2       ID3
     2.30324723E-04    3     1000022         6        -6   # BR(~g -> chi^0_1 t t_bar)
     4.47682063E-03    3     1000023         6        -6   # BR(~g -> chi^0_2 t t_bar)
     6.77987772E-03    3     1000025         6        -6   # BR(~g -> chi^0_3 t t_bar)
     7.70213968E-03    3     1000035         6        -6   # BR(~g -> chi^0_4 t t_bar)
     1.09216810E-03    3     1000024         5        -6   # BR(~g -> chi^+_1 b t_bar)
     1.09216810E-03    3    -1000024        -5         6   # BR(~g -> chi^-_1 b_bar t)
     3.06424655E-03    3     1000037         5        -6   # BR(~g -> chi^+_2 b t_bar)
     3.06424655E-03    3    -1000037        -5         6   # BR(~g -> chi^-_2 b_bar t)
DECAY        25     2.80207440E-03   # h^0
#    BR                NDA      ID1      ID2
     8.11923752E-09    2          11       -11   # BR(h^0 -> e^- e^+)
     3.47120170E-04    2          13       -13   # BR(h^0 -> mu^- mu^+)
     9.79596656E-02    2          15       -15   # BR(h^0 -> tau^- tau^+)
     6.98584683E-07    2           1        -1   # BR(h^0 -> d d_bar)
     2.52188671E-04    2           3        -3   # BR(h^0 -> s s_bar)
     6.56195868E-01    2           5        -5   # BR(h^0 -> b b_bar)
     1.59200845E-07    2           2        -2   # BR(h^0 -> u u_bar)
     4.10756605E-02    2           4        -4   # BR(h^0 -> c c_bar)
     9.10527295E-02    2          21        21   # BR(h^0 -> g g)
     3.04323509E-03    2          22        22   # BR(h^0 -> photon photon)
# writing decays into V V* as 3-body decays
#    BR                NDA      ID1      ID2       ID3
     5.07158526E-03    3          24        11        12   # BR(h^0 -> W^+ e^- nu_e)
     5.07158526E-03    3          24        13        14   # BR(h^0 -> W^+ mu^- nu_mu)
     5.07158526E-03    3          24        15        16   # BR(h^0 -> W^+ tau^- nu_tau)
     1.77505484E-02    3          24         1        -2   # BR(h^0 -> W^+ d u_bar)
     1.77505484E-02    3          24         3        -4   # BR(h^0 -> W^+ s c_bar)
     5.07158526E-03    3         -24       -11       -12   # BR(h^0 -> W^- e^+ nu_bar_e)
     5.07158526E-03    3         -24       -13       -14   # BR(h^0 -> W^- mu^+ nu_bar_mu)
     5.07158526E-03    3         -24       -15       -16   # BR(h^0 -> W^- tau^+ nu_bar_tau)
     1.77505484E-02    3         -24        -1         2   # BR(h^0 -> W^- d_bar u)
     1.77505484E-02    3         -24        -3         4   # BR(h^0 -> W^- s_bar c)
     2.90336304E-04    3          23        11       -11   # BR(h^0 -> Z e^- e^+)
     2.90336304E-04    3          23        13       -13   # BR(h^0 -> Z mu^- mu^+)
     2.92064496E-04    3          23        15       -15   # BR(h^0 -> Z tau^- tau^+)
     1.72819229E-03    3          23        12       -12   # BR(h^0 -> Z nu_e nu_bar_e)
     1.34798998E-03    3          23         1        -1   # BR(h^0 -> Z d d_bar)
     1.34798998E-03    3          23         3        -3   # BR(h^0 -> Z s s_bar)
     1.30478518E-03    3          23         5        -5   # BR(h^0 -> Z b b_bar)
     1.00235153E-03    3          23         2        -2   # BR(h^0 -> Z u u_bar)
     1.03691537E-03    3          23         4        -4   # BR(h^0 -> Z c c_bar)
DECAY        35     1.82106212E+00   # H^0
#    BR                NDA      ID1      ID2
     8.75541846E-09    2          11       -11   # BR(H^0 -> e^- e^+)
     3.74321889E-04    2          13       -13   # BR(H^0 -> mu^- mu^+)
     1.05891003E-01    2          15       -15   # BR(H^0 -> tau^- tau^+)
     6.28915002E-07    2           1        -1   # BR(H^0 -> d d_bar)
     2.27038174E-04    2           3        -3   # BR(H^0 -> s s_bar)
     6.09530101E-01    2           5        -5   # BR(H^0 -> b b_bar)
     2.02081382E-11    2           2        -2   # BR(H^0 -> u u_bar)
     5.21500060E-06    2           4        -4   # BR(H^0 -> c c_bar)
     2.67438282E-01    2           6        -6   # BR(H^0 -> t t_bar)
     9.95528809E-05    2     2000011  -2000011   # BR(H^0 -> ~e^-_R ~e^+_R)
     9.95047725E-05    2     2000013  -2000013   # BR(H^0 -> ~mu^-_R ~mu^+_R)
     2.17790843E-13    2     2000013  -1000013   # BR(H^0 -> ~mu^-_R ~mu^+_L)
     2.17790843E-13    2    -2000013   1000013   # BR(H^0 -> ~mu^+_R ~mu^-_L)
     8.63280468E-05    2     1000015  -1000015   # BR(H^0 -> ~tau^-_1 ~tau^+_1)
     4.37949133E-12    2     1000015  -2000015   # BR(H^0 -> ~tau^-_1 ~tau^+_2)
     4.37949133E-12    2    -1000015   2000015   # BR(H^0 -> ~tau^+_1 ~tau^-_2)
     1.77897901E-03    2     1000022   1000022   # BR(H^0 -> chi^0_1 chi^0_1)
     4.08337162E-03    2          23        23   # BR(H^0 -> Z Z)
     7.80169826E-03    2          24       -24   # BR(H^0 -> W^+ W^-)
     2.38118394E-03    2          25        25   # BR(H^0 -> h^0 h^0)
     2.01198270E-04    2          21        21   # BR(H^0 -> g g)
     1.58424242E-06    2          22        22   # BR(H^0 -> photon photon)
DECAY        36     1.83139426E+00   # A^0
#    BR                NDA      ID1      ID2
     8.70795644E-09    2          11       -11   # BR(A^0 -> e^- e^+)
     3.72292754E-04    2          13       -13   # BR(A^0 -> mu^- mu^+)
     1.05318327E-01    2          15       -15   # BR(A^0 -> tau^- tau^+)
     6.25503986E-07    2           1        -1   # BR(A^0 -> d d_bar)
     2.25806788E-04    2           3        -3   # BR(A^0 -> s s_bar)
     6.06229155E-01    2           5        -5   # BR(A^0 -> b b_bar)
     1.92225589E-11    2           2        -2   # BR(A^0 -> u u_bar)
     4.96065768E-06    2           4        -4   # BR(A^0 -> c c_bar)
     2.79816408E-01    2           6        -6   # BR(A^0 -> t t_bar)
     1.25766056E-10    2     2000013  -1000013   # BR(A^0 -> ~mu^-_R ~mu^+_L)
     1.25766056E-10    2    -2000013   1000013   # BR(A^0 -> ~mu^+_R ~mu^-_L)
     3.38497837E-08    2     1000015  -2000015   # BR(A^0 -> ~tau^-_1 ~tau^+_2)
     3.38497837E-08    2    -1000015   2000015   # BR(A^0 -> ~tau^+_1 ~tau^-_2)
     7.03649102E-03    2     1000022   1000022   # BR(A^0 -> chi^0_1 chi^0_1)
     8.81248516E-04    2          25        23   # BR(A^0 -> h^0 Z)
     1.13849067E-04    2          21        21   # BR(A^0 -> g g)
     7.59102767E-07    2          22        22   # BR(A^0 -> photon photon)
DECAY        37     1.55224928E+00   # H^+
#    BR                NDA      ID1      ID2
     1.03115500E-08    2         -11        12   # BR(H^+ -> e^+ nu_e)
     4.40851466E-04    2         -13        12   # BR(H^+ -> mu^+ nu_e)
     1.24712986E-01    2         -15        12   # BR(H^+ -> tau^+ nu_e)
     6.50886643E-07    2          -1         2   # BR(H^+ -> d_bar u)
     2.40123698E-04    2          -3         4   # BR(H^+ -> s_bar c)
     8.73576425E-01    2          -5         6   # BR(H^+ -> b_bar t)
     2.68071694E-09    2    -2000013   1000014   # BR(H^+ -> ~mu^+_R ~nu_mu)
     7.38205929E-07    2    -1000015   1000016   # BR(H^+ -> ~tau^+_1 ~nu_tau)
     1.02821160E-03    2          25        24   # BR(H^+ -> h^0 W^+)
DECAY         6     2.43000000E+00   # top
#    BR                NDA      ID1      ID2
     1.00000000E+00    2           5        24   # BR(t -> b W)
Block HiggsBoundsInputHiggsCouplingsFermions
# ScalarNormEffCoupSq PseudoSNormEffCoupSq NP IP1 IP2 IP2
    1.04505472E+00    0.00000000E+00        3  25   5   5  # h0-b-b eff. coupling^2, normalised to SM
    9.14247056E+01    0.00000000E+00        3  35   5   5  # H0-b-b eff. coupling^2, normalised to SM
    0.00000000E+00    9.14697603E+01        3  36   5   5  # A0-b-b eff. coupling^2, normalised to SM
#
    9.99507436E-01    0.00000000E+00        3  25   6   6  # h0-t-t eff. coupling^2, normalised to SM
    1.14251389E-02    0.00000000E+00        3  35   6   6  # H0-t-t eff. coupling^2, normalised to SM
    0.00000000E+00    1.09325748E-02        3  36   6   6  # A0-t-t eff. coupling^2, normalised to SM
#
    1.04505472E+00    0.00000000E+00        3  25  15  15  # h0-tau-tau eff. coupling^2, normalised to SM
    9.14247056E+01    0.00000000E+00        3  35  15  15  # H0-tau-tau eff. coupling^2, normalised to SM
    0.00000000E+00    9.14697603E+01        3  36  15  15  # A0-tau-tau eff. coupling^2, normalised to SM
#
Block HiggsBoundsInputHiggsCouplingsBosons
    9.99994572E-01        3  25  24  24  # h0-W-W eff. coupling^2, normalised to SM
    5.42783433E-06        3  35  24  24  # H0-W-W eff. coupling^2, normalised to SM
    0.00000000E+00        3  36  24  24  # A0-W-W eff. coupling^2, normalised to SM
#
    9.99994572E-01        3  25  23  23  # h0-Z-Z eff. coupling^2, normalised to SM
    5.42783433E-06        3  35  23  23  # H0-Z-Z eff. coupling^2, normalised to SM
    0.00000000E+00        3  36  23  23  # A0-Z-Z eff. coupling^2, normalised to SM
#
    1.16375497E+00        3  25  21  21  # h0-g-g eff. coupling^2, normalised to SM
    9.31780201E-03        3  35  21  21  # H0-g-g eff. coupling^2, normalised to SM
    1.28366896E-01        3  36  21  21  # A0-g-g eff. coupling^2, normalised to SM
#
    0.00000000E+00        3  25  25  23  # h0-h0-Z eff. coupling^2, normalised to SM
    0.00000000E+00        3  35  25  23  # H0-h0-Z eff. coupling^2, normalised to SM
    5.42783433E-06        3  36  25  23  # A0-h0-Z eff. coupling^2, normalised to SM
    0.00000000E+00        3  35  35  23  # H0-H0-Z eff. coupling^2, normalised to SM
    9.99994572E-01        3  36  35  23  # A0-H0-Z eff. coupling^2, normalised to SM
    0.00000000E+00        3  36  36  23  # A0-A0-Z eff. coupling^2, normalised to SM
#
    0.00000000E+00        4  25  21  21  23  # h0-g-g-Z eff. coupling^2, normalised to SM
    0.00000000E+00        4  35  21  21  23  # H0-g-g-Z eff. coupling^2, normalised to SM
    0.00000000E+00        4  36  21  21  23  # A0-g-g-Z eff. coupling^2, normalised to SM
Block SPhenoLowEnergy  # low energy observables
    1    3.41105198E-04   # BR(b -> s gamma)
    2    1.58810648E-06   # BR(b -> s mu+ mu-)
    3    3.52766539E-05   # BR(b -> s nu nu)
    4    2.10200079E-15   # BR(Bd -> e+ e-)
    5    8.97950961E-11   # BR(Bd -> mu+ mu-)
    6    1.87960575E-08   # BR(Bd -> tau+ tau-)
    7    7.08284093E-14   # BR(Bs -> e+ e-)
    8    3.02578769E-09   # BR(Bs -> mu+ mu-)
    9    6.41736574E-07   # BR(Bs -> tau+ tau-)
   10    9.64228477E-05   # BR(B_u -> tau nu)
   11    9.96160830E-01   # BR(B_u -> tau nu)/BR(B_u -> tau nu)_SM
   12    5.42312139E-01   # |Delta(M_Bd)| [ps^-1] 
   13    1.93765863E+01   # |Delta(M_Bs)| [ps^-1] 
   16    2.15822568E-03   # epsilon_K
   17    2.28166852E-15   # Delta(M_K)
   18    2.48139981E-11   # BR(K^0 -> pi^0 nu nu)
   19    8.29403364E-11   # BR(K^+ -> pi^+ nu nu)
   20    6.13023765E-15   # Delta(g-2)_electron/2
   21    2.62090045E-10   # Delta(g-2)_muon/2
   22    7.43817687E-08   # Delta(g-2)_tau/2
   23    0.00000000E+00   # electric dipole moment of the electron
   24    0.00000000E+00   # electric dipole moment of the muon
   25    0.00000000E+00   # electric dipole moment of the tau
   26    0.00000000E+00   # Br(mu -> e gamma)
   27    0.00000000E+00   # Br(tau -> e gamma)
   28    0.00000000E+00   # Br(tau -> mu gamma)
   29    0.00000000E+00   # Br(mu -> 3 e)
   30    0.00000000E+00   # Br(tau -> 3 e)
   31    0.00000000E+00   # Br(tau -> 3 mu)
   39    1.78446643E-05   # Delta(rho_parameter)
   40    0.00000000E+00   # BR(Z -> e mu)
   41    0.00000000E+00   # BR(Z -> e tau)
   42    0.00000000E+00   # BR(Z -> mu tau)
Block FWCOEF Q=  1.60000000E+02  # Wilson coefficients at scale Q
#    id        order  M        value         comment
     0305 4422   00   0    -1.88869517E-01   # C7
     0305 4422   00   2    -2.09314463E-01   # C7
     0305 4322   00   2    -4.08700327E-04   # C7'
     0305 6421   00   0    -9.52438564E-02   # C8
     0305 6421   00   2    -1.22325466E-01   # C8
     0305 6321   00   2    -5.33933875E-04   # C8'
 03051111 4133   00   0     1.20239443E+00   # C9 e+e-
 03051111 4133   00   2     1.20379146E+00   # C9 e+e-
 03051111 4233   00   2    -2.39861950E-06   # C9' e+e-
 03051111 4137   00   0    -4.02763285E+00   # C10 e+e-
 03051111 4137   00   2    -4.02518466E+00   # C10 e+e-
 03051111 4237   00   2     5.49735705E-05   # C10' e+e-
 03051313 4133   00   0     1.20239443E+00   # C9 mu+mu-
 03051313 4133   00   2     1.20379122E+00   # C9 mu+mu-
 03051313 4233   00   2    -2.39866806E-06   # C9' mu+mu-
 03051313 4137   00   0    -4.02763285E+00   # C10 mu+mu-
 03051313 4137   00   2    -4.02518490E+00   # C10 mu+mu-
 03051313 4237   00   2     5.49736097E-05   # C10' mu+mu-
 03051212 4137   00   0     1.50607735E+00   # C11 nu_1 nu_1
 03051212 4137   00   2     1.50550132E+00   # C11 nu_1 nu_1
 03051212 4237   00   2    -1.31408381E-05   # C11' nu_1 nu_1
 03051414 4137   00   0     1.50607735E+00   # C11 nu_2 nu_2
 03051414 4137   00   2     1.50550132E+00   # C11 nu_2 nu_2
 03051414 4237   00   2    -1.31408271E-05   # C11' nu_2 nu_2
 03051616 4137   00   0     1.50607735E+00   # C11 nu_3 nu_3
 03051616 4137   00   2     1.50550138E+00   # C11 nu_3 nu_3
 03051616 4237   00   2    -1.31377423E-05   # C11' nu_3 nu_3
Block IMFWCOEF Q=  1.60000000E+02  # Im(Wilson coefficients) at scale Q
#    id        order  M        value         comment
     0305 4422   00   0     3.86157168E-07   # C7
     0305 4422   00   2     4.42363659E-06   # C7
     0305 4322   00   2     1.15339529E-06   # C7'
     0305 6421   00   0     3.30768989E-07   # C8
     0305 6421   00   2     4.39216327E-07   # C8
     0305 6321   00   2     4.46926949E-07   # C8'
 03051111 4133   00   2     7.50289711E-08   # C9 e+e-
 03051111 4233   00   2     2.46056595E-08   # C9' e+e-
 03051111 4137   00   2    -2.89030482E-06   # C10 e+e-
 03051111 4237   00   2    -5.55943659E-07   # C10' e+e-
 03051313 4133   00   2     7.50245469E-08   # C9 mu+mu-
 03051313 4233   00   2     2.46056150E-08   # C9' mu+mu-
 03051313 4137   00   2    -2.89030871E-06   # C10 mu+mu-
 03051313 4237   00   2    -5.55943782E-07   # C10' mu+mu-
 03051212 4137   00   2     8.50403684E-07   # C11 nu_1 nu_1
 03051212 4237   00   2     1.32892944E-07   # C11' nu_1 nu_1
 03051414 4137   00   2     8.50403641E-07   # C11 nu_2 nu_2
 03051414 4237   00   2     1.32892944E-07   # C11' nu_2 nu_2
 03051616 4137   00   2     8.50391383E-07   # C11 nu_3 nu_3
 03051616 4237   00   2     1.32892945E-07   # C11' nu_3 nu_3
