#  ISAJET SUSY parameters in SUSY Les Houches Accord 2 format
#  Created by ISALHA 2.0 Last revision: C. Balazs 21 Apr 2009
Block SPINFO   # Program information
     1   ISASUGRA from ISAJET          # Spectrum Calculator
     2   7.80   29-OCT-2009 12:50:36   # Version number
Block MODSEL   # Model selection
     1     3   # Minimal anomaly mediated (AMSB) model             
Block SMINPUTS   # Standard Model inputs
     1     1.27836266E+02   # alpha_em^(-1)
     2     1.16570000E-05   # G_Fermi
     3     1.17200002E-01   # alpha_s(M_Z)
     4     9.11699982E+01   # m_{Z}(pole)
     5     4.19999981E+00   # m_{b}(m_{b})
     6     1.72500000E+02   # m_{top}(pole)
     7     1.77699995E+00   # m_{tau}(pole)
Block MINPAR   # SUSY breaking input parameters
     1     5.00000000E+03   # m_0
     2     3.88000000E+05   # m_{3/2}
     3     5.00000000E+00   # tan(beta)
     4     1.00000000E+00   # sign(mu)
Block EXTPAR   # Non-universal SUSY breaking parameters
     0     8.23659515E+15   # Input scale
Block MASS   # Scalar and gaugino mass spectrum
#  PDG code   mass                 particle
         5     4.80000000E+00   # b-quark pole mass calculated from mb(mb)_Msbar
         6     1.72500000E+02   # t-quark pole mass (not read by ME)
        15     1.77682000E+00   # tau pole mass (not read by ME)
        23     9.11876000E+01   # Z pole mass (not read by ME)
        24     8.04229965E+01   #  W^+
        25     1.17991524E+02   #  h^0            
        35     7.73713037E+03   #  H^0            
        36     7.68646338E+03   #  A^0            
        37     7.73743701E+03   #  H^+            
   1000001     8.35214160E+03   #  dnl            
   1000002     8.35177832E+03   #  upl            
   1000003     8.35214160E+03   #  stl            
   1000004     8.35177832E+03   #  chl            
   1000005     7.20661816E+03   #  b1             
   1000006     5.81973682E+03   #  t1             
   1000011     4.75595703E+03   #  el-            
   1000012     4.75142480E+03   #  nuel           
   1000013     4.75595703E+03   #  mul-           
   1000014     4.75142480E+03   #  numl           
   1000015     4.68129248E+03   #  tau1           
   1000016     4.74211865E+03   #  nutl           
   1000021     7.30493018E+03   #  glss           
   1000022     1.09980847E+03   #  z1ss           
   1000023     3.61415576E+03   #  z2ss           
   1000024     1.09998242E+03   #  w1ss           
   1000025    -5.87438867E+03   #  z3ss           
   1000035     5.87523486E+03   #  z4ss           
   1000037     5.88157275E+03   #  w2ss           
   2000001     8.45704785E+03   #  dnr            
   2000002     8.39729004E+03   #  upr            
   2000003     8.45704785E+03   #  str            
   2000004     8.39729004E+03   #  chr            
   2000005     8.39821680E+03   #  b2             
   2000006     7.25806152E+03   #  t2             
   2000011     4.69722021E+03   #  er-            
   2000013     4.69722021E+03   #  mur-           
   2000015     4.74694287E+03   #  tau2           
Block ALPHA   # Effective Higgs mixing parameter
         -1.97471768E-01   # alpha
Block STOPMIX   # stop mixing matrix
  1  1     3.42603177E-02   # O_{11}
  1  2    -9.99412954E-01   # O_{12}
  2  1     9.99412954E-01   # O_{21}
  2  2     3.42603177E-02   # O_{22}
Block SBOTMIX   # sbottom mixing matrix
  1  1     9.99996126E-01   # O_{11}
  1  2     2.78370688E-03   # O_{12}
  2  1    -2.78370688E-03   # O_{21}
  2  2     9.99996126E-01   # O_{22}
Block STAUMIX   # stau mixing matrix
  1  1     8.94356817E-02   # O_{11}
  1  2     9.95992601E-01   # O_{12}
  2  1    -9.95992601E-01   # O_{21}
  2  2     8.94356817E-02   # O_{22}
Block NMIX   # neutralino mixing matrix
  1  1    -5.18621993E-04   #
  1  2     9.99908566E-01   #
  1  3    -1.31215295E-02   #
  1  4     3.20756761E-03   #
  2  1     9.99914467E-01   #
  2  2     6.85070176E-04   #
  2  3     1.09371841E-02   #
  2  4    -7.14468956E-03   #
  3  1    -2.68587470E-03   #
  3  2     7.00851483E-03   #
  3  3     7.07045734E-01   #
  3  4     7.07128167E-01   #
  4  1     1.27927465E-02   #
  4  2    -1.15388064E-02   #
  4  3    -7.06961691E-01   #
  4  4     7.07042217E-01   #
Block UMIX   # chargino U mixing matrix
  1  1    -9.99809504E-01   # U_{11}
  1  2     1.95172988E-02   # U_{12}
  2  1    -1.95172988E-02   # U_{21}
  2  2    -9.99809504E-01   # U_{22}
Block VMIX   # chargino V mixing matrix
  1  1    -9.99971151E-01   # V_{11}
  1  2     7.59598659E-03   # V_{12}
  2  1    -7.59598659E-03   # V_{21}
  2  2    -9.99971151E-01   # V_{22}
Block GAUGE Q=  6.20901465E+03   #
     1     3.57524961E-01   # g`
     2     6.52378559E-01   # g_2
     3     1.21928000E+00   # g_3
Block YU Q=  6.20901465E+03   #
  3  3     8.19779515E-01   # y_t
Block YD Q=  6.20901465E+03   #
  3  3     6.30560815E-02   # y_b
Block YE Q=  6.20901465E+03   #
  3  3     5.14917187E-02   # y_tau
Block HMIX Q=  6.20901465E+03   # Higgs mixing parameters
     1     5.85988135E+03   # mu(Q)
     2     5.00000000E+00   # tan(beta)(M_GUT)
     3     2.52416138E+02   # Higgs vev at Q
     4     5.90817200E+07   # m_A^2(Q)
Block MSOFT Q=  6.20901465E+03   # DRbar SUSY breaking parameters
     1     3.63904346E+03   # M_1(Q)          
     2     1.03136292E+03   # M_2(Q)          
     3    -6.83264355E+03   # M_3(Q)          
    21     3.23374943E+04   # mH1^2(Q)            
    22    -1.28800134E+05   # mH2^2(Q)            
    31     4.73620020E+03   # MeL(Q)          
    32     4.73620020E+03   # MmuL(Q)         
    33     4.72717773E+03   # MtauL(Q)        
    34     4.68612793E+03   # MeR(Q)          
    35     4.68612793E+03   # MmuR(Q)         
    36     4.66677051E+03   # MtauR(Q)        
    41     8.00125049E+03   # MqL1(Q)         
    42     8.00125049E+03   # MqL2(Q)         
    43     6.89995947E+03   # MqL3(Q)         
    44     8.04732959E+03   # MuR(Q)          
    45     8.04732959E+03   # McR(Q)          
    46     5.58725977E+03   # MtR(Q)          
    47     8.10786182E+03   # MdR(Q)          
    48     8.10786182E+03   # MsR(Q)          
    49     8.13463525E+03   # MbR(Q)          
Block AU Q=  6.20901465E+03   #
  1  1     5.91297461E+03   # A_u
  2  2     5.91297461E+03   # A_c
  3  3     5.91297461E+03   # A_t
Block AD Q=  6.20901465E+03   #
  1  1     1.39822197E+04   # A_d
  2  2     1.39822197E+04   # A_s
  3  3     1.39822197E+04   # A_b
Block AE Q=  6.20901465E+03   #
  1  1     4.02364258E+03   # A_e
  2  2     4.02364258E+03   # A_mu
  3  3     4.02364258E+03   # A_tau
#
#  ISAJET decay tables in SUSY Les Houches accord format
#  Created by ISALHD. Last revision: C. Balazs, 2005 May 25
Block DCINFO                           # Program information
     1   ISASUGRA from ISAJET          # Spectrum Calculator
     2   7.80   29-OCT-2009 12:50:36   # Version number
#         PDG         Width
DECAY        23     2.49520000E+00   # Z width (SM calculation)
DECAY        24     2.08500000E+00   # W width (SM calculation)
#
#         PDG            Width  
DECAY         6  1.14680779E+00   # TP    decays
#          BR          NDA       ID1       ID2       ID3       ID4
      3.33333343E-01    3            2        -1         5             # TP     -->  UP     DB     BT          
      3.33333343E-01    3            4        -3         5             # TP     -->  CH     SB     BT          
      1.11111112E-01    3          -11        12         5             # TP     -->  E+     NUE    BT          
      1.11111112E-01    3          -13        14         5             # TP     -->  MU+    NUM    BT          
      1.11111112E-01    3          -15        16         5             # TP     -->  TAU+   NUT    BT          
#         PDG         Width
DECAY   1000021  1.89386883E+01   # GLSS  decays
#          BR          NDA       ID1       ID2       ID3       ID4
      1.76704885E-03    3      1000024         1        -2             # GLSS   -->  W1SS+  DN     UB          
      1.76704885E-03    3     -1000024         2        -1             # GLSS   -->  W1SS-  UP     DB          
      1.76704885E-03    3      1000024         3        -4             # GLSS   -->  W1SS+  ST     CB          
      1.76704885E-03    3     -1000024         4        -3             # GLSS   -->  W1SS-  CH     SB          
      4.47566202E-03    3      1000024         5        -6             # GLSS   -->  W1SS+  BT     TB          
      4.47566202E-03    3     -1000024         6        -5             # GLSS   -->  W1SS-  TP     BB          
      2.89441227E-09    3      1000037         1        -2             # GLSS   -->  W2SS+  DN     UB          
      2.89441227E-09    3     -1000037         2        -1             # GLSS   -->  W2SS-  UP     DB          
      2.89441227E-09    3      1000037         3        -4             # GLSS   -->  W2SS+  ST     CB          
      2.89441227E-09    3     -1000037         4        -3             # GLSS   -->  W2SS-  CH     SB          
      1.70532348E-06    3      1000037         5        -6             # GLSS   -->  W2SS+  BT     TB          
      1.70532348E-06    3     -1000037         6        -5             # GLSS   -->  W2SS-  TP     BB          
      2.66996940E-05    2      1000022        21                       # GLSS   -->  Z1SS   GL                 
      8.83590896E-04    3      1000022         2        -2             # GLSS   -->  Z1SS   UP     UB          
      8.83636705E-04    3      1000022         1        -1             # GLSS   -->  Z1SS   DN     DB          
      8.83636705E-04    3      1000022         3        -3             # GLSS   -->  Z1SS   ST     SB          
      8.83590896E-04    3      1000022         4        -4             # GLSS   -->  Z1SS   CH     CB          
      9.16087817E-10    3      1000022         5        -5             # GLSS   -->  Z1SS   BT     BB          
      4.02815873E-03    3      1000022         6        -6             # GLSS   -->  Z1SS   TP     TB          
      2.58570685E-06    2      1000023        21                       # GLSS   -->  Z2SS   GL                 
      1.05137893E-04    3      1000023         2        -2             # GLSS   -->  Z2SS   UP     UB          
      2.95728423E-05    3      1000023         1        -1             # GLSS   -->  Z2SS   DN     DB          
      2.95728423E-05    3      1000023         3        -3             # GLSS   -->  Z2SS   ST     SB          
      1.05137893E-04    3      1000023         4        -4             # GLSS   -->  Z2SS   CH     CB          
      2.46269283E-05    3      1000023         5        -5             # GLSS   -->  Z2SS   BT     BB          
      4.80116651E-05    3      1000023         6        -6             # GLSS   -->  Z2SS   TP     TB          
      1.82120459E-06    2      1000025        21                       # GLSS   -->  Z3SS   GL                 
      6.64134525E-10    3      1000025         2        -2             # GLSS   -->  Z3SS   UP     UB          
      8.22044766E-10    3      1000025         1        -1             # GLSS   -->  Z3SS   DN     DB          
      8.22044766E-10    3      1000025         3        -3             # GLSS   -->  Z3SS   ST     SB          
      6.64134525E-10    3      1000025         4        -4             # GLSS   -->  Z3SS   CH     CB          
      9.20228160E-08    3      1000025         5        -5             # GLSS   -->  Z3SS   BT     BB          
      1.87957834E-04    3      1000025         6        -6             # GLSS   -->  Z3SS   TP     TB          
      2.13911744E-06    2      1000035        21                       # GLSS   -->  Z4SS   GL                 
      8.76093587E-10    3      1000035         2        -2             # GLSS   -->  Z4SS   UP     UB          
      1.11016518E-09    3      1000035         1        -1             # GLSS   -->  Z4SS   DN     DB          
      1.11016518E-09    3      1000035         3        -3             # GLSS   -->  Z4SS   ST     SB          
      8.76093587E-10    3      1000035         4        -4             # GLSS   -->  Z4SS   CH     CB          
      9.19704277E-08    3      1000035         5        -5             # GLSS   -->  Z4SS   BT     BB          
      1.72111759E-04    3      1000035         6        -6             # GLSS   -->  Z4SS   TP     TB          
      2.63374182E-03    2     -1000005         5                       # GLSS   -->  BB1    BT                 
      2.63374182E-03    2      1000005        -5                       # GLSS   -->  BT1    BB                 
      4.85205680E-01    2     -1000006         6                       # GLSS   -->  TB1    TP                 
      4.85205680E-01    2      1000006        -6                       # GLSS   -->  TP1    TB                 
#         PDG         Width
DECAY   1000002  1.25862015E+02   # UPL   decays
#          BR          NDA       ID1       ID2       ID3       ID4
      2.69612491E-01    2      1000022         2                       # UPL    -->  Z1SS   UP                 
      6.23801863E-03    2      1000023         2                       # UPL    -->  Z2SS   UP                 
      3.02807166E-06    2      1000025         2                       # UPL    -->  Z3SS   UP                 
      6.02575528E-06    2      1000035         2                       # UPL    -->  Z4SS   UP                 
      1.84743240E-01    2      1000021         2                       # UPL    -->  GLSS   UP                 
      5.39389014E-01    2      1000024         1                       # UPL    -->  W1SS+  DN                 
      8.18953777E-06    2      1000037         1                       # UPL    -->  W2SS+  DN                 
#         PDG         Width
DECAY   1000001  1.25867088E+02   # DNL   decays
#          BR          NDA       ID1       ID2       ID3       ID4
      2.69716710E-01    2      1000022         1                       # DNL    -->  Z1SS   DN                 
      6.14566775E-03    2      1000023         1                       # DNL    -->  Z2SS   DN                 
      4.01246098E-06    2      1000025         1                       # DNL    -->  Z3SS   DN                 
      1.37376455E-05    2      1000035         1                       # DNL    -->  Z4SS   DN                 
      1.84847876E-01    2      1000021         1                       # DNL    -->  GLSS   DN                 
      5.39217949E-01    2     -1000024         2                       # DNL    -->  W1SS-  UP                 
      5.40762048E-05    2     -1000037         2                       # DNL    -->  W2SS-  UP                 
#         PDG         Width
DECAY   1000003  1.25867088E+02   # STL   decays
#          BR          NDA       ID1       ID2       ID3       ID4
      2.69716710E-01    2      1000022         3                       # STL    -->  Z1SS   ST                 
      6.14566775E-03    2      1000023         3                       # STL    -->  Z2SS   ST                 
      4.01246098E-06    2      1000025         3                       # STL    -->  Z3SS   ST                 
      1.37376455E-05    2      1000035         3                       # STL    -->  Z4SS   ST                 
      1.84847876E-01    2      1000021         3                       # STL    -->  GLSS   ST                 
      5.39217949E-01    2     -1000024         4                       # STL    -->  W1SS-  CH                 
      5.40761939E-05    2     -1000037         4                       # STL    -->  W2SS-  CH                 
#         PDG         Width
DECAY   1000004  1.25861992E+02   # CHL   decays
#          BR          NDA       ID1       ID2       ID3       ID4
      2.69612551E-01    2      1000022         4                       # CHL    -->  Z1SS   CH                 
      6.23802003E-03    2      1000023         4                       # CHL    -->  Z2SS   CH                 
      3.02807189E-06    2      1000025         4                       # CHL    -->  Z3SS   CH                 
      6.02575574E-06    2      1000035         4                       # CHL    -->  Z4SS   CH                 
      1.84743106E-01    2      1000021         4                       # CHL    -->  GLSS   CH                 
      5.39389133E-01    2      1000024         3                       # CHL    -->  W1SS+  ST                 
      8.18953959E-06    2      1000037         3                       # CHL    -->  W2SS+  ST                 
#         PDG         Width
DECAY   1000005  1.09377274E+02   # BT1   decays
#          BR          NDA       ID1       ID2       ID3       ID4
      2.64577359E-01    2      1000022         5                       # BT1    -->  Z1SS   BT                 
      5.17651951E-03    2      1000023         5                       # BT1    -->  Z2SS   BT                 
      3.12491029E-04    2      1000025         5                       # BT1    -->  Z3SS   BT                 
      3.16579768E-04    2      1000035         5                       # BT1    -->  Z4SS   BT                 
      5.28277755E-01    2     -1000024         6                       # BT1    -->  W1SS-  TP                 
      9.18738842E-02    2     -1000037         6                       # BT1    -->  W2SS-  TP                 
      1.09465413E-01    2          -24   1000006                       # BT1    -->  W-     TP1                
#         PDG         Width
DECAY   1000006  4.96499634E+00   # TP1   decays
#          BR          NDA       ID1       ID2       ID3       ID4
      3.77536099E-03    2      1000022         6                       # TP1    -->  Z1SS   TP                 
      9.90500629E-01    2      1000023         6                       # TP1    -->  Z2SS   TP                 
      5.72408689E-03    2      1000024         5                       # TP1    -->  W1SS+  BT                 
#         PDG         Width
DECAY   2000002  3.76419792E+01   # UPR   decays
#          BR          NDA       ID1       ID2       ID3       ID4
      1.31025615E-07    2      1000022         2                       # UPR    -->  Z1SS   UP                 
      3.34709316E-01    2      1000023         2                       # UPR    -->  Z2SS   UP                 
      9.48524416E-07    2      1000025         2                       # UPR    -->  Z3SS   UP                 
      2.15062482E-05    2      1000035         2                       # UPR    -->  Z4SS   UP                 
      6.65268064E-01    2      1000021         2                       # UPR    -->  GLSS   UP                 
#         PDG         Width
DECAY   2000001  3.06547699E+01   # DNR   decays
#          BR          NDA       ID1       ID2       ID3       ID4
      4.05287892E-08    2      1000022         1                       # DNR    -->  Z1SS   DN                 
      1.04144961E-01    2      1000023         1                       # DNR    -->  Z2SS   DN                 
      3.01222116E-07    2      1000025         1                       # DNR    -->  Z3SS   DN                 
      6.82982500E-06    2      1000035         1                       # DNR    -->  Z4SS   DN                 
      8.95847857E-01    2      1000021         1                       # DNR    -->  GLSS   DN                 
#         PDG         Width
DECAY   2000003  3.06547699E+01   # STR   decays
#          BR          NDA       ID1       ID2       ID3       ID4
      4.05287892E-08    2      1000022         3                       # STR    -->  Z1SS   ST                 
      1.04144961E-01    2      1000023         3                       # STR    -->  Z2SS   ST                 
      3.01222116E-07    2      1000025         3                       # STR    -->  Z3SS   ST                 
      6.82982500E-06    2      1000035         3                       # STR    -->  Z4SS   ST                 
      8.95847857E-01    2      1000021         3                       # STR    -->  GLSS   ST                 
#         PDG         Width
DECAY   2000004  3.76419563E+01   # CHR   decays
#          BR          NDA       ID1       ID2       ID3       ID4
      1.31025686E-07    2      1000022         4                       # CHR    -->  Z1SS   CH                 
      3.34709525E-01    2      1000023         4                       # CHR    -->  Z2SS   CH                 
      9.48524757E-07    2      1000025         4                       # CHR    -->  Z3SS   CH                 
      2.15062610E-05    2      1000035         4                       # CHR    -->  Z4SS   CH                 
      6.65267885E-01    2      1000021         4                       # CHR    -->  GLSS   CH                 
#         PDG         Width
DECAY   2000005  2.87325420E+01   # BT2   decays
#          BR          NDA       ID1       ID2       ID3       ID4
      1.07209678E-06    2      1000022         5                       # BT2    -->  Z1SS   BT                 
      1.09644189E-01    2      1000023         5                       # BT2    -->  Z2SS   BT                 
      3.19824135E-03    2      1000025         5                       # BT2    -->  Z3SS   BT                 
      3.20490263E-03    2      1000035         5                       # BT2    -->  Z4SS   BT                 
      8.72851253E-01    2      1000021         5                       # BT2    -->  GLSS   BT                 
      1.65745189E-06    2     -1000024         6                       # BT2    -->  W1SS-  TP                 
      6.37985952E-03    2     -1000037         6                       # BT2    -->  W2SS-  TP                 
      1.71117335E-05    2          -24   1000006                       # BT2    -->  W-     TP1                
      1.67087873E-03    2          -24   2000006                       # BT2    -->  W-     TP2                
      9.56634991E-04    2           23   1000005                       # BT2    -->  Z0     BT1                
      2.07419926E-03    2           25   1000005                       # BT2    -->  HL0    BT1                
#         PDG         Width
DECAY   2000006  1.16160042E+02   # TP2   decays
#          BR          NDA       ID1       ID2       ID3       ID4
      5.01840234E-01    2      1000024         5                       # TP2    -->  W1SS+  BT                 
      6.88316592E-04    2      1000037         5                       # TP2    -->  W2SS+  BT                 
      5.75693622E-02    2           23   1000006                       # TP2    -->  Z0     TP1                
      9.14316550E-02    2           25   1000006                       # TP2    -->  HL0    TP1                
      2.50470489E-01    2      1000022         6                       # TP2    -->  Z1SS   TP                 
      5.26284287E-03    2      1000023         6                       # TP2    -->  Z2SS   TP                 
      4.67772745E-02    2      1000025         6                       # TP2    -->  Z3SS   TP                 
      4.59597744E-02    2      1000035         6                       # TP2    -->  Z4SS   TP                 
#         PDG         Width
DECAY   1000011  5.48601570E+01   # EL-   decays
#          BR          NDA       ID1       ID2       ID3       ID4
      3.26685041E-01    2      1000022        11                       # EL-    -->  Z1SS   E-                 
      1.97251122E-02    2      1000023        11                       # EL-    -->  Z2SS   E-                 
      6.53589845E-01    2     -1000024        12                       # EL-    -->  W1SS-  NUE                
      5.41219777E-19    3      1000015        11       -15             # EL-    -->  TAU1-  E-     TAU+        
      8.82543068E-21    3     -1000015        11        15             # EL-    -->  TAU1+  E-     TAU-        
#         PDG         Width
DECAY   1000013  5.48601570E+01   # MUL-  decays
#          BR          NDA       ID1       ID2       ID3       ID4
      3.26685041E-01    2      1000022        13                       # MUL-   -->  Z1SS   MU-                
      1.97251122E-02    2      1000023        13                       # MUL-   -->  Z2SS   MU-                
      6.53589845E-01    2     -1000024        14                       # MUL-   -->  W1SS-  NUM                
      5.41219777E-19    3      1000015        13       -15             # MUL-   -->  TAU1-  MU-    TAU+        
      8.82543068E-21    3     -1000015        13        15             # MUL-   -->  TAU1+  MU-    TAU-        
#         PDG         Width
DECAY   1000015  4.29891539E+00   # TAU1- decays
#          BR          NDA       ID1       ID2       ID3       ID4
      3.38170566E-02    2      1000022        15                       # TAU1-  -->  Z1SS   TAU-               
      8.98414254E-01    2      1000023        15                       # TAU1-  -->  Z2SS   TAU-               
      6.77686334E-02    2     -1000024        16                       # TAU1-  -->  W1SS-  NUT                
#         PDG         Width
DECAY   1000012  5.48173103E+01   # NUEL  decays
#          BR          NDA       ID1       ID2       ID3       ID4
      3.26931030E-01    2      1000022        12                       # NUEL   -->  Z1SS   NUE                
      1.95213705E-02    2      1000023        12                       # NUEL   -->  Z2SS   NUE                
      6.53547585E-01    2      1000024        11                       # NUEL   -->  W1SS+  E-                 
      2.86836851E-18    3      1000015        12       -15             # NUEL   -->  TAU1-  NUE    TAU+        
      6.18701268E-19    3     -1000015        12        15             # NUEL   -->  TAU1+  NUE    TAU-        
      8.92620691E-18    3     -1000015        11        16             # NUEL   -->  TAU1+  E-     NUT         
#         PDG         Width
DECAY   1000014  5.48173103E+01   # NUML  decays
#          BR          NDA       ID1       ID2       ID3       ID4
      3.26931030E-01    2      1000022        14                       # NUML   -->  Z1SS   NUM                
      1.95213705E-02    2      1000023        14                       # NUML   -->  Z2SS   NUM                
      6.53547585E-01    2      1000024        13                       # NUML   -->  W1SS+  MU-                
      2.86836851E-18    3      1000015        14       -15             # NUML   -->  TAU1-  NUM    TAU+        
      6.18701268E-19    3     -1000015        14        15             # NUML   -->  TAU1+  NUM    TAU-        
      9.24609171E-18    3     -1000015        13        16             # NUML   -->  TAU1+  MU-    NUT         
#         PDG         Width
DECAY   1000016  5.46746750E+01   # NUTL  decays
#          BR          NDA       ID1       ID2       ID3       ID4
      3.26996386E-01    2      1000022        16                       # NUTL   -->  Z1SS   NUT                
      1.93237998E-02    2      1000023        16                       # NUTL   -->  Z2SS   NUT                
      6.53679311E-01    2      1000024        15                       # NUTL   -->  W1SS+  TAU-               
      5.04301447E-17    3     -1000015        16        15             # NUTL   -->  TAU1+  NUT    TAU-        
      5.32520339E-08    3      1000015        16       -15             # NUTL   -->  TAU1-  NUT    TAU+        
      5.32520339E-08    3      1000015        12       -11             # NUTL   -->  TAU1-  NUE    E+          
      5.32520339E-08    3      1000015        14       -13             # NUTL   -->  TAU1-  NUM    MU+         
      1.59756098E-07    3      1000015         2        -1             # NUTL   -->  TAU1-  UP     DB          
      1.59756098E-07    3      1000015         4        -3             # NUTL   -->  TAU1-  CH     SB          
#         PDG         Width
DECAY   2000011  3.97609544E+00   # ER-   decays
#          BR          NDA       ID1       ID2       ID3       ID4
      1.44381772E-06    2      1000022        11                       # ER-    -->  Z1SS   E-                 
      9.99998569E-01    2      1000023        11                       # ER-    -->  Z2SS   E-                 
      5.66192326E-21    3      1000015        11       -15             # ER-    -->  TAU1-  E-     TAU+        
      8.38371946E-21    3     -1000015        11        15             # ER-    -->  TAU1+  E-     TAU-        
      5.87185102E-26    3      1000015        12       -16             # ER-    -->  TAU1-  NUE    ANUT        
#         PDG         Width
DECAY   2000013  3.97609544E+00   # MUR-  decays
#          BR          NDA       ID1       ID2       ID3       ID4
      1.44381772E-06    2      1000022        13                       # MUR-   -->  Z1SS   MU-                
      9.99998569E-01    2      1000023        13                       # MUR-   -->  Z2SS   MU-                
      5.66192326E-21    3      1000015        13       -15             # MUR-   -->  TAU1-  MU-    TAU+        
      8.38371946E-21    3     -1000015        13        15             # MUR-   -->  TAU1+  MU-    TAU-        
      2.49950070E-21    3      1000015        14       -16             # MUR-   -->  TAU1-  NUM    ANUT        
#         PDG         Width
DECAY   2000015  5.43024521E+01   # TAU2- decays
#          BR          NDA       ID1       ID2       ID3       ID4
      3.26551080E-01    2      1000022        15                       # TAU2-  -->  Z1SS   TAU-               
      2.01372188E-02    2      1000023        15                       # TAU2-  -->  Z2SS   TAU-               
      6.53311670E-01    2     -1000024        16                       # TAU2-  -->  W1SS-  NUT                
#         PDG         Width
DECAY   1000023  3.56472433E-02   # Z2SS  decays
#          BR          NDA       ID1       ID2       ID3       ID4
      2.13564181E-05    2      1000022        22                       # Z2SS   -->  Z1SS   GM                 
      4.52371746E-01    2      1000024       -24                       # Z2SS   -->  W1SS+  W-                 
      4.52371746E-01    2     -1000024        24                       # Z2SS   -->  W1SS-  W+                 
      4.75092838E-03    2      1000022        23                       # Z2SS   -->  Z1SS   Z0                 
      1.42581121E-04    3      1000022         2        -2             # Z2SS   -->  Z1SS   UP     UB          
      1.40490432E-04    3      1000022         1        -1             # Z2SS   -->  Z1SS   DN     DB          
      1.40490432E-04    3      1000022         3        -3             # Z2SS   -->  Z1SS   ST     SB          
      1.42581121E-04    3      1000022         4        -4             # Z2SS   -->  Z1SS   CH     CB          
      2.71772122E-04    3      1000022         5        -5             # Z2SS   -->  Z1SS   BT     BB          
      6.63058599E-03    3      1000022        11       -11             # Z2SS   -->  Z1SS   E-     E+          
      6.63058599E-03    3      1000022        13       -13             # Z2SS   -->  Z1SS   MU-    MU+         
      6.70939032E-03    3      1000022        15       -15             # Z2SS   -->  Z1SS   TAU-   TAU+        
      6.64176932E-03    3      1000022        12       -12             # Z2SS   -->  Z1SS   NUE    ANUE        
      6.64176932E-03    3      1000022        14       -14             # Z2SS   -->  Z1SS   NUM    ANUM        
      6.71788771E-03    3      1000022        16       -16             # Z2SS   -->  Z1SS   NUT    ANUT        
      4.96744774E-02    2      1000022        25                       # Z2SS   -->  Z1SS   HL0                
#         PDG         Width
DECAY   1000025  4.26648979E+01   # Z3SS  decays
#          BR          NDA       ID1       ID2       ID3       ID4
      3.94555943E-09    2      1000022        22                       # Z3SS   -->  Z1SS   GM                 
      1.63795463E-07    2      1000023        22                       # Z3SS   -->  Z2SS   GM                 
      3.45419168E-01    2      1000024       -24                       # Z3SS   -->  W1SS+  W-                 
      3.45419168E-01    2     -1000024        24                       # Z3SS   -->  W1SS-  W+                 
      1.87568352E-01    2      1000022        23                       # Z3SS   -->  Z1SS   Z0                 
      6.13250472E-02    2      1000023        23                       # Z3SS   -->  Z2SS   Z0                 
      2.00430628E-09    3      1000022         2        -2             # Z3SS   -->  Z1SS   UP     UB          
      2.65579536E-09    3      1000022         1        -1             # Z3SS   -->  Z1SS   DN     DB          
      2.65579536E-09    3      1000022         3        -3             # Z3SS   -->  Z1SS   ST     SB          
      2.00430628E-09    3      1000022         4        -4             # Z3SS   -->  Z1SS   CH     CB          
      2.94207848E-06    3      1000022         5        -5             # Z3SS   -->  Z1SS   BT     BB          
      1.32123361E-07    3      1000022        15       -15             # Z3SS   -->  Z1SS   TAU-   TAU+        
      1.13464698E-11    3      1000023         2        -2             # Z3SS   -->  Z2SS   UP     UB          
      6.56362074E-12    3      1000023         1        -1             # Z3SS   -->  Z2SS   DN     DB          
      6.56362074E-12    3      1000023         3        -3             # Z3SS   -->  Z2SS   ST     SB          
      1.13464698E-11    3      1000023         4        -4             # Z3SS   -->  Z2SS   CH     CB          
      2.81932948E-08    3      1000023         5        -5             # Z3SS   -->  Z2SS   BT     BB          
      1.64968794E-09    3      1000023        15       -15             # Z3SS   -->  Z2SS   TAU-   TAU+        
      5.68036474E-02    2      1000022        25                       # Z3SS   -->  Z1SS   HL0                
      2.46224459E-03    2      1000023        25                       # Z3SS   -->  Z2SS   HL0                
      1.05280719E-06    2      1000011       -11                       # Z3SS   -->  EL-    E+                 
      1.05280719E-06    2     -1000011        11                       # Z3SS   -->  EL+    E-                 
      1.05280719E-06    2      1000013       -13                       # Z3SS   -->  MUL-   MU+                
      1.05280719E-06    2     -1000013        13                       # Z3SS   -->  MUL+   MU-                
      3.28504314E-07    2      2000011       -11                       # Z3SS   -->  ER-    E+                 
      3.28504314E-07    2     -2000011        11                       # Z3SS   -->  ER+    E-                 
      3.28504314E-07    2      2000013       -13                       # Z3SS   -->  MUR-   MU+                
      3.28504314E-07    2     -2000013        13                       # Z3SS   -->  MUR+   MU-                
      2.51901511E-04    2      1000015       -15                       # Z3SS   -->  TAU1-  TAU+               
      2.51901511E-04    2     -1000015        15                       # Z3SS   -->  TAU1+  TAU-               
      2.37265951E-04    2      2000015       -15                       # Z3SS   -->  TAU2-  TAU+               
      2.37265951E-04    2     -2000015        15                       # Z3SS   -->  TAU2+  TAU-               
      2.49433765E-06    2      1000012       -12                       # Z3SS   -->  NUEL   ANUE               
      2.49433765E-06    2     -1000012        12                       # Z3SS   -->  ANUEL  NUE                
      2.49433765E-06    2      1000014       -14                       # Z3SS   -->  NUML   ANUM               
      2.49433765E-06    2     -1000014        14                       # Z3SS   -->  ANUML  NUM                
      2.53141070E-06    2      1000016       -16                       # Z3SS   -->  NUTL   ANUT               
      2.53141070E-06    2     -1000016        16                       # Z3SS   -->  ANUTL  NUT                
#         PDG         Width
DECAY   1000035  3.38823471E+01   # Z4SS  decays
#          BR          NDA       ID1       ID2       ID3       ID4
      3.55063143E-08    2      1000022        22                       # Z4SS   -->  Z1SS   GM                 
      1.88852454E-07    2      1000023        22                       # Z4SS   -->  Z2SS   GM                 
      2.14489504E-17    2      1000025        22                       # Z4SS   -->  Z3SS   GM                 
      2.20786735E-01    2      1000024       -24                       # Z4SS   -->  W1SS+  W-                 
      2.20786735E-01    2     -1000024        24                       # Z4SS   -->  W1SS-  W+                 
      8.71214792E-02    2      1000022        23                       # Z4SS   -->  Z1SS   Z0                 
      3.41335707E-03    2      1000023        23                       # Z4SS   -->  Z2SS   Z0                 
      8.21537149E-09    3      1000022         2        -2             # Z4SS   -->  Z1SS   UP     UB          
      1.87291693E-08    3      1000022         1        -1             # Z4SS   -->  Z1SS   DN     DB          
      1.87291693E-08    3      1000022         3        -3             # Z4SS   -->  Z1SS   ST     SB          
      8.21537149E-09    3      1000022         4        -4             # Z4SS   -->  Z1SS   CH     CB          
      3.72658019E-06    3      1000022         5        -5             # Z4SS   -->  Z1SS   BT     BB          
      1.64798237E-07    3      1000022        15       -15             # Z4SS   -->  Z1SS   TAU-   TAU+        
      5.36176326E-10    3      1000023         2        -2             # Z4SS   -->  Z2SS   UP     UB          
      1.01134545E-10    3      1000023         1        -1             # Z4SS   -->  Z2SS   DN     DB          
      1.01134545E-10    3      1000023         3        -3             # Z4SS   -->  Z2SS   ST     SB          
      5.36176326E-10    3      1000023         4        -4             # Z4SS   -->  Z2SS   CH     CB          
      3.52624880E-08    3      1000023         5        -5             # Z4SS   -->  Z2SS   BT     BB          
      2.02816408E-09    3      1000023        15       -15             # Z4SS   -->  Z2SS   TAU-   TAU+        
      3.43377233E-01    2      1000022        25                       # Z4SS   -->  Z1SS   HL0                
      1.23130053E-01    2      1000023        25                       # Z4SS   -->  Z2SS   HL0                
      8.81194296E-07    2      1000011       -11                       # Z4SS   -->  EL-    E+                 
      8.81194296E-07    2     -1000011        11                       # Z4SS   -->  EL+    E-                 
      8.81194296E-07    2      1000013       -13                       # Z4SS   -->  MUL-   MU+                
      8.81194296E-07    2     -1000013        13                       # Z4SS   -->  MUL+   MU-                
      9.39507481E-06    2      2000011       -11                       # Z4SS   -->  ER-    E+                 
      9.39507481E-06    2     -2000011        11                       # Z4SS   -->  ER+    E-                 
      9.39507481E-06    2      2000013       -13                       # Z4SS   -->  MUR-   MU+                
      9.39507481E-06    2     -2000013        13                       # Z4SS   -->  MUR+   MU-                
      3.19449144E-04    2      1000015       -15                       # Z4SS   -->  TAU1-  TAU+               
      3.19449144E-04    2     -1000015        15                       # Z4SS   -->  TAU1+  TAU-               
      3.04814224E-04    2      2000015       -15                       # Z4SS   -->  TAU2-  TAU+               
      3.04814224E-04    2     -2000015        15                       # Z4SS   -->  TAU2+  TAU-               
      1.50637998E-05    2      1000012       -12                       # Z4SS   -->  NUEL   ANUE               
      1.50637998E-05    2     -1000012        12                       # Z4SS   -->  ANUEL  NUE                
      1.50637998E-05    2      1000014       -14                       # Z4SS   -->  NUML   ANUM               
      1.50637998E-05    2     -1000014        14                       # Z4SS   -->  ANUML  NUM                
      1.52875054E-05    2      1000016       -16                       # Z4SS   -->  NUTL   ANUT               
      1.52875054E-05    2     -1000016        16                       # Z4SS   -->  ANUTL  NUT                
#         PDG         Width
DECAY   1000024  4.60154291E-15   # W1SS+ decays
#          BR          NDA       ID1       ID2       ID3       ID4
      1.00000000E+00    2      1000022         0                       # W1SS+  -->  Z1SS   PI+                
#         PDG         Width
DECAY   1000037  4.59490585E+01   # W2SS+ decays
#          BR          NDA       ID1       ID2       ID3       ID4
      2.13810161E-08    3      1000022         2        -1             # W2SS+  -->  Z1SS   UP     DB          
      2.13810161E-08    3      1000022         4        -3             # W2SS+  -->  Z1SS   CH     SB          
      1.21016910E-07    3      1000022       -15        16             # W2SS+  -->  Z1SS   TAU+   NUT         
      3.44952673E-01    2      1000022        24                       # W2SS+  -->  Z1SS   W+                 
      1.08862704E-10    3      1000023         2        -1             # W2SS+  -->  Z2SS   UP     DB          
      1.08862704E-10    3      1000023         4        -3             # W2SS+  -->  Z2SS   CH     SB          
      1.52092150E-09    3      1000023       -15        16             # W2SS+  -->  Z2SS   TAU+   NUT         
      5.93588017E-02    2      1000023        24                       # W2SS+  -->  Z2SS   W+                 
      2.37804332E-10    3      1000025         2        -1             # W2SS+  -->  Z3SS   UP     DB          
      2.37804332E-10    3      1000025         4        -3             # W2SS+  -->  Z3SS   CH     SB          
      7.92681129E-11    3      1000025       -11        12             # W2SS+  -->  Z3SS   E+     NUE         
      7.92681129E-11    3      1000025       -13        14             # W2SS+  -->  Z3SS   MU+    NUM         
      7.92681198E-11    3      1000025       -15        16             # W2SS+  -->  Z3SS   TAU+   NUT         
      9.87737045E-11    3      1000035         2        -1             # W2SS+  -->  Z4SS   UP     DB          
      9.87737045E-11    3      1000035         4        -3             # W2SS+  -->  Z4SS   CH     SB          
      3.29245659E-11    3      1000035       -11        12             # W2SS+  -->  Z4SS   E+     NUE         
      3.29245659E-11    3      1000035       -13        14             # W2SS+  -->  Z4SS   MU+    NUM         
      3.29245728E-11    3      1000035       -15        16             # W2SS+  -->  Z4SS   TAU+   NUT         
      1.05255551E-03    2      1000006        -5                       # W2SS+  -->  TP1    BB                 
      3.75150512E-06    2      1000012       -11                       # W2SS+  -->  NUEL   E+                 
      3.75150512E-06    2      1000014       -13                       # W2SS+  -->  NUML   MU+                
      4.41802171E-04    2      1000016       -15                       # W2SS+  -->  NUTL   TAU+               
      2.45898827E-05    2     -1000011        12                       # W2SS+  -->  EL+    NUE                
      2.45898827E-05    2     -1000013        14                       # W2SS+  -->  MUL+   NUM                
      4.56480309E-04    2     -1000015        16                       # W2SS+  -->  TAU1+  NUT                
      4.67752579E-05    2     -2000015        16                       # W2SS+  -->  TAU2+  NUT                
      2.87583441E-01    2      1000024        23                       # W2SS+  -->  W1SS+  Z0                 
      6.71604417E-09    3      1000024         1        -1             # W2SS+  -->  W1SS+  DN     DB          
      6.71604417E-09    3      1000024         3        -3             # W2SS+  -->  W1SS+  ST     SB          
      4.43142163E-08    3      1000024         2        -2             # W2SS+  -->  W1SS+  UP     UB          
      4.43142163E-08    3      1000024         4        -4             # W2SS+  -->  W1SS+  CH     CB          
      3.06050599E-01    2      1000024        25                       # W2SS+  -->  W1SS+  HL0                
#         PDG         Width
DECAY        25  4.26535914E-03   # HL0   decays
#          BR          NDA       ID1       ID2       ID3       ID4
      4.70456696E-09    2           11       -11                       # HL0    -->  E-     E+                 
      1.98634356E-04    2           13       -13                       # HL0    -->  MU-    MU+                
      5.68147860E-02    2           15       -15                       # HL0    -->  TAU-   TAU+               
      5.90245008E-06    2            1        -1                       # HL0    -->  DN     DB                 
      2.38488568E-03    2            3        -3                       # HL0    -->  ST     SB                 
      7.78975129E-01    2            5        -5                       # HL0    -->  BT     BB                 
      1.88709441E-06    2            2        -2                       # HL0    -->  UP     UB                 
      3.53848487E-02    2            4        -4                       # HL0    -->  CH     CB                 
      1.92884519E-03    2           22        22                       # HL0    -->  GM     GM                 
      4.10280973E-02    2           21        21                       # HL0    -->  GL     GL                 
      4.25779819E-03    3           24        11       -12             # HL0    -->  W+     E-     ANUE        
      4.25779819E-03    3           24        13       -14             # HL0    -->  W+     MU-    ANUM        
      4.25779819E-03    3           24        15       -16             # HL0    -->  W+     TAU-   ANUT        
      1.27733937E-02    3           24        -2         1             # HL0    -->  W+     UB     DN          
      1.27733937E-02    3           24        -4         3             # HL0    -->  W+     CB     ST          
      4.25779819E-03    3          -24       -11        12             # HL0    -->  W-     E+     NUE         
      4.25779819E-03    3          -24       -13        14             # HL0    -->  W-     MU+    NUM         
      4.25779819E-03    3          -24       -15        16             # HL0    -->  W-     TAU+   NUT         
      1.27733937E-02    3          -24         2        -1             # HL0    -->  W-     UP     DB          
      1.27733937E-02    3          -24         4        -3             # HL0    -->  W-     CH     SB          
      4.53838758E-04    3           23        12       -12             # HL0    -->  Z0     NUE    ANUE        
      4.53838758E-04    3           23        14       -14             # HL0    -->  Z0     NUM    ANUM        
      4.53838758E-04    3           23        16       -16             # HL0    -->  Z0     NUT    ANUT        
      2.28412493E-04    3           23        11       -11             # HL0    -->  Z0     E-     E+          
      2.28412493E-04    3           23        13       -13             # HL0    -->  Z0     MU-    MU+         
      2.28412493E-04    3           23        15       -15             # HL0    -->  Z0     TAU-   TAU+        
      7.82521849E-04    3           23         2        -2             # HL0    -->  Z0     UP     UB          
      7.82521849E-04    3           23         4        -4             # HL0    -->  Z0     CH     CB          
      1.00808090E-03    3           23         1        -1             # HL0    -->  Z0     DN     DB          
      1.00808090E-03    3           23         3        -3             # HL0    -->  Z0     ST     SB          
      1.00808090E-03    3           23         5        -5             # HL0    -->  Z0     BT     BB          
#         PDG         Width
DECAY        35  3.05919933E+01   # HH0   decays
#          BR          NDA       ID1       ID2       ID3       ID4
      1.07446541E-09    2           11       -11                       # HH0    -->  E-     E+                 
      4.53658686E-05    2           13       -13                       # HH0    -->  MU-    MU+                
      1.29934754E-02    2           15       -15                       # HH0    -->  TAU-   TAU+               
      1.29783200E-06    2            1        -1                       # HH0    -->  DN     DB                 
      5.24389558E-04    2            3        -3                       # HH0    -->  ST     SB                 
      6.32114932E-02    2            5        -5                       # HH0    -->  BT     BB                 
      6.64948208E-10    2            2        -2                       # HH0    -->  UP     UB                 
      7.52737333E-06    2            4        -4                       # HH0    -->  CH     CB                 
      3.95740777E-01    2            6        -6                       # HH0    -->  TP     TB                 
      3.22064096E-07    2           22        22                       # HH0    -->  GM     GM                 
      2.75618459E-05    2           21        21                       # HH0    -->  GL     GL                 
      2.86240956E-05    2           24       -24                       # HH0    -->  W+     W-                 
      1.46896773E-05    2           23        23                       # HH0    -->  Z0     Z0                 
      2.81091168E-04    2      1000022   1000022                       # HH0    -->  Z1SS   Z1SS               
      1.29183740E-04    2      1000022   1000023                       # HH0    -->  Z1SS   Z2SS               
      1.55507848E-01    2      1000022   1000025                       # HH0    -->  Z1SS   Z3SS               
      2.08668578E-02    2      1000022   1000035                       # HH0    -->  Z1SS   Z4SS               
      2.52944437E-06    2      1000023   1000023                       # HH0    -->  Z2SS   Z2SS               
      5.84331807E-04    2      1000024  -1000024                       # HH0    -->  W1SS+  W1SS-              
      1.74953505E-01    2      1000024  -1000037                       # HH0    -->  W1SS+  W2SS-              
      1.74953505E-01    2     -1000024   1000037                       # HH0    -->  W1SS-  W2SS+              
      1.25569408E-04    2           25        25                       # HH0    -->  HL0    HL0                
#         PDG         Width
DECAY        36  2.96595287E+01   # HA0   decays
#          BR          NDA       ID1       ID2       ID3       ID4
      1.10102172E-09    2           11       -11                       # HA0    -->  E-     E+                 
      4.64871191E-05    2           13       -13                       # HA0    -->  MU-    MU+                
      1.33146225E-02    2           15       -15                       # HA0    -->  TAU-   TAU+               
      1.32995888E-06    2            1        -1                       # HA0    -->  DN     DB                 
      5.37370623E-04    2            3        -3                       # HA0    -->  ST     SB                 
      6.47763014E-02    2            5        -5                       # HA0    -->  BT     BB                 
      6.80869194E-10    2            2        -2                       # HA0    -->  UP     UB                 
      7.71253508E-06    2            4        -4                       # HA0    -->  CH     CB                 
      4.06021118E-01    2            6        -6                       # HA0    -->  TP     TB                 
      2.37537137E-07    2           22        22                       # HA0    -->  GM     GM                 
      3.20160616E-05    2           21        21                       # HA0    -->  GL     GL                 
      3.80903570E-04    2      1000022   1000022                       # HA0    -->  Z1SS   Z1SS               
      2.77506711E-04    2      1000022   1000023                       # HA0    -->  Z1SS   Z2SS               
      1.95403062E-02    2      1000022   1000025                       # HA0    -->  Z1SS   Z3SS               
      1.52585000E-01    2      1000022   1000035                       # HA0    -->  Z1SS   Z4SS               
      3.28695423E-05    2      1000023   1000023                       # HA0    -->  Z2SS   Z2SS               
      8.89453979E-04    2      1000024  -1000024                       # HA0    -->  W1SS+  W1SS-              
      1.70763746E-01    2      1000024  -1000037                       # HA0    -->  W1SS+  W2SS-              
      1.70763746E-01    2     -1000024   1000037                       # HA0    -->  W1SS-  W2SS+              
      2.93157918E-05    2           25        23                       # HA0    -->  HL0    Z0                 
#         PDG         Width
DECAY        37  2.96551418E+01   # H+    decays
#          BR          NDA       ID1       ID2       ID3       ID4
      1.10848708E-09    2           12       -11                       # H+     -->  NUE    E+                 
      4.68023281E-05    2           14       -13                       # H+     -->  NUM    MU+                
      1.34049030E-02    2           16       -15                       # H+     -->  NUT    TAU+               
      1.24882854E-06    2            2        -1                       # H+     -->  UP     DB                 
      5.11565420E-04    2            4        -3                       # H+     -->  CH     SB                 
      4.41332728E-01    2            6        -5                       # H+     -->  TP     BB                 
      1.30054559E-06    2      1000024   1000022                       # H+     -->  W1SS+  Z1SS               
      4.34833113E-04    2      1000024   1000023                       # H+     -->  W1SS+  Z2SS               
      1.81979522E-01    2      1000024   1000025                       # H+     -->  W1SS+  Z3SS               
      1.81759879E-01    2      1000024   1000035                       # H+     -->  W1SS+  Z4SS               
      1.80497780E-01    2      1000037   1000022                       # H+     -->  W2SS+  Z1SS               
      2.95208483E-05    2           25        24                       # H+     -->  HL0    W+                 
