#
#                              ======================
#                              | THE SUSYHIT OUTPUT |
#                              ======================
#
#
#              ------------------------------------------------------
#              |     This is the output of the SUSY-HIT package     |
#              |  created by A.Djouadi, M.Muehlleitner and M.Spira. |
#              |  In case of problems with SUSY-HIT email to        |
#              |           margarete.muehlleitner@kit.edu           |
#              |           michael.spira@psi.ch                     |
#              |           abdelhak.djouadi@cern.ch                 |
#              ------------------------------------------------------
#
#              ------------------------------------------------------
#              |  SUSY Les Houches Accord - MSSM Spectrum + Decays  |
#              |              based on the decay programs           |
#              |                                                    |
#              |                     SDECAY 1.5                     |
#              |                                                    |
#              |  Authors: M.Muhlleitner, A.Djouadi and Y.Mambrini  |
#              |  Ref.:    Comput.Phys.Commun.168(2005)46           |
#              |           [hep-ph/0311167]                         |
#              |                                                    |
#              |                     HDECAY 3.4                     |
#              |                                                    |
#              |  By: A.Djouadi,J.Kalinowski,M.Muhlleitner,M.Spira  |
#              |  Ref.:    Comput.Phys.Commun.108(1998)56           |
#              |           [hep-ph/9704448]                         |
#              |                                                    |
#              |                                                    |
#              |  If not stated otherwise all DRbar couplings and   |
#              |  soft SUSY breaking masses are given at the scale  |
#              |  Q=  0.11090521E+04
#              |                                                    |
#              ------------------------------------------------------
#
#
BLOCK DCINFO  # Decay Program information
     1   SDECAY/HDECAY # decay calculator
     2   1.5  /3.4    # version number
#
BLOCK SPINFO  # Spectrum calculator information
     1    SOFTSUSY    # spectrum calculator                
     2    3.7.3       # version number                     
#
BLOCK MODSEL  # Model selection
     1     0   #  nonUniversal                                     
#
BLOCK SMINPUTS  # Standard Model inputs
         1     1.27934000E+02   # alpha_em^-1(M_Z)^MSbar
         2     1.16639000E-05   # G_F [GeV^-2]
         3     1.17200000E-01   # alpha_S(M_Z)^MSbar
         4     9.11870000E+01   # M_Z pole mass
         5     4.19000000E+00   # mb(mb)^MSbar
         6     1.72500000E+02   # mt pole mass
         7     1.77690000E+00   # mtau pole mass
#
BLOCK MINPAR  # Input parameters - minimal models
         3     2.00000000E+01   # tanb                
#
BLOCK EXTPAR  # Input parameters - non-minimal models
         0    -1.00000000E+00   # Set                 
         1     3.59990000E+02   # M_1(MX)             
         2     2.00000000E+03   # M_2(MX)             
         3     1.80000000E+03   # M_3(MX)             
        11     2.55959179E+03   # At(MX)              
        12     0.00000000E+00   # Ab(MX)              
        13     0.00000000E+00   # Atau(MX)            
        23    -3.92900000E+02   # mu(MX)              
        25     2.00000000E+01   # tan                 
        26     4.00000000E+03   # mA(pole)            
        31     4.00000000E+03   # meL(MX)             
        32     4.00000000E+03   # mmuL(MX)            
        33     4.00000000E+03   # mtauL(MX)           
        34     4.00000000E+03   # meR(MX)             
        35     4.00000000E+03   # mmuR(MX)            
        36     4.00000000E+03   # mtauR(MX)           
        41     4.00000000E+03   # mqL1(MX)            
        42     4.00000000E+03   # mqL2(MX)            
        43     6.09900000E+02   # mqL3(MX)            
        44     4.00000000E+03   # muR(MX)             
        45     4.00000000E+03   # mcR(MX)             
        46     2.05485961E+03   # mtR(MX)             
        47     4.00000000E+03   # mdR(MX)             
        48     4.00000000E+03   # msR(MX)             
        49     4.00000000E+03   # mbR(MX)             
#
BLOCK MASS  # Mass Spectrum
# PDG code           mass       particle
        24     8.04191493E+01   # W+
        25     1.26005283E+02   # h
        35     4.00000936E+03   # H
        36     3.99999675E+03   # A
        37     4.00099668E+03   # H+
         5     4.81337004E+00   # b-quark pole mass calculated from mb(mb)_Msbar
   1000001     4.02015801E+03   # ~d_L
   2000001     4.01795830E+03   # ~d_R
   1000002     4.01950551E+03   # ~u_L
   2000002     4.01909881E+03   # ~u_R
   1000003     4.02015801E+03   # ~s_L
   2000003     4.01795830E+03   # ~s_R
   1000004     4.01950551E+03   # ~c_L
   2000004     4.01909881E+03   # ~c_R
   1000005     6.68951937E+02   # ~b_1
   2000005     4.02229645E+03   # ~b_2
   1000006     6.50914756E+02   # ~t_1
   2000006     2.07188554E+03   # ~t_2
   1000011     4.00351188E+03   # ~e_L
   2000011     4.00300122E+03   # ~e_R
   1000012     4.00239963E+03   # ~nu_eL
   1000013     4.00351188E+03   # ~mu_L
   2000013     4.00300122E+03   # ~mu_R
   1000014     4.00239963E+03   # ~nu_muL
   1000015     4.00427885E+03   # ~tau_1
   2000015     4.00803259E+03   # ~tau_2
   1000016     4.00433678E+03   # ~nu_tauL
   1000021     1.97019902E+03   # ~g
   1000022     3.49858148E+02   # ~chi_10
   1000023    -4.03537463E+02   # ~chi_20
   1000025     4.16769304E+02   # ~chi_30
   1000035     2.05465006E+03   # ~chi_40
   1000024     4.01315200E+02   # ~chi_1+
   1000037     2.05481437E+03   # ~chi_2+
#
BLOCK NMIX  # Neutralino Mixing Matrix
  1  1     8.51077364E-01   # N_11
  1  2    -1.50901945E-02   # N_12
  1  3    -3.97641696E-01   # N_13
  1  4    -3.42521075E-01   # N_14
  2  1    -4.33372145E-02   # N_21
  2  2     2.40541444E-02   # N_22
  2  3    -7.03961872E-01   # N_23
  2  4     7.08506152E-01   # N_24
  3  1     5.23247631E-01   # N_31
  3  2     2.85602225E-02   # N_32
  3  3     5.88459180E-01   # N_33
  3  4     6.15720736E-01   # N_34
  4  1    -1.05956581E-03   # N_41
  4  2     9.99188670E-01   # N_42
  4  3    -5.87858459E-03   # N_43
  4  4    -3.98286543E-02   # N_44
#
BLOCK UMIX  # Chargino Mixing Matrix U
  1  1     8.31943948E-03   # U_11
  1  2     9.99965393E-01   # U_12
  2  1    -9.99965393E-01   # U_21
  2  2     8.31943948E-03   # U_22
#
BLOCK VMIX  # Chargino Mixing Matrix V
  1  1     5.63369074E-02   # V_11
  1  2    -9.98411815E-01   # V_12
  2  1    -9.98411815E-01   # V_21
  2  2    -5.63369074E-02   # V_22
#
BLOCK STOPMIX  # Stop Mixing Matrix
  1  1     9.95078973E-01   # cos(theta_t)
  1  2    -9.90850014E-02   # sin(theta_t)
  2  1     9.90850014E-02   # -sin(theta_t)
  2  2     9.95078973E-01   # cos(theta_t)
#
BLOCK SBOTMIX  # Sbottom Mixing Matrix
  1  1     9.99999228E-01   # cos(theta_b)
  1  2    -1.24257773E-03   # sin(theta_b)
  2  1     1.24257773E-03   # -sin(theta_b)
  2  2     9.99999228E-01   # cos(theta_b)
#
BLOCK STAUMIX  # Stau Mixing Matrix
  1  1    -7.05909532E-01   # cos(theta_tau)
  1  2     7.08302007E-01   # sin(theta_tau)
  2  1    -7.08302007E-01   # -sin(theta_tau)
  2  2    -7.05909532E-01   # cos(theta_tau)
#
BLOCK ALPHA  # Higgs mixing
          -5.00270108E-02   # Mixing angle in the neutral Higgs boson sector
#
BLOCK HMIX Q=  1.10905211E+03  # DRbar Higgs Parameters
         1    -3.92900000E+02   # mu(Q)MSSM           
         2     2.00000000E+01   # tan                 
         3     2.44020878E+02   # higgs               
         4     1.62517692E+07   # mA^2(Q)MSSM         
#
BLOCK GAUGE Q=  1.10905211E+03  # The gauge couplings
     1     3.61369947E-01   # gprime(Q) DRbar
     2     6.35869584E-01   # g(Q) DRbar
     3     1.03385866E+00   # g3(Q) DRbar
#
BLOCK AU Q=  1.10905211E+03  # The trilinear couplings
  1  1     0.00000000E+00   # A_u(Q) DRbar
  2  2     9.57917002E-07   # A_c(Q) DRbar
  3  3     2.55959179E+03   # A_t(Q) DRbar
#
BLOCK AD Q=  1.10905211E+03  # The trilinear couplings
  1  1     3.52068013E-07   # A_d(Q) DRbar
  2  2     3.52101078E-07   # A_s(Q) DRbar
  3  3     6.31015207E-07   # A_b(Q) DRbar
#
BLOCK AE Q=  1.10905211E+03  # The trilinear couplings
  1  1     0.00000000E+00   # A_e(Q) DRbar
  2  2     7.80492911E-08   # A_mu(Q) DRbar
  3  3     7.88377958E-08   # A_tau(Q) DRbar
#
BLOCK Yu Q=  1.10905211E+03  # The Yukawa couplings
  1  1     0.00000000E+00   # y_u(Q) DRbar
  2  2     0.00000000E+00   # y_c(Q) DRbar
  3  3     8.71538615E-01   # y_t(Q) DRbar
#
BLOCK Yd Q=  1.10905211E+03  # The Yukawa couplings
  1  1     0.00000000E+00   # y_d(Q) DRbar
  2  2     0.00000000E+00   # y_s(Q) DRbar
  3  3     2.86720754E-01   # y_b(Q) DRbar
#
BLOCK Ye Q=  1.10905211E+03  # The Yukawa couplings
  1  1     0.00000000E+00   # y_e(Q) DRbar
  2  2     0.00000000E+00   # y_mu(Q) DRbar
  3  3     2.03106037E-01   # y_tau(Q) DRbar
#
BLOCK MSOFT Q=  1.10905211E+03  # The soft SUSY breaking masses at the scale Q
         1     3.59990000E+02   # M_1(Q)              
         2     2.00000000E+03   # M_2(Q)              
         3     1.80000000E+03   # M_3(Q)              
        21     1.57267896E+07   # M^2_Hd              
        22    -1.65111900E+05   # M^2_Hu              
        31     4.00000000E+03   # M_eL                
        32     4.00000000E+03   # M_muL               
        33     4.00000000E+03   # M_tauL              
        34     4.00000000E+03   # M_eR                
        35     4.00000000E+03   # M_muR               
        36     4.00000000E+03   # M_tauR              
        41     4.00000000E+03   # M_q1L               
        42     4.00000000E+03   # M_q2L               
        43     6.09899997E+02   # M_q3L               
        44     4.00000000E+03   # M_uR                
        45     4.00000000E+03   # M_cR                
        46     2.05485961E+03   # M_tR                
        47     4.00000000E+03   # M_dR                
        48     4.00000000E+03   # M_sR                
        49     4.00000000E+03   # M_bR                
#
#
#
#                             =================
#                             |The decay table|
#                             =================
#
# - The QCD corrections to the decays gluino -> squark  + quark
#                                     squark -> gaugino + quark_prime
#                                     squark -> squark_prime + Higgs
#                                     squark -> gluino  + quark
#   are included.
#
# - The multi-body decays for the inos, stops and sbottoms are included.
#
# - The loop induced decays for the gluino, neutralinos and stops
#   are included.
#
# - The SUSY decays of the top quark are included.
#
#
#         PDG            Width
DECAY         6     1.40267046E+00   # top decays
#          BR         NDA      ID1       ID2
     1.00000000E+00    2           5        24   # BR(t ->  b    W+)
#
#         PDG            Width
DECAY   1000021     6.55363114E+01   # gluino decays
#          BR         NDA      ID1       ID2
     2.44155926E-01    2     1000005        -5   # BR(~g -> ~b_1  bb)
     2.44155926E-01    2    -1000005         5   # BR(~g -> ~b_1* b )
     2.55844074E-01    2     1000006        -6   # BR(~g -> ~t_1  tb)
     2.55844074E-01    2    -1000006         6   # BR(~g -> ~t_1* t )
#
#         PDG            Width
DECAY   1000006     2.80145422E+00   # stop1 decays
#          BR         NDA      ID1       ID2
     1.79116031E-01    2     1000022         6   # BR(~t_1 -> ~chi_10 t )
     3.84155472E-01    2     1000023         6   # BR(~t_1 -> ~chi_20 t )
     2.91819808E-01    2     1000025         6   # BR(~t_1 -> ~chi_30 t )
     1.44908689E-01    2     1000024         5   # BR(~t_1 -> ~chi_1+ b )
#
#         PDG            Width
DECAY   2000006     1.24020317E+02   # stop2 decays
#          BR         NDA      ID1       ID2
     5.32194241E-02    2     1000022         6   # BR(~t_2 -> ~chi_10 t )
     1.12403837E-01    2     1000023         6   # BR(~t_2 -> ~chi_20 t )
     9.01535217E-02    2     1000025         6   # BR(~t_2 -> ~chi_30 t )
     2.22504262E-01    2     1000024         5   # BR(~t_2 -> ~chi_1+ b )
     1.33945988E-08    2     1000037         5   # BR(~t_2 -> ~chi_2+ b )
     1.64863687E-01    2     1000006        25   # BR(~t_2 -> ~t_1    h )
     1.15634458E-01    2     1000006        23   # BR(~t_2 -> ~t_1    Z )
     2.41220797E-01    2     1000005        24   # BR(~t_2 -> ~b_1    W+)
#
#         PDG            Width
DECAY   1000005     3.33131416E+00   # sbottom1 decays
#          BR         NDA      ID1       ID2
     4.09566842E-02    2     1000022         5   # BR(~b_1 -> ~chi_10 b )
     6.47660793E-02    2     1000023         5   # BR(~b_1 -> ~chi_20 b )
     4.29097388E-02    2     1000025         5   # BR(~b_1 -> ~chi_30 b )
     8.51367498E-01    2    -1000024         6   # BR(~b_1 -> ~chi_1- t )
#
#         PDG            Width
DECAY   2000005     1.66912618E+02   # sbottom2 decays
#          BR         NDA      ID1       ID2
     1.53168793E-02    2     1000022         5   # BR(~b_2 -> ~chi_10 b )
     1.80330230E-02    2     1000023         5   # BR(~b_2 -> ~chi_20 b )
     1.61757386E-02    2     1000025         5   # BR(~b_2 -> ~chi_30 b )
     1.19397422E-06    2     1000035         5   # BR(~b_2 -> ~chi_40 b )
     3.62307916E-02    2    -1000024         6   # BR(~b_2 -> ~chi_1- t )
     2.36676018E-06    2    -1000037         6   # BR(~b_2 -> ~chi_2- t )
     9.13442614E-01    2     1000021         5   # BR(~b_2 -> ~g      b )
     1.71819694E-04    2     1000005        25   # BR(~b_2 -> ~b_1    h )
     2.32938520E-04    2     1000005        23   # BR(~b_2 -> ~b_1    Z )
     3.91248458E-04    2     1000006       -24   # BR(~b_2 -> ~t_1    W-)
     1.38651786E-06    2     2000006       -24   # BR(~b_2 -> ~t_2    W-)
#
#         PDG            Width
DECAY   1000002     1.78495205E+02   # sup_L decays
#          BR         NDA      ID1       ID2
     1.83619977E-03    2     1000022         2   # BR(~u_L -> ~chi_10 u)
     2.14811408E-05    2     1000023         2   # BR(~u_L -> ~chi_20 u)
     1.39312382E-03    2     1000025         2   # BR(~u_L -> ~chi_30 u)
     4.77827376E-02    2     1000035         2   # BR(~u_L -> ~chi_40 u)
     5.43262259E-04    2     1000024         1   # BR(~u_L -> ~chi_1+ d)
     9.54445563E-02    2     1000037         1   # BR(~u_L -> ~chi_2+ d)
     8.52978639E-01    2     1000021         2   # BR(~u_L -> ~g      u)
#
#         PDG            Width
DECAY   2000002     1.61014047E+02   # sup_R decays
#          BR         NDA      ID1       ID2
     3.96382274E-02    2     1000022         2   # BR(~u_R -> ~chi_10 u)
     1.02278265E-04    2     1000023         2   # BR(~u_R -> ~chi_20 u)
     1.48903574E-02    2     1000025         2   # BR(~u_R -> ~chi_30 u)
     3.42064963E-08    2     1000035         2   # BR(~u_R -> ~chi_40 u)
     9.45369103E-01    2     1000021         2   # BR(~u_R -> ~g      u)
#
#         PDG            Width
DECAY   1000001     1.78515079E+02   # sdown_L decays
#          BR         NDA      ID1       ID2
     2.67311608E-03    2     1000022         1   # BR(~d_L -> ~chi_10 d)
     8.90750804E-05    2     1000023         1   # BR(~d_L -> ~chi_20 d)
     4.25494727E-04    2     1000025         1   # BR(~d_L -> ~chi_30 d)
     4.78345509E-02    2     1000035         1   # BR(~d_L -> ~chi_40 d)
     1.18478031E-05    2    -1000024         2   # BR(~d_L -> ~chi_1- u)
     9.57686586E-02    2    -1000037         2   # BR(~d_L -> ~chi_2- u)
     8.53197257E-01    2     1000021         1   # BR(~d_L -> ~g      d)
#
#         PDG            Width
DECAY   2000001     1.54318283E+02   # sdown_R decays
#          BR         NDA      ID1       ID2
     1.03364516E-02    2     1000022         1   # BR(~d_R -> ~chi_10 d)
     2.66710061E-05    2     1000023         1   # BR(~d_R -> ~chi_20 d)
     3.88294145E-03    2     1000025         1   # BR(~d_R -> ~chi_30 d)
     8.91656329E-09    2     1000035         1   # BR(~d_R -> ~chi_40 d)
     9.85753927E-01    2     1000021         1   # BR(~d_R -> ~g      d)
#
#         PDG            Width
DECAY   1000004     1.78495205E+02   # scharm_L decays
#          BR         NDA      ID1       ID2
     1.83619977E-03    2     1000022         4   # BR(~c_L -> ~chi_10 c)
     2.14811408E-05    2     1000023         4   # BR(~c_L -> ~chi_20 c)
     1.39312382E-03    2     1000025         4   # BR(~c_L -> ~chi_30 c)
     4.77827376E-02    2     1000035         4   # BR(~c_L -> ~chi_40 c)
     5.43262259E-04    2     1000024         3   # BR(~c_L -> ~chi_1+ s)
     9.54445563E-02    2     1000037         3   # BR(~c_L -> ~chi_2+ s)
     8.52978639E-01    2     1000021         4   # BR(~c_L -> ~g      c)
#
#         PDG            Width
DECAY   2000004     1.61014047E+02   # scharm_R decays
#          BR         NDA      ID1       ID2
     3.96382274E-02    2     1000022         4   # BR(~c_R -> ~chi_10 c)
     1.02278265E-04    2     1000023         4   # BR(~c_R -> ~chi_20 c)
     1.48903574E-02    2     1000025         4   # BR(~c_R -> ~chi_30 c)
     3.42064963E-08    2     1000035         4   # BR(~c_R -> ~chi_40 c)
     9.45369103E-01    2     1000021         4   # BR(~c_R -> ~g      c)
#
#         PDG            Width
DECAY   1000003     1.78515079E+02   # sstrange_L decays
#          BR         NDA      ID1       ID2
     2.67311608E-03    2     1000022         3   # BR(~s_L -> ~chi_10 s)
     8.90750804E-05    2     1000023         3   # BR(~s_L -> ~chi_20 s)
     4.25494727E-04    2     1000025         3   # BR(~s_L -> ~chi_30 s)
     4.78345509E-02    2     1000035         3   # BR(~s_L -> ~chi_40 s)
     1.18478031E-05    2    -1000024         4   # BR(~s_L -> ~chi_1- c)
     9.57686586E-02    2    -1000037         4   # BR(~s_L -> ~chi_2- c)
     8.53197257E-01    2     1000021         3   # BR(~s_L -> ~g      s)
#
#         PDG            Width
DECAY   2000003     1.54318283E+02   # sstrange_R decays
#          BR         NDA      ID1       ID2
     1.03364516E-02    2     1000022         3   # BR(~s_R -> ~chi_10 s)
     2.66710061E-05    2     1000023         3   # BR(~s_R -> ~chi_20 s)
     3.88294145E-03    2     1000025         3   # BR(~s_R -> ~chi_30 s)
     8.91656329E-09    2     1000035         3   # BR(~s_R -> ~chi_40 s)
     9.85753927E-01    2     1000021         3   # BR(~s_R -> ~g      s)
#
#         PDG            Width
DECAY   1000011     3.13402829E+01   # selectron_L decays
#          BR         NDA      ID1       ID2
     1.11094110E-01    2     1000022        11   # BR(~e_L -> ~chi_10 e-)
     1.66290527E-07    2     1000023        11   # BR(~e_L -> ~chi_20 e-)
     5.34009129E-02    2     1000025        11   # BR(~e_L -> ~chi_30 e-)
     2.77987467E-01    2     1000035        11   # BR(~e_L -> ~chi_40 e-)
     6.96980577E-05    2    -1000024        12   # BR(~e_L -> ~chi_1- nu_e)
     5.57447645E-01    2    -1000037        12   # BR(~e_L -> ~chi_2- nu_e)
#
#         PDG            Width
DECAY   2000011     2.04464884E+01   # selectron_R decays
#          BR         NDA      ID1       ID2
     7.25619627E-01    2     1000022        11   # BR(~e_R -> ~chi_10 e-)
     1.87189325E-03    2     1000023        11   # BR(~e_R -> ~chi_20 e-)
     2.72507860E-01    2     1000025        11   # BR(~e_R -> ~chi_30 e-)
     6.19565441E-07    2     1000035        11   # BR(~e_R -> ~chi_40 e-)
#
#         PDG            Width
DECAY   1000013     3.13402829E+01   # smuon_L decays
#          BR         NDA      ID1       ID2
     1.11094110E-01    2     1000022        13   # BR(~mu_L -> ~chi_10 mu-)
     1.66290527E-07    2     1000023        13   # BR(~mu_L -> ~chi_20 mu-)
     5.34009129E-02    2     1000025        13   # BR(~mu_L -> ~chi_30 mu-)
     2.77987467E-01    2     1000035        13   # BR(~mu_L -> ~chi_40 mu-)
     6.96980577E-05    2    -1000024        14   # BR(~mu_L -> ~chi_1- nu_mu)
     5.57447645E-01    2    -1000037        14   # BR(~mu_L -> ~chi_2- nu_mu)
#
#         PDG            Width
DECAY   2000013     2.04464884E+01   # smuon_R decays
#          BR         NDA      ID1       ID2
     7.25619627E-01    2     1000022        13   # BR(~mu_R -> ~chi_10 mu-)
     1.87189325E-03    2     1000023        13   # BR(~mu_R -> ~chi_20 mu-)
     2.72507860E-01    2     1000025        13   # BR(~mu_R -> ~chi_30 mu-)
     6.19565441E-07    2     1000035        13   # BR(~mu_R -> ~chi_40 mu-)
#
#         PDG            Width
DECAY   1000015     3.07855016E+01   # stau_1 decays
#          BR         NDA      ID1       ID2
     3.60989229E-01    2     1000022        15   # BR(~tau_1 -> ~chi_10  tau-)
     4.45156633E-02    2     1000023        15   # BR(~tau_1 -> ~chi_20  tau-)
     1.17510314E-01    2     1000025        15   # BR(~tau_1 -> ~chi_30  tau-)
     1.40333464E-01    2     1000035        15   # BR(~tau_1 -> ~chi_40  tau-)
     5.52397992E-02    2    -1000024        16   # BR(~tau_1 -> ~chi_1-  nu_tau)
     2.81411530E-01    2    -1000037        16   # BR(~tau_1 -> ~chi_2-  nu_tau)
#
#         PDG            Width
DECAY   2000015     3.07304959E+01   # stau_2 decays
#          BR         NDA      ID1       ID2
     2.68203522E-01    2     1000022        15   # BR(~tau_2 -> ~chi_10  tau-)
     6.05577555E-02    2     1000023        15   # BR(~tau_2 -> ~chi_20  tau-)
     1.90769111E-01    2     1000025        15   # BR(~tau_2 -> ~chi_30  tau-)
     1.43379993E-01    2     1000035        15   # BR(~tau_2 -> ~chi_40  tau-)
     4.95736537E-02    2    -1000024        16   # BR(~tau_2 -> ~chi_1-  nu_tau)
     2.87515964E-01    2    -1000037        16   # BR(~tau_2 -> ~chi_2-  nu_tau)
#
#         PDG            Width
DECAY   1000012     3.13510068E+01   # snu_eL decays
#          BR         NDA      ID1       ID2
     1.25786496E-01    2     1000022        12   # BR(~nu_eL -> ~chi_10 nu_e)
     1.19230081E-03    2     1000023        12   # BR(~nu_eL -> ~chi_20 nu_e)
     3.63005085E-02    2     1000025        12   # BR(~nu_eL -> ~chi_30 nu_e)
     2.78374991E-01    2     1000035        12   # BR(~nu_eL -> ~chi_40 nu_e)
     3.19406974E-03    2     1000024        11   # BR(~nu_eL -> ~chi_1+ e-)
     5.55151634E-01    2     1000037        11   # BR(~nu_eL -> ~chi_2+ e-)
#
#         PDG            Width
DECAY   1000014     3.13510068E+01   # snu_muL decays
#          BR         NDA      ID1       ID2
     1.25786496E-01    2     1000022        14   # BR(~nu_muL -> ~chi_10 nu_mu)
     1.19230081E-03    2     1000023        14   # BR(~nu_muL -> ~chi_20 nu_mu)
     3.63005085E-02    2     1000025        14   # BR(~nu_muL -> ~chi_30 nu_mu)
     2.78374991E-01    2     1000035        14   # BR(~nu_muL -> ~chi_40 nu_mu)
     3.19406974E-03    2     1000024        13   # BR(~nu_muL -> ~chi_1+ mu-)
     5.55151634E-01    2     1000037        13   # BR(~nu_muL -> ~chi_2+ mu-)
#
#         PDG            Width
DECAY   1000016     3.46049120E+01   # snu_tauL decays
#          BR         NDA      ID1       ID2
     1.14015627E-01    2     1000022        16   # BR(~nu_tauL -> ~chi_10 nu_tau)
     1.08073286E-03    2     1000023        16   # BR(~nu_tauL -> ~chi_20 nu_tau)
     3.29037812E-02    2     1000025        16   # BR(~nu_tauL -> ~chi_30 nu_tau)
     2.52496114E-01    2     1000035        16   # BR(~nu_tauL -> ~chi_40 nu_tau)
     9.59596561E-02    2     1000024        15   # BR(~nu_tauL -> ~chi_1+ tau-)
     5.03544089E-01    2     1000037        15   # BR(~nu_tauL -> ~chi_2+ tau-)
#
#         PDG            Width
DECAY   1000024     1.29967380E-04   # chargino1+ decays
#           BR         NDA      ID1       ID2       ID3
     3.33544984E-01    3     1000022         2        -1   # BR(~chi_1+ -> ~chi_10 u    db)
     3.33544984E-01    3     1000022         4        -3   # BR(~chi_1+ -> ~chi_10 c    sb)
     1.11183183E-01    3     1000022       -11        12   # BR(~chi_1+ -> ~chi_10 e+   nu_e)
     1.11183183E-01    3     1000022       -13        14   # BR(~chi_1+ -> ~chi_10 mu+  nu_mu)
     1.10543667E-01    3     1000022       -15        16   # BR(~chi_1+ -> ~chi_10 tau+ nu_tau)
#
#         PDG            Width
DECAY   1000037     6.15560981E+01   # chargino2+ decays
#          BR         NDA      ID1       ID2
     3.79001991E-01    2     1000006        -5   # BR(~chi_2+ -> ~t_1     bb)
     3.66063824E-01    2    -1000005         6   # BR(~chi_2+ -> ~b_1*    t )
     6.48221001E-02    2     1000024        23   # BR(~chi_2+ -> ~chi_1+  Z )
     1.32035218E-02    2     1000022        24   # BR(~chi_2+ -> ~chi_10  W+)
     6.32656779E-02    2     1000023        24   # BR(~chi_2+ -> ~chi_20  W+)
     4.98700499E-02    2     1000025        24   # BR(~chi_2+ -> ~chi_30  W+)
     6.37728349E-02    2     1000024        25   # BR(~chi_2+ -> ~chi_1+  h )
#
#         PDG            Width
DECAY   1000022     0.00000000E+00   # neutralino1 decays
#
#         PDG            Width
DECAY   1000023     1.24019121E-04   # neutralino2 decays
#          BR         NDA      ID1       ID2
     6.48974602E-04    2     1000022        22   # BR(~chi_20 -> ~chi_10 gam)
#           BR         NDA      ID1       ID2       ID3
     1.17926616E-01    3     1000022        -2         2   # BR(~chi_20 -> ~chi_10 ub      u)
     1.52944766E-01    3     1000022        -1         1   # BR(~chi_20 -> ~chi_10 db      d)
     1.17926616E-01    3     1000022        -4         4   # BR(~chi_20 -> ~chi_10 cb      c)
     1.52944766E-01    3     1000022        -3         3   # BR(~chi_20 -> ~chi_10 sb      s)
     1.42481035E-01    3     1000022        -5         5   # BR(~chi_20 -> ~chi_10 bb      b)
     3.50576874E-02    3     1000022       -11        11   # BR(~chi_20 -> ~chi_10 e+      e-)
     3.50576874E-02    3     1000022       -13        13   # BR(~chi_20 -> ~chi_10 mu+     mu-)
     3.47607400E-02    3     1000022       -15        15   # BR(~chi_20 -> ~chi_10 tau+    tau-)
     7.00834008E-02    3     1000022       -12        12   # BR(~chi_20 -> ~chi_10 nu_eb   nu_e)
     7.00834008E-02    3     1000022       -14        14   # BR(~chi_20 -> ~chi_10 nu_mub  nu_mu)
     7.00833985E-02    3     1000022       -16        16   # BR(~chi_20 -> ~chi_10 nu_taub nu_tau)
     1.70516946E-07    3     1000024        -2         1   # BR(~chi_20 -> ~chi_1+ ub      d)
     1.70516946E-07    3    -1000024        -1         2   # BR(~chi_20 -> ~chi_1- db      u)
     1.70516946E-07    3     1000024        -4         3   # BR(~chi_20 -> ~chi_1+ cb      s)
     1.70516946E-07    3    -1000024        -3         4   # BR(~chi_20 -> ~chi_1- sb      c)
     5.68390318E-08    3     1000024       -12        11   # BR(~chi_20 -> ~chi_1+ nu_eb   e-)
     5.68390318E-08    3    -1000024        12       -11   # BR(~chi_20 -> ~chi_1- nu_e    e+)
     5.68390318E-08    3     1000024       -14        13   # BR(~chi_20 -> ~chi_1+ nu_mub  mu-)
     5.68390318E-08    3    -1000024        14       -13   # BR(~chi_20 -> ~chi_1- nu_mu   mu+)
     1.04733867E-09    3     1000024       -16        15   # BR(~chi_20 -> ~chi_1+ nu_taub tau-)
     1.04733867E-09    3    -1000024        16       -15   # BR(~chi_20 -> ~chi_1- nu_tau  tau+)
#
#         PDG            Width
DECAY   1000025     5.66605258E-06   # neutralino3 decays
#          BR         NDA      ID1       ID2
     6.88015301E-02    2     1000022        22   # BR(~chi_30 -> ~chi_10 gam)
     3.74914233E-02    2     1000023        22   # BR(~chi_30 -> ~chi_20 gam)
#           BR         NDA      ID1       ID2       ID3
     6.99710510E-02    3     1000022        -2         2   # BR(~chi_30 -> ~chi_10 ub      u)
     9.03281546E-02    3     1000022        -1         1   # BR(~chi_30 -> ~chi_10 db      d)
     6.99710510E-02    3     1000022        -4         4   # BR(~chi_30 -> ~chi_10 cb      c)
     9.03281546E-02    3     1000022        -3         3   # BR(~chi_30 -> ~chi_10 sb      s)
     8.65082878E-02    3     1000022        -5         5   # BR(~chi_30 -> ~chi_10 bb      b)
     2.03714919E-02    3     1000022       -11        11   # BR(~chi_30 -> ~chi_10 e+      e-)
     2.03714919E-02    3     1000022       -13        13   # BR(~chi_30 -> ~chi_10 mu+     mu-)
     2.03538262E-02    3     1000022       -15        15   # BR(~chi_30 -> ~chi_10 tau+    tau-)
     4.15476735E-02    3     1000022       -12        12   # BR(~chi_30 -> ~chi_10 nu_eb   nu_e)
     4.15476735E-02    3     1000022       -14        14   # BR(~chi_30 -> ~chi_10 nu_mub  nu_mu)
     4.15475455E-02    3     1000022       -16        16   # BR(~chi_30 -> ~chi_10 nu_taub nu_tau)
     5.84424085E-03    3     1000023        -2         2   # BR(~chi_30 -> ~chi_20 ub      u)
     7.57991352E-03    3     1000023        -1         1   # BR(~chi_30 -> ~chi_20 db      d)
     5.84424085E-03    3     1000023        -4         4   # BR(~chi_30 -> ~chi_20 cb      c)
     7.57991352E-03    3     1000023        -3         3   # BR(~chi_30 -> ~chi_20 sb      s)
     1.68568435E-03    3     1000023        -5         5   # BR(~chi_30 -> ~chi_20 bb      b)
     1.73758465E-03    3     1000023       -11        11   # BR(~chi_30 -> ~chi_20 e+      e-)
     1.73758465E-03    3     1000023       -13        13   # BR(~chi_30 -> ~chi_20 mu+     mu-)
     1.56489254E-03    3     1000023       -15        15   # BR(~chi_30 -> ~chi_20 tau+    tau-)
     3.47311803E-03    3     1000023       -12        12   # BR(~chi_30 -> ~chi_20 nu_eb   nu_e)
     3.47311803E-03    3     1000023       -14        14   # BR(~chi_30 -> ~chi_20 nu_mub  nu_mu)
     3.47311807E-03    3     1000023       -16        16   # BR(~chi_30 -> ~chi_20 nu_taub nu_tau)
     4.31117294E-02    3     1000024        -2         1   # BR(~chi_30 -> ~chi_1+ ub      d)
     4.31117294E-02    3    -1000024        -1         2   # BR(~chi_30 -> ~chi_1- db      u)
     4.31117294E-02    3     1000024        -4         3   # BR(~chi_30 -> ~chi_1+ cb      s)
     4.31117294E-02    3    -1000024        -3         4   # BR(~chi_30 -> ~chi_1- sb      c)
     1.43704353E-02    3     1000024       -12        11   # BR(~chi_30 -> ~chi_1+ nu_eb   e-)
     1.43704353E-02    3    -1000024        12       -11   # BR(~chi_30 -> ~chi_1- nu_e    e+)
     1.43704353E-02    3     1000024       -14        13   # BR(~chi_30 -> ~chi_1+ nu_mub  mu-)
     1.43704353E-02    3    -1000024        14       -13   # BR(~chi_30 -> ~chi_1- nu_mu   mu+)
     1.34692886E-02    3     1000024       -16        15   # BR(~chi_30 -> ~chi_1+ nu_taub tau-)
     1.34692886E-02    3    -1000024        16       -15   # BR(~chi_30 -> ~chi_1- nu_tau  tau+)
#
#         PDG            Width
DECAY   1000035     6.15441940E+01   # neutralino4 decays
#          BR         NDA      ID1       ID2
     5.28702553E-03    2     1000022        23   # BR(~chi_40 -> ~chi_10   Z )
     4.18515188E-02    2     1000023        23   # BR(~chi_40 -> ~chi_20   Z )
     1.76840710E-02    2     1000025        23   # BR(~chi_40 -> ~chi_30   Z )
     6.32163573E-02    2     1000024       -24   # BR(~chi_40 -> ~chi_1+   W-)
     6.32163573E-02    2    -1000024        24   # BR(~chi_40 -> ~chi_1-   W+)
     8.11097913E-03    2     1000022        25   # BR(~chi_40 -> ~chi_10   h )
     2.26418109E-02    2     1000023        25   # BR(~chi_40 -> ~chi_20   h )
     3.28592108E-02    2     1000025        25   # BR(~chi_40 -> ~chi_30   h )
     1.85951493E-01    2     1000006        -6   # BR(~chi_40 -> ~t_1      tb)
     1.85951493E-01    2    -1000006         6   # BR(~chi_40 -> ~t_1*     t )
     1.86614842E-01    2     1000005        -5   # BR(~chi_40 -> ~b_1      bb)
     1.86614842E-01    2    -1000005         5   # BR(~chi_40 -> ~b_1*     b )
#
#         PDG            Width
DECAY        25     4.07710881E-03   # h decays
#          BR         NDA      ID1       ID2
     5.84397407E-01    2           5        -5   # BR(h -> b       bb     )
     6.41437150E-02    2         -15        15   # BR(h -> tau+    tau-   )
     2.27066289E-04    2         -13        13   # BR(h -> mu+     mu-    )
     4.81197011E-04    2           3        -3   # BR(h -> s       sb     )
     2.08987584E-02    2           4        -4   # BR(h -> c       cb     )
     6.84190210E-02    2          21        21   # BR(h -> g       g      )
     2.39436983E-03    2          22        22   # BR(h -> gam     gam    )
     1.67617735E-03    2          22        23   # BR(h -> Z       gam    )
     2.28289520E-01    2          24       -24   # BR(h -> W+      W-     )
     2.90727677E-02    2          23        23   # BR(h -> Z       Z      )
#
#         PDG            Width
DECAY        35     5.55078059E+01   # H decays
#          BR         NDA      ID1       ID2
     3.62897505E-01    2           5        -5   # BR(H -> b       bb     )
     5.97321768E-02    2         -15        15   # BR(H -> tau+    tau-   )
     2.11198509E-04    2         -13        13   # BR(H -> mu+     mu-    )
     2.49811404E-04    2           3        -3   # BR(H -> s       sb     )
     7.00679822E-08    2           4        -4   # BR(H -> c       cb     )
     7.02227069E-03    2           6        -6   # BR(H -> t       tb     )
     6.74883772E-07    2          21        21   # BR(H -> g       g      )
     1.79944918E-09    2          22        22   # BR(H -> gam     gam    )
     1.80612687E-09    2          23        22   # BR(H -> Z       gam    )
     1.77706684E-06    2          24       -24   # BR(H -> W+      W-     )
     8.87917939E-07    2          23        23   # BR(H -> Z       Z      )
     7.00945163E-06    2          25        25   # BR(H -> h       h      )
    -2.21586919E-24    2          36        36   # BR(H -> A       A      )
    -2.33230024E-20    2          23        36   # BR(H -> Z       A      )
     1.84782234E-03    2     1000024  -1000024   # BR(H -> ~chi_1+ ~chi_1-)
     1.56838671E-01    2     1000024  -1000037   # BR(H -> ~chi_1+ ~chi_2-)
     1.56838671E-01    2     1000037  -1000024   # BR(H -> ~chi_2+ ~chi_1-)
     2.21373890E-02    2     1000022   1000022   # BR(H -> ~chi_10 ~chi_10)
     5.71262111E-04    2     1000023   1000023   # BR(H -> ~chi_20 ~chi_20)
     1.38086698E-02    2     1000025   1000025   # BR(H -> ~chi_30 ~chi_30)
     2.60017814E-02    2     1000022   1000023   # BR(H -> ~chi_10 ~chi_20)
     1.00756592E-02    2     1000022   1000025   # BR(H -> ~chi_10 ~chi_30)
     2.37948036E-02    2     1000022   1000035   # BR(H -> ~chi_10 ~chi_40)
     1.16033294E-02    2     1000023   1000025   # BR(H -> ~chi_20 ~chi_30)
     8.13282252E-02    2     1000023   1000035   # BR(H -> ~chi_20 ~chi_40)
     5.22037214E-02    2     1000025   1000035   # BR(H -> ~chi_30 ~chi_40)
     5.48388293E-04    2     1000006  -1000006   # BR(H -> ~t_1    ~t_1*  )
     6.13903927E-03    2     1000006  -2000006   # BR(H -> ~t_1    ~t_2*  )
     6.13903927E-03    2     2000006  -1000006   # BR(H -> ~t_2    ~t_1*  )
     1.41986979E-07    2     1000005  -1000005   # BR(H -> ~b_1    ~b_1*  )
#
#         PDG            Width
DECAY        36     5.55055011E+01   # A decays
#          BR         NDA      ID1       ID2
     3.62938199E-01    2           5        -5   # BR(A -> b       bb     )
     5.97349261E-02    2         -15        15   # BR(A -> tau+    tau-   )
     2.11208064E-04    2         -13        13   # BR(A -> mu+     mu-    )
     2.49863473E-04    2           3        -3   # BR(A -> s       sb     )
     7.05229675E-08    2           4        -4   # BR(A -> c       cb     )
     7.03593156E-03    2           6        -6   # BR(A -> t       tb     )
     1.44570593E-05    2          21        21   # BR(A -> g       g      )
     6.20363684E-08    2          22        22   # BR(A -> gam     gam    )
     1.58975959E-08    2          23        22   # BR(A -> Z       gam    )
     1.77336489E-06    2          23        25   # BR(A -> Z       h      )
     1.86944172E-03    2     1000024  -1000024   # BR(A -> ~chi_1+ ~chi_1-)
     1.56834386E-01    2     1000024  -1000037   # BR(A -> ~chi_1+ ~chi_2-)
     1.56834386E-01    2     1000037  -1000024   # BR(A -> ~chi_2+ ~chi_1-)
     1.92189090E-02    2     1000022   1000022   # BR(A -> ~chi_10 ~chi_10)
     7.28554608E-04    2     1000023   1000023   # BR(A -> ~chi_20 ~chi_20)
     1.17064891E-02    2     1000025   1000025   # BR(A -> ~chi_30 ~chi_30)
     3.13882245E-02    2     1000022   1000023   # BR(A -> ~chi_10 ~chi_20)
     8.30402951E-03    2     1000022   1000025   # BR(A -> ~chi_10 ~chi_30)
     2.58744054E-02    2     1000022   1000035   # BR(A -> ~chi_10 ~chi_40)
     1.28594145E-02    2     1000023   1000025   # BR(A -> ~chi_20 ~chi_30)
     7.45923857E-02    2     1000023   1000035   # BR(A -> ~chi_20 ~chi_40)
     5.68294363E-02    2     1000025   1000035   # BR(A -> ~chi_30 ~chi_40)
     6.38671530E-03    2     1000006  -2000006   # BR(A -> ~t_1    ~t_2*  )
     6.38671530E-03    2    -1000006   2000006   # BR(A -> ~t_1*   ~t_2   )
#
#         PDG            Width
DECAY        37     5.56817904E+01   # H+ decays
#          BR         NDA      ID1       ID2
     5.83837395E-04    2           4        -5   # BR(H+ -> c       bb     )
     5.95606900E-02    2         -15        16   # BR(H+ -> tau+    nu_tau )
     2.10592008E-04    2         -13        14   # BR(H+ -> mu+     nu_mu  )
     3.73655617E-06    2           2        -5   # BR(H+ -> u       bb     )
     1.19304429E-05    2           2        -3   # BR(H+ -> u       sb     )
     2.45447575E-04    2           4        -3   # BR(H+ -> c       sb     )
     3.71534810E-01    2           6        -5   # BR(H+ -> t       bb     )
     1.76969531E-06    2          24        25   # BR(H+ -> W+      h      )
     2.36248966E-14    2          24        36   # BR(H+ -> W+      A      )
     5.80421997E-02    2     1000024   1000022   # BR(H+ -> ~chi_1+ ~chi_10)
     2.65071213E-05    2     1000024   1000023   # BR(H+ -> ~chi_1+ ~chi_20)
     2.64731666E-02    2     1000024   1000025   # BR(H+ -> ~chi_1+ ~chi_30)
     1.56550261E-01    2     1000024   1000035   # BR(H+ -> ~chi_1+ ~chi_40)
     4.96006328E-02    2     1000037   1000022   # BR(H+ -> ~chi_2+ ~chi_10)
     1.55462789E-01    2     1000037   1000023   # BR(H+ -> ~chi_2+ ~chi_20)
     1.08909034E-01    2     1000037   1000025   # BR(H+ -> ~chi_2+ ~chi_30)
     2.83414467E-04    2     1000006  -1000005   # BR(H+ -> ~t_1    ~b_1*  )
     1.24991813E-02    2     2000006  -1000005   # BR(H+ -> ~t_2    ~b_1*  )
