#
#                              ======================
#                              | THE SUSYHIT OUTPUT |
#                              ======================
#
#
#              ------------------------------------------------------
#              |     This is the output of the SUSY-HIT package     |
#              |  created by A.Djouadi, M.Muehlleitner and M.Spira. |
#              |  In case of problems with SUSY-HIT email to        |
#              |           margarete.muehlleitner@kit.edu           |
#              |           michael.spira@psi.ch                     |
#              |           abdelhak.djouadi@cern.ch                 |
#              ------------------------------------------------------
#
#              ------------------------------------------------------
#              |  SUSY Les Houches Accord - MSSM Spectrum + Decays  |
#              |              based on the decay programs           |
#              |                                                    |
#              |                     SDECAY 1.5                     |
#              |                                                    |
#              |  Authors: M.Muhlleitner, A.Djouadi and Y.Mambrini  |
#              |  Ref.:    Comput.Phys.Commun.168(2005)46           |
#              |           [hep-ph/0311167]                         |
#              |                                                    |
#              |                     HDECAY 3.4                     |
#              |                                                    |
#              |  By: A.Djouadi,J.Kalinowski,M.Muhlleitner,M.Spira  |
#              |  Ref.:    Comput.Phys.Commun.108(1998)56           |
#              |           [hep-ph/9704448]                         |
#              |                                                    |
#              |                                                    |
#              |  If not stated otherwise all DRbar couplings and   |
#              |  soft SUSY breaking masses are given at the scale  |
#              |  Q=  0.12013578E+04
#              |                                                    |
#              ------------------------------------------------------
#
#
BLOCK DCINFO  # Decay Program information
     1   SDECAY/HDECAY # decay calculator
     2   1.5  /3.4    # version number
#
BLOCK SPINFO  # Spectrum calculator information
     1    SOFTSUSY    # spectrum calculator                
     2    3.7.3       # version number                     
#
BLOCK MODSEL  # Model selection
     1     0   #  nonUniversal                                     
#
BLOCK SMINPUTS  # Standard Model inputs
         1     1.27934000E+02   # alpha_em^-1(M_Z)^MSbar
         2     1.16639000E-05   # G_F [GeV^-2]
         3     1.17200000E-01   # alpha_S(M_Z)^MSbar
         4     9.11870000E+01   # M_Z pole mass
         5     4.19000000E+00   # mb(mb)^MSbar
         6     1.72500000E+02   # mt pole mass
         7     1.77690000E+00   # mtau pole mass
#
BLOCK MINPAR  # Input parameters - minimal models
         3     2.00000000E+01   # tanb                
#
BLOCK EXTPAR  # Input parameters - non-minimal models
         0    -1.00000000E+00   # Set                 
         1     2.59990000E+02   # M_1(MX)             
         2     2.00000000E+03   # M_2(MX)             
         3     1.80000000E+03   # M_3(MX)             
        11     2.52959179E+03   # At(MX)              
        12     0.00000000E+00   # Ab(MX)              
        13     0.00000000E+00   # Atau(MX)            
        23    -2.88900000E+02   # mu(MX)              
        25     2.00000000E+01   # tan                 
        26     4.00000000E+03   # mA(pole)            
        31     4.00000000E+03   # meL(MX)             
        32     4.00000000E+03   # mmuL(MX)            
        33     4.00000000E+03   # mtauL(MX)           
        34     4.00000000E+03   # meR(MX)             
        35     4.00000000E+03   # mmuR(MX)            
        36     4.00000000E+03   # mtauR(MX)           
        41     4.00000000E+03   # mqL1(MX)            
        42     4.00000000E+03   # mqL2(MX)            
        43     2.05485961E+03   # mqL3(MX)            
        44     4.00000000E+03   # muR(MX)             
        45     4.00000000E+03   # mcR(MX)             
        46     7.09990000E+02   # mtR(MX)             
        47     4.00000000E+03   # mdR(MX)             
        48     4.00000000E+03   # msR(MX)             
        49     4.00000000E+03   # mbR(MX)             
#
BLOCK MASS  # Mass Spectrum
# PDG code           mass       particle
        24     8.04198121E+01   # W+
        25     1.25635735E+02   # h
        35     4.00000727E+03   # H
        36     3.99999659E+03   # A
        37     4.00102414E+03   # H+
         5     4.81337004E+00   # b-quark pole mass calculated from mb(mb)_Msbar
   1000001     4.02308634E+03   # ~d_L
   2000001     4.02037769E+03   # ~d_R
   1000002     4.02243694E+03   # ~u_L
   2000002     4.02096966E+03   # ~u_R
   1000003     4.02308634E+03   # ~s_L
   2000003     4.02037769E+03   # ~s_R
   1000004     4.02243694E+03   # ~c_L
   2000004     4.02096966E+03   # ~c_R
   1000005     2.08363247E+03   # ~b_1
   2000005     4.02413121E+03   # ~b_2
   1000006     7.36661020E+02   # ~t_1
   2000006     2.09621717E+03   # ~t_2
   1000011     4.00385277E+03   # ~e_L
   2000011     4.00361961E+03   # ~e_R
   1000012     4.00274273E+03   # ~nu_eL
   1000013     4.00385277E+03   # ~mu_L
   2000013     4.00361961E+03   # ~mu_R
   1000014     4.00274273E+03   # ~nu_muL
   1000015     4.00479069E+03   # ~tau_1
   2000015     4.00774143E+03   # ~tau_2
   1000016     4.00443334E+03   # ~nu_tauL
   1000021     1.98622519E+03   # ~g
   1000022     2.46034280E+02   # ~chi_10
   1000023    -2.99659664E+02   # ~chi_20
   1000025     3.14457322E+02   # ~chi_30
   1000035     2.06529540E+03   # ~chi_40
   1000024     2.96794614E+02   # ~chi_1+
   1000037     2.06546793E+03   # ~chi_2+
#
BLOCK NMIX  # Neutralino Mixing Matrix
  1  1     8.33964472E-01   # N_11
  1  2    -1.45141939E-02   # N_12
  1  3    -4.25661594E-01   # N_13
  1  4    -3.50862942E-01   # N_14
  2  1    -5.93795053E-02   # N_21
  2  2     2.51345868E-02   # N_22
  2  3    -7.01897776E-01   # N_23
  2  4     7.09353113E-01   # N_24
  3  1     5.48613127E-01   # N_31
  3  2     2.65783014E-02   # N_32
  3  3     5.71084844E-01   # N_33
  3  4     6.10065023E-01   # N_34
  4  1    -9.85166802E-04   # N_41
  4  2     9.99225292E-01   # N_42
  4  3    -3.71756948E-03   # N_43
  4  4    -3.91666249E-02   # N_44
#
BLOCK UMIX  # Chargino Mixing Matrix U
  1  1     5.26273196E-03   # U_11
  1  2     9.99986152E-01   # U_12
  2  1    -9.99986152E-01   # U_21
  2  2     5.26273196E-03   # U_22
#
BLOCK VMIX  # Chargino Mixing Matrix V
  1  1     5.54016533E-02   # V_11
  1  2    -9.98464149E-01   # V_12
  2  1    -9.98464149E-01   # V_21
  2  2    -5.54016533E-02   # V_22
#
BLOCK STOPMIX  # Stop Mixing Matrix
  1  1    -1.00864174E-01   # cos(theta_t)
  1  2     9.94900205E-01   # sin(theta_t)
  2  1    -9.94900205E-01   # -sin(theta_t)
  2  2    -1.00864174E-01   # cos(theta_t)
#
BLOCK SBOTMIX  # Sbottom Mixing Matrix
  1  1     9.99999276E-01   # cos(theta_b)
  1  2    -1.20332850E-03   # sin(theta_b)
  2  1     1.20332850E-03   # -sin(theta_b)
  2  2     9.99999276E-01   # cos(theta_b)
#
BLOCK STAUMIX  # Stau Mixing Matrix
  1  1    -7.05641069E-01   # cos(theta_tau)
  1  2     7.08569461E-01   # sin(theta_tau)
  2  1    -7.08569461E-01   # -sin(theta_tau)
  2  2    -7.05641069E-01   # cos(theta_tau)
#
BLOCK ALPHA  # Higgs mixing
          -5.00279357E-02   # Mixing angle in the neutral Higgs boson sector
#
BLOCK HMIX Q=  1.20135784E+03  # DRbar Higgs Parameters
         1    -2.88900000E+02   # mu(Q)MSSM           
         2     2.00000000E+01   # tan                 
         3     2.43814118E+02   # higgs               
         4     1.61516069E+07   # mA^2(Q)MSSM         
#
BLOCK GAUGE Q=  1.20135784E+03  # The gauge couplings
     1     3.61807546E-01   # gprime(Q) DRbar
     2     6.35654231E-01   # g(Q) DRbar
     3     1.03123149E+00   # g3(Q) DRbar
#
BLOCK AU Q=  1.20135784E+03  # The trilinear couplings
  1  1     0.00000000E+00   # A_u(Q) DRbar
  2  2     1.13725288E-06   # A_c(Q) DRbar
  3  3     2.52959179E+03   # A_t(Q) DRbar
#
BLOCK AD Q=  1.20135784E+03  # The trilinear couplings
  1  1     4.17918669E-07   # A_d(Q) DRbar
  2  2     4.17958345E-07   # A_s(Q) DRbar
  3  3     7.48092679E-07   # A_b(Q) DRbar
#
BLOCK AE Q=  1.20135784E+03  # The trilinear couplings
  1  1     0.00000000E+00   # A_e(Q) DRbar
  2  2     9.21334222E-08   # A_mu(Q) DRbar
  3  3     9.30797406E-08   # A_tau(Q) DRbar
#
BLOCK Yu Q=  1.20135784E+03  # The Yukawa couplings
  1  1     0.00000000E+00   # y_u(Q) DRbar
  2  2     0.00000000E+00   # y_c(Q) DRbar
  3  3     8.69181255E-01   # y_t(Q) DRbar
#
BLOCK Yd Q=  1.20135784E+03  # The Yukawa couplings
  1  1     0.00000000E+00   # y_d(Q) DRbar
  2  2     0.00000000E+00   # y_s(Q) DRbar
  3  3     2.84820590E-01   # y_b(Q) DRbar
#
BLOCK Ye Q=  1.20135784E+03  # The Yukawa couplings
  1  1     0.00000000E+00   # y_e(Q) DRbar
  2  2     0.00000000E+00   # y_mu(Q) DRbar
  3  3     2.03529257E-01   # y_tau(Q) DRbar
#
BLOCK MSOFT Q=  1.20135784E+03  # The soft SUSY breaking masses at the scale Q
         1     2.59990000E+02   # M_1(Q)              
         2     2.00000000E+03   # M_2(Q)              
         3     1.80000000E+03   # M_3(Q)              
        21     1.58008599E+07   # M^2_Hd              
        22    -7.45492177E+04   # M^2_Hu              
        31     4.00000000E+03   # M_eL                
        32     4.00000000E+03   # M_muL               
        33     4.00000000E+03   # M_tauL              
        34     4.00000000E+03   # M_eR                
        35     4.00000000E+03   # M_muR               
        36     4.00000000E+03   # M_tauR              
        41     4.00000000E+03   # M_q1L               
        42     4.00000000E+03   # M_q2L               
        43     2.05485961E+03   # M_q3L               
        44     4.00000000E+03   # M_uR                
        45     4.00000000E+03   # M_cR                
        46     7.09989996E+02   # M_tR                
        47     4.00000000E+03   # M_dR                
        48     4.00000000E+03   # M_sR                
        49     4.00000000E+03   # M_bR                
#
#
#
#                             =================
#                             |The decay table|
#                             =================
#
# - The QCD corrections to the decays gluino -> squark  + quark
#                                     squark -> gaugino + quark_prime
#                                     squark -> squark_prime + Higgs
#                                     squark -> gluino  + quark
#   are included.
#
# - The multi-body decays for the inos, stops and sbottoms are included.
#
# - The loop induced decays for the gluino, neutralinos and stops
#   are included.
#
# - The SUSY decays of the top quark are included.
#
#
#         PDG            Width
DECAY         6     1.40169159E+00   # top decays
#          BR         NDA      ID1       ID2
     1.00000000E+00    2           5        24   # BR(t ->  b    W+)
#
#         PDG            Width
DECAY   1000021     3.14781049E+01   # gluino decays
#          BR         NDA      ID1       ID2
     5.00000000E-01    2     1000006        -6   # BR(~g -> ~t_1  tb)
     5.00000000E-01    2    -1000006         6   # BR(~g -> ~t_1* t )
#
#         PDG            Width
DECAY   1000006     1.54424520E+01   # stop1 decays
#          BR         NDA      ID1       ID2
     8.75630811E-02    2     1000022         6   # BR(~t_1 -> ~chi_10 t )
     2.07367704E-01    2     1000023         6   # BR(~t_1 -> ~chi_20 t )
     2.13145551E-01    2     1000025         6   # BR(~t_1 -> ~chi_30 t )
     4.91923663E-01    2     1000024         5   # BR(~t_1 -> ~chi_1+ b )
#
#         PDG            Width
DECAY   2000006     6.30944949E+01   # stop2 decays
#          BR         NDA      ID1       ID2
     6.76909435E-02    2     1000022         6   # BR(~t_2 -> ~chi_10 t )
     2.31049733E-01    2     1000023         6   # BR(~t_2 -> ~chi_20 t )
     1.60673500E-01    2     1000025         6   # BR(~t_2 -> ~chi_30 t )
     5.45029340E-02    2     1000024         5   # BR(~t_2 -> ~chi_1+ b )
     2.38205022E-04    2     1000037         5   # BR(~t_2 -> ~chi_2+ b )
     2.99517756E-01    2     1000006        25   # BR(~t_2 -> ~t_1    h )
     1.86326929E-01    2     1000006        23   # BR(~t_2 -> ~t_1    Z )
#
#         PDG            Width
DECAY   1000005     4.11199909E+01   # sbottom1 decays
#          BR         NDA      ID1       ID2
     1.86558058E-02    2     1000022         5   # BR(~b_1 -> ~chi_10 b )
     3.49993708E-02    2     1000023         5   # BR(~b_1 -> ~chi_20 b )
     2.39808974E-02    2     1000025         5   # BR(~b_1 -> ~chi_30 b )
     6.79500115E-05    2     1000035         5   # BR(~b_1 -> ~chi_40 b )
     6.91636309E-01    2    -1000024         6   # BR(~b_1 -> ~chi_1- t )
     3.42609243E-02    2     1000021         5   # BR(~b_1 -> ~g      b )
     1.96398742E-01    2     1000006       -24   # BR(~b_1 -> ~t_1    W-)
#
#         PDG            Width
DECAY   2000005     1.64377073E+02   # sbottom2 decays
#          BR         NDA      ID1       ID2
     1.60692289E-02    2     1000022         5   # BR(~b_2 -> ~chi_10 b )
     1.81272255E-02    2     1000023         5   # BR(~b_2 -> ~chi_20 b )
     1.60312578E-02    2     1000025         5   # BR(~b_2 -> ~chi_30 b )
     6.27172918E-07    2     1000035         5   # BR(~b_2 -> ~chi_40 b )
     3.65932689E-02    2    -1000024         6   # BR(~b_2 -> ~chi_1- t )
     1.23915570E-06    2    -1000037         6   # BR(~b_2 -> ~chi_2- t )
     9.12865461E-01    2     1000021         5   # BR(~b_2 -> ~g      b )
     6.65400250E-05    2     1000005        25   # BR(~b_2 -> ~b_1    h )
     8.80869799E-05    2     1000005        23   # BR(~b_2 -> ~b_1    Z )
     3.80569065E-06    2     1000006       -24   # BR(~b_2 -> ~t_1    W-)
     1.53258414E-04    2     2000006       -24   # BR(~b_2 -> ~t_2    W-)
#
#         PDG            Width
DECAY   1000002     1.76021818E+02   # sup_L decays
#          BR         NDA      ID1       ID2
     1.81426667E-03    2     1000022         2   # BR(~u_L -> ~chi_10 u)
     1.68373619E-05    2     1000023         2   # BR(~u_L -> ~chi_20 u)
     1.49305066E-03    2     1000025         2   # BR(~u_L -> ~chi_30 u)
     4.81635585E-02    2     1000035         2   # BR(~u_L -> ~chi_40 u)
     5.37497497E-04    2     1000024         1   # BR(~u_L -> ~chi_1+ d)
     9.62049895E-02    2     1000037         1   # BR(~u_L -> ~chi_2+ d)
     8.51769800E-01    2     1000021         2   # BR(~u_L -> ~g      u)
#
#         PDG            Width
DECAY   2000002     1.58694879E+02   # sup_R decays
#          BR         NDA      ID1       ID2
     3.90149218E-02    2     1000022         2   # BR(~u_R -> ~chi_10 u)
     1.97113355E-04    2     1000023         2   # BR(~u_R -> ~chi_20 u)
     1.68076690E-02    2     1000025         2   # BR(~u_R -> ~chi_30 u)
     2.98939356E-08    2     1000035         2   # BR(~u_R -> ~chi_40 u)
     9.43980266E-01    2     1000021         2   # BR(~u_R -> ~g      u)
#
#         PDG            Width
DECAY   1000001     1.76040743E+02   # sdown_L decays
#          BR         NDA      ID1       ID2
     2.62136133E-03    2     1000022         1   # BR(~d_L -> ~chi_10 d)
     1.15999918E-04    2     1000023         1   # BR(~d_L -> ~chi_20 d)
     5.25396128E-04    2     1000025         1   # BR(~d_L -> ~chi_30 d)
     4.82133326E-02    2     1000035         1   # BR(~d_L -> ~chi_40 d)
     4.85042396E-06    2    -1000024         2   # BR(~d_L -> ~chi_1- u)
     9.65259905E-02    2    -1000037         2   # BR(~d_L -> ~chi_2- u)
     8.51993069E-01    2     1000021         1   # BR(~d_L -> ~g      d)
#
#         PDG            Width
DECAY   2000001     1.51976479E+02   # sdown_R decays
#          BR         NDA      ID1       ID2
     1.01833628E-02    2     1000022         1   # BR(~d_R -> ~chi_10 d)
     5.14488990E-05    2     1000023         1   # BR(~d_R -> ~chi_20 d)
     4.38699748E-03    2     1000025         1   # BR(~d_R -> ~chi_30 d)
     7.80107000E-09    2     1000035         1   # BR(~d_R -> ~chi_40 d)
     9.85378183E-01    2     1000021         1   # BR(~d_R -> ~g      d)
#
#         PDG            Width
DECAY   1000004     1.76021818E+02   # scharm_L decays
#          BR         NDA      ID1       ID2
     1.81426667E-03    2     1000022         4   # BR(~c_L -> ~chi_10 c)
     1.68373619E-05    2     1000023         4   # BR(~c_L -> ~chi_20 c)
     1.49305066E-03    2     1000025         4   # BR(~c_L -> ~chi_30 c)
     4.81635585E-02    2     1000035         4   # BR(~c_L -> ~chi_40 c)
     5.37497497E-04    2     1000024         3   # BR(~c_L -> ~chi_1+ s)
     9.62049895E-02    2     1000037         3   # BR(~c_L -> ~chi_2+ s)
     8.51769800E-01    2     1000021         4   # BR(~c_L -> ~g      c)
#
#         PDG            Width
DECAY   2000004     1.58694879E+02   # scharm_R decays
#          BR         NDA      ID1       ID2
     3.90149218E-02    2     1000022         4   # BR(~c_R -> ~chi_10 c)
     1.97113355E-04    2     1000023         4   # BR(~c_R -> ~chi_20 c)
     1.68076690E-02    2     1000025         4   # BR(~c_R -> ~chi_30 c)
     2.98939356E-08    2     1000035         4   # BR(~c_R -> ~chi_40 c)
     9.43980266E-01    2     1000021         4   # BR(~c_R -> ~g      c)
#
#         PDG            Width
DECAY   1000003     1.76040743E+02   # sstrange_L decays
#          BR         NDA      ID1       ID2
     2.62136133E-03    2     1000022         3   # BR(~s_L -> ~chi_10 s)
     1.15999918E-04    2     1000023         3   # BR(~s_L -> ~chi_20 s)
     5.25396128E-04    2     1000025         3   # BR(~s_L -> ~chi_30 s)
     4.82133326E-02    2     1000035         3   # BR(~s_L -> ~chi_40 s)
     4.85042396E-06    2    -1000024         4   # BR(~s_L -> ~chi_1- c)
     9.65259905E-02    2    -1000037         4   # BR(~s_L -> ~chi_2- c)
     8.51993069E-01    2     1000021         3   # BR(~s_L -> ~g      s)
#
#         PDG            Width
DECAY   2000003     1.51976479E+02   # sstrange_R decays
#          BR         NDA      ID1       ID2
     1.01833628E-02    2     1000022         3   # BR(~s_R -> ~chi_10 s)
     5.14488990E-05    2     1000023         3   # BR(~s_R -> ~chi_20 s)
     4.38699748E-03    2     1000025         3   # BR(~s_R -> ~chi_30 s)
     7.80107000E-09    2     1000035         3   # BR(~s_R -> ~chi_40 s)
     9.85378183E-01    2     1000021         3   # BR(~s_R -> ~g      s)
#
#         PDG            Width
DECAY   1000011     3.11873417E+01   # selectron_L decays
#          BR         NDA      ID1       ID2
     1.08440431E-01    2     1000022        11   # BR(~e_L -> ~chi_10 e-)
     3.82964366E-05    2     1000023        11   # BR(~e_L -> ~chi_20 e-)
     5.85146279E-02    2     1000025        11   # BR(~e_L -> ~chi_30 e-)
     2.77192476E-01    2     1000035        11   # BR(~e_L -> ~chi_40 e-)
     2.82688632E-05    2    -1000024        12   # BR(~e_L -> ~chi_1- nu_e)
     5.55785900E-01    2    -1000037        12   # BR(~e_L -> ~chi_2- nu_e)
#
#         PDG            Width
DECAY   2000011     2.06656193E+01   # selectron_R decays
#          BR         NDA      ID1       ID2
     6.96511765E-01    2     1000022        11   # BR(~e_R -> ~chi_10 e-)
     3.51814156E-03    2     1000023        11   # BR(~e_R -> ~chi_20 e-)
     2.99969566E-01    2     1000025        11   # BR(~e_R -> ~chi_30 e-)
     5.27476386E-07    2     1000035        11   # BR(~e_R -> ~chi_40 e-)
#
#         PDG            Width
DECAY   1000013     3.11873417E+01   # smuon_L decays
#          BR         NDA      ID1       ID2
     1.08440431E-01    2     1000022        13   # BR(~mu_L -> ~chi_10 mu-)
     3.82964366E-05    2     1000023        13   # BR(~mu_L -> ~chi_20 mu-)
     5.85146279E-02    2     1000025        13   # BR(~mu_L -> ~chi_30 mu-)
     2.77192476E-01    2     1000035        13   # BR(~mu_L -> ~chi_40 mu-)
     2.82688632E-05    2    -1000024        14   # BR(~mu_L -> ~chi_1- nu_mu)
     5.55785900E-01    2    -1000037        14   # BR(~mu_L -> ~chi_2- nu_mu)
#
#         PDG            Width
DECAY   2000013     2.06656193E+01   # smuon_R decays
#          BR         NDA      ID1       ID2
     6.96511765E-01    2     1000022        13   # BR(~mu_R -> ~chi_10 mu-)
     3.51814156E-03    2     1000023        13   # BR(~mu_R -> ~chi_20 mu-)
     2.99969566E-01    2     1000025        13   # BR(~mu_R -> ~chi_30 mu-)
     5.27476386E-07    2     1000035        13   # BR(~mu_R -> ~chi_40 mu-)
#
#         PDG            Width
DECAY   1000015     3.08619994E+01   # stau_1 decays
#          BR         NDA      ID1       ID2
     3.56838226E-01    2     1000022        15   # BR(~tau_1 -> ~chi_10  tau-)
     4.36365056E-02    2     1000023        15   # BR(~tau_1 -> ~chi_20  tau-)
     1.26711918E-01    2     1000025        15   # BR(~tau_1 -> ~chi_30  tau-)
     1.39085133E-01    2     1000035        15   # BR(~tau_1 -> ~chi_40  tau-)
     5.48543756E-02    2    -1000024        16   # BR(~tau_1 -> ~chi_1-  nu_tau)
     2.78873842E-01    2    -1000037        16   # BR(~tau_1 -> ~chi_2-  nu_tau)
#
#         PDG            Width
DECAY   2000015     3.08433241E+01   # stau_2 decays
#          BR         NDA      ID1       ID2
     2.58118272E-01    2     1000022        15   # BR(~tau_2 -> ~chi_10  tau-)
     6.30390118E-02    2     1000023        15   # BR(~tau_2 -> ~chi_20  tau-)
     2.02524314E-01    2     1000025        15   # BR(~tau_2 -> ~chi_30  tau-)
     1.41531811E-01    2     1000035        15   # BR(~tau_2 -> ~chi_40  tau-)
     5.10088941E-02    2    -1000024        16   # BR(~tau_2 -> ~chi_1-  nu_tau)
     2.83777696E-01    2    -1000037        16   # BR(~tau_2 -> ~chi_2-  nu_tau)
#
#         PDG            Width
DECAY   1000012     3.11983025E+01   # snu_eL decays
#          BR         NDA      ID1       ID2
     1.22475685E-01    2     1000022        12   # BR(~nu_eL -> ~chi_10 nu_e)
     1.77092671E-03    2     1000023        12   # BR(~nu_eL -> ~chi_20 nu_e)
     4.15690894E-02    2     1000025        12   # BR(~nu_eL -> ~chi_30 nu_e)
     2.77529136E-01    2     1000035        12   # BR(~nu_eL -> ~chi_40 nu_e)
     3.13080200E-03    2     1000024        11   # BR(~nu_eL -> ~chi_1+ e-)
     5.53524361E-01    2     1000037        11   # BR(~nu_eL -> ~chi_2+ e-)
#
#         PDG            Width
DECAY   1000014     3.11983025E+01   # snu_muL decays
#          BR         NDA      ID1       ID2
     1.22475685E-01    2     1000022        14   # BR(~nu_muL -> ~chi_10 nu_mu)
     1.77092671E-03    2     1000023        14   # BR(~nu_muL -> ~chi_20 nu_mu)
     4.15690894E-02    2     1000025        14   # BR(~nu_muL -> ~chi_30 nu_mu)
     2.77529136E-01    2     1000035        14   # BR(~nu_muL -> ~chi_40 nu_mu)
     3.13080200E-03    2     1000024        13   # BR(~nu_muL -> ~chi_1+ mu-)
     5.53524361E-01    2     1000037        13   # BR(~nu_muL -> ~chi_2+ mu-)
#
#         PDG            Width
DECAY   1000016     3.44913227E+01   # snu_tauL decays
#          BR         NDA      ID1       ID2
     1.10829957E-01    2     1000022        16   # BR(~nu_tauL -> ~chi_10 nu_tau)
     1.60254129E-03    2     1000023        16   # BR(~nu_tauL -> ~chi_20 nu_tau)
     3.76166028E-02    2     1000025        16   # BR(~nu_tauL -> ~chi_30 nu_tau)
     2.51292245E-01    2     1000035        16   # BR(~nu_tauL -> ~chi_40 nu_tau)
     9.74629875E-02    2     1000024        15   # BR(~nu_tauL -> ~chi_1+ tau-)
     5.01195667E-01    2     1000037        15   # BR(~nu_tauL -> ~chi_2+ tau-)
#
#         PDG            Width
DECAY   1000024     1.25131838E-04   # chargino1+ decays
#           BR         NDA      ID1       ID2       ID3
     3.33551379E-01    3     1000022         2        -1   # BR(~chi_1+ -> ~chi_10 u    db)
     3.33551379E-01    3     1000022         4        -3   # BR(~chi_1+ -> ~chi_10 c    sb)
     1.11185150E-01    3     1000022       -11        12   # BR(~chi_1+ -> ~chi_10 e+   nu_e)
     1.11185150E-01    3     1000022       -13        14   # BR(~chi_1+ -> ~chi_10 mu+  nu_mu)
     1.10526943E-01    3     1000022       -15        16   # BR(~chi_1+ -> ~chi_10 tau+ nu_tau)
#
#         PDG            Width
DECAY   1000037     1.66936028E+01   # chargino2+ decays
#          BR         NDA      ID1       ID2
     3.95315733E-02    2     1000006        -5   # BR(~chi_2+ -> ~t_1     bb)
     2.44846168E-01    2     1000024        23   # BR(~chi_2+ -> ~chi_1+  Z )
     5.27090462E-02    2     1000022        24   # BR(~chi_2+ -> ~chi_10  W+)
     2.39092518E-01    2     1000023        24   # BR(~chi_2+ -> ~chi_20  W+)
     1.84888902E-01    2     1000025        24   # BR(~chi_2+ -> ~chi_30  W+)
     2.38931792E-01    2     1000024        25   # BR(~chi_2+ -> ~chi_1+  h )
#
#         PDG            Width
DECAY   1000022     0.00000000E+00   # neutralino1 decays
#
#         PDG            Width
DECAY   1000023     1.25813657E-04   # neutralino2 decays
#          BR         NDA      ID1       ID2
     3.25679591E-04    2     1000022        22   # BR(~chi_20 -> ~chi_10 gam)
#           BR         NDA      ID1       ID2       ID3
     1.17974877E-01    3     1000022        -2         2   # BR(~chi_20 -> ~chi_10 ub      u)
     1.53043219E-01    3     1000022        -1         1   # BR(~chi_20 -> ~chi_10 db      d)
     1.17974877E-01    3     1000022        -4         4   # BR(~chi_20 -> ~chi_10 cb      c)
     1.53043219E-01    3     1000022        -3         3   # BR(~chi_20 -> ~chi_10 sb      s)
     1.42098120E-01    3     1000022        -5         5   # BR(~chi_20 -> ~chi_10 bb      b)
     3.51007235E-02    3     1000022       -11        11   # BR(~chi_20 -> ~chi_10 e+      e-)
     3.51007235E-02    3     1000022       -13        13   # BR(~chi_20 -> ~chi_10 mu+     mu-)
     3.47999238E-02    3     1000022       -15        15   # BR(~chi_20 -> ~chi_10 tau+    tau-)
     7.01784729E-02    3     1000022       -12        12   # BR(~chi_20 -> ~chi_10 nu_eb   nu_e)
     7.01784729E-02    3     1000022       -14        14   # BR(~chi_20 -> ~chi_10 nu_mub  nu_mu)
     7.01784707E-02    3     1000022       -16        16   # BR(~chi_20 -> ~chi_10 nu_taub nu_tau)
     5.93591535E-07    3     1000024        -2         1   # BR(~chi_20 -> ~chi_1+ ub      d)
     5.93591535E-07    3    -1000024        -1         2   # BR(~chi_20 -> ~chi_1- db      u)
     5.93591535E-07    3     1000024        -4         3   # BR(~chi_20 -> ~chi_1+ cb      s)
     5.93591535E-07    3    -1000024        -3         4   # BR(~chi_20 -> ~chi_1- sb      c)
     1.97864069E-07    3     1000024       -12        11   # BR(~chi_20 -> ~chi_1+ nu_eb   e-)
     1.97864069E-07    3    -1000024        12       -11   # BR(~chi_20 -> ~chi_1- nu_e    e+)
     1.97864069E-07    3     1000024       -14        13   # BR(~chi_20 -> ~chi_1+ nu_mub  mu-)
     1.97864069E-07    3    -1000024        14       -13   # BR(~chi_20 -> ~chi_1- nu_mu   mu+)
     2.67259039E-08    3     1000024       -16        15   # BR(~chi_20 -> ~chi_1+ nu_taub tau-)
     2.67259039E-08    3    -1000024        16       -15   # BR(~chi_20 -> ~chi_1- nu_tau  tau+)
#
#         PDG            Width
DECAY   1000025     9.33779591E-06   # neutralino3 decays
#          BR         NDA      ID1       ID2
     2.92799457E-02    2     1000022        22   # BR(~chi_30 -> ~chi_10 gam)
     3.64210221E-02    2     1000023        22   # BR(~chi_30 -> ~chi_20 gam)
#           BR         NDA      ID1       ID2       ID3
     7.10652433E-02    3     1000022        -2         2   # BR(~chi_30 -> ~chi_10 ub      u)
     9.18502774E-02    3     1000022        -1         1   # BR(~chi_30 -> ~chi_10 db      d)
     7.10652433E-02    3     1000022        -4         4   # BR(~chi_30 -> ~chi_10 cb      c)
     9.18502774E-02    3     1000022        -3         3   # BR(~chi_30 -> ~chi_10 sb      s)
     8.81995917E-02    3     1000022        -5         5   # BR(~chi_30 -> ~chi_10 bb      b)
     2.07974591E-02    3     1000022       -11        11   # BR(~chi_30 -> ~chi_10 e+      e-)
     2.07974591E-02    3     1000022       -13        13   # BR(~chi_30 -> ~chi_10 mu+     mu-)
     2.07239097E-02    3     1000022       -15        15   # BR(~chi_30 -> ~chi_10 tau+    tau-)
     4.22461530E-02    3     1000022       -12        12   # BR(~chi_30 -> ~chi_10 nu_eb   nu_e)
     4.22461530E-02    3     1000022       -14        14   # BR(~chi_30 -> ~chi_10 nu_mub  nu_mu)
     4.22460621E-02    3     1000022       -16        16   # BR(~chi_30 -> ~chi_10 nu_taub nu_tau)
     5.83541046E-03    3     1000023        -2         2   # BR(~chi_30 -> ~chi_20 ub      u)
     7.57031405E-03    3     1000023        -1         1   # BR(~chi_30 -> ~chi_20 db      d)
     5.83541046E-03    3     1000023        -4         4   # BR(~chi_30 -> ~chi_20 cb      c)
     7.57031405E-03    3     1000023        -3         3   # BR(~chi_30 -> ~chi_20 sb      s)
     2.50394471E-03    3     1000023        -5         5   # BR(~chi_30 -> ~chi_20 bb      b)
     1.73645841E-03    3     1000023       -11        11   # BR(~chi_30 -> ~chi_20 e+      e-)
     1.73645841E-03    3     1000023       -13        13   # BR(~chi_30 -> ~chi_20 mu+     mu-)
     1.59857697E-03    3     1000023       -15        15   # BR(~chi_30 -> ~chi_20 tau+    tau-)
     3.47115720E-03    3     1000023       -12        12   # BR(~chi_30 -> ~chi_20 nu_eb   nu_e)
     3.47115720E-03    3     1000023       -14        14   # BR(~chi_30 -> ~chi_20 nu_mub  nu_mu)
     3.47115725E-03    3     1000023       -16        16   # BR(~chi_30 -> ~chi_20 nu_taub nu_tau)
     4.79941130E-02    3     1000024        -2         1   # BR(~chi_30 -> ~chi_1+ ub      d)
     4.79941130E-02    3    -1000024        -1         2   # BR(~chi_30 -> ~chi_1- db      u)
     4.79941130E-02    3     1000024        -4         3   # BR(~chi_30 -> ~chi_1+ cb      s)
     4.79941130E-02    3    -1000024        -3         4   # BR(~chi_30 -> ~chi_1- sb      c)
     1.59978592E-02    3     1000024       -12        11   # BR(~chi_30 -> ~chi_1+ nu_eb   e-)
     1.59978592E-02    3    -1000024        12       -11   # BR(~chi_30 -> ~chi_1- nu_e    e+)
     1.59978592E-02    3     1000024       -14        13   # BR(~chi_30 -> ~chi_1+ nu_mub  mu-)
     1.59978592E-02    3    -1000024        14       -13   # BR(~chi_30 -> ~chi_1- nu_mu   mu+)
     1.52214777E-02    3     1000024       -16        15   # BR(~chi_30 -> ~chi_1+ nu_taub tau-)
     1.52214777E-02    3    -1000024        16       -15   # BR(~chi_30 -> ~chi_1- nu_tau  tau+)
#
#         PDG            Width
DECAY   1000035     1.66788197E+01   # neutralino4 decays
#          BR         NDA      ID1       ID2
     2.39743131E-02    2     1000022        23   # BR(~chi_40 -> ~chi_10   Z )
     1.46197779E-01    2     1000023        23   # BR(~chi_40 -> ~chi_20   Z )
     7.48019762E-02    2     1000025        23   # BR(~chi_40 -> ~chi_30   Z )
     2.38751928E-01    2     1000024       -24   # BR(~chi_40 -> ~chi_1+   W-)
     2.38751928E-01    2    -1000024        24   # BR(~chi_40 -> ~chi_1-   W+)
     2.93292294E-02    2     1000022        25   # BR(~chi_40 -> ~chi_10   h )
     9.69111364E-02    2     1000023        25   # BR(~chi_40 -> ~chi_20   h )
     1.12244861E-01    2     1000025        25   # BR(~chi_40 -> ~chi_30   h )
     1.95184242E-02    2     1000006        -6   # BR(~chi_40 -> ~t_1      tb)
     1.95184242E-02    2    -1000006         6   # BR(~chi_40 -> ~t_1*     t )
#
#         PDG            Width
DECAY        25     4.05697452E-03   # h decays
#          BR         NDA      ID1       ID2
     5.93410079E-01    2           5        -5   # BR(h -> b       bb     )
     6.42749210E-02    2         -15        15   # BR(h -> tau+    tau-   )
     2.27532348E-04    2         -13        13   # BR(h -> mu+     mu-    )
     4.82460014E-04    2           3        -3   # BR(h -> s       sb     )
     2.09528731E-02    2           4        -4   # BR(h -> c       cb     )
     6.83064308E-02    2          21        21   # BR(h -> g       g      )
     2.37284501E-03    2          22        22   # BR(h -> gam     gam    )
     1.63081788E-03    2          22        23   # BR(h -> Z       gam    )
     2.20422925E-01    2          24       -24   # BR(h -> W+      W-     )
     2.79191156E-02    2          23        23   # BR(h -> Z       Z      )
#
#         PDG            Width
DECAY        35     5.45129968E+01   # H decays
#          BR         NDA      ID1       ID2
     3.51465367E-01    2           5        -5   # BR(H -> b       bb     )
     6.08221934E-02    2         -15        15   # BR(H -> tau+    tau-   )
     2.15052544E-04    2         -13        13   # BR(H -> mu+     mu-    )
     2.54370077E-04    2           3        -3   # BR(H -> s       sb     )
     7.13492581E-08    2           4        -4   # BR(H -> c       cb     )
     7.15068117E-03    2           6        -6   # BR(H -> t       tb     )
     8.27785905E-07    2          21        21   # BR(H -> g       g      )
     3.47168093E-10    2          22        22   # BR(H -> gam     gam    )
     1.83881464E-09    2          23        22   # BR(H -> Z       gam    )
     1.85860474E-06    2          24       -24   # BR(H -> W+      W-     )
     9.28658689E-07    2          23        23   # BR(H -> Z       Z      )
     7.03360328E-06    2          25        25   # BR(H -> h       h      )
    -3.05354717E-24    2          36        36   # BR(H -> A       A      )
     1.53996749E-20    2          23        36   # BR(H -> Z       A      )
     1.86204759E-03    2     1000024  -1000024   # BR(H -> ~chi_1+ ~chi_1-)
     1.61862125E-01    2     1000024  -1000037   # BR(H -> ~chi_1+ ~chi_2-)
     1.61862125E-01    2     1000037  -1000024   # BR(H -> ~chi_2+ ~chi_1-)
     2.52759860E-02    2     1000022   1000022   # BR(H -> ~chi_10 ~chi_10)
     8.62625134E-04    2     1000023   1000023   # BR(H -> ~chi_20 ~chi_20)
     1.54034965E-02    2     1000025   1000025   # BR(H -> ~chi_30 ~chi_30)
     2.43844374E-02    2     1000022   1000023   # BR(H -> ~chi_10 ~chi_20)
     7.59668980E-03    2     1000022   1000025   # BR(H -> ~chi_10 ~chi_30)
     2.91888366E-02    2     1000022   1000035   # BR(H -> ~chi_10 ~chi_40)
     1.37863791E-02    2     1000023   1000025   # BR(H -> ~chi_20 ~chi_30)
     8.04255182E-02    2     1000023   1000035   # BR(H -> ~chi_20 ~chi_40)
     5.27426353E-02    2     1000025   1000035   # BR(H -> ~chi_30 ~chi_40)
     2.94170096E-04    2     1000006  -1000006   # BR(H -> ~t_1    ~t_1*  )
     2.26727105E-03    2     1000006  -2000006   # BR(H -> ~t_1    ~t_2*  )
     2.26727105E-03    2     2000006  -1000006   # BR(H -> ~t_2    ~t_1*  )
#
#         PDG            Width
DECAY        36     5.45082510E+01   # A decays
#          BR         NDA      ID1       ID2
     3.51521775E-01    2           5        -5   # BR(A -> b       bb     )
     6.08277980E-02    2         -15        15   # BR(A -> tau+    tau-   )
     2.15072191E-04    2         -13        13   # BR(A -> mu+     mu-    )
     2.54434817E-04    2           3        -3   # BR(A -> s       sb     )
     7.18132108E-08    2           4        -4   # BR(A -> c       cb     )
     7.16465647E-03    2           6        -6   # BR(A -> t       tb     )
     1.47215571E-05    2          21        21   # BR(A -> g       g      )
     5.58057624E-08    2          22        22   # BR(A -> gam     gam    )
     1.61903168E-08    2          23        22   # BR(A -> Z       gam    )
     1.85485259E-06    2          23        25   # BR(A -> Z       h      )
     1.86834489E-03    2     1000024  -1000024   # BR(A -> ~chi_1+ ~chi_1-)
     1.61876454E-01    2     1000024  -1000037   # BR(A -> ~chi_1+ ~chi_2-)
     1.61876454E-01    2     1000037  -1000024   # BR(A -> ~chi_2+ ~chi_1-)
     2.17613567E-02    2     1000022   1000022   # BR(A -> ~chi_10 ~chi_10)
     1.08054548E-03    2     1000023   1000023   # BR(A -> ~chi_20 ~chi_20)
     1.27524203E-02    2     1000025   1000025   # BR(A -> ~chi_30 ~chi_30)
     3.01960926E-02    2     1000022   1000023   # BR(A -> ~chi_10 ~chi_20)
     6.02616348E-03    2     1000022   1000025   # BR(A -> ~chi_10 ~chi_30)
     2.97022360E-02    2     1000022   1000035   # BR(A -> ~chi_10 ~chi_40)
     1.54983772E-02    2     1000023   1000025   # BR(A -> ~chi_20 ~chi_30)
     7.95011475E-02    2     1000023   1000035   # BR(A -> ~chi_20 ~chi_40)
     5.31127206E-02    2     1000025   1000035   # BR(A -> ~chi_30 ~chi_40)
     2.37361566E-03    2     1000006  -2000006   # BR(A -> ~t_1    ~t_2*  )
     2.37361566E-03    2    -1000006   2000006   # BR(A -> ~t_1*   ~t_2   )
#
#         PDG            Width
DECAY        37     5.44545306E+01   # H+ decays
#          BR         NDA      ID1       ID2
     5.61377379E-04    2           4        -5   # BR(H+ -> c       bb     )
     6.09034470E-02    2         -15        16   # BR(H+ -> tau+    nu_tau )
     2.15339668E-04    2         -13        14   # BR(H+ -> mu+     nu_mu  )
     3.59281215E-06    2           2        -5   # BR(H+ -> u       bb     )
     1.21993964E-05    2           2        -3   # BR(H+ -> u       sb     )
     2.50980815E-04    2           4        -3   # BR(H+ -> c       sb     )
     3.57662982E-01    2           6        -5   # BR(H+ -> t       bb     )
     1.85876374E-06    2          24        25   # BR(H+ -> W+      h      )
     2.76833830E-14    2          24        36   # BR(H+ -> W+      A      )
     5.77246996E-02    2     1000024   1000022   # BR(H+ -> ~chi_1+ ~chi_10)
     3.54850309E-06    2     1000024   1000023   # BR(H+ -> ~chi_1+ ~chi_20)
     3.02828195E-02    2     1000024   1000025   # BR(H+ -> ~chi_1+ ~chi_30)
     1.62247194E-01    2     1000024   1000035   # BR(H+ -> ~chi_1+ ~chi_40)
     5.90364988E-02    2     1000037   1000022   # BR(H+ -> ~chi_2+ ~chi_10)
     1.60176868E-01    2     1000037   1000023   # BR(H+ -> ~chi_2+ ~chi_20)
     1.06135656E-01    2     1000037   1000025   # BR(H+ -> ~chi_2+ ~chi_30)
     4.78093766E-03    2     1000006  -1000005   # BR(H+ -> ~t_1    ~b_1*  )
