#
#                              ======================
#                              | THE SUSYHIT OUTPUT |
#                              ======================
#
#
#              ------------------------------------------------------
#              |     This is the output of the SUSY-HIT package     |
#              |  created by A.Djouadi, M.Muehlleitner and M.Spira. |
#              |  In case of problems with SUSY-HIT email to        |
#              |           margarete.muehlleitner@kit.edu           |
#              |           michael.spira@psi.ch                     |
#              |           abdelhak.djouadi@cern.ch                 |
#              ------------------------------------------------------
#
#              ------------------------------------------------------
#              |  SUSY Les Houches Accord - MSSM Spectrum + Decays  |
#              |              based on the decay programs           |
#              |                                                    |
#              |                     SDECAY 1.5                     |
#              |                                                    |
#              |  Authors: M.Muhlleitner, A.Djouadi and Y.Mambrini  |
#              |  Ref.:    Comput.Phys.Commun.168(2005)46           |
#              |           [hep-ph/0311167]                         |
#              |                                                    |
#              |                     HDECAY 3.4                     |
#              |                                                    |
#              |  By: A.Djouadi,J.Kalinowski,M.Muhlleitner,M.Spira  |
#              |  Ref.:    Comput.Phys.Commun.108(1998)56           |
#              |           [hep-ph/9704448]                         |
#              |                                                    |
#              |                                                    |
#              |  If not stated otherwise all DRbar couplings and   |
#              |  soft SUSY breaking masses are given at the scale  |
#              |  Q=  0.11040322E+04
#              |                                                    |
#              ------------------------------------------------------
#
#
BLOCK DCINFO  # Decay Program information
     1   SDECAY/HDECAY # decay calculator
     2   1.5  /3.4    # version number
#
BLOCK SPINFO  # Spectrum calculator information
     1    SOFTSUSY    # spectrum calculator                
     2    3.7.3       # version number                     
#
BLOCK MODSEL  # Model selection
     1     0   #  nonUniversal                                     
#
BLOCK SMINPUTS  # Standard Model inputs
         1     1.27934000E+02   # alpha_em^-1(M_Z)^MSbar
         2     1.16639000E-05   # G_F [GeV^-2]
         3     1.17200000E-01   # alpha_S(M_Z)^MSbar
         4     9.11870000E+01   # M_Z pole mass
         5     4.19000000E+00   # mb(mb)^MSbar
         6     1.72500000E+02   # mt pole mass
         7     1.77690000E+00   # mtau pole mass
#
BLOCK MINPAR  # Input parameters - minimal models
         3     2.00000000E+01   # tanb                
#
BLOCK EXTPAR  # Input parameters - non-minimal models
         0    -1.00000000E+00   # Set                 
         1     3.09990000E+02   # M_1(MX)             
         2     2.00000000E+03   # M_2(MX)             
         3     1.80000000E+03   # M_3(MX)             
        11     2.42959179E+03   # At(MX)              
        12     0.00000000E+00   # Ab(MX)              
        13     0.00000000E+00   # Atau(MX)            
        23    -3.26900000E+02   # mu(MX)              
        25     2.00000000E+01   # tan                 
        26     4.00000000E+03   # mA(pole)            
        31     4.00000000E+03   # meL(MX)             
        32     4.00000000E+03   # mmuL(MX)            
        33     4.00000000E+03   # mtauL(MX)           
        34     4.00000000E+03   # meR(MX)             
        35     4.00000000E+03   # mmuR(MX)            
        36     4.00000000E+03   # mtauR(MX)           
        41     4.00000000E+03   # mqL1(MX)            
        42     4.00000000E+03   # mqL2(MX)            
        43     2.02485961E+03   # mqL3(MX)            
        44     4.00000000E+03   # muR(MX)             
        45     4.00000000E+03   # mcR(MX)             
        46     6.09990000E+02   # mtR(MX)             
        47     4.00000000E+03   # mdR(MX)             
        48     4.00000000E+03   # msR(MX)             
        49     4.00000000E+03   # mbR(MX)             
#
BLOCK MASS  # Mass Spectrum
# PDG code           mass       particle
        24     8.04207659E+01   # W+
        25     1.25515626E+02   # h
        35     4.00000778E+03   # H
        36     3.99999644E+03   # A
        37     4.00100448E+03   # H+
         5     4.81337004E+00   # b-quark pole mass calculated from mb(mb)_Msbar
   1000001     4.02005681E+03   # ~d_L
   2000001     4.01799111E+03   # ~d_R
   1000002     4.01940665E+03   # ~u_L
   2000002     4.01857733E+03   # ~u_R
   1000003     4.02005681E+03   # ~s_L
   2000003     4.01799111E+03   # ~s_R
   1000004     4.01940665E+03   # ~c_L
   2000004     4.01857733E+03   # ~c_R
   1000005     2.05239395E+03   # ~b_1
   2000005     4.02257398E+03   # ~b_2
   1000006     6.36252284E+02   # ~t_1
   2000006     2.06470962E+03   # ~t_2
   1000011     4.00319694E+03   # ~e_L
   2000011     4.00358833E+03   # ~e_R
   1000012     4.00208701E+03   # ~nu_eL
   1000013     4.00319694E+03   # ~mu_L
   2000013     4.00358833E+03   # ~mu_R
   1000014     4.00208701E+03   # ~nu_muL
   1000015     4.00444712E+03   # ~tau_1
   2000015     4.00818596E+03   # ~tau_2
   1000016     4.00404211E+03   # ~nu_tauL
   1000021     1.98057477E+03   # ~g
   1000022     2.92654426E+02   # ~chi_10
   1000023    -3.37630141E+02   # ~chi_20
   1000025     3.56815718E+02   # ~chi_30
   1000035     2.06574387E+03   # ~chi_40
   1000024     3.35026381E+02   # ~chi_1+
   1000037     2.06591815E+03   # ~chi_2+
#
BLOCK NMIX  # Neutralino Mixing Matrix
  1  1     7.81647177E-01   # N_11
  1  2    -1.74493406E-02   # N_12
  1  3    -4.70349076E-01   # N_13
  1  4    -4.09261478E-01   # N_14
  2  1    -5.12255047E-02   # N_21
  2  2     2.47290102E-02   # N_22
  2  3    -7.02938958E-01   # N_23
  2  4     7.08971964E-01   # N_24
  3  1     6.21612902E-01   # N_31
  3  2     2.56175190E-02   # N_32
  3  3     5.33505729E-01   # N_33
  3  4     5.72985846E-01   # N_34
  4  1    -1.01899785E-03   # N_41
  4  2     9.99213560E-01   # N_42
  4  3    -4.49492468E-03   # N_43
  4  4    -3.93829660E-02   # N_44
#
BLOCK UMIX  # Chargino Mixing Matrix U
  1  1     6.36226795E-03   # U_11
  1  2     9.99979761E-01   # U_12
  2  1    -9.99979761E-01   # U_21
  2  2     6.36226795E-03   # U_22
#
BLOCK VMIX  # Chargino Mixing Matrix V
  1  1     5.57069942E-02   # V_11
  1  2    -9.98447160E-01   # V_12
  2  1    -9.98447160E-01   # V_21
  2  2    -5.57069942E-02   # V_22
#
BLOCK STOPMIX  # Stop Mixing Matrix
  1  1    -9.71202191E-02   # cos(theta_t)
  1  2     9.95272658E-01   # sin(theta_t)
  2  1    -9.95272658E-01   # -sin(theta_t)
  2  2    -9.71202191E-02   # cos(theta_t)
#
BLOCK SBOTMIX  # Sbottom Mixing Matrix
  1  1     9.99999079E-01   # cos(theta_b)
  1  2    -1.35720269E-03   # sin(theta_b)
  2  1     1.35720269E-03   # -sin(theta_b)
  2  2     9.99999079E-01   # cos(theta_b)
#
BLOCK STAUMIX  # Stau Mixing Matrix
  1  1    -7.05777248E-01   # cos(theta_tau)
  1  2     7.08433819E-01   # sin(theta_tau)
  2  1    -7.08433819E-01   # -sin(theta_tau)
  2  2    -7.05777248E-01   # cos(theta_tau)
#
BLOCK ALPHA  # Higgs mixing
          -5.00265925E-02   # Mixing angle in the neutral Higgs boson sector
#
BLOCK HMIX Q=  1.10403221E+03  # DRbar Higgs Parameters
         1    -3.26900000E+02   # mu(Q)MSSM           
         2     2.00000000E+01   # tan                 
         3     2.44044639E+02   # higgs               
         4     1.62063183E+07   # mA^2(Q)MSSM         
#
BLOCK GAUGE Q=  1.10403221E+03  # The gauge couplings
     1     3.61511080E-01   # gprime(Q) DRbar
     2     6.35365558E-01   # g(Q) DRbar
     3     1.03311820E+00   # g3(Q) DRbar
#
BLOCK AU Q=  1.10403221E+03  # The trilinear couplings
  1  1     0.00000000E+00   # A_u(Q) DRbar
  2  2     9.36449087E-07   # A_c(Q) DRbar
  3  3     2.42959179E+03   # A_t(Q) DRbar
#
BLOCK AD Q=  1.10403221E+03  # The trilinear couplings
  1  1     3.44688485E-07   # A_d(Q) DRbar
  2  2     3.44721072E-07   # A_s(Q) DRbar
  3  3     6.16480367E-07   # A_b(Q) DRbar
#
BLOCK AE Q=  1.10403221E+03  # The trilinear couplings
  1  1     0.00000000E+00   # A_e(Q) DRbar
  2  2     7.67030604E-08   # A_mu(Q) DRbar
  3  3     7.74873091E-08   # A_tau(Q) DRbar
#
BLOCK Yu Q=  1.10403221E+03  # The Yukawa couplings
  1  1     0.00000000E+00   # y_u(Q) DRbar
  2  2     0.00000000E+00   # y_c(Q) DRbar
  3  3     8.70918112E-01   # y_t(Q) DRbar
#
BLOCK Yd Q=  1.10403221E+03  # The Yukawa couplings
  1  1     0.00000000E+00   # y_d(Q) DRbar
  2  2     0.00000000E+00   # y_s(Q) DRbar
  3  3     2.86533495E-01   # y_b(Q) DRbar
#
BLOCK Ye Q=  1.10403221E+03  # The Yukawa couplings
  1  1     0.00000000E+00   # y_e(Q) DRbar
  2  2     0.00000000E+00   # y_mu(Q) DRbar
  3  3     2.03298973E-01   # y_tau(Q) DRbar
#
BLOCK MSOFT Q=  1.10403221E+03  # The soft SUSY breaking masses at the scale Q
         1     3.09990000E+02   # M_1(Q)              
         2     2.00000000E+03   # M_2(Q)              
         3     1.80000000E+03   # M_3(Q)              
        21     1.57721120E+07   # M^2_Hd              
        22    -1.08494055E+05   # M^2_Hu              
        31     4.00000000E+03   # M_eL                
        32     4.00000000E+03   # M_muL               
        33     4.00000000E+03   # M_tauL              
        34     4.00000000E+03   # M_eR                
        35     4.00000000E+03   # M_muR               
        36     4.00000000E+03   # M_tauR              
        41     4.00000000E+03   # M_q1L               
        42     4.00000000E+03   # M_q2L               
        43     2.02485961E+03   # M_q3L               
        44     4.00000000E+03   # M_uR                
        45     4.00000000E+03   # M_cR                
        46     6.09989996E+02   # M_tR                
        47     4.00000000E+03   # M_dR                
        48     4.00000000E+03   # M_sR                
        49     4.00000000E+03   # M_bR                
#
#
#
#                             =================
#                             |The decay table|
#                             =================
#
# - The QCD corrections to the decays gluino -> squark  + quark
#                                     squark -> gaugino + quark_prime
#                                     squark -> squark_prime + Higgs
#                                     squark -> gluino  + quark
#   are included.
#
# - The multi-body decays for the inos, stops and sbottoms are included.
#
# - The loop induced decays for the gluino, neutralinos and stops
#   are included.
#
# - The SUSY decays of the top quark are included.
#
#
#         PDG            Width
DECAY         6     1.40037716E+00   # top decays
#          BR         NDA      ID1       ID2
     1.00000000E+00    2           5        24   # BR(t ->  b    W+)
#
#         PDG            Width
DECAY   1000021     3.36757778E+01   # gluino decays
#          BR         NDA      ID1       ID2
     5.00000000E-01    2     1000006        -6   # BR(~g -> ~t_1  tb)
     5.00000000E-01    2    -1000006         6   # BR(~g -> ~t_1* t )
#
#         PDG            Width
DECAY   1000006     9.25690165E+00   # stop1 decays
#          BR         NDA      ID1       ID2
     8.53457400E-02    2     1000022         6   # BR(~t_1 -> ~chi_10 t )
     1.85742603E-01    2     1000023         6   # BR(~t_1 -> ~chi_20 t )
     1.97871729E-01    2     1000025         6   # BR(~t_1 -> ~chi_30 t )
     5.31039929E-01    2     1000024         5   # BR(~t_1 -> ~chi_1+ b )
#
#         PDG            Width
DECAY   2000006     6.24557524E+01   # stop2 decays
#          BR         NDA      ID1       ID2
     8.68489271E-02    2     1000022         6   # BR(~t_2 -> ~chi_10 t )
     2.27413762E-01    2     1000023         6   # BR(~t_2 -> ~chi_20 t )
     1.38438453E-01    2     1000025         6   # BR(~t_2 -> ~chi_30 t )
     5.36611629E-02    2     1000024         5   # BR(~t_2 -> ~chi_1+ b )
     2.99136761E-01    2     1000006        25   # BR(~t_2 -> ~t_1    h )
     1.94500934E-01    2     1000006        23   # BR(~t_2 -> ~t_1    Z )
#
#         PDG            Width
DECAY   1000005     3.45257903E+01   # sbottom1 decays
#          BR         NDA      ID1       ID2
     2.45232085E-02    2     1000022         5   # BR(~b_1 -> ~chi_10 b )
     4.08509034E-02    2     1000023         5   # BR(~b_1 -> ~chi_20 b )
     2.49963526E-02    2     1000025         5   # BR(~b_1 -> ~chi_30 b )
     8.01547366E-01    2    -1000024         6   # BR(~b_1 -> ~chi_1- t )
     2.30660385E-02    2     1000021         5   # BR(~b_1 -> ~g      b )
     8.50161307E-02    2     1000006       -24   # BR(~b_1 -> ~t_1    W-)
#
#         PDG            Width
DECAY   2000005     1.64261648E+02   # sbottom2 decays
#          BR         NDA      ID1       ID2
     1.63809808E-02    2     1000022         5   # BR(~b_2 -> ~chi_10 b )
     1.82228107E-02    2     1000023         5   # BR(~b_2 -> ~chi_20 b )
     1.56671868E-02    2     1000025         5   # BR(~b_2 -> ~chi_30 b )
     8.76790151E-07    2     1000035         5   # BR(~b_2 -> ~chi_40 b )
     3.67015473E-02    2    -1000024         6   # BR(~b_2 -> ~chi_1- t )
     1.73686017E-06    2    -1000037         6   # BR(~b_2 -> ~chi_2- t )
     9.12610585E-01    2     1000021         5   # BR(~b_2 -> ~g      b )
     8.72627551E-05    2     1000005        25   # BR(~b_2 -> ~b_1    h )
     1.17369981E-04    2     1000005        23   # BR(~b_2 -> ~b_1    Z )
     4.64578306E-06    2     1000006       -24   # BR(~b_2 -> ~t_1    W-)
     2.04997367E-04    2     2000006       -24   # BR(~b_2 -> ~t_2    W-)
#
#         PDG            Width
DECAY   1000002     1.75677002E+02   # sup_L decays
#          BR         NDA      ID1       ID2
     1.49868425E-03    2     1000022         2   # BR(~u_L -> ~chi_10 u)
     1.96793515E-05    2     1000023         2   # BR(~u_L -> ~chi_20 u)
     1.79528195E-03    2     1000025         2   # BR(~u_L -> ~chi_30 u)
     4.81048590E-02    2     1000035         2   # BR(~u_L -> ~chi_40 u)
     5.41980547E-04    2     1000024         1   # BR(~u_L -> ~chi_1+ d)
     9.60878038E-02    2     1000037         1   # BR(~u_L -> ~chi_2+ d)
     8.51951711E-01    2     1000021         2   # BR(~u_L -> ~g      u)
#
#         PDG            Width
DECAY   2000002     1.58436070E+02   # sup_R decays
#          BR         NDA      ID1       ID2
     3.41483185E-02    2     1000022         2   # BR(~u_R -> ~chi_10 u)
     1.46169377E-04    2     1000023         2   # BR(~u_R -> ~chi_20 u)
     2.14897397E-02    2     1000025         2   # BR(~u_R -> ~chi_30 u)
     3.19229464E-08    2     1000035         2   # BR(~u_R -> ~chi_40 u)
     9.44215740E-01    2     1000021         2   # BR(~u_R -> ~g      u)
#
#         PDG            Width
DECAY   1000001     1.75695769E+02   # sdown_L decays
#          BR         NDA      ID1       ID2
     2.40525929E-03    2     1000022         1   # BR(~d_L -> ~chi_10 d)
     1.03587958E-04    2     1000023         1   # BR(~d_L -> ~chi_20 d)
     7.42289055E-04    2     1000025         1   # BR(~d_L -> ~chi_30 d)
     4.81558948E-02    2     1000035         1   # BR(~d_L -> ~chi_40 d)
     7.06993147E-06    2    -1000024         2   # BR(~d_L -> ~chi_1- u)
     9.64106590E-02    2    -1000037         2   # BR(~d_L -> ~chi_2- u)
     8.52175240E-01    2     1000021         1   # BR(~d_L -> ~g      d)
#
#         PDG            Width
DECAY   2000001     1.51757224E+02   # sdown_R decays
#          BR         NDA      ID1       ID2
     8.91144598E-03    2     1000022         1   # BR(~d_R -> ~chi_10 d)
     3.81447546E-05    2     1000023         1   # BR(~d_R -> ~chi_20 d)
     5.60801777E-03    2     1000025         1   # BR(~d_R -> ~chi_30 d)
     8.32901076E-09    2     1000035         1   # BR(~d_R -> ~chi_40 d)
     9.85442383E-01    2     1000021         1   # BR(~d_R -> ~g      d)
#
#         PDG            Width
DECAY   1000004     1.75677002E+02   # scharm_L decays
#          BR         NDA      ID1       ID2
     1.49868425E-03    2     1000022         4   # BR(~c_L -> ~chi_10 c)
     1.96793515E-05    2     1000023         4   # BR(~c_L -> ~chi_20 c)
     1.79528195E-03    2     1000025         4   # BR(~c_L -> ~chi_30 c)
     4.81048590E-02    2     1000035         4   # BR(~c_L -> ~chi_40 c)
     5.41980547E-04    2     1000024         3   # BR(~c_L -> ~chi_1+ s)
     9.60878038E-02    2     1000037         3   # BR(~c_L -> ~chi_2+ s)
     8.51951711E-01    2     1000021         4   # BR(~c_L -> ~g      c)
#
#         PDG            Width
DECAY   2000004     1.58436070E+02   # scharm_R decays
#          BR         NDA      ID1       ID2
     3.41483185E-02    2     1000022         4   # BR(~c_R -> ~chi_10 c)
     1.46169377E-04    2     1000023         4   # BR(~c_R -> ~chi_20 c)
     2.14897397E-02    2     1000025         4   # BR(~c_R -> ~chi_30 c)
     3.19229464E-08    2     1000035         4   # BR(~c_R -> ~chi_40 c)
     9.44215740E-01    2     1000021         4   # BR(~c_R -> ~g      c)
#
#         PDG            Width
DECAY   1000003     1.75695769E+02   # sstrange_L decays
#          BR         NDA      ID1       ID2
     2.40525929E-03    2     1000022         3   # BR(~s_L -> ~chi_10 s)
     1.03587958E-04    2     1000023         3   # BR(~s_L -> ~chi_20 s)
     7.42289055E-04    2     1000025         3   # BR(~s_L -> ~chi_30 s)
     4.81558948E-02    2     1000035         3   # BR(~s_L -> ~chi_40 s)
     7.06993147E-06    2    -1000024         4   # BR(~s_L -> ~chi_1- c)
     9.64106590E-02    2    -1000037         4   # BR(~s_L -> ~chi_2- c)
     8.52175240E-01    2     1000021         3   # BR(~s_L -> ~g      s)
#
#         PDG            Width
DECAY   2000003     1.51757224E+02   # sstrange_R decays
#          BR         NDA      ID1       ID2
     8.91144598E-03    2     1000022         3   # BR(~s_R -> ~chi_10 s)
     3.81447546E-05    2     1000023         3   # BR(~s_R -> ~chi_20 s)
     5.60801777E-03    2     1000025         3   # BR(~s_R -> ~chi_30 s)
     8.32901076E-09    2     1000035         3   # BR(~s_R -> ~chi_40 s)
     9.85442383E-01    2     1000021         3   # BR(~s_R -> ~g      s)
#
#         PDG            Width
DECAY   1000011     3.11168649E+01   # selectron_L decays
#          BR         NDA      ID1       ID2
     9.33160047E-02    2     1000022        11   # BR(~e_L -> ~chi_10 e-)
     9.93756159E-06    2     1000023        11   # BR(~e_L -> ~chi_20 e-)
     7.31483184E-02    2     1000025        11   # BR(~e_L -> ~chi_30 e-)
     2.77352105E-01    2     1000035        11   # BR(~e_L -> ~chi_40 e-)
     4.12389446E-05    2    -1000024        12   # BR(~e_L -> ~chi_1- nu_e)
     5.56132395E-01    2    -1000037        12   # BR(~e_L -> ~chi_2- nu_e)
#
#         PDG            Width
DECAY   2000011     2.05550223E+01   # selectron_R decays
#          BR         NDA      ID1       ID2
     6.12213302E-01    2     1000022        11   # BR(~e_R -> ~chi_10 e-)
     2.62004024E-03    2     1000023        11   # BR(~e_R -> ~chi_20 e-)
     3.85166092E-01    2     1000025        11   # BR(~e_R -> ~chi_30 e-)
     5.66243663E-07    2     1000035        11   # BR(~e_R -> ~chi_40 e-)
#
#         PDG            Width
DECAY   1000013     3.11168649E+01   # smuon_L decays
#          BR         NDA      ID1       ID2
     9.33160047E-02    2     1000022        13   # BR(~mu_L -> ~chi_10 mu-)
     9.93756159E-06    2     1000023        13   # BR(~mu_L -> ~chi_20 mu-)
     7.31483184E-02    2     1000025        13   # BR(~mu_L -> ~chi_30 mu-)
     2.77352105E-01    2     1000035        13   # BR(~mu_L -> ~chi_40 mu-)
     4.12389446E-05    2    -1000024        14   # BR(~mu_L -> ~chi_1- nu_mu)
     5.56132395E-01    2    -1000037        14   # BR(~mu_L -> ~chi_2- nu_mu)
#
#         PDG            Width
DECAY   2000013     2.05550223E+01   # smuon_R decays
#          BR         NDA      ID1       ID2
     6.12213302E-01    2     1000022        13   # BR(~mu_R -> ~chi_10 mu-)
     2.62004024E-03    2     1000023        13   # BR(~mu_R -> ~chi_20 mu-)
     3.85166092E-01    2     1000025        13   # BR(~mu_R -> ~chi_30 mu-)
     5.66243663E-07    2     1000035        13   # BR(~mu_R -> ~chi_40 mu-)
#
#         PDG            Width
DECAY   1000015     3.07563355E+01   # stau_1 decays
#          BR         NDA      ID1       ID2
     3.26738817E-01    2     1000022        15   # BR(~tau_1 -> ~chi_10  tau-)
     4.41972292E-02    2     1000023        15   # BR(~tau_1 -> ~chi_20  tau-)
     1.55318839E-01    2     1000025        15   # BR(~tau_1 -> ~chi_30  tau-)
     1.39310017E-01    2     1000035        15   # BR(~tau_1 -> ~chi_40  tau-)
     5.50968279E-02    2    -1000024        16   # BR(~tau_1 -> ~chi_1-  nu_tau)
     2.79338270E-01    2    -1000037        16   # BR(~tau_1 -> ~chi_2-  nu_tau)
#
#         PDG            Width
DECAY   2000015     3.07289768E+01   # stau_2 decays
#          BR         NDA      ID1       ID2
     2.24226197E-01    2     1000022        15   # BR(~tau_2 -> ~chi_10  tau-)
     6.19783105E-02    2     1000023        15   # BR(~tau_2 -> ~chi_20  tau-)
     2.36590773E-01    2     1000025        15   # BR(~tau_2 -> ~chi_30  tau-)
     1.41959885E-01    2     1000035        15   # BR(~tau_2 -> ~chi_40  tau-)
     5.05960576E-02    2    -1000024        16   # BR(~tau_2 -> ~chi_1-  nu_tau)
     2.84648776E-01    2    -1000037        16   # BR(~tau_2 -> ~chi_2-  nu_tau)
#
#         PDG            Width
DECAY   1000012     3.11279025E+01   # snu_eL decays
#          BR         NDA      ID1       ID2
     1.09111808E-01    2     1000022        12   # BR(~nu_eL -> ~chi_10 nu_e)
     1.47727217E-03    2     1000023        12   # BR(~nu_eL -> ~chi_20 nu_e)
     5.46866519E-02    2     1000025        12   # BR(~nu_eL -> ~chi_30 nu_e)
     2.77709103E-01    2     1000035        12   # BR(~nu_eL -> ~chi_40 nu_e)
     3.15954999E-03    2     1000024        11   # BR(~nu_eL -> ~chi_1+ e-)
     5.53855615E-01    2     1000037        11   # BR(~nu_eL -> ~chi_2+ e-)
#
#         PDG            Width
DECAY   1000014     3.11279025E+01   # snu_muL decays
#          BR         NDA      ID1       ID2
     1.09111808E-01    2     1000022        14   # BR(~nu_muL -> ~chi_10 nu_mu)
     1.47727217E-03    2     1000023        14   # BR(~nu_muL -> ~chi_20 nu_mu)
     5.46866519E-02    2     1000025        14   # BR(~nu_muL -> ~chi_30 nu_mu)
     2.77709103E-01    2     1000035        14   # BR(~nu_muL -> ~chi_40 nu_mu)
     3.15954999E-03    2     1000024        13   # BR(~nu_muL -> ~chi_1+ mu-)
     5.53855615E-01    2     1000037        13   # BR(~nu_muL -> ~chi_2+ mu-)
#
#         PDG            Width
DECAY   1000016     3.44078733E+01   # snu_tauL decays
#          BR         NDA      ID1       ID2
     9.87598558E-02    2     1000022        16   # BR(~nu_tauL -> ~chi_10 nu_tau)
     1.33712107E-03    2     1000023        16   # BR(~nu_tauL -> ~chi_20 nu_tau)
     4.94985260E-02    2     1000025        16   # BR(~nu_tauL -> ~chi_30 nu_tau)
     2.51537184E-01    2     1000035        16   # BR(~nu_tauL -> ~chi_40 nu_tau)
     9.72077514E-02    2     1000024        15   # BR(~nu_tauL -> ~chi_1+ tau-)
     5.01659562E-01    2     1000037        15   # BR(~nu_tauL -> ~chi_2+ tau-)
#
#         PDG            Width
DECAY   1000024     6.23478376E-05   # chargino1+ decays
#           BR         NDA      ID1       ID2       ID3
     3.33651319E-01    3     1000022         2        -1   # BR(~chi_1+ -> ~chi_10 u    db)
     3.33651319E-01    3     1000022         4        -3   # BR(~chi_1+ -> ~chi_10 c    sb)
     1.11218488E-01    3     1000022       -11        12   # BR(~chi_1+ -> ~chi_10 e+   nu_e)
     1.11218488E-01    3     1000022       -13        14   # BR(~chi_1+ -> ~chi_10 mu+  nu_mu)
     1.10260385E-01    3     1000022       -15        16   # BR(~chi_1+ -> ~chi_10 tau+ nu_tau)
#
#         PDG            Width
DECAY   1000037     1.66627505E+01   # chargino2+ decays
#          BR         NDA      ID1       ID2
     4.08818043E-02    2     1000006        -5   # BR(~chi_2+ -> ~t_1     bb)
     2.44572782E-01    2     1000024        23   # BR(~chi_2+ -> ~chi_1+  Z )
     7.31915037E-02    2     1000022        24   # BR(~chi_2+ -> ~chi_10  W+)
     2.38729577E-01    2     1000023        24   # BR(~chi_2+ -> ~chi_20  W+)
     1.64358593E-01    2     1000025        24   # BR(~chi_2+ -> ~chi_30  W+)
     2.38265740E-01    2     1000024        25   # BR(~chi_2+ -> ~chi_1+  h )
#
#         PDG            Width
DECAY   1000022     0.00000000E+00   # neutralino1 decays
#
#         PDG            Width
DECAY   1000023     6.63958964E-05   # neutralino2 decays
#          BR         NDA      ID1       ID2
     2.66652754E-04    2     1000022        22   # BR(~chi_20 -> ~chi_10 gam)
#           BR         NDA      ID1       ID2       ID3
     1.18478863E-01    3     1000022        -2         2   # BR(~chi_20 -> ~chi_10 ub      u)
     1.53689423E-01    3     1000022        -1         1   # BR(~chi_20 -> ~chi_10 db      d)
     1.18478863E-01    3     1000022        -4         4   # BR(~chi_20 -> ~chi_10 cb      c)
     1.53689423E-01    3     1000022        -3         3   # BR(~chi_20 -> ~chi_10 sb      s)
     1.38658165E-01    3     1000022        -5         5   # BR(~chi_20 -> ~chi_10 bb      b)
     3.52446228E-02    3     1000022       -11        11   # BR(~chi_20 -> ~chi_10 e+      e-)
     3.52446228E-02    3     1000022       -13        13   # BR(~chi_20 -> ~chi_10 mu+     mu-)
     3.48585407E-02    3     1000022       -15        15   # BR(~chi_20 -> ~chi_10 tau+    tau-)
     7.04623552E-02    3     1000022       -12        12   # BR(~chi_20 -> ~chi_10 nu_eb   nu_e)
     7.04623552E-02    3     1000022       -14        14   # BR(~chi_20 -> ~chi_10 nu_mub  nu_mu)
     7.04623531E-02    3     1000022       -16        16   # BR(~chi_20 -> ~chi_10 nu_taub nu_tau)
     6.98406996E-07    3     1000024        -2         1   # BR(~chi_20 -> ~chi_1+ ub      d)
     6.98406996E-07    3    -1000024        -1         2   # BR(~chi_20 -> ~chi_1- db      u)
     6.98406996E-07    3     1000024        -4         3   # BR(~chi_20 -> ~chi_1+ cb      s)
     6.98406996E-07    3    -1000024        -3         4   # BR(~chi_20 -> ~chi_1- sb      c)
     2.32802564E-07    3     1000024       -12        11   # BR(~chi_20 -> ~chi_1+ nu_eb   e-)
     2.32802564E-07    3    -1000024        12       -11   # BR(~chi_20 -> ~chi_1- nu_e    e+)
     2.32802564E-07    3     1000024       -14        13   # BR(~chi_20 -> ~chi_1+ nu_mub  mu-)
     2.32802564E-07    3    -1000024        14       -13   # BR(~chi_20 -> ~chi_1- nu_mu   mu+)
     1.83853559E-08    3     1000024       -16        15   # BR(~chi_20 -> ~chi_1+ nu_taub tau-)
     1.83853559E-08    3    -1000024        16       -15   # BR(~chi_20 -> ~chi_1- nu_tau  tau+)
#
#         PDG            Width
DECAY   1000025     1.01627341E-05   # neutralino3 decays
#          BR         NDA      ID1       ID2
     4.59445204E-02    2     1000022        22   # BR(~chi_30 -> ~chi_10 gam)
     3.05062724E-02    2     1000023        22   # BR(~chi_30 -> ~chi_20 gam)
#           BR         NDA      ID1       ID2       ID3
     1.42918871E-02    3     1000022        -2         2   # BR(~chi_30 -> ~chi_10 ub      u)
     1.84010903E-02    3     1000022        -1         1   # BR(~chi_30 -> ~chi_10 db      d)
     1.42918871E-02    3     1000022        -4         4   # BR(~chi_30 -> ~chi_10 cb      c)
     1.84010903E-02    3     1000022        -3         3   # BR(~chi_30 -> ~chi_10 sb      s)
     1.75890138E-02    3     1000022        -5         5   # BR(~chi_30 -> ~chi_10 bb      b)
     4.11211895E-03    3     1000022       -11        11   # BR(~chi_30 -> ~chi_10 e+      e-)
     4.11211895E-03    3     1000022       -13        13   # BR(~chi_30 -> ~chi_10 mu+     mu-)
     4.10568979E-03    3     1000022       -15        15   # BR(~chi_30 -> ~chi_10 tau+    tau-)
     8.48994744E-03    3     1000022       -12        12   # BR(~chi_30 -> ~chi_10 nu_eb   nu_e)
     8.48994744E-03    3     1000022       -14        14   # BR(~chi_30 -> ~chi_10 nu_mub  nu_mu)
     8.48990387E-03    3     1000022       -16        16   # BR(~chi_30 -> ~chi_10 nu_taub nu_tau)
     1.72252163E-02    3     1000023        -2         2   # BR(~chi_30 -> ~chi_20 ub      u)
     2.23451277E-02    3     1000023        -1         1   # BR(~chi_30 -> ~chi_20 db      d)
     1.72252163E-02    3     1000023        -4         4   # BR(~chi_30 -> ~chi_20 cb      c)
     2.23451277E-02    3     1000023        -3         3   # BR(~chi_30 -> ~chi_20 sb      s)
     1.24056742E-02    3     1000023        -5         5   # BR(~chi_30 -> ~chi_20 bb      b)
     5.12472765E-03    3     1000023       -11        11   # BR(~chi_30 -> ~chi_20 e+      e-)
     5.12472765E-03    3     1000023       -13        13   # BR(~chi_30 -> ~chi_20 mu+     mu-)
     4.88056036E-03    3     1000023       -15        15   # BR(~chi_30 -> ~chi_20 tau+    tau-)
     1.02440019E-02    3     1000023       -12        12   # BR(~chi_30 -> ~chi_20 nu_eb   nu_e)
     1.02440019E-02    3     1000023       -14        14   # BR(~chi_30 -> ~chi_20 nu_mub  nu_mu)
     1.02440021E-02    3     1000023       -16        16   # BR(~chi_30 -> ~chi_20 nu_taub nu_tau)
     1.11294090E-01    3     1000024        -2         1   # BR(~chi_30 -> ~chi_1+ ub      d)
     1.11294090E-01    3    -1000024        -1         2   # BR(~chi_30 -> ~chi_1- db      u)
     1.11294090E-01    3     1000024        -4         3   # BR(~chi_30 -> ~chi_1+ cb      s)
     1.11294090E-01    3    -1000024        -3         4   # BR(~chi_30 -> ~chi_1- sb      c)
     3.70975337E-02    3     1000024       -12        11   # BR(~chi_30 -> ~chi_1+ nu_eb   e-)
     3.70975337E-02    3    -1000024        12       -11   # BR(~chi_30 -> ~chi_1- nu_e    e+)
     3.70975337E-02    3     1000024       -14        13   # BR(~chi_30 -> ~chi_1+ nu_mub  mu-)
     3.70975337E-02    3    -1000024        14       -13   # BR(~chi_30 -> ~chi_1- nu_mu   mu+)
     3.58998159E-02    3     1000024       -16        15   # BR(~chi_30 -> ~chi_1+ nu_taub tau-)
     3.58998159E-02    3    -1000024        16       -15   # BR(~chi_30 -> ~chi_1- nu_tau  tau+)
#
#         PDG            Width
DECAY   1000035     1.66536167E+01   # neutralino4 decays
#          BR         NDA      ID1       ID2
     3.12744510E-02    2     1000022        23   # BR(~chi_40 -> ~chi_10   Z )
     1.50386471E-01    2     1000023        23   # BR(~chi_40 -> ~chi_20   Z )
     6.29726481E-02    2     1000025        23   # BR(~chi_40 -> ~chi_30   Z )
     2.38441048E-01    2     1000024       -24   # BR(~chi_40 -> ~chi_1+   W-)
     2.38441048E-01    2    -1000024        24   # BR(~chi_40 -> ~chi_1-   W+)
     4.25725730E-02    2     1000022        25   # BR(~chi_40 -> ~chi_10   h )
     9.22755483E-02    2     1000023        25   # BR(~chi_40 -> ~chi_20   h )
     1.02884340E-01    2     1000025        25   # BR(~chi_40 -> ~chi_30   h )
     2.01992674E-02    2     1000006        -6   # BR(~chi_40 -> ~t_1      tb)
     2.01992674E-02    2    -1000006         6   # BR(~chi_40 -> ~t_1*     t )
     1.76669014E-04    2     1000005        -5   # BR(~chi_40 -> ~b_1      bb)
     1.76669014E-04    2    -1000005         5   # BR(~chi_40 -> ~b_1*     b )
#
#         PDG            Width
DECAY        25     4.03616482E-03   # h decays
#          BR         NDA      ID1       ID2
     5.94991039E-01    2           5        -5   # BR(h -> b       bb     )
     6.45409346E-02    2         -15        15   # BR(h -> tau+    tau-   )
     2.28474556E-04    2         -13        13   # BR(h -> mu+     mu-    )
     4.84548389E-04    2           3        -3   # BR(h -> s       sb     )
     2.10446959E-02    2           4        -4   # BR(h -> c       cb     )
     6.83930602E-02    2          21        21   # BR(h -> g       g      )
     2.37639913E-03    2          22        22   # BR(h -> gam     gam    )
     1.62200414E-03    2          22        23   # BR(h -> Z       gam    )
     2.18669061E-01    2          24       -24   # BR(h -> W+      W-     )
     2.76497839E-02    2          23        23   # BR(h -> Z       Z      )
#
#         PDG            Width
DECAY        35     5.47405804E+01   # H decays
#          BR         NDA      ID1       ID2
     3.55262904E-01    2           5        -5   # BR(H -> b       bb     )
     6.05693414E-02    2         -15        15   # BR(H -> tau+    tau-   )
     2.14158521E-04    2         -13        13   # BR(H -> mu+     mu-    )
     2.53312599E-04    2           3        -3   # BR(H -> s       sb     )
     7.10488197E-08    2           4        -4   # BR(H -> c       cb     )
     7.12057100E-03    2           6        -6   # BR(H -> t       tb     )
     7.21016885E-07    2          21        21   # BR(H -> g       g      )
     8.63866910E-10    2          22        22   # BR(H -> gam     gam    )
     1.83256173E-09    2          23        22   # BR(H -> Z       gam    )
     1.78006745E-06    2          24       -24   # BR(H -> W+      W-     )
     8.89417291E-07    2          23        23   # BR(H -> Z       Z      )
     6.79410373E-06    2          25        25   # BR(H -> h       h      )
    -6.23867224E-24    2          36        36   # BR(H -> A       A      )
    -3.12775827E-21    2          23        36   # BR(H -> Z       A      )
     1.86103794E-03    2     1000024  -1000024   # BR(H -> ~chi_1+ ~chi_1-)
     1.59991450E-01    2     1000024  -1000037   # BR(H -> ~chi_1+ ~chi_2-)
     1.59991450E-01    2     1000037  -1000024   # BR(H -> ~chi_2+ ~chi_1-)
     2.73373841E-02    2     1000022   1000022   # BR(H -> ~chi_10 ~chi_10)
     7.16723214E-04    2     1000023   1000023   # BR(H -> ~chi_20 ~chi_20)
     1.75169570E-02    2     1000025   1000025   # BR(H -> ~chi_30 ~chi_30)
     2.14375935E-02    2     1000022   1000023   # BR(H -> ~chi_10 ~chi_20)
     2.63608434E-03    2     1000022   1000025   # BR(H -> ~chi_10 ~chi_30)
     3.47883504E-02    2     1000022   1000035   # BR(H -> ~chi_10 ~chi_40)
     1.66761680E-02    2     1000023   1000025   # BR(H -> ~chi_20 ~chi_30)
     8.08610294E-02    2     1000023   1000035   # BR(H -> ~chi_20 ~chi_40)
     4.48426158E-02    2     1000025   1000035   # BR(H -> ~chi_30 ~chi_40)
     3.92975932E-04    2     1000006  -1000006   # BR(H -> ~t_1    ~t_1*  )
     3.75981686E-03    2     1000006  -2000006   # BR(H -> ~t_1    ~t_2*  )
     3.75981686E-03    2     2000006  -1000006   # BR(H -> ~t_2    ~t_1*  )
#
#         PDG            Width
DECAY        36     5.47360287E+01   # A decays
#          BR         NDA      ID1       ID2
     3.55318215E-01    2           5        -5   # BR(A -> b       bb     )
     6.05746678E-02    2         -15        15   # BR(A -> tau+    tau-   )
     2.14177185E-04    2         -13        13   # BR(A -> mu+     mu-    )
     2.53376006E-04    2           3        -3   # BR(A -> s       sb     )
     7.15143660E-08    2           4        -4   # BR(A -> c       cb     )
     7.13484134E-03    2           6        -6   # BR(A -> t       tb     )
     1.46602953E-05    2          21        21   # BR(A -> g       g      )
     5.83673892E-08    2          22        22   # BR(A -> gam     gam    )
     1.61256198E-08    2          23        22   # BR(A -> Z       gam    )
     1.77647620E-06    2          23        25   # BR(A -> Z       h      )
     1.87172518E-03    2     1000024  -1000024   # BR(A -> ~chi_1+ ~chi_1-)
     1.60001762E-01    2     1000024  -1000037   # BR(A -> ~chi_1+ ~chi_2-)
     1.60001762E-01    2     1000037  -1000024   # BR(A -> ~chi_2+ ~chi_1-)
     2.34703483E-02    2     1000022   1000022   # BR(A -> ~chi_10 ~chi_10)
     9.02999661E-04    2     1000023   1000023   # BR(A -> ~chi_20 ~chi_20)
     1.45917570E-02    2     1000025   1000025   # BR(A -> ~chi_30 ~chi_30)
     2.64457585E-02    2     1000022   1000023   # BR(A -> ~chi_10 ~chi_20)
     2.04122428E-03    2     1000022   1000025   # BR(A -> ~chi_10 ~chi_30)
     3.62376979E-02    2     1000022   1000035   # BR(A -> ~chi_10 ~chi_40)
     1.88743484E-02    2     1000023   1000025   # BR(A -> ~chi_20 ~chi_30)
     7.77047018E-02    2     1000023   1000035   # BR(A -> ~chi_20 ~chi_40)
     4.65044790E-02    2     1000025   1000035   # BR(A -> ~chi_30 ~chi_40)
     3.91978796E-03    2     1000006  -2000006   # BR(A -> ~t_1    ~t_2*  )
     3.91978796E-03    2    -1000006   2000006   # BR(A -> ~t_1*   ~t_2   )
#
#         PDG            Width
DECAY        37     5.47104015E+01   # H+ decays
#          BR         NDA      ID1       ID2
     5.67985662E-04    2           4        -5   # BR(H+ -> c       bb     )
     6.06183145E-02    2         -15        16   # BR(H+ -> tau+    nu_tau )
     2.14331509E-04    2         -13        14   # BR(H+ -> mu+     nu_mu  )
     3.63510513E-06    2           2        -5   # BR(H+ -> u       bb     )
     1.21422898E-05    2           2        -3   # BR(H+ -> u       sb     )
     2.49805949E-04    2           4        -3   # BR(H+ -> c       sb     )
     3.61757147E-01    2           6        -5   # BR(H+ -> t       bb     )
     1.77927449E-06    2          24        25   # BR(H+ -> W+      h      )
     2.50356791E-14    2          24        36   # BR(H+ -> W+      A      )
     4.95038541E-02    2     1000024   1000022   # BR(H+ -> ~chi_1+ ~chi_10)
     6.54560818E-06    2     1000024   1000023   # BR(H+ -> ~chi_1+ ~chi_20)
     3.74682106E-02    2     1000024   1000025   # BR(H+ -> ~chi_1+ ~chi_30)
     1.60285924E-01    2     1000024   1000035   # BR(H+ -> ~chi_1+ ~chi_40)
     7.11732412E-02    2     1000037   1000022   # BR(H+ -> ~chi_2+ ~chi_10)
     1.58709659E-01    2     1000037   1000023   # BR(H+ -> ~chi_2+ ~chi_20)
     9.15538660E-02    2     1000037   1000025   # BR(H+ -> ~chi_2+ ~chi_30)
     7.87355725E-03    2     1000006  -1000005   # BR(H+ -> ~t_1    ~b_1*  )
