#
#                              ======================
#                              | THE SUSYHIT OUTPUT |
#                              ======================
#
#
#              ------------------------------------------------------
#              |     This is the output of the SUSY-HIT package     |
#              |  created by A.Djouadi, M.Muehlleitner and M.Spira. |
#              |  In case of problems with SUSY-HIT email to        |
#              |           margarete.muehlleitner@kit.edu           |
#              |           michael.spira@psi.ch                     |
#              |           abdelhak.djouadi@cern.ch                 |
#              ------------------------------------------------------
#
#              ------------------------------------------------------
#              |  SUSY Les Houches Accord - MSSM Spectrum + Decays  |
#              |              based on the decay programs           |
#              |                                                    |
#              |                     SDECAY 1.5                     |
#              |                                                    |
#              |  Authors: M.Muhlleitner, A.Djouadi and Y.Mambrini  |
#              |  Ref.:    Comput.Phys.Commun.168(2005)46           |
#              |           [hep-ph/0311167]                         |
#              |                                                    |
#              |                     HDECAY 3.4                     |
#              |                                                    |
#              |  By: A.Djouadi,J.Kalinowski,M.Muhlleitner,M.Spira  |
#              |  Ref.:    Comput.Phys.Commun.108(1998)56           |
#              |           [hep-ph/9704448]                         |
#              |                                                    |
#              |                                                    |
#              |  If not stated otherwise all DRbar couplings and   |
#              |  soft SUSY breaking masses are given at the scale  |
#              |  Q=  0.12256210E+04
#              |                                                    |
#              ------------------------------------------------------
#
#
BLOCK DCINFO  # Decay Program information
     1   SDECAY/HDECAY # decay calculator
     2   1.5  /3.4    # version number
#
BLOCK SPINFO  # Spectrum calculator information
     1    SOFTSUSY    # spectrum calculator                
     2    3.7.3       # version number                     
#
BLOCK MODSEL  # Model selection
     1     0   #  nonUniversal                                     
#
BLOCK SMINPUTS  # Standard Model inputs
         1     1.27934000E+02   # alpha_em^-1(M_Z)^MSbar
         2     1.16639000E-05   # G_F [GeV^-2]
         3     1.17200000E-01   # alpha_S(M_Z)^MSbar
         4     9.11870000E+01   # M_Z pole mass
         5     4.19000000E+00   # mb(mb)^MSbar
         6     1.72500000E+02   # mt pole mass
         7     1.77690000E+00   # mtau pole mass
#
BLOCK MINPAR  # Input parameters - minimal models
         3     2.00000000E+01   # tanb                
#
BLOCK EXTPAR  # Input parameters - non-minimal models
         0    -1.00000000E+00   # Set                 
         1     1.49900000E+02   # M_1(MX)             
         2     2.99900000E+02   # M_2(MX)             
         3     2.20000000E+03   # M_3(MX)             
        11     2.94338000E+03   # At(MX)              
        12     0.00000000E+00   # Ab(MX)              
        13     0.00000000E+00   # Atau(MX)            
        23     3.00000000E+03   # mu(MX)              
        25     2.00000000E+01   # tan                 
        26     3.00000000E+03   # mA(pole)            
        31     3.00000000E+03   # meL(MX)             
        32     3.00000000E+03   # mmuL(MX)            
        33     3.00000000E+03   # mtauL(MX)           
        34     3.00000000E+03   # meR(MX)             
        35     3.00000000E+03   # mmuR(MX)            
        36     3.00000000E+03   # mtauR(MX)           
        41     3.00000000E+03   # mqL1(MX)            
        42     3.00000000E+03   # mqL2(MX)            
        43     4.99900000E+02   # mqL3(MX)            
        44     3.00000000E+03   # muR(MX)             
        45     3.00000000E+03   # mcR(MX)             
        46     3.00000000E+03   # mtR(MX)             
        47     3.00000000E+03   # mdR(MX)             
        48     3.00000000E+03   # msR(MX)             
        49     3.00000000E+03   # mbR(MX)             
#
BLOCK MASS  # Mass Spectrum
# PDG code           mass       particle
        24     8.03992277E+01   # W+
        25     1.24784277E+02   # h
        35     3.00020966E+03   # H
        36     2.99999958E+03   # A
        37     3.00096318E+03   # H+
         5     4.81337004E+00   # b-quark pole mass calculated from mb(mb)_Msbar
   1000001     3.02395625E+03   # ~d_L
   2000001     3.01870101E+03   # ~d_R
   1000002     3.02303567E+03   # ~u_L
   2000002     3.02069360E+03   # ~u_R
   1000003     3.02395625E+03   # ~s_L
   2000003     3.01870101E+03   # ~s_R
   1000004     3.02303567E+03   # ~c_L
   2000004     3.02069360E+03   # ~c_R
   1000005     5.66766917E+02   # ~b_1
   2000005     3.01820628E+03   # ~b_2
   1000006     5.63837734E+02   # ~t_1
   2000006     3.00262337E+03   # ~t_2
   1000011     3.00671267E+03   # ~e_L
   2000011     3.00114374E+03   # ~e_R
   1000012     3.00531593E+03   # ~nu_eL
   1000013     3.00671267E+03   # ~mu_L
   2000013     3.00114374E+03   # ~mu_R
   1000014     3.00531593E+03   # ~nu_muL
   1000015     2.98592597E+03   # ~tau_1
   2000015     3.02218755E+03   # ~tau_2
   1000016     3.00542625E+03   # ~nu_tauL
   1000021     2.32930077E+03   # ~g
   1000022     1.51209416E+02   # ~chi_10
   1000023     3.19796405E+02   # ~chi_20
   1000025    -3.00211430E+03   # ~chi_30
   1000035     3.00266409E+03   # ~chi_40
   1000024     3.19957772E+02   # ~chi_1+
   1000037     3.00331746E+03   # ~chi_2+
#
BLOCK NMIX  # Neutralino Mixing Matrix
  1  1     9.99888324E-01   # N_11
  1  2    -1.15388884E-03   # N_12
  1  3     1.48264193E-02   # N_13
  1  4    -1.47797311E-03   # N_14
  2  1     1.55049618E-03   # N_21
  2  2     9.99643206E-01   # N_22
  2  3    -2.63741678E-02   # N_23
  2  4     3.93201561E-03   # N_24
  3  1    -9.41753160E-03   # N_31
  3  2     1.58821717E-02   # N_32
  3  3     7.06841392E-01   # N_33
  3  4     7.07131044E-01   # N_34
  4  1    -1.14997666E-02   # N_41
  4  2     2.14449685E-02   # N_42
  4  3     7.06724718E-01   # N_43
  4  4    -7.07070040E-01   # N_44
#
BLOCK UMIX  # Chargino Mixing Matrix U
  1  1     9.99303407E-01   # U_11
  1  2    -3.73189156E-02   # U_12
  2  1     3.73189156E-02   # U_21
  2  2     9.99303407E-01   # U_22
#
BLOCK VMIX  # Chargino Mixing Matrix V
  1  1     9.99984515E-01   # V_11
  1  2    -5.56496588E-03   # V_12
  2  1     5.56496588E-03   # V_21
  2  2     9.99984515E-01   # V_22
#
BLOCK STOPMIX  # Stop Mixing Matrix
  1  1     9.98891011E-01   # cos(theta_t)
  1  2    -4.70823549E-02   # sin(theta_t)
  2  1     4.70823549E-02   # -sin(theta_t)
  2  2     9.98891011E-01   # cos(theta_t)
#
BLOCK SBOTMIX  # Sbottom Mixing Matrix
  1  1     9.99921106E-01   # cos(theta_b)
  1  2     1.25611216E-02   # sin(theta_b)
  2  1    -1.25611216E-02   # -sin(theta_b)
  2  2     9.99921106E-01   # cos(theta_b)
#
BLOCK STAUMIX  # Stau Mixing Matrix
  1  1     7.06910867E-01   # cos(theta_tau)
  1  2     7.07302641E-01   # sin(theta_tau)
  2  1    -7.07302641E-01   # -sin(theta_tau)
  2  2     7.06910867E-01   # cos(theta_tau)
#
BLOCK ALPHA  # Higgs mixing
          -5.01923774E-02   # Mixing angle in the neutral Higgs boson sector
#
BLOCK HMIX Q=  1.22562105E+03  # DRbar Higgs Parameters
         1     3.00000000E+03   # mu(Q)MSSM           
         2     2.00000000E+01   # tan                 
         3     2.44692552E+02   # higgs               
         4     6.66425023E+06   # mA^2(Q)MSSM         
#
BLOCK GAUGE Q=  1.22562105E+03  # The gauge couplings
     1     3.61497870E-01   # gprime(Q) DRbar
     2     6.38668633E-01   # g(Q) DRbar
     3     1.03087231E+00   # g3(Q) DRbar
#
BLOCK AU Q=  1.22562105E+03  # The trilinear couplings
  1  1     0.00000000E+00   # A_u(Q) DRbar
  2  2     1.38066251E-06   # A_c(Q) DRbar
  3  3     2.94338000E+03   # A_t(Q) DRbar
#
BLOCK AD Q=  1.22562105E+03  # The trilinear couplings
  1  1     3.47196186E-07   # A_d(Q) DRbar
  2  2     3.47265035E-07   # A_s(Q) DRbar
  3  3     7.98504338E-07   # A_b(Q) DRbar
#
BLOCK AE Q=  1.22562105E+03  # The trilinear couplings
  1  1     0.00000000E+00   # A_e(Q) DRbar
  2  2     7.52348296E-08   # A_mu(Q) DRbar
  3  3     7.61285381E-08   # A_tau(Q) DRbar
#
BLOCK Yu Q=  1.22562105E+03  # The Yukawa couplings
  1  1     0.00000000E+00   # y_u(Q) DRbar
  2  2     0.00000000E+00   # y_c(Q) DRbar
  3  3     8.56437476E-01   # y_t(Q) DRbar
#
BLOCK Yd Q=  1.22562105E+03  # The Yukawa couplings
  1  1     0.00000000E+00   # y_d(Q) DRbar
  2  2     0.00000000E+00   # y_s(Q) DRbar
  3  3     2.11994297E-01   # y_b(Q) DRbar
#
BLOCK Ye Q=  1.22562105E+03  # The Yukawa couplings
  1  1     0.00000000E+00   # y_e(Q) DRbar
  2  2     0.00000000E+00   # y_mu(Q) DRbar
  3  3     2.05538294E-01   # y_tau(Q) DRbar
#
BLOCK MSOFT Q=  1.22562105E+03  # The soft SUSY breaking masses at the scale Q
         1     1.49900000E+02   # M_1(Q)              
         2     2.99900000E+02   # M_2(Q)              
         3     2.20000000E+03   # M_3(Q)              
        21    -8.87653845E+04   # M^2_Hd              
        22    -9.12873384E+06   # M^2_Hu              
        31     3.00000000E+03   # M_eL                
        32     3.00000000E+03   # M_muL               
        33     3.00000000E+03   # M_tauL              
        34     3.00000000E+03   # M_eR                
        35     3.00000000E+03   # M_muR               
        36     3.00000000E+03   # M_tauR              
        41     3.00000000E+03   # M_q1L               
        42     3.00000000E+03   # M_q2L               
        43     4.99899994E+02   # M_q3L               
        44     3.00000000E+03   # M_uR                
        45     3.00000000E+03   # M_cR                
        46     3.00000000E+03   # M_tR                
        47     3.00000000E+03   # M_dR                
        48     3.00000000E+03   # M_sR                
        49     3.00000000E+03   # M_bR                
#
#
#
#                             =================
#                             |The decay table|
#                             =================
#
# - The QCD corrections to the decays gluino -> squark  + quark
#                                     squark -> gaugino + quark_prime
#                                     squark -> squark_prime + Higgs
#                                     squark -> gluino  + quark
#   are included.
#
# - The multi-body decays for the inos, stops and sbottoms are included.
#
# - The loop induced decays for the gluino, neutralinos and stops
#   are included.
#
# - The SUSY decays of the top quark are included.
#
#
#         PDG            Width
DECAY         6     1.41592487E+00   # top decays
#          BR         NDA      ID1       ID2
     1.00000000E+00    2           5        24   # BR(t ->  b    W+)
#
#         PDG            Width
DECAY   1000021     8.24161831E+01   # gluino decays
#          BR         NDA      ID1       ID2
     2.48256025E-01    2     1000005        -5   # BR(~g -> ~b_1  bb)
     2.48256025E-01    2    -1000005         5   # BR(~g -> ~b_1* b )
     2.51743975E-01    2     1000006        -6   # BR(~g -> ~t_1  tb)
     2.51743975E-01    2    -1000006         6   # BR(~g -> ~t_1* t )
#
#         PDG            Width
DECAY   1000006     2.94293704E+00   # stop1 decays
#          BR         NDA      ID1       ID2
     1.92497100E-02    2     1000022         6   # BR(~t_1 -> ~chi_10 t )
     2.29173372E-01    2     1000023         6   # BR(~t_1 -> ~chi_20 t )
     7.51576918E-01    2     1000024         5   # BR(~t_1 -> ~chi_1+ b )
#
#         PDG            Width
DECAY   2000006     1.05507102E+02   # stop2 decays
#          BR         NDA      ID1       ID2
     6.18486172E-02    2     1000022         6   # BR(~t_2 -> ~chi_10 t )
     2.92391119E-04    2     1000023         6   # BR(~t_2 -> ~chi_20 t )
     0.00000000E+00    2     1000025         6   # BR(~t_2 -> ~chi_30 t )
     5.87085294E-04    2     1000024         5   # BR(~t_2 -> ~chi_1+ b )
     3.19745230E-01    2     1000021         6   # BR(~t_2 -> ~g      t )
     1.63392112E-01    2     1000006        25   # BR(~t_2 -> ~t_1    h )
     1.52072505E-01    2     1000006        23   # BR(~t_2 -> ~t_1    Z )
     3.02062060E-01    2     1000005        24   # BR(~t_2 -> ~b_1    W+)
#
#         PDG            Width
DECAY   1000005     2.58894516E+00   # sbottom1 decays
#          BR         NDA      ID1       ID2
     2.91502011E-02    2     1000022         5   # BR(~b_1 -> ~chi_10 b )
     4.34608733E-01    2     1000023         5   # BR(~b_1 -> ~chi_20 b )
     5.36241066E-01    2    -1000024         6   # BR(~b_1 -> ~chi_1- t )
#
#         PDG            Width
DECAY   2000005     4.25258646E+01   # sbottom2 decays
#          BR         NDA      ID1       ID2
     3.87958722E-02    2     1000022         5   # BR(~b_2 -> ~chi_10 b )
     1.29576452E-07    2     1000023         5   # BR(~b_2 -> ~chi_20 b )
     3.70435992E-06    2     1000025         5   # BR(~b_2 -> ~chi_30 b )
     3.54868791E-06    2     1000035         5   # BR(~b_2 -> ~chi_40 b )
    -2.88694709E-08    2    -1000024         6   # BR(~b_2 -> ~chi_1- t )
     8.28182511E-01    2     1000021         5   # BR(~b_2 -> ~g      b )
     2.93239048E-02    2     1000005        25   # BR(~b_2 -> ~b_1    h )
     4.24733001E-02    2     1000005        23   # BR(~b_2 -> ~b_1    Z )
     6.12170582E-02    2     1000006       -24   # BR(~b_2 -> ~t_1    W-)
#
#         PDG            Width
DECAY   1000002     7.02870981E+01   # sup_L decays
#          BR         NDA      ID1       ID2
     5.80884598E-03    2     1000022         2   # BR(~u_L -> ~chi_10 u)
     1.62559758E-01    2     1000023         2   # BR(~u_L -> ~chi_20 u)
     7.46918729E-09    2     1000025         2   # BR(~u_L -> ~chi_30 u)
     1.32428727E-08    2     1000035         2   # BR(~u_L -> ~chi_40 u)
     3.25144190E-01    2     1000024         1   # BR(~u_L -> ~chi_1+ d)
     2.07185693E-09    2     1000037         1   # BR(~u_L -> ~chi_2+ d)
     5.06487183E-01    2     1000021         2   # BR(~u_L -> ~g      u)
#
#         PDG            Width
DECAY   2000002     4.20187899E+01   # sup_R decays
#          BR         NDA      ID1       ID2
     1.57261155E-01    2     1000022         2   # BR(~u_R -> ~chi_10 u)
     3.72065392E-07    2     1000023         2   # BR(~u_R -> ~chi_20 u)
     2.51903159E-09    2     1000025         2   # BR(~u_R -> ~chi_30 u)
     3.54257317E-09    2     1000035         2   # BR(~u_R -> ~chi_40 u)
     8.42738467E-01    2     1000021         2   # BR(~u_R -> ~g      u)
#
#         PDG            Width
DECAY   1000001     7.03382618E+01   # sdown_L decays
#          BR         NDA      ID1       ID2
     5.95027100E-03    2     1000022         1   # BR(~d_L -> ~chi_10 d)
     1.62304444E-01    2     1000023         1   # BR(~d_L -> ~chi_20 d)
     1.27178763E-08    2     1000025         1   # BR(~d_L -> ~chi_30 d)
     2.16414121E-08    2     1000035         1   # BR(~d_L -> ~chi_40 d)
     3.24571160E-01    2    -1000024         2   # BR(~d_L -> ~chi_1- u)
     1.01730108E-07    2    -1000037         2   # BR(~d_L -> ~chi_2- u)
     5.07173989E-01    2     1000021         1   # BR(~d_L -> ~g      d)
#
#         PDG            Width
DECAY   2000001     3.69013824E+01   # sdown_R decays
#          BR         NDA      ID1       ID2
     4.47367904E-02    2     1000022         1   # BR(~d_R -> ~chi_10 d)
     1.05840765E-07    2     1000023         1   # BR(~d_R -> ~chi_20 d)
     5.75222696E-10    2     1000025         1   # BR(~d_R -> ~chi_30 d)
     8.03165207E-10    2     1000035         1   # BR(~d_R -> ~chi_40 d)
     9.55263102E-01    2     1000021         1   # BR(~d_R -> ~g      d)
#
#         PDG            Width
DECAY   1000004     7.02870981E+01   # scharm_L decays
#          BR         NDA      ID1       ID2
     5.80884598E-03    2     1000022         4   # BR(~c_L -> ~chi_10 c)
     1.62559758E-01    2     1000023         4   # BR(~c_L -> ~chi_20 c)
     7.46918729E-09    2     1000025         4   # BR(~c_L -> ~chi_30 c)
     1.32428727E-08    2     1000035         4   # BR(~c_L -> ~chi_40 c)
     3.25144190E-01    2     1000024         3   # BR(~c_L -> ~chi_1+ s)
     2.07185693E-09    2     1000037         3   # BR(~c_L -> ~chi_2+ s)
     5.06487183E-01    2     1000021         4   # BR(~c_L -> ~g      c)
#
#         PDG            Width
DECAY   2000004     4.20187899E+01   # scharm_R decays
#          BR         NDA      ID1       ID2
     1.57261155E-01    2     1000022         4   # BR(~c_R -> ~chi_10 c)
     3.72065392E-07    2     1000023         4   # BR(~c_R -> ~chi_20 c)
     2.51903159E-09    2     1000025         4   # BR(~c_R -> ~chi_30 c)
     3.54257317E-09    2     1000035         4   # BR(~c_R -> ~chi_40 c)
     8.42738467E-01    2     1000021         4   # BR(~c_R -> ~g      c)
#
#         PDG            Width
DECAY   1000003     7.03382618E+01   # sstrange_L decays
#          BR         NDA      ID1       ID2
     5.95027100E-03    2     1000022         3   # BR(~s_L -> ~chi_10 s)
     1.62304444E-01    2     1000023         3   # BR(~s_L -> ~chi_20 s)
     1.27178763E-08    2     1000025         3   # BR(~s_L -> ~chi_30 s)
     2.16414121E-08    2     1000035         3   # BR(~s_L -> ~chi_40 s)
     3.24571160E-01    2    -1000024         4   # BR(~s_L -> ~chi_1- c)
     1.01730108E-07    2    -1000037         4   # BR(~s_L -> ~chi_2- c)
     5.07173989E-01    2     1000021         3   # BR(~s_L -> ~g      s)
#
#         PDG            Width
DECAY   2000003     3.69013824E+01   # sstrange_R decays
#          BR         NDA      ID1       ID2
     4.47367904E-02    2     1000022         3   # BR(~s_R -> ~chi_10 s)
     1.05840765E-07    2     1000023         3   # BR(~s_R -> ~chi_20 s)
     5.75222696E-10    2     1000025         3   # BR(~s_R -> ~chi_30 s)
     8.03165207E-10    2     1000035         3   # BR(~s_R -> ~chi_40 s)
     9.55263102E-01    2     1000021         3   # BR(~s_R -> ~g      s)
#
#         PDG            Width
DECAY   1000011     3.96258831E+01   # selectron_L decays
#          BR         NDA      ID1       ID2
     9.77136672E-02    2     1000022        11   # BR(~e_L -> ~chi_10 e-)
     3.01255186E-01    2     1000023        11   # BR(~e_L -> ~chi_20 e-)
     3.20204228E-10    2     1000025        11   # BR(~e_L -> ~chi_30 e-)
     4.97420181E-10    2     1000035        11   # BR(~e_L -> ~chi_40 e-)
     6.01031142E-01    2    -1000024        12   # BR(~e_L -> ~chi_1- nu_e)
     4.36889084E-09    2    -1000037        12   # BR(~e_L -> ~chi_2- nu_e)
#
#         PDG            Width
DECAY   2000011     1.55222506E+01   # selectron_R decays
#          BR         NDA      ID1       ID2
     9.99997638E-01    2     1000022        11   # BR(~e_R -> ~chi_10 e-)
     2.36225183E-06    2     1000023        11   # BR(~e_R -> ~chi_20 e-)
#
#         PDG            Width
DECAY   1000013     3.96258831E+01   # smuon_L decays
#          BR         NDA      ID1       ID2
     9.77136672E-02    2     1000022        13   # BR(~mu_L -> ~chi_10 mu-)
     3.01255186E-01    2     1000023        13   # BR(~mu_L -> ~chi_20 mu-)
     3.20204228E-10    2     1000025        13   # BR(~mu_L -> ~chi_30 mu-)
     4.97420181E-10    2     1000035        13   # BR(~mu_L -> ~chi_40 mu-)
     6.01031142E-01    2    -1000024        14   # BR(~mu_L -> ~chi_1- nu_mu)
     4.36889084E-09    2    -1000037        14   # BR(~mu_L -> ~chi_2- nu_mu)
#
#         PDG            Width
DECAY   2000013     1.55222506E+01   # smuon_R decays
#          BR         NDA      ID1       ID2
     9.99997638E-01    2     1000022        13   # BR(~mu_R -> ~chi_10 mu-)
     2.36225183E-06    2     1000023        13   # BR(~mu_R -> ~chi_20 mu-)
#
#         PDG            Width
DECAY   1000015     2.78615229E+01   # stau_1 decays
#          BR         NDA      ID1       ID2
     3.47941082E-01    2     1000022        15   # BR(~tau_1 -> ~chi_10  tau-)
     2.17717666E-01    2     1000023        15   # BR(~tau_1 -> ~chi_20  tau-)
     4.34341252E-01    2    -1000024        16   # BR(~tau_1 -> ~chi_1-  nu_tau)
#
#         PDG            Width
DECAY   2000015     2.72680445E+01   # stau_2 decays
#          BR         NDA      ID1       ID2
     3.56178183E-01    2     1000022        15   # BR(~tau_2 -> ~chi_10  tau-)
     2.14983638E-01    2     1000023        15   # BR(~tau_2 -> ~chi_20  tau-)
     7.90554289E-06    2     1000025        15   # BR(~tau_2 -> ~chi_30  tau-)
     9.12535972E-06    2     1000035        15   # BR(~tau_2 -> ~chi_40  tau-)
     4.28812175E-01    2    -1000024        16   # BR(~tau_2 -> ~chi_1-  nu_tau)
     8.97361197E-06    2    -1000037        16   # BR(~tau_2 -> ~chi_2-  nu_tau)
#
#         PDG            Width
DECAY   1000012     3.96290218E+01   # snu_eL decays
#          BR         NDA      ID1       ID2
     9.84597887E-02    2     1000022        12   # BR(~nu_eL -> ~chi_10 nu_e)
     3.00029524E-01    2     1000023        12   # BR(~nu_eL -> ~chi_20 nu_e)
     6.27881533E-10    2     1000025        12   # BR(~nu_eL -> ~chi_30 nu_e)
     7.48183962E-10    2     1000035        12   # BR(~nu_eL -> ~chi_40 nu_e)
     6.01510686E-01    2     1000024        11   # BR(~nu_eL -> ~chi_1+ e-)
     3.36875369E-11    2     1000037        11   # BR(~nu_eL -> ~chi_2+ e-)
#
#         PDG            Width
DECAY   1000014     3.96290218E+01   # snu_muL decays
#          BR         NDA      ID1       ID2
     9.84597887E-02    2     1000022        14   # BR(~nu_muL -> ~chi_10 nu_mu)
     3.00029524E-01    2     1000023        14   # BR(~nu_muL -> ~chi_20 nu_mu)
     6.27881533E-10    2     1000025        14   # BR(~nu_muL -> ~chi_30 nu_mu)
     7.48183962E-10    2     1000035        14   # BR(~nu_muL -> ~chi_40 nu_mu)
     6.01510686E-01    2     1000024        13   # BR(~nu_muL -> ~chi_1+ mu-)
     3.36875369E-11    2     1000037        13   # BR(~nu_muL -> ~chi_2+ mu-)
#
#         PDG            Width
DECAY   1000016     3.96338894E+01   # snu_tauL decays
#          BR         NDA      ID1       ID2
     9.84513468E-02    2     1000022        16   # BR(~nu_tauL -> ~chi_10 nu_tau)
     3.00004192E-01    2     1000023        16   # BR(~nu_tauL -> ~chi_20 nu_tau)
     6.71765592E-10    2     1000025        16   # BR(~nu_tauL -> ~chi_30 nu_tau)
     8.11570412E-10    2     1000035        16   # BR(~nu_tauL -> ~chi_40 nu_tau)
     6.01544390E-01    2     1000024        15   # BR(~nu_tauL -> ~chi_1+ tau-)
     6.94156850E-08    2     1000037        15   # BR(~nu_tauL -> ~chi_2+ tau-)
#
#         PDG            Width
DECAY   1000024     2.58252412E-05   # chargino1+ decays
#          BR         NDA      ID1       ID2
     1.00000000E+00    2     1000022        24   # BR(~chi_1+ -> ~chi_10  W+)
#
#         PDG            Width
DECAY   1000037     8.93484506E+01   # chargino2+ decays
#          BR         NDA      ID1       ID2
     4.66644573E-02    2     1000006        -5   # BR(~chi_2+ -> ~t_1     bb)
     7.30699566E-01    2    -1000005         6   # BR(~chi_2+ -> ~b_1*    t )
     7.35435026E-07    2    -1000015        16   # BR(~chi_2+ -> ~tau_1+  nu_tau)
     6.70822396E-02    2     1000024        23   # BR(~chi_2+ -> ~chi_1+  Z )
     2.07625464E-02    2     1000022        24   # BR(~chi_2+ -> ~chi_10  W+)
     6.55154144E-02    2     1000023        24   # BR(~chi_2+ -> ~chi_20  W+)
     6.92750413E-02    2     1000024        25   # BR(~chi_2+ -> ~chi_1+  h )
#
#         PDG            Width
DECAY   1000022     0.00000000E+00   # neutralino1 decays
#
#         PDG            Width
DECAY   1000023     1.86982048E-05   # neutralino2 decays
#          BR         NDA      ID1       ID2
     4.92753040E-02    2     1000022        23   # BR(~chi_20 -> ~chi_10   Z )
     9.50724696E-01    2     1000022        25   # BR(~chi_20 -> ~chi_10   h )
#
#         PDG            Width
DECAY   1000025     8.96279785E+01   # neutralino3 decays
#          BR         NDA      ID1       ID2
     1.28157634E-02    2     1000022        23   # BR(~chi_30 -> ~chi_10   Z )
     4.31034602E-02    2     1000023        23   # BR(~chi_30 -> ~chi_20   Z )
     6.51948393E-02    2     1000024       -24   # BR(~chi_30 -> ~chi_1+   W-)
     6.51948393E-02    2    -1000024        24   # BR(~chi_30 -> ~chi_1-   W+)
     8.81495200E-03    2     1000022        25   # BR(~chi_30 -> ~chi_10   h )
     2.39841898E-02    2     1000023        25   # BR(~chi_30 -> ~chi_20   h )
     3.68035145E-01    2     1000006        -6   # BR(~chi_30 -> ~t_1      tb)
     3.68035145E-01    2    -1000006         6   # BR(~chi_30 -> ~t_1*     t )
     2.24101603E-02    2     1000005        -5   # BR(~chi_30 -> ~b_1      bb)
     2.24101603E-02    2    -1000005         5   # BR(~chi_30 -> ~b_1*     b )
     3.22782017E-12    2     2000011       -11   # BR(~chi_30 -> ~e_R-     e+)
     3.22782017E-12    2    -2000011        11   # BR(~chi_30 -> ~e_R+     e-)
     3.22782017E-12    2     2000013       -13   # BR(~chi_30 -> ~mu_R-    mu+)
     3.22782017E-12    2    -2000013        13   # BR(~chi_30 -> ~mu_R+    mu-)
     6.72980245E-07    2     1000015       -15   # BR(~chi_30 -> ~tau_1-   tau+)
     6.72980245E-07    2    -1000015        15   # BR(~chi_30 -> ~tau_1+   tau-)
#
#         PDG            Width
DECAY   1000035     8.87365960E+01   # neutralino4 decays
#          BR         NDA      ID1       ID2
     8.68156013E-03    2     1000022        23   # BR(~chi_40 -> ~chi_10   Z )
     2.39013799E-02    2     1000023        23   # BR(~chi_40 -> ~chi_20   Z )
     6.58708128E-02    2     1000024       -24   # BR(~chi_40 -> ~chi_1+   W-)
     6.58708128E-02    2    -1000024        24   # BR(~chi_40 -> ~chi_1-   W+)
     1.33151984E-02    2     1000022        25   # BR(~chi_40 -> ~chi_10   h )
     4.54281314E-02    2     1000023        25   # BR(~chi_40 -> ~chi_20   h )
     3.65800134E-01    2     1000006        -6   # BR(~chi_40 -> ~t_1      tb)
     3.65800134E-01    2    -1000006         6   # BR(~chi_40 -> ~t_1*     t )
     2.26650348E-02    2     1000005        -5   # BR(~chi_40 -> ~b_1      bb)
     2.26650348E-02    2    -1000005         5   # BR(~chi_40 -> ~b_1*     b )
     1.19244234E-11    2     2000011       -11   # BR(~chi_40 -> ~e_R-     e+)
     1.19244234E-11    2    -2000011        11   # BR(~chi_40 -> ~e_R+     e-)
     1.19244234E-11    2     2000013       -13   # BR(~chi_40 -> ~mu_R-    mu+)
     1.19244234E-11    2    -2000013        13   # BR(~chi_40 -> ~mu_R+    mu-)
     8.83742949E-07    2     1000015       -15   # BR(~chi_40 -> ~tau_1-   tau+)
     8.83742949E-07    2    -1000015        15   # BR(~chi_40 -> ~tau_1+   tau-)
#
#         PDG            Width
DECAY        25     4.88627796E-03   # h decays
#          BR         NDA      ID1       ID2
     6.80912587E-01    2           5        -5   # BR(h -> b       bb     )
     5.33523046E-02    2         -15        15   # BR(h -> tau+    tau-   )
     1.88869530E-04    2         -13        13   # BR(h -> mu+     mu-    )
     4.00975669E-04    2           3        -3   # BR(h -> s       sb     )
     1.73014917E-02    2           4        -4   # BR(h -> c       cb     )
     5.64964894E-02    2          21        21   # BR(h -> g       g      )
     1.90896016E-03    2          22        22   # BR(h -> gam     gam    )
     1.25428254E-03    2          22        23   # BR(h -> Z       gam    )
     1.67335727E-01    2          24       -24   # BR(h -> W+      W-     )
     2.08483124E-02    2          23        23   # BR(h -> Z       Z      )
#
#         PDG            Width
DECAY        35     1.39112450E+01   # H decays
#          BR         NDA      ID1       ID2
     7.41424025E-01    2           5        -5   # BR(H -> b       bb     )
     1.78763726E-01    2         -15        15   # BR(H -> tau+    tau-   )
     6.32065818E-04    2         -13        13   # BR(H -> mu+     mu-    )
     7.76174286E-04    2           3        -3   # BR(H -> s       sb     )
     2.19111349E-07    2           4        -4   # BR(H -> c       cb     )
     2.18577807E-02    2           6        -6   # BR(H -> t       tb     )
     3.38480190E-05    2          21        21   # BR(H -> g       g      )
     4.54586293E-08    2          22        22   # BR(H -> gam     gam    )
     8.37756617E-09    2          23        22   # BR(H -> Z       gam    )
     3.47272326E-05    2          24       -24   # BR(H -> W+      W-     )
     1.73422055E-05    2          23        23   # BR(H -> Z       Z      )
     8.82662573E-05    2          25        25   # BR(H -> h       h      )
     3.55447868E-23    2          36        36   # BR(H -> A       A      )
     3.19449802E-17    2          23        36   # BR(H -> Z       A      )
     2.33523492E-03    2     1000024  -1000024   # BR(H -> ~chi_1+ ~chi_1-)
     1.12483161E-04    2     1000022   1000022   # BR(H -> ~chi_10 ~chi_10)
     1.16369894E-03    2     1000023   1000023   # BR(H -> ~chi_20 ~chi_20)
     7.26578995E-04    2     1000022   1000023   # BR(H -> ~chi_10 ~chi_20)
     5.20274957E-02    2     1000006  -1000006   # BR(H -> ~t_1    ~t_1*  )
     6.27932332E-06    2     1000005  -1000005   # BR(H -> ~b_1    ~b_1*  )
#
#         PDG            Width
DECAY        36     1.31911538E+01   # A decays
#          BR         NDA      ID1       ID2
     7.81956502E-01    2           5        -5   # BR(A -> b       bb     )
     1.88513735E-01    2         -15        15   # BR(A -> tau+    tau-   )
     6.66538587E-04    2         -13        13   # BR(A -> mu+     mu-    )
     8.18647806E-04    2           3        -3   # BR(A -> s       sb     )
     2.31010807E-07    2           4        -4   # BR(A -> c       cb     )
     2.30321275E-02    2           6        -6   # BR(A -> t       tb     )
     6.78274215E-05    2          21        21   # BR(A -> g       g      )
     3.15243372E-08    2          22        22   # BR(A -> gam     gam    )
     6.67944094E-08    2          23        22   # BR(A -> Z       gam    )
     3.64810021E-05    2          23        25   # BR(A -> Z       h      )
     2.65819732E-03    2     1000024  -1000024   # BR(A -> ~chi_1+ ~chi_1-)
     1.22254379E-04    2     1000022   1000022   # BR(A -> ~chi_10 ~chi_10)
     1.32459268E-03    2     1000023   1000023   # BR(A -> ~chi_20 ~chi_20)
     8.02766484E-04    2     1000022   1000023   # BR(A -> ~chi_10 ~chi_20)
#
#         PDG            Width
DECAY        37     9.86331821E+00   # H+ decays
#          BR         NDA      ID1       ID2
     1.08369167E-03    2           4        -5   # BR(H+ -> c       bb     )
     2.52198332E-01    2         -15        16   # BR(H+ -> tau+    nu_tau )
     8.91711788E-04    2         -13        14   # BR(H+ -> mu+     nu_mu  )
     6.93561568E-06    2           2        -5   # BR(H+ -> u       bb     )
     5.24039110E-05    2           2        -3   # BR(H+ -> u       sb     )
     1.07811696E-03    2           4        -3   # BR(H+ -> c       sb     )
     7.06566200E-01    2           6        -5   # BR(H+ -> t       bb     )
     4.88670989E-05    2          24        25   # BR(H+ -> W+      h      )
     1.10825689E-13    2          24        36   # BR(H+ -> W+      A      )
     2.09239326E-03    2     1000024   1000022   # BR(H+ -> ~chi_1+ ~chi_10)
     5.01197908E-09    2     1000024   1000023   # BR(H+ -> ~chi_1+ ~chi_20)
     3.59813429E-02    2     1000006  -1000005   # BR(H+ -> ~t_1    ~b_1*  )
