#
#                              ======================
#                              | THE SUSYHIT OUTPUT |
#                              ======================
#
#
#              ------------------------------------------------------
#              |     This is the output of the SUSY-HIT package     |
#              |  created by A.Djouadi, M.Muehlleitner and M.Spira. |
#              |  In case of problems with SUSY-HIT email to        |
#              |           margarete.muehlleitner@kit.edu           |
#              |           michael.spira@psi.ch                     |
#              |           abdelhak.djouadi@cern.ch                 |
#              ------------------------------------------------------
#
#              ------------------------------------------------------
#              |  SUSY Les Houches Accord - MSSM Spectrum + Decays  |
#              |              based on the decay programs           |
#              |                                                    |
#              |                     SDECAY 1.5                     |
#              |                                                    |
#              |  Authors: M.Muhlleitner, A.Djouadi and Y.Mambrini  |
#              |  Ref.:    Comput.Phys.Commun.168(2005)46           |
#              |           [hep-ph/0311167]                         |
#              |                                                    |
#              |                     HDECAY 3.4                     |
#              |                                                    |
#              |  By: A.Djouadi,J.Kalinowski,M.Muhlleitner,M.Spira  |
#              |  Ref.:    Comput.Phys.Commun.108(1998)56           |
#              |           [hep-ph/9704448]                         |
#              |                                                    |
#              |                                                    |
#              |  If not stated otherwise all DRbar couplings and   |
#              |  soft SUSY breaking masses are given at the scale  |
#              |  Q=  0.10049169E+04
#              |                                                    |
#              ------------------------------------------------------
#
#
BLOCK DCINFO  # Decay Program information
     1   SDECAY/HDECAY # decay calculator
     2   1.5  /3.4    # version number
#
BLOCK SPINFO  # Spectrum calculator information
     1    SOFTSUSY    # spectrum calculator                
     2    3.7.3       # version number                     
#
BLOCK MODSEL  # Model selection
     1     0   #  nonUniversal                                     
#
BLOCK SMINPUTS  # Standard Model inputs
         1     1.27934000E+02   # alpha_em^-1(M_Z)^MSbar
         2     1.16639000E-05   # G_F [GeV^-2]
         3     1.17200000E-01   # alpha_S(M_Z)^MSbar
         4     9.11870000E+01   # M_Z pole mass
         5     4.19000000E+00   # mb(mb)^MSbar
         6     1.72500000E+02   # mt pole mass
         7     1.77690000E+00   # mtau pole mass
#
BLOCK MINPAR  # Input parameters - minimal models
         3     2.00000000E+01   # tanb                
#
BLOCK EXTPAR  # Input parameters - non-minimal models
         0    -1.00000000E+00   # Set                 
         1     2.59990000E+02   # M_1(MX)             
         2     2.00000000E+03   # M_2(MX)             
         3     1.80000000E+03   # M_3(MX)             
        11     2.25959179E+03   # At(MX)              
        12     0.00000000E+00   # Ab(MX)              
        13     0.00000000E+00   # Atau(MX)            
        23    -2.80900000E+02   # mu(MX)              
        25     2.00000000E+01   # tan                 
        26     4.00000000E+03   # mA(pole)            
        31     4.00000000E+03   # meL(MX)             
        32     4.00000000E+03   # mmuL(MX)            
        33     4.00000000E+03   # mtauL(MX)           
        34     4.00000000E+03   # meR(MX)             
        35     4.00000000E+03   # mmuR(MX)            
        36     4.00000000E+03   # mtauR(MX)           
        41     4.00000000E+03   # mqL1(MX)            
        42     4.00000000E+03   # mqL2(MX)            
        43     2.00485961E+03   # mqL3(MX)            
        44     4.00000000E+03   # muR(MX)             
        45     4.00000000E+03   # mcR(MX)             
        46     5.09990000E+02   # mtR(MX)             
        47     4.00000000E+03   # mdR(MX)             
        48     4.00000000E+03   # msR(MX)             
        49     4.00000000E+03   # mbR(MX)             
#
BLOCK MASS  # Mass Spectrum
# PDG code           mass       particle
        24     8.04203565E+01   # W+
        25     1.24952478E+02   # h
        35     4.00000600E+03   # H
        36     3.99999595E+03   # A
        37     4.00099965E+03   # H+
         5     4.81337004E+00   # b-quark pole mass calculated from mb(mb)_Msbar
   1000001     4.01666768E+03   # ~d_L
   2000001     4.01532311E+03   # ~d_R
   1000002     4.01601512E+03   # ~u_L
   2000002     4.01589211E+03   # ~u_R
   1000003     4.01666768E+03   # ~s_L
   2000003     4.01532311E+03   # ~s_R
   1000004     4.01601512E+03   # ~c_L
   2000004     4.01589211E+03   # ~c_R
   1000005     2.03046919E+03   # ~b_1
   2000005     4.02077076E+03   # ~b_2
   1000006     5.32154012E+02   # ~t_1
   2000006     2.04193325E+03   # ~t_2
   1000011     4.00246774E+03   # ~e_L
   2000011     4.00361689E+03   # ~e_R
   1000012     4.00135588E+03   # ~nu_eL
   1000013     4.00246774E+03   # ~mu_L
   2000013     4.00361689E+03   # ~mu_R
   1000014     4.00135588E+03   # ~nu_muL
   1000015     4.00429437E+03   # ~tau_1
   2000015     4.00853663E+03   # ~tau_2
   1000016     4.00361136E+03   # ~nu_tauL
   1000021     1.97451358E+03   # ~g
   1000022     2.43715411E+02   # ~chi_10
   1000023    -2.91178664E+02   # ~chi_20
   1000025     3.09081196E+02   # ~chi_30
   1000035     2.06643901E+03   # ~chi_40
   1000024     2.88288303E+02   # ~chi_1+
   1000037     2.06661498E+03   # ~chi_2+
#
BLOCK NMIX  # Neutralino Mixing Matrix
  1  1     7.99370837E-01   # N_11
  1  2    -1.60030870E-02   # N_12
  1  3    -4.59872842E-01   # N_13
  1  4    -3.86351052E-01   # N_14
  2  1    -6.02840903E-02   # N_21
  2  2     2.52653924E-02   # N_22
  2  3    -7.01705388E-01   # N_23
  2  4     7.09462498E-01   # N_24
  3  1     5.97805253E-01   # N_31
  3  2     2.55955755E-02   # N_32
  3  3     5.44163426E-01   # N_33
  3  4     5.88098557E-01   # N_34
  4  1    -9.86431792E-04   # N_41
  4  2     9.99224913E-01   # N_42
  4  3    -3.56145960E-03   # N_43
  4  4    -3.91907551E-02   # N_44
#
BLOCK UMIX  # Chargino Mixing Matrix U
  1  1     5.04193257E-03   # U_11
  1  2     9.99987289E-01   # U_12
  2  1    -9.99987289E-01   # U_21
  2  2     5.04193257E-03   # U_22
#
BLOCK VMIX  # Chargino Mixing Matrix V
  1  1     5.54358485E-02   # V_11
  1  2    -9.98462251E-01   # V_12
  2  1    -9.98462251E-01   # V_21
  2  2    -5.54358485E-02   # V_22
#
BLOCK STOPMIX  # Stop Mixing Matrix
  1  1    -8.99262254E-02   # cos(theta_t)
  1  2     9.95948429E-01   # sin(theta_t)
  2  1    -9.95948429E-01   # -sin(theta_t)
  2  2    -8.99262254E-02   # cos(theta_t)
#
BLOCK SBOTMIX  # Sbottom Mixing Matrix
  1  1     9.99999330E-01   # cos(theta_b)
  1  2    -1.15758350E-03   # sin(theta_b)
  2  1     1.15758350E-03   # -sin(theta_b)
  2  2     9.99999330E-01   # cos(theta_b)
#
BLOCK STAUMIX  # Stau Mixing Matrix
  1  1    -7.05479964E-01   # cos(theta_tau)
  1  2     7.08729864E-01   # sin(theta_tau)
  2  1    -7.08729864E-01   # -sin(theta_tau)
  2  2    -7.05479964E-01   # cos(theta_tau)
#
BLOCK ALPHA  # Higgs mixing
          -5.00264621E-02   # Mixing angle in the neutral Higgs boson sector
#
BLOCK HMIX Q=  1.00491691E+03  # DRbar Higgs Parameters
         1    -2.80900000E+02   # mu(Q)MSSM           
         2     2.00000000E+01   # tan                 
         3     2.44313023E+02   # higgs               
         4     1.62229922E+07   # mA^2(Q)MSSM         
#
BLOCK GAUGE Q=  1.00491691E+03  # The gauge couplings
     1     3.61237886E-01   # gprime(Q) DRbar
     2     6.35358254E-01   # g(Q) DRbar
     3     1.03520333E+00   # g3(Q) DRbar
#
BLOCK AU Q=  1.00491691E+03  # The trilinear couplings
  1  1     0.00000000E+00   # A_u(Q) DRbar
  2  2     7.46698284E-07   # A_c(Q) DRbar
  3  3     2.25959179E+03   # A_t(Q) DRbar
#
BLOCK AD Q=  1.00491691E+03  # The trilinear couplings
  1  1     2.75004228E-07   # A_d(Q) DRbar
  2  2     2.75030690E-07   # A_s(Q) DRbar
  3  3     4.91038732E-07   # A_b(Q) DRbar
#
BLOCK AE Q=  1.00491691E+03  # The trilinear couplings
  1  1     0.00000000E+00   # A_e(Q) DRbar
  2  2     6.11965144E-08   # A_mu(Q) DRbar
  3  3     6.18206901E-08   # A_tau(Q) DRbar
#
BLOCK Yu Q=  1.00491691E+03  # The Yukawa couplings
  1  1     0.00000000E+00   # y_u(Q) DRbar
  2  2     0.00000000E+00   # y_c(Q) DRbar
  3  3     8.72066851E-01   # y_t(Q) DRbar
#
BLOCK Yd Q=  1.00491691E+03  # The Yukawa couplings
  1  1     0.00000000E+00   # y_d(Q) DRbar
  2  2     0.00000000E+00   # y_s(Q) DRbar
  3  3     2.85997257E-01   # y_b(Q) DRbar
#
BLOCK Ye Q=  1.00491691E+03  # The Yukawa couplings
  1  1     0.00000000E+00   # y_e(Q) DRbar
  2  2     0.00000000E+00   # y_mu(Q) DRbar
  3  3     2.03325362E-01   # y_tau(Q) DRbar
#
BLOCK MSOFT Q=  1.00491691E+03  # The soft SUSY breaking masses at the scale Q
         1     2.59990000E+02   # M_1(Q)              
         2     2.00000000E+03   # M_2(Q)              
         3     1.80000000E+03   # M_3(Q)              
        21     1.57935082E+07   # M^2_Hd              
        22    -8.98413140E+04   # M^2_Hu              
        31     4.00000000E+03   # M_eL                
        32     4.00000000E+03   # M_muL               
        33     4.00000000E+03   # M_tauL              
        34     4.00000000E+03   # M_eR                
        35     4.00000000E+03   # M_muR               
        36     4.00000000E+03   # M_tauR              
        41     4.00000000E+03   # M_q1L               
        42     4.00000000E+03   # M_q2L               
        43     2.00485961E+03   # M_q3L               
        44     4.00000000E+03   # M_uR                
        45     4.00000000E+03   # M_cR                
        46     5.09989996E+02   # M_tR                
        47     4.00000000E+03   # M_dR                
        48     4.00000000E+03   # M_sR                
        49     4.00000000E+03   # M_bR                
#
#
#
#                             =================
#                             |The decay table|
#                             =================
#
# - The QCD corrections to the decays gluino -> squark  + quark
#                                     squark -> gaugino + quark_prime
#                                     squark -> squark_prime + Higgs
#                                     squark -> gluino  + quark
#   are included.
#
# - The multi-body decays for the inos, stops and sbottoms are included.
#
# - The loop induced decays for the gluino, neutralinos and stops
#   are included.
#
# - The SUSY decays of the top quark are included.
#
#
#         PDG            Width
DECAY         6     1.40036282E+00   # top decays
#          BR         NDA      ID1       ID2
     1.00000000E+00    2           5        24   # BR(t ->  b    W+)
#
#         PDG            Width
DECAY   1000021     3.55539347E+01   # gluino decays
#          BR         NDA      ID1       ID2
     5.00000000E-01    2     1000006        -6   # BR(~g -> ~t_1  tb)
     5.00000000E-01    2    -1000006         6   # BR(~g -> ~t_1* t )
#
#         PDG            Width
DECAY   1000006     6.78046672E+00   # stop1 decays
#          BR         NDA      ID1       ID2
     7.16985615E-02    2     1000022         6   # BR(~t_1 -> ~chi_10 t )
     1.63457189E-01    2     1000023         6   # BR(~t_1 -> ~chi_20 t )
     1.81046579E-01    2     1000025         6   # BR(~t_1 -> ~chi_30 t )
     5.83797670E-01    2     1000024         5   # BR(~t_1 -> ~chi_1+ b )
#
#         PDG            Width
DECAY   2000006     5.99559599E+01   # stop2 decays
#          BR         NDA      ID1       ID2
     8.11098171E-02    2     1000022         6   # BR(~t_2 -> ~chi_10 t )
     2.37390643E-01    2     1000023         6   # BR(~t_2 -> ~chi_20 t )
     1.53480434E-01    2     1000025         6   # BR(~t_2 -> ~chi_30 t )
     5.48014340E-02    2     1000024         5   # BR(~t_2 -> ~chi_1+ b )
     2.85367691E-01    2     1000006        25   # BR(~t_2 -> ~t_1    h )
     1.87849981E-01    2     1000006        23   # BR(~t_2 -> ~t_1    Z )
#
#         PDG            Width
DECAY   1000005     3.02591559E+01   # sbottom1 decays
#          BR         NDA      ID1       ID2
     2.70108701E-02    2     1000022         5   # BR(~b_1 -> ~chi_10 b )
     4.61134630E-02    2     1000023         5   # BR(~b_1 -> ~chi_20 b )
     2.92175207E-02    2     1000025         5   # BR(~b_1 -> ~chi_30 b )
     9.15885999E-01    2    -1000024         6   # BR(~b_1 -> ~chi_1- t )
     1.64149183E-02    2     1000021         5   # BR(~b_1 -> ~g      b )
    -3.46427708E-02    2     1000006       -24   # BR(~b_1 -> ~t_1    W-)
#
#         PDG            Width
DECAY   2000005     1.63954485E+02   # sbottom2 decays
#          BR         NDA      ID1       ID2
     1.63792291E-02    2     1000022         5   # BR(~b_2 -> ~chi_10 b )
     1.80644902E-02    2     1000023         5   # BR(~b_2 -> ~chi_20 b )
     1.56512716E-02    2     1000025         5   # BR(~b_2 -> ~chi_30 b )
     5.74467875E-07    2     1000035         5   # BR(~b_2 -> ~chi_40 b )
     3.64830928E-02    2    -1000024         6   # BR(~b_2 -> ~chi_1- t )
     1.13390933E-06    2    -1000037         6   # BR(~b_2 -> ~chi_2- t )
     9.13115359E-01    2     1000021         5   # BR(~b_2 -> ~g      b )
     6.45737945E-05    2     1000005        25   # BR(~b_2 -> ~b_1    h )
     8.63651525E-05    2     1000005        23   # BR(~b_2 -> ~b_1    Z )
     2.90221710E-06    2     1000006       -24   # BR(~b_2 -> ~t_1    W-)
     1.51007512E-04    2     2000006       -24   # BR(~b_2 -> ~t_2    W-)
#
#         PDG            Width
DECAY   1000002     1.75290255E+02   # sup_L decays
#          BR         NDA      ID1       ID2
     1.61512707E-03    2     1000022         2   # BR(~u_L -> ~chi_10 u)
     1.68024752E-05    2     1000023         2   # BR(~u_L -> ~chi_20 u)
     1.68994268E-03    2     1000025         2   # BR(~u_L -> ~chi_30 u)
     4.80844153E-02    2     1000035         2   # BR(~u_L -> ~chi_40 u)
     5.39229548E-04    2     1000024         1   # BR(~u_L -> ~chi_1+ d)
     9.60463289E-02    2     1000037         1   # BR(~u_L -> ~chi_2+ d)
     8.52008154E-01    2     1000021         2   # BR(~u_L -> ~g      u)
#
#         PDG            Width
DECAY   2000002     1.58186989E+02   # sup_R decays
#          BR         NDA      ID1       ID2
     3.57988441E-02    2     1000022         2   # BR(~u_R -> ~chi_10 u)
     2.02993228E-04    2     1000023         2   # BR(~u_R -> ~chi_20 u)
     1.99361783E-02    2     1000025         2   # BR(~u_R -> ~chi_30 u)
     2.98507854E-08    2     1000035         2   # BR(~u_R -> ~chi_40 u)
     9.44061954E-01    2     1000021         2   # BR(~u_R -> ~g      u)
#
#         PDG            Width
DECAY   1000001     1.75308818E+02   # sdown_L decays
#          BR         NDA      ID1       ID2
     2.46845445E-03    2     1000022         1   # BR(~d_L -> ~chi_10 d)
     1.18088657E-04    2     1000023         1   # BR(~d_L -> ~chi_20 d)
     6.73828910E-04    2     1000025         1   # BR(~d_L -> ~chi_30 d)
     4.81343776E-02    2     1000035         1   # BR(~d_L -> ~chi_40 d)
     4.46080917E-06    2    -1000024         2   # BR(~d_L -> ~chi_1- u)
     9.63679143E-02    2    -1000037         2   # BR(~d_L -> ~chi_2- u)
     8.52232875E-01    2     1000021         1   # BR(~d_L -> ~g      d)
#
#         PDG            Width
DECAY   2000001     1.51502018E+02   # sdown_R decays
#          BR         NDA      ID1       ID2
     9.34324606E-03    2     1000022         1   # BR(~d_R -> ~chi_10 d)
     5.29797575E-05    2     1000023         1   # BR(~d_R -> ~chi_20 d)
     5.20319580E-03    2     1000025         1   # BR(~d_R -> ~chi_30 d)
     7.78929353E-09    2     1000035         1   # BR(~d_R -> ~chi_40 d)
     9.85400571E-01    2     1000021         1   # BR(~d_R -> ~g      d)
#
#         PDG            Width
DECAY   1000004     1.75290255E+02   # scharm_L decays
#          BR         NDA      ID1       ID2
     1.61512707E-03    2     1000022         4   # BR(~c_L -> ~chi_10 c)
     1.68024752E-05    2     1000023         4   # BR(~c_L -> ~chi_20 c)
     1.68994268E-03    2     1000025         4   # BR(~c_L -> ~chi_30 c)
     4.80844153E-02    2     1000035         4   # BR(~c_L -> ~chi_40 c)
     5.39229548E-04    2     1000024         3   # BR(~c_L -> ~chi_1+ s)
     9.60463289E-02    2     1000037         3   # BR(~c_L -> ~chi_2+ s)
     8.52008154E-01    2     1000021         4   # BR(~c_L -> ~g      c)
#
#         PDG            Width
DECAY   2000004     1.58186989E+02   # scharm_R decays
#          BR         NDA      ID1       ID2
     3.57988441E-02    2     1000022         4   # BR(~c_R -> ~chi_10 c)
     2.02993228E-04    2     1000023         4   # BR(~c_R -> ~chi_20 c)
     1.99361783E-02    2     1000025         4   # BR(~c_R -> ~chi_30 c)
     2.98507854E-08    2     1000035         4   # BR(~c_R -> ~chi_40 c)
     9.44061954E-01    2     1000021         4   # BR(~c_R -> ~g      c)
#
#         PDG            Width
DECAY   1000003     1.75308818E+02   # sstrange_L decays
#          BR         NDA      ID1       ID2
     2.46845445E-03    2     1000022         3   # BR(~s_L -> ~chi_10 s)
     1.18088657E-04    2     1000023         3   # BR(~s_L -> ~chi_20 s)
     6.73828910E-04    2     1000025         3   # BR(~s_L -> ~chi_30 s)
     4.81343776E-02    2     1000035         3   # BR(~s_L -> ~chi_40 s)
     4.46080917E-06    2    -1000024         4   # BR(~s_L -> ~chi_1- c)
     9.63679143E-02    2    -1000037         4   # BR(~s_L -> ~chi_2- c)
     8.52232875E-01    2     1000021         3   # BR(~s_L -> ~g      s)
#
#         PDG            Width
DECAY   2000003     1.51502018E+02   # sstrange_R decays
#          BR         NDA      ID1       ID2
     9.34324606E-03    2     1000022         3   # BR(~s_R -> ~chi_10 s)
     5.29797575E-05    2     1000023         3   # BR(~s_R -> ~chi_20 s)
     5.20319580E-03    2     1000025         3   # BR(~s_R -> ~chi_30 s)
     7.78929353E-09    2     1000035         3   # BR(~s_R -> ~chi_40 s)
     9.85400571E-01    2     1000021         3   # BR(~s_R -> ~g      s)
#
#         PDG            Width
DECAY   1000011     3.11019909E+01   # selectron_L decays
#          BR         NDA      ID1       ID2
     9.86190906E-02    2     1000022        11   # BR(~e_L -> ~chi_10 e-)
     4.15029176E-05    2     1000023        11   # BR(~e_L -> ~chi_20 e-)
     6.82047963E-02    2     1000025        11   # BR(~e_L -> ~chi_30 e-)
     2.77235707E-01    2     1000035        11   # BR(~e_L -> ~chi_40 e-)
     2.60005935E-05    2    -1000024        12   # BR(~e_L -> ~chi_1- nu_e)
     5.55872902E-01    2    -1000037        12   # BR(~e_L -> ~chi_2- nu_e)
#
#         PDG            Width
DECAY   2000011     2.06000016E+01   # selectron_R decays
#          BR         NDA      ID1       ID2
     6.40035325E-01    2     1000022        11   # BR(~e_R -> ~chi_10 e-)
     3.62853083E-03    2     1000023        11   # BR(~e_R -> ~chi_20 e-)
     3.56335616E-01    2     1000025        11   # BR(~e_R -> ~chi_30 e-)
     5.28421450E-07    2     1000035        11   # BR(~e_R -> ~chi_40 e-)
#
#         PDG            Width
DECAY   1000013     3.11019909E+01   # smuon_L decays
#          BR         NDA      ID1       ID2
     9.86190906E-02    2     1000022        13   # BR(~mu_L -> ~chi_10 mu-)
     4.15029176E-05    2     1000023        13   # BR(~mu_L -> ~chi_20 mu-)
     6.82047963E-02    2     1000025        13   # BR(~mu_L -> ~chi_30 mu-)
     2.77235707E-01    2     1000035        13   # BR(~mu_L -> ~chi_40 mu-)
     2.60005935E-05    2    -1000024        14   # BR(~mu_L -> ~chi_1- nu_mu)
     5.55872902E-01    2    -1000037        14   # BR(~mu_L -> ~chi_2- nu_mu)
#
#         PDG            Width
DECAY   2000013     2.06000016E+01   # smuon_R decays
#          BR         NDA      ID1       ID2
     6.40035325E-01    2     1000022        13   # BR(~mu_R -> ~chi_10 mu-)
     3.62853083E-03    2     1000023        13   # BR(~mu_R -> ~chi_20 mu-)
     3.56335616E-01    2     1000025        13   # BR(~mu_R -> ~chi_30 mu-)
     5.28421450E-07    2     1000035        13   # BR(~mu_R -> ~chi_40 mu-)
#
#         PDG            Width
DECAY   1000015     3.07820401E+01   # stau_1 decays
#          BR         NDA      ID1       ID2
     3.38022809E-01    2     1000022        15   # BR(~tau_1 -> ~chi_10  tau-)
     4.35905068E-02    2     1000023        15   # BR(~tau_1 -> ~chi_20  tau-)
     1.45461858E-01    2     1000025        15   # BR(~tau_1 -> ~chi_30  tau-)
     1.39118667E-01    2     1000035        15   # BR(~tau_1 -> ~chi_40  tau-)
     5.48649466E-02    2    -1000024        16   # BR(~tau_1 -> ~chi_1-  nu_tau)
     2.78941212E-01    2    -1000037        16   # BR(~tau_1 -> ~chi_2-  nu_tau)
#
#         PDG            Width
DECAY   2000015     3.07862398E+01   # stau_2 decays
#          BR         NDA      ID1       ID2
     2.35210585E-01    2     1000022        15   # BR(~tau_2 -> ~chi_10  tau-)
     6.31911485E-02    2     1000023        15   # BR(~tau_2 -> ~chi_20  tau-)
     2.24809620E-01    2     1000025        15   # BR(~tau_2 -> ~chi_30  tau-)
     1.41661086E-01    2     1000035        15   # BR(~tau_2 -> ~chi_40  tau-)
     5.10903128E-02    2    -1000024        16   # BR(~tau_2 -> ~chi_1-  nu_tau)
     2.84037249E-01    2    -1000037        16   # BR(~tau_2 -> ~chi_2-  nu_tau)
#
#         PDG            Width
DECAY   1000012     3.11130775E+01   # snu_eL decays
#          BR         NDA      ID1       ID2
     1.13468987E-01    2     1000022        12   # BR(~nu_eL -> ~chi_10 nu_e)
     1.81139485E-03    2     1000023        12   # BR(~nu_eL -> ~chi_20 nu_e)
     5.04043738E-02    2     1000025        12   # BR(~nu_eL -> ~chi_30 nu_e)
     2.77570489E-01    2     1000035        12   # BR(~nu_eL -> ~chi_40 nu_e)
     3.14117863E-03    2     1000024        11   # BR(~nu_eL -> ~chi_1+ e-)
     5.53603577E-01    2     1000037        11   # BR(~nu_eL -> ~chi_2+ e-)
#
#         PDG            Width
DECAY   1000014     3.11130775E+01   # snu_muL decays
#          BR         NDA      ID1       ID2
     1.13468987E-01    2     1000022        14   # BR(~nu_muL -> ~chi_10 nu_mu)
     1.81139485E-03    2     1000023        14   # BR(~nu_muL -> ~chi_20 nu_mu)
     5.04043738E-02    2     1000025        14   # BR(~nu_muL -> ~chi_30 nu_mu)
     2.77570489E-01    2     1000035        14   # BR(~nu_muL -> ~chi_40 nu_mu)
     3.14117863E-03    2     1000024        13   # BR(~nu_muL -> ~chi_1+ mu-)
     5.53603577E-01    2     1000037        13   # BR(~nu_muL -> ~chi_2+ mu-)
#
#         PDG            Width
DECAY   1000016     3.44106032E+01   # snu_tauL decays
#          BR         NDA      ID1       ID2
     1.02654085E-01    2     1000022        16   # BR(~nu_tauL -> ~chi_10 nu_tau)
     1.63875396E-03    2     1000023        16   # BR(~nu_tauL -> ~chi_20 nu_tau)
     4.56004906E-02    2     1000025        16   # BR(~nu_tauL -> ~chi_30 nu_tau)
     2.51318513E-01    2     1000035        16   # BR(~nu_tauL -> ~chi_40 nu_tau)
     9.75431028E-02    2     1000024        15   # BR(~nu_tauL -> ~chi_1+ tau-)
     5.01245055E-01    2     1000037        15   # BR(~nu_tauL -> ~chi_2+ tau-)
#
#         PDG            Width
DECAY   1000024     7.33629533E-05   # chargino1+ decays
#           BR         NDA      ID1       ID2       ID3
     3.33619866E-01    3     1000022         2        -1   # BR(~chi_1+ -> ~chi_10 u    db)
     3.33619866E-01    3     1000022         4        -3   # BR(~chi_1+ -> ~chi_10 c    sb)
     1.11207976E-01    3     1000022       -11        12   # BR(~chi_1+ -> ~chi_10 e+   nu_e)
     1.11207976E-01    3     1000022       -13        14   # BR(~chi_1+ -> ~chi_10 mu+  nu_mu)
     1.10344317E-01    3     1000022       -15        16   # BR(~chi_1+ -> ~chi_10 tau+ nu_tau)
#
#         PDG            Width
DECAY   1000037     1.67729269E+01   # chargino2+ decays
#          BR         NDA      ID1       ID2
     3.94190196E-02    2     1000006        -5   # BR(~chi_2+ -> ~t_1     bb)
     1.17707627E-03    2     2000006        -5   # BR(~chi_2+ -> ~t_2     bb)
     2.44747176E-01    2     1000024        23   # BR(~chi_2+ -> ~chi_1+  Z )
     6.48399867E-02    2     1000022        24   # BR(~chi_2+ -> ~chi_10  W+)
     2.39186113E-01    2     1000023        24   # BR(~chi_2+ -> ~chi_20  W+)
     1.72686916E-01    2     1000025        24   # BR(~chi_2+ -> ~chi_30  W+)
     2.37943712E-01    2     1000024        25   # BR(~chi_2+ -> ~chi_1+  h )
#
#         PDG            Width
DECAY   1000022     0.00000000E+00   # neutralino1 decays
#
#         PDG            Width
DECAY   1000023     7.82271110E-05   # neutralino2 decays
#          BR         NDA      ID1       ID2
     1.92037846E-04    2     1000022        22   # BR(~chi_20 -> ~chi_10 gam)
#           BR         NDA      ID1       ID2       ID3
     1.18347233E-01    3     1000022        -2         2   # BR(~chi_20 -> ~chi_10 ub      u)
     1.53500180E-01    3     1000022        -1         1   # BR(~chi_20 -> ~chi_10 db      d)
     1.18347233E-01    3     1000022        -4         4   # BR(~chi_20 -> ~chi_10 cb      c)
     1.53500180E-01    3     1000022        -3         3   # BR(~chi_20 -> ~chi_10 sb      s)
     1.39838343E-01    3     1000022        -5         5   # BR(~chi_20 -> ~chi_10 bb      b)
     3.51904477E-02    3     1000022       -11        11   # BR(~chi_20 -> ~chi_10 e+      e-)
     3.51904477E-02    3     1000022       -13        13   # BR(~chi_20 -> ~chi_10 mu+     mu-)
     3.48322456E-02    3     1000022       -15        15   # BR(~chi_20 -> ~chi_10 tau+    tau-)
     7.03520843E-02    3     1000022       -12        12   # BR(~chi_20 -> ~chi_10 nu_eb   nu_e)
     7.03520843E-02    3     1000022       -14        14   # BR(~chi_20 -> ~chi_10 nu_mub  nu_mu)
     7.03520816E-02    3     1000022       -16        16   # BR(~chi_20 -> ~chi_10 nu_taub nu_tau)
     9.95100116E-07    3     1000024        -2         1   # BR(~chi_20 -> ~chi_1+ ub      d)
     9.95100116E-07    3    -1000024        -1         2   # BR(~chi_20 -> ~chi_1- db      u)
     9.95100116E-07    3     1000024        -4         3   # BR(~chi_20 -> ~chi_1+ cb      s)
     9.95100116E-07    3    -1000024        -3         4   # BR(~chi_20 -> ~chi_1- sb      c)
     3.31700418E-07    3     1000024       -12        11   # BR(~chi_20 -> ~chi_1+ nu_eb   e-)
     3.31700418E-07    3    -1000024        12       -11   # BR(~chi_20 -> ~chi_1- nu_e    e+)
     3.31700418E-07    3     1000024       -14        13   # BR(~chi_20 -> ~chi_1+ nu_mub  mu-)
     3.31700418E-07    3    -1000024        14       -13   # BR(~chi_20 -> ~chi_1- nu_mu   mu+)
     4.67070945E-08    3     1000024       -16        15   # BR(~chi_20 -> ~chi_1+ nu_taub tau-)
     4.67070945E-08    3    -1000024        16       -15   # BR(~chi_20 -> ~chi_1- nu_tau  tau+)
#
#         PDG            Width
DECAY   1000025     9.81363468E-06   # neutralino3 decays
#          BR         NDA      ID1       ID2
     3.07359100E-02    2     1000022        22   # BR(~chi_30 -> ~chi_10 gam)
     3.90625701E-02    2     1000023        22   # BR(~chi_30 -> ~chi_20 gam)
#           BR         NDA      ID1       ID2       ID3
     3.11242386E-02    3     1000022        -2         2   # BR(~chi_30 -> ~chi_10 ub      u)
     4.01627445E-02    3     1000022        -1         1   # BR(~chi_30 -> ~chi_10 db      d)
     3.11242386E-02    3     1000022        -4         4   # BR(~chi_30 -> ~chi_10 cb      c)
     4.01627445E-02    3     1000022        -3         3   # BR(~chi_30 -> ~chi_10 sb      s)
     3.83760432E-02    3     1000022        -5         5   # BR(~chi_30 -> ~chi_10 bb      b)
     9.04566895E-03    3     1000022       -11        11   # BR(~chi_30 -> ~chi_10 e+      e-)
     9.04566895E-03    3     1000022       -13        13   # BR(~chi_30 -> ~chi_10 mu+     mu-)
     9.01290284E-03    3     1000022       -15        15   # BR(~chi_30 -> ~chi_10 tau+    tau-)
     1.84866592E-02    3     1000022       -12        12   # BR(~chi_30 -> ~chi_10 nu_eb   nu_e)
     1.84866592E-02    3     1000022       -14        14   # BR(~chi_30 -> ~chi_10 nu_mub  nu_mu)
     1.84865846E-02    3     1000022       -16        16   # BR(~chi_30 -> ~chi_10 nu_taub nu_tau)
     1.30698745E-02    3     1000023        -2         2   # BR(~chi_30 -> ~chi_20 ub      u)
     1.69527452E-02    3     1000023        -1         1   # BR(~chi_30 -> ~chi_20 db      d)
     1.30698745E-02    3     1000023        -4         4   # BR(~chi_30 -> ~chi_20 cb      c)
     1.69527452E-02    3     1000023        -3         3   # BR(~chi_30 -> ~chi_20 sb      s)
     8.49680566E-03    3     1000023        -5         5   # BR(~chi_30 -> ~chi_20 bb      b)
     3.88690683E-03    3     1000023       -11        11   # BR(~chi_30 -> ~chi_20 e+      e-)
     3.88690683E-03    3     1000023       -13        13   # BR(~chi_30 -> ~chi_20 mu+     mu-)
     3.67495505E-03    3     1000023       -15        15   # BR(~chi_30 -> ~chi_20 tau+    tau-)
     7.76924709E-03    3     1000023       -12        12   # BR(~chi_30 -> ~chi_20 nu_eb   nu_e)
     7.76924709E-03    3     1000023       -14        14   # BR(~chi_30 -> ~chi_20 nu_mub  nu_mu)
     7.76924725E-03    3     1000023       -16        16   # BR(~chi_30 -> ~chi_20 nu_taub nu_tau)
     9.42690915E-02    3     1000024        -2         1   # BR(~chi_30 -> ~chi_1+ ub      d)
     9.42690915E-02    3    -1000024        -1         2   # BR(~chi_30 -> ~chi_1- db      u)
     9.42690915E-02    3     1000024        -4         3   # BR(~chi_30 -> ~chi_1+ cb      s)
     9.42690915E-02    3    -1000024        -3         4   # BR(~chi_30 -> ~chi_1- sb      c)
     3.14226254E-02    3     1000024       -12        11   # BR(~chi_30 -> ~chi_1+ nu_eb   e-)
     3.14226254E-02    3    -1000024        12       -11   # BR(~chi_30 -> ~chi_1- nu_e    e+)
     3.14226254E-02    3     1000024       -14        13   # BR(~chi_30 -> ~chi_1+ nu_mub  mu-)
     3.14226254E-02    3    -1000024        14       -13   # BR(~chi_30 -> ~chi_1- nu_mu   mu+)
     3.03109720E-02    3     1000024       -16        15   # BR(~chi_30 -> ~chi_1+ nu_taub tau-)
     3.03109720E-02    3    -1000024        16       -15   # BR(~chi_30 -> ~chi_1- nu_tau  tau+)
#
#         PDG            Width
DECAY   1000035     1.67830569E+01   # neutralino4 decays
#          BR         NDA      ID1       ID2
     2.94129514E-02    2     1000022        23   # BR(~chi_40 -> ~chi_10   Z )
     1.45007192E-01    2     1000023        23   # BR(~chi_40 -> ~chi_20   Z )
     7.00756760E-02    2     1000025        23   # BR(~chi_40 -> ~chi_30   Z )
     2.38426841E-01    2     1000024       -24   # BR(~chi_40 -> ~chi_1+   W-)
     2.38426841E-01    2    -1000024        24   # BR(~chi_40 -> ~chi_1-   W+)
     3.59056544E-02    2     1000022        25   # BR(~chi_40 -> ~chi_10   h )
     9.73722380E-02    2     1000023        25   # BR(~chi_40 -> ~chi_20   h )
     1.03899375E-01    2     1000025        25   # BR(~chi_40 -> ~chi_30   h )
     1.94752631E-02    2     1000006        -6   # BR(~chi_40 -> ~t_1      tb)
     1.94752631E-02    2    -1000006         6   # BR(~chi_40 -> ~t_1*     t )
     1.26135260E-03    2     1000005        -5   # BR(~chi_40 -> ~b_1      bb)
     1.26135260E-03    2    -1000005         5   # BR(~chi_40 -> ~b_1*     b )
#
#         PDG            Width
DECAY        25     3.96745005E-03   # h decays
#          BR         NDA      ID1       ID2
     6.04262090E-01    2           5        -5   # BR(h -> b       bb     )
     6.53631190E-02    2         -15        15   # BR(h -> tau+    tau-   )
     2.31387591E-04    2         -13        13   # BR(h -> mu+     mu-    )
     4.91156195E-04    2           3        -3   # BR(h -> s       sb     )
     2.13318371E-02    2           4        -4   # BR(h -> c       cb     )
     6.88822060E-02    2          21        21   # BR(h -> g       g      )
     2.36997363E-03    2          22        22   # BR(h -> gam     gam    )
     1.56944737E-03    2          22        23   # BR(h -> Z       gam    )
     2.09274563E-01    2          24       -24   # BR(h -> W+      W-     )
     2.62242204E-02    2          23        23   # BR(h -> Z       Z      )
#
#         PDG            Width
DECAY        35     5.46660982E+01   # H decays
#          BR         NDA      ID1       ID2
     3.52261166E-01    2           5        -5   # BR(H -> b       bb     )
     6.06518406E-02    2         -15        15   # BR(H -> tau+    tau-   )
     2.14450218E-04    2         -13        13   # BR(H -> mu+     mu-    )
     2.53657640E-04    2           3        -3   # BR(H -> s       sb     )
     7.11452252E-08    2           4        -4   # BR(H -> c       cb     )
     7.13023279E-03    2           6        -6   # BR(H -> t       tb     )
     7.38178458E-07    2          21        21   # BR(H -> g       g      )
     4.25792291E-10    2          22        22   # BR(H -> gam     gam    )
     1.83497489E-09    2          23        22   # BR(H -> Z       gam    )
     1.77568031E-06    2          24       -24   # BR(H -> W+      W-     )
     8.87225218E-07    2          23        23   # BR(H -> Z       Z      )
     6.70918604E-06    2          25        25   # BR(H -> h       h      )
    -7.57187869E-25    2          36        36   # BR(H -> A       A      )
     1.01670580E-20    2          23        36   # BR(H -> Z       A      )
     1.86195395E-03    2     1000024  -1000024   # BR(H -> ~chi_1+ ~chi_1-)
     1.61515419E-01    2     1000024  -1000037   # BR(H -> ~chi_1+ ~chi_2-)
     1.61515419E-01    2     1000037  -1000024   # BR(H -> ~chi_2+ ~chi_1-)
     2.73384446E-02    2     1000022   1000022   # BR(H -> ~chi_10 ~chi_10)
     8.80044127E-04    2     1000023   1000023   # BR(H -> ~chi_20 ~chi_20)
     1.69863429E-02    2     1000025   1000025   # BR(H -> ~chi_30 ~chi_30)
     2.20058724E-02    2     1000022   1000023   # BR(H -> ~chi_10 ~chi_20)
     3.87025500E-03    2     1000022   1000025   # BR(H -> ~chi_10 ~chi_30)
     3.40891436E-02    2     1000022   1000035   # BR(H -> ~chi_10 ~chi_40)
     1.60324668E-02    2     1000023   1000025   # BR(H -> ~chi_20 ~chi_30)
     7.99676619E-02    2     1000023   1000035   # BR(H -> ~chi_20 ~chi_40)
     4.79374968E-02    2     1000025   1000035   # BR(H -> ~chi_30 ~chi_40)
     2.73312394E-04    2     1000006  -1000006   # BR(H -> ~t_1    ~t_1*  )
     2.60231837E-03    2     1000006  -2000006   # BR(H -> ~t_1    ~t_2*  )
     2.60231837E-03    2     2000006  -1000006   # BR(H -> ~t_2    ~t_1*  )
#
#         PDG            Width
DECAY        36     5.46627919E+01   # A decays
#          BR         NDA      ID1       ID2
     3.52308270E-01    2           5        -5   # BR(A -> b       bb     )
     6.06558177E-02    2         -15        15   # BR(A -> tau+    tau-   )
     2.14464111E-04    2         -13        13   # BR(A -> mu+     mu-    )
     2.53715450E-04    2           3        -3   # BR(A -> s       sb     )
     7.16101726E-08    2           4        -4   # BR(A -> c       cb     )
     7.14439977E-03    2           6        -6   # BR(A -> t       tb     )
     1.46799377E-05    2          21        21   # BR(A -> g       g      )
     5.50800791E-08    2          22        22   # BR(A -> gam     gam    )
     1.61460742E-08    2          23        22   # BR(A -> Z       gam    )
     1.77210639E-06    2          23        25   # BR(A -> Z       h      )
     1.86733571E-03    2     1000024  -1000024   # BR(A -> ~chi_1+ ~chi_1-)
     1.61525957E-01    2     1000024  -1000037   # BR(A -> ~chi_1+ ~chi_2-)
     1.61525957E-01    2     1000037  -1000024   # BR(A -> ~chi_2+ ~chi_1-)
     2.34550345E-02    2     1000022   1000022   # BR(A -> ~chi_10 ~chi_10)
     1.10101704E-03    2     1000023   1000023   # BR(A -> ~chi_20 ~chi_20)
     1.40152844E-02    2     1000025   1000025   # BR(A -> ~chi_30 ~chi_30)
     2.73994038E-02    2     1000022   1000023   # BR(A -> ~chi_10 ~chi_20)
     2.98705252E-03    2     1000022   1000025   # BR(A -> ~chi_10 ~chi_30)
     3.44969706E-02    2     1000022   1000035   # BR(A -> ~chi_10 ~chi_40)
     1.81597707E-02    2     1000023   1000025   # BR(A -> ~chi_20 ~chi_30)
     7.95262390E-02    2     1000023   1000035   # BR(A -> ~chi_20 ~chi_40)
     4.79479026E-02    2     1000025   1000035   # BR(A -> ~chi_30 ~chi_40)
     2.69940615E-03    2     1000006  -2000006   # BR(A -> ~t_1    ~t_2*  )
     2.69940615E-03    2    -1000006   2000006   # BR(A -> ~t_1*   ~t_2   )
#
#         PDG            Width
DECAY        37     5.46018391E+01   # H+ decays
#          BR         NDA      ID1       ID2
     5.62542157E-04    2           4        -5   # BR(H+ -> c       bb     )
     6.07387658E-02    2         -15        16   # BR(H+ -> tau+    nu_tau )
     2.14757395E-04    2         -13        14   # BR(H+ -> mu+     nu_mu  )
     3.60026672E-06    2           2        -5   # BR(H+ -> u       bb     )
     1.21664189E-05    2           2        -3   # BR(H+ -> u       sb     )
     2.50302362E-04    2           4        -3   # BR(H+ -> c       sb     )
     3.58371366E-01    2           6        -5   # BR(H+ -> t       bb     )
     1.77604140E-06    2          24        25   # BR(H+ -> W+      h      )
     2.45493622E-14    2          24        36   # BR(H+ -> W+      A      )
     5.24652695E-02    2     1000024   1000022   # BR(H+ -> ~chi_1+ ~chi_10)
     4.17018374E-06    2     1000024   1000023   # BR(H+ -> ~chi_1+ ~chi_20)
     3.53557403E-02    2     1000024   1000025   # BR(H+ -> ~chi_1+ ~chi_30)
     1.61914029E-01    2     1000024   1000035   # BR(H+ -> ~chi_1+ ~chi_40)
     6.87616723E-02    2     1000037   1000022   # BR(H+ -> ~chi_2+ ~chi_10)
     1.59762263E-01    2     1000037   1000023   # BR(H+ -> ~chi_2+ ~chi_20)
     9.61469346E-02    2     1000037   1000025   # BR(H+ -> ~chi_2+ ~chi_30)
     5.43464448E-03    2     1000006  -1000005   # BR(H+ -> ~t_1    ~b_1*  )
