#
#                              ======================
#                              | THE SUSYHIT OUTPUT |
#                              ======================
#
#
#              ------------------------------------------------------
#              |     This is the output of the SUSY-HIT package     |
#              |  created by A.Djouadi, M.Muehlleitner and M.Spira. |
#              |  In case of problems with SUSY-HIT email to        |
#              |           margarete.muehlleitner@kit.edu           |
#              |           michael.spira@psi.ch                     |
#              |           abdelhak.djouadi@cern.ch                 |
#              ------------------------------------------------------
#
#              ------------------------------------------------------
#              |  SUSY Les Houches Accord - MSSM Spectrum + Decays  |
#              |              based on the decay programs           |
#              |                                                    |
#              |                     SDECAY 1.5                     |
#              |                                                    |
#              |  Authors: M.Muhlleitner, A.Djouadi and Y.Mambrini  |
#              |  Ref.:    Comput.Phys.Commun.168(2005)46           |
#              |           [hep-ph/0311167]                         |
#              |                                                    |
#              |                     HDECAY 3.4                     |
#              |                                                    |
#              |  By: A.Djouadi,J.Kalinowski,M.Muhlleitner,M.Spira  |
#              |  Ref.:    Comput.Phys.Commun.108(1998)56           |
#              |           [hep-ph/9704448]                         |
#              |                                                    |
#              |                                                    |
#              |  If not stated otherwise all DRbar couplings and   |
#              |  soft SUSY breaking masses are given at the scale  |
#              |  Q=  0.13002033E+04
#              |                                                    |
#              ------------------------------------------------------
#
#
BLOCK DCINFO  # Decay Program information
     1   SDECAY/HDECAY # decay calculator
     2   1.5  /3.4    # version number
#
BLOCK SPINFO  # Spectrum calculator information
     1    SOFTSUSY    # spectrum calculator                
     2    3.7.3       # version number                     
#
BLOCK MODSEL  # Model selection
     1     0   #  nonUniversal                                     
#
BLOCK SMINPUTS  # Standard Model inputs
         1     1.27934000E+02   # alpha_em^-1(M_Z)^MSbar
         2     1.16639000E-05   # G_F [GeV^-2]
         3     1.17200000E-01   # alpha_S(M_Z)^MSbar
         4     9.11870000E+01   # M_Z pole mass
         5     4.19000000E+00   # mb(mb)^MSbar
         6     1.72500000E+02   # mt pole mass
         7     1.77690000E+00   # mtau pole mass
#
BLOCK MINPAR  # Input parameters - minimal models
         3     2.00000000E+01   # tanb                
#
BLOCK EXTPAR  # Input parameters - non-minimal models
         0    -1.00000000E+00   # Set                 
         1     1.59990000E+02   # M_1(MX)             
         2     2.00000000E+03   # M_2(MX)             
         3     1.80000000E+03   # M_3(MX)             
        11     2.62959179E+03   # At(MX)              
        12     0.00000000E+00   # Ab(MX)              
        13     0.00000000E+00   # Atau(MX)            
        23    -1.85900000E+02   # mu(MX)              
        25     2.00000000E+01   # tan                 
        26     4.00000000E+03   # mA(pole)            
        31     4.00000000E+03   # meL(MX)             
        32     4.00000000E+03   # mmuL(MX)            
        33     4.00000000E+03   # mtauL(MX)           
        34     4.00000000E+03   # meR(MX)             
        35     4.00000000E+03   # mmuR(MX)            
        36     4.00000000E+03   # mtauR(MX)           
        41     4.00000000E+03   # mqL1(MX)            
        42     4.00000000E+03   # mqL2(MX)            
        43     2.10485961E+03   # mqL3(MX)            
        44     4.00000000E+03   # muR(MX)             
        45     4.00000000E+03   # mcR(MX)             
        46     8.09990000E+02   # mtR(MX)             
        47     4.00000000E+03   # mdR(MX)             
        48     4.00000000E+03   # msR(MX)             
        49     4.00000000E+03   # mbR(MX)             
#
BLOCK MASS  # Mass Spectrum
# PDG code           mass       particle
        24     8.04180787E+01   # W+
        25     1.25720850E+02   # h
        35     4.00000379E+03   # H
        36     3.99999664E+03   # A
        37     4.00105126E+03   # H+
         5     4.81337004E+00   # b-quark pole mass calculated from mb(mb)_Msbar
   1000001     4.02591026E+03   # ~d_L
   2000001     4.02259857E+03   # ~d_R
   1000002     4.02526084E+03   # ~u_L
   2000002     4.02318455E+03   # ~u_R
   1000003     4.02591026E+03   # ~s_L
   2000003     4.02259857E+03   # ~s_R
   1000004     4.02526084E+03   # ~c_L
   2000004     4.02318455E+03   # ~c_R
   1000005     2.13398552E+03   # ~b_1
   2000005     4.02557442E+03   # ~b_2
   1000006     8.36872096E+02   # ~t_1
   2000006     2.14657217E+03   # ~t_2
   1000011     4.00446619E+03   # ~e_L
   2000011     4.00366771E+03   # ~e_R
   1000012     4.00335486E+03   # ~nu_eL
   1000013     4.00446619E+03   # ~mu_L
   2000013     4.00366771E+03   # ~mu_R
   1000014     4.00335486E+03   # ~nu_muL
   1000015     4.00534733E+03   # ~tau_1
   2000015     4.00712271E+03   # ~tau_2
   1000016     4.00480221E+03   # ~nu_tauL
   1000021     1.99193468E+03   # ~g
   1000022     1.44814824E+02   # ~chi_10
   1000023    -1.96287591E+02   # ~chi_20
   1000025     2.10923092E+02   # ~chi_30
   1000035     2.06516738E+03   # ~chi_40
   1000024     1.92302310E+02   # ~chi_1+
   1000037     2.06533820E+03   # ~chi_2+
#
BLOCK NMIX  # Neutralino Mixing Matrix
  1  1     8.15349820E-01   # N_11
  1  2    -1.34469702E-02   # N_12
  1  3    -4.64069399E-01   # N_13
  1  4    -3.45924041E-01   # N_14
  2  1    -9.37941342E-02   # N_21
  2  2     2.63678025E-02   # N_22
  2  3    -6.95910287E-01   # N_23
  2  4     7.11488772E-01   # N_24
  3  1     5.71319941E-01   # N_31
  3  2     2.51373633E-02   # N_32
  3  3     5.48038030E-01   # N_33
  3  4     6.10422767E-01   # N_34
  4  1    -9.25044719E-04   # N_41
  4  2     9.99245731E-01   # N_42
  4  3    -1.66819177E-03   # N_43
  4  4    -3.87856994E-02   # N_44
#
BLOCK UMIX  # Chargino Mixing Matrix U
  1  1     2.36385097E-03   # U_11
  1  2     9.99997206E-01   # U_12
  2  1    -9.99997206E-01   # U_21
  2  2     2.36385097E-03   # U_22
#
BLOCK VMIX  # Chargino Mixing Matrix V
  1  1     5.48639704E-02   # V_11
  1  2    -9.98493838E-01   # V_12
  2  1    -9.98493838E-01   # V_21
  2  2    -5.48639704E-02   # V_22
#
BLOCK STOPMIX  # Stop Mixing Matrix
  1  1    -1.02703528E-01   # cos(theta_t)
  1  2     9.94712011E-01   # sin(theta_t)
  2  1    -9.94712011E-01   # -sin(theta_t)
  2  2    -1.02703528E-01   # cos(theta_t)
#
BLOCK SBOTMIX  # Sbottom Mixing Matrix
  1  1     9.99999697E-01   # cos(theta_b)
  1  2    -7.78459959E-04   # sin(theta_b)
  2  1     7.78459959E-04   # -sin(theta_b)
  2  2     9.99999697E-01   # cos(theta_b)
#
BLOCK STAUMIX  # Stau Mixing Matrix
  1  1    -7.04824366E-01   # cos(theta_tau)
  1  2     7.09381853E-01   # sin(theta_tau)
  2  1    -7.09381853E-01   # -sin(theta_tau)
  2  2    -7.04824366E-01   # cos(theta_tau)
#
BLOCK ALPHA  # Higgs mixing
          -5.00307637E-02   # Mixing angle in the neutral Higgs boson sector
#
BLOCK HMIX Q=  1.30020325E+03  # DRbar Higgs Parameters
         1    -1.85900000E+02   # mu(Q)MSSM           
         2     2.00000000E+01   # tan                 
         3     2.43577401E+02   # higgs               
         4     1.60935655E+07   # mA^2(Q)MSSM         
#
BLOCK GAUGE Q=  1.30020325E+03  # The gauge couplings
     1     3.62149922E-01   # gprime(Q) DRbar
     2     6.36281186E-01   # g(Q) DRbar
     3     1.02945696E+00   # g3(Q) DRbar
#
BLOCK AU Q=  1.30020325E+03  # The trilinear couplings
  1  1     0.00000000E+00   # A_u(Q) DRbar
  2  2     1.35616102E-06   # A_c(Q) DRbar
  3  3     2.62959179E+03   # A_t(Q) DRbar
#
BLOCK AD Q=  1.30020325E+03  # The trilinear couplings
  1  1     4.97048064E-07   # A_d(Q) DRbar
  2  2     4.97094569E-07   # A_s(Q) DRbar
  3  3     8.90450554E-07   # A_b(Q) DRbar
#
BLOCK AE Q=  1.30020325E+03  # The trilinear couplings
  1  1     0.00000000E+00   # A_e(Q) DRbar
  2  2     1.07609200E-07   # A_mu(Q) DRbar
  3  3     1.08718863E-07   # A_tau(Q) DRbar
#
BLOCK Yu Q=  1.30020325E+03  # The Yukawa couplings
  1  1     0.00000000E+00   # y_u(Q) DRbar
  2  2     0.00000000E+00   # y_c(Q) DRbar
  3  3     8.67413300E-01   # y_t(Q) DRbar
#
BLOCK Yd Q=  1.30020325E+03  # The Yukawa couplings
  1  1     0.00000000E+00   # y_d(Q) DRbar
  2  2     0.00000000E+00   # y_s(Q) DRbar
  3  3     2.81594195E-01   # y_b(Q) DRbar
#
BLOCK Ye Q=  1.30020325E+03  # The Yukawa couplings
  1  1     0.00000000E+00   # y_e(Q) DRbar
  2  2     0.00000000E+00   # y_mu(Q) DRbar
  3  3     2.03999953E-01   # y_tau(Q) DRbar
#
BLOCK MSOFT Q=  1.30020325E+03  # The soft SUSY breaking masses at the scale Q
         1     1.59990000E+02   # M_1(Q)              
         2     2.00000000E+03   # M_2(Q)              
         3     1.80000000E+03   # M_3(Q)              
        21     1.58544826E+07   # M^2_Hd              
        22    -1.69832585E+04   # M^2_Hu              
        31     4.00000000E+03   # M_eL                
        32     4.00000000E+03   # M_muL               
        33     4.00000000E+03   # M_tauL              
        34     4.00000000E+03   # M_eR                
        35     4.00000000E+03   # M_muR               
        36     4.00000000E+03   # M_tauR              
        41     4.00000000E+03   # M_q1L               
        42     4.00000000E+03   # M_q2L               
        43     2.10485961E+03   # M_q3L               
        44     4.00000000E+03   # M_uR                
        45     4.00000000E+03   # M_cR                
        46     8.09989995E+02   # M_tR                
        47     4.00000000E+03   # M_dR                
        48     4.00000000E+03   # M_sR                
        49     4.00000000E+03   # M_bR                
#
#
#
#                             =================
#                             |The decay table|
#                             =================
#
# - The QCD corrections to the decays gluino -> squark  + quark
#                                     squark -> gaugino + quark_prime
#                                     squark -> squark_prime + Higgs
#                                     squark -> gluino  + quark
#   are included.
#
# - The multi-body decays for the inos, stops and sbottoms are included.
#
# - The loop induced decays for the gluino, neutralinos and stops
#   are included.
#
# - The SUSY decays of the top quark are included.
#
#
#         PDG            Width
DECAY         6     1.40453380E+00   # top decays
#          BR         NDA      ID1       ID2
     1.00000000E+00    2           5        24   # BR(t ->  b    W+)
#
#         PDG            Width
DECAY   1000021     2.89786613E+01   # gluino decays
#          BR         NDA      ID1       ID2
     5.00000000E-01    2     1000006        -6   # BR(~g -> ~t_1  tb)
     5.00000000E-01    2    -1000006         6   # BR(~g -> ~t_1* t )
#
#         PDG            Width
DECAY   1000006     2.29759954E+01   # stop1 decays
#          BR         NDA      ID1       ID2
     9.05778093E-02    2     1000022         6   # BR(~t_1 -> ~chi_10 t )
     2.21192734E-01    2     1000023         6   # BR(~t_1 -> ~chi_20 t )
     2.10231180E-01    2     1000025         6   # BR(~t_1 -> ~chi_30 t )
     4.77998276E-01    2     1000024         5   # BR(~t_1 -> ~chi_1+ b )
#
#         PDG            Width
DECAY   2000006     6.19788817E+01   # stop2 decays
#          BR         NDA      ID1       ID2
     6.87539703E-02    2     1000022         6   # BR(~t_2 -> ~chi_10 t )
     2.45180528E-01    2     1000023         6   # BR(~t_2 -> ~chi_20 t )
     1.70072931E-01    2     1000025         6   # BR(~t_2 -> ~chi_30 t )
     5.65623111E-02    2     1000024         5   # BR(~t_2 -> ~chi_1+ b )
     1.54324998E-03    2     1000037         5   # BR(~t_2 -> ~chi_2+ b )
     3.05073499E-01    2     1000006        25   # BR(~t_2 -> ~t_1    h )
     1.52813511E-01    2     1000006        23   # BR(~t_2 -> ~t_1    Z )
#
#         PDG            Width
DECAY   1000005     5.13101985E+01   # sbottom1 decays
#          BR         NDA      ID1       ID2
     1.71627017E-02    2     1000022         5   # BR(~b_1 -> ~chi_10 b )
     2.85625468E-02    2     1000023         5   # BR(~b_1 -> ~chi_20 b )
     1.85406540E-02    2     1000025         5   # BR(~b_1 -> ~chi_30 b )
     7.10642388E-04    2     1000035         5   # BR(~b_1 -> ~chi_40 b )
     5.81614878E-01    2    -1000024         6   # BR(~b_1 -> ~chi_1- t )
     5.49629511E-02    2     1000021         5   # BR(~b_1 -> ~g      b )
     2.98445627E-01    2     1000006       -24   # BR(~b_1 -> ~t_1    W-)
#
#         PDG            Width
DECAY   2000005     1.64346975E+02   # sbottom2 decays
#          BR         NDA      ID1       ID2
     1.68902983E-02    2     1000022         5   # BR(~b_2 -> ~chi_10 b )
     1.77093970E-02    2     1000023         5   # BR(~b_2 -> ~chi_20 b )
     1.53528484E-02    2     1000025         5   # BR(~b_2 -> ~chi_30 b )
     1.67885931E-07    2     1000035         5   # BR(~b_2 -> ~chi_40 b )
     3.62188784E-02    2    -1000024         6   # BR(~b_2 -> ~chi_1- t )
     3.23409534E-07    2    -1000037         6   # BR(~b_2 -> ~chi_2- t )
     9.13711299E-01    2     1000021         5   # BR(~b_2 -> ~g      b )
     2.61379708E-05    2     1000005        25   # BR(~b_2 -> ~b_1    h )
     3.30453413E-05    2     1000005        23   # BR(~b_2 -> ~b_1    Z )
     1.51432461E-06    2     1000006       -24   # BR(~b_2 -> ~t_1    W-)
     5.60901910E-05    2     2000006       -24   # BR(~b_2 -> ~t_2    W-)
#
#         PDG            Width
DECAY   1000002     1.76344174E+02   # sup_L decays
#          BR         NDA      ID1       ID2
     1.76197576E-03    2     1000022         2   # BR(~u_L -> ~chi_10 u)
     6.47853581E-06    2     1000023         2   # BR(~u_L -> ~chi_20 u)
     1.57062364E-03    2     1000025         2   # BR(~u_L -> ~chi_30 u)
     4.82640678E-02    2     1000035         2   # BR(~u_L -> ~chi_40 u)
     5.30755362E-04    2     1000024         1   # BR(~u_L -> ~chi_1+ d)
     9.64054750E-02    2     1000037         1   # BR(~u_L -> ~chi_2+ d)
     8.51460624E-01    2     1000021         2   # BR(~u_L -> ~g      u)
#
#         PDG            Width
DECAY   2000002     1.58929378E+02   # sup_R decays
#          BR         NDA      ID1       ID2
     3.75005621E-02    2     1000022         2   # BR(~u_R -> ~chi_10 u)
     4.95276307E-04    2     1000023         2   # BR(~u_R -> ~chi_20 u)
     1.83636633E-02    2     1000025         2   # BR(~u_R -> ~chi_30 u)
     2.64074448E-08    2     1000035         2   # BR(~u_R -> ~chi_40 u)
     9.43640472E-01    2     1000021         2   # BR(~u_R -> ~g      u)
#
#         PDG            Width
DECAY   1000001     1.76363186E+02   # sdown_L decays
#          BR         NDA      ID1       ID2
     2.49699304E-03    2     1000022         1   # BR(~d_L -> ~chi_10 d)
     1.71928791E-04    2     1000023         1   # BR(~d_L -> ~chi_20 d)
     6.10605845E-04    2     1000025         1   # BR(~d_L -> ~chi_30 d)
     4.83116880E-02    2     1000035         1   # BR(~d_L -> ~chi_40 d)
     9.85338165E-07    2    -1000024         2   # BR(~d_L -> ~chi_1- u)
     9.67234320E-02    2    -1000037         2   # BR(~d_L -> ~chi_2- u)
     8.51684367E-01    2     1000021         1   # BR(~d_L -> ~g      d)
#
#         PDG            Width
DECAY   2000001     1.52160936E+02   # sdown_R decays
#          BR         NDA      ID1       ID2
     9.79070569E-03    2     1000022         1   # BR(~d_R -> ~chi_10 d)
     1.29307444E-04    2     1000023         1   # BR(~d_R -> ~chi_20 d)
     4.79441043E-03    2     1000025         1   # BR(~d_R -> ~chi_30 d)
     6.89308669E-09    2     1000035         1   # BR(~d_R -> ~chi_40 d)
     9.85285570E-01    2     1000021         1   # BR(~d_R -> ~g      d)
#
#         PDG            Width
DECAY   1000004     1.76344174E+02   # scharm_L decays
#          BR         NDA      ID1       ID2
     1.76197576E-03    2     1000022         4   # BR(~c_L -> ~chi_10 c)
     6.47853581E-06    2     1000023         4   # BR(~c_L -> ~chi_20 c)
     1.57062364E-03    2     1000025         4   # BR(~c_L -> ~chi_30 c)
     4.82640678E-02    2     1000035         4   # BR(~c_L -> ~chi_40 c)
     5.30755362E-04    2     1000024         3   # BR(~c_L -> ~chi_1+ s)
     9.64054750E-02    2     1000037         3   # BR(~c_L -> ~chi_2+ s)
     8.51460624E-01    2     1000021         4   # BR(~c_L -> ~g      c)
#
#         PDG            Width
DECAY   2000004     1.58929378E+02   # scharm_R decays
#          BR         NDA      ID1       ID2
     3.75005621E-02    2     1000022         4   # BR(~c_R -> ~chi_10 c)
     4.95276307E-04    2     1000023         4   # BR(~c_R -> ~chi_20 c)
     1.83636633E-02    2     1000025         4   # BR(~c_R -> ~chi_30 c)
     2.64074448E-08    2     1000035         4   # BR(~c_R -> ~chi_40 c)
     9.43640472E-01    2     1000021         4   # BR(~c_R -> ~g      c)
#
#         PDG            Width
DECAY   1000003     1.76363186E+02   # sstrange_L decays
#          BR         NDA      ID1       ID2
     2.49699304E-03    2     1000022         3   # BR(~s_L -> ~chi_10 s)
     1.71928791E-04    2     1000023         3   # BR(~s_L -> ~chi_20 s)
     6.10605845E-04    2     1000025         3   # BR(~s_L -> ~chi_30 s)
     4.83116880E-02    2     1000035         3   # BR(~s_L -> ~chi_40 s)
     9.85338165E-07    2    -1000024         4   # BR(~s_L -> ~chi_1- c)
     9.67234320E-02    2    -1000037         4   # BR(~s_L -> ~chi_2- c)
     8.51684367E-01    2     1000021         3   # BR(~s_L -> ~g      s)
#
#         PDG            Width
DECAY   2000003     1.52160936E+02   # sstrange_R decays
#          BR         NDA      ID1       ID2
     9.79070569E-03    2     1000022         3   # BR(~s_R -> ~chi_10 s)
     1.29307444E-04    2     1000023         3   # BR(~s_R -> ~chi_20 s)
     4.79441043E-03    2     1000025         3   # BR(~s_R -> ~chi_30 s)
     6.89308669E-09    2     1000035         3   # BR(~s_R -> ~chi_40 s)
     9.85285570E-01    2     1000021         3   # BR(~s_R -> ~g      s)
#
#         PDG            Width
DECAY   1000011     3.12892195E+01   # selectron_L decays
#          BR         NDA      ID1       ID2
     1.04384952E-01    2     1000022        11   # BR(~e_L -> ~chi_10 e-)
     3.74388536E-04    2     1000023        11   # BR(~e_L -> ~chi_20 e-)
     6.28997488E-02    2     1000025        11   # BR(~e_L -> ~chi_30 e-)
     2.76994355E-01    2     1000035        11   # BR(~e_L -> ~chi_40 e-)
     5.73341029E-06    2    -1000024        12   # BR(~e_L -> ~chi_1- nu_e)
     5.55340822E-01    2    -1000037        12   # BR(~e_L -> ~chi_2- nu_e)
#
#         PDG            Width
DECAY   2000011     2.08177067E+01   # selectron_R decays
#          BR         NDA      ID1       ID2
     6.65446132E-01    2     1000022        11   # BR(~e_R -> ~chi_10 e-)
     8.78664621E-03    2     1000023        11   # BR(~e_R -> ~chi_20 e-)
     3.25766759E-01    2     1000025        11   # BR(~e_R -> ~chi_30 e-)
     4.62591723E-07    2     1000035        11   # BR(~e_R -> ~chi_40 e-)
#
#         PDG            Width
DECAY   1000013     3.12892195E+01   # smuon_L decays
#          BR         NDA      ID1       ID2
     1.04384952E-01    2     1000022        13   # BR(~mu_L -> ~chi_10 mu-)
     3.74388536E-04    2     1000023        13   # BR(~mu_L -> ~chi_20 mu-)
     6.28997488E-02    2     1000025        13   # BR(~mu_L -> ~chi_30 mu-)
     2.76994355E-01    2     1000035        13   # BR(~mu_L -> ~chi_40 mu-)
     5.73341029E-06    2    -1000024        14   # BR(~mu_L -> ~chi_1- nu_mu)
     5.55340822E-01    2    -1000037        14   # BR(~mu_L -> ~chi_2- nu_mu)
#
#         PDG            Width
DECAY   2000013     2.08177067E+01   # smuon_R decays
#          BR         NDA      ID1       ID2
     6.65446132E-01    2     1000022        13   # BR(~mu_R -> ~chi_10 mu-)
     8.78664621E-03    2     1000023        13   # BR(~mu_R -> ~chi_20 mu-)
     3.25766759E-01    2     1000025        13   # BR(~mu_R -> ~chi_30 mu-)
     4.62591723E-07    2     1000035        13   # BR(~mu_R -> ~chi_40 mu-)
#
#         PDG            Width
DECAY   1000015     3.10145612E+01   # stau_1 decays
#          BR         NDA      ID1       ID2
     3.52273396E-01    2     1000022        15   # BR(~tau_1 -> ~chi_10  tau-)
     4.16632095E-02    2     1000023        15   # BR(~tau_1 -> ~chi_20  tau-)
     1.34983131E-01    2     1000025        15   # BR(~tau_1 -> ~chi_30  tau-)
     1.38686239E-01    2     1000035        15   # BR(~tau_1 -> ~chi_40  tau-)
     5.43447712E-02    2    -1000024        16   # BR(~tau_1 -> ~chi_1-  nu_tau)
     2.78049253E-01    2    -1000037        16   # BR(~tau_1 -> ~chi_2-  nu_tau)
#
#         PDG            Width
DECAY   2000015     3.10415115E+01   # stau_2 decays
#          BR         NDA      ID1       ID2
     2.45742879E-01    2     1000022        15   # BR(~tau_2 -> ~chi_10  tau-)
     6.76528489E-02    2     1000023        15   # BR(~tau_2 -> ~chi_20  tau-)
     2.11021428E-01    2     1000025        15   # BR(~tau_2 -> ~chi_30  tau-)
     1.40942337E-01    2     1000035        15   # BR(~tau_2 -> ~chi_40  tau-)
     5.20675627E-02    2    -1000024        16   # BR(~tau_2 -> ~chi_1-  nu_tau)
     2.82572945E-01    2    -1000037        16   # BR(~tau_2 -> ~chi_2-  nu_tau)
#
#         PDG            Width
DECAY   1000012     3.13000870E+01   # snu_eL decays
#          BR         NDA      ID1       ID2
     1.17143119E-01    2     1000022        12   # BR(~nu_eL -> ~chi_10 nu_e)
     3.26041176E-03    2     1000023        12   # BR(~nu_eL -> ~chi_20 nu_e)
     4.61123478E-02    2     1000025        12   # BR(~nu_eL -> ~chi_30 nu_e)
     2.77293769E-01    2     1000035        12   # BR(~nu_eL -> ~chi_40 nu_e)
     3.08656076E-03    2     1000024        11   # BR(~nu_eL -> ~chi_1+ e-)
     5.53103791E-01    2     1000037        11   # BR(~nu_eL -> ~chi_2+ e-)
#
#         PDG            Width
DECAY   1000014     3.13000870E+01   # snu_muL decays
#          BR         NDA      ID1       ID2
     1.17143119E-01    2     1000022        14   # BR(~nu_muL -> ~chi_10 nu_mu)
     3.26041176E-03    2     1000023        14   # BR(~nu_muL -> ~chi_20 nu_mu)
     4.61123478E-02    2     1000025        14   # BR(~nu_muL -> ~chi_30 nu_mu)
     2.77293769E-01    2     1000035        14   # BR(~nu_muL -> ~chi_40 nu_mu)
     3.08656076E-03    2     1000024        13   # BR(~nu_muL -> ~chi_1+ mu-)
     5.53103791E-01    2     1000037        13   # BR(~nu_muL -> ~chi_2+ mu-)
#
#         PDG            Width
DECAY   1000016     3.46254545E+01   # snu_tauL decays
#          BR         NDA      ID1       ID2
     1.05931385E-01    2     1000022        16   # BR(~nu_tauL -> ~chi_10 nu_tau)
     2.94836338E-03    2     1000023        16   # BR(~nu_tauL -> ~chi_20 nu_tau)
     4.16990373E-02    2     1000025        16   # BR(~nu_tauL -> ~chi_30 nu_tau)
     2.50885023E-01    2     1000035        16   # BR(~nu_tauL -> ~chi_40 nu_tau)
     9.81090752E-02    2     1000024        15   # BR(~nu_tauL -> ~chi_1+ tau-)
     5.00427115E-01    2     1000037        15   # BR(~nu_tauL -> ~chi_2+ tau-)
#
#         PDG            Width
DECAY   1000024     8.64528421E-05   # chargino1+ decays
#           BR         NDA      ID1       ID2       ID3
     3.33584756E-01    3     1000022         2        -1   # BR(~chi_1+ -> ~chi_10 u    db)
     3.33584756E-01    3     1000022         4        -3   # BR(~chi_1+ -> ~chi_10 c    sb)
     1.11195962E-01    3     1000022       -11        12   # BR(~chi_1+ -> ~chi_10 e+   nu_e)
     1.11195962E-01    3     1000022       -13        14   # BR(~chi_1+ -> ~chi_10 mu+  nu_mu)
     1.10438563E-01    3     1000022       -15        16   # BR(~chi_1+ -> ~chi_10 tau+ nu_tau)
#
#         PDG            Width
DECAY   1000037     1.68420789E+01   # chargino2+ decays
#          BR         NDA      ID1       ID2
     3.65309020E-02    2     1000006        -5   # BR(~chi_2+ -> ~t_1     bb)
     2.45586383E-01    2     1000024        23   # BR(~chi_2+ -> ~chi_1+  Z )
     5.15326801E-02    2     1000022        24   # BR(~chi_2+ -> ~chi_10  W+)
     2.40757419E-01    2     1000023        24   # BR(~chi_2+ -> ~chi_20  W+)
     1.85796504E-01    2     1000025        24   # BR(~chi_2+ -> ~chi_30  W+)
     2.39796112E-01    2     1000024        25   # BR(~chi_2+ -> ~chi_1+  h )
#
#         PDG            Width
DECAY   1000022     0.00000000E+00   # neutralino1 decays
#
#         PDG            Width
DECAY   1000023     9.50765026E-05   # neutralino2 decays
#          BR         NDA      ID1       ID2
     7.59069853E-04    2     1000022        22   # BR(~chi_20 -> ~chi_10 gam)
#           BR         NDA      ID1       ID2       ID3
     1.18045293E-01    3     1000022        -2         2   # BR(~chi_20 -> ~chi_10 ub      u)
     1.53131477E-01    3     1000022        -1         1   # BR(~chi_20 -> ~chi_10 db      d)
     1.18045293E-01    3     1000022        -4         4   # BR(~chi_20 -> ~chi_10 cb      c)
     1.53131477E-01    3     1000022        -3         3   # BR(~chi_20 -> ~chi_10 sb      s)
     1.41181168E-01    3     1000022        -5         5   # BR(~chi_20 -> ~chi_10 bb      b)
     3.51187351E-02    3     1000022       -11        11   # BR(~chi_20 -> ~chi_10 e+      e-)
     3.51187351E-02    3     1000022       -13        13   # BR(~chi_20 -> ~chi_10 mu+     mu-)
     3.47906141E-02    3     1000022       -15        15   # BR(~chi_20 -> ~chi_10 tau+    tau-)
     7.02185512E-02    3     1000022       -12        12   # BR(~chi_20 -> ~chi_10 nu_eb   nu_e)
     7.02185512E-02    3     1000022       -14        14   # BR(~chi_20 -> ~chi_10 nu_mub  nu_mu)
     7.02185488E-02    3     1000022       -16        16   # BR(~chi_20 -> ~chi_10 nu_taub nu_tau)
     4.02412347E-06    3     1000024        -2         1   # BR(~chi_20 -> ~chi_1+ ub      d)
     4.02412347E-06    3    -1000024        -1         2   # BR(~chi_20 -> ~chi_1- db      u)
     4.02412347E-06    3     1000024        -4         3   # BR(~chi_20 -> ~chi_1+ cb      s)
     4.02412347E-06    3    -1000024        -3         4   # BR(~chi_20 -> ~chi_1- sb      c)
     1.34137678E-06    3     1000024       -12        11   # BR(~chi_20 -> ~chi_1+ nu_eb   e-)
     1.34137678E-06    3    -1000024        12       -11   # BR(~chi_20 -> ~chi_1- nu_e    e+)
     1.34137678E-06    3     1000024       -14        13   # BR(~chi_20 -> ~chi_1+ nu_mub  mu-)
     1.34137678E-06    3    -1000024        14       -13   # BR(~chi_20 -> ~chi_1- nu_mu   mu+)
     5.11970361E-07    3     1000024       -16        15   # BR(~chi_20 -> ~chi_1+ nu_taub tau-)
     5.11970361E-07    3    -1000024        16       -15   # BR(~chi_20 -> ~chi_1- nu_tau  tau+)
#
#         PDG            Width
DECAY   1000025     1.25752706E-05   # neutralino3 decays
#          BR         NDA      ID1       ID2
     1.70885080E-02    2     1000022        22   # BR(~chi_30 -> ~chi_10 gam)
     4.96368326E-02    2     1000023        22   # BR(~chi_30 -> ~chi_20 gam)
#           BR         NDA      ID1       ID2       ID3
     7.62787253E-02    3     1000022        -2         2   # BR(~chi_30 -> ~chi_10 ub      u)
     9.86937824E-02    3     1000022        -1         1   # BR(~chi_30 -> ~chi_10 db      d)
     7.62787253E-02    3     1000022        -4         4   # BR(~chi_30 -> ~chi_10 cb      c)
     9.86937824E-02    3     1000022        -3         3   # BR(~chi_30 -> ~chi_10 sb      s)
     9.40464303E-02    3     1000022        -5         5   # BR(~chi_30 -> ~chi_10 bb      b)
     2.24303331E-02    3     1000022       -11        11   # BR(~chi_30 -> ~chi_10 e+      e-)
     2.24303331E-02    3     1000022       -13        13   # BR(~chi_30 -> ~chi_10 mu+     mu-)
     2.22817118E-02    3     1000022       -15        15   # BR(~chi_30 -> ~chi_10 tau+    tau-)
     4.53535186E-02    3     1000022       -12        12   # BR(~chi_30 -> ~chi_10 nu_eb   nu_e)
     4.53535186E-02    3     1000022       -14        14   # BR(~chi_30 -> ~chi_10 nu_mub  nu_mu)
     4.53534589E-02    3     1000022       -16        16   # BR(~chi_30 -> ~chi_10 nu_taub nu_tau)
     3.80823861E-03    3     1000023        -2         2   # BR(~chi_30 -> ~chi_20 ub      u)
     4.94046650E-03    3     1000023        -1         1   # BR(~chi_30 -> ~chi_20 db      d)
     3.80823861E-03    3     1000023        -4         4   # BR(~chi_30 -> ~chi_20 cb      c)
     4.94046650E-03    3     1000023        -3         3   # BR(~chi_30 -> ~chi_20 sb      s)
     1.58020443E-03    3     1000023        -5         5   # BR(~chi_30 -> ~chi_20 bb      b)
     1.13324824E-03    3     1000023       -11        11   # BR(~chi_30 -> ~chi_20 e+      e-)
     1.13324824E-03    3     1000023       -13        13   # BR(~chi_30 -> ~chi_20 mu+     mu-)
     1.04106675E-03    3     1000023       -15        15   # BR(~chi_30 -> ~chi_20 tau+    tau-)
     2.26525255E-03    3     1000023       -12        12   # BR(~chi_30 -> ~chi_20 nu_eb   nu_e)
     2.26525255E-03    3     1000023       -14        14   # BR(~chi_30 -> ~chi_20 nu_mub  nu_mu)
     2.26525258E-03    3     1000023       -16        16   # BR(~chi_30 -> ~chi_20 nu_taub nu_tau)
     4.30264197E-02    3     1000024        -2         1   # BR(~chi_30 -> ~chi_1+ ub      d)
     4.30264197E-02    3    -1000024        -1         2   # BR(~chi_30 -> ~chi_1- db      u)
     4.30264197E-02    3     1000024        -4         3   # BR(~chi_30 -> ~chi_1+ cb      s)
     4.30264197E-02    3    -1000024        -3         4   # BR(~chi_30 -> ~chi_1- sb      c)
     1.43419551E-02    3     1000024       -12        11   # BR(~chi_30 -> ~chi_1+ nu_eb   e-)
     1.43419551E-02    3    -1000024        12       -11   # BR(~chi_30 -> ~chi_1- nu_e    e+)
     1.43419551E-02    3     1000024       -14        13   # BR(~chi_30 -> ~chi_1+ nu_mub  mu-)
     1.43419551E-02    3    -1000024        14       -13   # BR(~chi_30 -> ~chi_1- nu_mu   mu+)
     1.37129523E-02    3     1000024       -16        15   # BR(~chi_30 -> ~chi_1+ nu_taub tau-)
     1.37129523E-02    3    -1000024        16       -15   # BR(~chi_30 -> ~chi_1- nu_tau  tau+)
#
#         PDG            Width
DECAY   1000035     1.68276974E+01   # neutralino4 decays
#          BR         NDA      ID1       ID2
     2.64502564E-02    2     1000022        23   # BR(~chi_40 -> ~chi_10   Z )
     1.34886235E-01    2     1000023        23   # BR(~chi_40 -> ~chi_20   Z )
     8.43482356E-02    2     1000025        23   # BR(~chi_40 -> ~chi_30   Z )
     2.39480189E-01    2     1000024       -24   # BR(~chi_40 -> ~chi_1+   W-)
     2.39480189E-01    2    -1000024        24   # BR(~chi_40 -> ~chi_1-   W+)
     2.57999517E-02    2     1000022        25   # BR(~chi_40 -> ~chi_10   h )
     1.09537942E-01    2     1000023        25   # BR(~chi_40 -> ~chi_20   h )
     1.03987398E-01    2     1000025        25   # BR(~chi_40 -> ~chi_30   h )
     1.80148019E-02    2     1000006        -6   # BR(~chi_40 -> ~t_1      tb)
     1.80148019E-02    2    -1000006         6   # BR(~chi_40 -> ~t_1*     t )
#
#         PDG            Width
DECAY        25     4.08031775E-03   # h decays
#          BR         NDA      ID1       ID2
     5.93048341E-01    2           5        -5   # BR(h -> b       bb     )
     6.39578320E-02    2         -15        15   # BR(h -> tau+    tau-   )
     2.26409491E-04    2         -13        13   # BR(h -> mu+     mu-    )
     4.80015144E-04    2           3        -3   # BR(h -> s       sb     )
     2.08443580E-02    2           4        -4   # BR(h -> c       cb     )
     6.81490251E-02    2          21        21   # BR(h -> g       g      )
     2.36400680E-03    2          22        22   # BR(h -> gam     gam    )
     1.63357850E-03    2          22        23   # BR(h -> Z       gam    )
     2.21244255E-01    2          24       -24   # BR(h -> W+      W-     )
     2.80521788E-02    2          23        23   # BR(h -> Z       Z      )
#
#         PDG            Width
DECAY        35     5.41604165E+01   # H decays
#          BR         NDA      ID1       ID2
     3.42600276E-01    2           5        -5   # BR(H -> b       bb     )
     6.12180709E-02    2         -15        15   # BR(H -> tau+    tau-   )
     2.16452271E-04    2         -13        13   # BR(H -> mu+     mu-    )
     2.56025741E-04    2           3        -3   # BR(H -> s       sb     )
     7.18217945E-08    2           4        -4   # BR(H -> c       cb     )
     7.19803909E-03    2           6        -6   # BR(H -> t       tb     )
     1.01920054E-06    2          21        21   # BR(H -> g       g      )
     2.75835011E-11    2          22        22   # BR(H -> gam     gam    )
     1.84795068E-09    2          23        22   # BR(H -> Z       gam    )
     2.02594566E-06    2          24       -24   # BR(H -> W+      W-     )
     1.01227109E-06    2          23        23   # BR(H -> Z       Z      )
     7.44213206E-06    2          25        25   # BR(H -> h       h      )
     1.32280534E-24    2          36        36   # BR(H -> A       A      )
     4.40364825E-20    2          23        36   # BR(H -> Z       A      )
     1.86439398E-03    2     1000024  -1000024   # BR(H -> ~chi_1+ ~chi_1-)
     1.65527003E-01    2     1000024  -1000037   # BR(H -> ~chi_1+ ~chi_2-)
     1.65527003E-01    2     1000037  -1000024   # BR(H -> ~chi_2+ ~chi_1-)
     2.90264368E-02    2     1000022   1000022   # BR(H -> ~chi_10 ~chi_10)
     1.57289824E-03    2     1000023   1000023   # BR(H -> ~chi_20 ~chi_20)
     1.61722592E-02    2     1000025   1000025   # BR(H -> ~chi_30 ~chi_30)
     2.10293955E-02    2     1000022   1000023   # BR(H -> ~chi_10 ~chi_20)
     4.83108199E-03    2     1000022   1000025   # BR(H -> ~chi_10 ~chi_30)
     3.65430913E-02    2     1000022   1000035   # BR(H -> ~chi_10 ~chi_40)
     1.63585060E-02    2     1000023   1000025   # BR(H -> ~chi_20 ~chi_30)
     7.77414543E-02    2     1000023   1000035   # BR(H -> ~chi_20 ~chi_40)
     5.17324923E-02    2     1000025   1000035   # BR(H -> ~chi_30 ~chi_40)
     8.95348499E-05    2     1000006  -1000006   # BR(H -> ~t_1    ~t_1*  )
     2.42006414E-04    2     1000006  -2000006   # BR(H -> ~t_1    ~t_2*  )
     2.42006414E-04    2     2000006  -1000006   # BR(H -> ~t_2    ~t_1*  )
#
#         PDG            Width
DECAY        36     5.41565573E+01   # A decays
#          BR         NDA      ID1       ID2
     3.42650678E-01    2           5        -5   # BR(A -> b       bb     )
     6.12228155E-02    2         -15        15   # BR(A -> tau+    tau-   )
     2.16468877E-04    2         -13        13   # BR(A -> mu+     mu-    )
     2.56087124E-04    2           3        -3   # BR(A -> s       sb     )
     7.22795678E-08    2           4        -4   # BR(A -> c       cb     )
     7.21118395E-03    2           6        -6   # BR(A -> t       tb     )
     1.48171591E-05    2          21        21   # BR(A -> g       g      )
     4.72381035E-08    2          22        22   # BR(A -> gam     gam    )
     1.62905402E-08    2          23        22   # BR(A -> Z       gam    )
     2.02182074E-06    2          23        25   # BR(A -> Z       h      )
     1.86580082E-03    2     1000024  -1000024   # BR(A -> ~chi_1+ ~chi_1-)
     1.65542451E-01    2     1000024  -1000037   # BR(A -> ~chi_1+ ~chi_2-)
     1.65542451E-01    2     1000037  -1000024   # BR(A -> ~chi_2+ ~chi_1-)
     2.51355730E-02    2     1000022   1000022   # BR(A -> ~chi_10 ~chi_10)
     1.94933324E-03    2     1000023   1000023   # BR(A -> ~chi_20 ~chi_20)
     1.30842355E-02    2     1000025   1000025   # BR(A -> ~chi_30 ~chi_30)
     2.68200721E-02    2     1000022   1000023   # BR(A -> ~chi_10 ~chi_20)
     3.58497600E-03    2     1000022   1000025   # BR(A -> ~chi_10 ~chi_30)
     3.51216750E-02    2     1000022   1000035   # BR(A -> ~chi_10 ~chi_40)
     1.84201262E-02    2     1000023   1000025   # BR(A -> ~chi_20 ~chi_30)
     8.29742885E-02    2     1000023   1000035   # BR(A -> ~chi_20 ~chi_40)
     4.78723124E-02    2     1000025   1000035   # BR(A -> ~chi_30 ~chi_40)
     2.56248417E-04    2     1000006  -2000006   # BR(A -> ~t_1    ~t_2*  )
     2.56248417E-04    2    -1000006   2000006   # BR(A -> ~t_1*   ~t_2   )
#
#         PDG            Width
DECAY        37     5.40269816E+01   # H+ decays
#          BR         NDA      ID1       ID2
     5.45712860E-04    2           4        -5   # BR(H+ -> c       bb     )
     6.13858298E-02    2         -15        16   # BR(H+ -> tau+    nu_tau )
     2.17045255E-04    2         -13        14   # BR(H+ -> mu+     nu_mu  )
     3.49255929E-06    2           2        -5   # BR(H+ -> u       bb     )
     1.22960107E-05    2           2        -3   # BR(H+ -> u       sb     )
     2.52968481E-04    2           4        -3   # BR(H+ -> c       sb     )
     3.47935603E-01    2           6        -5   # BR(H+ -> t       bb     )
     2.02898304E-06    2          24        25   # BR(H+ -> W+      h      )
     3.17754909E-14    2          24        36   # BR(H+ -> W+      A      )
     5.60856202E-02    2     1000024   1000022   # BR(H+ -> ~chi_1+ ~chi_10)
     1.47918672E-04    2     1000024   1000023   # BR(H+ -> ~chi_1+ ~chi_20)
     3.35819438E-02    2     1000024   1000025   # BR(H+ -> ~chi_1+ ~chi_30)
     1.66154914E-01    2     1000024   1000035   # BR(H+ -> ~chi_1+ ~chi_40)
     7.19243615E-02    2     1000037   1000022   # BR(H+ -> ~chi_2+ ~chi_10)
     1.61247474E-01    2     1000037   1000023   # BR(H+ -> ~chi_2+ ~chi_20)
     9.99753200E-02    2     1000037   1000025   # BR(H+ -> ~chi_2+ ~chi_30)
     5.27470718E-04    2     1000006  -1000005   # BR(H+ -> ~t_1    ~b_1*  )
