#
#                              ======================
#                              | THE SUSYHIT OUTPUT |
#                              ======================
#
#
#              ------------------------------------------------------
#              |     This is the output of the SUSY-HIT package     |
#              |  created by A.Djouadi, M.Muehlleitner and M.Spira. |
#              |  In case of problems with SUSY-HIT email to        |
#              |           margarete.muehlleitner@kit.edu           |
#              |           michael.spira@psi.ch                     |
#              |           abdelhak.djouadi@cern.ch                 |
#              ------------------------------------------------------
#
#              ------------------------------------------------------
#              |  SUSY Les Houches Accord - MSSM Spectrum + Decays  |
#              |              based on the decay programs           |
#              |                                                    |
#              |                     SDECAY 1.5                     |
#              |                                                    |
#              |  Authors: M.Muhlleitner, A.Djouadi and Y.Mambrini  |
#              |  Ref.:    Comput.Phys.Commun.168(2005)46           |
#              |           [hep-ph/0311167]                         |
#              |                                                    |
#              |                     HDECAY 3.4                     |
#              |                                                    |
#              |  By: A.Djouadi,J.Kalinowski,M.Muhlleitner,M.Spira  |
#              |  Ref.:    Comput.Phys.Commun.108(1998)56           |
#              |           [hep-ph/9704448]                         |
#              |                                                    |
#              |                                                    |
#              |  If not stated otherwise all DRbar couplings and   |
#              |  soft SUSY breaking masses are given at the scale  |
#              |  Q=  0.13067643E+04
#              |                                                    |
#              ------------------------------------------------------
#
#
BLOCK DCINFO  # Decay Program information
     1   SDECAY/HDECAY # decay calculator
     2   1.5  /3.4    # version number
#
BLOCK SPINFO  # Spectrum calculator information
     1    SOFTSUSY    # spectrum calculator                
     2    3.7.3       # version number                     
#
BLOCK MODSEL  # Model selection
     1     0   #  nonUniversal                                     
#
BLOCK SMINPUTS  # Standard Model inputs
         1     1.27934000E+02   # alpha_em^-1(M_Z)^MSbar
         2     1.16639000E-05   # G_F [GeV^-2]
         3     1.17200000E-01   # alpha_S(M_Z)^MSbar
         4     9.11870000E+01   # M_Z pole mass
         5     4.19000000E+00   # mb(mb)^MSbar
         6     1.72500000E+02   # mt pole mass
         7     1.77690000E+00   # mtau pole mass
#
BLOCK MINPAR  # Input parameters - minimal models
         3     2.00000000E+01   # tanb                
#
BLOCK EXTPAR  # Input parameters - non-minimal models
         0    -1.00000000E+00   # Set                 
         1     3.09990000E+02   # M_1(MX)             
         2     2.00000000E+03   # M_2(MX)             
         3     1.80000000E+03   # M_3(MX)             
        11     2.62959179E+03   # At(MX)              
        12     0.00000000E+00   # Ab(MX)              
        13     0.00000000E+00   # Atau(MX)            
        23    -3.32900000E+02   # mu(MX)              
        25     2.00000000E+01   # tan                 
        26     4.00000000E+03   # mA(pole)            
        31     4.00000000E+03   # meL(MX)             
        32     4.00000000E+03   # mmuL(MX)            
        33     4.00000000E+03   # mtauL(MX)           
        34     4.00000000E+03   # meR(MX)             
        35     4.00000000E+03   # mmuR(MX)            
        36     4.00000000E+03   # mtauR(MX)           
        41     4.00000000E+03   # mqL1(MX)            
        42     4.00000000E+03   # mqL2(MX)            
        43     2.00485961E+03   # mqL3(MX)            
        44     4.00000000E+03   # muR(MX)             
        45     4.00000000E+03   # mcR(MX)             
        46     8.59990000E+02   # mtR(MX)             
        47     4.00000000E+03   # mdR(MX)             
        48     4.00000000E+03   # msR(MX)             
        49     4.00000000E+03   # mbR(MX)             
#
BLOCK MASS  # Mass Spectrum
# PDG code           mass       particle
        24     8.04195325E+01   # W+
        25     1.25821436E+02   # h
        35     4.00000867E+03   # H
        36     3.99999693E+03   # A
        37     4.00103965E+03   # H+
         5     4.81337004E+00   # b-quark pole mass calculated from mb(mb)_Msbar
   1000001     4.02607791E+03   # ~d_L
   2000001     4.02272569E+03   # ~d_R
   1000002     4.02542968E+03   # ~u_L
   2000002     4.02333121E+03   # ~u_R
   1000003     4.02607791E+03   # ~s_L
   2000003     4.02272569E+03   # ~s_R
   1000004     4.02542968E+03   # ~c_L
   2000004     4.02333121E+03   # ~c_R
   1000005     2.03550258E+03   # ~b_1
   2000005     4.02566121E+03   # ~b_2
   1000006     8.79540291E+02   # ~t_1
   2000006     2.05005640E+03   # ~t_2
   1000011     4.00450492E+03   # ~e_L
   2000011     4.00359842E+03   # ~e_R
   1000012     4.00339559E+03   # ~nu_eL
   1000013     4.00450492E+03   # ~mu_L
   2000013     4.00359842E+03   # ~mu_R
   1000014     4.00339559E+03   # ~nu_muL
   1000015     4.00468606E+03   # ~tau_1
   2000015     4.00767278E+03   # ~tau_2
   1000016     4.00481593E+03   # ~nu_tauL
   1000021     1.99057851E+03   # ~g
   1000022     2.94564387E+02   # ~chi_10
   1000023    -3.44140683E+02   # ~chi_20
   1000025     3.60553855E+02   # ~chi_30
   1000035     2.06375861E+03   # ~chi_40
   1000024     3.41532360E+02   # ~chi_1+
   1000037     2.06393820E+03   # ~chi_2+
#
BLOCK NMIX  # Neutralino Mixing Matrix
  1  1     8.10181664E-01   # N_11
  1  2    -1.62770629E-02   # N_12
  1  3    -4.44276078E-01   # N_13
  1  4    -3.82046458E-01   # N_14
  2  1    -5.07326052E-02   # N_21
  2  2     2.46323464E-02   # N_22
  2  3    -7.03035736E-01   # N_23
  2  4     7.08914807E-01   # N_24
  3  1     5.83978457E-01   # N_31
  3  2     2.64639040E-02   # N_32
  3  3     5.55282130E-01   # N_33
  3  4     5.91549305E-01   # N_34
  4  1    -1.01810936E-03   # N_41
  4  2     9.99213674E-01   # N_42
  4  3    -4.61264991E-03   # N_43
  4  4    -3.93664882E-02   # N_44
#
BLOCK UMIX  # Chargino Mixing Matrix U
  1  1     6.52877155E-03   # U_11
  1  2     9.99978687E-01   # U_12
  2  1    -9.99978687E-01   # U_21
  2  2     6.52877155E-03   # U_22
#
BLOCK VMIX  # Chargino Mixing Matrix V
  1  1     5.56836289E-02   # V_11
  1  2    -9.98448463E-01   # V_12
  2  1    -9.98448463E-01   # V_21
  2  2    -5.56836289E-02   # V_22
#
BLOCK STOPMIX  # Stop Mixing Matrix
  1  1    -1.17936177E-01   # cos(theta_t)
  1  2     9.93021177E-01   # sin(theta_t)
  2  1    -9.93021177E-01   # -sin(theta_t)
  2  2    -1.17936177E-01   # cos(theta_t)
#
BLOCK SBOTMIX  # Sbottom Mixing Matrix
  1  1     9.99999071E-01   # cos(theta_b)
  1  2    -1.36308442E-03   # sin(theta_b)
  2  1     1.36308442E-03   # -sin(theta_b)
  2  2     9.99999071E-01   # cos(theta_b)
#
BLOCK STAUMIX  # Stau Mixing Matrix
  1  1    -7.05889749E-01   # cos(theta_tau)
  1  2     7.08321722E-01   # sin(theta_tau)
  2  1    -7.08321722E-01   # -sin(theta_tau)
  2  2    -7.05889749E-01   # cos(theta_tau)
#
BLOCK ALPHA  # Higgs mixing
          -5.00275273E-02   # Mixing angle in the neutral Higgs boson sector
#
BLOCK HMIX Q=  1.30676430E+03  # DRbar Higgs Parameters
         1    -3.32900000E+02   # mu(Q)MSSM           
         2     2.00000000E+01   # tan                 
         3     2.43611544E+02   # higgs               
         4     1.61152031E+07   # mA^2(Q)MSSM         
#
BLOCK GAUGE Q=  1.30676430E+03  # The gauge couplings
     1     3.62043574E-01   # gprime(Q) DRbar
     2     6.35677868E-01   # g(Q) DRbar
     3     1.02938168E+00   # g3(Q) DRbar
#
BLOCK AU Q=  1.30676430E+03  # The trilinear couplings
  1  1     0.00000000E+00   # A_u(Q) DRbar
  2  2     1.37157769E-06   # A_c(Q) DRbar
  3  3     2.62959179E+03   # A_t(Q) DRbar
#
BLOCK AD Q=  1.30676430E+03  # The trilinear couplings
  1  1     5.04517481E-07   # A_d(Q) DRbar
  2  2     5.04564457E-07   # A_s(Q) DRbar
  3  3     9.02995251E-07   # A_b(Q) DRbar
#
BLOCK AE Q=  1.30676430E+03  # The trilinear couplings
  1  1     0.00000000E+00   # A_e(Q) DRbar
  2  2     1.11116738E-07   # A_mu(Q) DRbar
  3  3     1.12260556E-07   # A_tau(Q) DRbar
#
BLOCK Yu Q=  1.30676430E+03  # The Yukawa couplings
  1  1     0.00000000E+00   # y_u(Q) DRbar
  2  2     0.00000000E+00   # y_c(Q) DRbar
  3  3     8.67490924E-01   # y_t(Q) DRbar
#
BLOCK Yd Q=  1.30676430E+03  # The Yukawa couplings
  1  1     0.00000000E+00   # y_d(Q) DRbar
  2  2     0.00000000E+00   # y_s(Q) DRbar
  3  3     2.85020987E-01   # y_b(Q) DRbar
#
BLOCK Ye Q=  1.30676430E+03  # The Yukawa couplings
  1  1     0.00000000E+00   # y_e(Q) DRbar
  2  2     0.00000000E+00   # y_mu(Q) DRbar
  3  3     2.03465834E-01   # y_tau(Q) DRbar
#
BLOCK MSOFT Q=  1.30676430E+03  # The soft SUSY breaking masses at the scale Q
         1     3.09990000E+02   # M_1(Q)              
         2     2.00000000E+03   # M_2(Q)              
         3     1.80000000E+03   # M_3(Q)              
        21     1.57795631E+07   # M^2_Hd              
        22    -8.10322822E+04   # M^2_Hu              
        31     4.00000000E+03   # M_eL                
        32     4.00000000E+03   # M_muL               
        33     4.00000000E+03   # M_tauL              
        34     4.00000000E+03   # M_eR                
        35     4.00000000E+03   # M_muR               
        36     4.00000000E+03   # M_tauR              
        41     4.00000000E+03   # M_q1L               
        42     4.00000000E+03   # M_q2L               
        43     2.00485961E+03   # M_q3L               
        44     4.00000000E+03   # M_uR                
        45     4.00000000E+03   # M_cR                
        46     8.59989996E+02   # M_tR                
        47     4.00000000E+03   # M_dR                
        48     4.00000000E+03   # M_sR                
        49     4.00000000E+03   # M_bR                
#
#
#
#                             =================
#                             |The decay table|
#                             =================
#
# - The QCD corrections to the decays gluino -> squark  + quark
#                                     squark -> gaugino + quark_prime
#                                     squark -> squark_prime + Higgs
#                                     squark -> gluino  + quark
#   are included.
#
# - The multi-body decays for the inos, stops and sbottoms are included.
#
# - The loop induced decays for the gluino, neutralinos and stops
#   are included.
#
# - The SUSY decays of the top quark are included.
#
#
#         PDG            Width
DECAY         6     1.40180804E+00   # top decays
#          BR         NDA      ID1       ID2
     1.00000000E+00    2           5        24   # BR(t ->  b    W+)
#
#         PDG            Width
DECAY   1000021     2.77568351E+01   # gluino decays
#          BR         NDA      ID1       ID2
     5.00000000E-01    2     1000006        -6   # BR(~g -> ~t_1  tb)
     5.00000000E-01    2    -1000006         6   # BR(~g -> ~t_1* t )
#
#         PDG            Width
DECAY   1000006     1.91978790E+01   # stop1 decays
#          BR         NDA      ID1       ID2
     9.60514745E-02    2     1000022         6   # BR(~t_1 -> ~chi_10 t )
     2.13992803E-01    2     1000023         6   # BR(~t_1 -> ~chi_20 t )
     2.09951061E-01    2     1000025         6   # BR(~t_1 -> ~chi_30 t )
     4.80004662E-01    2     1000024         5   # BR(~t_1 -> ~chi_1+ b )
#
#         PDG            Width
DECAY   2000006     6.42224560E+01   # stop2 decays
#          BR         NDA      ID1       ID2
     7.60274601E-02    2     1000022         6   # BR(~t_2 -> ~chi_10 t )
     2.19294614E-01    2     1000023         6   # BR(~t_2 -> ~chi_20 t )
     1.40883385E-01    2     1000025         6   # BR(~t_2 -> ~chi_30 t )
     5.42679466E-02    2     1000024         5   # BR(~t_2 -> ~chi_1+ b )
     3.00189613E-01    2     1000006        25   # BR(~t_2 -> ~t_1    h )
     2.09336982E-01    2     1000006        23   # BR(~t_2 -> ~t_1    Z )
#
#         PDG            Width
DECAY   1000005     2.85609603E+01   # sbottom1 decays
#          BR         NDA      ID1       ID2
     2.74914643E-02    2     1000022         5   # BR(~b_1 -> ~chi_10 b )
     4.90784970E-02    2     1000023         5   # BR(~b_1 -> ~chi_20 b )
     3.20140323E-02    2     1000025         5   # BR(~b_1 -> ~chi_30 b )
     9.54179849E-01    2    -1000024         6   # BR(~b_1 -> ~chi_1- t )
     1.13457000E-02    2     1000021         5   # BR(~b_1 -> ~g      b )
    -7.41095430E-02    2     1000006       -24   # BR(~b_1 -> ~t_1    W-)
#
#         PDG            Width
DECAY   2000005     1.64327809E+02   # sbottom2 decays
#          BR         NDA      ID1       ID2
     1.61663100E-02    2     1000022         5   # BR(~b_2 -> ~chi_10 b )
     1.82759947E-02    2     1000023         5   # BR(~b_2 -> ~chi_20 b )
     1.59760248E-02    2     1000025         5   # BR(~b_2 -> ~chi_30 b )
     9.14701388E-07    2     1000035         5   # BR(~b_2 -> ~chi_40 b )
     3.68005582E-02    2    -1000024         6   # BR(~b_2 -> ~chi_1- t )
     1.81218981E-06    2    -1000037         6   # BR(~b_2 -> ~chi_2- t )
     9.12348139E-01    2     1000021         5   # BR(~b_2 -> ~g      b )
     9.07528906E-05    2     1000005        25   # BR(~b_2 -> ~b_1    h )
     1.21990062E-04    2     1000005        23   # BR(~b_2 -> ~b_1    Z )
     6.49390741E-06    2     1000006       -24   # BR(~b_2 -> ~t_1    W-)
     2.11009890E-04    2     2000006       -24   # BR(~b_2 -> ~t_2    W-)
#
#         PDG            Width
DECAY   1000002     1.76083363E+02   # sup_L decays
#          BR         NDA      ID1       ID2
     1.65744678E-03    2     1000022         2   # BR(~u_L -> ~chi_10 u)
     1.96440586E-05    2     1000023         2   # BR(~u_L -> ~chi_20 u)
     1.64409156E-03    2     1000025         2   # BR(~u_L -> ~chi_30 u)
     4.82912039E-02    2     1000035         2   # BR(~u_L -> ~chi_40 u)
     5.41466840E-04    2     1000024         1   # BR(~u_L -> ~chi_1+ d)
     9.64599692E-02    2     1000037         1   # BR(~u_L -> ~chi_2+ d)
     8.51386178E-01    2     1000021         2   # BR(~u_L -> ~g      u)
#
#         PDG            Width
DECAY   2000002     1.58612643E+02   # sup_R decays
#          BR         NDA      ID1       ID2
     3.68010617E-02    2     1000022         2   # BR(~u_R -> ~chi_10 u)
     1.43759636E-04    2     1000023         2   # BR(~u_R -> ~chi_20 u)
     1.90219786E-02    2     1000025         2   # BR(~u_R -> ~chi_30 u)
     3.20674575E-08    2     1000035         2   # BR(~u_R -> ~chi_40 u)
     9.44033168E-01    2     1000021         2   # BR(~u_R -> ~g      u)
#
#         PDG            Width
DECAY   1000001     1.76102434E+02   # sdown_L decays
#          BR         NDA      ID1       ID2
     2.53509491E-03    2     1000022         1   # BR(~d_L -> ~chi_10 d)
     1.02492058E-04    2     1000023         1   # BR(~d_L -> ~chi_20 d)
     6.21054273E-04    2     1000025         1   # BR(~d_L -> ~chi_30 d)
     4.83422121E-02    2     1000035         1   # BR(~d_L -> ~chi_40 d)
     7.44399188E-06    2    -1000024         2   # BR(~d_L -> ~chi_1- u)
     9.67831556E-02    2    -1000037         2   # BR(~d_L -> ~chi_2- u)
     8.51608547E-01    2     1000021         1   # BR(~d_L -> ~g      d)
#
#         PDG            Width
DECAY   2000001     1.51902756E+02   # sdown_R decays
#          BR         NDA      ID1       ID2
     9.60515912E-03    2     1000022         1   # BR(~d_R -> ~chi_10 d)
     3.75215429E-05    2     1000023         1   # BR(~d_R -> ~chi_20 d)
     4.96477112E-03    2     1000025         1   # BR(~d_R -> ~chi_30 d)
     8.36793095E-09    2     1000035         1   # BR(~d_R -> ~chi_40 d)
     9.85392540E-01    2     1000021         1   # BR(~d_R -> ~g      d)
#
#         PDG            Width
DECAY   1000004     1.76083363E+02   # scharm_L decays
#          BR         NDA      ID1       ID2
     1.65744678E-03    2     1000022         4   # BR(~c_L -> ~chi_10 c)
     1.96440586E-05    2     1000023         4   # BR(~c_L -> ~chi_20 c)
     1.64409156E-03    2     1000025         4   # BR(~c_L -> ~chi_30 c)
     4.82912039E-02    2     1000035         4   # BR(~c_L -> ~chi_40 c)
     5.41466840E-04    2     1000024         3   # BR(~c_L -> ~chi_1+ s)
     9.64599692E-02    2     1000037         3   # BR(~c_L -> ~chi_2+ s)
     8.51386178E-01    2     1000021         4   # BR(~c_L -> ~g      c)
#
#         PDG            Width
DECAY   2000004     1.58612643E+02   # scharm_R decays
#          BR         NDA      ID1       ID2
     3.68010617E-02    2     1000022         4   # BR(~c_R -> ~chi_10 c)
     1.43759636E-04    2     1000023         4   # BR(~c_R -> ~chi_20 c)
     1.90219786E-02    2     1000025         4   # BR(~c_R -> ~chi_30 c)
     3.20674575E-08    2     1000035         4   # BR(~c_R -> ~chi_40 c)
     9.44033168E-01    2     1000021         4   # BR(~c_R -> ~g      c)
#
#         PDG            Width
DECAY   1000003     1.76102434E+02   # sstrange_L decays
#          BR         NDA      ID1       ID2
     2.53509491E-03    2     1000022         3   # BR(~s_L -> ~chi_10 s)
     1.02492058E-04    2     1000023         3   # BR(~s_L -> ~chi_20 s)
     6.21054273E-04    2     1000025         3   # BR(~s_L -> ~chi_30 s)
     4.83422121E-02    2     1000035         3   # BR(~s_L -> ~chi_40 s)
     7.44399188E-06    2    -1000024         4   # BR(~s_L -> ~chi_1- c)
     9.67831556E-02    2    -1000037         4   # BR(~s_L -> ~chi_2- c)
     8.51608547E-01    2     1000021         3   # BR(~s_L -> ~g      s)
#
#         PDG            Width
DECAY   2000003     1.51902756E+02   # sstrange_R decays
#          BR         NDA      ID1       ID2
     9.60515912E-03    2     1000022         3   # BR(~s_R -> ~chi_10 s)
     3.75215429E-05    2     1000023         3   # BR(~s_R -> ~chi_20 s)
     4.96477112E-03    2     1000025         3   # BR(~s_R -> ~chi_30 s)
     8.36793095E-09    2     1000035         3   # BR(~s_R -> ~chi_40 s)
     9.85392540E-01    2     1000021         3   # BR(~s_R -> ~g      s)
#
#         PDG            Width
DECAY   1000011     3.12164068E+01   # selectron_L decays
#          BR         NDA      ID1       ID2
     1.01075732E-01    2     1000022        11   # BR(~e_L -> ~chi_10 e-)
     9.22787929E-06    2     1000023        11   # BR(~e_L -> ~chi_20 e-)
     6.54049472E-02    2     1000025        11   # BR(~e_L -> ~chi_30 e-)
     2.77347254E-01    2     1000035        11   # BR(~e_L -> ~chi_40 e-)
     4.33203634E-05    2    -1000024        12   # BR(~e_L -> ~chi_1- nu_e)
     5.56119519E-01    2    -1000037        12   # BR(~e_L -> ~chi_2- nu_e)
#
#         PDG            Width
DECAY   2000011     2.06162700E+01   # selectron_R decays
#          BR         NDA      ID1       ID2
     6.57616023E-01    2     1000022        11   # BR(~e_R -> ~chi_10 e-)
     2.56835444E-03    2     1000023        11   # BR(~e_R -> ~chi_20 e-)
     3.39815057E-01    2     1000025        11   # BR(~e_R -> ~chi_30 e-)
     5.66030593E-07    2     1000035        11   # BR(~e_R -> ~chi_40 e-)
#
#         PDG            Width
DECAY   1000013     3.12164068E+01   # smuon_L decays
#          BR         NDA      ID1       ID2
     1.01075732E-01    2     1000022        13   # BR(~mu_L -> ~chi_10 mu-)
     9.22787929E-06    2     1000023        13   # BR(~mu_L -> ~chi_20 mu-)
     6.54049472E-02    2     1000025        13   # BR(~mu_L -> ~chi_30 mu-)
     2.77347254E-01    2     1000035        13   # BR(~mu_L -> ~chi_40 mu-)
     4.33203634E-05    2    -1000024        14   # BR(~mu_L -> ~chi_1- nu_mu)
     5.56119519E-01    2    -1000037        14   # BR(~mu_L -> ~chi_2- nu_mu)
#
#         PDG            Width
DECAY   2000013     2.06162700E+01   # smuon_R decays
#          BR         NDA      ID1       ID2
     6.57616023E-01    2     1000022        13   # BR(~mu_R -> ~chi_10 mu-)
     2.56835444E-03    2     1000023        13   # BR(~mu_R -> ~chi_20 mu-)
     3.39815057E-01    2     1000025        13   # BR(~mu_R -> ~chi_30 mu-)
     5.66030593E-07    2     1000035        13   # BR(~mu_R -> ~chi_40 mu-)
#
#         PDG            Width
DECAY   1000015     3.08362043E+01   # stau_1 decays
#          BR         NDA      ID1       ID2
     3.42119636E-01    2     1000022        15   # BR(~tau_1 -> ~chi_10  tau-)
     4.41899725E-02    2     1000023        15   # BR(~tau_1 -> ~chi_20  tau-)
     1.39929498E-01    2     1000025        15   # BR(~tau_1 -> ~chi_30  tau-)
     1.39329478E-01    2     1000035        15   # BR(~tau_1 -> ~chi_40  tau-)
     5.50557021E-02    2    -1000024        16   # BR(~tau_1 -> ~chi_1-  nu_tau)
     2.79375713E-01    2    -1000037        16   # BR(~tau_1 -> ~chi_2-  nu_tau)
#
#         PDG            Width
DECAY   2000015     3.07946905E+01   # stau_2 decays
#          BR         NDA      ID1       ID2
     2.42278506E-01    2     1000022        15   # BR(~tau_2 -> ~chi_10  tau-)
     6.18448667E-02    2     1000023        15   # BR(~tau_2 -> ~chi_20  tau-)
     2.18891072E-01    2     1000025        15   # BR(~tau_2 -> ~chi_30  tau-)
     1.41919531E-01    2     1000035        15   # BR(~tau_2 -> ~chi_40  tau-)
     5.04999327E-02    2    -1000024        16   # BR(~tau_2 -> ~chi_1-  nu_tau)
     2.84566091E-01    2    -1000037        16   # BR(~tau_2 -> ~chi_2-  nu_tau)
#
#         PDG            Width
DECAY   1000012     3.12273014E+01   # snu_eL decays
#          BR         NDA      ID1       ID2
     1.16326109E-01    2     1000022        12   # BR(~nu_eL -> ~chi_10 nu_e)
     1.45467114E-03    2     1000023        12   # BR(~nu_eL -> ~chi_20 nu_e)
     4.75138087E-02    2     1000025        12   # BR(~nu_eL -> ~chi_30 nu_e)
     2.77706456E-01    2     1000035        12   # BR(~nu_eL -> ~chi_40 nu_e)
     3.14926213E-03    2     1000024        11   # BR(~nu_eL -> ~chi_1+ e-)
     5.53849694E-01    2     1000037        11   # BR(~nu_eL -> ~chi_2+ e-)
#
#         PDG            Width
DECAY   1000014     3.12273014E+01   # snu_muL decays
#          BR         NDA      ID1       ID2
     1.16326109E-01    2     1000022        14   # BR(~nu_muL -> ~chi_10 nu_mu)
     1.45467114E-03    2     1000023        14   # BR(~nu_muL -> ~chi_20 nu_mu)
     4.75138087E-02    2     1000025        14   # BR(~nu_muL -> ~chi_30 nu_mu)
     2.77706456E-01    2     1000035        14   # BR(~nu_muL -> ~chi_40 nu_mu)
     3.14926213E-03    2     1000024        13   # BR(~nu_muL -> ~chi_1+ mu-)
     5.53849694E-01    2     1000037        13   # BR(~nu_muL -> ~chi_2+ mu-)
#
#         PDG            Width
DECAY   1000016     3.45022705E+01   # snu_tauL decays
#          BR         NDA      ID1       ID2
     1.05322555E-01    2     1000022        16   # BR(~nu_tauL -> ~chi_10 nu_tau)
     1.31707419E-03    2     1000023        16   # BR(~nu_tauL -> ~chi_20 nu_tau)
     4.30195352E-02    2     1000025        16   # BR(~nu_tauL -> ~chi_30 nu_tau)
     2.51564711E-01    2     1000035        16   # BR(~nu_tauL -> ~chi_40 nu_tau)
     9.70621821E-02    2     1000024        15   # BR(~nu_tauL -> ~chi_1+ tau-)
     5.01713942E-01    2     1000037        15   # BR(~nu_tauL -> ~chi_2+ tau-)
#
#         PDG            Width
DECAY   1000024     9.54839892E-05   # chargino1+ decays
#           BR         NDA      ID1       ID2       ID3
     3.33590298E-01    3     1000022         2        -1   # BR(~chi_1+ -> ~chi_10 u    db)
     3.33590298E-01    3     1000022         4        -3   # BR(~chi_1+ -> ~chi_10 c    sb)
     1.11198180E-01    3     1000022       -11        12   # BR(~chi_1+ -> ~chi_10 e+   nu_e)
     1.11198180E-01    3     1000022       -13        14   # BR(~chi_1+ -> ~chi_10 mu+  nu_mu)
     1.10423045E-01    3     1000022       -15        16   # BR(~chi_1+ -> ~chi_10 tau+ nu_tau)
#
#         PDG            Width
DECAY   1000037     1.66284909E+01   # chargino2+ decays
#          BR         NDA      ID1       ID2
     4.24135211E-02    2     1000006        -5   # BR(~chi_2+ -> ~t_1     bb)
     3.70783878E-04    2     2000006        -5   # BR(~chi_2+ -> ~t_2     bb)
     2.43874240E-01    2     1000024        23   # BR(~chi_2+ -> ~chi_1+  Z )
     6.29573693E-02    2     1000022        24   # BR(~chi_2+ -> ~chi_10  W+)
     2.37904491E-01    2     1000023        24   # BR(~chi_2+ -> ~chi_20  W+)
     1.73898996E-01    2     1000025        24   # BR(~chi_2+ -> ~chi_30  W+)
     2.38580598E-01    2     1000024        25   # BR(~chi_2+ -> ~chi_1+  h )
#
#         PDG            Width
DECAY   1000022     0.00000000E+00   # neutralino1 decays
#
#         PDG            Width
DECAY   1000023     9.78734575E-05   # neutralino2 decays
#          BR         NDA      ID1       ID2
     4.18105991E-04    2     1000022        22   # BR(~chi_20 -> ~chi_10 gam)
#           BR         NDA      ID1       ID2       ID3
     1.18140151E-01    3     1000022        -2         2   # BR(~chi_20 -> ~chi_10 ub      u)
     1.53273012E-01    3     1000022        -1         1   # BR(~chi_20 -> ~chi_10 db      d)
     1.18140151E-01    3     1000022        -4         4   # BR(~chi_20 -> ~chi_10 cb      c)
     1.53273012E-01    3     1000022        -3         3   # BR(~chi_20 -> ~chi_10 sb      s)
     1.40690276E-01    3     1000022        -5         5   # BR(~chi_20 -> ~chi_10 bb      b)
     3.51625952E-02    3     1000022       -11        11   # BR(~chi_20 -> ~chi_10 e+      e-)
     3.51625952E-02    3     1000022       -13        13   # BR(~chi_20 -> ~chi_10 mu+     mu-)
     3.48281937E-02    3     1000022       -15        15   # BR(~chi_20 -> ~chi_10 tau+    tau-)
     7.03031095E-02    3     1000022       -12        12   # BR(~chi_20 -> ~chi_10 nu_eb   nu_e)
     7.03031095E-02    3     1000022       -14        14   # BR(~chi_20 -> ~chi_10 nu_mub  nu_mu)
     7.03031079E-02    3     1000022       -16        16   # BR(~chi_20 -> ~chi_10 nu_taub nu_tau)
     4.79037768E-07    3     1000024        -2         1   # BR(~chi_20 -> ~chi_1+ ub      d)
     4.79037768E-07    3    -1000024        -1         2   # BR(~chi_20 -> ~chi_1- db      u)
     4.79037768E-07    3     1000024        -4         3   # BR(~chi_20 -> ~chi_1+ cb      s)
     4.79037768E-07    3    -1000024        -3         4   # BR(~chi_20 -> ~chi_1- sb      c)
     1.59679414E-07    3     1000024       -12        11   # BR(~chi_20 -> ~chi_1+ nu_eb   e-)
     1.59679414E-07    3    -1000024        12       -11   # BR(~chi_20 -> ~chi_1- nu_e    e+)
     1.59679414E-07    3     1000024       -14        13   # BR(~chi_20 -> ~chi_1+ nu_mub  mu-)
     1.59679414E-07    3    -1000024        14       -13   # BR(~chi_20 -> ~chi_1- nu_mu   mu+)
     1.27558994E-08    3     1000024       -16        15   # BR(~chi_20 -> ~chi_1+ nu_taub tau-)
     1.27558994E-08    3    -1000024        16       -15   # BR(~chi_20 -> ~chi_1- nu_tau  tau+)
#
#         PDG            Width
DECAY   1000025     7.46405581E-06   # neutralino3 decays
#          BR         NDA      ID1       ID2
     6.13010560E-02    2     1000022        22   # BR(~chi_30 -> ~chi_10 gam)
     3.78901333E-02    2     1000023        22   # BR(~chi_30 -> ~chi_20 gam)
#           BR         NDA      ID1       ID2       ID3
     3.72377862E-02    3     1000022        -2         2   # BR(~chi_30 -> ~chi_10 ub      u)
     4.80411560E-02    3     1000022        -1         1   # BR(~chi_30 -> ~chi_10 db      d)
     3.72377862E-02    3     1000022        -4         4   # BR(~chi_30 -> ~chi_10 cb      c)
     4.80411560E-02    3     1000022        -3         3   # BR(~chi_30 -> ~chi_10 sb      s)
     4.60378075E-02    3     1000022        -5         5   # BR(~chi_30 -> ~chi_10 bb      b)
     1.08084115E-02    3     1000022       -11        11   # BR(~chi_30 -> ~chi_10 e+      e-)
     1.08084115E-02    3     1000022       -13        13   # BR(~chi_30 -> ~chi_10 mu+     mu-)
     1.07862534E-02    3     1000022       -15        15   # BR(~chi_30 -> ~chi_10 tau+    tau-)
     2.21389401E-02    3     1000022       -12        12   # BR(~chi_30 -> ~chi_10 nu_eb   nu_e)
     2.21389401E-02    3     1000022       -14        14   # BR(~chi_30 -> ~chi_10 nu_mub  nu_mu)
     2.21388787E-02    3     1000022       -16        16   # BR(~chi_30 -> ~chi_10 nu_taub nu_tau)
     1.16370019E-02    3     1000023        -2         2   # BR(~chi_30 -> ~chi_20 ub      u)
     1.50981721E-02    3     1000023        -1         1   # BR(~chi_30 -> ~chi_20 db      d)
     1.16370019E-02    3     1000023        -4         4   # BR(~chi_30 -> ~chi_20 cb      c)
     1.50981721E-02    3     1000023        -3         3   # BR(~chi_30 -> ~chi_20 sb      s)
     6.45282726E-03    3     1000023        -5         5   # BR(~chi_30 -> ~chi_20 bb      b)
     3.46400768E-03    3     1000023       -11        11   # BR(~chi_30 -> ~chi_20 e+      e-)
     3.46400768E-03    3     1000023       -13        13   # BR(~chi_30 -> ~chi_20 mu+     mu-)
     3.24025279E-03    3     1000023       -15        15   # BR(~chi_30 -> ~chi_20 tau+    tau-)
     6.92479185E-03    3     1000023       -12        12   # BR(~chi_30 -> ~chi_20 nu_eb   nu_e)
     6.92479185E-03    3     1000023       -14        14   # BR(~chi_30 -> ~chi_20 nu_mub  nu_mu)
     6.92479193E-03    3     1000023       -16        16   # BR(~chi_30 -> ~chi_20 nu_taub nu_tau)
     8.28084230E-02    3     1000024        -2         1   # BR(~chi_30 -> ~chi_1+ ub      d)
     8.28084230E-02    3    -1000024        -1         2   # BR(~chi_30 -> ~chi_1- db      u)
     8.28084230E-02    3     1000024        -4         3   # BR(~chi_30 -> ~chi_1+ cb      s)
     8.28084230E-02    3    -1000024        -3         4   # BR(~chi_30 -> ~chi_1- sb      c)
     2.76024766E-02    3     1000024       -12        11   # BR(~chi_30 -> ~chi_1+ nu_eb   e-)
     2.76024766E-02    3    -1000024        12       -11   # BR(~chi_30 -> ~chi_1- nu_e    e+)
     2.76024766E-02    3     1000024       -14        13   # BR(~chi_30 -> ~chi_1+ nu_mub  mu-)
     2.76024766E-02    3    -1000024        14       -13   # BR(~chi_30 -> ~chi_1- nu_mu   mu+)
     2.64419331E-02    3     1000024       -16        15   # BR(~chi_30 -> ~chi_1+ nu_taub tau-)
     2.64419331E-02    3    -1000024        16       -15   # BR(~chi_30 -> ~chi_1- nu_tau  tau+)
#
#         PDG            Width
DECAY   1000035     1.66293145E+01   # neutralino4 decays
#          BR         NDA      ID1       ID2
     2.68892134E-02    2     1000022        23   # BR(~chi_40 -> ~chi_10   Z )
     1.50547261E-01    2     1000023        23   # BR(~chi_40 -> ~chi_20   Z )
     6.63694835E-02    2     1000025        23   # BR(~chi_40 -> ~chi_30   Z )
     2.37507805E-01    2     1000024       -24   # BR(~chi_40 -> ~chi_1+   W-)
     2.37507805E-01    2    -1000024        24   # BR(~chi_40 -> ~chi_1-   W+)
     3.67641177E-02    2     1000022        25   # BR(~chi_40 -> ~chi_10   h )
     9.15590868E-02    2     1000023        25   # BR(~chi_40 -> ~chi_20   h )
     1.09534634E-01    2     1000025        25   # BR(~chi_40 -> ~chi_30   h )
     2.08673064E-02    2     1000006        -6   # BR(~chi_40 -> ~t_1      tb)
     2.08673064E-02    2    -1000006         6   # BR(~chi_40 -> ~t_1*     t )
     7.92990905E-04    2     1000005        -5   # BR(~chi_40 -> ~b_1      bb)
     7.92990905E-04    2    -1000005         5   # BR(~chi_40 -> ~b_1*     b )
#
#         PDG            Width
DECAY        25     4.07729666E-03   # h decays
#          BR         NDA      ID1       ID2
     5.89901093E-01    2           5        -5   # BR(h -> b       bb     )
     6.40482734E-02    2         -15        15   # BR(h -> tau+    tau-   )
     2.26729218E-04    2         -13        13   # BR(h -> mu+     mu-    )
     4.80619033E-04    2           3        -3   # BR(h -> s       sb     )
     2.08732438E-02    2           4        -4   # BR(h -> c       cb     )
     6.82401123E-02    2          21        21   # BR(h -> g       g      )
     2.37627065E-03    2          22        22   # BR(h -> gam     gam    )
     1.64937512E-03    2          22        23   # BR(h -> Z       gam    )
     2.23781664E-01    2          24       -24   # BR(h -> W+      W-     )
     2.84226204E-02    2          23        23   # BR(h -> Z       Z      )
#
#         PDG            Width
DECAY        35     5.45814845E+01   # H decays
#          BR         NDA      ID1       ID2
     3.54062999E-01    2           5        -5   # BR(H -> b       bb     )
     6.07458988E-02    2         -15        15   # BR(H -> tau+    tau-   )
     2.14782785E-04    2         -13        13   # BR(H -> mu+     mu-    )
     2.54050988E-04    2           3        -3   # BR(H -> s       sb     )
     7.12585899E-08    2           4        -4   # BR(H -> c       cb     )
     7.14159436E-03    2           6        -6   # BR(H -> t       tb     )
     8.38637389E-07    2          21        21   # BR(H -> g       g      )
     8.60729482E-10    2          22        22   # BR(H -> gam     gam    )
     1.83667314E-09    2          23        22   # BR(H -> Z       gam    )
     1.83453526E-06    2          24       -24   # BR(H -> W+      W-     )
     9.16632266E-07    2          23        23   # BR(H -> Z       Z      )
     7.04201514E-06    2          25        25   # BR(H -> h       h      )
     1.09703717E-24    2          36        36   # BR(H -> A       A      )
     5.98940932E-20    2          23        36   # BR(H -> Z       A      )
     1.86223292E-03    2     1000024  -1000024   # BR(H -> ~chi_1+ ~chi_1-)
     1.60480339E-01    2     1000024  -1000037   # BR(H -> ~chi_1+ ~chi_2-)
     1.60480339E-01    2     1000037  -1000024   # BR(H -> ~chi_2+ ~chi_1-)
     2.60358985E-02    2     1000022   1000022   # BR(H -> ~chi_10 ~chi_10)
     7.07936765E-04    2     1000023   1000023   # BR(H -> ~chi_20 ~chi_20)
     1.64895847E-02    2     1000025   1000025   # BR(H -> ~chi_30 ~chi_30)
     2.33226235E-02    2     1000022   1000023   # BR(H -> ~chi_10 ~chi_20)
     5.06691983E-03    2     1000022   1000025   # BR(H -> ~chi_10 ~chi_30)
     3.10751154E-02    2     1000022   1000035   # BR(H -> ~chi_10 ~chi_40)
     1.49139760E-02    2     1000023   1000025   # BR(H -> ~chi_20 ~chi_30)
     8.13064838E-02    2     1000023   1000035   # BR(H -> ~chi_20 ~chi_40)
     4.86229089E-02    2     1000025   1000035   # BR(H -> ~chi_30 ~chi_40)
     4.80484916E-04    2     1000006  -1000006   # BR(H -> ~t_1    ~t_1*  )
     3.36256208E-03    2     1000006  -2000006   # BR(H -> ~t_1    ~t_2*  )
     3.36256208E-03    2     2000006  -1000006   # BR(H -> ~t_2    ~t_1*  )
#
#         PDG            Width
DECAY        36     5.45758979E+01   # A decays
#          BR         NDA      ID1       ID2
     3.54124998E-01    2           5        -5   # BR(A -> b       bb     )
     6.07524069E-02    2         -15        15   # BR(A -> tau+    tau-   )
     2.14805627E-04    2         -13        13   # BR(A -> mu+     mu-    )
     2.54119463E-04    2           3        -3   # BR(A -> s       sb     )
     7.17242034E-08    2           4        -4   # BR(A -> c       cb     )
     7.15577639E-03    2           6        -6   # BR(A -> t       tb     )
     1.47033092E-05    2          21        21   # BR(A -> g       g      )
     5.89267649E-08    2          22        22   # BR(A -> gam     gam    )
     1.61694617E-08    2          23        22   # BR(A -> Z       gam    )
     1.83084214E-06    2          23        25   # BR(A -> Z       h      )
     1.87394732E-03    2     1000024  -1000024   # BR(A -> ~chi_1+ ~chi_1-)
     1.60493182E-01    2     1000024  -1000037   # BR(A -> ~chi_1+ ~chi_2-)
     1.60493182E-01    2     1000037  -1000024   # BR(A -> ~chi_2+ ~chi_1-)
     2.24055079E-02    2     1000022   1000022   # BR(A -> ~chi_10 ~chi_10)
     8.92929016E-04    2     1000023   1000023   # BR(A -> ~chi_20 ~chi_20)
     1.37696930E-02    2     1000025   1000025   # BR(A -> ~chi_30 ~chi_30)
     2.86537970E-02    2     1000022   1000023   # BR(A -> ~chi_10 ~chi_20)
     4.02952846E-03    2     1000022   1000025   # BR(A -> ~chi_10 ~chi_30)
     3.24898551E-02    2     1000022   1000035   # BR(A -> ~chi_10 ~chi_40)
     1.67908214E-02    2     1000023   1000025   # BR(A -> ~chi_20 ~chi_30)
     7.77897334E-02    2     1000023   1000035   # BR(A -> ~chi_20 ~chi_40)
     5.06532319E-02    2     1000025   1000035   # BR(A -> ~chi_30 ~chi_40)
     3.57290222E-03    2     1000006  -2000006   # BR(A -> ~t_1    ~t_2*  )
     3.57290222E-03    2    -1000006   2000006   # BR(A -> ~t_1*   ~t_2   )
#
#         PDG            Width
DECAY        37     5.45609755E+01   # H+ decays
#          BR         NDA      ID1       ID2
     5.66236040E-04    2           4        -5   # BR(H+ -> c       bb     )
     6.07848639E-02    2         -15        16   # BR(H+ -> tau+    nu_tau )
     2.14920387E-04    2         -13        14   # BR(H+ -> mu+     nu_mu  )
     3.62390756E-06    2           2        -5   # BR(H+ -> u       bb     )
     1.21756375E-05    2           2        -3   # BR(H+ -> u       sb     )
     2.50492017E-04    2           4        -3   # BR(H+ -> c       sb     )
     3.60683715E-01    2           6        -5   # BR(H+ -> t       bb     )
     1.83341671E-06    2          24        25   # BR(H+ -> W+      h      )
     2.97294225E-14    2          24        36   # BR(H+ -> W+      A      )
     5.36834780E-02    2     1000024   1000022   # BR(H+ -> ~chi_1+ ~chi_10)
     7.29403357E-06    2     1000024   1000023   # BR(H+ -> ~chi_1+ ~chi_20)
     3.34869588E-02    2     1000024   1000025   # BR(H+ -> ~chi_1+ ~chi_30)
     1.60751825E-01    2     1000024   1000035   # BR(H+ -> ~chi_1+ ~chi_40)
     6.36864753E-02    2     1000037   1000022   # BR(H+ -> ~chi_2+ ~chi_10)
     1.59211807E-01    2     1000037   1000023   # BR(H+ -> ~chi_2+ ~chi_20)
     9.94855982E-02    2     1000037   1000025   # BR(H+ -> ~chi_2+ ~chi_30)
     7.16870289E-03    2     1000006  -1000005   # BR(H+ -> ~t_1    ~b_1*  )
