#
#                              ======================
#                              | THE SUSYHIT OUTPUT |
#                              ======================
#
#
#              ------------------------------------------------------
#              |     This is the output of the SUSY-HIT package     |
#              |  created by A.Djouadi, M.Muehlleitner and M.Spira. |
#              |  In case of problems with SUSY-HIT email to        |
#              |           margarete.muehlleitner@kit.edu           |
#              |           michael.spira@psi.ch                     |
#              |           abdelhak.djouadi@cern.ch                 |
#              ------------------------------------------------------
#
#              ------------------------------------------------------
#              |  SUSY Les Houches Accord - MSSM Spectrum + Decays  |
#              |              based on the decay programs           |
#              |                                                    |
#              |                     SDECAY 1.5                     |
#              |                                                    |
#              |  Authors: M.Muhlleitner, A.Djouadi and Y.Mambrini  |
#              |  Ref.:    Comput.Phys.Commun.168(2005)46           |
#              |           [hep-ph/0311167]                         |
#              |                                                    |
#              |                     HDECAY 3.4                     |
#              |                                                    |
#              |  By: A.Djouadi,J.Kalinowski,M.Muhlleitner,M.Spira  |
#              |  Ref.:    Comput.Phys.Commun.108(1998)56           |
#              |           [hep-ph/9704448]                         |
#              |                                                    |
#              |                                                    |
#              |  If not stated otherwise all DRbar couplings and   |
#              |  soft SUSY breaking masses are given at the scale  |
#              |  Q=  0.90254049E+03
#              |                                                    |
#              ------------------------------------------------------
#
#
BLOCK DCINFO  # Decay Program information
     1   SDECAY/HDECAY # decay calculator
     2   1.5  /3.4    # version number
#
BLOCK SPINFO  # Spectrum calculator information
     1    SOFTSUSY    # spectrum calculator                
     2    3.7.3       # version number                     
#
BLOCK MODSEL  # Model selection
     1     0   #  nonUniversal                                     
#
BLOCK SMINPUTS  # Standard Model inputs
         1     1.27934000E+02   # alpha_em^-1(M_Z)^MSbar
         2     1.16639000E-05   # G_F [GeV^-2]
         3     1.17200000E-01   # alpha_S(M_Z)^MSbar
         4     9.11870000E+01   # M_Z pole mass
         5     4.19000000E+00   # mb(mb)^MSbar
         6     1.72500000E+02   # mt pole mass
         7     1.77690000E+00   # mtau pole mass
#
BLOCK MINPAR  # Input parameters - minimal models
         3     2.00000000E+01   # tanb                
#
BLOCK EXTPAR  # Input parameters - non-minimal models
         0    -1.00000000E+00   # Set                 
         1     2.59990000E+02   # M_1(MX)             
         2     2.00000000E+03   # M_2(MX)             
         3     1.80000000E+03   # M_3(MX)             
        11     2.15959179E+03   # At(MX)              
        12     0.00000000E+00   # Ab(MX)              
        13     0.00000000E+00   # Atau(MX)            
        23    -2.76900000E+02   # mu(MX)              
        25     2.00000000E+01   # tan                 
        26     4.00000000E+03   # mA(pole)            
        31     4.00000000E+03   # meL(MX)             
        32     4.00000000E+03   # mmuL(MX)            
        33     4.00000000E+03   # mtauL(MX)           
        34     4.00000000E+03   # meR(MX)             
        35     4.00000000E+03   # mmuR(MX)            
        36     4.00000000E+03   # mtauR(MX)           
        41     4.00000000E+03   # mqL1(MX)            
        42     4.00000000E+03   # mqL2(MX)            
        43     2.25485961E+03   # mqL3(MX)            
        44     4.00000000E+03   # muR(MX)             
        45     4.00000000E+03   # mcR(MX)             
        46     3.59990000E+02   # mtR(MX)             
        47     4.00000000E+03   # mdR(MX)             
        48     4.00000000E+03   # msR(MX)             
        49     4.00000000E+03   # mbR(MX)             
#
BLOCK MASS  # Mass Spectrum
# PDG code           mass       particle
        24     8.04196799E+01   # W+
        25     1.24079373E+02   # h
        35     4.00000606E+03   # H
        36     3.99999579E+03   # A
        37     4.00097681E+03   # H+
         5     4.81337004E+00   # b-quark pole mass calculated from mb(mb)_Msbar
   1000001     4.01279117E+03   # ~d_L
   2000001     4.01229976E+03   # ~d_R
   1000002     4.01213670E+03   # ~u_L
   2000002     4.01266671E+03   # ~u_R
   1000003     4.01279117E+03   # ~s_L
   2000003     4.01229976E+03   # ~s_R
   1000004     4.01213670E+03   # ~c_L
   2000004     4.01266671E+03   # ~c_R
   1000005     2.27431461E+03   # ~b_1
   2000005     4.01903070E+03   # ~b_2
   1000006     4.19588339E+02   # ~t_1
   2000006     2.28277463E+03   # ~t_2
   1000011     4.00154072E+03   # ~e_L
   2000011     4.00380415E+03   # ~e_R
   1000012     4.00042768E+03   # ~nu_eL
   1000013     4.00154072E+03   # ~mu_L
   2000013     4.00380415E+03   # ~mu_R
   1000014     4.00042768E+03   # ~nu_muL
   1000015     4.00381896E+03   # ~tau_1
   2000015     4.00929812E+03   # ~tau_2
   1000016     4.00302630E+03   # ~nu_tauL
   1000021     1.97210300E+03   # ~g
   1000022     2.42139427E+02   # ~chi_10
   1000023    -2.86990354E+02   # ~chi_20
   1000025     3.06796619E+02   # ~chi_30
   1000035     2.07037357E+03   # ~chi_40
   1000024     2.83942152E+02   # ~chi_1+
   1000037     2.07053980E+03   # ~chi_2+
#
BLOCK NMIX  # Neutralino Mixing Matrix
  1  1     7.79824322E-01   # N_11
  1  2    -1.67728381E-02   # N_12
  1  3    -4.77349380E-01   # N_13
  1  4    -4.04635971E-01   # N_14
  2  1    -6.07653086E-02   # N_21
  2  2     2.53372497E-02   # N_22
  2  3    -7.01601698E-01   # N_23
  2  4     7.09521429E-01   # N_24
  3  1     6.23041434E-01   # N_31
  3  2     2.50486427E-02   # N_32
  3  3     5.29037321E-01   # N_33
  3  4     5.75596603E-01   # N_34
  4  1    -9.87615417E-04   # N_41
  4  2     9.99224330E-01   # N_42
  4  3    -3.48421589E-03   # N_43
  4  4    -3.92125449E-02   # N_44
#
BLOCK UMIX  # Chargino Mixing Matrix U
  1  1     4.93268332E-03   # U_11
  1  2     9.99987834E-01   # U_12
  2  1    -9.99987834E-01   # U_21
  2  2     4.93268332E-03   # U_22
#
BLOCK VMIX  # Chargino Mixing Matrix V
  1  1     5.54667029E-02   # V_11
  1  2    -9.98460537E-01   # V_12
  2  1    -9.98460537E-01   # V_21
  2  2    -5.54667029E-02   # V_22
#
BLOCK STOPMIX  # Stop Mixing Matrix
  1  1    -6.56948707E-02   # cos(theta_t)
  1  2     9.97839759E-01   # sin(theta_t)
  2  1    -9.97839759E-01   # -sin(theta_t)
  2  2    -6.56948707E-02   # cos(theta_t)
#
BLOCK SBOTMIX  # Sbottom Mixing Matrix
  1  1     9.99999213E-01   # cos(theta_b)
  1  2    -1.25459132E-03   # sin(theta_b)
  2  1     1.25459132E-03   # -sin(theta_b)
  2  2     9.99999213E-01   # cos(theta_b)
#
BLOCK STAUMIX  # Stau Mixing Matrix
  1  1    -7.05403072E-01   # cos(theta_tau)
  1  2     7.08806395E-01   # sin(theta_tau)
  2  1    -7.08806395E-01   # -sin(theta_tau)
  2  2    -7.05403072E-01   # cos(theta_tau)
#
BLOCK ALPHA  # Higgs mixing
          -5.00246787E-02   # Mixing angle in the neutral Higgs boson sector
#
BLOCK HMIX Q=  9.02540491E+02  # DRbar Higgs Parameters
         1    -2.76900000E+02   # mu(Q)MSSM           
         2     2.00000000E+01   # tan                 
         3     2.44669982E+02   # higgs               
         4     1.63127092E+07   # mA^2(Q)MSSM         
#
BLOCK GAUGE Q=  9.02540491E+02  # The gauge couplings
     1     3.60907431E-01   # gprime(Q) DRbar
     2     6.35082063E-01   # g(Q) DRbar
     3     1.03746227E+00   # g3(Q) DRbar
#
BLOCK AU Q=  9.02540491E+02  # The trilinear couplings
  1  1     0.00000000E+00   # A_u(Q) DRbar
  2  2     5.69313508E-07   # A_c(Q) DRbar
  3  3     2.15959179E+03   # A_t(Q) DRbar
#
BLOCK AD Q=  9.02540491E+02  # The trilinear couplings
  1  1     2.09949600E-07   # A_d(Q) DRbar
  2  2     2.09969928E-07   # A_s(Q) DRbar
  3  3     3.74579890E-07   # A_b(Q) DRbar
#
BLOCK AE Q=  9.02540491E+02  # The trilinear couplings
  1  1     0.00000000E+00   # A_e(Q) DRbar
  2  2     4.67887671E-08   # A_mu(Q) DRbar
  3  3     4.72606925E-08   # A_tau(Q) DRbar
#
BLOCK Yu Q=  9.02540491E+02  # The Yukawa couplings
  1  1     0.00000000E+00   # y_u(Q) DRbar
  2  2     0.00000000E+00   # y_c(Q) DRbar
  3  3     8.72149991E-01   # y_t(Q) DRbar
#
BLOCK Yd Q=  9.02540491E+02  # The Yukawa couplings
  1  1     0.00000000E+00   # y_d(Q) DRbar
  2  2     0.00000000E+00   # y_s(Q) DRbar
  3  3     2.86160557E-01   # y_b(Q) DRbar
#
BLOCK Ye Q=  9.02540491E+02  # The Yukawa couplings
  1  1     0.00000000E+00   # y_e(Q) DRbar
  2  2     0.00000000E+00   # y_mu(Q) DRbar
  3  3     2.03152727E-01   # y_tau(Q) DRbar
#
BLOCK MSOFT Q=  9.02540491E+02  # The soft SUSY breaking masses at the scale Q
         1     2.59990000E+02   # M_1(Q)              
         2     2.00000000E+03   # M_2(Q)              
         3     1.80000000E+03   # M_3(Q)              
        21     1.57872910E+07   # M^2_Hd              
        22    -1.44914903E+05   # M^2_Hu              
        31     4.00000000E+03   # M_eL                
        32     4.00000000E+03   # M_muL               
        33     4.00000000E+03   # M_tauL              
        34     4.00000000E+03   # M_eR                
        35     4.00000000E+03   # M_muR               
        36     4.00000000E+03   # M_tauR              
        41     4.00000000E+03   # M_q1L               
        42     4.00000000E+03   # M_q2L               
        43     2.25485961E+03   # M_q3L               
        44     4.00000000E+03   # M_uR                
        45     4.00000000E+03   # M_cR                
        46     3.59989996E+02   # M_tR                
        47     4.00000000E+03   # M_dR                
        48     4.00000000E+03   # M_sR                
        49     4.00000000E+03   # M_bR                
#
#
#
#                             =================
#                             |The decay table|
#                             =================
#
# - The QCD corrections to the decays gluino -> squark  + quark
#                                     squark -> gaugino + quark_prime
#                                     squark -> squark_prime + Higgs
#                                     squark -> gluino  + quark
#   are included.
#
# - The multi-body decays for the inos, stops and sbottoms are included.
#
# - The loop induced decays for the gluino, neutralinos and stops
#   are included.
#
# - The SUSY decays of the top quark are included.
#
#
#         PDG            Width
DECAY         6     1.39917509E+00   # top decays
#          BR         NDA      ID1       ID2
     1.00000000E+00    2           5        24   # BR(t ->  b    W+)
#
#         PDG            Width
DECAY   1000021     3.72327936E+01   # gluino decays
#          BR         NDA      ID1       ID2
     5.00000000E-01    2     1000006        -6   # BR(~g -> ~t_1  tb)
     5.00000000E-01    2    -1000006         6   # BR(~g -> ~t_1* t )
#
#         PDG            Width
DECAY   1000006     1.86731450E+00   # stop1 decays
#          BR         NDA      ID1       ID2
     6.91978738E-03    2     1000022         6   # BR(~t_1 -> ~chi_10 t )
     9.93080213E-01    2     1000024         5   # BR(~t_1 -> ~chi_1+ b )
#
#         PDG            Width
DECAY   2000006     6.92446082E+01   # stop2 decays
#          BR         NDA      ID1       ID2
     8.37236351E-02    2     1000022         6   # BR(~t_2 -> ~chi_10 t )
     2.32271060E-01    2     1000023         6   # BR(~t_2 -> ~chi_20 t )
     1.46715767E-01    2     1000025         6   # BR(~t_2 -> ~chi_30 t )
     2.71067470E-03    2     1000035         6   # BR(~t_2 -> ~chi_40 t )
     5.03569894E-02    2     1000024         5   # BR(~t_2 -> ~chi_1+ b )
     8.25127855E-03    2     1000037         5   # BR(~t_2 -> ~chi_2+ b )
     1.49779863E-01    2     1000021         6   # BR(~t_2 -> ~g      t )
     2.07351705E-01    2     1000006        25   # BR(~t_2 -> ~t_1    h )
     1.18839028E-01    2     1000006        23   # BR(~t_2 -> ~t_1    Z )
#
#         PDG            Width
DECAY   1000005     6.69506182E+01   # sbottom1 decays
#          BR         NDA      ID1       ID2
     1.42738809E-02    2     1000022         5   # BR(~b_1 -> ~chi_10 b )
     2.32891232E-02    2     1000023         5   # BR(~b_1 -> ~chi_20 b )
     1.41331313E-02    2     1000025         5   # BR(~b_1 -> ~chi_30 b )
     4.03509834E-03    2     1000035         5   # BR(~b_1 -> ~chi_40 b )
     4.68620631E-01    2    -1000024         6   # BR(~b_1 -> ~chi_1- t )
     4.84892073E-03    2    -1000037         6   # BR(~b_1 -> ~chi_2- t )
     1.59634624E-01    2     1000021         5   # BR(~b_1 -> ~g      b )
     3.11164590E-01    2     1000006       -24   # BR(~b_1 -> ~t_1    W-)
#
#         PDG            Width
DECAY   2000005     1.63957121E+02   # sbottom2 decays
#          BR         NDA      ID1       ID2
     1.64489872E-02    2     1000022         5   # BR(~b_2 -> ~chi_10 b )
     1.78665962E-02    2     1000023         5   # BR(~b_2 -> ~chi_20 b )
     1.53524346E-02    2     1000025         5   # BR(~b_2 -> ~chi_30 b )
     5.88033418E-07    2     1000035         5   # BR(~b_2 -> ~chi_40 b )
     3.60921183E-02    2    -1000024         6   # BR(~b_2 -> ~chi_1- t )
     1.16117052E-06    2    -1000037         6   # BR(~b_2 -> ~chi_2- t )
     9.13974278E-01    2     1000021         5   # BR(~b_2 -> ~g      b )
     5.69345701E-05    2     1000005        25   # BR(~b_2 -> ~b_1    h )
     7.44947750E-05    2     1000005        23   # BR(~b_2 -> ~b_1    Z )
     1.88279041E-06    2     1000006       -24   # BR(~b_2 -> ~t_1    W-)
     1.30524602E-04    2     2000006       -24   # BR(~b_2 -> ~t_2    W-)
#
#         PDG            Width
DECAY   1000002     1.75113015E+02   # sup_L decays
#          BR         NDA      ID1       ID2
     1.50721321E-03    2     1000022         2   # BR(~u_L -> ~chi_10 u)
     1.67569376E-05    2     1000023         2   # BR(~u_L -> ~chi_20 u)
     1.79166673E-03    2     1000025         2   # BR(~u_L -> ~chi_30 u)
     4.78406914E-02    2     1000035         2   # BR(~u_L -> ~chi_40 u)
     5.39447286E-04    2     1000024         1   # BR(~u_L -> ~chi_1+ d)
     9.55598907E-02    2     1000037         1   # BR(~u_L -> ~chi_2+ d)
     8.52744334E-01    2     1000021         2   # BR(~u_L -> ~g      u)
#
#         PDG            Width
DECAY   2000002     1.58195279E+02   # sup_R decays
#          BR         NDA      ID1       ID2
     3.39754089E-02    2     1000022         2   # BR(~u_R -> ~chi_10 u)
     2.05716993E-04    2     1000023         2   # BR(~u_R -> ~chi_20 u)
     2.15966443E-02    2     1000025         2   # BR(~u_R -> ~chi_30 u)
     2.97224509E-08    2     1000035         2   # BR(~u_R -> ~chi_40 u)
     9.44222200E-01    2     1000021         2   # BR(~u_R -> ~g      u)
#
#         PDG            Width
DECAY   1000001     1.75131558E+02   # sdown_L decays
#          BR         NDA      ID1       ID2
     2.37849735E-03    2     1000022         1   # BR(~d_L -> ~chi_10 d)
     1.19019538E-04    2     1000023         1   # BR(~d_L -> ~chi_20 d)
     7.56658308E-04    2     1000025         1   # BR(~d_L -> ~chi_30 d)
     4.78905875E-02    2     1000035         1   # BR(~d_L -> ~chi_40 d)
     4.26656465E-06    2    -1000024         2   # BR(~d_L -> ~chi_1- u)
     9.58806037E-02    2    -1000037         2   # BR(~d_L -> ~chi_2- u)
     8.52970367E-01    2     1000021         1   # BR(~d_L -> ~g      d)
#
#         PDG            Width
DECAY   2000001     1.51546171E+02   # sdown_R decays
#          BR         NDA      ID1       ID2
     8.86568356E-03    2     1000022         1   # BR(~d_R -> ~chi_10 d)
     5.36806147E-05    2     1000023         1   # BR(~d_R -> ~chi_20 d)
     5.63551330E-03    2     1000025         1   # BR(~d_R -> ~chi_30 d)
     7.75489506E-09    2     1000035         1   # BR(~d_R -> ~chi_40 d)
     9.85445115E-01    2     1000021         1   # BR(~d_R -> ~g      d)
#
#         PDG            Width
DECAY   1000004     1.75113015E+02   # scharm_L decays
#          BR         NDA      ID1       ID2
     1.50721321E-03    2     1000022         4   # BR(~c_L -> ~chi_10 c)
     1.67569376E-05    2     1000023         4   # BR(~c_L -> ~chi_20 c)
     1.79166673E-03    2     1000025         4   # BR(~c_L -> ~chi_30 c)
     4.78406914E-02    2     1000035         4   # BR(~c_L -> ~chi_40 c)
     5.39447286E-04    2     1000024         3   # BR(~c_L -> ~chi_1+ s)
     9.55598907E-02    2     1000037         3   # BR(~c_L -> ~chi_2+ s)
     8.52744334E-01    2     1000021         4   # BR(~c_L -> ~g      c)
#
#         PDG            Width
DECAY   2000004     1.58195279E+02   # scharm_R decays
#          BR         NDA      ID1       ID2
     3.39754089E-02    2     1000022         4   # BR(~c_R -> ~chi_10 c)
     2.05716993E-04    2     1000023         4   # BR(~c_R -> ~chi_20 c)
     2.15966443E-02    2     1000025         4   # BR(~c_R -> ~chi_30 c)
     2.97224509E-08    2     1000035         4   # BR(~c_R -> ~chi_40 c)
     9.44222200E-01    2     1000021         4   # BR(~c_R -> ~g      c)
#
#         PDG            Width
DECAY   1000003     1.75131558E+02   # sstrange_L decays
#          BR         NDA      ID1       ID2
     2.37849735E-03    2     1000022         3   # BR(~s_L -> ~chi_10 s)
     1.19019538E-04    2     1000023         3   # BR(~s_L -> ~chi_20 s)
     7.56658308E-04    2     1000025         3   # BR(~s_L -> ~chi_30 s)
     4.78905875E-02    2     1000035         3   # BR(~s_L -> ~chi_40 s)
     4.26656465E-06    2    -1000024         4   # BR(~s_L -> ~chi_1- c)
     9.58806037E-02    2    -1000037         4   # BR(~s_L -> ~chi_2- c)
     8.52970367E-01    2     1000021         3   # BR(~s_L -> ~g      s)
#
#         PDG            Width
DECAY   2000003     1.51546171E+02   # sstrange_R decays
#          BR         NDA      ID1       ID2
     8.86568356E-03    2     1000022         3   # BR(~s_R -> ~chi_10 s)
     5.36806147E-05    2     1000023         3   # BR(~s_R -> ~chi_20 s)
     5.63551330E-03    2     1000025         3   # BR(~s_R -> ~chi_30 s)
     7.75489506E-09    2     1000035         3   # BR(~s_R -> ~chi_40 s)
     9.85445115E-01    2     1000021         3   # BR(~s_R -> ~g      s)
#
#         PDG            Width
DECAY   1000011     3.09824497E+01   # selectron_L decays
#          BR         NDA      ID1       ID2
     9.35185661E-02    2     1000022        11   # BR(~e_L -> ~chi_10 e-)
     4.33582273E-05    2     1000023        11   # BR(~e_L -> ~chi_20 e-)
     7.36019217E-02    2     1000025        11   # BR(~e_L -> ~chi_30 e-)
     2.77134986E-01    2     1000035        11   # BR(~e_L -> ~chi_40 e-)
     2.49622279E-05    2    -1000024        12   # BR(~e_L -> ~chi_1- nu_e)
     5.55676206E-01    2    -1000037        12   # BR(~e_L -> ~chi_2- nu_e)
#
#         PDG            Width
DECAY   2000011     2.05630665E+01   # selectron_R decays
#          BR         NDA      ID1       ID2
     6.09182741E-01    2     1000022        11   # BR(~e_R -> ~chi_10 e-)
     3.68785543E-03    2     1000023        11   # BR(~e_R -> ~chi_20 e-)
     3.87128875E-01    2     1000025        11   # BR(~e_R -> ~chi_30 e-)
     5.28266790E-07    2     1000035        11   # BR(~e_R -> ~chi_40 e-)
#
#         PDG            Width
DECAY   1000013     3.09824497E+01   # smuon_L decays
#          BR         NDA      ID1       ID2
     9.35185661E-02    2     1000022        13   # BR(~mu_L -> ~chi_10 mu-)
     4.33582273E-05    2     1000023        13   # BR(~mu_L -> ~chi_20 mu-)
     7.36019217E-02    2     1000025        13   # BR(~mu_L -> ~chi_30 mu-)
     2.77134986E-01    2     1000035        13   # BR(~mu_L -> ~chi_40 mu-)
     2.49622279E-05    2    -1000024        14   # BR(~mu_L -> ~chi_1- nu_mu)
     5.55676206E-01    2    -1000037        14   # BR(~mu_L -> ~chi_2- nu_mu)
#
#         PDG            Width
DECAY   2000013     2.05630665E+01   # smuon_R decays
#          BR         NDA      ID1       ID2
     6.09182741E-01    2     1000022        13   # BR(~mu_R -> ~chi_10 mu-)
     3.68785543E-03    2     1000023        13   # BR(~mu_R -> ~chi_20 mu-)
     3.87128875E-01    2     1000025        13   # BR(~mu_R -> ~chi_30 mu-)
     5.28266790E-07    2     1000035        13   # BR(~mu_R -> ~chi_40 mu-)
#
#         PDG            Width
DECAY   1000015     3.06971488E+01   # stau_1 decays
#          BR         NDA      ID1       ID2
     3.27822964E-01    2     1000022        15   # BR(~tau_1 -> ~chi_10  tau-)
     4.35933461E-02    2     1000023        15   # BR(~tau_1 -> ~chi_20  tau-)
     1.56162561E-01    2     1000025        15   # BR(~tau_1 -> ~chi_30  tau-)
     1.38935436E-01    2     1000035        15   # BR(~tau_1 -> ~chi_40  tau-)
     5.49092511E-02    2    -1000024        16   # BR(~tau_1 -> ~chi_1-  nu_tau)
     2.78576442E-01    2    -1000037        16   # BR(~tau_1 -> ~chi_2-  nu_tau)
#
#         PDG            Width
DECAY   2000015     3.07194818E+01   # stau_2 decays
#          BR         NDA      ID1       ID2
     2.23293693E-01    2     1000022        15   # BR(~tau_2 -> ~chi_10  tau-)
     6.33134873E-02    2     1000023        15   # BR(~tau_2 -> ~chi_20  tau-)
     2.36890163E-01    2     1000025        15   # BR(~tau_2 -> ~chi_30  tau-)
     1.41540542E-01    2     1000035        15   # BR(~tau_2 -> ~chi_40  tau-)
     5.11637795E-02    2    -1000024        16   # BR(~tau_2 -> ~chi_1-  nu_tau)
     2.83798335E-01    2    -1000037        16   # BR(~tau_2 -> ~chi_2-  nu_tau)
#
#         PDG            Width
DECAY   1000012     3.09936925E+01   # snu_eL decays
#          BR         NDA      ID1       ID2
     1.08742157E-01    2     1000022        12   # BR(~nu_eL -> ~chi_10 nu_e)
     1.83704031E-03    2     1000023        12   # BR(~nu_eL -> ~chi_20 nu_e)
     5.53992695E-02    2     1000025        12   # BR(~nu_eL -> ~chi_30 nu_e)
     2.77467413E-01    2     1000035        12   # BR(~nu_eL -> ~chi_40 nu_e)
     3.15428366E-03    2     1000024        11   # BR(~nu_eL -> ~chi_1+ e-)
     5.53399837E-01    2     1000037        11   # BR(~nu_eL -> ~chi_2+ e-)
#
#         PDG            Width
DECAY   1000014     3.09936925E+01   # snu_muL decays
#          BR         NDA      ID1       ID2
     1.08742157E-01    2     1000022        14   # BR(~nu_muL -> ~chi_10 nu_mu)
     1.83704031E-03    2     1000023        14   # BR(~nu_muL -> ~chi_20 nu_mu)
     5.53992695E-02    2     1000025        14   # BR(~nu_muL -> ~chi_30 nu_mu)
     2.77467413E-01    2     1000035        14   # BR(~nu_muL -> ~chi_40 nu_mu)
     3.15428366E-03    2     1000024        13   # BR(~nu_muL -> ~chi_1+ mu-)
     5.53399837E-01    2     1000037        13   # BR(~nu_muL -> ~chi_2+ mu-)
#
#         PDG            Width
DECAY   1000016     3.42920922E+01   # snu_tauL decays
#          BR         NDA      ID1       ID2
     9.83475271E-02    2     1000022        16   # BR(~nu_tauL -> ~chi_10 nu_tau)
     1.66144464E-03    2     1000023        16   # BR(~nu_tauL -> ~chi_20 nu_tau)
     5.01039615E-02    2     1000025        16   # BR(~nu_tauL -> ~chi_30 nu_tau)
     2.51180352E-01    2     1000035        16   # BR(~nu_tauL -> ~chi_40 nu_tau)
     9.77355820E-02    2     1000024        15   # BR(~nu_tauL -> ~chi_1+ tau-)
     5.00971133E-01    2     1000037        15   # BR(~nu_tauL -> ~chi_2+ tau-)
#
#         PDG            Width
DECAY   1000024     5.66522175E-05   # chargino1+ decays
#           BR         NDA      ID1       ID2       ID3
     3.33660353E-01    3     1000022         2        -1   # BR(~chi_1+ -> ~chi_10 u    db)
     3.33660353E-01    3     1000022         4        -3   # BR(~chi_1+ -> ~chi_10 c    sb)
     1.11221452E-01    3     1000022       -11        12   # BR(~chi_1+ -> ~chi_10 e+   nu_e)
     1.11221452E-01    3     1000022       -13        14   # BR(~chi_1+ -> ~chi_10 mu+  nu_mu)
     1.10236391E-01    3     1000022       -15        16   # BR(~chi_1+ -> ~chi_10 tau+ nu_tau)
#
#         PDG            Width
DECAY   1000037     1.66927816E+01   # chargino2+ decays
#          BR         NDA      ID1       ID2
     3.01739016E-02    2     1000006        -5   # BR(~chi_2+ -> ~t_1     bb)
     2.47736139E-01    2     1000024        23   # BR(~chi_2+ -> ~chi_1+  Z )
     7.24792365E-02    2     1000022        24   # BR(~chi_2+ -> ~chi_10  W+)
     2.42189542E-01    2     1000023        24   # BR(~chi_2+ -> ~chi_20  W+)
     1.67938935E-01    2     1000025        24   # BR(~chi_2+ -> ~chi_30  W+)
     2.39482247E-01    2     1000024        25   # BR(~chi_2+ -> ~chi_1+  h )
#
#         PDG            Width
DECAY   1000022     0.00000000E+00   # neutralino1 decays
#
#         PDG            Width
DECAY   1000023     6.31504176E-05   # neutralino2 decays
#          BR         NDA      ID1       ID2
     5.13039304E-05    2     1000022        22   # BR(~chi_20 -> ~chi_10 gam)
#           BR         NDA      ID1       ID2       ID3
     1.18555977E-01    3     1000022        -2         2   # BR(~chi_20 -> ~chi_10 ub      u)
     1.53759591E-01    3     1000022        -1         1   # BR(~chi_20 -> ~chi_10 db      d)
     1.18555977E-01    3     1000022        -4         4   # BR(~chi_20 -> ~chi_10 cb      c)
     1.53759591E-01    3     1000022        -3         3   # BR(~chi_20 -> ~chi_10 sb      s)
     1.38602033E-01    3     1000022        -5         5   # BR(~chi_20 -> ~chi_10 bb      b)
     3.52434657E-02    3     1000022       -11        11   # BR(~chi_20 -> ~chi_10 e+      e-)
     3.52434657E-02    3     1000022       -13        13   # BR(~chi_20 -> ~chi_10 mu+     mu-)
     3.48536871E-02    3     1000022       -15        15   # BR(~chi_20 -> ~chi_10 tau+    tau-)
     7.04553900E-02    3     1000022       -12        12   # BR(~chi_20 -> ~chi_10 nu_eb   nu_e)
     7.04553900E-02    3     1000022       -14        14   # BR(~chi_20 -> ~chi_10 nu_mub  nu_mu)
     7.04553870E-02    3     1000022       -16        16   # BR(~chi_20 -> ~chi_10 nu_taub nu_tau)
     1.60371490E-06    3     1000024        -2         1   # BR(~chi_20 -> ~chi_1+ ub      d)
     1.60371490E-06    3    -1000024        -1         2   # BR(~chi_20 -> ~chi_1- db      u)
     1.60371490E-06    3     1000024        -4         3   # BR(~chi_20 -> ~chi_1+ cb      s)
     1.60371490E-06    3    -1000024        -3         4   # BR(~chi_20 -> ~chi_1- sb      c)
     5.34572250E-07    3     1000024       -12        11   # BR(~chi_20 -> ~chi_1+ nu_eb   e-)
     5.34572250E-07    3    -1000024        12       -11   # BR(~chi_20 -> ~chi_1- nu_e    e+)
     5.34572250E-07    3     1000024       -14        13   # BR(~chi_20 -> ~chi_1+ nu_mub  mu-)
     5.34572250E-07    3    -1000024        14       -13   # BR(~chi_20 -> ~chi_1- nu_mu   mu+)
     9.47053423E-08    3     1000024       -16        15   # BR(~chi_20 -> ~chi_1+ nu_taub tau-)
     9.47053423E-08    3    -1000024        16       -15   # BR(~chi_20 -> ~chi_1- nu_tau  tau+)
#
#         PDG            Width
DECAY   1000025     1.24405727E-05   # neutralino3 decays
#          BR         NDA      ID1       ID2
     2.18469762E-02    2     1000022        22   # BR(~chi_30 -> ~chi_10 gam)
     3.21702060E-02    2     1000023        22   # BR(~chi_30 -> ~chi_20 gam)
#           BR         NDA      ID1       ID2       ID3
     1.65550743E-02    3     1000022        -2         2   # BR(~chi_30 -> ~chi_10 ub      u)
     2.13383394E-02    3     1000022        -1         1   # BR(~chi_30 -> ~chi_10 db      d)
     1.65550743E-02    3     1000022        -4         4   # BR(~chi_30 -> ~chi_10 cb      c)
     2.13383394E-02    3     1000022        -3         3   # BR(~chi_30 -> ~chi_10 sb      s)
     2.03793193E-02    3     1000022        -5         5   # BR(~chi_30 -> ~chi_10 bb      b)
     4.78772239E-03    3     1000022       -11        11   # BR(~chi_30 -> ~chi_10 e+      e-)
     4.78772239E-03    3     1000022       -13        13   # BR(~chi_30 -> ~chi_10 mu+     mu-)
     4.77247546E-03    3     1000022       -15        15   # BR(~chi_30 -> ~chi_10 tau+    tau-)
     9.82897320E-03    3     1000022       -12        12   # BR(~chi_30 -> ~chi_10 nu_eb   nu_e)
     9.82897320E-03    3     1000022       -14        14   # BR(~chi_30 -> ~chi_10 nu_mub  nu_mu)
     9.82891768E-03    3     1000022       -16        16   # BR(~chi_30 -> ~chi_10 nu_taub nu_tau)
     1.61511428E-02    3     1000023        -2         2   # BR(~chi_30 -> ~chi_20 ub      u)
     2.09478690E-02    3     1000023        -1         1   # BR(~chi_30 -> ~chi_20 db      d)
     1.61511428E-02    3     1000023        -4         4   # BR(~chi_30 -> ~chi_20 cb      c)
     2.09478690E-02    3     1000023        -3         3   # BR(~chi_30 -> ~chi_20 sb      s)
     1.21102999E-02    3     1000023        -5         5   # BR(~chi_30 -> ~chi_20 bb      b)
     4.80202437E-03    3     1000023       -11        11   # BR(~chi_30 -> ~chi_20 e+      e-)
     4.80202437E-03    3     1000023       -13        13   # BR(~chi_30 -> ~chi_20 mu+     mu-)
     4.58655830E-03    3     1000023       -15        15   # BR(~chi_30 -> ~chi_20 tau+    tau-)
     9.59804443E-03    3     1000023       -12        12   # BR(~chi_30 -> ~chi_20 nu_eb   nu_e)
     9.59804443E-03    3     1000023       -14        14   # BR(~chi_30 -> ~chi_20 nu_mub  nu_mu)
     9.59804467E-03    3     1000023       -16        16   # BR(~chi_30 -> ~chi_20 nu_taub nu_tau)
     1.13151888E-01    3     1000024        -2         1   # BR(~chi_30 -> ~chi_1+ ub      d)
     1.13151888E-01    3    -1000024        -1         2   # BR(~chi_30 -> ~chi_1- db      u)
     1.13151888E-01    3     1000024        -4         3   # BR(~chi_30 -> ~chi_1+ cb      s)
     1.13151888E-01    3    -1000024        -3         4   # BR(~chi_30 -> ~chi_1- sb      c)
     3.77167721E-02    3     1000024       -12        11   # BR(~chi_30 -> ~chi_1+ nu_eb   e-)
     3.77167721E-02    3    -1000024        12       -11   # BR(~chi_30 -> ~chi_1- nu_e    e+)
     3.77167721E-02    3     1000024       -14        13   # BR(~chi_30 -> ~chi_1+ nu_mub  mu-)
     3.77167721E-02    3    -1000024        14       -13   # BR(~chi_30 -> ~chi_1- nu_mu   mu+)
     3.66070914E-02    3     1000024       -16        15   # BR(~chi_30 -> ~chi_1+ nu_taub tau-)
     3.66070914E-02    3    -1000024        16       -15   # BR(~chi_30 -> ~chi_1- nu_tau  tau+)
#
#         PDG            Width
DECAY   1000035     1.66839082E+01   # neutralino4 decays
#          BR         NDA      ID1       ID2
     3.29086068E-02    2     1000022        23   # BR(~chi_40 -> ~chi_10   Z )
     1.46478246E-01    2     1000023        23   # BR(~chi_40 -> ~chi_20   Z )
     6.83579040E-02    2     1000025        23   # BR(~chi_40 -> ~chi_30   Z )
     2.41678413E-01    2     1000024       -24   # BR(~chi_40 -> ~chi_1+   W-)
     2.41678413E-01    2    -1000024        24   # BR(~chi_40 -> ~chi_1-   W+)
     3.99298617E-02    2     1000022        25   # BR(~chi_40 -> ~chi_10   h )
     9.86689856E-02    2     1000023        25   # BR(~chi_40 -> ~chi_20   h )
     1.00401045E-01    2     1000025        25   # BR(~chi_40 -> ~chi_30   h )
     1.49492626E-02    2     1000006        -6   # BR(~chi_40 -> ~t_1      tb)
     1.49492626E-02    2    -1000006         6   # BR(~chi_40 -> ~t_1*     t )
#
#         PDG            Width
DECAY        25     3.86662468E-03   # h decays
#          BR         NDA      ID1       ID2
     6.17060504E-01    2           5        -5   # BR(h -> b       bb     )
     6.65929948E-02    2         -15        15   # BR(h -> tau+    tau-   )
     2.35745421E-04    2         -13        13   # BR(h -> mu+     mu-    )
     5.01091188E-04    2           3        -3   # BR(h -> s       sb     )
     2.17649386E-02    2           4        -4   # BR(h -> c       cb     )
     7.07609354E-02    2          21        21   # BR(h -> g       g      )
     2.34716957E-03    2          22        22   # BR(h -> gam     gam    )
     1.48788942E-03    2          22        23   # BR(h -> Z       gam    )
     1.95150375E-01    2          24       -24   # BR(h -> W+      W-     )
     2.40983570E-02    2          23        23   # BR(h -> Z       Z      )
#
#         PDG            Width
DECAY        35     5.44134705E+01   # H decays
#          BR         NDA      ID1       ID2
     3.50634188E-01    2           5        -5   # BR(H -> b       bb     )
     6.09334432E-02    2         -15        15   # BR(H -> tau+    tau-   )
     2.15445897E-04    2         -13        13   # BR(H -> mu+     mu-    )
     2.54835357E-04    2           3        -3   # BR(H -> s       sb     )
     7.14704433E-08    2           4        -4   # BR(H -> c       cb     )
     7.16282642E-03    2           6        -6   # BR(H -> t       tb     )
     8.15748335E-07    2          21        21   # BR(H -> g       g      )
     3.40748443E-10    2          22        22   # BR(H -> gam     gam    )
     1.84450516E-09    2          23        22   # BR(H -> Z       gam    )
     1.69166829E-06    2          24       -24   # BR(H -> W+      W-     )
     8.45248270E-07    2          23        23   # BR(H -> Z       Z      )
     6.31335384E-06    2          25        25   # BR(H -> h       h      )
     9.38737793E-25    2          36        36   # BR(H -> A       A      )
     1.89616072E-20    2          23        36   # BR(H -> Z       A      )
     1.87405856E-03    2     1000024  -1000024   # BR(H -> ~chi_1+ ~chi_1-)
     1.61919805E-01    2     1000024  -1000037   # BR(H -> ~chi_1+ ~chi_2-)
     1.61919805E-01    2     1000037  -1000024   # BR(H -> ~chi_2+ ~chi_1-)
     2.83447905E-02    2     1000022   1000022   # BR(H -> ~chi_10 ~chi_10)
     8.94850592E-04    2     1000023   1000023   # BR(H -> ~chi_20 ~chi_20)
     1.77297826E-02    2     1000025   1000025   # BR(H -> ~chi_30 ~chi_30)
     2.08582896E-02    2     1000022   1000023   # BR(H -> ~chi_10 ~chi_20)
     2.37616201E-03    2     1000022   1000025   # BR(H -> ~chi_10 ~chi_30)
     3.68669005E-02    2     1000022   1000035   # BR(H -> ~chi_10 ~chi_40)
     1.73451612E-02    2     1000023   1000025   # BR(H -> ~chi_20 ~chi_30)
     8.00452965E-02    2     1000023   1000035   # BR(H -> ~chi_20 ~chi_40)
     4.54761069E-02    2     1000025   1000035   # BR(H -> ~chi_30 ~chi_40)
     1.90564905E-04    2     1000006  -1000006   # BR(H -> ~t_1    ~t_1*  )
     2.47397332E-03    2     1000006  -2000006   # BR(H -> ~t_1    ~t_2*  )
     2.47397332E-03    2     2000006  -1000006   # BR(H -> ~t_2    ~t_1*  )
#
#         PDG            Width
DECAY        36     5.44102920E+01   # A decays
#          BR         NDA      ID1       ID2
     3.50680415E-01    2           5        -5   # BR(A -> b       bb     )
     6.09372986E-02    2         -15        15   # BR(A -> tau+    tau-   )
     2.15459359E-04    2         -13        13   # BR(A -> mu+     mu-    )
     2.54892849E-04    2           3        -3   # BR(A -> s       sb     )
     7.19424889E-08    2           4        -4   # BR(A -> c       cb     )
     7.17755429E-03    2           6        -6   # BR(A -> t       tb     )
     1.47480626E-05    2          21        21   # BR(A -> g       g      )
     5.50381633E-08    2          22        22   # BR(A -> gam     gam    )
     1.62190923E-08    2          23        22   # BR(A -> Z       gam    )
     1.68832863E-06    2          23        25   # BR(A -> Z       h      )
     1.87903750E-03    2     1000024  -1000024   # BR(A -> ~chi_1+ ~chi_1-)
     1.61930154E-01    2     1000024  -1000037   # BR(A -> ~chi_1+ ~chi_2-)
     1.61930154E-01    2     1000037  -1000024   # BR(A -> ~chi_2+ ~chi_1-)
     2.42769614E-02    2     1000022   1000022   # BR(A -> ~chi_10 ~chi_10)
     1.11889488E-03    2     1000023   1000023   # BR(A -> ~chi_20 ~chi_20)
     1.46021217E-02    2     1000025   1000025   # BR(A -> ~chi_30 ~chi_30)
     2.60519927E-02    2     1000022   1000023   # BR(A -> ~chi_10 ~chi_20)
     1.78630244E-03    2     1000022   1000025   # BR(A -> ~chi_10 ~chi_30)
     3.72158203E-02    2     1000022   1000035   # BR(A -> ~chi_10 ~chi_40)
     1.97170762E-02    2     1000023   1000025   # BR(A -> ~chi_20 ~chi_30)
     7.97950666E-02    2     1000023   1000035   # BR(A -> ~chi_20 ~chi_40)
     4.53631519E-02    2     1000025   1000035   # BR(A -> ~chi_30 ~chi_40)
     2.52553295E-03    2     1000006  -2000006   # BR(A -> ~t_1    ~t_2*  )
     2.52553295E-03    2    -1000006   2000006   # BR(A -> ~t_1*   ~t_2   )
#
#         PDG            Width
DECAY        37     5.43321561E+01   # H+ decays
#          BR         NDA      ID1       ID2
     5.59632963E-04    2           4        -5   # BR(H+ -> c       bb     )
     6.10399002E-02    2         -15        16   # BR(H+ -> tau+    nu_tau )
     2.15822133E-04    2         -13        14   # BR(H+ -> mu+     nu_mu  )
     3.58164789E-06    2           2        -5   # BR(H+ -> u       bb     )
     1.22267471E-05    2           2        -3   # BR(H+ -> u       sb     )
     2.51543507E-04    2           4        -3   # BR(H+ -> c       sb     )
     3.56589318E-01    2           6        -5   # BR(H+ -> t       bb     )
     1.69259263E-06    2          24        25   # BR(H+ -> W+      h      )
     2.20071600E-14    2          24        36   # BR(H+ -> W+      A      )
     4.99489583E-02    2     1000024   1000022   # BR(H+ -> ~chi_1+ ~chi_10)
     4.59889983E-06    2     1000024   1000023   # BR(H+ -> ~chi_1+ ~chi_20)
     3.83409718E-02    2     1000024   1000025   # BR(H+ -> ~chi_1+ ~chi_30)
     1.62367861E-01    2     1000024   1000035   # BR(H+ -> ~chi_1+ ~chi_40)
     7.42953913E-02    2     1000037   1000022   # BR(H+ -> ~chi_2+ ~chi_10)
     1.60160968E-01    2     1000037   1000023   # BR(H+ -> ~chi_2+ ~chi_20)
     9.11149433E-02    2     1000037   1000025   # BR(H+ -> ~chi_2+ ~chi_30)
     5.09258955E-03    2     1000006  -1000005   # BR(H+ -> ~t_1    ~b_1*  )
