#
#                              ======================
#                              | THE SUSYHIT OUTPUT |
#                              ======================
#
#
#              ------------------------------------------------------
#              |     This is the output of the SUSY-HIT package     |
#              |  created by A.Djouadi, M.Muehlleitner and M.Spira. |
#              |  In case of problems with SUSY-HIT email to        |
#              |           margarete.muehlleitner@kit.edu           |
#              |           michael.spira@psi.ch                     |
#              |           abdelhak.djouadi@cern.ch                 |
#              ------------------------------------------------------
#
#              ------------------------------------------------------
#              |  SUSY Les Houches Accord - MSSM Spectrum + Decays  |
#              |              based on the decay programs           |
#              |                                                    |
#              |                     SDECAY 1.5                     |
#              |                                                    |
#              |  Authors: M.Muhlleitner, A.Djouadi and Y.Mambrini  |
#              |  Ref.:    Comput.Phys.Commun.168(2005)46           |
#              |           [hep-ph/0311167]                         |
#              |                                                    |
#              |                     HDECAY 3.4                     |
#              |                                                    |
#              |  By: A.Djouadi,J.Kalinowski,M.Muhlleitner,M.Spira  |
#              |  Ref.:    Comput.Phys.Commun.108(1998)56           |
#              |           [hep-ph/9704448]                         |
#              |                                                    |
#              |                                                    |
#              |  If not stated otherwise all DRbar couplings and   |
#              |  soft SUSY breaking masses are given at the scale  |
#              |  Q=  0.13004717E+04
#              |                                                    |
#              ------------------------------------------------------
#
#
BLOCK DCINFO  # Decay Program information
     1   SDECAY/HDECAY # decay calculator
     2   1.5  /3.4    # version number
#
BLOCK SPINFO  # Spectrum calculator information
     1    SOFTSUSY    # spectrum calculator                
     2    3.7.3       # version number                     
#
BLOCK MODSEL  # Model selection
     1     0   #  nonUniversal                                     
#
BLOCK SMINPUTS  # Standard Model inputs
         1     1.27934000E+02   # alpha_em^-1(M_Z)^MSbar
         2     1.16639000E-05   # G_F [GeV^-2]
         3     1.17200000E-01   # alpha_S(M_Z)^MSbar
         4     9.11870000E+01   # M_Z pole mass
         5     4.19000000E+00   # mb(mb)^MSbar
         6     1.72500000E+02   # mt pole mass
         7     1.77690000E+00   # mtau pole mass
#
BLOCK MINPAR  # Input parameters - minimal models
         3     2.00000000E+01   # tanb                
#
BLOCK EXTPAR  # Input parameters - non-minimal models
         0    -1.00000000E+00   # Set                 
         1     1.09990000E+02   # M_1(MX)             
         2     2.00000000E+03   # M_2(MX)             
         3     1.80000000E+03   # M_3(MX)             
        11     2.64959179E+03   # At(MX)              
        12     0.00000000E+00   # Ab(MX)              
        13     0.00000000E+00   # Atau(MX)            
        23    -1.26900000E+02   # mu(MX)              
        25     2.00000000E+01   # tan                 
        26     4.00000000E+03   # mA(pole)            
        31     4.00000000E+03   # meL(MX)             
        32     4.00000000E+03   # mmuL(MX)            
        33     4.00000000E+03   # mtauL(MX)           
        34     4.00000000E+03   # meR(MX)             
        35     4.00000000E+03   # mmuR(MX)            
        36     4.00000000E+03   # mtauR(MX)           
        41     4.00000000E+03   # mqL1(MX)            
        42     4.00000000E+03   # mqL2(MX)            
        43     9.59900000E+02   # mqL3(MX)            
        44     4.00000000E+03   # muR(MX)             
        45     4.00000000E+03   # mcR(MX)             
        46     1.78485961E+03   # mtR(MX)             
        47     4.00000000E+03   # mdR(MX)             
        48     4.00000000E+03   # msR(MX)             
        49     4.00000000E+03   # mbR(MX)             
#
BLOCK MASS  # Mass Spectrum
# PDG code           mass       particle
        24     8.04171776E+01   # W+
        25     1.26102561E+02   # h
        35     4.00000065E+03   # H
        36     3.99999645E+03   # A
        37     4.00107280E+03   # H+
         5     4.81337004E+00   # b-quark pole mass calculated from mb(mb)_Msbar
   1000001     4.02592851E+03   # ~d_L
   2000001     4.02257988E+03   # ~d_R
   1000002     4.02527696E+03   # ~u_L
   2000002     4.02332388E+03   # ~u_R
   1000003     4.02592851E+03   # ~s_L
   2000003     4.02257988E+03   # ~s_R
   1000004     4.02527696E+03   # ~c_L
   2000004     4.02332388E+03   # ~c_R
   1000005     1.01376473E+03   # ~b_1
   2000005     4.02535602E+03   # ~b_2
   1000006     9.86545944E+02   # ~t_1
   2000006     1.80209938E+03   # ~t_2
   1000011     4.00455810E+03   # ~e_L
   2000011     4.00351814E+03   # ~e_R
   1000012     4.00344399E+03   # ~nu_eL
   1000013     4.00455810E+03   # ~mu_L
   2000013     4.00351814E+03   # ~mu_R
   1000014     4.00344399E+03   # ~nu_muL
   1000015     4.00560981E+03   # ~tau_1
   2000015     4.00681230E+03   # ~tau_2
   1000016     4.00489393E+03   # ~nu_tauL
   1000021     1.97719987E+03   # ~g
   1000022     9.30653666E+01   # ~chi_10
   1000023    -1.37093895E+02   # ~chi_20
   1000025     1.53083420E+02   # ~chi_30
   1000035     2.05226160E+03   # ~chi_40
   1000024     1.31984235E+02   # ~chi_1+
   1000037     2.05242666E+03   # ~chi_2+
#
BLOCK NMIX  # Neutralino Mixing Matrix
  1  1    -7.62033739E-01   # N_11
  1  2     1.37831933E-02   # N_12
  1  3     5.33725085E-01   # N_13
  1  4     3.66404336E-01   # N_14
  2  1    -1.35777316E-01   # N_21
  2  2     2.72138363E-02   # N_22
  2  3    -6.85356237E-01   # N_23
  2  4     7.14920105E-01   # N_24
  3  1     6.33141604E-01   # N_31
  3  2     2.38450235E-02   # N_32
  3  3     4.95402961E-01   # N_33
  3  4     5.94255021E-01   # N_34
  4  1    -8.99671053E-04   # N_41
  4  2     9.99250142E-01   # N_42
  4  3    -5.18547655E-04   # N_43
  4  4    -3.87049886E-02   # N_44
#
BLOCK UMIX  # Chargino Mixing Matrix U
  1  1     7.37628780E-04   # U_11
  1  2     9.99999728E-01   # U_12
  2  1    -9.99999728E-01   # U_21
  2  2     7.37628780E-04   # U_22
#
BLOCK VMIX  # Chargino Mixing Matrix V
  1  1     5.47504082E-02   # V_11
  1  2    -9.98500072E-01   # V_12
  2  1    -9.98500072E-01   # V_21
  2  2    -5.47504082E-02   # V_22
#
BLOCK STOPMIX  # Stop Mixing Matrix
  1  1     9.85836363E-01   # cos(theta_t)
  1  2    -1.67710063E-01   # sin(theta_t)
  2  1     1.67710063E-01   # -sin(theta_t)
  2  2     9.85836363E-01   # cos(theta_t)
#
BLOCK SBOTMIX  # Sbottom Mixing Matrix
  1  1     9.99999918E-01   # cos(theta_b)
  1  2    -4.04969126E-04   # sin(theta_b)
  2  1     4.04969126E-04   # -sin(theta_b)
  2  2     9.99999918E-01   # cos(theta_b)
#
BLOCK STAUMIX  # Stau Mixing Matrix
  1  1    -7.03404481E-01   # cos(theta_tau)
  1  2     7.10789797E-01   # sin(theta_tau)
  2  1    -7.10789797E-01   # -sin(theta_tau)
  2  2    -7.03404481E-01   # cos(theta_tau)
#
BLOCK ALPHA  # Higgs mixing
          -5.00330743E-02   # Mixing angle in the neutral Higgs boson sector
#
BLOCK HMIX Q=  1.30047174E+03  # DRbar Higgs Parameters
         1    -1.26900000E+02   # mu(Q)MSSM           
         2     2.00000000E+01   # tan                 
         3     2.43476598E+02   # higgs               
         4     1.60627863E+07   # mA^2(Q)MSSM         
#
BLOCK GAUGE Q=  1.30047174E+03  # The gauge couplings
     1     3.62139148E-01   # gprime(Q) DRbar
     2     6.37231875E-01   # g(Q) DRbar
     3     1.03007610E+00   # g3(Q) DRbar
#
BLOCK AU Q=  1.30047174E+03  # The trilinear couplings
  1  1     0.00000000E+00   # A_u(Q) DRbar
  2  2     1.36968884E-06   # A_c(Q) DRbar
  3  3     2.64959179E+03   # A_t(Q) DRbar
#
BLOCK AD Q=  1.30047174E+03  # The trilinear couplings
  1  1     5.00981037E-07   # A_d(Q) DRbar
  2  2     5.01028039E-07   # A_s(Q) DRbar
  3  3     8.97787859E-07   # A_b(Q) DRbar
#
BLOCK AE Q=  1.30047174E+03  # The trilinear couplings
  1  1     0.00000000E+00   # A_e(Q) DRbar
  2  2     1.07252214E-07   # A_mu(Q) DRbar
  3  3     1.08357398E-07   # A_tau(Q) DRbar
#
BLOCK Yu Q=  1.30047174E+03  # The Yukawa couplings
  1  1     0.00000000E+00   # y_u(Q) DRbar
  2  2     0.00000000E+00   # y_c(Q) DRbar
  3  3     8.69146151E-01   # y_t(Q) DRbar
#
BLOCK Yd Q=  1.30047174E+03  # The Yukawa couplings
  1  1     0.00000000E+00   # y_d(Q) DRbar
  2  2     0.00000000E+00   # y_s(Q) DRbar
  3  3     2.80008181E-01   # y_b(Q) DRbar
#
BLOCK Ye Q=  1.30047174E+03  # The Yukawa couplings
  1  1     0.00000000E+00   # y_e(Q) DRbar
  2  2     0.00000000E+00   # y_mu(Q) DRbar
  3  3     2.04300081E-01   # y_tau(Q) DRbar
#
BLOCK MSOFT Q=  1.30047174E+03  # The soft SUSY breaking masses at the scale Q
         1     1.09990000E+02   # M_1(Q)              
         2     2.00000000E+03   # M_2(Q)              
         3     1.80000000E+03   # M_3(Q)              
        21     1.58739165E+07   # M^2_Hd              
        22     3.35127776E+04   # M^2_Hu              
        31     4.00000000E+03   # M_eL                
        32     4.00000000E+03   # M_muL               
        33     4.00000000E+03   # M_tauL              
        34     4.00000000E+03   # M_eR                
        35     4.00000000E+03   # M_muR               
        36     4.00000000E+03   # M_tauR              
        41     4.00000000E+03   # M_q1L               
        42     4.00000000E+03   # M_q2L               
        43     9.59899997E+02   # M_q3L               
        44     4.00000000E+03   # M_uR                
        45     4.00000000E+03   # M_cR                
        46     1.78485961E+03   # M_tR                
        47     4.00000000E+03   # M_dR                
        48     4.00000000E+03   # M_sR                
        49     4.00000000E+03   # M_bR                
#
#
#
#                             =================
#                             |The decay table|
#                             =================
#
# - The QCD corrections to the decays gluino -> squark  + quark
#                                     squark -> gaugino + quark_prime
#                                     squark -> squark_prime + Higgs
#                                     squark -> gluino  + quark
#   are included.
#
# - The multi-body decays for the inos, stops and sbottoms are included.
#
# - The loop induced decays for the gluino, neutralinos and stops
#   are included.
#
# - The SUSY decays of the top quark are included.
#
#
#         PDG            Width
DECAY         6     1.40877360E+00   # top decays
#          BR         NDA      ID1       ID2
     1.00000000E+00    2           5        24   # BR(t ->  b    W+)
#
#         PDG            Width
DECAY   1000021     4.70230342E+01   # gluino decays
#          BR         NDA      ID1       ID2
     2.36953926E-01    2     1000005        -5   # BR(~g -> ~b_1  bb)
     2.36953926E-01    2    -1000005         5   # BR(~g -> ~b_1* b )
     2.61721869E-01    2     1000006        -6   # BR(~g -> ~t_1  tb)
     2.61721869E-01    2    -1000006         6   # BR(~g -> ~t_1* t )
     1.32420529E-03    2     2000006        -6   # BR(~g -> ~t_2  tb)
     1.32420529E-03    2    -2000006         6   # BR(~g -> ~t_2* t )
#
#         PDG            Width
DECAY   1000006     1.50190117E+01   # stop1 decays
#          BR         NDA      ID1       ID2
     1.05521120E-01    2     1000022         6   # BR(~t_1 -> ~chi_10 t )
     4.37272816E-01    2     1000023         6   # BR(~t_1 -> ~chi_20 t )
     3.49662618E-01    2     1000025         6   # BR(~t_1 -> ~chi_30 t )
     1.07543446E-01    2     1000024         5   # BR(~t_1 -> ~chi_1+ b )
#
#         PDG            Width
DECAY   2000006     1.15705678E+02   # stop2 decays
#          BR         NDA      ID1       ID2
     5.49797866E-02    2     1000022         6   # BR(~t_2 -> ~chi_10 t )
     1.17256083E-01    2     1000023         6   # BR(~t_2 -> ~chi_20 t )
     8.46149063E-02    2     1000025         6   # BR(~t_2 -> ~chi_30 t )
     2.21654455E-01    2     1000024         5   # BR(~t_2 -> ~chi_1+ b )
     1.59005878E-01    2     1000006        25   # BR(~t_2 -> ~t_1    h )
     1.25404315E-01    2     1000006        23   # BR(~t_2 -> ~t_1    Z )
     2.37084576E-01    2     1000005        24   # BR(~t_2 -> ~b_1    W+)
#
#         PDG            Width
DECAY   1000005     1.54456342E+01   # sbottom1 decays
#          BR         NDA      ID1       ID2
     3.43772925E-02    2     1000022         5   # BR(~b_1 -> ~chi_10 b )
     4.55369824E-02    2     1000023         5   # BR(~b_1 -> ~chi_20 b )
     2.55294698E-02    2     1000025         5   # BR(~b_1 -> ~chi_30 b )
     8.94556255E-01    2    -1000024         6   # BR(~b_1 -> ~chi_1- t )
#
#         PDG            Width
DECAY   2000005     1.65584733E+02   # sbottom2 decays
#          BR         NDA      ID1       ID2
     1.81462108E-02    2     1000022         5   # BR(~b_2 -> ~chi_10 b )
     1.71842149E-02    2     1000023         5   # BR(~b_2 -> ~chi_20 b )
     1.42756835E-02    2     1000025         5   # BR(~b_2 -> ~chi_30 b )
     2.94832116E-08    2     1000035         5   # BR(~b_2 -> ~chi_40 b )
     3.59523976E-02    2    -1000024         6   # BR(~b_2 -> ~chi_1- t )
     4.71480094E-08    2    -1000037         6   # BR(~b_2 -> ~chi_2- t )
     9.14375022E-01    2     1000021         5   # BR(~b_2 -> ~g      b )
     1.64450585E-05    2     1000005        25   # BR(~b_2 -> ~b_1    h )
     1.85090308E-05    2     1000005        23   # BR(~b_2 -> ~b_1    Z )
     3.09427758E-05    2     1000006       -24   # BR(~b_2 -> ~t_1    W-)
     4.97967355E-07    2     2000006       -24   # BR(~b_2 -> ~t_2    W-)
#
#         PDG            Width
DECAY   1000002     1.77908259E+02   # sup_L decays
#          BR         NDA      ID1       ID2
     1.49912215E-03    2     1000022         2   # BR(~u_L -> ~chi_10 u)
     1.95810158E-07    2     1000023         2   # BR(~u_L -> ~chi_20 u)
     1.81498170E-03    2     1000025         2   # BR(~u_L -> ~chi_30 u)
     4.84102570E-02    2     1000035         2   # BR(~u_L -> ~chi_40 u)
     5.26678767E-04    2     1000024         1   # BR(~u_L -> ~chi_1+ d)
     9.66973517E-02    2     1000037         1   # BR(~u_L -> ~chi_2+ d)
     8.51051413E-01    2     1000021         2   # BR(~u_L -> ~g      u)
#
#         PDG            Width
DECAY   2000002     1.60213784E+02   # sup_R decays
#          BR         NDA      ID1       ID2
     3.25389063E-02    2     1000022         2   # BR(~u_R -> ~chi_10 u)
     1.03191708E-03    2     1000023         2   # BR(~u_R -> ~chi_20 u)
     2.24269980E-02    2     1000025         2   # BR(~u_R -> ~chi_30 u)
     2.49992868E-08    2     1000035         2   # BR(~u_R -> ~chi_40 u)
     9.44002154E-01    2     1000021         2   # BR(~u_R -> ~g      u)
#
#         PDG            Width
DECAY   1000001     1.77927587E+02   # sdown_L decays
#          BR         NDA      ID1       ID2
     2.19905814E-03    2     1000022         1   # BR(~d_L -> ~chi_10 d)
     2.46139078E-04    2     1000023         1   # BR(~d_L -> ~chi_20 d)
     8.10710518E-04    2     1000025         1   # BR(~d_L -> ~chi_30 d)
     4.84568721E-02    2     1000035         1   # BR(~d_L -> ~chi_40 d)
     9.56030056E-08    2    -1000024         2   # BR(~d_L -> ~chi_1- u)
     9.70152186E-02    2    -1000037         2   # BR(~d_L -> ~chi_2- u)
     8.51271906E-01    2     1000021         1   # BR(~d_L -> ~g      d)
#
#         PDG            Width
DECAY   2000001     1.53421050E+02   # sdown_R decays
#          BR         NDA      ID1       ID2
     8.49328777E-03    2     1000022         1   # BR(~d_R -> ~chi_10 d)
     2.69350334E-04    2     1000023         1   # BR(~d_R -> ~chi_20 d)
     5.85387955E-03    2     1000025         1   # BR(~d_R -> ~chi_30 d)
     6.52363095E-09    2     1000035         1   # BR(~d_R -> ~chi_40 d)
     9.85383476E-01    2     1000021         1   # BR(~d_R -> ~g      d)
#
#         PDG            Width
DECAY   1000004     1.77908259E+02   # scharm_L decays
#          BR         NDA      ID1       ID2
     1.49912215E-03    2     1000022         4   # BR(~c_L -> ~chi_10 c)
     1.95810158E-07    2     1000023         4   # BR(~c_L -> ~chi_20 c)
     1.81498170E-03    2     1000025         4   # BR(~c_L -> ~chi_30 c)
     4.84102570E-02    2     1000035         4   # BR(~c_L -> ~chi_40 c)
     5.26678767E-04    2     1000024         3   # BR(~c_L -> ~chi_1+ s)
     9.66973517E-02    2     1000037         3   # BR(~c_L -> ~chi_2+ s)
     8.51051413E-01    2     1000021         4   # BR(~c_L -> ~g      c)
#
#         PDG            Width
DECAY   2000004     1.60213784E+02   # scharm_R decays
#          BR         NDA      ID1       ID2
     3.25389063E-02    2     1000022         4   # BR(~c_R -> ~chi_10 c)
     1.03191708E-03    2     1000023         4   # BR(~c_R -> ~chi_20 c)
     2.24269980E-02    2     1000025         4   # BR(~c_R -> ~chi_30 c)
     2.49992868E-08    2     1000035         4   # BR(~c_R -> ~chi_40 c)
     9.44002154E-01    2     1000021         4   # BR(~c_R -> ~g      c)
#
#         PDG            Width
DECAY   1000003     1.77927587E+02   # sstrange_L decays
#          BR         NDA      ID1       ID2
     2.19905814E-03    2     1000022         3   # BR(~s_L -> ~chi_10 s)
     2.46139078E-04    2     1000023         3   # BR(~s_L -> ~chi_20 s)
     8.10710518E-04    2     1000025         3   # BR(~s_L -> ~chi_30 s)
     4.84568721E-02    2     1000035         3   # BR(~s_L -> ~chi_40 s)
     9.56030056E-08    2    -1000024         4   # BR(~s_L -> ~chi_1- c)
     9.70152186E-02    2    -1000037         4   # BR(~s_L -> ~chi_2- c)
     8.51271906E-01    2     1000021         3   # BR(~s_L -> ~g      s)
#
#         PDG            Width
DECAY   2000003     1.53421050E+02   # sstrange_R decays
#          BR         NDA      ID1       ID2
     8.49328777E-03    2     1000022         3   # BR(~s_R -> ~chi_10 s)
     2.69350334E-04    2     1000023         3   # BR(~s_R -> ~chi_20 s)
     5.85387955E-03    2     1000025         3   # BR(~s_R -> ~chi_30 s)
     6.52363095E-09    2     1000035         3   # BR(~s_R -> ~chi_40 s)
     9.85383476E-01    2     1000021         3   # BR(~s_R -> ~g      s)
#
#         PDG            Width
DECAY   1000011     3.16140709E+01   # selectron_L decays
#          BR         NDA      ID1       ID2
     8.98483774E-02    2     1000022        11   # BR(~e_L -> ~chi_10 e-)
     1.27348876E-03    2     1000023        11   # BR(~e_L -> ~chi_20 e-)
     7.50916044E-02    2     1000025        11   # BR(~e_L -> ~chi_30 e-)
     2.77482533E-01    2     1000035        11   # BR(~e_L -> ~chi_40 e-)
     5.55560016E-07    2    -1000024        12   # BR(~e_L -> ~chi_1- nu_e)
     5.56303441E-01    2    -1000037        12   # BR(~e_L -> ~chi_2- nu_e)
#
#         PDG            Width
DECAY   2000011     2.08522073E+01   # selectron_R decays
#          BR         NDA      ID1       ID2
     5.81138663E-01    2     1000022        11   # BR(~e_R -> ~chi_10 e-)
     1.84262172E-02    2     1000023        11   # BR(~e_R -> ~chi_20 e-)
     4.00434679E-01    2     1000025        11   # BR(~e_R -> ~chi_30 e-)
     4.40727383E-07    2     1000035        11   # BR(~e_R -> ~chi_40 e-)
#
#         PDG            Width
DECAY   1000013     3.16140709E+01   # smuon_L decays
#          BR         NDA      ID1       ID2
     8.98483774E-02    2     1000022        13   # BR(~mu_L -> ~chi_10 mu-)
     1.27348876E-03    2     1000023        13   # BR(~mu_L -> ~chi_20 mu-)
     7.50916044E-02    2     1000025        13   # BR(~mu_L -> ~chi_30 mu-)
     2.77482533E-01    2     1000035        13   # BR(~mu_L -> ~chi_40 mu-)
     5.55560016E-07    2    -1000024        14   # BR(~mu_L -> ~chi_1- nu_mu)
     5.56303441E-01    2    -1000037        14   # BR(~mu_L -> ~chi_2- nu_mu)
#
#         PDG            Width
DECAY   2000013     2.08522073E+01   # smuon_R decays
#          BR         NDA      ID1       ID2
     5.81138663E-01    2     1000022        13   # BR(~mu_R -> ~chi_10 mu-)
     1.84262172E-02    2     1000023        13   # BR(~mu_R -> ~chi_20 mu-)
     4.00434679E-01    2     1000025        13   # BR(~mu_R -> ~chi_30 mu-)
     4.40727383E-07    2     1000035        13   # BR(~mu_R -> ~chi_40 mu-)
#
#         PDG            Width
DECAY   1000015     3.11951186E+01   # stau_1 decays
#          BR         NDA      ID1       ID2
     3.27783043E-01    2     1000022        15   # BR(~tau_1 -> ~chi_10  tau-)
     4.00468238E-02    2     1000023        15   # BR(~tau_1 -> ~chi_20  tau-)
     1.60027909E-01    2     1000025        15   # BR(~tau_1 -> ~chi_30  tau-)
     1.39158553E-01    2     1000035        15   # BR(~tau_1 -> ~chi_40  tau-)
     5.39962012E-02    2    -1000024        16   # BR(~tau_1 -> ~chi_1-  nu_tau)
     2.78987470E-01    2    -1000037        16   # BR(~tau_1 -> ~chi_2-  nu_tau)
#
#         PDG            Width
DECAY   2000015     3.12723365E+01   # stau_2 decays
#          BR         NDA      ID1       ID2
     2.12179179E-01    2     1000022        15   # BR(~tau_2 -> ~chi_10  tau-)
     7.33386292E-02    2     1000023        15   # BR(~tau_2 -> ~chi_20  tau-)
     2.35569437E-01    2     1000025        15   # BR(~tau_2 -> ~chi_30  tau-)
     1.41981733E-01    2     1000035        15   # BR(~tau_2 -> ~chi_40  tau-)
     5.22818830E-02    2    -1000024        16   # BR(~tau_2 -> ~chi_1-  nu_tau)
     2.84649140E-01    2    -1000037        16   # BR(~tau_2 -> ~chi_2-  nu_tau)
#
#         PDG            Width
DECAY   1000012     3.16246645E+01   # snu_eL decays
#          BR         NDA      ID1       ID2
     1.01988621E-01    2     1000022        12   # BR(~nu_eL -> ~chi_10 nu_e)
     5.55758742E-03    2     1000023        12   # BR(~nu_eL -> ~chi_20 nu_e)
     5.75482412E-02    2     1000025        12   # BR(~nu_eL -> ~chi_30 nu_e)
     2.77770376E-01    2     1000035        12   # BR(~nu_eL -> ~chi_40 nu_e)
     3.05888483E-03    2     1000024        11   # BR(~nu_eL -> ~chi_1+ e-)
     5.54076289E-01    2     1000037        11   # BR(~nu_eL -> ~chi_2+ e-)
#
#         PDG            Width
DECAY   1000014     3.16246645E+01   # snu_muL decays
#          BR         NDA      ID1       ID2
     1.01988621E-01    2     1000022        14   # BR(~nu_muL -> ~chi_10 nu_mu)
     5.55758742E-03    2     1000023        14   # BR(~nu_muL -> ~chi_20 nu_mu)
     5.75482412E-02    2     1000025        14   # BR(~nu_muL -> ~chi_30 nu_mu)
     2.77770376E-01    2     1000035        14   # BR(~nu_muL -> ~chi_40 nu_mu)
     3.05888483E-03    2     1000024        13   # BR(~nu_muL -> ~chi_1+ mu-)
     5.54076289E-01    2     1000037        13   # BR(~nu_muL -> ~chi_2+ mu-)
#
#         PDG            Width
DECAY   1000016     3.49680143E+01   # snu_tauL decays
#          BR         NDA      ID1       ID2
     9.22707984E-02    2     1000022        16   # BR(~nu_tauL -> ~chi_10 nu_tau)
     5.02804619E-03    2     1000023        16   # BR(~nu_tauL -> ~chi_20 nu_tau)
     5.20649185E-02    2     1000025        16   # BR(~nu_tauL -> ~chi_30 nu_tau)
     2.51432990E-01    2     1000035        16   # BR(~nu_tauL -> ~chi_40 nu_tau)
     9.76632998E-02    2     1000024        15   # BR(~nu_tauL -> ~chi_1+ tau-)
     5.01539947E-01    2     1000037        15   # BR(~nu_tauL -> ~chi_2+ tau-)
#
#         PDG            Width
DECAY   1000024     3.48555836E-05   # chargino1+ decays
#           BR         NDA      ID1       ID2       ID3
     3.33714278E-01    3     1000022         2        -1   # BR(~chi_1+ -> ~chi_10 u    db)
     3.33714278E-01    3     1000022         4        -3   # BR(~chi_1+ -> ~chi_10 c    sb)
     1.11238863E-01    3     1000022       -11        12   # BR(~chi_1+ -> ~chi_10 e+   nu_e)
     1.11238863E-01    3     1000022       -13        14   # BR(~chi_1+ -> ~chi_10 mu+  nu_mu)
     1.10093717E-01    3     1000022       -15        16   # BR(~chi_1+ -> ~chi_10 tau+ nu_tau)
#
#         PDG            Width
DECAY   1000037     5.01054229E+01   # chargino2+ decays
#          BR         NDA      ID1       ID2
     3.47906845E-01    2     1000006        -5   # BR(~chi_2+ -> ~t_1     bb)
     2.85760076E-04    2     2000006        -5   # BR(~chi_2+ -> ~t_2     bb)
     3.29721001E-01    2    -1000005         6   # BR(~chi_2+ -> ~b_1*    t )
     8.18413554E-02    2     1000024        23   # BR(~chi_2+ -> ~chi_1+  Z )
     1.95543894E-02    2     1000022        24   # BR(~chi_2+ -> ~chi_10  W+)
     8.08605244E-02    2     1000023        24   # BR(~chi_2+ -> ~chi_20  W+)
     5.90280400E-02    2     1000025        24   # BR(~chi_2+ -> ~chi_30  W+)
     8.08020846E-02    2     1000024        25   # BR(~chi_2+ -> ~chi_1+  h )
#
#         PDG            Width
DECAY   1000022     0.00000000E+00   # neutralino1 decays
#
#         PDG            Width
DECAY   1000023     4.52338992E-05   # neutralino2 decays
#          BR         NDA      ID1       ID2
     1.69906348E-03    2     1000022        22   # BR(~chi_20 -> ~chi_10 gam)
#           BR         NDA      ID1       ID2       ID3
     1.18456318E-01    3     1000022        -2         2   # BR(~chi_20 -> ~chi_10 ub      u)
     1.53626640E-01    3     1000022        -1         1   # BR(~chi_20 -> ~chi_10 db      d)
     1.18456318E-01    3     1000022        -4         4   # BR(~chi_20 -> ~chi_10 cb      c)
     1.53626640E-01    3     1000022        -3         3   # BR(~chi_20 -> ~chi_10 sb      s)
     1.37580854E-01    3     1000022        -5         5   # BR(~chi_20 -> ~chi_10 bb      b)
     3.52099719E-02    3     1000022       -11        11   # BR(~chi_20 -> ~chi_10 e+      e-)
     3.52099719E-02    3     1000022       -13        13   # BR(~chi_20 -> ~chi_10 mu+     mu-)
     3.47798334E-02    3     1000022       -15        15   # BR(~chi_20 -> ~chi_10 tau+    tau-)
     7.03972394E-02    3     1000022       -12        12   # BR(~chi_20 -> ~chi_10 nu_eb   nu_e)
     7.03972394E-02    3     1000022       -14        14   # BR(~chi_20 -> ~chi_10 nu_mub  nu_mu)
     7.03972366E-02    3     1000022       -16        16   # BR(~chi_20 -> ~chi_10 nu_taub nu_tau)
     2.85034012E-05    3     1000024        -2         1   # BR(~chi_20 -> ~chi_1+ ub      d)
     2.85034012E-05    3    -1000024        -1         2   # BR(~chi_20 -> ~chi_1- db      u)
     2.85034012E-05    3     1000024        -4         3   # BR(~chi_20 -> ~chi_1+ cb      s)
     2.85034012E-05    3    -1000024        -3         4   # BR(~chi_20 -> ~chi_1- sb      c)
     9.50115721E-06    3     1000024       -12        11   # BR(~chi_20 -> ~chi_1+ nu_eb   e-)
     9.50115721E-06    3    -1000024        12       -11   # BR(~chi_20 -> ~chi_1- nu_e    e+)
     9.50115721E-06    3     1000024       -14        13   # BR(~chi_20 -> ~chi_1+ nu_mub  mu-)
     9.50115721E-06    3    -1000024        14       -13   # BR(~chi_20 -> ~chi_1- nu_mu   mu+)
     5.32795428E-06    3     1000024       -16        15   # BR(~chi_20 -> ~chi_1+ nu_taub tau-)
     5.32795428E-06    3    -1000024        16       -15   # BR(~chi_20 -> ~chi_1- nu_tau  tau+)
#
#         PDG            Width
DECAY   1000025     9.94878583E-06   # neutralino3 decays
#          BR         NDA      ID1       ID2
     9.69584514E-03    2     1000022        22   # BR(~chi_30 -> ~chi_10 gam)
     1.35418284E-04    2     1000023        22   # BR(~chi_30 -> ~chi_20 gam)
#           BR         NDA      ID1       ID2       ID3
     5.06367791E-02    3     1000022        -2         2   # BR(~chi_30 -> ~chi_10 ub      u)
     6.54943039E-02    3     1000022        -1         1   # BR(~chi_30 -> ~chi_10 db      d)
     5.06367791E-02    3     1000022        -4         4   # BR(~chi_30 -> ~chi_10 cb      c)
     6.54943039E-02    3     1000022        -3         3   # BR(~chi_30 -> ~chi_10 sb      s)
     6.13530626E-02    3     1000022        -5         5   # BR(~chi_30 -> ~chi_10 bb      b)
     1.48710843E-02    3     1000022       -11        11   # BR(~chi_30 -> ~chi_10 e+      e-)
     1.48710843E-02    3     1000022       -13        13   # BR(~chi_30 -> ~chi_10 mu+     mu-)
     1.47278863E-02    3     1000022       -15        15   # BR(~chi_30 -> ~chi_10 tau+    tau-)
     3.00801898E-02    3     1000022       -12        12   # BR(~chi_30 -> ~chi_10 nu_eb   nu_e)
     3.00801898E-02    3     1000022       -14        14   # BR(~chi_30 -> ~chi_10 nu_mub  nu_mu)
     3.00801478E-02    3     1000022       -16        16   # BR(~chi_30 -> ~chi_10 nu_taub nu_tau)
     6.28384931E-03    3     1000023        -2         2   # BR(~chi_30 -> ~chi_20 ub      u)
     8.15030364E-03    3     1000023        -1         1   # BR(~chi_30 -> ~chi_20 db      d)
     6.28384931E-03    3     1000023        -4         4   # BR(~chi_30 -> ~chi_20 cb      c)
     8.15030364E-03    3     1000023        -3         3   # BR(~chi_30 -> ~chi_20 sb      s)
     3.28748475E-03    3     1000023        -5         5   # BR(~chi_30 -> ~chi_20 bb      b)
     1.86851147E-03    3     1000023       -11        11   # BR(~chi_30 -> ~chi_20 e+      e-)
     1.86851147E-03    3     1000023       -13        13   # BR(~chi_30 -> ~chi_20 mu+     mu-)
     1.74041209E-03    3     1000023       -15        15   # BR(~chi_30 -> ~chi_20 tau+    tau-)
     3.73433839E-03    3     1000023       -12        12   # BR(~chi_30 -> ~chi_20 nu_eb   nu_e)
     3.73433839E-03    3     1000023       -14        14   # BR(~chi_30 -> ~chi_20 nu_mub  nu_mu)
     3.73433849E-03    3     1000023       -16        16   # BR(~chi_30 -> ~chi_20 nu_taub nu_tau)
     8.58303534E-02    3     1000024        -2         1   # BR(~chi_30 -> ~chi_1+ ub      d)
     8.58303534E-02    3    -1000024        -1         2   # BR(~chi_30 -> ~chi_1- db      u)
     8.58303534E-02    3     1000024        -4         3   # BR(~chi_30 -> ~chi_1+ cb      s)
     8.58303534E-02    3    -1000024        -3         4   # BR(~chi_30 -> ~chi_1- sb      c)
     2.86096429E-02    3     1000024       -12        11   # BR(~chi_30 -> ~chi_1+ nu_eb   e-)
     2.86096429E-02    3    -1000024        12       -11   # BR(~chi_30 -> ~chi_1- nu_e    e+)
     2.86096429E-02    3     1000024       -14        13   # BR(~chi_30 -> ~chi_1+ nu_mub  mu-)
     2.86096429E-02    3    -1000024        14       -13   # BR(~chi_30 -> ~chi_1- nu_mu   mu+)
     2.76233496E-02    3     1000024       -16        15   # BR(~chi_30 -> ~chi_1+ nu_taub tau-)
     2.76233496E-02    3    -1000024        16       -15   # BR(~chi_30 -> ~chi_1- nu_tau  tau+)
#
#         PDG            Width
DECAY   1000035     5.00945132E+01   # neutralino4 decays
#          BR         NDA      ID1       ID2
     1.06595517E-02    2     1000022        23   # BR(~chi_40 -> ~chi_10   Z )
     4.29349442E-02    2     1000023        23   # BR(~chi_40 -> ~chi_20   Z )
     2.82287744E-02    2     1000025        23   # BR(~chi_40 -> ~chi_30   Z )
     7.98179049E-02    2     1000024       -24   # BR(~chi_40 -> ~chi_1+   W-)
     7.98179049E-02    2    -1000024        24   # BR(~chi_40 -> ~chi_1-   W+)
     9.28214517E-03    2     1000022        25   # BR(~chi_40 -> ~chi_10   h )
     3.93925055E-02    2     1000023        25   # BR(~chi_40 -> ~chi_20   h )
     3.19077002E-02    2     1000025        25   # BR(~chi_40 -> ~chi_30   h )
     1.69624291E-01    2     1000006        -6   # BR(~chi_40 -> ~t_1      tb)
     1.69624291E-01    2    -1000006         6   # BR(~chi_40 -> ~t_1*     t )
     9.96478107E-05    2     2000006        -6   # BR(~chi_40 -> ~t_2      tb)
     9.96478107E-05    2    -2000006         6   # BR(~chi_40 -> ~t_2*     t )
     1.69255346E-01    2     1000005        -5   # BR(~chi_40 -> ~b_1      bb)
     1.69255346E-01    2    -1000005         5   # BR(~chi_40 -> ~b_1*     b )
#
#         PDG            Width
DECAY        25     4.13433820E-03   # h decays
#          BR         NDA      ID1       ID2
     5.87092185E-01    2           5        -5   # BR(h -> b       bb     )
     6.33200932E-02    2         -15        15   # BR(h -> tau+    tau-   )
     2.24150288E-04    2         -13        13   # BR(h -> mu+     mu-    )
     4.74944669E-04    2           3        -3   # BR(h -> s       sb     )
     2.06222648E-02    2           4        -4   # BR(h -> c       cb     )
     6.76560579E-02    2          21        21   # BR(h -> g       g      )
     2.36439919E-03    2          22        22   # BR(h -> gam     gam    )
     1.66694344E-03    2          22        23   # BR(h -> Z       gam    )
     2.27565007E-01    2          24       -24   # BR(h -> W+      W-     )
     2.90139538E-02    2          23        23   # BR(h -> Z       Z      )
#
#         PDG            Width
DECAY        35     5.43995349E+01   # H decays
#          BR         NDA      ID1       ID2
     3.37738897E-01    2           5        -5   # BR(H -> b       bb     )
     6.09489189E-02    2         -15        15   # BR(H -> tau+    tau-   )
     2.15500615E-04    2         -13        13   # BR(H -> mu+     mu-    )
     2.54900120E-04    2           3        -3   # BR(H -> s       sb     )
     7.15126453E-08    2           4        -4   # BR(H -> c       cb     )
     7.16705583E-03    2           6        -6   # BR(H -> t       tb     )
     1.29880219E-06    2          21        21   # BR(H -> g       g      )
     6.96178219E-10    2          22        22   # BR(H -> gam     gam    )
     1.83772063E-09    2          23        22   # BR(H -> Z       gam    )
     2.14789379E-06    2          24       -24   # BR(H -> W+      W-     )
     1.07320285E-06    2          23        23   # BR(H -> Z       Z      )
     7.97504163E-06    2          25        25   # BR(H -> h       h      )
    -1.95252298E-24    2          36        36   # BR(H -> A       A      )
    -1.91700090E-20    2          23        36   # BR(H -> Z       A      )
     1.85669265E-03    2     1000024  -1000024   # BR(H -> ~chi_1+ ~chi_1-)
     1.67430895E-01    2     1000024  -1000037   # BR(H -> ~chi_1+ ~chi_2-)
     1.67430895E-01    2     1000037  -1000024   # BR(H -> ~chi_2+ ~chi_1-)
     3.35500589E-02    2     1000022   1000022   # BR(H -> ~chi_10 ~chi_10)
     2.59800732E-03    2     1000023   1000023   # BR(H -> ~chi_20 ~chi_20)
     1.68486900E-02    2     1000025   1000025   # BR(H -> ~chi_30 ~chi_30)
     1.48311971E-02    2     1000022   1000023   # BR(H -> ~chi_10 ~chi_20)
     6.97719455E-04    2     1000022   1000025   # BR(H -> ~chi_10 ~chi_30)
     4.95217687E-02    2     1000022   1000035   # BR(H -> ~chi_10 ~chi_40)
     2.04715313E-02    2     1000023   1000025   # BR(H -> ~chi_20 ~chi_30)
     7.44010334E-02    2     1000023   1000035   # BR(H -> ~chi_20 ~chi_40)
     4.39837761E-02    2     1000025   1000035   # BR(H -> ~chi_30 ~chi_40)
     1.72484498E-05    2     1000006  -1000006   # BR(H -> ~t_1    ~t_1*  )
     1.80941120E-05    2     2000006  -2000006   # BR(H -> ~t_2    ~t_2*  )
     2.21219873E-06    2     1000006  -2000006   # BR(H -> ~t_1    ~t_2*  )
     2.21219873E-06    2     2000006  -1000006   # BR(H -> ~t_2    ~t_1*  )
     1.26620390E-07    2     1000005  -1000005   # BR(H -> ~b_1    ~b_1*  )
#
#         PDG            Width
DECAY        36     5.43983018E+01   # A decays
#          BR         NDA      ID1       ID2
     3.37772605E-01    2           5        -5   # BR(A -> b       bb     )
     6.09507402E-02    2         -15        15   # BR(A -> tau+    tau-   )
     2.15506885E-04    2         -13        13   # BR(A -> mu+     mu-    )
     2.54949069E-04    2           3        -3   # BR(A -> s       sb     )
     7.19583566E-08    2           4        -4   # BR(A -> c       cb     )
     7.17913737E-03    2           6        -6   # BR(A -> t       tb     )
     1.47513124E-05    2          21        21   # BR(A -> g       g      )
     4.06289056E-08    2          22        22   # BR(A -> gam     gam    )
     1.62156014E-08    2          23        22   # BR(A -> Z       gam    )
     2.14338234E-06    2          23        25   # BR(A -> Z       h      )
     1.85985371E-03    2     1000024  -1000024   # BR(A -> ~chi_1+ ~chi_1-)
     1.67436874E-01    2     1000024  -1000037   # BR(A -> ~chi_1+ ~chi_2-)
     1.67436874E-01    2     1000037  -1000024   # BR(A -> ~chi_2+ ~chi_1-)
     2.93056765E-02    2     1000022   1000022   # BR(A -> ~chi_10 ~chi_10)
     3.21705118E-03    2     1000023   1000023   # BR(A -> ~chi_20 ~chi_20)
     1.33272710E-02    2     1000025   1000025   # BR(A -> ~chi_30 ~chi_30)
     1.97114819E-02    2     1000022   1000023   # BR(A -> ~chi_10 ~chi_20)
     3.58441017E-04    2     1000022   1000025   # BR(A -> ~chi_10 ~chi_30)
     4.63366029E-02    2     1000022   1000035   # BR(A -> ~chi_10 ~chi_40)
     2.30786549E-02    2     1000023   1000025   # BR(A -> ~chi_20 ~chi_30)
     8.32324421E-02    2     1000023   1000035   # BR(A -> ~chi_20 ~chi_40)
     3.83035634E-02    2     1000025   1000035   # BR(A -> ~chi_30 ~chi_40)
     2.62632045E-06    2     1000006  -2000006   # BR(A -> ~t_1    ~t_2*  )
     2.62632045E-06    2    -1000006   2000006   # BR(A -> ~t_1*   ~t_2   )
#
#         PDG            Width
DECAY        37     5.42615980E+01   # H+ decays
#          BR         NDA      ID1       ID2
     5.37763754E-04    2           4        -5   # BR(H+ -> c       bb     )
     6.11207387E-02    2         -15        16   # BR(H+ -> tau+    nu_tau )
     2.16107958E-04    2         -13        14   # BR(H+ -> mu+     nu_mu  )
     3.44168504E-06    2           2        -5   # BR(H+ -> u       bb     )
     1.22429028E-05    2           2        -3   # BR(H+ -> u       sb     )
     2.51875881E-04    2           4        -3   # BR(H+ -> c       sb     )
     3.42940286E-01    2           6        -5   # BR(H+ -> t       bb     )
     2.15127015E-06    2          24        25   # BR(H+ -> W+      h      )
     3.50357318E-14    2          24        36   # BR(H+ -> W+      A      )
     4.84713691E-02    2     1000024   1000022   # BR(H+ -> ~chi_1+ ~chi_10)
     6.27930138E-04    2     1000024   1000023   # BR(H+ -> ~chi_1+ ~chi_20)
     4.07247456E-02    2     1000024   1000025   # BR(H+ -> ~chi_1+ ~chi_30)
     1.68079224E-01    2     1000024   1000035   # BR(H+ -> ~chi_1+ ~chi_40)
     9.62049854E-02    2     1000037   1000022   # BR(H+ -> ~chi_2+ ~chi_10)
     1.58203179E-01    2     1000037   1000023   # BR(H+ -> ~chi_2+ ~chi_20)
     8.25864396E-02    2     1000037   1000025   # BR(H+ -> ~chi_2+ ~chi_30)
     9.79486182E-06    2     1000006  -1000005   # BR(H+ -> ~t_1    ~b_1*  )
     7.72363784E-06    2     2000006  -1000005   # BR(H+ -> ~t_2    ~b_1*  )
