#
#                              ======================
#                              | THE SUSYHIT OUTPUT |
#                              ======================
#
#
#              ------------------------------------------------------
#              |     This is the output of the SUSY-HIT package     |
#              |  created by A.Djouadi, M.Muehlleitner and M.Spira. |
#              |  In case of problems with SUSY-HIT email to        |
#              |           margarete.muehlleitner@kit.edu           |
#              |           michael.spira@psi.ch                     |
#              |           abdelhak.djouadi@cern.ch                 |
#              ------------------------------------------------------
#
#              ------------------------------------------------------
#              |  SUSY Les Houches Accord - MSSM Spectrum + Decays  |
#              |              based on the decay programs           |
#              |                                                    |
#              |                     SDECAY 1.5                     |
#              |                                                    |
#              |  Authors: M.Muhlleitner, A.Djouadi and Y.Mambrini  |
#              |  Ref.:    Comput.Phys.Commun.168(2005)46           |
#              |           [hep-ph/0311167]                         |
#              |                                                    |
#              |                     HDECAY 3.4                     |
#              |                                                    |
#              |  By: A.Djouadi,J.Kalinowski,M.Muhlleitner,M.Spira  |
#              |  Ref.:    Comput.Phys.Commun.108(1998)56           |
#              |           [hep-ph/9704448]                         |
#              |                                                    |
#              |                                                    |
#              |  If not stated otherwise all DRbar couplings and   |
#              |  soft SUSY breaking masses are given at the scale  |
#              |  Q=  0.17312022E+04
#              |                                                    |
#              ------------------------------------------------------
#
#
BLOCK DCINFO  # Decay Program information
     1   SDECAY/HDECAY # decay calculator
     2   1.5  /3.4    # version number
#
BLOCK SPINFO  # Spectrum calculator information
     1    SOFTSUSY    # spectrum calculator                
     2    3.7.3       # version number                     
#
BLOCK MODSEL  # Model selection
     1     0   #  nonUniversal                                     
#
BLOCK SMINPUTS  # Standard Model inputs
         1     1.27934000E+02   # alpha_em^-1(M_Z)^MSbar
         2     1.16639000E-05   # G_F [GeV^-2]
         3     1.17200000E-01   # alpha_S(M_Z)^MSbar
         4     9.11870000E+01   # M_Z pole mass
         5     4.19000000E+00   # mb(mb)^MSbar
         6     1.72500000E+02   # mt pole mass
         7     1.77690000E+00   # mtau pole mass
#
BLOCK MINPAR  # Input parameters - minimal models
         3     2.00000000E+01   # tanb                
#
BLOCK EXTPAR  # Input parameters - non-minimal models
         0    -1.00000000E+00   # Set                 
         1     2.99900000E+02   # M_1(MX)             
         2     5.99900000E+02   # M_2(MX)             
         3     2.20000000E+03   # M_3(MX)             
        11     2.94338000E+03   # At(MX)              
        12     0.00000000E+00   # Ab(MX)              
        13     0.00000000E+00   # Atau(MX)            
        23    -3.00000000E+03   # mu(MX)              
        25     2.00000000E+01   # tan                 
        26     3.00000000E+03   # mA(pole)            
        31     3.00000000E+03   # meL(MX)             
        32     3.00000000E+03   # mmuL(MX)            
        33     3.00000000E+03   # mtauL(MX)           
        34     3.00000000E+03   # meR(MX)             
        35     3.00000000E+03   # mmuR(MX)            
        36     3.00000000E+03   # mtauR(MX)           
        41     3.00000000E+03   # mqL1(MX)            
        42     3.00000000E+03   # mqL2(MX)            
        43     9.99900000E+02   # mqL3(MX)            
        44     3.00000000E+03   # muR(MX)             
        45     3.00000000E+03   # mcR(MX)             
        46     3.00000000E+03   # mtR(MX)             
        47     3.00000000E+03   # mdR(MX)             
        48     3.00000000E+03   # msR(MX)             
        49     3.00000000E+03   # mbR(MX)             
#
BLOCK MASS  # Mass Spectrum
# PDG code           mass       particle
        24     8.04007295E+01   # W+
        25     1.24713953E+02   # h
        35     2.99999581E+03   # H
        36     2.99999996E+03   # A
        37     3.00108341E+03   # H+
         5     4.81337004E+00   # b-quark pole mass calculated from mb(mb)_Msbar
   1000001     3.04335492E+03   # ~d_L
   2000001     3.03820246E+03   # ~d_R
   1000002     3.04244941E+03   # ~u_L
   2000002     3.03938689E+03   # ~u_R
   1000003     3.04335492E+03   # ~s_L
   2000003     3.03820246E+03   # ~s_R
   1000004     3.04244941E+03   # ~c_L
   2000004     3.03938689E+03   # ~c_R
   1000005     1.10085584E+03   # ~b_1
   2000005     3.03543437E+03   # ~b_2
   1000006     1.09877113E+03   # ~t_1
   2000006     3.02487516E+03   # ~t_2
   1000011     3.00637912E+03   # ~e_L
   2000011     3.00197686E+03   # ~e_R
   1000012     3.00499195E+03   # ~nu_eL
   1000013     3.00637912E+03   # ~mu_L
   2000013     3.00197686E+03   # ~mu_R
   1000014     3.00499195E+03   # ~nu_muL
   1000015     2.98607181E+03   # ~tau_1
   2000015     3.02158449E+03   # ~tau_2
   1000016     3.00478467E+03   # ~nu_tauL
   1000021     2.35418156E+03   # ~g
   1000022     3.01637350E+02   # ~chi_10
   1000023     6.33832580E+02   # ~chi_20
   1000025    -2.99411370E+03   # ~chi_30
   1000035     2.99439972E+03   # ~chi_40
   1000024     6.33996203E+02   # ~chi_1+
   1000037     2.99520403E+03   # ~chi_2+
#
BLOCK NMIX  # Neutralino Mixing Matrix
  1  1     9.99890360E-01   # N_11
  1  2    -8.32534579E-07   # N_12
  1  3    -1.47890944E-02   # N_13
  1  4    -7.42673178E-04   # N_14
  2  1     3.98138135E-04   # N_21
  2  2     9.99636353E-01   # N_22
  2  3     2.66591360E-02   # N_23
  2  4     4.03646049E-03   # N_24
  3  1    -9.92956858E-03   # N_31
  3  2     1.59995006E-02   # N_32
  3  3    -7.06848423E-01   # N_33
  3  4     7.07114366E-01   # N_34
  4  1     1.09778883E-02   # N_41
  4  2    -2.17066129E-02   # N_42
  4  3     7.06707775E-01   # N_43
  4  4     7.07087285E-01   # N_44
#
BLOCK UMIX  # Chargino Mixing Matrix U
  1  1     9.99289219E-01   # U_11
  1  2     3.76968971E-02   # U_12
  2  1    -3.76968971E-02   # U_21
  2  2     9.99289219E-01   # U_22
#
BLOCK VMIX  # Chargino Mixing Matrix V
  1  1     9.99983718E-01   # V_11
  1  2    -5.70640630E-03   # V_12
  2  1    -5.70640630E-03   # V_21
  2  2    -9.99983718E-01   # V_22
#
BLOCK STOPMIX  # Stop Mixing Matrix
  1  1     9.98416137E-01   # cos(theta_t)
  1  2    -5.62602646E-02   # sin(theta_t)
  2  1     5.62602646E-02   # -sin(theta_t)
  2  2     9.98416137E-01   # cos(theta_t)
#
BLOCK SBOTMIX  # Sbottom Mixing Matrix
  1  1     9.99707492E-01   # cos(theta_b)
  1  2    -2.41853352E-02   # sin(theta_b)
  2  1     2.41853352E-02   # -sin(theta_b)
  2  2     9.99707492E-01   # cos(theta_b)
#
BLOCK STAUMIX  # Stau Mixing Matrix
  1  1    -7.06958942E-01   # cos(theta_tau)
  1  2     7.07254589E-01   # sin(theta_tau)
  2  1    -7.07254589E-01   # -sin(theta_tau)
  2  2    -7.06958942E-01   # cos(theta_tau)
#
BLOCK ALPHA  # Higgs mixing
          -5.00164651E-02   # Mixing angle in the neutral Higgs boson sector
#
BLOCK HMIX Q=  1.73120221E+03  # DRbar Higgs Parameters
         1    -3.00000000E+03   # mu(Q)MSSM           
         2     2.00000000E+01   # tan                 
         3     2.43797921E+02   # higgs               
         4     1.00952437E+07   # mA^2(Q)MSSM         
#
BLOCK GAUGE Q=  1.73120221E+03  # The gauge couplings
     1     3.62632164E-01   # gprime(Q) DRbar
     2     6.37409231E-01   # g(Q) DRbar
     3     1.02308841E+00   # g3(Q) DRbar
#
BLOCK AU Q=  1.73120221E+03  # The trilinear couplings
  1  1     2.85069050E-06   # A_u(Q) DRbar
  2  2     2.85073233E-06   # A_c(Q) DRbar
  3  3     2.94338000E+03   # A_t(Q) DRbar
#
BLOCK AD Q=  1.73120221E+03  # The trilinear couplings
  1  1     1.00587469E-06   # A_d(Q) DRbar
  2  2     1.00599230E-06   # A_s(Q) DRbar
  3  3     2.04114093E-06   # A_b(Q) DRbar
#
BLOCK AE Q=  1.73120221E+03  # The trilinear couplings
  1  1     4.23878790E-07   # A_e(Q) DRbar
  2  2     4.23899538E-07   # A_mu(Q) DRbar
  3  3     4.29718707E-07   # A_tau(Q) DRbar
#
BLOCK Yu Q=  1.73120221E+03  # The Yukawa couplings
  1  1     0.00000000E+00   # y_u(Q) DRbar
  2  2     0.00000000E+00   # y_c(Q) DRbar
  3  3     8.49261089E-01   # y_t(Q) DRbar
#
BLOCK Yd Q=  1.73120221E+03  # The Yukawa couplings
  1  1     0.00000000E+00   # y_d(Q) DRbar
  2  2     0.00000000E+00   # y_s(Q) DRbar
  3  3     3.74796060E-01   # y_b(Q) DRbar
#
BLOCK Ye Q=  1.73120221E+03  # The Yukawa couplings
  1  1     0.00000000E+00   # y_e(Q) DRbar
  2  2     0.00000000E+00   # y_mu(Q) DRbar
  3  3     2.01690534E-01   # y_tau(Q) DRbar
#
BLOCK MSOFT Q=  1.73120221E+03  # The soft SUSY breaking masses at the scale Q
         1     2.99900000E+02   # M_1(Q)              
         2     5.99900000E+02   # M_2(Q)              
         3     2.20000000E+03   # M_3(Q)              
        21    -3.78232959E+04   # M^2_Hd              
        22    -9.01630989E+06   # M^2_Hu              
        31     3.00000000E+03   # M_eL                
        32     3.00000000E+03   # M_muL               
        33     3.00000000E+03   # M_tauL              
        34     3.00000000E+03   # M_eR                
        35     3.00000000E+03   # M_muR               
        36     3.00000000E+03   # M_tauR              
        41     3.00000000E+03   # M_q1L               
        42     3.00000000E+03   # M_q2L               
        43     9.99899993E+02   # M_q3L               
        44     3.00000000E+03   # M_uR                
        45     3.00000000E+03   # M_cR                
        46     3.00000000E+03   # M_tR                
        47     3.00000000E+03   # M_dR                
        48     3.00000000E+03   # M_sR                
        49     3.00000000E+03   # M_bR                
#
#
#
#                             =================
#                             |The decay table|
#                             =================
#
# - The QCD corrections to the decays gluino -> squark  + quark
#                                     squark -> gaugino + quark_prime
#                                     squark -> squark_prime + Higgs
#                                     squark -> gluino  + quark
#   are included.
#
# - The multi-body decays for the inos, stops and sbottoms are included.
#
# - The loop induced decays for the gluino, neutralinos and stops
#   are included.
#
# - The SUSY decays of the top quark are included.
#
#
#         PDG            Width
DECAY         6     1.41028023E+00   # top decays
#          BR         NDA      ID1       ID2
     1.00000000E+00    2           5        24   # BR(t ->  b    W+)
#
#         PDG            Width
DECAY   1000021     5.86132584E+01   # gluino decays
#          BR         NDA      ID1       ID2
     2.47850427E-01    2     1000005        -5   # BR(~g -> ~b_1  bb)
     2.47850427E-01    2    -1000005         5   # BR(~g -> ~b_1* b )
     2.52149573E-01    2     1000006        -6   # BR(~g -> ~t_1  tb)
     2.52149573E-01    2    -1000006         6   # BR(~g -> ~t_1* t )
#
#         PDG            Width
DECAY   1000006     5.97354036E+00   # stop1 decays
#          BR         NDA      ID1       ID2
     2.22481389E-02    2     1000022         6   # BR(~t_1 -> ~chi_10 t )
     3.02789383E-01    2     1000023         6   # BR(~t_1 -> ~chi_20 t )
     6.74962478E-01    2     1000024         5   # BR(~t_1 -> ~chi_1+ b )
#
#         PDG            Width
DECAY   2000006     1.10062545E+02   # stop2 decays
#          BR         NDA      ID1       ID2
     5.92809444E-02    2     1000022         6   # BR(~t_2 -> ~chi_10 t )
     3.57208459E-04    2     1000023         6   # BR(~t_2 -> ~chi_20 t )
     0.00000000E+00    2     1000025         6   # BR(~t_2 -> ~chi_30 t )
     7.18461167E-04    2     1000024         5   # BR(~t_2 -> ~chi_1+ b )
     1.62105061E-04    2     1000037         5   # BR(~t_2 -> ~chi_2+ b )
     3.04778236E-01    2     1000021         6   # BR(~t_2 -> ~g      t )
     1.65451394E-01    2     1000006        25   # BR(~t_2 -> ~t_1    h )
     1.58944999E-01    2     1000006        23   # BR(~t_2 -> ~t_1    Z )
     3.10306652E-01    2     1000005        24   # BR(~t_2 -> ~b_1    W+)
#
#         PDG            Width
DECAY   1000005     5.82733000E+00   # sbottom1 decays
#          BR         NDA      ID1       ID2
     2.42998114E-02    2     1000022         5   # BR(~b_1 -> ~chi_10 b )
     3.49194166E-01    2     1000023         5   # BR(~b_1 -> ~chi_20 b )
     6.26506023E-01    2    -1000024         6   # BR(~b_1 -> ~chi_1- t )
#
#         PDG            Width
DECAY   2000005     5.22256545E+01   # sbottom2 decays
#          BR         NDA      ID1       ID2
     3.15178718E-02    2     1000022         5   # BR(~b_2 -> ~chi_10 b )
     5.01947053E-07    2     1000023         5   # BR(~b_2 -> ~chi_20 b )
     6.36339706E-05    2     1000025         5   # BR(~b_2 -> ~chi_30 b )
     6.20011689E-05    2     1000035         5   # BR(~b_2 -> ~chi_40 b )
     8.03231048E-07    2    -1000024         6   # BR(~b_2 -> ~chi_1- t )
     6.61620980E-01    2     1000021         5   # BR(~b_2 -> ~g      b )
     6.78230207E-02    2     1000005        25   # BR(~b_2 -> ~b_1    h )
     9.75867764E-02    2     1000005        23   # BR(~b_2 -> ~b_1    Z )
     1.41324411E-01    2     1000006       -24   # BR(~b_2 -> ~t_1    W-)
#
#         PDG            Width
DECAY   1000002     6.77459508E+01   # sup_L decays
#          BR         NDA      ID1       ID2
     6.09934682E-03    2     1000022         2   # BR(~u_L -> ~chi_10 u)
     1.58595589E-01    2     1000023         2   # BR(~u_L -> ~chi_20 u)
     3.90792081E-08    2     1000025         2   # BR(~u_L -> ~chi_30 u)
     7.46628477E-08    2     1000035         2   # BR(~u_L -> ~chi_40 u)
     3.17349176E-01    2     1000024         1   # BR(~u_L -> ~chi_1+ d)
     1.22188828E-08    2     1000037         1   # BR(~u_L -> ~chi_2+ d)
     5.17955762E-01    2     1000021         2   # BR(~u_L -> ~g      u)
#
#         PDG            Width
DECAY   2000002     4.14477497E+01   # sup_R decays
#          BR         NDA      ID1       ID2
     1.59339449E-01    2     1000022         2   # BR(~u_R -> ~chi_10 u)
     2.36285836E-08    2     1000023         2   # BR(~u_R -> ~chi_20 u)
     1.60318416E-08    2     1000025         2   # BR(~u_R -> ~chi_30 u)
     1.93561902E-08    2     1000035         2   # BR(~u_R -> ~chi_40 u)
     8.40660492E-01    2     1000021         2   # BR(~u_R -> ~g      u)
#
#         PDG            Width
DECAY   1000001     6.77973773E+01   # sdown_L decays
#          BR         NDA      ID1       ID2
     6.09676082E-03    2     1000022         1   # BR(~d_L -> ~chi_10 d)
     1.58484234E-01    2     1000023         1   # BR(~d_L -> ~chi_20 d)
     6.49426750E-08    2     1000025         1   # BR(~d_L -> ~chi_30 d)
     1.13631475E-07    2     1000035         1   # BR(~d_L -> ~chi_40 d)
     3.16781713E-01    2    -1000024         2   # BR(~d_L -> ~chi_1- u)
     5.52657679E-07    2    -1000037         2   # BR(~d_L -> ~chi_2- u)
     5.18636561E-01    2     1000021         1   # BR(~d_L -> ~g      d)
#
#         PDG            Width
DECAY   2000001     3.63988699E+01   # sdown_R decays
#          BR         NDA      ID1       ID2
     4.53415069E-02    2     1000022         1   # BR(~d_R -> ~chi_10 d)
     6.72336551E-09    2     1000023         1   # BR(~d_R -> ~chi_20 d)
     4.33667447E-09    2     1000025         1   # BR(~d_R -> ~chi_30 d)
     5.23417590E-09    2     1000035         1   # BR(~d_R -> ~chi_40 d)
     9.54658477E-01    2     1000021         1   # BR(~d_R -> ~g      d)
#
#         PDG            Width
DECAY   1000004     6.77459508E+01   # scharm_L decays
#          BR         NDA      ID1       ID2
     6.09934682E-03    2     1000022         4   # BR(~c_L -> ~chi_10 c)
     1.58595589E-01    2     1000023         4   # BR(~c_L -> ~chi_20 c)
     3.90792081E-08    2     1000025         4   # BR(~c_L -> ~chi_30 c)
     7.46628477E-08    2     1000035         4   # BR(~c_L -> ~chi_40 c)
     3.17349176E-01    2     1000024         3   # BR(~c_L -> ~chi_1+ s)
     1.22188828E-08    2     1000037         3   # BR(~c_L -> ~chi_2+ s)
     5.17955762E-01    2     1000021         4   # BR(~c_L -> ~g      c)
#
#         PDG            Width
DECAY   2000004     4.14477497E+01   # scharm_R decays
#          BR         NDA      ID1       ID2
     1.59339449E-01    2     1000022         4   # BR(~c_R -> ~chi_10 c)
     2.36285836E-08    2     1000023         4   # BR(~c_R -> ~chi_20 c)
     1.60318416E-08    2     1000025         4   # BR(~c_R -> ~chi_30 c)
     1.93561902E-08    2     1000035         4   # BR(~c_R -> ~chi_40 c)
     8.40660492E-01    2     1000021         4   # BR(~c_R -> ~g      c)
#
#         PDG            Width
DECAY   1000003     6.77973773E+01   # sstrange_L decays
#          BR         NDA      ID1       ID2
     6.09676082E-03    2     1000022         3   # BR(~s_L -> ~chi_10 s)
     1.58484234E-01    2     1000023         3   # BR(~s_L -> ~chi_20 s)
     6.49426750E-08    2     1000025         3   # BR(~s_L -> ~chi_30 s)
     1.13631475E-07    2     1000035         3   # BR(~s_L -> ~chi_40 s)
     3.16781713E-01    2    -1000024         4   # BR(~s_L -> ~chi_1- c)
     5.52657679E-07    2    -1000037         4   # BR(~s_L -> ~chi_2- c)
     5.18636561E-01    2     1000021         3   # BR(~s_L -> ~g      s)
#
#         PDG            Width
DECAY   2000003     3.63988699E+01   # sstrange_R decays
#          BR         NDA      ID1       ID2
     4.53415069E-02    2     1000022         3   # BR(~s_R -> ~chi_10 s)
     6.72336551E-09    2     1000023         3   # BR(~s_R -> ~chi_20 s)
     4.33667447E-09    2     1000025         3   # BR(~s_R -> ~chi_30 s)
     5.23417590E-09    2     1000035         3   # BR(~s_R -> ~chi_40 s)
     9.54658477E-01    2     1000021         3   # BR(~s_R -> ~g      s)
#
#         PDG            Width
DECAY   1000011     3.70993184E+01   # selectron_L decays
#          BR         NDA      ID1       ID2
     1.03854676E-01    2     1000022        11   # BR(~e_L -> ~chi_10 e-)
     2.98953273E-01    2     1000023        11   # BR(~e_L -> ~chi_20 e-)
     2.32644975E-09    2     1000025        11   # BR(~e_L -> ~chi_30 e-)
     4.95229952E-09    2     1000035        11   # BR(~e_L -> ~chi_40 e-)
     5.97191992E-01    2    -1000024        12   # BR(~e_L -> ~chi_1- nu_e)
     5.12524457E-08    2    -1000037        12   # BR(~e_L -> ~chi_2- nu_e)
#
#         PDG            Width
DECAY   2000011     1.53883121E+01   # selectron_R decays
#          BR         NDA      ID1       ID2
     9.99999846E-01    2     1000022        11   # BR(~e_R -> ~chi_10 e-)
     1.47695028E-07    2     1000023        11   # BR(~e_R -> ~chi_20 e-)
     2.75467983E-09    2     1000025        11   # BR(~e_R -> ~chi_30 e-)
     3.12684112E-09    2     1000035        11   # BR(~e_R -> ~chi_40 e-)
#
#         PDG            Width
DECAY   1000013     3.70993184E+01   # smuon_L decays
#          BR         NDA      ID1       ID2
     1.03854676E-01    2     1000022        13   # BR(~mu_L -> ~chi_10 mu-)
     2.98953273E-01    2     1000023        13   # BR(~mu_L -> ~chi_20 mu-)
     2.32644975E-09    2     1000025        13   # BR(~mu_L -> ~chi_30 mu-)
     4.95229952E-09    2     1000035        13   # BR(~mu_L -> ~chi_40 mu-)
     5.97191992E-01    2    -1000024        14   # BR(~mu_L -> ~chi_1- nu_mu)
     5.12524457E-08    2    -1000037        14   # BR(~mu_L -> ~chi_2- nu_mu)
#
#         PDG            Width
DECAY   2000013     1.53883121E+01   # smuon_R decays
#          BR         NDA      ID1       ID2
     9.99999846E-01    2     1000022        13   # BR(~mu_R -> ~chi_10 mu-)
     1.47695028E-07    2     1000023        13   # BR(~mu_R -> ~chi_20 mu-)
     2.75467983E-09    2     1000025        13   # BR(~mu_R -> ~chi_30 mu-)
     3.12684112E-09    2     1000035        13   # BR(~mu_R -> ~chi_40 mu-)
#
#         PDG            Width
DECAY   1000015     2.64909017E+01   # stau_1 decays
#          BR         NDA      ID1       ID2
     3.62809216E-01    2     1000022        15   # BR(~tau_1 -> ~chi_10  tau-)
     2.12583855E-01    2     1000023        15   # BR(~tau_1 -> ~chi_20  tau-)
     4.24606929E-01    2    -1000024        16   # BR(~tau_1 -> ~chi_1-  nu_tau)
#
#         PDG            Width
DECAY   2000015     2.59722962E+01   # stau_2 decays
#          BR         NDA      ID1       ID2
     3.71049704E-01    2     1000022        15   # BR(~tau_2 -> ~chi_10  tau-)
     2.09824566E-01    2     1000023        15   # BR(~tau_2 -> ~chi_20  tau-)
     1.75090501E-05    2     1000025        15   # BR(~tau_2 -> ~chi_30  tau-)
     1.53477399E-05    2     1000035        15   # BR(~tau_2 -> ~chi_40  tau-)
     4.19075081E-01    2    -1000024        16   # BR(~tau_2 -> ~chi_1-  nu_tau)
     1.77918385E-05    2    -1000037        16   # BR(~tau_2 -> ~chi_2-  nu_tau)
#
#         PDG            Width
DECAY   1000012     3.71000406E+01   # snu_eL decays
#          BR         NDA      ID1       ID2
     1.03803394E-01    2     1000022        12   # BR(~nu_eL -> ~chi_10 nu_e)
     2.98513163E-01    2     1000023        12   # BR(~nu_eL -> ~chi_20 nu_e)
     8.01277219E-09    2     1000025        12   # BR(~nu_eL -> ~chi_30 nu_e)
     1.26663315E-08    2     1000035        12   # BR(~nu_eL -> ~chi_40 nu_e)
     5.97683421E-01    2     1000024        11   # BR(~nu_eL -> ~chi_1+ e-)
     9.01777910E-10    2     1000037        11   # BR(~nu_eL -> ~chi_2+ e-)
#
#         PDG            Width
DECAY   1000014     3.71000406E+01   # snu_muL decays
#          BR         NDA      ID1       ID2
     1.03803394E-01    2     1000022        14   # BR(~nu_muL -> ~chi_10 nu_mu)
     2.98513163E-01    2     1000023        14   # BR(~nu_muL -> ~chi_20 nu_mu)
     8.01277219E-09    2     1000025        14   # BR(~nu_muL -> ~chi_30 nu_mu)
     1.26663315E-08    2     1000035        14   # BR(~nu_muL -> ~chi_40 nu_mu)
     5.97683421E-01    2     1000024        13   # BR(~nu_muL -> ~chi_1+ mu-)
     9.01777910E-10    2     1000037        13   # BR(~nu_muL -> ~chi_2+ mu-)
#
#         PDG            Width
DECAY   1000016     3.71004154E+01   # snu_tauL decays
#          BR         NDA      ID1       ID2
     1.03794894E-01    2     1000022        16   # BR(~nu_tauL -> ~chi_10 nu_tau)
     2.98485722E-01    2     1000023        16   # BR(~nu_tauL -> ~chi_20 nu_tau)
     7.71130708E-09    2     1000025        16   # BR(~nu_tauL -> ~chi_30 nu_tau)
     1.21770010E-08    2     1000035        16   # BR(~nu_tauL -> ~chi_40 nu_tau)
     5.97716774E-01    2     1000024        15   # BR(~nu_tauL -> ~chi_1+ tau-)
     2.59035700E-06    2     1000037        15   # BR(~nu_tauL -> ~chi_2+ tau-)
#
#         PDG            Width
DECAY   1000024     1.14714682E-05   # chargino1+ decays
#          BR         NDA      ID1       ID2
     1.00000000E+00    2     1000022        24   # BR(~chi_1+ -> ~chi_10  W+)
#
#         PDG            Width
DECAY   1000037     8.26759712E+01   # chargino2+ decays
#          BR         NDA      ID1       ID2
     1.28915348E-01    2     1000006        -5   # BR(~chi_2+ -> ~t_1     bb)
     6.49350850E-01    2    -1000005         6   # BR(~chi_2+ -> ~b_1*    t )
     2.10606384E-07    2    -1000015        16   # BR(~chi_2+ -> ~tau_1+  nu_tau)
     6.61066945E-02    2     1000024        23   # BR(~chi_2+ -> ~chi_1+  Z )
     2.15746590E-02    2     1000022        24   # BR(~chi_2+ -> ~chi_10  W+)
     6.43196026E-02    2     1000023        24   # BR(~chi_2+ -> ~chi_20  W+)
     6.97326349E-02    2     1000024        25   # BR(~chi_2+ -> ~chi_1+  h )
#
#         PDG            Width
DECAY   1000022     0.00000000E+00   # neutralino1 decays
#
#         PDG            Width
DECAY   1000023     1.09330724E-05   # neutralino2 decays
#          BR         NDA      ID1       ID2
     5.79028114E-01    2     1000022        23   # BR(~chi_20 -> ~chi_10   Z )
     4.20971886E-01    2     1000022        25   # BR(~chi_20 -> ~chi_10   h )
#
#         PDG            Width
DECAY   1000025     8.28624623E+01   # neutralino3 decays
#          BR         NDA      ID1       ID2
     1.21740698E-02    2     1000022        23   # BR(~chi_30 -> ~chi_10   Z )
     4.26988311E-02    2     1000023        23   # BR(~chi_30 -> ~chi_20   Z )
     6.41416446E-02    2     1000024       -24   # BR(~chi_30 -> ~chi_1+   W-)
     6.41416446E-02    2    -1000024        24   # BR(~chi_30 -> ~chi_1-   W+)
     1.03597577E-02    2     1000022        25   # BR(~chi_30 -> ~chi_10   h )
     2.36961306E-02    2     1000023        25   # BR(~chi_30 -> ~chi_20   h )
     3.28169113E-01    2     1000006        -6   # BR(~chi_30 -> ~t_1      tb)
     3.28169113E-01    2    -1000006         6   # BR(~chi_30 -> ~t_1*     t )
     6.32246138E-02    2     1000005        -5   # BR(~chi_30 -> ~b_1      bb)
     6.32246138E-02    2    -1000005         5   # BR(~chi_30 -> ~b_1*     b )
     2.33573050E-07    2     1000015       -15   # BR(~chi_30 -> ~tau_1-   tau+)
     2.33573050E-07    2    -1000015        15   # BR(~chi_30 -> ~tau_1+   tau-)
#
#         PDG            Width
DECAY   1000035     8.19343131E+01   # neutralino4 decays
#          BR         NDA      ID1       ID2
     1.00792394E-02    2     1000022        23   # BR(~chi_40 -> ~chi_10   Z )
     2.35072093E-02    2     1000023        23   # BR(~chi_40 -> ~chi_20   Z )
     6.48929697E-02    2     1000024       -24   # BR(~chi_40 -> ~chi_1+   W-)
     6.48929697E-02    2    -1000024        24   # BR(~chi_40 -> ~chi_1-   W+)
     1.28577780E-02    2     1000022        25   # BR(~chi_40 -> ~chi_10   h )
     4.63984472E-02    2     1000023        25   # BR(~chi_40 -> ~chi_20   h )
     3.24739110E-01    2     1000006        -6   # BR(~chi_40 -> ~t_1      tb)
     3.24739110E-01    2    -1000006         6   # BR(~chi_40 -> ~t_1*     t )
     6.39464231E-02    2     1000005        -5   # BR(~chi_40 -> ~b_1      bb)
     6.39464231E-02    2    -1000005         5   # BR(~chi_40 -> ~b_1*     b )
     1.59948139E-07    2     1000015       -15   # BR(~chi_40 -> ~tau_1-   tau+)
     1.59948139E-07    2    -1000015        15   # BR(~chi_40 -> ~tau_1+   tau-)
#
#         PDG            Width
DECAY        25     3.58079984E-03   # h decays
#          BR         NDA      ID1       ID2
     5.68024447E-01    2           5        -5   # BR(h -> b       bb     )
     7.22535011E-02    2         -15        15   # BR(h -> tau+    tau-   )
     2.55780956E-04    2         -13        13   # BR(h -> mu+     mu-    )
     5.43139874E-04    2           3        -3   # BR(h -> s       sb     )
     2.35989307E-02    2           4        -4   # BR(h -> c       cb     )
     7.62844852E-02    2          21        21   # BR(h -> g       g      )
     2.60263210E-03    2          22        22   # BR(h -> gam     gam    )
     1.70083423E-03    2          22        23   # BR(h -> Z       gam    )
     2.26537590E-01    2          24       -24   # BR(h -> W+      W-     )
     2.81986586E-02    2          23        23   # BR(h -> Z       Z      )
#
#         PDG            Width
DECAY        35     3.38156722E+01   # H decays
#          BR         NDA      ID1       ID2
     8.93315898E-01    2           5        -5   # BR(H -> b       bb     )
     7.35366900E-02    2         -15        15   # BR(H -> tau+    tau-   )
     2.60008163E-04    2         -13        13   # BR(H -> mu+     mu-    )
     3.19292068E-04    2           3        -3   # BR(H -> s       sb     )
     8.95032860E-08    2           4        -4   # BR(H -> c       cb     )
     8.92852028E-03    2           6        -6   # BR(H -> t       tb     )
     1.50986568E-05    2          21        21   # BR(H -> g       g      )
     6.48344813E-08    2          22        22   # BR(H -> gam     gam    )
     3.65362676E-09    2          23        22   # BR(H -> Z       gam    )
     8.79742547E-07    2          24       -24   # BR(H -> W+      W-     )
     4.39328869E-07    2          23        23   # BR(H -> Z       Z      )
     6.33891169E-06    2          25        25   # BR(H -> h       h      )
     8.06362183E-04    2     1000024  -1000024   # BR(H -> ~chi_1+ ~chi_1-)
     4.44121485E-05    2     1000022   1000022   # BR(H -> ~chi_10 ~chi_10)
     4.02905603E-04    2     1000023   1000023   # BR(H -> ~chi_20 ~chi_20)
     2.72695833E-04    2     1000022   1000023   # BR(H -> ~chi_10 ~chi_20)
     2.20853599E-02    2     1000006  -1000006   # BR(H -> ~t_1    ~t_1*  )
     4.94160649E-06    2     1000005  -1000005   # BR(H -> ~b_1    ~b_1*  )
#
#         PDG            Width
DECAY        36     3.30803799E+01   # A decays
#          BR         NDA      ID1       ID2
     9.13217581E-01    2           5        -5   # BR(A -> b       bb     )
     7.51718690E-02    2         -15        15   # BR(A -> tau+    tau-   )
     2.65789393E-04    2         -13        13   # BR(A -> mu+     mu-    )
     3.26444567E-04    2           3        -3   # BR(A -> s       sb     )
     9.21180295E-08    2           4        -4   # BR(A -> c       cb     )
     9.18430713E-03    2           6        -6   # BR(A -> t       tb     )
     2.70469054E-05    2          21        21   # BR(A -> g       g      )
     7.20615131E-08    2          22        22   # BR(A -> gam     gam    )
     2.66418762E-08    2          23        22   # BR(A -> Z       gam    )
     8.96009110E-07    2          23        25   # BR(A -> Z       h      )
     9.73650794E-04    2     1000024  -1000024   # BR(A -> ~chi_1+ ~chi_1-)
     4.68397974E-05    2     1000022   1000022   # BR(A -> ~chi_10 ~chi_10)
     4.86424607E-04    2     1000023   1000023   # BR(A -> ~chi_20 ~chi_20)
     2.98959694E-04    2     1000022   1000023   # BR(A -> ~chi_10 ~chi_20)
#
#         PDG            Width
DECAY        37     3.63608035E+01   # H+ decays
#          BR         NDA      ID1       ID2
     1.45849352E-03    2           4        -5   # BR(H+ -> c       bb     )
     6.84146615E-02    2         -15        16   # BR(H+ -> tau+    nu_tau )
     2.41897556E-04    2         -13        14   # BR(H+ -> mu+     nu_mu  )
     9.33434695E-06    2           2        -5   # BR(H+ -> u       bb     )
     1.42157055E-05    2           2        -3   # BR(H+ -> u       sb     )
     2.92462775E-04    2           4        -3   # BR(H+ -> c       sb     )
     9.18434615E-01    2           6        -5   # BR(H+ -> t       bb     )
     8.16566863E-07    2          24        25   # BR(H+ -> W+      h      )
     5.40233694E-14    2          24        36   # BR(H+ -> W+      A      )
     5.25664446E-04    2     1000024   1000022   # BR(H+ -> ~chi_1+ ~chi_10)
     7.67963652E-11    2     1000024   1000023   # BR(H+ -> ~chi_1+ ~chi_20)
     1.06078385E-02    2     1000006  -1000005   # BR(H+ -> ~t_1    ~b_1*  )
