#
#                              ======================
#                              | THE SUSYHIT OUTPUT |
#                              ======================
#
#
#              ------------------------------------------------------
#              |     This is the output of the SUSY-HIT package     |
#              |  created by A.Djouadi, M.Muehlleitner and M.Spira. |
#              |  In case of problems with SUSY-HIT email to        |
#              |           margarete.muehlleitner@kit.edu           |
#              |           michael.spira@psi.ch                     |
#              |           abdelhak.djouadi@cern.ch                 |
#              ------------------------------------------------------
#
#              ------------------------------------------------------
#              |  SUSY Les Houches Accord - MSSM Spectrum + Decays  |
#              |              based on the decay programs           |
#              |                                                    |
#              |                     SDECAY 1.5                     |
#              |                                                    |
#              |  Authors: M.Muhlleitner, A.Djouadi and Y.Mambrini  |
#              |  Ref.:    Comput.Phys.Commun.168(2005)46           |
#              |           [hep-ph/0311167]                         |
#              |                                                    |
#              |                     HDECAY 3.4                     |
#              |                                                    |
#              |  By: A.Djouadi,J.Kalinowski,M.Muhlleitner,M.Spira  |
#              |  Ref.:    Comput.Phys.Commun.108(1998)56           |
#              |           [hep-ph/9704448]                         |
#              |                                                    |
#              |                                                    |
#              |  If not stated otherwise all DRbar couplings and   |
#              |  soft SUSY breaking masses are given at the scale  |
#              |  Q=  0.14468754E+04
#              |                                                    |
#              ------------------------------------------------------
#
#
BLOCK DCINFO  # Decay Program information
     1   SDECAY/HDECAY # decay calculator
     2   1.5  /3.4    # version number
#
BLOCK SPINFO  # Spectrum calculator information
     1    SOFTSUSY    # spectrum calculator                
     2    3.7.3       # version number                     
#
BLOCK MODSEL  # Model selection
     1     0   #  nonUniversal                                     
#
BLOCK SMINPUTS  # Standard Model inputs
         1     1.27934000E+02   # alpha_em^-1(M_Z)^MSbar
         2     1.16639000E-05   # G_F [GeV^-2]
         3     1.17200000E-01   # alpha_S(M_Z)^MSbar
         4     9.11870000E+01   # M_Z pole mass
         5     4.19000000E+00   # mb(mb)^MSbar
         6     1.72500000E+02   # mt pole mass
         7     1.77690000E+00   # mtau pole mass
#
BLOCK MINPAR  # Input parameters - minimal models
         3     2.00000000E+01   # tanb                
#
BLOCK EXTPAR  # Input parameters - non-minimal models
         0    -1.00000000E+00   # Set                 
         1     1.99900000E+02   # M_1(MX)             
         2     3.99900000E+02   # M_2(MX)             
         3     2.20000000E+03   # M_3(MX)             
        11     2.94338000E+03   # At(MX)              
        12     0.00000000E+00   # Ab(MX)              
        13     0.00000000E+00   # Atau(MX)            
        23    -3.00000000E+03   # mu(MX)              
        25     2.00000000E+01   # tan                 
        26     3.00000000E+03   # mA(pole)            
        31     3.00000000E+03   # meL(MX)             
        32     3.00000000E+03   # mmuL(MX)            
        33     3.00000000E+03   # mtauL(MX)           
        34     3.00000000E+03   # meR(MX)             
        35     3.00000000E+03   # mmuR(MX)            
        36     3.00000000E+03   # mtauR(MX)           
        41     3.00000000E+03   # mqL1(MX)            
        42     3.00000000E+03   # mqL2(MX)            
        43     6.99900000E+02   # mqL3(MX)            
        44     3.00000000E+03   # muR(MX)             
        45     3.00000000E+03   # mcR(MX)             
        46     3.00000000E+03   # mtR(MX)             
        47     3.00000000E+03   # mdR(MX)             
        48     3.00000000E+03   # msR(MX)             
        49     3.00000000E+03   # mbR(MX)             
#
BLOCK MASS  # Mass Spectrum
# PDG code           mass       particle
        24     8.03992575E+01   # W+
        25     1.25461057E+02   # h
        35     3.00010841E+03   # H
        36     2.99999992E+03   # A
        37     3.00109509E+03   # H+
         5     4.81337004E+00   # b-quark pole mass calculated from mb(mb)_Msbar
   1000001     3.03324196E+03   # ~d_L
   2000001     3.02798252E+03   # ~d_R
   1000002     3.03232963E+03   # ~u_L
   2000002     3.03012399E+03   # ~u_R
   1000003     3.03324196E+03   # ~s_L
   2000003     3.02798252E+03   # ~s_R
   1000004     3.03232963E+03   # ~c_L
   2000004     3.03012399E+03   # ~c_R
   1000005     7.92311422E+02   # ~b_1
   2000005     3.02709043E+03   # ~b_2
   1000006     7.89692387E+02   # ~t_1
   2000006     3.02238069E+03   # ~t_2
   1000011     3.00678652E+03   # ~e_L
   2000011     3.00099625E+03   # ~e_R
   1000012     3.00539567E+03   # ~nu_eL
   1000013     3.00678652E+03   # ~mu_L
   2000013     3.00099625E+03   # ~mu_R
   1000014     3.00539567E+03   # ~nu_muL
   1000015     2.98616290E+03   # ~tau_1
   2000015     3.02194945E+03   # ~tau_2
   1000016     3.00552853E+03   # ~nu_tauL
   1000021     2.34107962E+03   # ~g
   1000022     2.01801790E+02   # ~chi_10
   1000023     4.26587913E+02   # ~chi_20
   1000025    -3.00045884E+03   # ~chi_30
   1000035     3.00054385E+03   # ~chi_40
   1000024     4.26750539E+02   # ~chi_1+
   1000037     3.00143696E+03   # ~chi_2+
#
BLOCK NMIX  # Neutralino Mixing Matrix
  1  1     9.99891574E-01   # N_11
  1  2     1.90737091E-04   # N_12
  1  3    -1.47222190E-02   # N_13
  1  4    -2.45804816E-04   # N_14
  2  1     1.95798605E-04   # N_21
  2  2     9.99653955E-01   # N_22
  2  3     2.62126445E-02   # N_23
  2  4     2.19755438E-03   # N_24
  3  1    -1.02366065E-02   # N_31
  3  2     1.69817883E-02   # N_32
  3  3    -7.06827423E-01   # N_33
  3  4     7.07108072E-01   # N_34
  4  1     1.05836706E-02   # N_41
  4  2    -2.00886237E-02   # N_42
  4  3     7.06746877E-01   # N_43
  4  4     7.07102033E-01   # N_44
#
BLOCK UMIX  # Chargino Mixing Matrix U
  1  1     9.99312984E-01   # U_11
  1  2     3.70615821E-02   # U_12
  2  1    -3.70615821E-02   # U_21
  2  2     9.99312984E-01   # U_22
#
BLOCK VMIX  # Chargino Mixing Matrix V
  1  1     9.99995177E-01   # V_11
  1  2    -3.10582401E-03   # V_12
  2  1    -3.10582401E-03   # V_21
  2  2    -9.99995177E-01   # V_22
#
BLOCK STOPMIX  # Stop Mixing Matrix
  1  1     9.98579709E-01   # cos(theta_t)
  1  2    -5.32781829E-02   # sin(theta_t)
  2  1     5.32781829E-02   # -sin(theta_t)
  2  2     9.98579709E-01   # cos(theta_t)
#
BLOCK SBOTMIX  # Sbottom Mixing Matrix
  1  1     9.99719204E-01   # cos(theta_b)
  1  2    -2.36962688E-02   # sin(theta_b)
  2  1     2.36962688E-02   # -sin(theta_b)
  2  2     9.99719204E-01   # cos(theta_b)
#
BLOCK STAUMIX  # Stau Mixing Matrix
  1  1    -7.06931783E-01   # cos(theta_tau)
  1  2     7.07281736E-01   # sin(theta_tau)
  2  1    -7.07281736E-01   # -sin(theta_tau)
  2  2    -7.06931783E-01   # cos(theta_tau)
#
BLOCK ALPHA  # Higgs mixing
          -5.00136248E-02   # Mixing angle in the neutral Higgs boson sector
#
BLOCK HMIX Q=  1.44687535E+03  # DRbar Higgs Parameters
         1    -3.00000000E+03   # mu(Q)MSSM           
         2     2.00000000E+01   # tan                 
         3     2.44135309E+02   # higgs               
         4     1.07603830E+07   # mA^2(Q)MSSM         
#
BLOCK GAUGE Q=  1.44687535E+03  # The gauge couplings
     1     3.62031011E-01   # gprime(Q) DRbar
     2     6.38105393E-01   # g(Q) DRbar
     3     1.02715328E+00   # g3(Q) DRbar
#
BLOCK AU Q=  1.44687535E+03  # The trilinear couplings
  1  1     1.98721832E-06   # A_u(Q) DRbar
  2  2     1.98724883E-06   # A_c(Q) DRbar
  3  3     2.94338000E+03   # A_t(Q) DRbar
#
BLOCK AD Q=  1.44687535E+03  # The trilinear couplings
  1  1     7.01345561E-07   # A_d(Q) DRbar
  2  2     7.01429830E-07   # A_s(Q) DRbar
  3  3     1.44831604E-06   # A_b(Q) DRbar
#
BLOCK AE Q=  1.44687535E+03  # The trilinear couplings
  1  1     3.18070552E-07   # A_e(Q) DRbar
  2  2     3.18086328E-07   # A_mu(Q) DRbar
  3  3     3.22549473E-07   # A_tau(Q) DRbar
#
BLOCK Yu Q=  1.44687535E+03  # The Yukawa couplings
  1  1     0.00000000E+00   # y_u(Q) DRbar
  2  2     0.00000000E+00   # y_c(Q) DRbar
  3  3     8.53898276E-01   # y_t(Q) DRbar
#
BLOCK Yd Q=  1.44687535E+03  # The Yukawa couplings
  1  1     0.00000000E+00   # y_d(Q) DRbar
  2  2     0.00000000E+00   # y_s(Q) DRbar
  3  3     3.90076931E-01   # y_b(Q) DRbar
#
BLOCK Ye Q=  1.44687535E+03  # The Yukawa couplings
  1  1     0.00000000E+00   # y_e(Q) DRbar
  2  2     0.00000000E+00   # y_mu(Q) DRbar
  3  3     2.02409553E-01   # y_tau(Q) DRbar
#
BLOCK MSOFT Q=  1.44687535E+03  # The soft SUSY breaking masses at the scale Q
         1     1.99900000E+02   # M_1(Q)              
         2     3.99900000E+02   # M_2(Q)              
         3     2.20000000E+03   # M_3(Q)              
        21    -4.48240740E+04   # M^2_Hd              
        22    -9.08127985E+06   # M^2_Hu              
        31     3.00000000E+03   # M_eL                
        32     3.00000000E+03   # M_muL               
        33     3.00000000E+03   # M_tauL              
        34     3.00000000E+03   # M_eR                
        35     3.00000000E+03   # M_muR               
        36     3.00000000E+03   # M_tauR              
        41     3.00000000E+03   # M_q1L               
        42     3.00000000E+03   # M_q2L               
        43     6.99899993E+02   # M_q3L               
        44     3.00000000E+03   # M_uR                
        45     3.00000000E+03   # M_cR                
        46     3.00000000E+03   # M_tR                
        47     3.00000000E+03   # M_dR                
        48     3.00000000E+03   # M_sR                
        49     3.00000000E+03   # M_bR                
#
#
#
#                             =================
#                             |The decay table|
#                             =================
#
# - The QCD corrections to the decays gluino -> squark  + quark
#                                     squark -> gaugino + quark_prime
#                                     squark -> squark_prime + Higgs
#                                     squark -> gluino  + quark
#   are included.
#
# - The multi-body decays for the inos, stops and sbottoms are included.
#
# - The loop induced decays for the gluino, neutralinos and stops
#   are included.
#
# - The SUSY decays of the top quark are included.
#
#
#         PDG            Width
DECAY         6     1.41342726E+00   # top decays
#          BR         NDA      ID1       ID2
     1.00000000E+00    2           5        24   # BR(t ->  b    W+)
#
#         PDG            Width
DECAY   1000021     7.42145280E+01   # gluino decays
#          BR         NDA      ID1       ID2
     2.48009618E-01    2     1000005        -5   # BR(~g -> ~b_1  bb)
     2.48009618E-01    2    -1000005         5   # BR(~g -> ~b_1* b )
     2.51990382E-01    2     1000006        -6   # BR(~g -> ~t_1  tb)
     2.51990382E-01    2    -1000006         6   # BR(~g -> ~t_1* t )
#
#         PDG            Width
DECAY   1000006     4.78208273E+00   # stop1 decays
#          BR         NDA      ID1       ID2
     1.94222556E-02    2     1000022         6   # BR(~t_1 -> ~chi_10 t )
     2.86095825E-01    2     1000023         6   # BR(~t_1 -> ~chi_20 t )
     6.94481920E-01    2     1000024         5   # BR(~t_1 -> ~chi_1+ b )
#
#         PDG            Width
DECAY   2000006     1.17666396E+02   # stop2 decays
#          BR         NDA      ID1       ID2
     5.57849419E-02    2     1000022         6   # BR(~t_2 -> ~chi_10 t )
     2.84447310E-04    2     1000023         6   # BR(~t_2 -> ~chi_20 t )
     0.00000000E+00    2     1000025         6   # BR(~t_2 -> ~chi_30 t )
     5.72082610E-04    2     1000024         5   # BR(~t_2 -> ~chi_1+ b )
     7.61526445E-05    2     1000037         5   # BR(~t_2 -> ~chi_2+ b )
     2.92479634E-01    2     1000021         6   # BR(~t_2 -> ~g      t )
     1.70070971E-01    2     1000006        25   # BR(~t_2 -> ~t_1    h )
     1.62157137E-01    2     1000006        23   # BR(~t_2 -> ~t_1    Z )
     3.18574634E-01    2     1000005        24   # BR(~t_2 -> ~b_1    W+)
#
#         PDG            Width
DECAY   1000005     4.55876799E+00   # sbottom1 decays
#          BR         NDA      ID1       ID2
     2.31019198E-02    2     1000022         5   # BR(~b_1 -> ~chi_10 b )
     3.68635174E-01    2     1000023         5   # BR(~b_1 -> ~chi_20 b )
     6.08262907E-01    2    -1000024         6   # BR(~b_1 -> ~chi_1- t )
#
#         PDG            Width
DECAY   2000005     5.50362323E+01   # sbottom2 decays
#          BR         NDA      ID1       ID2
     3.00247014E-02    2     1000022         5   # BR(~b_2 -> ~chi_10 b )
     5.18924620E-08    2     1000023         5   # BR(~b_2 -> ~chi_20 b )
     2.74010048E-05    2     1000025         5   # BR(~b_2 -> ~chi_30 b )
     2.67037138E-05    2     1000035         5   # BR(~b_2 -> ~chi_40 b )
    -4.93089152E-08    2    -1000024         6   # BR(~b_2 -> ~chi_1- t )
     6.35933528E-01    2     1000021         5   # BR(~b_2 -> ~g      b )
     7.43069087E-02    2     1000005        25   # BR(~b_2 -> ~b_1    h )
     1.05717991E-01    2     1000005        23   # BR(~b_2 -> ~b_1    Z )
     1.53962764E-01    2     1000006       -24   # BR(~b_2 -> ~t_1    W-)
#
#         PDG            Width
DECAY   1000002     6.95748732E+01   # sup_L decays
#          BR         NDA      ID1       ID2
     5.96983634E-03    2     1000022         2   # BR(~u_L -> ~chi_10 u)
     1.61681008E-01    2     1000023         2   # BR(~u_L -> ~chi_20 u)
     1.93701655E-08    2     1000025         2   # BR(~u_L -> ~chi_30 u)
     2.78471038E-08    2     1000035         2   # BR(~u_L -> ~chi_40 u)
     3.23549236E-01    2     1000024         1   # BR(~u_L -> ~chi_1+ d)
     1.55368063E-09    2     1000037         1   # BR(~u_L -> ~chi_2+ d)
     5.08799871E-01    2     1000021         2   # BR(~u_L -> ~g      u)
#
#         PDG            Width
DECAY   2000002     4.18492553E+01   # sup_R decays
#          BR         NDA      ID1       ID2
     1.58358401E-01    2     1000022         2   # BR(~u_R -> ~chi_10 u)
     5.89584312E-09    2     1000023         2   # BR(~u_R -> ~chi_20 u)
     7.42500033E-09    2     1000025         2   # BR(~u_R -> ~chi_30 u)
     7.89283696E-09    2     1000035         2   # BR(~u_R -> ~chi_40 u)
     8.41641578E-01    2     1000021         2   # BR(~u_R -> ~g      u)
#
#         PDG            Width
DECAY   1000001     6.96257359E+01   # sdown_L decays
#          BR         NDA      ID1       ID2
     5.94332347E-03    2     1000022         1   # BR(~d_L -> ~chi_10 d)
     1.61592729E-01    2     1000023         1   # BR(~d_L -> ~chi_20 d)
     3.23164034E-08    2     1000025         1   # BR(~d_L -> ~chi_30 d)
     4.38422134E-08    2     1000035         1   # BR(~d_L -> ~chi_40 d)
     3.22979375E-01    2    -1000024         2   # BR(~d_L -> ~chi_1- u)
     2.33878546E-07    2    -1000037         2   # BR(~d_L -> ~chi_2- u)
     5.09484263E-01    2     1000021         1   # BR(~d_L -> ~g      d)
#
#         PDG            Width
DECAY   2000001     3.67054065E+01   # sdown_R decays
#          BR         NDA      ID1       ID2
     4.51042943E-02    2     1000022         1   # BR(~d_R -> ~chi_10 d)
     1.67920580E-09    2     1000023         1   # BR(~d_R -> ~chi_20 d)
     1.83058160E-09    2     1000025         1   # BR(~d_R -> ~chi_30 d)
     1.94507303E-09    2     1000035         1   # BR(~d_R -> ~chi_40 d)
     9.54895700E-01    2     1000021         1   # BR(~d_R -> ~g      d)
#
#         PDG            Width
DECAY   1000004     6.95748732E+01   # scharm_L decays
#          BR         NDA      ID1       ID2
     5.96983634E-03    2     1000022         4   # BR(~c_L -> ~chi_10 c)
     1.61681008E-01    2     1000023         4   # BR(~c_L -> ~chi_20 c)
     1.93701655E-08    2     1000025         4   # BR(~c_L -> ~chi_30 c)
     2.78471038E-08    2     1000035         4   # BR(~c_L -> ~chi_40 c)
     3.23549236E-01    2     1000024         3   # BR(~c_L -> ~chi_1+ s)
     1.55368063E-09    2     1000037         3   # BR(~c_L -> ~chi_2+ s)
     5.08799871E-01    2     1000021         4   # BR(~c_L -> ~g      c)
#
#         PDG            Width
DECAY   2000004     4.18492553E+01   # scharm_R decays
#          BR         NDA      ID1       ID2
     1.58358401E-01    2     1000022         4   # BR(~c_R -> ~chi_10 c)
     5.89584312E-09    2     1000023         4   # BR(~c_R -> ~chi_20 c)
     7.42500033E-09    2     1000025         4   # BR(~c_R -> ~chi_30 c)
     7.89283696E-09    2     1000035         4   # BR(~c_R -> ~chi_40 c)
     8.41641578E-01    2     1000021         4   # BR(~c_R -> ~g      c)
#
#         PDG            Width
DECAY   1000003     6.96257359E+01   # sstrange_L decays
#          BR         NDA      ID1       ID2
     5.94332347E-03    2     1000022         3   # BR(~s_L -> ~chi_10 s)
     1.61592729E-01    2     1000023         3   # BR(~s_L -> ~chi_20 s)
     3.23164034E-08    2     1000025         3   # BR(~s_L -> ~chi_30 s)
     4.38422134E-08    2     1000035         3   # BR(~s_L -> ~chi_40 s)
     3.22979375E-01    2    -1000024         4   # BR(~s_L -> ~chi_1- c)
     2.33878546E-07    2    -1000037         4   # BR(~s_L -> ~chi_2- c)
     5.09484263E-01    2     1000021         3   # BR(~s_L -> ~g      s)
#
#         PDG            Width
DECAY   2000003     3.67054065E+01   # sstrange_R decays
#          BR         NDA      ID1       ID2
     4.51042943E-02    2     1000022         3   # BR(~s_R -> ~chi_10 s)
     1.67920580E-09    2     1000023         3   # BR(~s_R -> ~chi_20 s)
     1.83058160E-09    2     1000025         3   # BR(~s_R -> ~chi_30 s)
     1.94507303E-09    2     1000035         3   # BR(~s_R -> ~chi_40 s)
     9.54895700E-01    2     1000021         3   # BR(~s_R -> ~g      s)
#
#         PDG            Width
DECAY   1000011     3.89272488E+01   # selectron_L decays
#          BR         NDA      ID1       ID2
     9.98428583E-02    2     1000022        11   # BR(~e_L -> ~chi_10 e-)
     3.00239611E-01    2     1000023        11   # BR(~e_L -> ~chi_20 e-)
     6.90529190E-10    2     1000025        11   # BR(~e_L -> ~chi_30 e-)
     1.06776578E-09    2     1000035        11   # BR(~e_L -> ~chi_40 e-)
     5.99917518E-01    2    -1000024        12   # BR(~e_L -> ~chi_1- nu_e)
     1.08624970E-08    2    -1000037        12   # BR(~e_L -> ~chi_2- nu_e)
#
#         PDG            Width
DECAY   2000011     1.55055226E+01   # selectron_R decays
#          BR         NDA      ID1       ID2
     9.99999963E-01    2     1000022        11   # BR(~e_R -> ~chi_10 e-)
     3.71466135E-08    2     1000023        11   # BR(~e_R -> ~chi_20 e-)
     1.35645548E-11    2     1000025        11   # BR(~e_R -> ~chi_30 e-)
     1.02757177E-11    2     1000035        11   # BR(~e_R -> ~chi_40 e-)
#
#         PDG            Width
DECAY   1000013     3.89272488E+01   # smuon_L decays
#          BR         NDA      ID1       ID2
     9.98428583E-02    2     1000022        13   # BR(~mu_L -> ~chi_10 mu-)
     3.00239611E-01    2     1000023        13   # BR(~mu_L -> ~chi_20 mu-)
     6.90529190E-10    2     1000025        13   # BR(~mu_L -> ~chi_30 mu-)
     1.06776578E-09    2     1000035        13   # BR(~mu_L -> ~chi_40 mu-)
     5.99917518E-01    2    -1000024        14   # BR(~mu_L -> ~chi_1- nu_mu)
     1.08624970E-08    2    -1000037        14   # BR(~mu_L -> ~chi_2- nu_mu)
#
#         PDG            Width
DECAY   2000013     1.55055226E+01   # smuon_R decays
#          BR         NDA      ID1       ID2
     9.99999963E-01    2     1000022        13   # BR(~mu_R -> ~chi_10 mu-)
     3.71466135E-08    2     1000023        13   # BR(~mu_R -> ~chi_20 mu-)
     1.35645548E-11    2     1000025        13   # BR(~mu_R -> ~chi_30 mu-)
     1.02757177E-11    2     1000035        13   # BR(~mu_R -> ~chi_40 mu-)
#
#         PDG            Width
DECAY   1000015     2.74850811E+01   # stau_1 decays
#          BR         NDA      ID1       ID2
     3.52595641E-01    2     1000022        15   # BR(~tau_1 -> ~chi_10  tau-)
     2.15954632E-01    2     1000023        15   # BR(~tau_1 -> ~chi_20  tau-)
     4.31449728E-01    2    -1000024        16   # BR(~tau_1 -> ~chi_1-  nu_tau)
#
#         PDG            Width
DECAY   2000015     2.69282680E+01   # stau_2 decays
#          BR         NDA      ID1       ID2
     3.60734794E-01    2     1000022        15   # BR(~tau_2 -> ~chi_10  tau-)
     2.13233406E-01    2     1000023        15   # BR(~tau_2 -> ~chi_20  tau-)
     1.06251925E-05    2     1000025        15   # BR(~tau_2 -> ~chi_30  tau-)
     9.02153981E-06    2     1000035        15   # BR(~tau_2 -> ~chi_40  tau-)
     4.26001728E-01    2    -1000024        16   # BR(~tau_2 -> ~chi_1-  nu_tau)
     1.04252515E-05    2    -1000037        16   # BR(~tau_2 -> ~chi_2-  nu_tau)
#
#         PDG            Width
DECAY   1000012     3.89293436E+01   # snu_eL decays
#          BR         NDA      ID1       ID2
     9.96563503E-02    2     1000022        12   # BR(~nu_eL -> ~chi_10 nu_e)
     2.99939814E-01    2     1000023        12   # BR(~nu_eL -> ~chi_20 nu_e)
     1.74993003E-09    2     1000025        12   # BR(~nu_eL -> ~chi_30 nu_e)
     2.21580862E-09    2     1000035        12   # BR(~nu_eL -> ~chi_40 nu_e)
     6.00403832E-01    2     1000024        11   # BR(~nu_eL -> ~chi_1+ e-)
     4.18104700E-11    2     1000037        11   # BR(~nu_eL -> ~chi_2+ e-)
#
#         PDG            Width
DECAY   1000014     3.89293436E+01   # snu_muL decays
#          BR         NDA      ID1       ID2
     9.96563503E-02    2     1000022        14   # BR(~nu_muL -> ~chi_10 nu_mu)
     2.99939814E-01    2     1000023        14   # BR(~nu_muL -> ~chi_20 nu_mu)
     1.74993003E-09    2     1000025        14   # BR(~nu_muL -> ~chi_30 nu_mu)
     2.21580862E-09    2     1000035        14   # BR(~nu_muL -> ~chi_40 nu_mu)
     6.00403832E-01    2     1000024        13   # BR(~nu_muL -> ~chi_1+ mu-)
     4.18104700E-11    2     1000037        13   # BR(~nu_muL -> ~chi_2+ mu-)
#
#         PDG            Width
DECAY   1000016     3.89345190E+01   # snu_tauL decays
#          BR         NDA      ID1       ID2
     9.96475881E-02    2     1000022        16   # BR(~nu_tauL -> ~chi_10 nu_tau)
     2.99914292E-01    2     1000023        16   # BR(~nu_tauL -> ~chi_20 nu_tau)
     1.84497732E-09    2     1000025        16   # BR(~nu_tauL -> ~chi_30 nu_tau)
     2.33830597E-09    2     1000035        16   # BR(~nu_tauL -> ~chi_40 nu_tau)
     6.00437700E-01    2     1000024        15   # BR(~nu_tauL -> ~chi_1+ tau-)
     4.15414479E-07    2     1000037        15   # BR(~nu_tauL -> ~chi_2+ tau-)
#
#         PDG            Width
DECAY   1000024     1.93636130E-06   # chargino1+ decays
#          BR         NDA      ID1       ID2
     1.00000000E+00    2     1000022        24   # BR(~chi_1+ -> ~chi_10  W+)
#
#         PDG            Width
DECAY   1000037     9.33596159E+01   # chargino2+ decays
#          BR         NDA      ID1       ID2
     1.39496684E-01    2     1000006        -5   # BR(~chi_2+ -> ~t_1     bb)
     6.58592667E-01    2    -1000005         6   # BR(~chi_2+ -> ~b_1*    t )
     5.26109580E-07    2    -1000015        16   # BR(~chi_2+ -> ~tau_1+  nu_tau)
     6.05631081E-02    2     1000024        23   # BR(~chi_2+ -> ~chi_1+  Z )
     1.94058646E-02    2     1000022        24   # BR(~chi_2+ -> ~chi_10  W+)
     5.89911946E-02    2     1000023        24   # BR(~chi_2+ -> ~chi_20  W+)
     6.29499561E-02    2     1000024        25   # BR(~chi_2+ -> ~chi_1+  h )
#
#         PDG            Width
DECAY   1000022     0.00000000E+00   # neutralino1 decays
#
#         PDG            Width
DECAY   1000023     2.04265178E-06   # neutralino2 decays
#          BR         NDA      ID1       ID2
     9.99929742E-01    2     1000022        23   # BR(~chi_20 -> ~chi_10   Z )
     7.02584512E-05    2     1000022        25   # BR(~chi_20 -> ~chi_10   h )
#
#         PDG            Width
DECAY   1000025     9.36093245E+01   # neutralino3 decays
#          BR         NDA      ID1       ID2
     1.02545882E-02    2     1000022        23   # BR(~chi_30 -> ~chi_10   Z )
     3.52100848E-02    2     1000023        23   # BR(~chi_30 -> ~chi_20   Z )
     5.88245985E-02    2     1000024       -24   # BR(~chi_30 -> ~chi_1+   W-)
     5.88245985E-02    2    -1000024        24   # BR(~chi_30 -> ~chi_1-   W+)
     9.90431967E-03    2     1000022        25   # BR(~chi_30 -> ~chi_10   h )
     2.56053981E-02    2     1000023        25   # BR(~chi_30 -> ~chi_20   h )
     3.32044570E-01    2     1000006        -6   # BR(~chi_30 -> ~t_1      tb)
     3.32044570E-01    2    -1000006         6   # BR(~chi_30 -> ~t_1*     t )
     6.86430240E-02    2     1000005        -5   # BR(~chi_30 -> ~b_1      bb)
     6.86430240E-02    2    -1000005         5   # BR(~chi_30 -> ~b_1*     b )
     6.11695031E-07    2     1000015       -15   # BR(~chi_30 -> ~tau_1-   tau+)
     6.11695031E-07    2    -1000015        15   # BR(~chi_30 -> ~tau_1+   tau-)
#
#         PDG            Width
DECAY   1000035     9.26152330E+01   # neutralino4 decays
#          BR         NDA      ID1       ID2
     9.70062104E-03    2     1000022        23   # BR(~chi_40 -> ~chi_10   Z )
     2.54629450E-02    2     1000023        23   # BR(~chi_40 -> ~chi_20   Z )
     5.94677173E-02    2     1000024       -24   # BR(~chi_40 -> ~chi_1+   W-)
     5.94677173E-02    2    -1000024        24   # BR(~chi_40 -> ~chi_1-   W+)
     1.07336956E-02    2     1000022        25   # BR(~chi_40 -> ~chi_10   h )
     3.75877149E-02    2     1000023        25   # BR(~chi_40 -> ~chi_20   h )
     3.29408247E-01    2     1000006        -6   # BR(~chi_40 -> ~t_1      tb)
     3.29408247E-01    2    -1000006         6   # BR(~chi_40 -> ~t_1*     t )
     6.93810655E-02    2     1000005        -5   # BR(~chi_40 -> ~b_1      bb)
     6.93810655E-02    2    -1000005         5   # BR(~chi_40 -> ~b_1*     b )
     4.82078923E-07    2     1000015       -15   # BR(~chi_40 -> ~tau_1-   tau+)
     4.82078923E-07    2    -1000015        15   # BR(~chi_40 -> ~tau_1+   tau-)
#
#         PDG            Width
DECAY        25     3.67871862E-03   # h decays
#          BR         NDA      ID1       ID2
     5.56171609E-01    2           5        -5   # BR(h -> b       bb     )
     7.07445958E-02    2         -15        15   # BR(h -> tau+    tau-   )
     2.50435744E-04    2         -13        13   # BR(h -> mu+     mu-    )
     5.31172172E-04    2           3        -3   # BR(h -> s       sb     )
     2.30814732E-02    2           4        -4   # BR(h -> c       cb     )
     7.54744533E-02    2          21        21   # BR(h -> g       g      )
     2.59757830E-03    2          22        22   # BR(h -> gam     gam    )
     1.76968019E-03    2          22        23   # BR(h -> Z       gam    )
     2.39246783E-01    2          24       -24   # BR(h -> W+      W-     )
     3.01322187E-02    2          23        23   # BR(h -> Z       Z      )
#
#         PDG            Width
DECAY        35     3.79337243E+01   # H decays
#          BR         NDA      ID1       ID2
     9.02265128E-01    2           5        -5   # BR(H -> b       bb     )
     6.55560900E-02    2         -15        15   # BR(H -> tau+    tau-   )
     2.31790668E-04    2         -13        13   # BR(H -> mu+     mu-    )
     2.84639349E-04    2           3        -3   # BR(H -> s       sb     )
     7.97804325E-08    2           4        -4   # BR(H -> c       cb     )
     7.95861058E-03    2           6        -6   # BR(H -> t       tb     )
     7.53103976E-06    2          21        21   # BR(H -> g       g      )
     4.88552460E-08    2          22        22   # BR(H -> gam     gam    )
     3.26021060E-09    2          23        22   # BR(H -> Z       gam    )
     7.09477268E-07    2          24       -24   # BR(H -> W+      W-     )
     3.54301184E-07    2          23        23   # BR(H -> Z       Z      )
     5.32520232E-06    2          25        25   # BR(H -> h       h      )
     2.85829579E-25    2          36        36   # BR(H -> A       A      )
     3.99718261E-19    2          23        36   # BR(H -> Z       A      )
     8.16910389E-04    2     1000024  -1000024   # BR(H -> ~chi_1+ ~chi_1-)
     4.04535862E-05    2     1000022   1000022   # BR(H -> ~chi_10 ~chi_10)
     4.08327251E-04    2     1000023   1000023   # BR(H -> ~chi_20 ~chi_20)
     2.58941685E-04    2     1000022   1000023   # BR(H -> ~chi_10 ~chi_20)
     2.21597247E-02    2     1000006  -1000006   # BR(H -> ~t_1    ~t_1*  )
     5.33163237E-06    2     1000005  -1000005   # BR(H -> ~b_1    ~b_1*  )
#
#         PDG            Width
DECAY        36     3.70992580E+01   # A decays
#          BR         NDA      ID1       ID2
     9.22573843E-01    2           5        -5   # BR(A -> b       bb     )
     6.70286706E-02    2         -15        15   # BR(A -> tau+    tau-   )
     2.36997030E-04    2         -13        13   # BR(A -> mu+     mu-    )
     2.91081566E-04    2           3        -3   # BR(A -> s       sb     )
     8.21390921E-08    2           4        -4   # BR(A -> c       cb     )
     8.18939195E-03    2           6        -6   # BR(A -> t       tb     )
     2.41169758E-05    2          21        21   # BR(A -> g       g      )
     6.34957502E-08    2          22        22   # BR(A -> gam     gam    )
     2.37497971E-08    2          23        22   # BR(A -> Z       gam    )
     7.22656194E-07    2          23        25   # BR(A -> Z       h      )
     8.93707833E-04    2     1000024  -1000024   # BR(A -> ~chi_1+ ~chi_1-)
     4.19840795E-05    2     1000022   1000022   # BR(A -> ~chi_10 ~chi_10)
     4.46675828E-04    2     1000023   1000023   # BR(A -> ~chi_20 ~chi_20)
     2.72639578E-04    2     1000022   1000023   # BR(A -> ~chi_10 ~chi_20)
#
#         PDG            Width
DECAY        37     4.05471853E+01   # H+ decays
#          BR         NDA      ID1       ID2
     1.47111808E-03    2           4        -5   # BR(H+ -> c       bb     )
     6.13512806E-02    2         -15        16   # BR(H+ -> tau+    nu_tau )
     2.16923164E-04    2         -13        14   # BR(H+ -> mu+     nu_mu  )
     9.41514416E-06    2           2        -5   # BR(H+ -> u       bb     )
     1.27480175E-05    2           2        -3   # BR(H+ -> u       sb     )
     2.62267712E-04    2           4        -3   # BR(H+ -> c       sb     )
     9.25466363E-01    2           6        -5   # BR(H+ -> t       bb     )
     6.62344197E-07    2          24        25   # BR(H+ -> W+      h      )
     5.11230692E-14    2          24        36   # BR(H+ -> W+      A      )
     4.91990210E-04    2     1000024   1000022   # BR(H+ -> ~chi_1+ ~chi_10)
     1.77015362E-11    2     1000024   1000023   # BR(H+ -> ~chi_1+ ~chi_20)
     1.07172319E-02    2     1000006  -1000005   # BR(H+ -> ~t_1    ~b_1*  )
