#
#                              ======================
#                              | THE SUSYHIT OUTPUT |
#                              ======================
#
#
#              ------------------------------------------------------
#              |     This is the output of the SUSY-HIT package     |
#              |  created by A.Djouadi, M.Muehlleitner and M.Spira. |
#              |  In case of problems with SUSY-HIT email to        |
#              |           margarete.muehlleitner@kit.edu           |
#              |           michael.spira@psi.ch                     |
#              |           abdelhak.djouadi@cern.ch                 |
#              ------------------------------------------------------
#
#              ------------------------------------------------------
#              |  SUSY Les Houches Accord - MSSM Spectrum + Decays  |
#              |              based on the decay programs           |
#              |                                                    |
#              |                     SDECAY 1.5                     |
#              |                                                    |
#              |  Authors: M.Muhlleitner, A.Djouadi and Y.Mambrini  |
#              |  Ref.:    Comput.Phys.Commun.168(2005)46           |
#              |           [hep-ph/0311167]                         |
#              |                                                    |
#              |                     HDECAY 3.4                     |
#              |                                                    |
#              |  By: A.Djouadi,J.Kalinowski,M.Muhlleitner,M.Spira  |
#              |  Ref.:    Comput.Phys.Commun.108(1998)56           |
#              |           [hep-ph/9704448]                         |
#              |                                                    |
#              |                                                    |
#              |  If not stated otherwise all DRbar couplings and   |
#              |  soft SUSY breaking masses are given at the scale  |
#              |  Q=  0.15501027E+04
#              |                                                    |
#              ------------------------------------------------------
#
#
BLOCK DCINFO  # Decay Program information
     1   SDECAY/HDECAY # decay calculator
     2   1.5  /3.4    # version number
#
BLOCK SPINFO  # Spectrum calculator information
     1    SOFTSUSY    # spectrum calculator                
     2    3.7.3       # version number                     
#
BLOCK MODSEL  # Model selection
     1     0   #  nonUniversal                                     
#
BLOCK SMINPUTS  # Standard Model inputs
         1     1.27934000E+02   # alpha_em^-1(M_Z)^MSbar
         2     1.16639000E-05   # G_F [GeV^-2]
         3     1.17200000E-01   # alpha_S(M_Z)^MSbar
         4     9.11870000E+01   # M_Z pole mass
         5     4.19000000E+00   # mb(mb)^MSbar
         6     1.72500000E+02   # mt pole mass
         7     1.77690000E+00   # mtau pole mass
#
BLOCK MINPAR  # Input parameters - minimal models
         3     2.00000000E+01   # tanb                
#
BLOCK EXTPAR  # Input parameters - non-minimal models
         0    -1.00000000E+00   # Set                 
         1     4.28990000E+02   # M_1(MX)             
         2     8.57990000E+02   # M_2(MX)             
         3     2.20000000E+03   # M_3(MX)             
        11     2.94338000E+03   # At(MX)              
        12     0.00000000E+00   # Ab(MX)              
        13     0.00000000E+00   # Atau(MX)            
        23     3.00000000E+03   # mu(MX)              
        25     2.00000000E+01   # tan                 
        26     3.00000000E+03   # mA(pole)            
        31     3.00000000E+03   # meL(MX)             
        32     3.00000000E+03   # mmuL(MX)            
        33     3.00000000E+03   # mtauL(MX)           
        34     3.00000000E+03   # meR(MX)             
        35     3.00000000E+03   # mmuR(MX)            
        36     3.00000000E+03   # mtauR(MX)           
        41     3.00000000E+03   # mqL1(MX)            
        42     3.00000000E+03   # mqL2(MX)            
        43     7.99900000E+02   # mqL3(MX)            
        44     3.00000000E+03   # muR(MX)             
        45     3.00000000E+03   # mcR(MX)             
        46     3.00000000E+03   # mtR(MX)             
        47     3.00000000E+03   # mdR(MX)             
        48     3.00000000E+03   # msR(MX)             
        49     3.00000000E+03   # mbR(MX)             
#
BLOCK MASS  # Mass Spectrum
# PDG code           mass       particle
        24     8.04051297E+01   # W+
        25     1.23773005E+02   # h
        35     3.00013279E+03   # H
        36     2.99999987E+03   # A
        37     3.00091234E+03   # H+
         5     4.81337004E+00   # b-quark pole mass calculated from mb(mb)_Msbar
   1000001     3.03713152E+03   # ~d_L
   2000001     3.03211891E+03   # ~d_R
   1000002     3.03622290E+03   # ~u_L
   2000002     3.03331732E+03   # ~u_R
   1000003     3.03713152E+03   # ~s_L
   2000003     3.03211891E+03   # ~s_R
   1000004     3.03622290E+03   # ~c_L
   2000004     3.03331732E+03   # ~c_R
   1000005     9.02864092E+02   # ~b_1
   2000005     3.03119774E+03   # ~b_2
   1000006     9.01273223E+02   # ~t_1
   2000006     3.01725858E+03   # ~t_2
   1000011     3.00622467E+03   # ~e_L
   2000011     3.00192746E+03   # ~e_R
   1000012     3.00483703E+03   # ~nu_eL
   1000013     3.00622467E+03   # ~mu_L
   2000013     3.00192746E+03   # ~mu_R
   1000014     3.00483703E+03   # ~nu_muL
   1000015     2.98546581E+03   # ~tau_1
   2000015     3.02204230E+03   # ~tau_2
   1000016     3.00465130E+03   # ~nu_tauL
   1000021     2.34597420E+03   # ~g
   1000022     4.31503325E+02   # ~chi_10
   1000023     8.92543344E+02   # ~chi_20
   1000025    -2.99666350E+03   # ~chi_30
   1000035     2.99776405E+03   # ~chi_40
   1000024     8.92705311E+02   # ~chi_1+
   1000037     2.99823586E+03   # ~chi_2+
#
BLOCK NMIX  # Neutralino Mixing Matrix
  1  1     9.99880672E-01   # N_11
  1  2    -6.62483881E-04   # N_12
  1  3     1.51581648E-02   # N_13
  1  4    -2.90390311E-03   # N_14
  2  1     1.12256949E-03   # N_21
  2  2     9.99546979E-01   # N_22
  2  3    -2.85528072E-02   # N_23
  2  4     9.45059681E-03   # N_24
  3  1    -8.65377088E-03   # N_31
  3  2     1.35166398E-02   # N_32
  3  3     7.06890429E-01   # N_33
  3  4     7.07140957E-01   # N_34
  4  1    -1.27472972E-02   # N_41
  4  2     2.68830486E-02   # N_42
  4  3     7.06583957E-01   # N_43
  4  4    -7.07003479E-01   # N_44
#
BLOCK UMIX  # Chargino Mixing Matrix U
  1  1     9.99183937E-01   # U_11
  1  2    -4.03913255E-02   # U_12
  2  1     4.03913255E-02   # U_21
  2  2     9.99183937E-01   # U_22
#
BLOCK VMIX  # Chargino Mixing Matrix V
  1  1     9.99910614E-01   # V_11
  1  2    -1.33702949E-02   # V_12
  2  1     1.33702949E-02   # V_21
  2  2     9.99910614E-01   # V_22
#
BLOCK STOPMIX  # Stop Mixing Matrix
  1  1     9.98805975E-01   # cos(theta_t)
  1  2    -4.88530890E-02   # sin(theta_t)
  2  1     4.88530890E-02   # -sin(theta_t)
  2  2     9.98805975E-01   # cos(theta_t)
#
BLOCK SBOTMIX  # Sbottom Mixing Matrix
  1  1     9.99909763E-01   # cos(theta_b)
  1  2     1.34337581E-02   # sin(theta_b)
  2  1    -1.34337581E-02   # -sin(theta_b)
  2  2     9.99909763E-01   # cos(theta_b)
#
BLOCK STAUMIX  # Stau Mixing Matrix
  1  1     7.06965897E-01   # cos(theta_tau)
  1  2     7.07247637E-01   # sin(theta_tau)
  2  1    -7.07247637E-01   # -sin(theta_tau)
  2  2     7.06965897E-01   # cos(theta_tau)
#
BLOCK ALPHA  # Higgs mixing
          -5.01832851E-02   # Mixing angle in the neutral Higgs boson sector
#
BLOCK HMIX Q=  1.55010265E+03  # DRbar Higgs Parameters
         1     3.00000000E+03   # mu(Q)MSSM           
         2     2.00000000E+01   # tan                 
         3     2.44219143E+02   # higgs               
         4     7.41532598E+06   # mA^2(Q)MSSM         
#
BLOCK GAUGE Q=  1.55010265E+03  # The gauge couplings
     1     3.62283218E-01   # gprime(Q) DRbar
     2     6.36638503E-01   # g(Q) DRbar
     3     1.02559797E+00   # g3(Q) DRbar
#
BLOCK AU Q=  1.55010265E+03  # The trilinear couplings
  1  1     2.28792328E-06   # A_u(Q) DRbar
  2  2     2.28795530E-06   # A_c(Q) DRbar
  3  3     2.94338000E+03   # A_t(Q) DRbar
#
BLOCK AD Q=  1.55010265E+03  # The trilinear couplings
  1  1     6.45235153E-07   # A_d(Q) DRbar
  2  2     6.45339747E-07   # A_s(Q) DRbar
  3  3     1.36070177E-06   # A_b(Q) DRbar
#
BLOCK AE Q=  1.55010265E+03  # The trilinear couplings
  1  1     0.00000000E+00   # A_e(Q) DRbar
  2  2     1.27362639E-07   # A_mu(Q) DRbar
  3  3     1.28840967E-07   # A_tau(Q) DRbar
#
BLOCK Yu Q=  1.55010265E+03  # The Yukawa couplings
  1  1     0.00000000E+00   # y_u(Q) DRbar
  2  2     0.00000000E+00   # y_c(Q) DRbar
  3  3     8.50912680E-01   # y_t(Q) DRbar
#
BLOCK Yd Q=  1.55010265E+03  # The Yukawa couplings
  1  1     0.00000000E+00   # y_d(Q) DRbar
  2  2     0.00000000E+00   # y_s(Q) DRbar
  3  3     2.17043348E-01   # y_b(Q) DRbar
#
BLOCK Ye Q=  1.55010265E+03  # The Yukawa couplings
  1  1     0.00000000E+00   # y_e(Q) DRbar
  2  2     0.00000000E+00   # y_mu(Q) DRbar
  3  3     2.07999070E-01   # y_tau(Q) DRbar
#
BLOCK MSOFT Q=  1.55010265E+03  # The soft SUSY breaking masses at the scale Q
         1     4.28990000E+02   # M_1(Q)              
         2     8.57990000E+02   # M_2(Q)              
         3     2.20000000E+03   # M_3(Q)              
        21    -8.66798011E+04   # M^2_Hd              
        22    -9.04558739E+06   # M^2_Hu              
        31     3.00000000E+03   # M_eL                
        32     3.00000000E+03   # M_muL               
        33     3.00000000E+03   # M_tauL              
        34     3.00000000E+03   # M_eR                
        35     3.00000000E+03   # M_muR               
        36     3.00000000E+03   # M_tauR              
        41     3.00000000E+03   # M_q1L               
        42     3.00000000E+03   # M_q2L               
        43     7.99899993E+02   # M_q3L               
        44     3.00000000E+03   # M_uR                
        45     3.00000000E+03   # M_cR                
        46     3.00000000E+03   # M_tR                
        47     3.00000000E+03   # M_dR                
        48     3.00000000E+03   # M_sR                
        49     3.00000000E+03   # M_bR                
#
#
#
#                             =================
#                             |The decay table|
#                             =================
#
# - The QCD corrections to the decays gluino -> squark  + quark
#                                     squark -> gaugino + quark_prime
#                                     squark -> squark_prime + Higgs
#                                     squark -> gluino  + quark
#   are included.
#
# - The multi-body decays for the inos, stops and sbottoms are included.
#
# - The loop induced decays for the gluino, neutralinos and stops
#   are included.
#
# - The SUSY decays of the top quark are included.
#
#
#         PDG            Width
DECAY         6     1.40667898E+00   # top decays
#          BR         NDA      ID1       ID2
     1.00000000E+00    2           5        24   # BR(t ->  b    W+)
#
#         PDG            Width
DECAY   1000021     6.90013398E+01   # gluino decays
#          BR         NDA      ID1       ID2
     2.48206856E-01    2     1000005        -5   # BR(~g -> ~b_1  bb)
     2.48206856E-01    2    -1000005         5   # BR(~g -> ~b_1* b )
     2.51793144E-01    2     1000006        -6   # BR(~g -> ~t_1  tb)
     2.51793144E-01    2    -1000006         6   # BR(~g -> ~t_1* t )
#
#         PDG            Width
DECAY   1000006     6.96710851E-02   # stop1 decays
#          BR         NDA      ID1       ID2
     9.63957714E-01    2     1000022         6   # BR(~t_1 -> ~chi_10 t )
     3.60422855E-02    2     1000024         5   # BR(~t_1 -> ~chi_1+ b )
#
#         PDG            Width
DECAY   2000006     1.00161269E+02   # stop2 decays
#          BR         NDA      ID1       ID2
     6.35786944E-02    2     1000022         6   # BR(~t_2 -> ~chi_10 t )
     4.00130101E-04    2     1000023         6   # BR(~t_2 -> ~chi_20 t )
     0.00000000E+00    2     1000025         6   # BR(~t_2 -> ~chi_30 t )
     8.04824313E-04    2     1000024         5   # BR(~t_2 -> ~chi_1+ b )
     7.25789388E-05    2     1000037         5   # BR(~t_2 -> ~chi_2+ b )
     3.35017797E-01    2     1000021         6   # BR(~t_2 -> ~g      t )
     1.57279813E-01    2     1000006        25   # BR(~t_2 -> ~t_1    h )
     1.49112366E-01    2     1000006        23   # BR(~t_2 -> ~t_1    Z )
     2.93733797E-01    2     1000005        24   # BR(~t_2 -> ~b_1    W+)
#
#         PDG            Width
DECAY   1000005     8.31852755E-02   # sbottom1 decays
#          BR         NDA      ID1       ID2
     9.76781552E-01    2     1000022         5   # BR(~b_1 -> ~chi_10 b )
     2.32184480E-02    2     1000023         5   # BR(~b_1 -> ~chi_20 b )
#
#         PDG            Width
DECAY   2000005     4.21498740E+01   # sbottom2 decays
#          BR         NDA      ID1       ID2
     3.81809054E-02    2     1000022         5   # BR(~b_2 -> ~chi_10 b )
     1.37407789E-07    2     1000023         5   # BR(~b_2 -> ~chi_20 b )
     1.82578770E-05    2     1000025         5   # BR(~b_2 -> ~chi_30 b )
     1.73641027E-05    2     1000035         5   # BR(~b_2 -> ~chi_40 b )
     1.31618977E-07    2    -1000024         6   # BR(~b_2 -> ~chi_1- t )
     8.28134717E-01    2     1000021         5   # BR(~b_2 -> ~g      b )
     2.96565731E-02    2     1000005        25   # BR(~b_2 -> ~b_1    h )
     4.27081223E-02    2     1000005        23   # BR(~b_2 -> ~b_1    Z )
     6.12837908E-02    2     1000006       -24   # BR(~b_2 -> ~t_1    W-)
#
#         PDG            Width
DECAY   1000002     6.50202704E+01   # sup_L decays
#          BR         NDA      ID1       ID2
     6.15914831E-03    2     1000022         2   # BR(~u_L -> ~chi_10 u)
     1.50278476E-01    2     1000023         2   # BR(~u_L -> ~chi_20 u)
     1.95299665E-08    2     1000025         2   # BR(~u_L -> ~chi_30 u)
     7.84730818E-08    2     1000035         2   # BR(~u_L -> ~chi_40 u)
     3.00627235E-01    2     1000024         1   # BR(~u_L -> ~chi_1+ d)
     4.57643908E-08    2     1000037         1   # BR(~u_L -> ~chi_2+ d)
     5.42934997E-01    2     1000021         2   # BR(~u_L -> ~g      u)
#
#         PDG            Width
DECAY   2000002     4.15136759E+01   # sup_R decays
#          BR         NDA      ID1       ID2
     1.55266167E-01    2     1000022         2   # BR(~u_R -> ~chi_10 u)
     1.70606433E-07    2     1000023         2   # BR(~u_R -> ~chi_20 u)
     8.07098996E-09    2     1000025         2   # BR(~u_R -> ~chi_30 u)
     1.65055040E-08    2     1000035         2   # BR(~u_R -> ~chi_40 u)
     8.44733638E-01    2     1000021         2   # BR(~u_R -> ~g      u)
#
#         PDG            Width
DECAY   1000001     6.50747941E+01   # sdown_L decays
#          BR         NDA      ID1       ID2
     6.24264293E-03    2     1000022         1   # BR(~d_L -> ~chi_10 d)
     1.50087502E-01    2     1000023         1   # BR(~d_L -> ~chi_20 d)
     3.32182655E-08    2     1000025         1   # BR(~d_L -> ~chi_30 d)
     1.17652273E-07    2     1000035         1   # BR(~d_L -> ~chi_40 d)
     3.00064553E-01    2    -1000024         2   # BR(~d_L -> ~chi_1- u)
     4.36789453E-07    2    -1000037         2   # BR(~d_L -> ~chi_2- u)
     5.43604715E-01    2     1000021         1   # BR(~d_L -> ~g      d)
#
#         PDG            Width
DECAY   2000001     3.65823990E+01   # sdown_R decays
#          BR         NDA      ID1       ID2
     4.40296989E-02    2     1000022         1   # BR(~d_R -> ~chi_10 d)
     4.83742320E-08    2     1000023         1   # BR(~d_R -> ~chi_20 d)
     2.14733408E-09    2     1000025         1   # BR(~d_R -> ~chi_30 d)
     4.38241041E-09    2     1000035         1   # BR(~d_R -> ~chi_40 d)
     9.55970246E-01    2     1000021         1   # BR(~d_R -> ~g      d)
#
#         PDG            Width
DECAY   1000004     6.50202704E+01   # scharm_L decays
#          BR         NDA      ID1       ID2
     6.15914831E-03    2     1000022         4   # BR(~c_L -> ~chi_10 c)
     1.50278476E-01    2     1000023         4   # BR(~c_L -> ~chi_20 c)
     1.95299665E-08    2     1000025         4   # BR(~c_L -> ~chi_30 c)
     7.84730818E-08    2     1000035         4   # BR(~c_L -> ~chi_40 c)
     3.00627235E-01    2     1000024         3   # BR(~c_L -> ~chi_1+ s)
     4.57643908E-08    2     1000037         3   # BR(~c_L -> ~chi_2+ s)
     5.42934997E-01    2     1000021         4   # BR(~c_L -> ~g      c)
#
#         PDG            Width
DECAY   2000004     4.15136759E+01   # scharm_R decays
#          BR         NDA      ID1       ID2
     1.55266167E-01    2     1000022         4   # BR(~c_R -> ~chi_10 c)
     1.70606433E-07    2     1000023         4   # BR(~c_R -> ~chi_20 c)
     8.07098996E-09    2     1000025         4   # BR(~c_R -> ~chi_30 c)
     1.65055040E-08    2     1000035         4   # BR(~c_R -> ~chi_40 c)
     8.44733638E-01    2     1000021         4   # BR(~c_R -> ~g      c)
#
#         PDG            Width
DECAY   1000003     6.50747941E+01   # sstrange_L decays
#          BR         NDA      ID1       ID2
     6.24264293E-03    2     1000022         3   # BR(~s_L -> ~chi_10 s)
     1.50087502E-01    2     1000023         3   # BR(~s_L -> ~chi_20 s)
     3.32182655E-08    2     1000025         3   # BR(~s_L -> ~chi_30 s)
     1.17652273E-07    2     1000035         3   # BR(~s_L -> ~chi_40 s)
     3.00064553E-01    2    -1000024         4   # BR(~s_L -> ~chi_1- c)
     4.36789453E-07    2    -1000037         4   # BR(~s_L -> ~chi_2- c)
     5.43604715E-01    2     1000021         3   # BR(~s_L -> ~g      s)
#
#         PDG            Width
DECAY   2000003     3.65823990E+01   # sstrange_R decays
#          BR         NDA      ID1       ID2
     4.40296989E-02    2     1000022         3   # BR(~s_R -> ~chi_10 s)
     4.83742320E-08    2     1000023         3   # BR(~s_R -> ~chi_20 s)
     2.14733408E-09    2     1000025         3   # BR(~s_R -> ~chi_30 s)
     4.38241041E-09    2     1000035         3   # BR(~s_R -> ~chi_40 s)
     9.55970246E-01    2     1000021         3   # BR(~s_R -> ~g      s)
#
#         PDG            Width
DECAY   1000011     3.39572251E+01   # selectron_L decays
#          BR         NDA      ID1       ID2
     1.10582911E-01    2     1000022        11   # BR(~e_L -> ~chi_10 e-)
     2.96882514E-01    2     1000023        11   # BR(~e_L -> ~chi_20 e-)
     1.06276282E-09    2     1000025        11   # BR(~e_L -> ~chi_30 e-)
     4.34485329E-09    2     1000035        11   # BR(~e_L -> ~chi_40 e-)
     5.92534537E-01    2    -1000024        12   # BR(~e_L -> ~chi_1- nu_e)
     3.28101211E-08    2    -1000037        12   # BR(~e_L -> ~chi_2- nu_e)
#
#         PDG            Width
DECAY   2000011     1.50320769E+01   # selectron_R decays
#          BR         NDA      ID1       ID2
     9.99998906E-01    2     1000022        11   # BR(~e_R -> ~chi_10 e-)
     1.09212342E-06    2     1000023        11   # BR(~e_R -> ~chi_20 e-)
     9.58895867E-10    2     1000025        11   # BR(~e_R -> ~chi_30 e-)
     1.30205530E-09    2     1000035        11   # BR(~e_R -> ~chi_40 e-)
#
#         PDG            Width
DECAY   1000013     3.39572251E+01   # smuon_L decays
#          BR         NDA      ID1       ID2
     1.10582911E-01    2     1000022        13   # BR(~mu_L -> ~chi_10 mu-)
     2.96882514E-01    2     1000023        13   # BR(~mu_L -> ~chi_20 mu-)
     1.06276282E-09    2     1000025        13   # BR(~mu_L -> ~chi_30 mu-)
     4.34485329E-09    2     1000035        13   # BR(~mu_L -> ~chi_40 mu-)
     5.92534537E-01    2    -1000024        14   # BR(~mu_L -> ~chi_1- nu_mu)
     3.28101211E-08    2    -1000037        14   # BR(~mu_L -> ~chi_2- nu_mu)
#
#         PDG            Width
DECAY   2000013     1.50320769E+01   # smuon_R decays
#          BR         NDA      ID1       ID2
     9.99998906E-01    2     1000022        13   # BR(~mu_R -> ~chi_10 mu-)
     1.09212342E-06    2     1000023        13   # BR(~mu_R -> ~chi_20 mu-)
     9.58895867E-10    2     1000025        13   # BR(~mu_R -> ~chi_30 mu-)
     1.30205530E-09    2     1000035        13   # BR(~mu_R -> ~chi_40 mu-)
#
#         PDG            Width
DECAY   1000015     2.47334881E+01   # stau_1 decays
#          BR         NDA      ID1       ID2
     3.79442837E-01    2     1000022        15   # BR(~tau_1 -> ~chi_10  tau-)
     2.07151767E-01    2     1000023        15   # BR(~tau_1 -> ~chi_20  tau-)
     4.13405396E-01    2    -1000024        16   # BR(~tau_1 -> ~chi_1-  nu_tau)
#
#         PDG            Width
DECAY   2000015     2.42296699E+01   # stau_2 decays
#          BR         NDA      ID1       ID2
     3.88335133E-01    2     1000022        15   # BR(~tau_2 -> ~chi_10  tau-)
     2.04186637E-01    2     1000023        15   # BR(~tau_2 -> ~chi_20  tau-)
     1.47223215E-05    2     1000025        15   # BR(~tau_2 -> ~chi_30  tau-)
     1.62628931E-05    2     1000035        15   # BR(~tau_2 -> ~chi_40  tau-)
     4.07430584E-01    2    -1000024        16   # BR(~tau_2 -> ~chi_1-  nu_tau)
     1.66600208E-05    2    -1000037        16   # BR(~tau_2 -> ~chi_2-  nu_tau)
#
#         PDG            Width
DECAY   1000012     3.39570677E+01   # snu_eL decays
#          BR         NDA      ID1       ID2
     1.11044044E-01    2     1000022        12   # BR(~nu_eL -> ~chi_10 nu_e)
     2.95936358E-01    2     1000023        12   # BR(~nu_eL -> ~chi_20 nu_e)
     3.58102024E-09    2     1000025        12   # BR(~nu_eL -> ~chi_30 nu_e)
     9.19235979E-09    2     1000035        12   # BR(~nu_eL -> ~chi_40 nu_e)
     5.93019583E-01    2     1000024        11   # BR(~nu_eL -> ~chi_1+ e-)
     2.45693710E-09    2     1000037        11   # BR(~nu_eL -> ~chi_2+ e-)
#
#         PDG            Width
DECAY   1000014     3.39570677E+01   # snu_muL decays
#          BR         NDA      ID1       ID2
     1.11044044E-01    2     1000022        14   # BR(~nu_muL -> ~chi_10 nu_mu)
     2.95936358E-01    2     1000023        14   # BR(~nu_muL -> ~chi_20 nu_mu)
     3.58102024E-09    2     1000025        14   # BR(~nu_muL -> ~chi_30 nu_mu)
     9.19235979E-09    2     1000035        14   # BR(~nu_muL -> ~chi_40 nu_mu)
     5.93019583E-01    2     1000024        13   # BR(~nu_muL -> ~chi_1+ mu-)
     2.45693710E-09    2     1000037        13   # BR(~nu_muL -> ~chi_2+ mu-)
#
#         PDG            Width
DECAY   1000016     3.39575582E+01   # snu_tauL decays
#          BR         NDA      ID1       ID2
     1.11034998E-01    2     1000022        16   # BR(~nu_tauL -> ~chi_10 nu_tau)
     2.95906711E-01    2     1000023        16   # BR(~nu_tauL -> ~chi_20 nu_tau)
     3.42049688E-09    2     1000025        16   # BR(~nu_tauL -> ~chi_30 nu_tau)
     8.71688335E-09    2     1000035        16   # BR(~nu_tauL -> ~chi_40 nu_tau)
     5.93056917E-01    2     1000024        15   # BR(~nu_tauL -> ~chi_1+ tau-)
     1.36168398E-06    2     1000037        15   # BR(~nu_tauL -> ~chi_2+ tau-)
#
#         PDG            Width
DECAY   1000024     3.22323928E-04   # chargino1+ decays
#          BR         NDA      ID1       ID2
     1.00000000E+00    2     1000022        24   # BR(~chi_1+ -> ~chi_10  W+)
#
#         PDG            Width
DECAY   1000037     8.25164296E+01   # chargino2+ decays
#          BR         NDA      ID1       ID2
     4.86914408E-02    2     1000006        -5   # BR(~chi_2+ -> ~t_1     bb)
     7.11140459E-01    2    -1000005         6   # BR(~chi_2+ -> ~b_1*    t )
     4.33280421E-07    2    -1000015        16   # BR(~chi_2+ -> ~tau_1+  nu_tau)
     7.16258858E-02    2     1000024        23   # BR(~chi_2+ -> ~chi_1+  Z )
     2.26257053E-02    2     1000022        24   # BR(~chi_2+ -> ~chi_10  W+)
     6.97368789E-02    2     1000023        24   # BR(~chi_2+ -> ~chi_20  W+)
     7.61791974E-02    2     1000024        25   # BR(~chi_2+ -> ~chi_1+  h )
#
#         PDG            Width
DECAY   1000022     0.00000000E+00   # neutralino1 decays
#
#         PDG            Width
DECAY   1000023     2.97515974E-04   # neutralino2 decays
#          BR         NDA      ID1       ID2
     5.95102899E-02    2     1000022        23   # BR(~chi_20 -> ~chi_10   Z )
     9.40489710E-01    2     1000022        25   # BR(~chi_20 -> ~chi_10   h )
#
#         PDG            Width
DECAY   1000025     8.26033097E+01   # neutralino3 decays
#          BR         NDA      ID1       ID2
     1.59942541E-02    2     1000022        23   # BR(~chi_30 -> ~chi_10   Z )
     5.69984462E-02    2     1000023        23   # BR(~chi_30 -> ~chi_20   Z )
     6.95364641E-02    2     1000024       -24   # BR(~chi_30 -> ~chi_1+   W-)
     6.95364641E-02    2    -1000024        24   # BR(~chi_30 -> ~chi_1-   W+)
     7.63298752E-03    2     1000022        25   # BR(~chi_30 -> ~chi_10   h )
     1.46765916E-02    2     1000023        25   # BR(~chi_30 -> ~chi_20   h )
     3.59599340E-01    2     1000006        -6   # BR(~chi_30 -> ~t_1      tb)
     3.59599340E-01    2    -1000006         6   # BR(~chi_30 -> ~t_1*     t )
     2.32127157E-02    2     1000005        -5   # BR(~chi_30 -> ~b_1      bb)
     2.32127157E-02    2    -1000005         5   # BR(~chi_30 -> ~b_1*     b )
     3.40412085E-07    2     1000015       -15   # BR(~chi_30 -> ~tau_1-   tau+)
     3.40412085E-07    2    -1000015        15   # BR(~chi_30 -> ~tau_1+   tau-)
#
#         PDG            Width
DECAY   1000035     8.19062540E+01   # neutralino4 decays
#          BR         NDA      ID1       ID2
     7.43631046E-03    2     1000022        23   # BR(~chi_40 -> ~chi_10   Z )
     1.45766046E-02    2     1000023        23   # BR(~chi_40 -> ~chi_20   Z )
     7.01857149E-02    2     1000024       -24   # BR(~chi_40 -> ~chi_1+   W-)
     7.01857149E-02    2    -1000024        24   # BR(~chi_40 -> ~chi_1-   W+)
     1.68091804E-02    2     1000022        25   # BR(~chi_40 -> ~chi_10   h )
     6.18713401E-02    2     1000023        25   # BR(~chi_40 -> ~chi_20   h )
     3.55974637E-01    2     1000006        -6   # BR(~chi_40 -> ~t_1      tb)
     3.55974637E-01    2    -1000006         6   # BR(~chi_40 -> ~t_1*     t )
     2.34923939E-02    2     1000005        -5   # BR(~chi_40 -> ~b_1      bb)
     2.34923939E-02    2    -1000005         5   # BR(~chi_40 -> ~b_1*     b )
     5.36459827E-07    2     1000015       -15   # BR(~chi_40 -> ~tau_1-   tau+)
     5.36459827E-07    2    -1000015        15   # BR(~chi_40 -> ~tau_1+   tau-)
#
#         PDG            Width
DECAY        25     4.65594199E-03   # h decays
#          BR         NDA      ID1       ID2
     6.88838634E-01    2           5        -5   # BR(h -> b       bb     )
     5.55167401E-02    2         -15        15   # BR(h -> tau+    tau-   )
     1.96535640E-04    2         -13        13   # BR(h -> mu+     mu-    )
     4.17915514E-04    2           3        -3   # BR(h -> s       sb     )
     1.80389517E-02    2           4        -4   # BR(h -> c       cb     )
     5.76042466E-02    2          21        21   # BR(h -> g       g      )
     1.93850620E-03    2          22        22   # BR(h -> gam     gam    )
     1.20068923E-03    2          22        23   # BR(h -> Z       gam    )
     1.57002395E-01    2          24       -24   # BR(h -> W+      W-     )
     1.92453863E-02    2          23        23   # BR(h -> Z       Z      )
#
#         PDG            Width
DECAY        35     1.39617817E+01   # H decays
#          BR         NDA      ID1       ID2
     7.47319984E-01    2           5        -5   # BR(H -> b       bb     )
     1.78112264E-01    2         -15        15   # BR(H -> tau+    tau-   )
     6.29762402E-04    2         -13        13   # BR(H -> mu+     mu-    )
     7.73348335E-04    2           3        -3   # BR(H -> s       sb     )
     2.18234366E-07    2           4        -4   # BR(H -> c       cb     )
     2.17702836E-02    2           6        -6   # BR(H -> t       tb     )
     2.67557210E-05    2          21        21   # BR(H -> g       g      )
     4.53156739E-08    2          22        22   # BR(H -> gam     gam    )
     8.38822470E-09    2          23        22   # BR(H -> Z       gam    )
     3.19621336E-05    2          24       -24   # BR(H -> W+      W-     )
     1.59613699E-05    2          23        23   # BR(H -> Z       Z      )
     8.29109542E-05    2          25        25   # BR(H -> h       h      )
     1.43309079E-23    2          36        36   # BR(H -> A       A      )
     3.54743969E-18    2          23        36   # BR(H -> Z       A      )
     1.48922339E-03    2     1000024  -1000024   # BR(H -> ~chi_1+ ~chi_1-)
     1.03287328E-04    2     1000022   1000022   # BR(H -> ~chi_10 ~chi_10)
     7.42957031E-04    2     1000023   1000023   # BR(H -> ~chi_20 ~chi_20)
     5.85730447E-04    2     1000022   1000023   # BR(H -> ~chi_10 ~chi_20)
     4.83093911E-02    2     1000006  -1000006   # BR(H -> ~t_1    ~t_1*  )
     5.90650094E-06    2     1000005  -1000005   # BR(H -> ~b_1    ~b_1*  )
#
#         PDG            Width
DECAY        36     1.33099940E+01   # A decays
#          BR         NDA      ID1       ID2
     7.83988515E-01    2           5        -5   # BR(A -> b       bb     )
     1.86830581E-01    2         -15        15   # BR(A -> tau+    tau-   )
     6.60587365E-04    2         -13        13   # BR(A -> mu+     mu-    )
     8.11338462E-04    2           3        -3   # BR(A -> s       sb     )
     2.28948213E-07    2           4        -4   # BR(A -> c       cb     )
     2.28264838E-02    2           6        -6   # BR(A -> t       tb     )
     6.72218122E-05    2          21        21   # BR(A -> g       g      )
     7.15855041E-08    2          22        22   # BR(A -> gam     gam    )
     6.62653777E-08    2          23        22   # BR(A -> Z       gam    )
     3.34027749E-05    2          23        25   # BR(A -> Z       h      )
     2.58449145E-03    2     1000024  -1000024   # BR(A -> ~chi_1+ ~chi_1-)
     1.22740392E-04    2     1000022   1000022   # BR(A -> ~chi_10 ~chi_10)
     1.28917147E-03    2     1000023   1000023   # BR(A -> ~chi_20 ~chi_20)
     7.85099102E-04    2     1000022   1000023   # BR(A -> ~chi_10 ~chi_20)
#
#         PDG            Width
DECAY        37     1.02438245E+01   # H+ decays
#          BR         NDA      ID1       ID2
     1.10696226E-03    2           4        -5   # BR(H+ -> c       bb     )
     2.42826325E-01    2         -15        16   # BR(H+ -> tau+    nu_tau )
     8.58574658E-04    2         -13        14   # BR(H+ -> mu+     nu_mu  )
     7.08454738E-06    2           2        -5   # BR(H+ -> u       bb     )
     5.04566266E-05    2           2        -3   # BR(H+ -> u       sb     )
     1.03805506E-03    2           4        -3   # BR(H+ -> c       sb     )
     7.19965140E-01    2           6        -5   # BR(H+ -> t       bb     )
     4.34676184E-05    2          24        25   # BR(H+ -> W+      h      )
     8.12494768E-14    2          24        36   # BR(H+ -> W+      A      )
     1.81559490E-03    2     1000024   1000022   # BR(H+ -> ~chi_1+ ~chi_10)
     2.09683255E-09    2     1000024   1000023   # BR(H+ -> ~chi_1+ ~chi_20)
     3.22883374E-02    2     1000006  -1000005   # BR(H+ -> ~t_1    ~b_1*  )
