#
#                              ======================
#                              | THE SUSYHIT OUTPUT |
#                              ======================
#
#
#              ------------------------------------------------------
#              |     This is the output of the SUSY-HIT package     |
#              |  created by A.Djouadi, M.Muehlleitner and M.Spira. |
#              |  In case of problems with SUSY-HIT email to        |
#              |           margarete.muehlleitner@kit.edu           |
#              |           michael.spira@psi.ch                     |
#              |           abdelhak.djouadi@cern.ch                 |
#              ------------------------------------------------------
#
#              ------------------------------------------------------
#              |  SUSY Les Houches Accord - MSSM Spectrum + Decays  |
#              |              based on the decay programs           |
#              |                                                    |
#              |                     SDECAY 1.5                     |
#              |                                                    |
#              |  Authors: M.Muhlleitner, A.Djouadi and Y.Mambrini  |
#              |  Ref.:    Comput.Phys.Commun.168(2005)46           |
#              |           [hep-ph/0311167]                         |
#              |                                                    |
#              |                     HDECAY 3.4                     |
#              |                                                    |
#              |  By: A.Djouadi,J.Kalinowski,M.Muhlleitner,M.Spira  |
#              |  Ref.:    Comput.Phys.Commun.108(1998)56           |
#              |           [hep-ph/9704448]                         |
#              |                                                    |
#              |                                                    |
#              |  If not stated otherwise all DRbar couplings and   |
#              |  soft SUSY breaking masses are given at the scale  |
#              |  Q=  0.14468707E+04
#              |                                                    |
#              ------------------------------------------------------
#
#
BLOCK DCINFO  # Decay Program information
     1   SDECAY/HDECAY # decay calculator
     2   1.5  /3.4    # version number
#
BLOCK SPINFO  # Spectrum calculator information
     1    SOFTSUSY    # spectrum calculator                
     2    3.7.3       # version number                     
#
BLOCK MODSEL  # Model selection
     1     0   #  nonUniversal                                     
#
BLOCK SMINPUTS  # Standard Model inputs
         1     1.27934000E+02   # alpha_em^-1(M_Z)^MSbar
         2     1.16639000E-05   # G_F [GeV^-2]
         3     1.17200000E-01   # alpha_S(M_Z)^MSbar
         4     9.11870000E+01   # M_Z pole mass
         5     4.19000000E+00   # mb(mb)^MSbar
         6     1.72500000E+02   # mt pole mass
         7     1.77690000E+00   # mtau pole mass
#
BLOCK MINPAR  # Input parameters - minimal models
         3     2.00000000E+01   # tanb                
#
BLOCK EXTPAR  # Input parameters - non-minimal models
         0    -1.00000000E+00   # Set                 
         1     1.49900000E+02   # M_1(MX)             
         2     2.99900000E+02   # M_2(MX)             
         3     2.20000000E+03   # M_3(MX)             
        11     2.94338000E+03   # At(MX)              
        12     0.00000000E+00   # Ab(MX)              
        13     0.00000000E+00   # Atau(MX)            
        23    -3.00000000E+03   # mu(MX)              
        25     2.00000000E+01   # tan                 
        26     3.00000000E+03   # mA(pole)            
        31     3.00000000E+03   # meL(MX)             
        32     3.00000000E+03   # mmuL(MX)            
        33     3.00000000E+03   # mtauL(MX)           
        34     3.00000000E+03   # meR(MX)             
        35     3.00000000E+03   # mmuR(MX)            
        36     3.00000000E+03   # mtauR(MX)           
        41     3.00000000E+03   # mqL1(MX)            
        42     3.00000000E+03   # mqL2(MX)            
        43     6.99900000E+02   # mqL3(MX)            
        44     3.00000000E+03   # muR(MX)             
        45     3.00000000E+03   # mcR(MX)             
        46     3.00000000E+03   # mtR(MX)             
        47     3.00000000E+03   # mdR(MX)             
        48     3.00000000E+03   # msR(MX)             
        49     3.00000000E+03   # mbR(MX)             
#
BLOCK MASS  # Mass Spectrum
# PDG code           mass       particle
        24     8.03974124E+01   # W+
        25     1.25505876E+02   # h
        35     3.00010518E+03   # H
        36     2.99999991E+03   # A
        37     3.00109694E+03   # H+
         5     4.81337004E+00   # b-quark pole mass calculated from mb(mb)_Msbar
   1000001     3.03328739E+03   # ~d_L
   2000001     3.02798508E+03   # ~d_R
   1000002     3.03237291E+03   # ~u_L
   2000002     3.03012160E+03   # ~u_R
   1000003     3.03328739E+03   # ~s_L
   2000003     3.02798508E+03   # ~s_R
   1000004     3.03237291E+03   # ~c_L
   2000004     3.03012160E+03   # ~c_R
   1000005     7.91225633E+02   # ~b_1
   2000005     3.02706653E+03   # ~b_2
   1000006     7.88645259E+02   # ~t_1
   2000006     3.02233034E+03   # ~t_2
   1000011     3.00682936E+03   # ~e_L
   2000011     3.00100697E+03   # ~e_R
   1000012     3.00543572E+03   # ~nu_eL
   1000013     3.00682936E+03   # ~mu_L
   2000013     3.00100697E+03   # ~mu_R
   1000014     3.00543572E+03   # ~nu_muL
   1000015     2.98614562E+03   # ~tau_1
   2000015     3.02201611E+03   # ~tau_2
   1000016     3.00556719E+03   # ~nu_tauL
   1000021     2.34108029E+03   # ~g
   1000022     1.51404161E+02   # ~chi_10
   1000023     3.22442003E+02   # ~chi_20
   1000025    -3.00046911E+03   # ~chi_30
   1000035     3.00047128E+03   # ~chi_40
   1000024     3.22603853E+02   # ~chi_1+
   1000037     3.00140473E+03   # ~chi_2+
#
BLOCK NMIX  # Neutralino Mixing Matrix
  1  1     9.99891862E-01   # N_11
  1  2     3.81869082E-04   # N_12
  1  3    -1.47009704E-02   # N_13
  1  4     3.31790369E-07   # N_14
  2  1     1.66931433E-06   # N_21
  2  2     9.99658988E-01   # N_22
  2  3     2.60804843E-02   # N_23
  2  4     1.30969732E-03   # N_24
  3  1     1.03983993E-02   # N_31
  3  2    -1.93654619E-02   # N_32
  3  3     7.06763842E-01   # N_33
  3  4     7.07108000E-01   # N_34
  4  1    -1.03989252E-02   # N_41
  4  2     1.75139953E-02   # N_42
  4  3    -7.06815790E-01   # N_43
  4  4     7.07104349E-01   # N_44
#
BLOCK UMIX  # Chargino Mixing Matrix U
  1  1     9.99320042E-01   # U_11
  1  2     3.68707782E-02   # U_12
  2  1    -3.68707782E-02   # U_21
  2  2     9.99320042E-01   # U_22
#
BLOCK VMIX  # Chargino Mixing Matrix V
  1  1     9.99998288E-01   # V_11
  1  2    -1.85030880E-03   # V_12
  2  1    -1.85030880E-03   # V_21
  2  2    -9.99998288E-01   # V_22
#
BLOCK STOPMIX  # Stop Mixing Matrix
  1  1     9.98579619E-01   # cos(theta_t)
  1  2    -5.32798697E-02   # sin(theta_t)
  2  1     5.32798697E-02   # -sin(theta_t)
  2  2     9.98579619E-01   # cos(theta_t)
#
BLOCK SBOTMIX  # Sbottom Mixing Matrix
  1  1     9.99715575E-01   # cos(theta_b)
  1  2    -2.38488805E-02   # sin(theta_b)
  2  1     2.38488805E-02   # -sin(theta_b)
  2  2     9.99715575E-01   # cos(theta_b)
#
BLOCK STAUMIX  # Stau Mixing Matrix
  1  1    -7.06921716E-01   # cos(theta_tau)
  1  2     7.07291798E-01   # sin(theta_tau)
  2  1    -7.07291798E-01   # -sin(theta_tau)
  2  2    -7.06921716E-01   # cos(theta_tau)
#
BLOCK ALPHA  # Higgs mixing
          -5.00145011E-02   # Mixing angle in the neutral Higgs boson sector
#
BLOCK HMIX Q=  1.44687070E+03  # DRbar Higgs Parameters
         1    -3.00000000E+03   # mu(Q)MSSM           
         2     2.00000000E+01   # tan                 
         3     2.44137660E+02   # higgs               
         4     1.07317923E+07   # mA^2(Q)MSSM         
#
BLOCK GAUGE Q=  1.44687070E+03  # The gauge couplings
     1     3.62030255E-01   # gprime(Q) DRbar
     2     6.38759205E-01   # g(Q) DRbar
     3     1.02715597E+00   # g3(Q) DRbar
#
BLOCK AU Q=  1.44687070E+03  # The trilinear couplings
  1  1     1.98505476E-06   # A_u(Q) DRbar
  2  2     1.98508538E-06   # A_c(Q) DRbar
  3  3     2.94338000E+03   # A_t(Q) DRbar
#
BLOCK AD Q=  1.44687070E+03  # The trilinear couplings
  1  1     6.97356118E-07   # A_d(Q) DRbar
  2  2     6.97440700E-07   # A_s(Q) DRbar
  3  3     1.45134574E-06   # A_b(Q) DRbar
#
BLOCK AE Q=  1.44687070E+03  # The trilinear couplings
  1  1     3.22830213E-07   # A_e(Q) DRbar
  2  2     3.22846333E-07   # A_mu(Q) DRbar
  3  3     3.27427287E-07   # A_tau(Q) DRbar
#
BLOCK Yu Q=  1.44687070E+03  # The Yukawa couplings
  1  1     0.00000000E+00   # y_u(Q) DRbar
  2  2     0.00000000E+00   # y_c(Q) DRbar
  3  3     8.53917846E-01   # y_t(Q) DRbar
#
BLOCK Yd Q=  1.44687070E+03  # The Yukawa couplings
  1  1     0.00000000E+00   # y_d(Q) DRbar
  2  2     0.00000000E+00   # y_s(Q) DRbar
  3  3     3.92589912E-01   # y_b(Q) DRbar
#
BLOCK Ye Q=  1.44687070E+03  # The Yukawa couplings
  1  1     0.00000000E+00   # y_e(Q) DRbar
  2  2     0.00000000E+00   # y_mu(Q) DRbar
  3  3     2.02854458E-01   # y_tau(Q) DRbar
#
BLOCK MSOFT Q=  1.44687070E+03  # The soft SUSY breaking masses at the scale Q
         1     1.49900000E+02   # M_1(Q)              
         2     2.99900000E+02   # M_2(Q)              
         3     2.20000000E+03   # M_3(Q)              
        21    -4.40496662E+04   # M^2_Hd              
        22    -9.08178358E+06   # M^2_Hu              
        31     3.00000000E+03   # M_eL                
        32     3.00000000E+03   # M_muL               
        33     3.00000000E+03   # M_tauL              
        34     3.00000000E+03   # M_eR                
        35     3.00000000E+03   # M_muR               
        36     3.00000000E+03   # M_tauR              
        41     3.00000000E+03   # M_q1L               
        42     3.00000000E+03   # M_q2L               
        43     6.99899993E+02   # M_q3L               
        44     3.00000000E+03   # M_uR                
        45     3.00000000E+03   # M_cR                
        46     3.00000000E+03   # M_tR                
        47     3.00000000E+03   # M_dR                
        48     3.00000000E+03   # M_sR                
        49     3.00000000E+03   # M_bR                
#
#
#
#                             =================
#                             |The decay table|
#                             =================
#
# - The QCD corrections to the decays gluino -> squark  + quark
#                                     squark -> gaugino + quark_prime
#                                     squark -> squark_prime + Higgs
#                                     squark -> gluino  + quark
#   are included.
#
# - The multi-body decays for the inos, stops and sbottoms are included.
#
# - The loop induced decays for the gluino, neutralinos and stops
#   are included.
#
# - The SUSY decays of the top quark are included.
#
#
#         PDG            Width
DECAY         6     1.41640658E+00   # top decays
#          BR         NDA      ID1       ID2
     1.00000000E+00    2           5        24   # BR(t ->  b    W+)
#
#         PDG            Width
DECAY   1000021     7.42668660E+01   # gluino decays
#          BR         NDA      ID1       ID2
     2.48013268E-01    2     1000005        -5   # BR(~g -> ~b_1  bb)
     2.48013268E-01    2    -1000005         5   # BR(~g -> ~b_1* b )
     2.51986732E-01    2     1000006        -6   # BR(~g -> ~t_1  tb)
     2.51986732E-01    2    -1000006         6   # BR(~g -> ~t_1* t )
#
#         PDG            Width
DECAY   1000006     6.70018527E+00   # stop1 decays
#          BR         NDA      ID1       ID2
     1.50233225E-02    2     1000022         6   # BR(~t_1 -> ~chi_10 t )
     2.99917468E-01    2     1000023         6   # BR(~t_1 -> ~chi_20 t )
     6.85059210E-01    2     1000024         5   # BR(~t_1 -> ~chi_1+ b )
#
#         PDG            Width
DECAY   2000006     1.17826300E+02   # stop2 decays
#          BR         NDA      ID1       ID2
     5.58994319E-02    2     1000022         6   # BR(~t_2 -> ~chi_10 t )
     2.70234270E-04    2     1000023         6   # BR(~t_2 -> ~chi_20 t )
     0.00000000E+00    2     1000025         6   # BR(~t_2 -> ~chi_30 t )
     5.43583194E-04    2     1000024         5   # BR(~t_2 -> ~chi_1+ b )
     7.59356521E-05    2     1000037         5   # BR(~t_2 -> ~chi_2+ b )
     2.92054174E-01    2     1000021         6   # BR(~t_2 -> ~g      t )
     1.69884633E-01    2     1000006        25   # BR(~t_2 -> ~t_1    h )
     1.62280490E-01    2     1000006        23   # BR(~t_2 -> ~t_1    Z )
     3.18991518E-01    2     1000005        24   # BR(~t_2 -> ~b_1    W+)
#
#         PDG            Width
DECAY   1000005     6.48287706E+00   # sbottom1 decays
#          BR         NDA      ID1       ID2
     1.71782307E-02    2     1000022         5   # BR(~b_1 -> ~chi_10 b )
     3.57121901E-01    2     1000023         5   # BR(~b_1 -> ~chi_20 b )
     6.25699869E-01    2    -1000024         6   # BR(~b_1 -> ~chi_1- t )
#
#         PDG            Width
DECAY   2000005     5.53131494E+01   # sbottom2 decays
#          BR         NDA      ID1       ID2
     2.99779083E-02    2     1000022         5   # BR(~b_2 -> ~chi_10 b )
     4.92136513E-08    2     1000023         5   # BR(~b_2 -> ~chi_20 b )
     2.75487377E-05    2     1000025         5   # BR(~b_2 -> ~chi_30 b )
     2.70111812E-05    2     1000035         5   # BR(~b_2 -> ~chi_40 b )
    -2.41643588E-08    2    -1000024         6   # BR(~b_2 -> ~chi_1- t )
     6.32726872E-01    2     1000021         5   # BR(~b_2 -> ~g      b )
     7.49036684E-02    2     1000005        25   # BR(~b_2 -> ~b_1    h )
     1.06766919E-01    2     1000005        23   # BR(~b_2 -> ~b_1    Z )
     1.55570047E-01    2     1000006       -24   # BR(~b_2 -> ~t_1    W-)
#
#         PDG            Width
DECAY   1000002     7.02131340E+01   # sup_L decays
#          BR         NDA      ID1       ID2
     5.94828507E-03    2     1000022         2   # BR(~u_L -> ~chi_10 u)
     1.63202243E-01    2     1000023         2   # BR(~u_L -> ~chi_20 u)
     2.57772908E-08    2     1000025         2   # BR(~u_L -> ~chi_30 u)
     2.05807098E-08    2     1000035         2   # BR(~u_L -> ~chi_40 u)
     3.26618776E-01    2     1000024         1   # BR(~u_L -> ~chi_1+ d)
     5.50143498E-10    2     1000037         1   # BR(~u_L -> ~chi_2+ d)
     5.04230648E-01    2     1000021         2   # BR(~u_L -> ~g      u)
#
#         PDG            Width
DECAY   2000002     4.18726193E+01   # sup_R decays
#          BR         NDA      ID1       ID2
     1.58822165E-01    2     1000022         2   # BR(~u_R -> ~chi_10 u)
     4.35445308E-13    2     1000023         2   # BR(~u_R -> ~chi_20 u)
     7.65091269E-09    2     1000025         2   # BR(~u_R -> ~chi_30 u)
     7.65059759E-09    2     1000035         2   # BR(~u_R -> ~chi_40 u)
     8.41177819E-01    2     1000021         2   # BR(~u_R -> ~g      u)
#
#         PDG            Width
DECAY   1000001     7.02636225E+01   # sdown_L decays
#          BR         NDA      ID1       ID2
     5.89798684E-03    2     1000022         1   # BR(~d_L -> ~chi_10 d)
     1.63137497E-01    2     1000023         1   # BR(~d_L -> ~chi_20 d)
     4.08783995E-08    2     1000025         1   # BR(~d_L -> ~chi_30 d)
     3.40857738E-08    2     1000035         1   # BR(~d_L -> ~chi_40 d)
     3.26046884E-01    2    -1000024         2   # BR(~d_L -> ~chi_1- u)
     2.30934622E-07    2    -1000037         2   # BR(~d_L -> ~chi_2- u)
     5.04917325E-01    2     1000021         1   # BR(~d_L -> ~g      d)
#
#         PDG            Width
DECAY   2000001     3.67118345E+01   # sdown_R decays
#          BR         NDA      ID1       ID2
     4.52540268E-02    2     1000022         1   # BR(~d_R -> ~chi_10 d)
     1.24070702E-13    2     1000023         1   # BR(~d_R -> ~chi_20 d)
     1.88753649E-09    2     1000025         1   # BR(~d_R -> ~chi_30 d)
     1.88743778E-09    2     1000035         1   # BR(~d_R -> ~chi_40 d)
     9.54745969E-01    2     1000021         1   # BR(~d_R -> ~g      d)
#
#         PDG            Width
DECAY   1000004     7.02131340E+01   # scharm_L decays
#          BR         NDA      ID1       ID2
     5.94828507E-03    2     1000022         4   # BR(~c_L -> ~chi_10 c)
     1.63202243E-01    2     1000023         4   # BR(~c_L -> ~chi_20 c)
     2.57772908E-08    2     1000025         4   # BR(~c_L -> ~chi_30 c)
     2.05807098E-08    2     1000035         4   # BR(~c_L -> ~chi_40 c)
     3.26618776E-01    2     1000024         3   # BR(~c_L -> ~chi_1+ s)
     5.50143498E-10    2     1000037         3   # BR(~c_L -> ~chi_2+ s)
     5.04230648E-01    2     1000021         4   # BR(~c_L -> ~g      c)
#
#         PDG            Width
DECAY   2000004     4.18726193E+01   # scharm_R decays
#          BR         NDA      ID1       ID2
     1.58822165E-01    2     1000022         4   # BR(~c_R -> ~chi_10 c)
     4.35445308E-13    2     1000023         4   # BR(~c_R -> ~chi_20 c)
     7.65091269E-09    2     1000025         4   # BR(~c_R -> ~chi_30 c)
     7.65059759E-09    2     1000035         4   # BR(~c_R -> ~chi_40 c)
     8.41177819E-01    2     1000021         4   # BR(~c_R -> ~g      c)
#
#         PDG            Width
DECAY   1000003     7.02636225E+01   # sstrange_L decays
#          BR         NDA      ID1       ID2
     5.89798684E-03    2     1000022         3   # BR(~s_L -> ~chi_10 s)
     1.63137497E-01    2     1000023         3   # BR(~s_L -> ~chi_20 s)
     4.08783995E-08    2     1000025         3   # BR(~s_L -> ~chi_30 s)
     3.40857738E-08    2     1000035         3   # BR(~s_L -> ~chi_40 s)
     3.26046884E-01    2    -1000024         4   # BR(~s_L -> ~chi_1- c)
     2.30934622E-07    2    -1000037         4   # BR(~s_L -> ~chi_2- c)
     5.04917325E-01    2     1000021         3   # BR(~s_L -> ~g      s)
#
#         PDG            Width
DECAY   2000003     3.67118345E+01   # sstrange_R decays
#          BR         NDA      ID1       ID2
     4.52540268E-02    2     1000022         3   # BR(~s_R -> ~chi_10 s)
     1.24070702E-13    2     1000023         3   # BR(~s_R -> ~chi_20 s)
     1.88753649E-09    2     1000025         3   # BR(~s_R -> ~chi_30 s)
     1.88743778E-09    2     1000035         3   # BR(~s_R -> ~chi_40 s)
     9.54745969E-01    2     1000021         3   # BR(~s_R -> ~g      s)
#
#         PDG            Width
DECAY   1000011     3.96368180E+01   # selectron_L decays
#          BR         NDA      ID1       ID2
     9.85112798E-02    2     1000022        11   # BR(~e_L -> ~chi_10 e-)
     3.00637184E-01    2     1000023        11   # BR(~e_L -> ~chi_20 e-)
     9.97969029E-10    2     1000025        11   # BR(~e_L -> ~chi_30 e-)
     7.41969687E-10    2     1000035        11   # BR(~e_L -> ~chi_40 e-)
     6.00851523E-01    2    -1000024        12   # BR(~e_L -> ~chi_1- nu_e)
     1.08787225E-08    2    -1000037        12   # BR(~e_L -> ~chi_2- nu_e)
#
#         PDG            Width
DECAY   2000011     1.55671566E+01   # selectron_R decays
#          BR         NDA      ID1       ID2
     1.00000000E+00    2     1000022        11   # BR(~e_R -> ~chi_10 e-)
     2.73714755E-12    2     1000023        11   # BR(~e_R -> ~chi_20 e-)
     1.39645583E-11    2     1000025        11   # BR(~e_R -> ~chi_30 e-)
     1.38535165E-11    2     1000035        11   # BR(~e_R -> ~chi_40 e-)
#
#         PDG            Width
DECAY   1000013     3.96368180E+01   # smuon_L decays
#          BR         NDA      ID1       ID2
     9.85112798E-02    2     1000022        13   # BR(~mu_L -> ~chi_10 mu-)
     3.00637184E-01    2     1000023        13   # BR(~mu_L -> ~chi_20 mu-)
     9.97969029E-10    2     1000025        13   # BR(~mu_L -> ~chi_30 mu-)
     7.41969687E-10    2     1000035        13   # BR(~mu_L -> ~chi_40 mu-)
     6.00851523E-01    2    -1000024        14   # BR(~mu_L -> ~chi_1- nu_mu)
     1.08787225E-08    2    -1000037        14   # BR(~mu_L -> ~chi_2- nu_mu)
#
#         PDG            Width
DECAY   2000013     1.55671566E+01   # smuon_R decays
#          BR         NDA      ID1       ID2
     1.00000000E+00    2     1000022        13   # BR(~mu_R -> ~chi_10 mu-)
     2.73714755E-12    2     1000023        13   # BR(~mu_R -> ~chi_20 mu-)
     1.39645583E-11    2     1000025        13   # BR(~mu_R -> ~chi_30 mu-)
     1.38535165E-11    2     1000035        13   # BR(~mu_R -> ~chi_40 mu-)
#
#         PDG            Width
DECAY   1000015     2.78786604E+01   # stau_1 decays
#          BR         NDA      ID1       ID2
     3.49069287E-01    2     1000022        15   # BR(~tau_1 -> ~chi_10  tau-)
     2.17098461E-01    2     1000023        15   # BR(~tau_1 -> ~chi_20  tau-)
     4.33832252E-01    2    -1000024        16   # BR(~tau_1 -> ~chi_1-  nu_tau)
#
#         PDG            Width
DECAY   2000015     2.73063322E+01   # stau_2 decays
#          BR         NDA      ID1       ID2
     3.57177402E-01    2     1000022        15   # BR(~tau_2 -> ~chi_10  tau-)
     2.14385063E-01    2     1000023        15   # BR(~tau_2 -> ~chi_20  tau-)
     1.06540711E-05    2     1000025        15   # BR(~tau_2 -> ~chi_30  tau-)
     8.98479120E-06    2     1000035        15   # BR(~tau_2 -> ~chi_40  tau-)
     4.28407485E-01    2    -1000024        16   # BR(~tau_2 -> ~chi_1-  nu_tau)
     1.04115057E-05    2    -1000037        16   # BR(~tau_2 -> ~chi_2-  nu_tau)
#
#         PDG            Width
DECAY   1000012     3.96394294E+01   # snu_eL decays
#          BR         NDA      ID1       ID2
     9.81936472E-02    2     1000022        12   # BR(~nu_eL -> ~chi_10 nu_e)
     3.00470422E-01    2     1000023        12   # BR(~nu_eL -> ~chi_20 nu_e)
     2.14108146E-09    2     1000025        12   # BR(~nu_eL -> ~chi_30 nu_e)
     1.83714700E-09    2     1000035        12   # BR(~nu_eL -> ~chi_40 nu_e)
     6.01335927E-01    2     1000024        11   # BR(~nu_eL -> ~chi_1+ e-)
     1.51411487E-11    2     1000037        11   # BR(~nu_eL -> ~chi_2+ e-)
#
#         PDG            Width
DECAY   1000014     3.96394294E+01   # snu_muL decays
#          BR         NDA      ID1       ID2
     9.81936472E-02    2     1000022        14   # BR(~nu_muL -> ~chi_10 nu_mu)
     3.00470422E-01    2     1000023        14   # BR(~nu_muL -> ~chi_20 nu_mu)
     2.14108146E-09    2     1000025        14   # BR(~nu_muL -> ~chi_30 nu_mu)
     1.83714700E-09    2     1000035        14   # BR(~nu_muL -> ~chi_40 nu_mu)
     6.01335927E-01    2     1000024        13   # BR(~nu_muL -> ~chi_1+ mu-)
     1.51411487E-11    2     1000037        13   # BR(~nu_muL -> ~chi_2+ mu-)
#
#         PDG            Width
DECAY   1000016     3.96445779E+01   # snu_tauL decays
#          BR         NDA      ID1       ID2
     9.81852336E-02    2     1000022        16   # BR(~nu_tauL -> ~chi_10 nu_tau)
     3.00445155E-01    2     1000023        16   # BR(~nu_tauL -> ~chi_20 nu_tau)
     2.25544366E-09    2     1000025        16   # BR(~nu_tauL -> ~chi_30 nu_tau)
     1.93531869E-09    2     1000035        16   # BR(~nu_tauL -> ~chi_40 nu_tau)
     6.01369180E-01    2     1000024        15   # BR(~nu_tauL -> ~chi_1+ tau-)
     4.27233787E-07    2     1000037        15   # BR(~nu_tauL -> ~chi_2+ tau-)
#
#         PDG            Width
DECAY   1000024     1.41323641E-06   # chargino1+ decays
#          BR         NDA      ID1       ID2
     1.00000000E+00    2     1000022        24   # BR(~chi_1+ -> ~chi_10  W+)
#
#         PDG            Width
DECAY   1000037     9.37669166E+01   # chargino2+ decays
#          BR         NDA      ID1       ID2
     1.40641013E-01    2     1000006        -5   # BR(~chi_2+ -> ~t_1     bb)
     6.56026537E-01    2    -1000005         6   # BR(~chi_2+ -> ~b_1*    t )
     5.26013401E-07    2    -1000015        16   # BR(~chi_2+ -> ~tau_1+  nu_tau)
     6.11014155E-02    2     1000024        23   # BR(~chi_2+ -> ~chi_1+  Z )
     1.94420385E-02    2     1000022        24   # BR(~chi_2+ -> ~chi_10  W+)
     5.95339084E-02    2     1000023        24   # BR(~chi_2+ -> ~chi_20  W+)
     6.32545613E-02    2     1000024        25   # BR(~chi_2+ -> ~chi_1+  h )
#
#         PDG            Width
DECAY   1000022     0.00000000E+00   # neutralino1 decays
#
#         PDG            Width
DECAY   1000023     1.30401201E-06   # neutralino2 decays
#          BR         NDA      ID1       ID2
     7.23789969E-01    2     1000022        23   # BR(~chi_20 -> ~chi_10   Z )
     2.76210031E-01    2     1000022        25   # BR(~chi_20 -> ~chi_10   h )
#
#         PDG            Width
DECAY   1000025     9.33822211E+01   # neutralino3 decays
#          BR         NDA      ID1       ID2
     9.99023449E-03    2     1000022        23   # BR(~chi_30 -> ~chi_10   Z )
     2.75909390E-02    2     1000023        23   # BR(~chi_30 -> ~chi_20   Z )
     5.97987975E-02    2     1000024       -24   # BR(~chi_30 -> ~chi_1+   W-)
     5.97987975E-02    2    -1000024        24   # BR(~chi_30 -> ~chi_1-   W+)
     8.43450942E-03    2     1000022        25   # BR(~chi_30 -> ~chi_10   h )
     2.30006245E-02    2     1000023        25   # BR(~chi_30 -> ~chi_20   h )
     3.35977211E-01    2     1000006        -6   # BR(~chi_30 -> ~t_1      tb)
     3.35977211E-01    2    -1000006         6   # BR(~chi_30 -> ~t_1*     t )
     6.97152249E-02    2     1000005        -5   # BR(~chi_30 -> ~b_1      bb)
     6.97152249E-02    2    -1000005         5   # BR(~chi_30 -> ~b_1*     b )
     6.13101468E-07    2     1000015       -15   # BR(~chi_30 -> ~tau_1-   tau+)
     6.13101468E-07    2    -1000015        15   # BR(~chi_30 -> ~tau_1+   tau-)
#
#         PDG            Width
DECAY   1000035     9.46298050E+01   # neutralino4 decays
#          BR         NDA      ID1       ID2
     9.86464360E-03    2     1000022        23   # BR(~chi_40 -> ~chi_10   Z )
     3.33384952E-02    2     1000023        23   # BR(~chi_40 -> ~chi_20   Z )
     5.90031278E-02    2     1000024       -24   # BR(~chi_40 -> ~chi_1+   W-)
     5.90031278E-02    2    -1000024        24   # BR(~chi_40 -> ~chi_1-   W+)
     1.24477604E-02    2     1000022        25   # BR(~chi_40 -> ~chi_10   h )
     4.27272071E-02    2     1000023        25   # BR(~chi_40 -> ~chi_20   h )
     3.22997304E-01    2     1000006        -6   # BR(~chi_40 -> ~t_1      tb)
     3.22997304E-01    2    -1000006         6   # BR(~chi_40 -> ~t_1*     t )
     6.88100412E-02    2     1000005        -5   # BR(~chi_40 -> ~b_1      bb)
     6.88100412E-02    2    -1000005         5   # BR(~chi_40 -> ~b_1*     b )
     4.74284360E-07    2     1000015       -15   # BR(~chi_40 -> ~tau_1-   tau+)
     4.74284360E-07    2    -1000015        15   # BR(~chi_40 -> ~tau_1+   tau-)
#
#         PDG            Width
DECAY        25     3.69131577E-03   # h decays
#          BR         NDA      ID1       ID2
     5.56175395E-01    2           5        -5   # BR(h -> b       bb     )
     7.05308859E-02    2         -15        15   # BR(h -> tau+    tau-   )
     2.49678998E-04    2         -13        13   # BR(h -> mu+     mu-    )
     5.29530067E-04    2           3        -3   # BR(h -> s       sb     )
     2.30093166E-02    2           4        -4   # BR(h -> c       cb     )
     7.52923759E-02    2          21        21   # BR(h -> g       g      )
     2.59235416E-03    2          22        22   # BR(h -> gam     gam    )
     1.77052841E-03    2          22        23   # BR(h -> Z       gam    )
     2.39653501E-01    2          24       -24   # BR(h -> W+      W-     )
     3.01964343E-02    2          23        23   # BR(h -> Z       Z      )
#
#         PDG            Width
DECAY        35     3.80117675E+01   # H decays
#          BR         NDA      ID1       ID2
     9.02394421E-01    2           5        -5   # BR(H -> b       bb     )
     6.54214185E-02    2         -15        15   # BR(H -> tau+    tau-   )
     2.31314502E-04    2         -13        13   # BR(H -> mu+     mu-    )
     2.84054656E-04    2           3        -3   # BR(H -> s       sb     )
     7.96193459E-08    2           4        -4   # BR(H -> c       cb     )
     7.94254098E-03    2           6        -6   # BR(H -> t       tb     )
     7.50019904E-06    2          21        21   # BR(H -> g       g      )
     4.76066951E-08    2          22        22   # BR(H -> gam     gam    )
     3.25133908E-09    2          23        22   # BR(H -> Z       gam    )
     7.30664458E-07    2          24       -24   # BR(H -> W+      W-     )
     3.64881642E-07    2          23        23   # BR(H -> Z       Z      )
     5.31438391E-06    2          25        25   # BR(H -> h       h      )
     2.47796049E-24    2          36        36   # BR(H -> A       A      )
     3.55914650E-19    2          23        36   # BR(H -> Z       A      )
     8.50073050E-04    2     1000024  -1000024   # BR(H -> ~chi_1+ ~chi_1-)
     4.06508573E-05    2     1000022   1000022   # BR(H -> ~chi_10 ~chi_10)
     4.25071552E-04    2     1000023   1000023   # BR(H -> ~chi_20 ~chi_20)
     2.64025396E-04    2     1000022   1000023   # BR(H -> ~chi_10 ~chi_20)
     2.21270109E-02    2     1000006  -1000006   # BR(H -> ~t_1    ~t_1*  )
     5.37808545E-06    2     1000005  -1000005   # BR(H -> ~b_1    ~b_1*  )
#
#         PDG            Width
DECAY        36     3.71753052E+01   # A decays
#          BR         NDA      ID1       ID2
     9.22713875E-01    2           5        -5   # BR(A -> b       bb     )
     6.68915540E-02    2         -15        15   # BR(A -> tau+    tau-   )
     2.36512220E-04    2         -13        13   # BR(A -> mu+     mu-    )
     2.90486118E-04    2           3        -3   # BR(A -> s       sb     )
     8.19710651E-08    2           4        -4   # BR(A -> c       cb     )
     8.17263940E-03    2           6        -6   # BR(A -> t       tb     )
     2.40676412E-05    2          21        21   # BR(A -> g       g      )
     6.11153476E-08    2          22        22   # BR(A -> gam     gam    )
     2.36936780E-08    2          23        22   # BR(A -> Z       gam    )
     7.44241991E-07    2          23        25   # BR(A -> Z       h      )
     9.02223191E-04    2     1000024  -1000024   # BR(A -> ~chi_1+ ~chi_1-)
     4.19922600E-05    2     1000022   1000022   # BR(A -> ~chi_10 ~chi_10)
     4.51120692E-04    2     1000023   1000023   # BR(A -> ~chi_20 ~chi_20)
     2.74618232E-04    2     1000022   1000023   # BR(A -> ~chi_10 ~chi_20)
#
#         PDG            Width
DECAY        37     4.05646607E+01   # H+ decays
#          BR         NDA      ID1       ID2
     1.47114811E-03    2           4        -5   # BR(H+ -> c       bb     )
     6.13248880E-02    2         -15        16   # BR(H+ -> tau+    nu_tau )
     2.16829846E-04    2         -13        14   # BR(H+ -> mu+     nu_mu  )
     9.41533634E-06    2           2        -5   # BR(H+ -> u       bb     )
     1.27425324E-05    2           2        -3   # BR(H+ -> u       sb     )
     2.62154866E-04    2           4        -3   # BR(H+ -> c       sb     )
     9.25481939E-01    2           6        -5   # BR(H+ -> t       bb     )
     6.83233599E-07    2          24        25   # BR(H+ -> W+      h      )
     5.15355467E-14    2          24        36   # BR(H+ -> W+      A      )
     4.99609387E-04    2     1000024   1000022   # BR(H+ -> ~chi_1+ ~chi_10)
     5.59334043E-15    2     1000024   1000023   # BR(H+ -> ~chi_1+ ~chi_20)
     1.07205900E-02    2     1000006  -1000005   # BR(H+ -> ~t_1    ~b_1*  )
