#  ISAJET SUSY parameters in SUSY Les Houches Accord 2 format
#  Created by ISALHA 2.0 Last revision: H Baer 27 May 2014
Block SPINFO   # Program information
     1   ISASUGRA/ISASUSY from ISAJET   # Spectrum Calculator
     2   7.87   18-JUL-2017 13:55:55    # Version number
Block MODSEL   # Model selection
     1    13   # Non-universal supergravity model                  
Block SMINPUTS   # Standard Model inputs
     1     1.28000000E+02   # alpha_em^(-1)
     2     1.16570000E-05   # G_Fermi
     3     1.19999997E-01   # alpha_s(M_Z)
     4     9.11699982E+01   # m_{Z}(pole)
     5     4.19999981E+00   # m_{b}(m_{b})
     6     1.72500000E+02   # m_{top}(pole)
     7     1.77699995E+00   # m_{tau}(pole)
Block MINPAR   # SUSY breaking input parameters
     1     5.00000000E+03   # m_0
     2     8.00000000E+02   # m_{1/2}
     3     1.50000000E+01   # tan(beta)
     4     1.00000000E+00   # sign(mu)
     5    -8.00000000E+03   # A_0
Block EXTPAR   # Non-universal SUSY breaking parameters
     0     1.78009977E+16   # Input scale
    21     2.91325350E+06   # Down type Higgs mass squared
    22     3.91325840E+07   #  Up  type Higgs mass squared
Block MASS   # Scalar and gaugino mass spectrum
#  PDG code   mass                 particle
         6     1.72500000E+02   #  top            
        24     8.04229965E+01   #  W^+
        25     1.24595093E+02   #  h^0            
        35     1.00666730E+03   #  H^0            
        36     1.00000000E+03   #  A^0            
        37     1.00322870E+03   #  H^+            
   1000001     5.17194922E+03   #  dnl            
   1000002     5.17132227E+03   #  upl            
   1000003     5.17194922E+03   #  stl            
   1000004     5.17132227E+03   #  chl            
   1000005     3.65657446E+03   #  b1             
   1000006     1.58996338E+03   #  t1             
   1000011     5.10888232E+03   #  el-            
   1000012     5.11357861E+03   #  nuel           
   1000013     5.10888232E+03   #  mul-           
   1000014     5.11357861E+03   #  numl           
   1000015     4.65812744E+03   #  tau1           
   1000016     5.03847949E+03   #  nutl           
   1000021     2.00971375E+03   #  glss           
   1000022     1.03493599E+02   #  z1ss           
   1000023    -1.18078362E+02   #  z2ss           
   1000024     1.14567940E+02   #  w1ss           
   1000025     3.61866760E+02   #  z3ss           
   1000035     7.01853271E+02   #  z4ss           
   1000037     6.90627991E+02   #  w2ss           
   1000039     1.00000002E+20   #  gvss
   2000001     5.14096094E+03   #  dnr            
   2000002     5.31522754E+03   #  upr            
   2000003     5.14096094E+03   #  str            
   2000004     5.31522852E+03   #  chr            
   2000005     4.97334521E+03   #  b2             
   2000006     3.63166943E+03   #  t2             
   2000011     4.82036963E+03   #  er-            
   2000013     4.82036963E+03   #  mur-           
   2000015     5.03233984E+03   #  tau2           
Block ALPHA   # Effective Higgs mixing parameter
         -6.81271031E-02   # alpha
Block STOPMIX   # stop mixing matrix
  1  1     5.41324094E-02   # O_{11}
  1  2     9.98533785E-01   # O_{12}
  2  1    -9.98533785E-01   # O_{21}
  2  2     5.41324094E-02   # O_{22}
Block SBOTMIX   # sbottom mixing matrix
  1  1     9.99994814E-01   # O_{11}
  1  2     3.22039868E-03   # O_{12}
  2  1    -3.22039868E-03   # O_{21}
  2  2     9.99994814E-01   # O_{22}
Block STAUMIX   # stau mixing matrix
  1  1     7.47514376E-03   # O_{11}
  1  2     9.99972045E-01   # O_{12}
  2  1    -9.99972045E-01   # O_{21}
  2  2     7.47514376E-03   # O_{22}
Block NMIX   # neutralino mixing matrix
  1  1     1.20113365E-01   #
  1  2    -9.94752198E-02   #
  1  3     7.24372685E-01   #
  1  4    -6.71536863E-01   #
  2  1    -5.99759519E-02   #
  2  2     6.22444153E-02   #
  2  3     6.87193811E-01   #
  2  4     7.21313655E-01   #
  3  1     9.90795135E-01   #
  3  2     3.31906304E-02   #
  3  3    -4.56743091E-02   #
  3  4     1.23032466E-01   #
  4  1     1.73330195E-02   #
  4  2    -9.92536664E-01   #
  4  3    -3.10307629E-02   #
  4  4     1.16653338E-01   #
Block UMIX   # chargino U mixing matrix
  1  1    -4.06557620E-02   # U_{11}
  1  2     9.99173224E-01   # U_{12}
  2  1    -9.99173224E-01   # U_{21}
  2  2    -4.06557620E-02   # U_{22}
Block VMIX   # chargino V mixing matrix
  1  1    -1.62125096E-01   # V_{11}
  1  2     9.86770213E-01   # V_{12}
  2  1    -9.86770213E-01   # V_{21}
  2  2    -1.62125096E-01   # V_{22}
Block GAUGE Q=  2.39960596E+03   #
     1     3.57522696E-01   # g`
     2     6.52386606E-01   # g_2
     3     1.21940184E+00   # g_3
Block YU Q=  2.39960596E+03   #
  3  3     8.27096224E-01   # y_t
Block YD Q=  2.39960596E+03   #
  3  3     1.92717761E-01   # y_b
Block YE Q=  2.39960596E+03   #
  3  3     1.50880337E-01   # y_tau
Block HMIX Q=  2.39960596E+03   # Higgs mixing parameters
     1     1.10000000E+02   # mu(Q)
     2     1.43599091E+01   # tan(beta)(Q)
     3     2.52247894E+02   # Higgs vev at Q
     4     1.00000000E+06   # m_A^2(Q)
Block MSOFT Q=  2.39960596E+03   # DRbar SUSY breaking parameters
     1     3.55254150E+02   # M_1(Q)          
     2     6.50780762E+02   # M_2(Q)          
     3     1.74721484E+03   # M_3(Q)          
    21     9.57500063E+05   # MHd^2(Q)        
    22    -4.45686680E+04   # MHu^2(Q)        
    31     5.09246387E+03   # MeL(Q)          
    32     5.09246387E+03   # MmuL(Q)         
    33     5.01939502E+03   # MtauL(Q)        
    34     4.81677148E+03   # MeR(Q)          
    35     4.81677148E+03   # MmuR(Q)         
    36     4.65543652E+03   # MtauR(Q)        
    41     5.08181055E+03   # MqL1(Q)         
    42     5.08181055E+03   # MqL2(Q)         
    43     3.60276929E+03   # MqL3(Q)         
    44     5.22450146E+03   # MuR(Q)          
    45     5.22450146E+03   # McR(Q)          
    46     1.59824524E+03   # MtR(Q)          
    47     5.05132227E+03   # MdR(Q)          
    48     5.05132227E+03   # MsR(Q)          
    49     4.92033545E+03   # MbR(Q)          
Block AU Q=  2.39960596E+03   #
  1  1    -4.27951709E+03   # A_u
  2  2    -4.27951709E+03   # A_c
  3  3    -4.27951709E+03   # A_t
Block AD Q=  2.39960596E+03   #
  1  1    -8.71160547E+03   # A_d
  2  2    -8.71160547E+03   # A_s
  3  3    -8.71160547E+03   # A_b
Block AE Q=  2.39960596E+03   #
  1  1    -8.10648633E+03   # A_e
  2  2    -8.10648633E+03   # A_mu
  3  3    -8.10648633E+03   # A_tau
#  ISAJET decay tables in SUSY Les Houches accord format
#  Created by ISALHD. Last revision: C. Balazs, 2005 May 25
Block DCINFO                           # Program information
     1   ISASUGRA from ISAJET          # Spectrum Calculator
     2   7.87   18-JUL-2017 13:55:55   # Version number
#         PDG         Width
DECAY         6  1.46776152E+00   # TP    decays
#          BR          NDA       ID1       ID2       ID3       ID4
      3.33333313E-01    3            2        -1         5             # TP     -->  UP     DB     BT          
      3.33333313E-01    3            4        -3         5             # TP     -->  CH     SB     BT          
      1.11111097E-01    3          -11        12         5             # TP     -->  E+     NUE    BT          
      1.11111097E-01    3          -13        14         5             # TP     -->  MU+    NUM    BT          
      1.11111097E-01    3          -15        16         5             # TP     -->  TAU+   NUT    BT          
#         PDG         Width
DECAY   1000021  5.34569502E+00   # GLSS  decays
#          BR          NDA       ID1       ID2       ID3       ID4
      6.68191205E-07    3      1000024         1        -2             # GLSS   -->  W1SS+  DN     UB          
      6.68191205E-07    3     -1000024         2        -1             # GLSS   -->  W1SS-  UP     DB          
      6.68191205E-07    3      1000024         3        -4             # GLSS   -->  W1SS+  ST     CB          
      6.68191205E-07    3     -1000024         4        -3             # GLSS   -->  W1SS-  CH     SB          
      1.64878409E-04    3      1000024         5        -6             # GLSS   -->  W1SS+  BT     TB          
      1.64878409E-04    3     -1000024         6        -5             # GLSS   -->  W1SS-  TP     BB          
      2.80437744E-05    3      1000037         1        -2             # GLSS   -->  W2SS+  DN     UB          
      2.80437744E-05    3     -1000037         2        -1             # GLSS   -->  W2SS-  UP     DB          
      2.80437744E-05    3      1000037         3        -4             # GLSS   -->  W2SS+  ST     CB          
      2.80437744E-05    3     -1000037         4        -3             # GLSS   -->  W2SS-  CH     SB          
      1.35612863E-04    3      1000037         5        -6             # GLSS   -->  W2SS+  BT     TB          
      1.35612863E-04    3     -1000037         6        -5             # GLSS   -->  W2SS-  TP     BB          
      2.80687800E-06    2      1000022        21                       # GLSS   -->  Z1SS   GL                 
      3.23097481E-07    3      1000022         2        -2             # GLSS   -->  Z1SS   UP     UB          
      4.19335436E-07    3      1000022         1        -1             # GLSS   -->  Z1SS   DN     DB          
      4.19335436E-07    3      1000022         3        -3             # GLSS   -->  Z1SS   ST     SB          
      3.23097339E-07    3      1000022         4        -4             # GLSS   -->  Z1SS   CH     CB          
      1.96919627E-05    3      1000022         5        -5             # GLSS   -->  Z1SS   BT     BB          
      1.38388568E-04    3      1000022         6        -6             # GLSS   -->  Z1SS   TP     TB          
      3.19377546E-06    2      1000023        21                       # GLSS   -->  Z2SS   GL                 
      8.85543656E-08    3      1000023         2        -2             # GLSS   -->  Z2SS   UP     UB          
      1.19337770E-07    3      1000023         1        -1             # GLSS   -->  Z2SS   DN     DB          
      1.19337770E-07    3      1000023         3        -3             # GLSS   -->  Z2SS   ST     SB          
      8.85543372E-08    3      1000023         4        -4             # GLSS   -->  Z2SS   CH     CB          
      1.66667178E-05    3      1000023         5        -5             # GLSS   -->  Z2SS   BT     BB          
      1.58745097E-04    3      1000023         6        -6             # GLSS   -->  Z2SS   TP     TB          
      8.43116910E-10    2      1000025        21                       # GLSS   -->  Z3SS   GL                 
      1.20513851E-05    3      1000025         2        -2             # GLSS   -->  Z3SS   UP     UB          
      3.67730308E-06    3      1000025         1        -1             # GLSS   -->  Z3SS   DN     DB          
      3.67730308E-06    3      1000025         3        -3             # GLSS   -->  Z3SS   ST     SB          
      1.20513760E-05    3      1000025         4        -4             # GLSS   -->  Z3SS   CH     CB          
      6.10083134E-06    3      1000025         5        -5             # GLSS   -->  Z3SS   BT     BB          
      7.13026293E-06    3      1000025         6        -6             # GLSS   -->  Z3SS   TP     TB          
      8.00673092E-08    2      1000035        21                       # GLSS   -->  Z4SS   GL                 
      1.35870850E-05    3      1000035         2        -2             # GLSS   -->  Z4SS   UP     UB          
      1.37534334E-05    3      1000035         1        -1             # GLSS   -->  Z4SS   DN     DB          
      1.37534334E-05    3      1000035         3        -3             # GLSS   -->  Z4SS   ST     SB          
      1.35870850E-05    3      1000035         4        -4             # GLSS   -->  Z4SS   CH     CB          
      6.54507603E-05    3      1000035         5        -5             # GLSS   -->  Z4SS   BT     BB          
      6.67459171E-05    3      1000035         6        -6             # GLSS   -->  Z4SS   TP     TB          
      4.99355584E-01    2     -1000006         6                       # GLSS   -->  TB1    TP                 
      4.99355584E-01    2      1000006        -6                       # GLSS   -->  TP1    TB                 
#         PDG         Width
DECAY   1000002  2.59596375E+02   # UPL   decays
#          BR          NDA       ID1       ID2       ID3       ID4
      5.02839976E-04    2      1000022         2                       # UPL    -->  Z1SS   UP                 
      2.20068730E-04    2      1000023         2                       # UPL    -->  Z2SS   UP                 
      3.82790389E-03    2      1000025         2                       # UPL    -->  Z3SS   UP                 
      7.90817440E-02    2      1000035         2                       # UPL    -->  Z4SS   UP                 
      7.54440129E-01    2      1000021         2                       # UPL    -->  GLSS   UP                 
      4.40371409E-03    2      1000024         1                       # UPL    -->  W1SS+  DN                 
      1.57523602E-01    2      1000037         1                       # UPL    -->  W2SS+  DN                 
#         PDG         Width
DECAY   1000001  2.59601196E+02   # DNL   decays
#          BR          NDA       ID1       ID2       ID3       ID4
      1.23659440E-03    2      1000022         1                       # DNL    -->  Z1SS   DN                 
      4.49276471E-04    2      1000023         1                       # DNL    -->  Z2SS   DN                 
      1.82706933E-03    2      1000025         1                       # DNL    -->  Z3SS   DN                 
      8.01092610E-02    2      1000035         1                       # DNL    -->  Z4SS   DN                 
      7.54574478E-01    2      1000021         1                       # DNL    -->  GLSS   DN                 
      2.76953913E-04    2     -1000024         2                       # DNL    -->  W1SS-  UP                 
      1.61526397E-01    2     -1000037         2                       # DNL    -->  W2SS-  UP                 
#         PDG         Width
DECAY   1000003  2.59601196E+02   # STL   decays
#          BR          NDA       ID1       ID2       ID3       ID4
      1.23659440E-03    2      1000022         3                       # STL    -->  Z1SS   ST                 
      4.49276471E-04    2      1000023         3                       # STL    -->  Z2SS   ST                 
      1.82706933E-03    2      1000025         3                       # STL    -->  Z3SS   ST                 
      8.01092610E-02    2      1000035         3                       # STL    -->  Z4SS   ST                 
      7.54574478E-01    2      1000021         3                       # STL    -->  GLSS   ST                 
      2.76953884E-04    2     -1000024         4                       # STL    -->  W1SS-  CH                 
      1.61526382E-01    2     -1000037         4                       # STL    -->  W2SS-  CH                 
#         PDG         Width
DECAY   1000004  2.59596313E+02   # CHL   decays
#          BR          NDA       ID1       ID2       ID3       ID4
      5.02840034E-04    2      1000022         4                       # CHL    -->  Z1SS   CH                 
      2.20068730E-04    2      1000023         4                       # CHL    -->  Z2SS   CH                 
      3.82790435E-03    2      1000025         4                       # CHL    -->  Z3SS   CH                 
      7.90817514E-02    2      1000035         4                       # CHL    -->  Z4SS   CH                 
      7.54440129E-01    2      1000021         4                       # CHL    -->  GLSS   CH                 
      4.40371502E-03    2      1000024         3                       # CHL    -->  W1SS+  ST                 
      1.57523632E-01    2      1000037         3                       # CHL    -->  W2SS+  ST                 
#         PDG         Width
DECAY   1000005  2.39988159E+02   # BT1   decays
#          BR          NDA       ID1       ID2       ID3       ID4
      7.15070264E-03    2      1000022         5                       # BT1    -->  Z1SS   BT                 
      5.89504838E-03    2      1000023         5                       # BT1    -->  Z2SS   BT                 
      1.40383618E-03    2      1000025         5                       # BT1    -->  Z3SS   BT                 
      5.89928702E-02    2      1000035         5                       # BT1    -->  Z4SS   BT                 
      4.02218163E-01    2      1000021         5                       # BT1    -->  GLSS   BT                 
      1.92993611E-01    2     -1000024         6                       # BT1    -->  W1SS-  TP                 
      1.24240838E-01    2     -1000037         6                       # BT1    -->  W2SS-  TP                 
      2.06634656E-01    2          -24   1000006                       # BT1    -->  W-     TP1                
      4.70250932E-04    2          -37   1000006                       # BT1    -->  H-     TP1                
#         PDG         Width
DECAY   1000006  4.37587852E+01   # TP1   decays
#          BR          NDA       ID1       ID2       ID3       ID4
      2.11013645E-01    2      1000022         6                       # TP1    -->  Z1SS   TP                 
      2.41682485E-01    2      1000023         6                       # TP1    -->  Z2SS   TP                 
      7.74119571E-02    2      1000025         6                       # TP1    -->  Z3SS   TP                 
      2.20712903E-03    2      1000035         6                       # TP1    -->  Z4SS   TP                 
      4.63252306E-01    2      1000024         5                       # TP1    -->  W1SS+  BT                 
      4.43248171E-03    2      1000037         5                       # TP1    -->  W2SS+  BT                 
#         PDG         Width
DECAY   2000002  2.16556549E+02   # UPR   decays
#          BR          NDA       ID1       ID2       ID3       ID4
      7.99871341E-04    2      1000022         2                       # UPR    -->  Z1SS   UP                 
      1.99384929E-04    2      1000023         2                       # UPR    -->  Z2SS   UP                 
      5.39633818E-02    2      1000025         2                       # UPR    -->  Z3SS   UP                 
      1.60929958E-05    2      1000035         2                       # UPR    -->  Z4SS   UP                 
      9.45021272E-01    2      1000021         2                       # UPR    -->  GLSS   UP                 
#         PDG         Width
DECAY   2000001  1.96857651E+02   # DNR   decays
#          BR          NDA       ID1       ID2       ID3       ID4
      2.12754559E-04    2      1000022         1                       # DNR    -->  Z1SS   DN                 
      5.30327598E-05    2      1000023         1                       # DNR    -->  Z2SS   DN                 
      1.43450415E-02    2      1000025         1                       # DNR    -->  Z3SS   DN                 
      4.27026725E-06    2      1000035         1                       # DNR    -->  Z4SS   DN                 
      9.85384941E-01    2      1000021         1                       # DNR    -->  GLSS   DN                 
#         PDG         Width
DECAY   2000003  1.96857651E+02   # STR   decays
#          BR          NDA       ID1       ID2       ID3       ID4
      2.12754559E-04    2      1000022         3                       # STR    -->  Z1SS   ST                 
      5.30327598E-05    2      1000023         3                       # STR    -->  Z2SS   ST                 
      1.43450415E-02    2      1000025         3                       # STR    -->  Z3SS   ST                 
      4.27026725E-06    2      1000035         3                       # STR    -->  Z4SS   ST                 
      9.85384941E-01    2      1000021         3                       # STR    -->  GLSS   ST                 
#         PDG         Width
DECAY   2000004  2.16556580E+02   # CHR   decays
#          BR          NDA       ID1       ID2       ID3       ID4
      7.99871224E-04    2      1000022         4                       # CHR    -->  Z1SS   CH                 
      1.99384915E-04    2      1000023         4                       # CHR    -->  Z2SS   CH                 
      5.39633892E-02    2      1000025         4                       # CHR    -->  Z3SS   CH                 
      1.60929940E-05    2      1000035         4                       # CHR    -->  Z4SS   CH                 
      9.45021272E-01    2      1000021         4                       # CHR    -->  GLSS   CH                 
#         PDG         Width
DECAY   2000005  2.27945389E+02   # BT2   decays
#          BR          NDA       ID1       ID2       ID3       ID4
      9.01038758E-03    2      1000022         5                       # BT2    -->  Z1SS   BT                 
      8.03542323E-03    2      1000023         5                       # BT2    -->  Z2SS   BT                 
      1.20173609E-02    2      1000025         5                       # BT2    -->  Z3SS   BT                 
      2.76880037E-05    2      1000035         5                       # BT2    -->  Z4SS   BT                 
      8.05356443E-01    2      1000021         5                       # BT2    -->  GLSS   BT                 
      1.68084186E-02    2     -1000024         6                       # BT2    -->  W1SS-  TP                 
      4.27310515E-05    2     -1000037         6                       # BT2    -->  W2SS-  TP                 
      7.71550731E-06    2          -24   1000006                       # BT2    -->  W-     TP1                
      3.67295434E-04    2          -24   2000006                       # BT2    -->  W-     TP2                
      1.77624432E-04    2           23   1000005                       # BT2    -->  Z0     BT1                
      3.66555847E-04    2           25   1000005                       # BT2    -->  HL0    BT1                
      3.63176465E-02    2           36   1000005                       # BT2    -->  HA0    BT1                
      3.59709784E-02    2           35   1000005                       # BT2    -->  HH0    BT1                
      2.41159127E-04    2          -37   1000006                       # BT2    -->  H-     TP1                
      7.52525702E-02    2          -37   2000006                       # BT2    -->  H-     TP2                
#         PDG         Width
DECAY   2000006  2.49674744E+02   # TP2   decays
#          BR          NDA       ID1       ID2       ID3       ID4
      3.73004049E-01    2      1000021         6                       # TP2    -->  GLSS   TP                 
      1.23062572E-02    2      1000024         5                       # TP2    -->  W1SS+  BT                 
      1.12927154E-01    2      1000037         5                       # TP2    -->  W2SS+  BT                 
      9.72665474E-02    2           23   1000006                       # TP2    -->  Z0     TP1                
      1.56491250E-01    2           25   1000006                       # TP2    -->  HL0    TP1                
      2.41551199E-04    2           35   1000006                       # TP2    -->  HH0    TP1                
      2.26986172E-04    2           36   1000006                       # TP2    -->  HA0    TP1                
      8.43449458E-02    2      1000022         6                       # TP2    -->  Z1SS   TP                 
      9.76902246E-02    2      1000023         6                       # TP2    -->  Z2SS   TP                 
      6.30532252E-03    2      1000025         6                       # TP2    -->  Z3SS   TP                 
      5.91957569E-02    2      1000035         6                       # TP2    -->  Z4SS   TP                 
#         PDG         Width
DECAY   1000011  6.86071396E+01   # EL-   decays
#          BR          NDA       ID1       ID2       ID3       ID4
      3.50608170E-04    2      1000022        11                       # EL-    -->  Z1SS   E-                 
      2.68446514E-04    2      1000023        11                       # EL-    -->  Z2SS   E-                 
      1.03581846E-01    2      1000025        11                       # EL-    -->  Z3SS   E-                 
      2.91564792E-01    2      1000035        11                       # EL-    -->  Z4SS   E-                 
      1.03515631E-03    2     -1000024        12                       # EL-    -->  W1SS-  NUE                
      6.03199184E-01    2     -1000037        12                       # EL-    -->  W2SS-  NUE                
#         PDG         Width
DECAY   1000013  6.86071396E+01   # MUL-  decays
#          BR          NDA       ID1       ID2       ID3       ID4
      3.50608170E-04    2      1000022        13                       # MUL-   -->  Z1SS   MU-                
      2.68446514E-04    2      1000023        13                       # MUL-   -->  Z2SS   MU-                
      1.03581846E-01    2      1000025        13                       # MUL-   -->  Z3SS   MU-                
      2.91564792E-01    2      1000035        13                       # MUL-   -->  Z4SS   MU-                
      1.03515631E-03    2     -1000024        14                       # MUL-   -->  W1SS-  NUM                
      6.03199184E-01    2     -1000037        14                       # MUL-   -->  W2SS-  NUM                
#         PDG         Width
DECAY   1000015  2.78335056E+01   # TAU1- decays
#          BR          NDA       ID1       ID2       ID3       ID4
      5.43569848E-02    2      1000022        15                       # TAU1-  -->  Z1SS   TAU-               
      4.03139330E-02    2      1000023        15                       # TAU1-  -->  Z2SS   TAU-               
      8.25617254E-01    2      1000025        15                       # TAU1-  -->  Z3SS   TAU-               
      2.48619326E-04    2      1000035        15                       # TAU1-  -->  Z4SS   TAU-               
      7.94568136E-02    2     -1000024        16                       # TAU1-  -->  W1SS-  NUT                
      6.44783631E-06    2     -1000037        16                       # TAU1-  -->  W2SS-  NUT                
#         PDG         Width
DECAY   1000012  6.86963654E+01   # NUEL  decays
#          BR          NDA       ID1       ID2       ID3       ID4
      8.57436005E-03    2      1000022        12                       # NUEL   -->  Z1SS   NUE                
      2.83720740E-03    2      1000023        12                       # NUEL   -->  Z2SS   NUE                
      8.11176002E-02    2      1000025        12                       # NUEL   -->  Z3SS   NUE                
      3.02882880E-01    2      1000035        12                       # NUEL   -->  Z4SS   NUE                
      1.64549891E-02    2      1000024        11                       # NUEL   -->  W1SS+  E-                 
      5.88132858E-01    2      1000037        11                       # NUEL   -->  W2SS+  E-                 
#         PDG         Width
DECAY   1000014  6.86963654E+01   # NUML  decays
#          BR          NDA       ID1       ID2       ID3       ID4
      8.57436005E-03    2      1000022        14                       # NUML   -->  Z1SS   NUM                
      2.83720740E-03    2      1000023        14                       # NUML   -->  Z2SS   NUM                
      8.11176002E-02    2      1000025        14                       # NUML   -->  Z3SS   NUM                
      3.02882880E-01    2      1000035        14                       # NUML   -->  Z4SS   NUM                
      1.64549891E-02    2      1000024        13                       # NUML   -->  W1SS+  MU-                
      5.88132858E-01    2      1000037        13                       # NUML   -->  W2SS+  MU-                
#         PDG         Width
DECAY   1000016  7.00214157E+01   # NUTL  decays
#          BR          NDA       ID1       ID2       ID3       ID4
      8.28835648E-03    2      1000022        16                       # NUTL   -->  Z1SS   NUT                
      2.74255034E-03    2      1000023        16                       # NUTL   -->  Z2SS   NUT                
      7.83901066E-02    2      1000025        16                       # NUTL   -->  Z3SS   NUT                
      2.92449683E-01    2      1000035        16                       # NUTL   -->  Z4SS   NUT                
      4.99888659E-02    2      1000024        15                       # NUTL   -->  W1SS+  TAU-               
      5.67950308E-01    2      1000037        15                       # NUTL   -->  W2SS+  TAU-               
      1.90167804E-04    2           24   1000015                       # NUTL   -->  W+     TAU1-              
#         PDG         Width
DECAY   2000011  2.42464046E+01   # ER-   decays
#          BR          NDA       ID1       ID2       ID3       ID4
      1.45751815E-02    2      1000022        11                       # ER-    -->  Z1SS   E-                 
      3.63299437E-03    2      1000023        11                       # ER-    -->  Z2SS   E-                 
      9.81500745E-01    2      1000025        11                       # ER-    -->  Z3SS   E-                 
      2.91050441E-04    2      1000035        11                       # ER-    -->  Z4SS   E-                 
#         PDG         Width
DECAY   2000013  2.42464046E+01   # MUR-  decays
#          BR          NDA       ID1       ID2       ID3       ID4
      1.45751815E-02    2      1000022        13                       # MUR-   -->  Z1SS   MU-                
      3.63299437E-03    2      1000023        13                       # MUR-   -->  Z2SS   MU-                
      9.81500745E-01    2      1000025        13                       # MUR-   -->  Z3SS   MU-                
      2.91050441E-04    2      1000035        13                       # MUR-   -->  Z4SS   MU-                
#         PDG         Width
DECAY   2000015  6.99014130E+01   # TAU2- decays
#          BR          NDA       ID1       ID2       ID3       ID4
      1.80829559E-02    2      1000022        15                       # TAU2-  -->  Z1SS   TAU-               
      1.64880008E-02    2      1000023        15                       # TAU2-  -->  Z2SS   TAU-               
      1.00229442E-01    2      1000025        15                       # TAU2-  -->  Z3SS   TAU-               
      2.81608492E-01    2      1000035        15                       # TAU2-  -->  Z4SS   TAU-               
      9.15253651E-04    2     -1000024        16                       # TAU2-  -->  W1SS-  NUT                
      5.82546949E-01    2     -1000037        16                       # TAU2-  -->  W2SS-  NUT                
      8.99506340E-05    2           23   1000015                       # TAU2-  -->  Z0     TAU1-              
      3.89834022E-05    2           25   1000015                       # TAU2-  -->  HL0    TAU1-              
#         PDG         Width
DECAY   1000023  5.11306951E-07   # Z2SS  decays
#          BR          NDA       ID1       ID2       ID3       ID4
      1.01810042E-02    2      1000022        22                       # Z2SS   -->  Z1SS   GM                 
      4.28546919E-04    3     -1000024         2        -1             # Z2SS   -->  W1SS-  UP     DB          
      1.42848978E-04    3     -1000024        12       -11             # Z2SS   -->  W1SS-  NUE    E+          
      1.42848978E-04    3     -1000024        14       -13             # Z2SS   -->  W1SS-  NUM    MU+         
      4.28546919E-04    3      1000024         1        -2             # Z2SS   -->  W1SS+  DN     UB          
      1.42848978E-04    3      1000024        11       -12             # Z2SS   -->  W1SS+  E-     ANUE        
      1.42848978E-04    3      1000024        13       -14             # Z2SS   -->  W1SS+  MU-    ANUM        
      4.28546919E-04    3     -1000024         4        -3             # Z2SS   -->  W1SS-  CH     SB          
      1.42848978E-04    3     -1000024        16       -15             # Z2SS   -->  W1SS-  NUT    TAU+        
      4.28546919E-04    3      1000024         3        -4             # Z2SS   -->  W1SS+  ST     CB          
      1.42848978E-04    3      1000024        15       -16             # Z2SS   -->  W1SS+  TAU-   ANUT        
      1.32504165E-01    3      1000022         2        -2             # Z2SS   -->  Z1SS   UP     UB          
      1.70863584E-01    3      1000022         1        -1             # Z2SS   -->  Z1SS   DN     DB          
      1.70863584E-01    3      1000022         3        -3             # Z2SS   -->  Z1SS   ST     SB          
      1.32504165E-01    3      1000022         4        -4             # Z2SS   -->  Z1SS   CH     CB          
      3.95910703E-02    3      1000022         5        -5             # Z2SS   -->  Z1SS   BT     BB          
      3.87603119E-02    3      1000022        11       -11             # Z2SS   -->  Z1SS   E-     E+          
      3.87603119E-02    3      1000022        13       -13             # Z2SS   -->  Z1SS   MU-    MU+         
      3.20349149E-02    3      1000022        15       -15             # Z2SS   -->  Z1SS   TAU-   TAU+        
      7.71218166E-02    3      1000022        12       -12             # Z2SS   -->  Z1SS   NUE    ANUE        
      7.71218166E-02    3      1000022        14       -14             # Z2SS   -->  Z1SS   NUM    ANUM        
      7.71218389E-02    3      1000022        16       -16             # Z2SS   -->  Z1SS   NUT    ANUT        
#         PDG         Width
DECAY   1000025  6.88023925E-01   # Z3SS  decays
#          BR          NDA       ID1       ID2       ID3       ID4
      6.17936706E-08    2      1000022        22                       # Z3SS   -->  Z1SS   GM                 
      3.51684903E-08    2      1000023        22                       # Z3SS   -->  Z2SS   GM                 
      2.83603311E-01    2      1000024       -24                       # Z3SS   -->  W1SS+  W-                 
      2.83603311E-01    2     -1000024        24                       # Z3SS   -->  W1SS-  W+                 
      4.75348830E-02    2      1000022        23                       # Z3SS   -->  Z1SS   Z0                 
      1.96308762E-01    2      1000023        23                       # Z3SS   -->  Z2SS   Z0                 
      5.26501724E-11    3      1000022         2        -2             # Z3SS   -->  Z1SS   UP     UB          
      7.83813379E-12    3      1000022         1        -1             # Z3SS   -->  Z1SS   DN     DB          
      7.83813379E-12    3      1000022         3        -3             # Z3SS   -->  Z1SS   ST     SB          
      5.26501273E-11    3      1000022         4        -4             # Z3SS   -->  Z1SS   CH     CB          
      1.69585704E-07    3      1000022         5        -5             # Z3SS   -->  Z1SS   BT     BB          
      1.23971333E-10    3      1000022        11       -11             # Z3SS   -->  Z1SS   E-     E+          
      1.23971333E-10    3      1000022        13       -13             # Z3SS   -->  Z1SS   MU-    MU+         
      3.55964609E-08    3      1000022        15       -15             # Z3SS   -->  Z1SS   TAU-   TAU+        
      3.34060835E-11    3      1000022        12       -12             # Z3SS   -->  Z1SS   NUE    ANUE        
      3.34060835E-11    3      1000022        14       -14             # Z3SS   -->  Z1SS   NUM    ANUM        
      3.54475928E-11    3      1000022        16       -16             # Z3SS   -->  Z1SS   NUT    ANUT        
      5.26605495E-12    3      1000023         2        -2             # Z3SS   -->  Z2SS   UP     UB          
      9.33109926E-13    3      1000023         1        -1             # Z3SS   -->  Z2SS   DN     DB          
      9.33109926E-13    3      1000023         3        -3             # Z3SS   -->  Z2SS   ST     SB          
      5.26605235E-12    3      1000023         4        -4             # Z3SS   -->  Z2SS   CH     CB          
      1.36423211E-07    3      1000023         5        -5             # Z3SS   -->  Z2SS   BT     BB          
      1.21201157E-11    3      1000023        11       -11             # Z3SS   -->  Z2SS   E-     E+          
      1.21201157E-11    3      1000023        13       -13             # Z3SS   -->  Z2SS   MU-    MU+         
      2.84968795E-08    3      1000023        15       -15             # Z3SS   -->  Z2SS   TAU-   TAU+        
      4.21191554E-12    3      1000023        12       -12             # Z3SS   -->  Z2SS   NUE    ANUE        
      4.21191554E-12    3      1000023        14       -14             # Z3SS   -->  Z2SS   NUM    ANUM        
      4.46942310E-12    3      1000023        16       -16             # Z3SS   -->  Z2SS   NUT    ANUT        
      1.58586904E-01    2      1000022        25                       # Z3SS   -->  Z1SS   HL0                
      3.03623676E-02    2      1000023        25                       # Z3SS   -->  Z2SS   HL0                
#         PDG         Width
DECAY   1000035  5.59850645E+00   # Z4SS  decays
#          BR          NDA       ID1       ID2       ID3       ID4
      1.86095338E-06    2      1000022        22                       # Z4SS   -->  Z1SS   GM                 
      3.35167920E-06    2      1000023        22                       # Z4SS   -->  Z2SS   GM                 
      6.31161754E-08    2      1000025        22                       # Z4SS   -->  Z3SS   GM                 
      2.45352000E-01    2      1000024       -24                       # Z4SS   -->  W1SS+  W-                 
      2.45352000E-01    2     -1000024        24                       # Z4SS   -->  W1SS-  W+                 
      5.33852109E-08    3     -1000037         2        -1             # Z4SS   -->  W2SS-  UP     DB          
      1.77950703E-08    3     -1000037        12       -11             # Z4SS   -->  W2SS-  NUE    E+          
      1.77950703E-08    3     -1000037        14       -13             # Z4SS   -->  W2SS-  NUM    MU+         
      5.33852109E-08    3      1000037         1        -2             # Z4SS   -->  W2SS+  DN     UB          
      1.77950703E-08    3      1000037        11       -12             # Z4SS   -->  W2SS+  E-     ANUE        
      1.77950703E-08    3      1000037        13       -14             # Z4SS   -->  W2SS+  MU-    ANUM        
      5.33852109E-08    3     -1000037         4        -3             # Z4SS   -->  W2SS-  CH     SB          
      1.77950703E-08    3     -1000037        16       -15             # Z4SS   -->  W2SS-  NUT    TAU+        
      5.33852109E-08    3      1000037         3        -4             # Z4SS   -->  W2SS+  ST     CB          
      1.77950703E-08    3      1000037        15       -16             # Z4SS   -->  W2SS+  TAU-   ANUT        
      6.03306741E-02    2      1000022        23                       # Z4SS   -->  Z1SS   Z0                 
      2.03908741E-01    2      1000023        23                       # Z4SS   -->  Z2SS   Z0                 
      1.46907405E-03    2      1000025        23                       # Z4SS   -->  Z3SS   Z0                 
      3.75096149E-10    3      1000022         2        -2             # Z4SS   -->  Z1SS   UP     UB          
      9.33600086E-10    3      1000022         1        -1             # Z4SS   -->  Z1SS   DN     DB          
      9.33600086E-10    3      1000022         3        -3             # Z4SS   -->  Z1SS   ST     SB          
      3.75096149E-10    3      1000022         4        -4             # Z4SS   -->  Z1SS   CH     CB          
      5.11187727E-06    3      1000022         5        -5             # Z4SS   -->  Z1SS   BT     BB          
      2.43531358E-11    3      1000022        11       -11             # Z4SS   -->  Z1SS   E-     E+          
      2.43531358E-11    3      1000022        13       -13             # Z4SS   -->  Z1SS   MU-    MU+         
      1.01165324E-06    3      1000022        15       -15             # Z4SS   -->  Z1SS   TAU-   TAU+        
      6.12301210E-10    3      1000022        12       -12             # Z4SS   -->  Z1SS   NUE    ANUE        
      6.12301210E-10    3      1000022        14       -14             # Z4SS   -->  Z1SS   NUM    ANUM        
      6.49930054E-10    3      1000022        16       -16             # Z4SS   -->  Z1SS   NUT    ANUT        
      9.38051789E-11    3      1000023         2        -2             # Z4SS   -->  Z2SS   UP     UB          
      1.93837418E-10    3      1000023         1        -1             # Z4SS   -->  Z2SS   DN     DB          
      1.93837418E-10    3      1000023         3        -3             # Z4SS   -->  Z2SS   ST     SB          
      9.38051789E-11    3      1000023         4        -4             # Z4SS   -->  Z2SS   CH     CB          
      4.42517830E-06    3      1000023         5        -5             # Z4SS   -->  Z2SS   BT     BB          
      1.06036412E-11    3      1000023        11       -11             # Z4SS   -->  Z2SS   E-     E+          
      1.06036412E-11    3      1000023        13       -13             # Z4SS   -->  Z2SS   MU-    MU+         
      8.76203444E-07    3      1000023        15       -15             # Z4SS   -->  Z2SS   TAU-   TAU+        
      1.15790308E-10    3      1000023        12       -12             # Z4SS   -->  Z2SS   NUE    ANUE        
      1.15790308E-10    3      1000023        14       -14             # Z4SS   -->  Z2SS   NUM    ANUM        
      1.22915358E-10    3      1000023        16       -16             # Z4SS   -->  Z2SS   NUT    ANUT        
      5.73172398E-10    3      1000025         2        -2             # Z4SS   -->  Z3SS   UP     UB          
      2.76538181E-10    3      1000025         1        -1             # Z4SS   -->  Z3SS   DN     DB          
      2.76538181E-10    3      1000025         3        -3             # Z4SS   -->  Z3SS   ST     SB          
      5.73172398E-10    3      1000025         4        -4             # Z4SS   -->  Z3SS   CH     CB          
      4.54964999E-09    3      1000025         5        -5             # Z4SS   -->  Z3SS   BT     BB          
      1.43444212E-09    3      1000025        11       -11             # Z4SS   -->  Z3SS   E-     E+          
      1.43444212E-09    3      1000025        13       -13             # Z4SS   -->  Z3SS   MU-    MU+         
      2.20327401E-09    3      1000025        15       -15             # Z4SS   -->  Z3SS   TAU-   TAU+        
      1.16144638E-09    3      1000025        12       -12             # Z4SS   -->  Z3SS   NUE    ANUE        
      1.16144638E-09    3      1000025        14       -14             # Z4SS   -->  Z3SS   NUM    ANUM        
      1.23308896E-09    3      1000025        16       -16             # Z4SS   -->  Z3SS   NUT    ANUT        
      1.57584816E-01    2      1000022        25                       # Z4SS   -->  Z1SS   HL0                
      7.18494281E-02    2      1000023        25                       # Z4SS   -->  Z2SS   HL0                
      1.41363842E-02    2      1000025        25                       # Z4SS   -->  Z3SS   HL0                
#         PDG         Width
DECAY   1000024  1.88806126E-07   # W1SS+ decays
#          BR          NDA       ID1       ID2       ID3       ID4
      3.33332360E-01    3      1000022         2        -1             # W1SS+  -->  Z1SS   UP     DB          
      3.33332360E-01    3      1000022         4        -3             # W1SS+  -->  Z1SS   CH     SB          
      1.11111045E-01    3      1000022       -11        12             # W1SS+  -->  Z1SS   E+     NUE         
      1.11111045E-01    3      1000022       -13        14             # W1SS+  -->  Z1SS   MU+    NUM         
      1.11113153E-01    3      1000022       -15        16             # W1SS+  -->  Z1SS   TAU+   NUT         
#         PDG         Width
DECAY   1000037  5.53330231E+00   # W2SS+ decays
#          BR          NDA       ID1       ID2       ID3       ID4
      7.73728248E-10    3      1000022         2        -1             # W2SS+  -->  Z1SS   UP     DB          
      7.73728248E-10    3      1000022         4        -3             # W2SS+  -->  Z1SS   CH     SB          
      4.20960211E-10    3      1000022       -11        12             # W2SS+  -->  Z1SS   E+     NUE         
      4.20960211E-10    3      1000022       -13        14             # W2SS+  -->  Z1SS   MU+    NUM         
      9.41995836E-07    3      1000022       -15        16             # W2SS+  -->  Z1SS   TAU+   NUT         
      2.37981632E-01    2      1000022        24                       # W2SS+  -->  Z1SS   W+                 
      4.49419973E-10    3      1000023         2        -1             # W2SS+  -->  Z2SS   UP     DB          
      4.49419973E-10    3      1000023         4        -3             # W2SS+  -->  Z2SS   CH     SB          
      1.77104609E-10    3      1000023       -11        12             # W2SS+  -->  Z2SS   E+     NUE         
      1.77104609E-10    3      1000023       -13        14             # W2SS+  -->  Z2SS   MU+    NUM         
      7.78649621E-07    3      1000023       -15        16             # W2SS+  -->  Z2SS   TAU+   NUT         
      2.52110094E-01    2      1000023        24                       # W2SS+  -->  Z2SS   W+                 
      7.25244975E-10    3      1000025         2        -1             # W2SS+  -->  Z3SS   UP     DB          
      7.25244975E-10    3      1000025         4        -3             # W2SS+  -->  Z3SS   CH     SB          
      2.26624786E-09    3      1000025       -11        12             # W2SS+  -->  Z3SS   E+     NUE         
      2.26624786E-09    3      1000025       -13        14             # W2SS+  -->  Z3SS   MU+    NUM         
      3.01350878E-09    3      1000025       -15        16             # W2SS+  -->  Z3SS   TAU+   NUT         
      1.87301114E-02    2      1000025        24                       # W2SS+  -->  Z3SS   W+                 
      2.43534371E-01    2      1000024        23                       # W2SS+  -->  W1SS+  Z0                 
      2.36477793E-09    3      1000024         1        -1             # W2SS+  -->  W1SS+  DN     DB          
      2.36477793E-09    3      1000024         3        -3             # W2SS+  -->  W1SS+  ST     SB          
      1.52395166E-10    3      1000024         2        -2             # W2SS+  -->  W1SS+  UP     UB          
      1.52395166E-10    3      1000024         4        -4             # W2SS+  -->  W1SS+  CH     CB          
      5.33740517E-11    3      1000024        12       -12             # W2SS+  -->  W1SS+  NUE    ANUE        
      5.33740517E-11    3      1000024        14       -14             # W2SS+  -->  W1SS+  NUM    ANUM        
      7.74794326E-11    3      1000024        16       -16             # W2SS+  -->  W1SS+  NUT    ANUT        
      8.24761370E-10    3      1000024        11       -11             # W2SS+  -->  W1SS+  E-     E+          
      8.24761370E-10    3      1000024        13       -13             # W2SS+  -->  W1SS+  MU-    MU+         
      8.75460093E-10    3      1000024        15       -15             # W2SS+  -->  W1SS+  TAU-   TAU+        
      2.47642070E-01    2      1000024        25                       # W2SS+  -->  W1SS+  HL0                
#         PDG         Width
DECAY        25  3.86483478E-03   # HL0   decays
#          BR          NDA       ID1       ID2       ID3       ID4
      5.73771519E-09    2           11       -11                       # HL0    -->  E-     E+                 
      2.42255657E-04    2           13       -13                       # HL0    -->  MU-    MU+                
      6.93013594E-02    2           15       -15                       # HL0    -->  TAU-   TAU+               
      7.19284299E-06    2            1        -1                       # HL0    -->  DN     DB                 
      2.90626939E-03    2            3        -3                       # HL0    -->  ST     SB                 
      6.22670293E-01    2            5        -5                       # HL0    -->  BT     BB                 
      2.19704657E-06    2            2        -2                       # HL0    -->  UP     UB                 
      4.08561043E-02    2            4        -4                       # HL0    -->  CH     CB                 
      2.68702675E-03    2           22        22                       # HL0    -->  GM     GM                 
      5.26445359E-02    2           21        21                       # HL0    -->  GL     GL                 
      1.04445014E-02    3           24        11       -12             # HL0    -->  W+     E-     ANUE        
      1.04445014E-02    3           24        13       -14             # HL0    -->  W+     MU-    ANUM        
      1.04445014E-02    3           24        15       -16             # HL0    -->  W+     TAU-   ANUT        
      3.13335024E-02    3           24        -2         1             # HL0    -->  W+     UB     DN          
      3.13335024E-02    3           24        -4         3             # HL0    -->  W+     CB     ST          
      1.04445014E-02    3          -24       -11        12             # HL0    -->  W-     E+     NUE         
      1.04445014E-02    3          -24       -13        14             # HL0    -->  W-     MU+    NUM         
      1.04445014E-02    3          -24       -15        16             # HL0    -->  W-     TAU+   NUT         
      3.13335024E-02    3          -24         2        -1             # HL0    -->  W-     UP     DB          
      3.13335024E-02    3          -24         4        -3             # HL0    -->  W-     CH     SB          
      1.41442486E-03    3           23        12       -12             # HL0    -->  Z0     NUE    ANUE        
      1.41442486E-03    3           23        14       -14             # HL0    -->  Z0     NUM    ANUM        
      1.41442486E-03    3           23        16       -16             # HL0    -->  Z0     NUT    ANUT        
      7.11865840E-04    3           23        11       -11             # HL0    -->  Z0     E-     E+          
      7.11865840E-04    3           23        13       -13             # HL0    -->  Z0     MU-    MU+         
      7.11865840E-04    3           23        15       -15             # HL0    -->  Z0     TAU-   TAU+        
      2.43879179E-03    3           23         2        -2             # HL0    -->  Z0     UP     UB          
      2.43879179E-03    3           23         4        -4             # HL0    -->  Z0     CH     CB          
      3.14176478E-03    3           23         1        -1             # HL0    -->  Z0     DN     DB          
      3.14176478E-03    3           23         3        -3             # HL0    -->  Z0     ST     SB          
      3.14176478E-03    3           23         5        -5             # HL0    -->  Z0     BT     BB          
#         PDG         Width
DECAY        35  7.96337605E+00   # HH0   decays
#          BR          NDA       ID1       ID2       ID3       ID4
      4.83250862E-09    2           11       -11                       # HH0    -->  E-     E+                 
      2.04037235E-04    2           13       -13                       # HH0    -->  MU-    MU+                
      5.84383011E-02    2           15       -15                       # HH0    -->  TAU-   TAU+               
      5.91984508E-06    2            1        -1                       # HH0    -->  DN     DB                 
      2.39191717E-03    2            3        -3                       # HH0    -->  ST     SB                 
      3.58072042E-01    2            5        -5                       # HH0    -->  BT     BB                 
      3.91939606E-11    2            2        -2                       # HH0    -->  UP     UB                 
      5.51968242E-07    2            4        -4                       # HH0    -->  CH     CB                 
      2.51794755E-02    2            6        -6                       # HH0    -->  TP     TB                 
      1.81304230E-07    2           22        22                       # HH0    -->  GM     GM                 
      1.21367830E-05    2           21        21                       # HH0    -->  GL     GL                 
      9.74954237E-05    2           24       -24                       # HH0    -->  W+     W-                 
      4.94999949E-05    2           23        23                       # HH0    -->  Z0     Z0                 
      1.25196790E-02    2      1000022   1000022                       # HH0    -->  Z1SS   Z1SS               
      1.69379765E-03    2      1000022   1000023                       # HH0    -->  Z1SS   Z2SS               
      4.14594859E-02    2      1000022   1000025                       # HH0    -->  Z1SS   Z3SS               
      4.20546606E-02    2      1000022   1000035                       # HH0    -->  Z1SS   Z4SS               
      4.78332257E-03    2      1000023   1000023                       # HH0    -->  Z2SS   Z2SS               
      6.14436008E-02    2      1000023   1000025                       # HH0    -->  Z2SS   Z3SS               
      9.10141692E-02    2      1000023   1000035                       # HH0    -->  Z2SS   Z4SS               
      1.29275155E-04    2      1000025   1000025                       # HH0    -->  Z3SS   Z3SS               
      2.48047914E-02    2      1000024  -1000024                       # HH0    -->  W1SS+  W1SS-              
      1.37645751E-01    2      1000024  -1000037                       # HH0    -->  W1SS+  W2SS-              
      1.37645751E-01    2     -1000024   1000037                       # HH0    -->  W1SS-  W2SS+              
      3.54228163E-04    2           25        25                       # HH0    -->  HL0    HL0                
#         PDG         Width
DECAY        36  7.82365751E+00   # HA0   decays
#          BR          NDA       ID1       ID2       ID3       ID4
      4.88725949E-09    2           11       -11                       # HA0    -->  E-     E+                 
      2.06348908E-04    2           13       -13                       # HA0    -->  MU-    MU+                
      5.91011234E-02    2           15       -15                       # HA0    -->  TAU-   TAU+               
      5.98724500E-06    2            1        -1                       # HA0    -->  DN     DB                 
      2.41915020E-03    2            3        -3                       # HA0    -->  ST     SB                 
      3.62165093E-01    2            5        -5                       # HA0    -->  BT     BB                 
      3.78415493E-11    2            2        -2                       # HA0    -->  UP     UB                 
      5.33341620E-07    2            4        -4                       # HA0    -->  CH     CB                 
      2.70240251E-02    2            6        -6                       # HA0    -->  TP     TB                 
      8.69116832E-08    2           22        22                       # HA0    -->  GM     GM                 
      3.87229593E-05    2           21        21                       # HA0    -->  GL     GL                 
      1.69810634E-02    2      1000022   1000022                       # HA0    -->  Z1SS   Z1SS               
      5.25803072E-04    2      1000022   1000023                       # HA0    -->  Z1SS   Z2SS               
      6.31597266E-02    2      1000022   1000025                       # HA0    -->  Z1SS   Z3SS               
      9.54091623E-02    2      1000022   1000035                       # HA0    -->  Z1SS   Z4SS               
      3.85427219E-03    2      1000023   1000023                       # HA0    -->  Z2SS   Z2SS               
      3.86508331E-02    2      1000023   1000025                       # HA0    -->  Z2SS   Z3SS               
      3.38500291E-02    2      1000023   1000035                       # HA0    -->  Z2SS   Z4SS               
      5.61146822E-04    2      1000025   1000025                       # HA0    -->  Z3SS   Z3SS               
      2.82748826E-02    2      1000024  -1000024                       # HA0    -->  W1SS+  W1SS-              
      1.33838400E-01    2      1000024  -1000037                       # HA0    -->  W1SS+  W2SS-              
      1.33838400E-01    2     -1000024   1000037                       # HA0    -->  W1SS-  W2SS+              
      9.51818292E-05    2           25        23                       # HA0    -->  HL0    Z0                 
#         PDG         Width
DECAY        37  7.38280010E+00   # H+    decays
#          BR          NDA       ID1       ID2       ID3       ID4
      5.19581977E-09    2           12       -11                       # H+     -->  NUE    E+                 
      2.19376889E-04    2           14       -13                       # H+     -->  NUM    MU+                
      6.28325120E-02    2           16       -15                       # H+     -->  NUT    TAU+               
      5.85068483E-06    2            2        -1                       # H+     -->  UP     DB                 
      2.36446992E-03    2            4        -3                       # H+     -->  CH     SB                 
      3.58350962E-01    2            6        -5                       # H+     -->  TP     BB                 
      7.36655784E-05    2      1000024   1000022                       # H+     -->  W1SS+  Z1SS               
      2.61232280E-03    2      1000024   1000023                       # H+     -->  W1SS+  Z2SS               
      1.39629364E-01    2      1000024   1000025                       # H+     -->  W1SS+  Z3SS               
      1.35446325E-01    2      1000024   1000035                       # H+     -->  W1SS+  Z4SS               
      1.58525050E-01    2      1000037   1000022                       # H+     -->  W2SS+  Z1SS               
      1.39838919E-01    2      1000037   1000023                       # H+     -->  W2SS+  Z2SS               
      1.01152691E-04    2           25        24                       # H+     -->  HL0    W+                 
