#  ISAJET SUSY parameters in SUSY Les Houches Accord 2 format
#  Created by ISALHA 2.0 Last revision: H Baer 27 May 2014
Block SPINFO   # Program information
     1   ISASUGRA/ISASUSY from ISAJET   # Spectrum Calculator
     2   7.87   18-JUL-2017 13:55:55    # Version number
Block MODSEL   # Model selection
     1    13   # Non-universal supergravity model                  
Block SMINPUTS   # Standard Model inputs
     1     1.28000000E+02   # alpha_em^(-1)
     2     1.16570000E-05   # G_Fermi
     3     1.19999997E-01   # alpha_s(M_Z)
     4     9.11699982E+01   # m_{Z}(pole)
     5     4.19999981E+00   # m_{b}(m_{b})
     6     1.72500000E+02   # m_{top}(pole)
     7     1.77699995E+00   # m_{tau}(pole)
Block MINPAR   # SUSY breaking input parameters
     1     5.00000000E+03   # m_0
     2     2.00000000E+03   # m_{1/2}
     3     1.50000000E+01   # tan(beta)
     4     1.00000000E+00   # sign(mu)
     5    -8.00000000E+03   # A_0
Block EXTPAR   # Non-universal SUSY breaking parameters
     0     1.38846404E+16   # Input scale
    21     1.82677550E+06   # Down type Higgs mass squared
    22     4.78729520E+07   #  Up  type Higgs mass squared
Block MASS   # Scalar and gaugino mass spectrum
#  PDG code   mass                 particle
         6     1.72500000E+02   #  top            
        24     8.04229965E+01   #  W^+
        25     1.25235527E+02   #  h^0            
        35     1.00666797E+03   #  H^0            
        36     1.00000000E+03   #  A^0            
        37     1.00322870E+03   #  H^+            
   1000001     6.19581250E+03   #  dnl            
   1000002     6.19529102E+03   #  upl            
   1000003     6.19581250E+03   #  stl            
   1000004     6.19529102E+03   #  chl            
   1000005     4.66053564E+03   #  b1             
   1000006     2.53588672E+03   #  t1             
   1000011     5.26818701E+03   #  el-            
   1000012     5.27171533E+03   #  nuel           
   1000013     5.26818701E+03   #  mul-           
   1000014     5.27171533E+03   #  numl           
   1000015     4.65039648E+03   #  tau1           
   1000016     5.19760986E+03   #  nutl           
   1000021     4.40789648E+03   #  glss           
   1000022     1.51710068E+02   #  z1ss           
   1000023    -1.57296799E+02   #  z2ss           
   1000024     1.60279053E+02   #  w1ss           
   1000025     8.96627991E+02   #  z3ss           
   1000035     1.68803345E+03   #  z4ss           
   1000037     1.66833081E+03   #  w2ss           
   1000039     1.00000002E+20   #  gvss
   2000001     6.07342725E+03   #  dnr            
   2000002     6.26592090E+03   #  upr            
   2000003     6.07342725E+03   #  str            
   2000004     6.26592090E+03   #  chr            
   2000005     5.87784668E+03   #  b2             
   2000006     4.64510254E+03   #  t2             
   2000011     4.81927197E+03   #  er-            
   2000013     4.81927197E+03   #  mur-           
   2000015     5.19220801E+03   #  tau2           
Block ALPHA   # Effective Higgs mixing parameter
         -6.81413934E-02   # alpha
Block STOPMIX   # stop mixing matrix
  1  1     5.76404929E-02   # O_{11}
  1  2     9.98337388E-01   # O_{12}
  2  1    -9.98337388E-01   # O_{21}
  2  2     5.76404929E-02   # O_{22}
Block SBOTMIX   # sbottom mixing matrix
  1  1     9.99992251E-01   # O_{11}
  1  2     3.94343352E-03   # O_{12}
  2  1    -3.94343352E-03   # O_{21}
  2  2     9.99992251E-01   # O_{22}
Block STAUMIX   # stau mixing matrix
  1  1     6.83226436E-03   # O_{11}
  1  2     9.99976635E-01   # O_{12}
  2  1    -9.99976635E-01   # O_{21}
  2  2     6.83226436E-03   # O_{22}
Block NMIX   # neutralino mixing matrix
  1  1    -4.22147885E-02   #
  1  2     3.86437029E-02   #
  1  3    -7.12790072E-01   #
  1  4     6.99038625E-01   #
  2  1     2.64976267E-02   #
  2  2    -2.67590657E-02   #
  2  3    -7.01227725E-01   #
  2  4    -7.11942255E-01   #
  3  1     9.98740792E-01   #
  3  2     8.03848356E-03   #
  3  3    -1.14732776E-02   #
  3  4     4.81703915E-02   #
  4  1    -5.69446385E-03   #
  4  2     9.98862207E-01   #
  4  3     8.88296589E-03   #
  4  4    -4.65044528E-02   #
Block UMIX   # chargino U mixing matrix
  1  1    -1.15507971E-02   # U_{11}
  1  2     9.99933302E-01   # U_{12}
  2  1    -9.99933302E-01   # U_{21}
  2  2    -1.15507971E-02   # U_{22}
Block VMIX   # chargino V mixing matrix
  1  1    -6.61906004E-02   # V_{11}
  1  2     9.97807026E-01   # V_{12}
  2  1    -9.97807026E-01   # V_{21}
  2  2    -6.61906004E-02   # V_{22}
Block GAUGE Q=  3.38899170E+03   #
     1     3.57524961E-01   # g`
     2     6.52378380E-01   # g_2
     3     1.21928334E+00   # g_3
Block YU Q=  3.38899170E+03   #
  3  3     8.11224043E-01   # y_t
Block YD Q=  3.38899170E+03   #
  3  3     1.85970023E-01   # y_b
Block YE Q=  3.38899170E+03   #
  3  3     1.49731562E-01   # y_tau
Block HMIX Q=  3.38899170E+03   # Higgs mixing parameters
     1     1.50000000E+02   # mu(Q)
     2     1.43057556E+01   # tan(beta)(Q)
     3     2.52426636E+02   # Higgs vev at Q
     4     1.00000000E+06   # m_A^2(Q)
Block MSOFT Q=  3.38899170E+03   # DRbar SUSY breaking parameters
     1     8.94702332E+02   # M_1(Q)          
     2     1.61596826E+03   # M_2(Q)          
     3     4.05751563E+03   # M_3(Q)          
    21     9.58747875E+05   # MHd^2(Q)        
    22    -1.73814551E+04   # MHu^2(Q)        
    31     5.24927441E+03   # MeL(Q)          
    32     5.24927441E+03   # MmuL(Q)         
    33     5.17718896E+03   # MtauL(Q)        
    34     4.81543701E+03   # MeR(Q)          
    35     4.81543701E+03   # MmuR(Q)         
    36     4.64959131E+03   # MtauR(Q)        
    41     6.00060498E+03   # MqL1(Q)         
    42     6.00060498E+03   # MqL2(Q)         
    43     4.52492578E+03   # MqL3(Q)         
    44     6.07190430E+03   # MuR(Q)          
    45     6.07190430E+03   # McR(Q)          
    46     2.53822192E+03   # MtR(Q)          
    47     5.87698779E+03   # MdR(Q)          
    48     5.87698779E+03   # MsR(Q)          
    49     5.77628271E+03   # MbR(Q)          
Block AU Q=  3.38899170E+03   #
  1  1    -6.24232373E+03   # A_u
  2  2    -6.24232373E+03   # A_c
  3  3    -6.24232373E+03   # A_t
Block AD Q=  3.38899170E+03   #
  1  1    -1.12808379E+04   # A_d
  2  2    -1.12808379E+04   # A_s
  3  3    -1.12808379E+04   # A_b
Block AE Q=  3.38899170E+03   #
  1  1    -8.76513867E+03   # A_e
  2  2    -8.76513867E+03   # A_mu
  3  3    -8.76513867E+03   # A_tau
#  ISAJET decay tables in SUSY Les Houches accord format
#  Created by ISALHD. Last revision: C. Balazs, 2005 May 25
Block DCINFO                           # Program information
     1   ISASUGRA from ISAJET          # Spectrum Calculator
     2   7.87   18-JUL-2017 13:55:55   # Version number
#         PDG         Width
DECAY         6  1.46776152E+00   # TP    decays
#          BR          NDA       ID1       ID2       ID3       ID4
      3.33333313E-01    3            2        -1         5             # TP     -->  UP     DB     BT          
      3.33333313E-01    3            4        -3         5             # TP     -->  CH     SB     BT          
      1.11111097E-01    3          -11        12         5             # TP     -->  E+     NUE    BT          
      1.11111097E-01    3          -13        14         5             # TP     -->  MU+    NUM    BT          
      1.11111097E-01    3          -15        16         5             # TP     -->  TAU+   NUT    BT          
#         PDG         Width
DECAY   1000021  3.91230507E+01   # GLSS  decays
#          BR          NDA       ID1       ID2       ID3       ID4
      4.87301804E-07    3      1000024         1        -2             # GLSS   -->  W1SS+  DN     UB          
      4.87301804E-07    3     -1000024         2        -1             # GLSS   -->  W1SS-  UP     DB          
      4.87301804E-07    3      1000024         3        -4             # GLSS   -->  W1SS+  ST     CB          
      4.87301804E-07    3     -1000024         4        -3             # GLSS   -->  W1SS-  CH     SB          
      1.10518723E-03    3      1000024         5        -6             # GLSS   -->  W1SS+  BT     TB          
      1.10518723E-03    3     -1000024         6        -5             # GLSS   -->  W1SS-  TP     BB          
      1.19977420E-04    3      1000037         1        -2             # GLSS   -->  W2SS+  DN     UB          
      1.19977420E-04    3     -1000037         2        -1             # GLSS   -->  W2SS-  UP     DB          
      1.19977420E-04    3      1000037         3        -4             # GLSS   -->  W2SS+  ST     CB          
      1.19977420E-04    3     -1000037         4        -3             # GLSS   -->  W2SS-  CH     SB          
      8.77315935E-04    3      1000037         5        -6             # GLSS   -->  W2SS+  BT     TB          
      8.77315935E-04    3     -1000037         6        -5             # GLSS   -->  W2SS-  TP     BB          
      4.52427867E-06    2      1000022        21                       # GLSS   -->  Z1SS   GL                 
      2.07536829E-07    3      1000022         2        -2             # GLSS   -->  Z1SS   UP     UB          
      2.69971224E-07    3      1000022         1        -1             # GLSS   -->  Z1SS   DN     DB          
      2.69971224E-07    3      1000022         3        -3             # GLSS   -->  Z1SS   ST     SB          
      2.07536829E-07    3      1000022         4        -4             # GLSS   -->  Z1SS   CH     CB          
      9.80678597E-05    3      1000022         5        -5             # GLSS   -->  Z1SS   BT     BB          
      9.91231296E-04    3      1000022         6        -6             # GLSS   -->  Z1SS   TP     TB          
      4.68373582E-06    2      1000023        21                       # GLSS   -->  Z2SS   GL                 
      8.34321980E-08    3      1000023         2        -2             # GLSS   -->  Z2SS   UP     UB          
      1.10321601E-07    3      1000023         1        -1             # GLSS   -->  Z2SS   DN     DB          
      1.10321601E-07    3      1000023         3        -3             # GLSS   -->  Z2SS   ST     SB          
      8.34321980E-08    3      1000023         4        -4             # GLSS   -->  Z2SS   CH     CB          
      9.40423270E-05    3      1000023         5        -5             # GLSS   -->  Z2SS   BT     BB          
      1.02764450E-03    3      1000023         6        -6             # GLSS   -->  Z2SS   TP     TB          
      4.46569715E-07    2      1000025        21                       # GLSS   -->  Z3SS   GL                 
      5.58568645E-05    3      1000025         2        -2             # GLSS   -->  Z3SS   UP     UB          
      1.85412973E-05    3      1000025         1        -1             # GLSS   -->  Z3SS   DN     DB          
      1.85412973E-05    3      1000025         3        -3             # GLSS   -->  Z3SS   ST     SB          
      5.58568645E-05    3      1000025         4        -4             # GLSS   -->  Z3SS   CH     CB          
      3.88559383E-05    3      1000025         5        -5             # GLSS   -->  Z3SS   BT     BB          
      2.83060417E-05    3      1000025         6        -6             # GLSS   -->  Z3SS   TP     TB          
      1.49410706E-08    2      1000035        21                       # GLSS   -->  Z4SS   GL                 
      5.87000904E-05    3      1000035         2        -2             # GLSS   -->  Z4SS   UP     UB          
      5.89175324E-05    3      1000035         1        -1             # GLSS   -->  Z4SS   DN     DB          
      5.89175324E-05    3      1000035         3        -3             # GLSS   -->  Z4SS   ST     SB          
      5.87000904E-05    3      1000035         4        -4             # GLSS   -->  Z4SS   CH     CB          
      4.31222143E-04    3      1000035         5        -5             # GLSS   -->  Z4SS   BT     BB          
      4.32131259E-04    3      1000035         6        -6             # GLSS   -->  Z4SS   TP     TB          
      4.96008277E-01    2     -1000006         6                       # GLSS   -->  TB1    TP                 
      4.96008277E-01    2      1000006        -6                       # GLSS   -->  TP1    TB                 
#         PDG         Width
DECAY   1000002  1.46231476E+02   # UPL   decays
#          BR          NDA       ID1       ID2       ID3       ID4
      1.70176805E-04    2      1000022         2                       # UPL    -->  Z1SS   UP                 
      8.54555183E-05    2      1000023         2                       # UPL    -->  Z2SS   UP                 
      6.23706356E-03    2      1000025         2                       # UPL    -->  Z3SS   UP                 
      1.52171463E-01    2      1000035         2                       # UPL    -->  Z4SS   UP                 
      5.34305871E-01    2      1000021         2                       # UPL    -->  GLSS   UP                 
      1.56053703E-03    2      1000024         1                       # UPL    -->  W1SS+  DN                 
      3.05469453E-01    2      1000037         1                       # UPL    -->  W2SS+  DN                 
#         PDG         Width
DECAY   1000001  1.46232056E+02   # DNL   decays
#          BR          NDA       ID1       ID2       ID3       ID4
      3.83147650E-04    2      1000022         1                       # DNL    -->  Z1SS   DN                 
      1.78014830E-04    2      1000023         1                       # DNL    -->  Z2SS   DN                 
      5.23180608E-03    2      1000025         1                       # DNL    -->  Z3SS   DN                 
      1.52824908E-01    2      1000035         1                       # DNL    -->  Z4SS   DN                 
      5.34529209E-01    2      1000021         1                       # DNL    -->  GLSS   DN                 
      4.75269808E-05    2     -1000024         2                       # DNL    -->  W1SS-  UP                 
      3.06805372E-01    2     -1000037         2                       # DNL    -->  W2SS-  UP                 
#         PDG         Width
DECAY   1000003  1.46232056E+02   # STL   decays
#          BR          NDA       ID1       ID2       ID3       ID4
      3.83147650E-04    2      1000022         3                       # STL    -->  Z1SS   ST                 
      1.78014830E-04    2      1000023         3                       # STL    -->  Z2SS   ST                 
      5.23180608E-03    2      1000025         3                       # STL    -->  Z3SS   ST                 
      1.52824908E-01    2      1000035         3                       # STL    -->  Z4SS   ST                 
      5.34529209E-01    2      1000021         3                       # STL    -->  GLSS   ST                 
      4.75269771E-05    2     -1000024         4                       # STL    -->  W1SS-  CH                 
      3.06805372E-01    2     -1000037         4                       # STL    -->  W2SS-  CH                 
#         PDG         Width
DECAY   1000004  1.46231445E+02   # CHL   decays
#          BR          NDA       ID1       ID2       ID3       ID4
      1.70176805E-04    2      1000022         4                       # CHL    -->  Z1SS   CH                 
      8.54555256E-05    2      1000023         4                       # CHL    -->  Z2SS   CH                 
      6.23706356E-03    2      1000025         4                       # CHL    -->  Z3SS   CH                 
      1.52171463E-01    2      1000035         4                       # CHL    -->  Z4SS   CH                 
      5.34305751E-01    2      1000021         4                       # CHL    -->  GLSS   CH                 
      1.56053738E-03    2      1000024         3                       # CHL    -->  W1SS+  ST                 
      3.05469513E-01    2      1000037         3                       # CHL    -->  W2SS+  ST                 
#         PDG         Width
DECAY   1000005  1.85725449E+02   # BT1   decays
#          BR          NDA       ID1       ID2       ID3       ID4
      9.44262091E-03    2      1000022         5                       # BT1    -->  Z1SS   BT                 
      8.99863895E-03    2      1000023         5                       # BT1    -->  Z2SS   BT                 
      2.99810455E-03    2      1000025         5                       # BT1    -->  Z3SS   BT                 
      7.97141045E-02    2      1000035         5                       # BT1    -->  Z4SS   BT                 
      1.48041900E-02    2      1000021         5                       # BT1    -->  GLSS   BT                 
      3.11139226E-01    2     -1000024         6                       # BT1    -->  W1SS-  TP                 
      1.61804169E-01    2     -1000037         6                       # BT1    -->  W2SS-  TP                 
      4.10126001E-01    2          -24   1000006                       # BT1    -->  W-     TP1                
      9.72891343E-04    2          -37   1000006                       # BT1    -->  H-     TP1                
#         PDG         Width
DECAY   1000006  6.70779800E+01   # TP1   decays
#          BR          NDA       ID1       ID2       ID3       ID4
      2.28629753E-01    2      1000022         6                       # TP1    -->  Z1SS   TP                 
      2.37060890E-01    2      1000023         6                       # TP1    -->  Z2SS   TP                 
      6.53923377E-02    2      1000025         6                       # TP1    -->  Z3SS   TP                 
      2.41853049E-05    2      1000035         6                       # TP1    -->  Z4SS   TP                 
      4.68838423E-01    2      1000024         5                       # TP1    -->  W1SS+  BT                 
      5.44500836E-05    2      1000037         5                       # TP1    -->  W2SS+  BT                 
#         PDG         Width
DECAY   2000002  9.62077484E+01   # UPR   decays
#          BR          NDA       ID1       ID2       ID3       ID4
      2.62066256E-04    2      1000022         2                       # UPR    -->  Z1SS   UP                 
      1.03242259E-04    2      1000023         2                       # UPR    -->  Z2SS   UP                 
      1.40905008E-01    2      1000025         2                       # UPR    -->  Z3SS   UP                 
      4.10632811E-06    2      1000035         2                       # UPR    -->  Z4SS   UP                 
      8.58725607E-01    2      1000021         2                       # UPR    -->  GLSS   UP                 
#         PDG         Width
DECAY   2000001  7.37677612E+01   # DNR   decays
#          BR          NDA       ID1       ID2       ID3       ID4
      8.28153206E-05    2      1000022         1                       # DNR    -->  Z1SS   DN                 
      3.26253066E-05    2      1000023         1                       # DNR    -->  Z2SS   DN                 
      4.44108285E-02    2      1000025         1                       # DNR    -->  Z3SS   DN                 
      1.28468912E-06    2      1000035         1                       # DNR    -->  Z4SS   DN                 
      9.55472410E-01    2      1000021         1                       # DNR    -->  GLSS   DN                 
#         PDG         Width
DECAY   2000003  7.37677612E+01   # STR   decays
#          BR          NDA       ID1       ID2       ID3       ID4
      8.28153206E-05    2      1000022         3                       # STR    -->  Z1SS   ST                 
      3.26253066E-05    2      1000023         3                       # STR    -->  Z2SS   ST                 
      4.44108285E-02    2      1000025         3                       # STR    -->  Z3SS   ST                 
      1.28468912E-06    2      1000035         3                       # STR    -->  Z4SS   ST                 
      9.55472410E-01    2      1000021         3                       # STR    -->  GLSS   ST                 
#         PDG         Width
DECAY   2000004  9.62077103E+01   # CHR   decays
#          BR          NDA       ID1       ID2       ID3       ID4
      2.62066314E-04    2      1000022         4                       # CHR    -->  Z1SS   CH                 
      1.03242288E-04    2      1000023         4                       # CHR    -->  Z2SS   CH                 
      1.40905052E-01    2      1000025         4                       # CHR    -->  Z3SS   CH                 
      4.10632947E-06    2      1000035         4                       # CHR    -->  Z4SS   CH                 
      8.58725548E-01    2      1000021         4                       # CHR    -->  GLSS   CH                 
#         PDG         Width
DECAY   2000005  1.04228294E+02   # BT2   decays
#          BR          NDA       ID1       ID2       ID3       ID4
      2.07163747E-02    2      1000022         5                       # BT2    -->  Z1SS   BT                 
      2.00707130E-02    2      1000023         5                       # BT2    -->  Z2SS   BT                 
      3.03375591E-02    2      1000025         5                       # BT2    -->  Z3SS   BT                 
      1.25044289E-05    2      1000035         5                       # BT2    -->  Z4SS   BT                 
      5.61182559E-01    2      1000021         5                       # BT2    -->  GLSS   BT                 
      4.06483039E-02    2     -1000024         6                       # BT2    -->  W1SS-  TP                 
      2.15865566E-05    2     -1000037         6                       # BT2    -->  W2SS-  TP                 
      3.52816278E-05    2          -24   1000006                       # BT2    -->  W-     TP1                
      1.03354512E-03    2          -24   2000006                       # BT2    -->  W-     TP2                
      5.07028308E-04    2           23   1000005                       # BT2    -->  Z0     BT1                
      9.34050535E-04    2           25   1000005                       # BT2    -->  HL0    BT1                
      7.99981579E-02    2           36   1000005                       # BT2    -->  HA0    BT1                
      7.88492039E-02    2           35   1000005                       # BT2    -->  HH0    BT1                
      1.03599275E-03    2          -37   1000006                       # BT2    -->  H-     TP1                
      1.64617166E-01    2          -37   2000006                       # BT2    -->  H-     TP2                
#         PDG         Width
DECAY   2000006  2.01939697E+02   # TP2   decays
#          BR          NDA       ID1       ID2       ID3       ID4
      7.50341825E-03    2      1000021         6                       # TP2    -->  GLSS   TP                 
      1.65418684E-02    2      1000024         5                       # TP2    -->  W1SS+  BT                 
      1.47149131E-01    2      1000037         5                       # TP2    -->  W2SS+  BT                 
      1.86858132E-01    2           23   1000006                       # TP2    -->  Z0     TP1                
      2.79026777E-01    2           25   1000006                       # TP2    -->  HL0    TP1                
      4.74362430E-04    2           35   1000006                       # TP2    -->  HH0    TP1                
      4.47534549E-04    2           36   1000006                       # TP2    -->  HA0    TP1                
      1.39293849E-01    2      1000022         6                       # TP2    -->  Z1SS   TP                 
      1.44654587E-01    2      1000023         6                       # TP2    -->  Z2SS   TP                 
      4.43111220E-03    2      1000025         6                       # TP2    -->  Z3SS   TP                 
      7.36191794E-02    2      1000035         6                       # TP2    -->  Z4SS   TP                 
#         PDG         Width
DECAY   1000011  6.01011810E+01   # EL-   decays
#          BR          NDA       ID1       ID2       ID3       ID4
      8.78319479E-05    2      1000022        11                       # EL-    -->  Z1SS   E-                 
      5.47783093E-05    2      1000023        11                       # EL-    -->  Z2SS   E-                 
      1.07923970E-01    2      1000025        11                       # EL-    -->  Z3SS   E-                 
      2.94564754E-01    2      1000035        11                       # EL-    -->  Z4SS   E-                 
      9.82742640E-05    2     -1000024        12                       # EL-    -->  W1SS-  NUE                
      5.97270310E-01    2     -1000037        12                       # EL-    -->  W2SS-  NUE                
#         PDG         Width
DECAY   1000013  6.01011810E+01   # MUL-  decays
#          BR          NDA       ID1       ID2       ID3       ID4
      8.78319479E-05    2      1000022        13                       # MUL-   -->  Z1SS   MU-                
      5.47783093E-05    2      1000023        13                       # MUL-   -->  Z2SS   MU-                
      1.07923970E-01    2      1000025        13                       # MUL-   -->  Z3SS   MU-                
      2.94564754E-01    2      1000035        13                       # MUL-   -->  Z4SS   MU-                
      9.82742640E-05    2     -1000024        14                       # MUL-   -->  W1SS-  NUM                
      5.97270310E-01    2     -1000037        14                       # MUL-   -->  W2SS-  NUM                
#         PDG         Width
DECAY   1000015  2.62833595E+01   # TAU1- decays
#          BR          NDA       ID1       ID2       ID3       ID4
      4.38039079E-02    2      1000022        15                       # TAU1-  -->  Z1SS   TAU-               
      4.12268154E-02    2      1000023        15                       # TAU1-  -->  Z2SS   TAU-               
      8.32126677E-01    2      1000025        15                       # TAU1-  -->  Z3SS   TAU-               
      3.01196724E-05    2      1000035        15                       # TAU1-  -->  Z4SS   TAU-               
      8.27933922E-02    2     -1000024        16                       # TAU1-  -->  W1SS-  NUT                
      1.90650317E-05    2     -1000037        16                       # TAU1-  -->  W2SS-  NUT                
#         PDG         Width
DECAY   1000012  6.01617622E+01   # NUEL  decays
#          BR          NDA       ID1       ID2       ID3       ID4
      1.40846078E-03    2      1000022        12                       # NUEL   -->  Z1SS   NUE                
      6.28706010E-04    2      1000023        12                       # NUEL   -->  Z2SS   NUE                
      1.01757146E-01    2      1000025        12                       # NUEL   -->  Z3SS   NUE                
      2.98270464E-01    2      1000035        12                       # NUEL   -->  Z4SS   NUE                
      3.22598801E-03    2      1000024        11                       # NUEL   -->  W1SS+  E-                 
      5.94709218E-01    2      1000037        11                       # NUEL   -->  W2SS+  E-                 
#         PDG         Width
DECAY   1000014  6.01617622E+01   # NUML  decays
#          BR          NDA       ID1       ID2       ID3       ID4
      1.40846078E-03    2      1000022        14                       # NUML   -->  Z1SS   NUM                
      6.28706010E-04    2      1000023        14                       # NUML   -->  Z2SS   NUM                
      1.01757146E-01    2      1000025        14                       # NUML   -->  Z3SS   NUM                
      2.98270464E-01    2      1000035        14                       # NUML   -->  Z4SS   NUM                
      3.22598801E-03    2      1000024        13                       # NUML   -->  W1SS+  MU-                
      5.94709218E-01    2      1000037        13                       # NUML   -->  W2SS+  MU-                
#         PDG         Width
DECAY   1000016  6.14294853E+01   # NUTL  decays
#          BR          NDA       ID1       ID2       ID3       ID4
      1.35993923E-03    2      1000022        16                       # NUTL   -->  Z1SS   NUT                
      6.07044785E-04    2      1000023        16                       # NUTL   -->  Z2SS   NUT                
      9.80882198E-02    2      1000025        16                       # NUTL   -->  Z3SS   NUT                
      2.86121994E-01    2      1000035        16                       # NUTL   -->  Z4SS   NUT                
      4.27010506E-02    2      1000024        15                       # NUTL   -->  W1SS+  TAU-               
      5.70588410E-01    2      1000037        15                       # NUTL   -->  W2SS+  TAU-               
      5.33383107E-04    2           24   1000015                       # NUTL   -->  W+     TAU1-              
#         PDG         Width
DECAY   2000011  2.28483772E+01   # ER-   decays
#          BR          NDA       ID1       ID2       ID3       ID4
      1.90806400E-03    2      1000022        11                       # ER-    -->  Z1SS   E-                 
      7.51645362E-04    2      1000023        11                       # ER-    -->  Z2SS   E-                 
      9.97313499E-01    2      1000025        11                       # ER-    -->  Z3SS   E-                 
      2.67756168E-05    2      1000035        11                       # ER-    -->  Z4SS   E-                 
#         PDG         Width
DECAY   2000013  2.28483772E+01   # MUR-  decays
#          BR          NDA       ID1       ID2       ID3       ID4
      1.90806400E-03    2      1000022        13                       # MUR-   -->  Z1SS   MU-                
      7.51645362E-04    2      1000023        13                       # MUR-   -->  Z2SS   MU-                
      9.97313499E-01    2      1000025        13                       # MUR-   -->  Z3SS   MU-                
      2.67756168E-05    2      1000035        13                       # MUR-   -->  Z4SS   MU-                
#         PDG         Width
DECAY   2000015  6.13220901E+01   # TAU2- decays
#          BR          NDA       ID1       ID2       ID3       ID4
      2.01469772E-02    2      1000022        15                       # TAU2-  -->  Z1SS   TAU-               
      1.95831787E-02    2      1000023        15                       # TAU2-  -->  Z2SS   TAU-               
      1.04094319E-01    2      1000025        15                       # TAU2-  -->  Z3SS   TAU-               
      2.82621294E-01    2      1000035        15                       # TAU2-  -->  Z4SS   TAU-               
      7.02709804E-05    2     -1000024        16                       # TAU2-  -->  W1SS-  NUT                
      5.73145390E-01    2     -1000037        16                       # TAU2-  -->  W2SS-  NUT                
      2.60411529E-04    2           23   1000015                       # TAU2-  -->  Z0     TAU1-              
      7.81596536E-05    2           25   1000015                       # TAU2-  -->  HL0    TAU1-              
#         PDG         Width
DECAY   1000023  4.96360197E-09   # Z2SS  decays
#          BR          NDA       ID1       ID2       ID3       ID4
      8.12872350E-02    2      1000022        22                       # Z2SS   -->  Z1SS   GM                 
      1.31327197E-01    3      1000022         2        -2             # Z2SS   -->  Z1SS   UP     UB          
      1.69347197E-01    3      1000022         1        -1             # Z2SS   -->  Z1SS   DN     DB          
      1.69347197E-01    3      1000022         3        -3             # Z2SS   -->  Z1SS   ST     SB          
      1.31327197E-01    3      1000022         4        -4             # Z2SS   -->  Z1SS   CH     CB          
      3.84163186E-02    3      1000022        11       -11             # Z2SS   -->  Z1SS   E-     E+          
      3.84163186E-02    3      1000022        13       -13             # Z2SS   -->  Z1SS   MU-    MU+         
      1.12217311E-02    3      1000022        15       -15             # Z2SS   -->  Z1SS   TAU-   TAU+        
      7.64365047E-02    3      1000022        12       -12             # Z2SS   -->  Z1SS   NUE    ANUE        
      7.64365047E-02    3      1000022        14       -14             # Z2SS   -->  Z1SS   NUM    ANUM        
      7.64365047E-02    3      1000022        16       -16             # Z2SS   -->  Z1SS   NUT    ANUT        
#         PDG         Width
DECAY   1000025  2.13113332E+00   # Z3SS  decays
#          BR          NDA       ID1       ID2       ID3       ID4
      1.08047608E-07    2      1000022        22                       # Z3SS   -->  Z1SS   GM                 
      1.03432768E-07    2      1000023        22                       # Z3SS   -->  Z2SS   GM                 
      2.50304252E-01    2      1000024       -24                       # Z3SS   -->  W1SS+  W-                 
      2.50304252E-01    2     -1000024        24                       # Z3SS   -->  W1SS-  W+                 
      6.71433583E-02    2      1000022        23                       # Z3SS   -->  Z1SS   Z0                 
      1.79867968E-01    2      1000023        23                       # Z3SS   -->  Z2SS   Z0                 
      1.41230888E-10    3      1000022         2        -2             # Z3SS   -->  Z1SS   UP     UB          
      2.70603678E-11    3      1000022         1        -1             # Z3SS   -->  Z1SS   DN     DB          
      2.70603678E-11    3      1000022         3        -3             # Z3SS   -->  Z1SS   ST     SB          
      1.41230888E-10    3      1000022         4        -4             # Z3SS   -->  Z1SS   CH     CB          
      1.50864198E-05    3      1000022         5        -5             # Z3SS   -->  Z1SS   BT     BB          
      6.56089683E-10    3      1000022        11       -11             # Z3SS   -->  Z1SS   E-     E+          
      6.56089683E-10    3      1000022        13       -13             # Z3SS   -->  Z1SS   MU-    MU+         
      3.33553112E-06    3      1000022        15       -15             # Z3SS   -->  Z1SS   TAU-   TAU+        
      1.92803593E-10    3      1000022        12       -12             # Z3SS   -->  Z1SS   NUE    ANUE        
      1.92803593E-10    3      1000022        14       -14             # Z3SS   -->  Z1SS   NUM    ANUM        
      2.04177578E-10    3      1000022        16       -16             # Z3SS   -->  Z1SS   NUT    ANUT        
      3.24610894E-11    3      1000023         2        -2             # Z3SS   -->  Z2SS   UP     UB          
      6.82594736E-12    3      1000023         1        -1             # Z3SS   -->  Z2SS   DN     DB          
      6.82594736E-12    3      1000023         3        -3             # Z3SS   -->  Z2SS   ST     SB          
      3.24610894E-11    3      1000023         4        -4             # Z3SS   -->  Z2SS   CH     CB          
      1.45824251E-05    3      1000023         5        -5             # Z3SS   -->  Z2SS   BT     BB          
      1.50043408E-10    3      1000023        11       -11             # Z3SS   -->  Z2SS   E-     E+          
      1.50043408E-10    3      1000023        13       -13             # Z3SS   -->  Z2SS   MU-    MU+         
      3.22295500E-06    3      1000023        15       -15             # Z3SS   -->  Z2SS   TAU-   TAU+        
      4.93661986E-11    3      1000023        12       -12             # Z3SS   -->  Z2SS   NUE    ANUE        
      4.93661986E-11    3      1000023        14       -14             # Z3SS   -->  Z2SS   NUM    ANUM        
      5.22839480E-11    3      1000023        16       -16             # Z3SS   -->  Z2SS   NUT    ANUT        
      1.81914672E-01    2      1000022        25                       # Z3SS   -->  Z1SS   HL0                
      7.04289526E-02    2      1000023        25                       # Z3SS   -->  Z2SS   HL0                
#         PDG         Width
DECAY   1000035  1.95745220E+01   # Z4SS  decays
#          BR          NDA       ID1       ID2       ID3       ID4
      7.34146738E-07    2      1000022        22                       # Z4SS   -->  Z1SS   GM                 
      1.14735190E-06    2      1000023        22                       # Z4SS   -->  Z2SS   GM                 
      4.27134372E-09    2      1000025        22                       # Z4SS   -->  Z3SS   GM                 
      1.76846594E-01    2      1000024       -24                       # Z4SS   -->  W1SS+  W-                 
      1.76846594E-01    2     -1000024        24                       # Z4SS   -->  W1SS-  W+                 
      7.12365732E-02    2      1000024       -37                       # Z4SS   -->  W1SS+  H-                 
      7.12365732E-02    2     -1000024        37                       # Z4SS   -->  W1SS-  H+                 
      2.68928716E-07    3     -1000037         2        -1             # Z4SS   -->  W2SS-  UP     DB          
      8.96429100E-08    3     -1000037        12       -11             # Z4SS   -->  W2SS-  NUE    E+          
      8.96429100E-08    3     -1000037        14       -13             # Z4SS   -->  W2SS-  NUM    MU+         
      2.68928716E-07    3      1000037         1        -2             # Z4SS   -->  W2SS+  DN     UB          
      8.96429100E-08    3      1000037        11       -12             # Z4SS   -->  W2SS+  E-     ANUE        
      8.96429100E-08    3      1000037        13       -14             # Z4SS   -->  W2SS+  MU-    ANUM        
      2.68928716E-07    3     -1000037         4        -3             # Z4SS   -->  W2SS-  CH     SB          
      8.96429100E-08    3     -1000037        16       -15             # Z4SS   -->  W2SS-  NUT    TAU+        
      2.68928716E-07    3      1000037         3        -4             # Z4SS   -->  W2SS+  ST     CB          
      8.96429100E-08    3      1000037        15       -16             # Z4SS   -->  W2SS+  TAU-   ANUT        
      5.42641766E-02    2      1000022        23                       # Z4SS   -->  Z1SS   Z0                 
      1.21923804E-01    2      1000023        23                       # Z4SS   -->  Z2SS   Z0                 
      1.39463518E-04    2      1000025        23                       # Z4SS   -->  Z3SS   Z0                 
      7.37266637E-10    3      1000022         2        -2             # Z4SS   -->  Z1SS   UP     UB          
      1.66614211E-09    3      1000022         1        -1             # Z4SS   -->  Z1SS   DN     DB          
      1.66614211E-09    3      1000022         3        -3             # Z4SS   -->  Z1SS   ST     SB          
      7.37266637E-10    3      1000022         4        -4             # Z4SS   -->  Z1SS   CH     CB          
      1.97184050E-07    3      1000022         5        -5             # Z4SS   -->  Z1SS   BT     BB          
      1.19670954E-10    3      1000022        11       -11             # Z4SS   -->  Z1SS   E-     E+          
      1.19670954E-10    3      1000022        13       -13             # Z4SS   -->  Z1SS   MU-    MU+         
      2.59998743E-08    3      1000022        15       -15             # Z4SS   -->  Z1SS   TAU-   TAU+        
      1.93745620E-09    3      1000022        12       -12             # Z4SS   -->  Z1SS   NUE    ANUE        
      1.93745620E-09    3      1000022        14       -14             # Z4SS   -->  Z1SS   NUM    ANUM        
      2.05543182E-09    3      1000022        16       -16             # Z4SS   -->  Z1SS   NUT    ANUT        
      2.67020489E-10    3      1000023         2        -2             # Z4SS   -->  Z2SS   UP     UB          
      5.58320223E-10    3      1000023         1        -1             # Z4SS   -->  Z2SS   DN     DB          
      5.58320223E-10    3      1000023         3        -3             # Z4SS   -->  Z2SS   ST     SB          
      2.67020489E-10    3      1000023         4        -4             # Z4SS   -->  Z2SS   CH     CB          
      1.86490652E-07    3      1000023         5        -5             # Z4SS   -->  Z2SS   BT     BB          
      5.39667477E-11    3      1000023        11       -11             # Z4SS   -->  Z2SS   E-     E+          
      5.39667477E-11    3      1000023        13       -13             # Z4SS   -->  Z2SS   MU-    MU+         
      2.50206771E-08    3      1000023        15       -15             # Z4SS   -->  Z2SS   TAU-   TAU+        
      6.25450358E-10    3      1000023        12       -12             # Z4SS   -->  Z2SS   NUE    ANUE        
      6.25450358E-10    3      1000023        14       -14             # Z4SS   -->  Z2SS   NUM    ANUM        
      6.63722910E-10    3      1000023        16       -16             # Z4SS   -->  Z2SS   NUT    ANUT        
      4.86378449E-09    3      1000025         2        -2             # Z4SS   -->  Z3SS   UP     UB          
      4.09422451E-09    3      1000025         1        -1             # Z4SS   -->  Z3SS   DN     DB          
      4.09422451E-09    3      1000025         3        -3             # Z4SS   -->  Z3SS   ST     SB          
      4.86378449E-09    3      1000025         4        -4             # Z4SS   -->  Z3SS   CH     CB          
      2.17213163E-08    3      1000025         5        -5             # Z4SS   -->  Z3SS   BT     BB          
      2.72225442E-08    3      1000025        11       -11             # Z4SS   -->  Z3SS   E-     E+          
      2.72225442E-08    3      1000025        13       -13             # Z4SS   -->  Z3SS   MU-    MU+         
      3.06713730E-08    3      1000025        15       -15             # Z4SS   -->  Z3SS   TAU-   TAU+        
      2.59175099E-08    3      1000025        12       -12             # Z4SS   -->  Z3SS   NUE    ANUE        
      2.59175099E-08    3      1000025        14       -14             # Z4SS   -->  Z3SS   NUM    ANUM        
      2.75320726E-08    3      1000025        16       -16             # Z4SS   -->  Z3SS   NUT    ANUT        
      1.17325194E-01    2      1000022        25                       # Z4SS   -->  Z1SS   HL0                
      4.18303423E-02    2      1000022        35                       # Z4SS   -->  Z1SS   HH0                
      3.15062366E-02    2      1000022        36                       # Z4SS   -->  Z1SS   HA0                
      6.40264302E-02    2      1000023        25                       # Z4SS   -->  Z2SS   HL0                
      2.98040342E-02    2      1000023        35                       # Z4SS   -->  Z2SS   HH0                
      4.13477011E-02    2      1000023        36                       # Z4SS   -->  Z2SS   HA0                
      1.66186143E-03    2      1000025        25                       # Z4SS   -->  Z3SS   HL0                
#         PDG         Width
DECAY   1000024  5.58395854E-08   # W1SS+ decays
#          BR          NDA       ID1       ID2       ID3       ID4
      3.31560791E-01    3      1000022         2        -1             # W1SS+  -->  Z1SS   UP     DB          
      3.31560791E-01    3      1000022         4        -3             # W1SS+  -->  Z1SS   CH     SB          
      1.10520326E-01    3      1000022       -11        12             # W1SS+  -->  Z1SS   E+     NUE         
      1.10520326E-01    3      1000022       -13        14             # W1SS+  -->  Z1SS   MU+    NUM         
      1.10522225E-01    3      1000022       -15        16             # W1SS+  -->  Z1SS   TAU+   NUT         
      1.77188229E-03    3      1000023         2        -1             # W1SS+  -->  Z2SS   UP     DB          
      1.77188229E-03    3      1000023         4        -3             # W1SS+  -->  Z2SS   CH     SB          
      5.90627780E-04    3      1000023       -11        12             # W1SS+  -->  Z2SS   E+     NUE         
      5.90627780E-04    3      1000023       -13        14             # W1SS+  -->  Z2SS   MU+    NUM         
      5.90637093E-04    3      1000023       -15        16             # W1SS+  -->  Z2SS   TAU+   NUT         
#         PDG         Width
DECAY   1000037  1.88942070E+01   # W2SS+ decays
#          BR          NDA       ID1       ID2       ID3       ID4
      1.72752301E-09    3      1000022         2        -1             # W2SS+  -->  Z1SS   UP     DB          
      1.72752301E-09    3      1000022         4        -3             # W2SS+  -->  Z1SS   CH     SB          
      1.59237656E-09    3      1000022       -11        12             # W2SS+  -->  Z1SS   E+     NUE         
      1.59237656E-09    3      1000022       -13        14             # W2SS+  -->  Z1SS   MU+    NUM         
      2.72755685E-08    3      1000022       -15        16             # W2SS+  -->  Z1SS   TAU+   NUT         
      1.73282117E-01    2      1000022        24                       # W2SS+  -->  Z1SS   W+                 
      7.30109960E-02    2      1000022        37                       # W2SS+  -->  Z1SS   H+                 
      1.10585541E-09    3      1000023         2        -1             # W2SS+  -->  Z2SS   UP     DB          
      1.10585541E-09    3      1000023         4        -3             # W2SS+  -->  Z2SS   CH     SB          
      8.51410442E-10    3      1000023       -11        12             # W2SS+  -->  Z2SS   E+     NUE         
      8.51410442E-10    3      1000023       -13        14             # W2SS+  -->  Z2SS   MU+    NUM         
      2.56167318E-08    3      1000023       -15        16             # W2SS+  -->  Z2SS   TAU+   NUT         
      1.71055198E-01    2      1000023        24                       # W2SS+  -->  Z2SS   W+                 
      7.03584030E-02    2      1000023        37                       # W2SS+  -->  Z2SS   H+                 
      8.27903790E-09    3      1000025         2        -1             # W2SS+  -->  Z3SS   UP     DB          
      8.27903790E-09    3      1000025         4        -3             # W2SS+  -->  Z3SS   CH     SB          
      4.91437930E-08    3      1000025       -11        12             # W2SS+  -->  Z3SS   E+     NUE         
      4.91437930E-08    3      1000025       -13        14             # W2SS+  -->  Z3SS   MU+    NUM         
      5.36874758E-08    3      1000025       -15        16             # W2SS+  -->  Z3SS   TAU+   NUT         
      5.46530914E-03    2      1000025        24                       # W2SS+  -->  Z3SS   W+                 
      1.77020177E-01    2      1000024        23                       # W2SS+  -->  W1SS+  Z0                 
      5.65208103E-09    3      1000024         1        -1             # W2SS+  -->  W1SS+  DN     DB          
      5.65208103E-09    3      1000024         3        -3             # W2SS+  -->  W1SS+  ST     SB          
      1.72797665E-10    3      1000024         2        -2             # W2SS+  -->  W1SS+  UP     UB          
      1.72797665E-10    3      1000024         4        -4             # W2SS+  -->  W1SS+  CH     CB          
      1.12901674E-10    3      1000024        12       -12             # W2SS+  -->  W1SS+  NUE    ANUE        
      1.12901674E-10    3      1000024        14       -14             # W2SS+  -->  W1SS+  NUM    ANUM        
      1.90719177E-10    3      1000024        16       -16             # W2SS+  -->  W1SS+  NUT    ANUT        
      3.68133790E-09    3      1000024        11       -11             # W2SS+  -->  W1SS+  E-     E+          
      3.68133790E-09    3      1000024        13       -13             # W2SS+  -->  W1SS+  MU-    MU+         
      3.90572819E-09    3      1000024        15       -15             # W2SS+  -->  W1SS+  TAU-   TAU+        
      1.87550619E-01    2      1000024        25                       # W2SS+  -->  W1SS+  HL0                
      7.05112293E-02    2      1000024        35                       # W2SS+  -->  W1SS+  HH0                
      7.17456192E-02    2      1000024        36                       # W2SS+  -->  W1SS+  HA0                
#         PDG         Width
DECAY        25  3.94782471E-03   # HL0   decays
#          BR          NDA       ID1       ID2       ID3       ID4
      5.64833691E-09    2           11       -11                       # HL0    -->  E-     E+                 
      2.38481967E-04    2           13       -13                       # HL0    -->  MU-    MU+                
      6.82226792E-02    2           15       -15                       # HL0    -->  TAU-   TAU+               
      7.08026346E-06    2            1        -1                       # HL0    -->  DN     DB                 
      2.86078174E-03    2            3        -3                       # HL0    -->  ST     SB                 
      6.12957537E-01    2            5        -5                       # HL0    -->  BT     BB                 
      2.16174953E-06    2            2        -2                       # HL0    -->  UP     UB                 
      4.01684344E-02    2            4        -4                       # HL0    -->  CH     CB                 
      2.66309013E-03    2           22        22                       # HL0    -->  GM     GM                 
      5.28115965E-02    2           21        21                       # HL0    -->  GL     GL                 
      1.09953452E-02    3           24        11       -12             # HL0    -->  W+     E-     ANUE        
      1.09953452E-02    3           24        13       -14             # HL0    -->  W+     MU-    ANUM        
      1.09953452E-02    3           24        15       -16             # HL0    -->  W+     TAU-   ANUT        
      3.29860337E-02    3           24        -2         1             # HL0    -->  W+     UB     DN          
      3.29860337E-02    3           24        -4         3             # HL0    -->  W+     CB     ST          
      1.09953452E-02    3          -24       -11        12             # HL0    -->  W-     E+     NUE         
      1.09953452E-02    3          -24       -13        14             # HL0    -->  W-     MU+    NUM         
      1.09953452E-02    3          -24       -15        16             # HL0    -->  W-     TAU+   NUT         
      3.29860337E-02    3          -24         2        -1             # HL0    -->  W-     UP     DB          
      3.29860337E-02    3          -24         4        -3             # HL0    -->  W-     CH     SB          
      1.51494832E-03    3           23        12       -12             # HL0    -->  Z0     NUE    ANUE        
      1.51494832E-03    3           23        14       -14             # HL0    -->  Z0     NUM    ANUM        
      1.51494832E-03    3           23        16       -16             # HL0    -->  Z0     NUT    ANUT        
      7.62458250E-04    3           23        11       -11             # HL0    -->  Z0     E-     E+          
      7.62458250E-04    3           23        13       -13             # HL0    -->  Z0     MU-    MU+         
      7.62458250E-04    3           23        15       -15             # HL0    -->  Z0     TAU-   TAU+        
      2.61211721E-03    3           23         2        -2             # HL0    -->  Z0     UP     UB          
      2.61211721E-03    3           23         4        -4             # HL0    -->  Z0     CH     CB          
      3.36505054E-03    3           23         1        -1             # HL0    -->  Z0     DN     DB          
      3.36505054E-03    3           23         3        -3             # HL0    -->  Z0     ST     SB          
      3.36505054E-03    3           23         5        -5             # HL0    -->  Z0     BT     BB          
#         PDG         Width
DECAY        35  3.58214378E+00   # HH0   decays
#          BR          NDA       ID1       ID2       ID3       ID4
      1.07430189E-08    2           11       -11                       # HH0    -->  E-     E+                 
      4.53589571E-04    2           13       -13                       # HH0    -->  MU-    MU+                
      1.29912600E-01    2           15       -15                       # HH0    -->  TAU-   TAU+               
      1.31602465E-05    2            1        -1                       # HH0    -->  DN     DB                 
      5.31740533E-03    2            3        -3                       # HH0    -->  ST     SB                 
      7.92757809E-01    2            5        -5                       # HH0    -->  BT     BB                 
      8.71677036E-11    2            2        -2                       # HH0    -->  UP     UB                 
      1.22758195E-06    2            4        -4                       # HH0    -->  CH     CB                 
      5.59993722E-02    2            6        -6                       # HH0    -->  TP     TB                 
      2.15789598E-07    2           22        22                       # HH0    -->  GM     GM                 
      2.53916787E-05    2           21        21                       # HH0    -->  GL     GL                 
      2.20732007E-04    2           24       -24                       # HH0    -->  W+     W-                 
      1.12069203E-04    2           23        23                       # HH0    -->  Z0     Z0                 
      3.45377601E-03    2      1000022   1000022                       # HH0    -->  Z1SS   Z1SS               
      3.99842742E-04    2      1000022   1000023                       # HH0    -->  Z1SS   Z2SS               
      1.93779415E-03    2      1000023   1000023                       # HH0    -->  Z2SS   Z2SS               
      8.57959129E-03    2      1000024  -1000024                       # HH0    -->  W1SS+  W1SS-              
      8.15523264E-04    2           25        25                       # HH0    -->  HL0    HL0                
#         PDG         Width
DECAY        36  3.57659960E+00   # HA0   decays
#          BR          NDA       ID1       ID2       ID3       ID4
      1.06906697E-08    2           11       -11                       # HA0    -->  E-     E+                 
      4.51379339E-04    2           13       -13                       # HA0    -->  MU-    MU+                
      1.29281163E-01    2           15       -15                       # HA0    -->  TAU-   TAU+               
      1.30968401E-05    2            1        -1                       # HA0    -->  DN     DB                 
      5.29178651E-03    2            3        -3                       # HA0    -->  ST     SB                 
      7.88973689E-01    2            5        -5                       # HA0    -->  BT     BB                 
      8.27767577E-11    2            2        -2                       # HA0    -->  UP     UB                 
      1.16666183E-06    2            4        -4                       # HA0    -->  CH     CB                 
      5.91138899E-02    2            6        -6                       # HA0    -->  TP     TB                 
      2.65283944E-07    2           22        22                       # HA0    -->  GM     GM                 
      7.95536762E-05    2           21        21                       # HA0    -->  GL     GL                 
      4.92523890E-03    2      1000022   1000022                       # HA0    -->  Z1SS   Z1SS               
      8.25974130E-05    2      1000022   1000023                       # HA0    -->  Z1SS   Z2SS               
      1.62344147E-03    2      1000023   1000023                       # HA0    -->  Z2SS   Z2SS               
      9.95086879E-03    2      1000024  -1000024                       # HA0    -->  W1SS+  W1SS-              
      2.11934777E-04    2           25        23                       # HA0    -->  HL0    Z0                 
#         PDG         Width
DECAY        37  3.12160397E+00   # H+    decays
#          BR          NDA       ID1       ID2       ID3       ID4
      1.22884574E-08    2           12       -11                       # H+     -->  NUE    E+                 
      5.18840854E-04    2           14       -13                       # H+     -->  NUM    MU+                
      1.48603052E-01    2           16       -15                       # H+     -->  NUT    TAU+               
      1.38372570E-05    2            2        -1                       # H+     -->  UP     DB                 
      5.59212780E-03    2            4        -3                       # H+     -->  CH     SB                 
      8.44293356E-01    2            6        -5                       # H+     -->  TP     BB                 
      2.95423160E-05    2      1000024   1000022                       # H+     -->  W1SS+  Z1SS               
      7.05719751E-04    2      1000024   1000023                       # H+     -->  W1SS+  Z2SS               
      2.43518589E-04    2           25        24                       # H+     -->  HL0    W+                 
