#  ISAJET SUSY parameters in SUSY Les Houches Accord 2 format
#  Created by ISALHA 2.0 Last revision: H Baer 27 May 2014
Block SPINFO   # Program information
     1   ISASUGRA/ISASUSY from ISAJET   # Spectrum Calculator
     2   7.87   18-JUL-2017 13:55:55    # Version number
Block MODSEL   # Model selection
     1    13   # Non-universal supergravity model                  
Block SMINPUTS   # Standard Model inputs
     1     1.28000000E+02   # alpha_em^(-1)
     2     1.16570000E-05   # G_Fermi
     3     1.19999997E-01   # alpha_s(M_Z)
     4     9.11699982E+01   # m_{Z}(pole)
     5     4.19999981E+00   # m_{b}(m_{b})
     6     1.72500000E+02   # m_{top}(pole)
     7     1.77699995E+00   # m_{tau}(pole)
Block MINPAR   # SUSY breaking input parameters
     1     5.00000000E+03   # m_0
     2     2.00000000E+03   # m_{1/2}
     3     1.50000000E+01   # tan(beta)
     4     1.00000000E+00   # sign(mu)
     5    -8.00000000E+03   # A_0
Block EXTPAR   # Non-universal SUSY breaking parameters
     0     1.36870633E+16   # Input scale
    21     1.81111563E+06   # Down type Higgs mass squared
    22     4.78336400E+07   #  Up  type Higgs mass squared
Block MASS   # Scalar and gaugino mass spectrum
#  PDG code   mass                 particle
         6     1.72500000E+02   #  top            
        24     8.04229965E+01   #  W^+
        25     1.25239517E+02   #  h^0            
        35     1.00666760E+03   #  H^0            
        36     1.00000000E+03   #  A^0            
        37     1.00322870E+03   #  H^+            
   1000001     6.19516895E+03   #  dnl            
   1000002     6.19464746E+03   #  upl            
   1000003     6.19516895E+03   #  stl            
   1000004     6.19464746E+03   #  chl            
   1000005     4.66044824E+03   #  b1             
   1000006     2.53685352E+03   #  t1             
   1000011     5.26792383E+03   #  el-            
   1000012     5.27144971E+03   #  nuel           
   1000013     5.26792383E+03   #  mul-           
   1000014     5.27144971E+03   #  numl           
   1000015     4.65061865E+03   #  tau1           
   1000016     5.19729346E+03   #  nutl           
   1000021     4.40702881E+03   #  glss           
   1000022     2.02898819E+02   #  z1ss           
   1000023    -2.08604996E+02   #  z2ss           
   1000024     2.13050171E+02   #  w1ss           
   1000025     8.97599609E+02   #  z3ss           
   1000035     1.68865320E+03   #  z4ss           
   1000037     1.66895752E+03   #  w2ss           
   1000039     1.00000002E+20   #  gvss
   2000001     6.07289697E+03   #  dnr            
   2000002     6.26516455E+03   #  upr            
   2000003     6.07289697E+03   #  str            
   2000004     6.26516455E+03   #  chr            
   2000005     5.87737207E+03   #  b2             
   2000006     4.64504004E+03   #  t2             
   2000011     4.81958691E+03   #  er-            
   2000013     4.81958691E+03   #  mur-           
   2000015     5.19189502E+03   #  tau2           
Block ALPHA   # Effective Higgs mixing parameter
         -6.81367069E-02   # alpha
Block STOPMIX   # stop mixing matrix
  1  1     5.76784573E-02   # O_{11}
  1  2     9.98335183E-01   # O_{12}
  2  1    -9.98335183E-01   # O_{21}
  2  2     5.76784573E-02   # O_{22}
Block SBOTMIX   # sbottom mixing matrix
  1  1     9.99991894E-01   # O_{11}
  1  2     4.02932055E-03   # O_{12}
  2  1    -4.02932055E-03   # O_{21}
  2  2     9.99991894E-01   # O_{22}
Block STAUMIX   # stau mixing matrix
  1  1     7.08510121E-03   # O_{11}
  1  2     9.99974906E-01   # O_{12}
  2  1    -9.99974906E-01   # O_{21}
  2  2     7.08510121E-03   # O_{22}
Block NMIX   # neutralino mixing matrix
  1  1     4.53287289E-02   #
  1  2    -3.99595872E-02   #
  1  3     7.11215258E-01   #
  1  4    -7.00372219E-01   #
  2  1    -2.52126120E-02   #
  2  2     2.59724725E-02   #
  2  3     7.02749610E-01   #
  2  4     7.10515916E-01   #
  3  1     9.98637676E-01   #
  3  2     8.18378665E-03   #
  3  3    -1.44812455E-02   #
  3  4     4.94603328E-02   #
  4  1     5.71316946E-03   #
  4  2    -9.98829901E-01   #
  4  3    -1.02982670E-02   #
  4  4     4.68998887E-02   #
Block UMIX   # chargino U mixing matrix
  1  1    -1.37767326E-02   # U_{11}
  1  2     9.99905109E-01   # U_{12}
  2  1    -9.99905109E-01   # U_{21}
  2  2    -1.37767326E-02   # U_{22}
Block VMIX   # chargino V mixing matrix
  1  1    -6.67058751E-02   # V_{11}
  1  2     9.97772694E-01   # V_{12}
  2  1    -9.97772694E-01   # V_{21}
  2  2    -6.67058751E-02   # V_{22}
Block GAUGE Q=  3.38952051E+03   #
     1     3.57525080E-01   # g`
     2     6.52379155E-01   # g_2
     3     1.21928203E+00   # g_3
Block YU Q=  3.38952051E+03   #
  3  3     8.11242521E-01   # y_t
Block YD Q=  3.38952051E+03   #
  3  3     1.85984746E-01   # y_b
Block YE Q=  3.38952051E+03   #
  3  3     1.49805591E-01   # y_tau
Block HMIX Q=  3.38952051E+03   # Higgs mixing parameters
     1     2.00000000E+02   # mu(Q)
     2     1.43057346E+01   # tan(beta)(Q)
     3     2.52426636E+02   # Higgs vev at Q
     4     1.00000000E+06   # m_A^2(Q)
Block MSOFT Q=  3.38952051E+03   # DRbar SUSY breaking parameters
     1     8.95619568E+02   # M_1(Q)          
     2     1.61658813E+03   # M_2(Q)          
     3     4.05666406E+03   # M_3(Q)          
    21     9.40576563E+05   # MHd^2(Q)        
    22    -3.62298398E+04   # MHu^2(Q)        
    31     5.24900928E+03   # MeL(Q)          
    32     5.24900928E+03   # MmuL(Q)         
    33     5.17687500E+03   # MtauL(Q)        
    34     4.81575098E+03   # MeR(Q)          
    35     4.81575098E+03   # MmuR(Q)         
    36     4.64981787E+03   # MtauR(Q)        
    41     6.00000635E+03   # MqL1(Q)         
    42     6.00000635E+03   # MqL2(Q)         
    43     4.52482373E+03   # MqL3(Q)         
    44     6.07119141E+03   # MuR(Q)          
    45     6.07119141E+03   # McR(Q)          
    46     2.53907129E+03   # MtR(Q)          
    47     5.87650439E+03   # MdR(Q)          
    48     5.87650439E+03   # MsR(Q)          
    49     5.77578906E+03   # MbR(Q)          
Block AU Q=  3.38952051E+03   #
  1  1    -6.24026074E+03   # A_u
  2  2    -6.24026074E+03   # A_c
  3  3    -6.24026074E+03   # A_t
Block AD Q=  3.38952051E+03   #
  1  1    -1.12778779E+04   # A_d
  2  2    -1.12778779E+04   # A_s
  3  3    -1.12778779E+04   # A_b
Block AE Q=  3.38952051E+03   #
  1  1    -8.76351563E+03   # A_e
  2  2    -8.76351563E+03   # A_mu
  3  3    -8.76351563E+03   # A_tau
#  ISAJET decay tables in SUSY Les Houches accord format
#  Created by ISALHD. Last revision: C. Balazs, 2005 May 25
Block DCINFO                           # Program information
     1   ISASUGRA from ISAJET          # Spectrum Calculator
     2   7.87   18-JUL-2017 13:55:55   # Version number
#         PDG         Width
DECAY         6  1.46776152E+00   # TP    decays
#          BR          NDA       ID1       ID2       ID3       ID4
      3.33333313E-01    3            2        -1         5             # TP     -->  UP     DB     BT          
      3.33333313E-01    3            4        -3         5             # TP     -->  CH     SB     BT          
      1.11111097E-01    3          -11        12         5             # TP     -->  E+     NUE    BT          
      1.11111097E-01    3          -13        14         5             # TP     -->  MU+    NUM    BT          
      1.11111097E-01    3          -15        16         5             # TP     -->  TAU+   NUT    BT          
#         PDG         Width
DECAY   1000021  3.90691681E+01   # GLSS  decays
#          BR          NDA       ID1       ID2       ID3       ID4
      5.02892703E-07    3      1000024         1        -2             # GLSS   -->  W1SS+  DN     UB          
      5.02892703E-07    3     -1000024         2        -1             # GLSS   -->  W1SS-  UP     DB          
      5.02892703E-07    3      1000024         3        -4             # GLSS   -->  W1SS+  ST     CB          
      5.02892703E-07    3     -1000024         4        -3             # GLSS   -->  W1SS-  CH     SB          
      1.09888229E-03    3      1000024         5        -6             # GLSS   -->  W1SS+  BT     TB          
      1.09888229E-03    3     -1000024         6        -5             # GLSS   -->  W1SS-  TP     BB          
      1.19937024E-04    3      1000037         1        -2             # GLSS   -->  W2SS+  DN     UB          
      1.19937024E-04    3     -1000037         2        -1             # GLSS   -->  W2SS-  UP     DB          
      1.19937024E-04    3      1000037         3        -4             # GLSS   -->  W2SS+  ST     CB          
      1.19937024E-04    3     -1000037         4        -3             # GLSS   -->  W2SS-  CH     SB          
      8.76195612E-04    3      1000037         5        -6             # GLSS   -->  W2SS+  BT     TB          
      8.76195612E-04    3     -1000037         6        -5             # GLSS   -->  W2SS-  TP     BB          
      4.53478651E-06    2      1000022        21                       # GLSS   -->  Z1SS   GL                 
      2.30712175E-07    3      1000022         2        -2             # GLSS   -->  Z1SS   UP     UB          
      2.97717747E-07    3      1000022         1        -1             # GLSS   -->  Z1SS   DN     DB          
      2.97717747E-07    3      1000022         3        -3             # GLSS   -->  Z1SS   ST     SB          
      2.30712175E-07    3      1000022         4        -4             # GLSS   -->  Z1SS   CH     CB          
      9.73041460E-05    3      1000022         5        -5             # GLSS   -->  Z1SS   BT     BB          
      9.89966909E-04    3      1000022         6        -6             # GLSS   -->  Z1SS   TP     TB          
      4.66034453E-06    2      1000023        21                       # GLSS   -->  Z2SS   GL                 
      7.58241967E-08    3      1000023         2        -2             # GLSS   -->  Z2SS   UP     UB          
      1.00507762E-07    3      1000023         1        -1             # GLSS   -->  Z2SS   DN     DB          
      1.00507762E-07    3      1000023         3        -3             # GLSS   -->  Z2SS   ST     SB          
      7.58241967E-08    3      1000023         4        -4             # GLSS   -->  Z2SS   CH     CB          
      9.39057063E-05    3      1000023         5        -5             # GLSS   -->  Z2SS   BT     BB          
      1.01770216E-03    3      1000023         6        -6             # GLSS   -->  Z2SS   TP     TB          
      4.40986184E-07    2      1000025        21                       # GLSS   -->  Z3SS   GL                 
      5.58688153E-05    3      1000025         2        -2             # GLSS   -->  Z3SS   UP     UB          
      1.85350837E-05    3      1000025         1        -1             # GLSS   -->  Z3SS   DN     DB          
      1.85350837E-05    3      1000025         3        -3             # GLSS   -->  Z3SS   ST     SB          
      5.58688153E-05    3      1000025         4        -4             # GLSS   -->  Z3SS   CH     CB          
      3.88104600E-05    3      1000025         5        -5             # GLSS   -->  Z3SS   BT     BB          
      2.85353472E-05    3      1000025         6        -6             # GLSS   -->  Z3SS   TP     TB          
      1.52028097E-08    2      1000035        21                       # GLSS   -->  Z4SS   GL                 
      5.86790338E-05    3      1000035         2        -2             # GLSS   -->  Z4SS   UP     UB          
      5.88971998E-05    3      1000035         1        -1             # GLSS   -->  Z4SS   DN     DB          
      5.88971998E-05    3      1000035         3        -3             # GLSS   -->  Z4SS   ST     SB          
      5.86790338E-05    3      1000035         4        -4             # GLSS   -->  Z4SS   CH     CB          
      4.30599815E-04    3      1000035         5        -5             # GLSS   -->  Z4SS   BT     BB          
      4.31650435E-04    3      1000035         6        -6             # GLSS   -->  Z4SS   TP     TB          
      4.96022314E-01    2     -1000006         6                       # GLSS   -->  TB1    TP                 
      4.96022314E-01    2      1000006        -6                       # GLSS   -->  TP1    TB                 
#         PDG         Width
DECAY   1000002  1.46237045E+02   # UPL   decays
#          BR          NDA       ID1       ID2       ID3       ID4
      1.78289149E-04    2      1000022         2                       # UPL    -->  Z1SS   UP                 
      8.11180653E-05    2      1000023         2                       # UPL    -->  Z2SS   UP                 
      6.24380168E-03    2      1000025         2                       # UPL    -->  Z3SS   UP                 
      1.52115956E-01    2      1000035         2                       # UPL    -->  Z4SS   UP                 
      5.34438491E-01    2      1000021         2                       # UPL    -->  GLSS   UP                 
      1.58307469E-03    2      1000024         1                       # UPL    -->  W1SS+  DN                 
      3.05359244E-01    2      1000037         1                       # UPL    -->  W2SS+  DN                 
#         PDG         Width
DECAY   1000001  1.46237778E+02   # DNL   decays
#          BR          NDA       ID1       ID2       ID3       ID4
      4.14498005E-04    2      1000022         1                       # DNL    -->  Z1SS   DN                 
      1.66503989E-04    2      1000023         1                       # DNL    -->  Z2SS   DN                 
      5.22071123E-03    2      1000025         1                       # DNL    -->  Z3SS   DN                 
      1.52771130E-01    2      1000035         1                       # DNL    -->  Z4SS   DN                 
      5.34661412E-01    2      1000021         1                       # DNL    -->  GLSS   DN                 
      6.75305419E-05    2     -1000024         2                       # DNL    -->  W1SS-  UP                 
      3.06698203E-01    2     -1000037         2                       # DNL    -->  W2SS-  UP                 
#         PDG         Width
DECAY   1000003  1.46237762E+02   # STL   decays
#          BR          NDA       ID1       ID2       ID3       ID4
      4.14498063E-04    2      1000022         3                       # STL    -->  Z1SS   ST                 
      1.66504004E-04    2      1000023         3                       # STL    -->  Z2SS   ST                 
      5.22071170E-03    2      1000025         3                       # STL    -->  Z3SS   ST                 
      1.52771145E-01    2      1000035         3                       # STL    -->  Z4SS   ST                 
      5.34661472E-01    2      1000021         3                       # STL    -->  GLSS   ST                 
      6.75305419E-05    2     -1000024         4                       # STL    -->  W1SS-  CH                 
      3.06698203E-01    2     -1000037         4                       # STL    -->  W2SS-  CH                 
#         PDG         Width
DECAY   1000004  1.46237000E+02   # CHL   decays
#          BR          NDA       ID1       ID2       ID3       ID4
      1.78289178E-04    2      1000022         4                       # CHL    -->  Z1SS   CH                 
      8.11180798E-05    2      1000023         4                       # CHL    -->  Z2SS   CH                 
      6.24380214E-03    2      1000025         4                       # CHL    -->  Z3SS   CH                 
      1.52115971E-01    2      1000035         4                       # CHL    -->  Z4SS   CH                 
      5.34438431E-01    2      1000021         4                       # CHL    -->  GLSS   CH                 
      1.58307527E-03    2      1000024         3                       # CHL    -->  W1SS+  ST                 
      3.05359334E-01    2      1000037         3                       # CHL    -->  W2SS+  ST                 
#         PDG         Width
DECAY   1000005  1.85577362E+02   # BT1   decays
#          BR          NDA       ID1       ID2       ID3       ID4
      9.41471197E-03    2      1000022         5                       # BT1    -->  Z1SS   BT                 
      9.02342517E-03    2      1000023         5                       # BT1    -->  Z2SS   BT                 
      2.99506867E-03    2      1000025         5                       # BT1    -->  Z3SS   BT                 
      7.97529891E-02    2      1000035         5                       # BT1    -->  Z4SS   BT                 
      1.49054639E-02    2      1000021         5                       # BT1    -->  GLSS   BT                 
      3.10806423E-01    2     -1000024         6                       # BT1    -->  W1SS-  TP                 
      1.61905318E-01    2     -1000037         6                       # BT1    -->  W2SS-  TP                 
      4.10555124E-01    2          -24   1000006                       # BT1    -->  W-     TP1                
      6.41546620E-04    2          -37   1000006                       # BT1    -->  H-     TP1                
#         PDG         Width
DECAY   1000006  6.67286377E+01   # TP1   decays
#          BR          NDA       ID1       ID2       ID3       ID4
      2.29456306E-01    2      1000022         6                       # TP1    -->  Z1SS   TP                 
      2.36104205E-01    2      1000023         6                       # TP1    -->  Z2SS   TP                 
      6.57703876E-02    2      1000025         6                       # TP1    -->  Z3SS   TP                 
      2.57317843E-05    2      1000035         6                       # TP1    -->  Z4SS   TP                 
      4.68585789E-01    2      1000024         5                       # TP1    -->  W1SS+  BT                 
      5.76070670E-05    2      1000037         5                       # TP1    -->  W2SS+  BT                 
#         PDG         Width
DECAY   2000002  9.62203827E+01   # UPR   decays
#          BR          NDA       ID1       ID2       ID3       ID4
      3.01798660E-04    2      1000022         2                       # UPR    -->  Z1SS   UP                 
      9.33585106E-05    2      1000023         2                       # UPR    -->  Z2SS   UP                 
      1.40826225E-01    2      1000025         2                       # UPR    -->  Z3SS   UP                 
      4.13167618E-06    2      1000035         2                       # UPR    -->  Z4SS   UP                 
      8.58774483E-01    2      1000021         2                       # UPR    -->  GLSS   UP                 
#         PDG         Width
DECAY   2000001  7.37958984E+01   # DNR   decays
#          BR          NDA       ID1       ID2       ID3       ID4
      9.53447816E-05    2      1000022         1                       # DNR    -->  Z1SS   DN                 
      2.94937636E-05    2      1000023         1                       # DNR    -->  Z2SS   DN                 
      4.43762168E-02    2      1000025         1                       # DNR    -->  Z3SS   DN                 
      1.29234013E-06    2      1000035         1                       # DNR    -->  Z4SS   DN                 
      9.55497682E-01    2      1000021         1                       # DNR    -->  GLSS   DN                 
#         PDG         Width
DECAY   2000003  7.37958984E+01   # STR   decays
#          BR          NDA       ID1       ID2       ID3       ID4
      9.53447816E-05    2      1000022         3                       # STR    -->  Z1SS   ST                 
      2.94937636E-05    2      1000023         3                       # STR    -->  Z2SS   ST                 
      4.43762168E-02    2      1000025         3                       # STR    -->  Z3SS   ST                 
      1.29234013E-06    2      1000035         3                       # STR    -->  Z4SS   ST                 
      9.55497682E-01    2      1000021         3                       # STR    -->  GLSS   ST                 
#         PDG         Width
DECAY   2000004  9.62203369E+01   # CHR   decays
#          BR          NDA       ID1       ID2       ID3       ID4
      3.01798776E-04    2      1000022         4                       # CHR    -->  Z1SS   CH                 
      9.33585470E-05    2      1000023         4                       # CHR    -->  Z2SS   CH                 
      1.40826285E-01    2      1000025         4                       # CHR    -->  Z3SS   CH                 
      4.13167754E-06    2      1000035         4                       # CHR    -->  Z4SS   CH                 
      8.58774483E-01    2      1000021         4                       # CHR    -->  GLSS   CH                 
#         PDG         Width
DECAY   2000005  1.04202713E+02   # BT2   decays
#          BR          NDA       ID1       ID2       ID3       ID4
      2.06160098E-02    2      1000022         5                       # BT2    -->  Z1SS   BT                 
      2.01396439E-02    2      1000023         5                       # BT2    -->  Z2SS   BT                 
      3.03373262E-02    2      1000025         5                       # BT2    -->  Z3SS   BT                 
      1.46533948E-05    2      1000035         5                       # BT2    -->  Z4SS   BT                 
      5.61613858E-01    2      1000021         5                       # BT2    -->  GLSS   BT                 
      4.06106114E-02    2     -1000024         6                       # BT2    -->  W1SS-  TP                 
      2.61474270E-05    2     -1000037         6                       # BT2    -->  W2SS-  TP                 
      3.68604742E-05    2          -24   1000006                       # BT2    -->  W-     TP1                
      1.07832672E-03    2          -24   2000006                       # BT2    -->  W-     TP2                
      5.29020152E-04    2           23   1000005                       # BT2    -->  Z0     BT1                
      1.03789789E-03    2           25   1000005                       # BT2    -->  HL0    BT1                
      7.98653439E-02    2           36   1000005                       # BT2    -->  HA0    BT1                
      7.87148327E-02    2           35   1000005                       # BT2    -->  HH0    BT1                
      1.03815179E-03    2          -37   1000006                       # BT2    -->  H-     TP1                
      1.64341256E-01    2          -37   2000006                       # BT2    -->  H-     TP2                
#         PDG         Width
DECAY   2000006  2.01792740E+02   # TP2   decays
#          BR          NDA       ID1       ID2       ID3       ID4
      7.58962007E-03    2      1000021         6                       # TP2    -->  GLSS   TP                 
      1.65241696E-02    2      1000024         5                       # TP2    -->  W1SS+  BT                 
      1.47222117E-01    2      1000037         5                       # TP2    -->  W2SS+  BT                 
      1.87043458E-01    2           23   1000006                       # TP2    -->  Z0     TP1                
      2.79255211E-01    2           25   1000006                       # TP2    -->  HL0    TP1                
      3.17744474E-04    2           35   1000006                       # TP2    -->  HH0    TP1                
      2.94883881E-04    2           36   1000006                       # TP2    -->  HA0    TP1                
      1.39665365E-01    2      1000022         6                       # TP2    -->  Z1SS   TP                 
      1.43937871E-01    2      1000023         6                       # TP2    -->  Z2SS   TP                 
      4.48289374E-03    2      1000025         6                       # TP2    -->  Z3SS   TP                 
      7.36666024E-02    2      1000035         6                       # TP2    -->  Z4SS   TP                 
#         PDG         Width
DECAY   1000011  6.00877914E+01   # EL-   decays
#          BR          NDA       ID1       ID2       ID3       ID4
      8.32944424E-05    2      1000022        11                       # EL-    -->  Z1SS   E-                 
      5.39952453E-05    2      1000023        11                       # EL-    -->  Z2SS   E-                 
      1.07962355E-01    2      1000025        11                       # EL-    -->  Z3SS   E-                 
      2.94534266E-01    2      1000035        11                       # EL-    -->  Z4SS   E-                 
      1.39625903E-04    2     -1000024        12                       # EL-    -->  W1SS-  NUE                
      5.97226441E-01    2     -1000037        12                       # EL-    -->  W2SS-  NUE                
#         PDG         Width
DECAY   1000013  6.00877914E+01   # MUL-  decays
#          BR          NDA       ID1       ID2       ID3       ID4
      8.32944424E-05    2      1000022        13                       # MUL-   -->  Z1SS   MU-                
      5.39952453E-05    2      1000023        13                       # MUL-   -->  Z2SS   MU-                
      1.07962355E-01    2      1000025        13                       # MUL-   -->  Z3SS   MU-                
      2.94534266E-01    2      1000035        13                       # MUL-   -->  Z4SS   MU-                
      1.39625903E-04    2     -1000024        14                       # MUL-   -->  W1SS-  NUM                
      5.97226441E-01    2     -1000037        14                       # MUL-   -->  W2SS-  NUM                
#         PDG         Width
DECAY   1000015  2.62780857E+01   # TAU1- decays
#          BR          NDA       ID1       ID2       ID3       ID4
      4.38537598E-02    2      1000022        15                       # TAU1-  -->  Z1SS   TAU-               
      4.13220190E-02    2      1000023        15                       # TAU1-  -->  Z2SS   TAU-               
      8.32026422E-01    2      1000025        15                       # TAU1-  -->  Z3SS   TAU-               
      2.93056910E-05    2      1000035        15                       # TAU1-  -->  Z4SS   TAU-               
      8.27518627E-02    2     -1000024        16                       # TAU1-  -->  W1SS-  NUT                
      1.66043719E-05    2     -1000037        16                       # TAU1-  -->  W2SS-  NUT                
#         PDG         Width
DECAY   1000012  6.01482697E+01   # NUEL  decays
#          BR          NDA       ID1       ID2       ID3       ID4
      1.54796836E-03    2      1000022        12                       # NUEL   -->  Z1SS   NUE                
      5.83411718E-04    2      1000023        12                       # NUEL   -->  Z2SS   NUE                
      1.01685099E-01    2      1000025        12                       # NUEL   -->  Z3SS   NUE                
      2.98252255E-01    2      1000035        12                       # NUEL   -->  Z4SS   NUE                
      3.27233109E-03    2      1000024        11                       # NUEL   -->  W1SS+  E-                 
      5.94658911E-01    2      1000037        11                       # NUEL   -->  W2SS+  E-                 
#         PDG         Width
DECAY   1000014  6.01482697E+01   # NUML  decays
#          BR          NDA       ID1       ID2       ID3       ID4
      1.54796836E-03    2      1000022        14                       # NUML   -->  Z1SS   NUM                
      5.83411718E-04    2      1000023        14                       # NUML   -->  Z2SS   NUM                
      1.01685099E-01    2      1000025        14                       # NUML   -->  Z3SS   NUM                
      2.98252255E-01    2      1000035        14                       # NUML   -->  Z4SS   NUM                
      3.27233109E-03    2      1000024        13                       # NUML   -->  W1SS+  MU-                
      5.94658911E-01    2      1000037        13                       # NUML   -->  W2SS+  MU-                
#         PDG         Width
DECAY   1000016  6.14160767E+01   # NUTL  decays
#          BR          NDA       ID1       ID2       ID3       ID4
      1.49455969E-03    2      1000022        16                       # NUTL   -->  Z1SS   NUT                
      5.63279958E-04    2      1000023        16                       # NUTL   -->  Z2SS   NUT                
      9.80166495E-02    2      1000025        16                       # NUTL   -->  Z3SS   NUT                
      2.86096603E-01    2      1000035        16                       # NUTL   -->  Z4SS   NUT                
      4.27302867E-02    2      1000024        15                       # NUTL   -->  W1SS+  TAU-               
      5.70526600E-01    2      1000037        15                       # NUTL   -->  W2SS+  TAU-               
      5.72074729E-04    2           24   1000015                       # NUTL   -->  W+     TAU1-              
#         PDG         Width
DECAY   2000011  2.28467770E+01   # ER-   decays
#          BR          NDA       ID1       ID2       ID3       ID4
      2.19679717E-03    2      1000022        11                       # ER-    -->  Z1SS   E-                 
      6.79501798E-04    2      1000023        11                       # ER-    -->  Z2SS   E-                 
      9.97096777E-01    2      1000025        11                       # ER-    -->  Z3SS   E-                 
      2.69509092E-05    2      1000035        11                       # ER-    -->  Z4SS   E-                 
#         PDG         Width
DECAY   2000013  2.28467770E+01   # MUR-  decays
#          BR          NDA       ID1       ID2       ID3       ID4
      2.19679717E-03    2      1000022        13                       # MUR-   -->  Z1SS   MU-                
      6.79501798E-04    2      1000023        13                       # MUR-   -->  Z2SS   MU-                
      9.97096777E-01    2      1000025        13                       # MUR-   -->  Z3SS   MU-                
      2.69509092E-05    2      1000035        13                       # MUR-   -->  Z4SS   MU-                
#         PDG         Width
DECAY   2000015  6.13082352E+01   # TAU2- decays
#          BR          NDA       ID1       ID2       ID3       ID4
      2.00435296E-02    2      1000022        15                       # TAU2-  -->  Z1SS   TAU-               
      1.96621642E-02    2      1000023        15                       # TAU2-  -->  Z2SS   TAU-               
      1.04136877E-01    2      1000025        15                       # TAU2-  -->  Z3SS   TAU-               
      2.82589138E-01    2      1000035        15                       # TAU2-  -->  Z4SS   TAU-               
      1.04094062E-04    2     -1000024        16                       # TAU2-  -->  W1SS-  NUT                
      5.73096037E-01    2     -1000037        16                       # TAU2-  -->  W2SS-  NUT                
      2.79293774E-04    2           23   1000015                       # TAU2-  -->  Z0     TAU1-              
      8.88634459E-05    2           25   1000015                       # TAU2-  -->  HL0    TAU1-              
#         PDG         Width
DECAY   1000023  5.55629498E-09   # Z2SS  decays
#          BR          NDA       ID1       ID2       ID3       ID4
      7.60271847E-02    2      1000022        22                       # Z2SS   -->  Z1SS   GM                 
      1.31980047E-01    3      1000022         2        -2             # Z2SS   -->  Z1SS   UP     UB          
      1.70189008E-01    3      1000022         1        -1             # Z2SS   -->  Z1SS   DN     DB          
      1.70189008E-01    3      1000022         3        -3             # Z2SS   -->  Z1SS   ST     SB          
      1.31980047E-01    3      1000022         4        -4             # Z2SS   -->  Z1SS   CH     CB          
      3.86072807E-02    3      1000022        11       -11             # Z2SS   -->  Z1SS   E-     E+          
      3.86072807E-02    3      1000022        13       -13             # Z2SS   -->  Z1SS   MU-    MU+         
      1.19707696E-02    3      1000022        15       -15             # Z2SS   -->  Z1SS   TAU-   TAU+        
      7.68164694E-02    3      1000022        12       -12             # Z2SS   -->  Z1SS   NUE    ANUE        
      7.68164694E-02    3      1000022        14       -14             # Z2SS   -->  Z1SS   NUM    ANUM        
      7.68164843E-02    3      1000022        16       -16             # Z2SS   -->  Z1SS   NUT    ANUT        
#         PDG         Width
DECAY   1000025  2.14410853E+00   # Z3SS  decays
#          BR          NDA       ID1       ID2       ID3       ID4
      1.01296720E-07    2      1000022        22                       # Z3SS   -->  Z1SS   GM                 
      9.38074081E-08    2      1000023        22                       # Z3SS   -->  Z2SS   GM                 
      2.49687225E-01    2      1000024       -24                       # Z3SS   -->  W1SS+  W-                 
      2.49687225E-01    2     -1000024        24                       # Z3SS   -->  W1SS-  W+                 
      5.71376681E-02    2      1000022        23                       # Z3SS   -->  Z1SS   Z0                 
      1.90199941E-01    2      1000023        23                       # Z3SS   -->  Z2SS   Z0                 
      1.43596884E-10    3      1000022         2        -2             # Z3SS   -->  Z1SS   UP     UB          
      2.65478733E-11    3      1000022         1        -1             # Z3SS   -->  Z1SS   DN     DB          
      2.65478733E-11    3      1000022         3        -3             # Z3SS   -->  Z1SS   ST     SB          
      1.43596884E-10    3      1000022         4        -4             # Z3SS   -->  Z1SS   CH     CB          
      1.13364285E-05    3      1000022         5        -5             # Z3SS   -->  Z1SS   BT     BB          
      6.68645916E-10    3      1000022        11       -11             # Z3SS   -->  Z1SS   E-     E+          
      6.68645916E-10    3      1000022        13       -13             # Z3SS   -->  Z1SS   MU-    MU+         
      2.51362349E-06    3      1000022        15       -15             # Z3SS   -->  Z1SS   TAU-   TAU+        
      1.88102880E-10    3      1000022        12       -12             # Z3SS   -->  Z1SS   NUE    ANUE        
      1.88102880E-10    3      1000022        14       -14             # Z3SS   -->  Z1SS   NUM    ANUM        
      1.99215006E-10    3      1000022        16       -16             # Z3SS   -->  Z1SS   NUT    ANUT        
      2.31905311E-11    3      1000023         2        -2             # Z3SS   -->  Z2SS   UP     UB          
      4.96476688E-12    3      1000023         1        -1             # Z3SS   -->  Z2SS   DN     DB          
      4.96476688E-12    3      1000023         3        -3             # Z3SS   -->  Z2SS   ST     SB          
      2.31905311E-11    3      1000023         4        -4             # Z3SS   -->  Z2SS   CH     CB          
      1.10537540E-05    3      1000023         5        -5             # Z3SS   -->  Z2SS   BT     BB          
      1.07030947E-10    3      1000023        11       -11             # Z3SS   -->  Z2SS   E-     E+          
      1.07030947E-10    3      1000023        13       -13             # Z3SS   -->  Z2SS   MU-    MU+         
      2.44963417E-06    3      1000023        15       -15             # Z3SS   -->  Z2SS   TAU-   TAU+        
      3.60231150E-11    3      1000023        12       -12             # Z3SS   -->  Z2SS   NUE    ANUE        
      3.60231150E-11    3      1000023        14       -14             # Z3SS   -->  Z2SS   NUM    ANUM        
      3.81555169E-11    3      1000023        16       -16             # Z3SS   -->  Z2SS   NUT    ANUT        
      1.94657281E-01    2      1000022        25                       # Z3SS   -->  Z1SS   HL0                
      5.86031042E-02    2      1000023        25                       # Z3SS   -->  Z2SS   HL0                
#         PDG         Width
DECAY   1000035  1.95390835E+01   # Z4SS  decays
#          BR          NDA       ID1       ID2       ID3       ID4
      7.20668993E-07    2      1000022        22                       # Z4SS   -->  Z1SS   GM                 
      1.13931833E-06    2      1000023        22                       # Z4SS   -->  Z2SS   GM                 
      4.39558923E-09    2      1000025        22                       # Z4SS   -->  Z3SS   GM                 
      1.78225413E-01    2      1000024       -24                       # Z4SS   -->  W1SS+  W-                 
      1.78225413E-01    2     -1000024        24                       # Z4SS   -->  W1SS-  W+                 
      6.95983842E-02    2      1000024       -37                       # Z4SS   -->  W1SS+  H-                 
      6.95983842E-02    2     -1000024        37                       # Z4SS   -->  W1SS-  H+                 
      2.66818574E-07    3     -1000037         2        -1             # Z4SS   -->  W2SS-  UP     DB          
      8.89395295E-08    3     -1000037        12       -11             # Z4SS   -->  W2SS-  NUE    E+          
      8.89395295E-08    3     -1000037        14       -13             # Z4SS   -->  W2SS-  NUM    MU+         
      2.66818574E-07    3      1000037         1        -2             # Z4SS   -->  W2SS+  DN     UB          
      8.89395295E-08    3      1000037        11       -12             # Z4SS   -->  W2SS+  E-     ANUE        
      8.89395295E-08    3      1000037        13       -14             # Z4SS   -->  W2SS+  MU-    ANUM        
      2.66818574E-07    3     -1000037         4        -3             # Z4SS   -->  W2SS-  CH     SB          
      8.89395295E-08    3     -1000037        16       -15             # Z4SS   -->  W2SS-  NUT    TAU+        
      2.66818574E-07    3      1000037         3        -4             # Z4SS   -->  W2SS+  ST     CB          
      8.89395295E-08    3      1000037        15       -16             # Z4SS   -->  W2SS+  TAU-   ANUT        
      5.07782698E-02    2      1000022        23                       # Z4SS   -->  Z1SS   Z0                 
      1.27356544E-01    2      1000023        23                       # Z4SS   -->  Z2SS   Z0                 
      1.43891622E-04    2      1000025        23                       # Z4SS   -->  Z3SS   Z0                 
      7.67713060E-10    3      1000022         2        -2             # Z4SS   -->  Z1SS   UP     UB          
      1.79152904E-09    3      1000022         1        -1             # Z4SS   -->  Z1SS   DN     DB          
      1.79152904E-09    3      1000022         3        -3             # Z4SS   -->  Z1SS   ST     SB          
      7.67713060E-10    3      1000022         4        -4             # Z4SS   -->  Z1SS   CH     CB          
      1.88822071E-07    3      1000022         5        -5             # Z4SS   -->  Z1SS   BT     BB          
      1.12817915E-10    3      1000022        11       -11             # Z4SS   -->  Z1SS   E-     E+          
      1.12817915E-10    3      1000022        13       -13             # Z4SS   -->  Z1SS   MU-    MU+         
      2.48163712E-08    3      1000022        15       -15             # Z4SS   -->  Z1SS   TAU-   TAU+        
      2.11661511E-09    3      1000022        12       -12             # Z4SS   -->  Z1SS   NUE    ANUE        
      2.11661511E-09    3      1000022        14       -14             # Z4SS   -->  Z1SS   NUM    ANUM        
      2.24565677E-09    3      1000022        16       -16             # Z4SS   -->  Z1SS   NUT    ANUT        
      2.30641506E-10    3      1000023         2        -2             # Z4SS   -->  Z2SS   UP     UB          
      4.75197048E-10    3      1000023         1        -1             # Z4SS   -->  Z2SS   DN     DB          
      4.75197048E-10    3      1000023         3        -3             # Z4SS   -->  Z2SS   ST     SB          
      2.30641506E-10    3      1000023         4        -4             # Z4SS   -->  Z2SS   CH     CB          
      1.79068962E-07    3      1000023         5        -5             # Z4SS   -->  Z2SS   BT     BB          
      4.84333545E-11    3      1000023        11       -11             # Z4SS   -->  Z2SS   E-     E+          
      4.84333545E-11    3      1000023        13       -13             # Z4SS   -->  Z2SS   MU-    MU+         
      2.40644482E-08    3      1000023        15       -15             # Z4SS   -->  Z2SS   TAU-   TAU+        
      5.28467603E-10    3      1000023        12       -12             # Z4SS   -->  Z2SS   NUE    ANUE        
      5.28467603E-10    3      1000023        14       -14             # Z4SS   -->  Z2SS   NUM    ANUM        
      5.60877067E-10    3      1000023        16       -16             # Z4SS   -->  Z2SS   NUT    ANUT        
      4.87488050E-09    3      1000025         2        -2             # Z4SS   -->  Z3SS   UP     UB          
      4.09050127E-09    3      1000025         1        -1             # Z4SS   -->  Z3SS   DN     DB          
      4.09050127E-09    3      1000025         3        -3             # Z4SS   -->  Z3SS   ST     SB          
      4.87488050E-09    3      1000025         4        -4             # Z4SS   -->  Z3SS   CH     CB          
      2.73979950E-08    3      1000025         5        -5             # Z4SS   -->  Z3SS   BT     BB          
      2.72520477E-08    3      1000025        11       -11             # Z4SS   -->  Z3SS   E-     E+          
      2.72520477E-08    3      1000025        13       -13             # Z4SS   -->  Z3SS   MU-    MU+         
      3.19306359E-08    3      1000025        15       -15             # Z4SS   -->  Z3SS   TAU-   TAU+        
      2.59190518E-08    3      1000025        12       -12             # Z4SS   -->  Z3SS   NUE    ANUE        
      2.59190518E-08    3      1000025        14       -14             # Z4SS   -->  Z3SS   NUM    ANUM        
      2.75350889E-08    3      1000025        16       -16             # Z4SS   -->  Z3SS   NUT    ANUT        
      1.23769499E-01    2      1000022        25                       # Z4SS   -->  Z1SS   HL0                
      4.40928563E-02    2      1000022        35                       # Z4SS   -->  Z1SS   HH0                
      2.72977091E-02    2      1000022        36                       # Z4SS   -->  Z1SS   HA0                
      5.92429824E-02    2      1000023        25                       # Z4SS   -->  Z2SS   HL0                
      2.59307306E-02    2      1000023        35                       # Z4SS   -->  Z2SS   HH0                
      4.39911410E-02    2      1000023        36                       # Z4SS   -->  Z2SS   HA0                
      1.74464670E-03    2      1000025        25                       # Z4SS   -->  Z3SS   HL0                
#         PDG         Width
DECAY   1000024  1.33263640E-07   # W1SS+ decays
#          BR          NDA       ID1       ID2       ID3       ID4
      3.27885121E-01    3      1000022         2        -1             # W1SS+  -->  Z1SS   UP     DB          
      3.27885121E-01    3      1000022         4        -3             # W1SS+  -->  Z1SS   CH     SB          
      1.09295093E-01    3      1000022       -11        12             # W1SS+  -->  Z1SS   E+     NUE         
      1.09295093E-01    3      1000022       -13        14             # W1SS+  -->  Z1SS   MU+    NUM         
      1.09296970E-01    3      1000022       -15        16             # W1SS+  -->  Z1SS   TAU+   NUT         
      5.44756046E-03    3      1000023         2        -1             # W1SS+  -->  Z2SS   UP     DB          
      5.44756046E-03    3      1000023         4        -3             # W1SS+  -->  Z2SS   CH     SB          
      1.81585422E-03    3      1000023       -11        12             # W1SS+  -->  Z2SS   E+     NUE         
      1.81585422E-03    3      1000023       -13        14             # W1SS+  -->  Z2SS   MU+    NUM         
      1.81588344E-03    3      1000023       -15        16             # W1SS+  -->  Z2SS   TAU+   NUT         
#         PDG         Width
DECAY   1000037  1.88633842E+01   # W2SS+ decays
#          BR          NDA       ID1       ID2       ID3       ID4
      1.69381287E-09    3      1000022         2        -1             # W2SS+  -->  Z1SS   UP     DB          
      1.69381287E-09    3      1000022         4        -3             # W2SS+  -->  Z1SS   CH     SB          
      1.63801772E-09    3      1000022       -11        12             # W2SS+  -->  Z1SS   E+     NUE         
      1.63801772E-09    3      1000022       -13        14             # W2SS+  -->  Z1SS   MU+    NUM         
      2.61295217E-08    3      1000022       -15        16             # W2SS+  -->  Z1SS   TAU+   NUT         
      1.74350575E-01    2      1000022        24                       # W2SS+  -->  Z1SS   W+                 
      7.10398033E-02    2      1000022        37                       # W2SS+  -->  Z1SS   H+                 
      1.02821607E-09    3      1000023         2        -1             # W2SS+  -->  Z2SS   UP     DB          
      1.02821607E-09    3      1000023         4        -3             # W2SS+  -->  Z2SS   CH     SB          
      7.77398701E-10    3      1000023       -11        12             # W2SS+  -->  Z2SS   E+     NUE         
      7.77398701E-10    3      1000023       -13        14             # W2SS+  -->  Z2SS   MU+    NUM         
      2.45730671E-08    3      1000023       -15        16             # W2SS+  -->  Z2SS   TAU+   NUT         
      1.73443332E-01    2      1000023        24                       # W2SS+  -->  Z2SS   W+                 
      6.90066367E-02    2      1000023        37                       # W2SS+  -->  Z2SS   H+                 
      8.28385627E-09    3      1000025         2        -1             # W2SS+  -->  Z3SS   UP     DB          
      8.28385627E-09    3      1000025         4        -3             # W2SS+  -->  Z3SS   CH     SB          
      4.91627752E-08    3      1000025       -11        12             # W2SS+  -->  Z3SS   E+     NUE         
      4.91627752E-08    3      1000025       -13        14             # W2SS+  -->  Z3SS   MU+    NUM         
      5.48073125E-08    3      1000025       -15        16             # W2SS+  -->  Z3SS   TAU+   NUT         
      5.60323521E-03    2      1000025        24                       # W2SS+  -->  Z3SS   W+                 
      1.78478718E-01    2      1000024        23                       # W2SS+  -->  W1SS+  Z0                 
      5.47056356E-09    3      1000024         1        -1             # W2SS+  -->  W1SS+  DN     DB          
      5.47056356E-09    3      1000024         3        -3             # W2SS+  -->  W1SS+  ST     SB          
      2.34260888E-10    3      1000024         2        -2             # W2SS+  -->  W1SS+  UP     UB          
      2.34260888E-10    3      1000024         4        -4             # W2SS+  -->  W1SS+  CH     CB          
      1.53093330E-10    3      1000024        12       -12             # W2SS+  -->  W1SS+  NUE    ANUE        
      1.53093330E-10    3      1000024        14       -14             # W2SS+  -->  W1SS+  NUM    ANUM        
      2.58623678E-10    3      1000024        16       -16             # W2SS+  -->  W1SS+  NUT    ANUT        
      3.56387919E-09    3      1000024        11       -11             # W2SS+  -->  W1SS+  E-     E+          
      3.56387919E-09    3      1000024        13       -13             # W2SS+  -->  W1SS+  MU-    MU+         
      3.78144938E-09    3      1000024        15       -15             # W2SS+  -->  W1SS+  TAU-   TAU+        
      1.89337939E-01    2      1000024        25                       # W2SS+  -->  W1SS+  HL0                
      6.87224865E-02    2      1000024        35                       # W2SS+  -->  W1SS+  HH0                
      7.00170472E-02    2      1000024        36                       # W2SS+  -->  W1SS+  HA0                
#         PDG         Width
DECAY        25  3.94795556E-03   # HL0   decays
#          BR          NDA       ID1       ID2       ID3       ID4
      5.64755354E-09    2           11       -11                       # HL0    -->  E-     E+                 
      2.38448891E-04    2           13       -13                       # HL0    -->  MU-    MU+                
      6.82132244E-02    2           15       -15                       # HL0    -->  TAU-   TAU+               
      7.07927802E-06    2            1        -1                       # HL0    -->  DN     DB                 
      2.86038360E-03    2            3        -3                       # HL0    -->  ST     SB                 
      6.12872422E-01    2            5        -5                       # HL0    -->  BT     BB                 
      2.16174681E-06    2            2        -2                       # HL0    -->  UP     UB                 
      4.01681960E-02    2            4        -4                       # HL0    -->  CH     CB                 
      2.66130920E-03    2           22        22                       # HL0    -->  GM     GM                 
      5.28147891E-02    2           21        21                       # HL0    -->  GL     GL                 
      1.09999329E-02    3           24        11       -12             # HL0    -->  W+     E-     ANUE        
      1.09999329E-02    3           24        13       -14             # HL0    -->  W+     MU-    ANUM        
      1.09999329E-02    3           24        15       -16             # HL0    -->  W+     TAU-   ANUT        
      3.29997987E-02    3           24        -2         1             # HL0    -->  W+     UB     DN          
      3.29997987E-02    3           24        -4         3             # HL0    -->  W+     CB     ST          
      1.09999329E-02    3          -24       -11        12             # HL0    -->  W-     E+     NUE         
      1.09999329E-02    3          -24       -13        14             # HL0    -->  W-     MU+    NUM         
      1.09999329E-02    3          -24       -15        16             # HL0    -->  W-     TAU+   NUT         
      3.29997987E-02    3          -24         2        -1             # HL0    -->  W-     UP     DB          
      3.29997987E-02    3          -24         4        -3             # HL0    -->  W-     CH     SB          
      1.51573925E-03    3           23        12       -12             # HL0    -->  Z0     NUE    ANUE        
      1.51573925E-03    3           23        14       -14             # HL0    -->  Z0     NUM    ANUM        
      1.51573925E-03    3           23        16       -16             # HL0    -->  Z0     NUT    ANUT        
      7.62856391E-04    3           23        11       -11             # HL0    -->  Z0     E-     E+          
      7.62856391E-04    3           23        13       -13             # HL0    -->  Z0     MU-    MU+         
      7.62856391E-04    3           23        15       -15             # HL0    -->  Z0     TAU-   TAU+        
      2.61348113E-03    3           23         2        -2             # HL0    -->  Z0     UP     UB          
      2.61348113E-03    3           23         4        -4             # HL0    -->  Z0     CH     CB          
      3.36680771E-03    3           23         1        -1             # HL0    -->  Z0     DN     DB          
      3.36680771E-03    3           23         3        -3             # HL0    -->  Z0     ST     SB          
      3.36680771E-03    3           23         5        -5             # HL0    -->  Z0     BT     BB          
#         PDG         Width
DECAY        35  3.57730031E+00   # HH0   decays
#          BR          NDA       ID1       ID2       ID3       ID4
      1.07575664E-08    2           11       -11                       # HH0    -->  E-     E+                 
      4.54203837E-04    2           13       -13                       # HH0    -->  MU-    MU+                
      1.30088508E-01    2           15       -15                       # HH0    -->  TAU-   TAU+               
      1.31780671E-05    2            1        -1                       # HH0    -->  DN     DB                 
      5.32460585E-03    2            3        -3                       # HH0    -->  ST     SB                 
      7.93832183E-01    2            5        -5                       # HH0    -->  BT     BB                 
      8.72736952E-11    2            2        -2                       # HH0    -->  UP     UB                 
      1.22907466E-06    2            4        -4                       # HH0    -->  CH     CB                 
      5.60674630E-02    2            6        -6                       # HH0    -->  TP     TB                 
      2.28513187E-07    2           22        22                       # HH0    -->  GM     GM                 
      2.54229981E-05    2           21        21                       # HH0    -->  GL     GL                 
      2.19715716E-04    2           24       -24                       # HH0    -->  W+     W-                 
      1.11553207E-04    2           23        23                       # HH0    -->  Z0     Z0                 
      3.34766717E-03    2      1000022   1000022                       # HH0    -->  Z1SS   Z1SS               
      5.35608036E-04    2      1000022   1000023                       # HH0    -->  Z1SS   Z2SS               
      1.59131363E-03    2      1000023   1000023                       # HH0    -->  Z2SS   Z2SS               
      7.58372247E-03    2      1000024  -1000024                       # HH0    -->  W1SS+  W1SS-              
      8.03503499E-04    2           25        25                       # HH0    -->  HL0    HL0                
#         PDG         Width
DECAY        36  3.57614803E+00   # HA0   decays
#          BR          NDA       ID1       ID2       ID3       ID4
      1.06920197E-08    2           11       -11                       # HA0    -->  E-     E+                 
      4.51436354E-04    2           13       -13                       # HA0    -->  MU-    MU+                
      1.29297480E-01    2           15       -15                       # HA0    -->  TAU-   TAU+               
      1.30984936E-05    2            1        -1                       # HA0    -->  DN     DB                 
      5.29245473E-03    2            3        -3                       # HA0    -->  ST     SB                 
      7.89074123E-01    2            5        -5                       # HA0    -->  BT     BB                 
      8.27872076E-11    2            2        -2                       # HA0    -->  UP     UB                 
      1.16680906E-06    2            4        -4                       # HA0    -->  CH     CB                 
      5.91213554E-02    2            6        -6                       # HA0    -->  TP     TB                 
      2.51418072E-07    2           22        22                       # HA0    -->  GM     GM                 
      7.95701999E-05    2           21        21                       # HA0    -->  GL     GL                 
      5.17835282E-03    2      1000022   1000022                       # HA0    -->  Z1SS   Z1SS               
      1.34861068E-04    2      1000022   1000023                       # HA0    -->  Z1SS   Z2SS               
      1.45137648E-03    2      1000023   1000023                       # HA0    -->  Z2SS   Z2SS               
      9.69375297E-03    2      1000024  -1000024                       # HA0    -->  W1SS+  W1SS-              
      2.10699916E-04    2           25        23                       # HA0    -->  HL0    Z0                 
#         PDG         Width
DECAY        37  3.12177563E+00   # H+    decays
#          BR          NDA       ID1       ID2       ID3       ID4
      1.22877815E-08    2           12       -11                       # H+     -->  NUE    E+                 
      5.18812332E-04    2           14       -13                       # H+     -->  NUM    MU+                
      1.48594871E-01    2           16       -15                       # H+     -->  NUT    TAU+               
      1.38364958E-05    2            2        -1                       # H+     -->  UP     DB                 
      5.59182046E-03    2            4        -3                       # H+     -->  CH     SB                 
      8.44247699E-01    2            6        -5                       # H+     -->  TP     BB                 
      1.37066227E-05    2      1000024   1000022                       # H+     -->  W1SS+  Z1SS               
      7.77239155E-04    2      1000024   1000023                       # H+     -->  W1SS+  Z2SS               
      2.42055830E-04    2           25        24                       # H+     -->  HL0    W+                 
