#  ISAJET SUSY parameters in SUSY Les Houches Accord 2 format
#  Created by ISALHA 2.0 Last revision: H Baer 27 May 2014
Block SPINFO   # Program information
     1   ISASUGRA/ISASUSY from ISAJET   # Spectrum Calculator
     2   7.87   18-JUL-2017 13:55:55    # Version number
Block MODSEL   # Model selection
     1    13   # Non-universal supergravity model                  
Block SMINPUTS   # Standard Model inputs
     1     1.28000000E+02   # alpha_em^(-1)
     2     1.16570000E-05   # G_Fermi
     3     1.19999997E-01   # alpha_s(M_Z)
     4     9.11699982E+01   # m_{Z}(pole)
     5     4.19999981E+00   # m_{b}(m_{b})
     6     1.72500000E+02   # m_{top}(pole)
     7     1.77699995E+00   # m_{tau}(pole)
Block MINPAR   # SUSY breaking input parameters
     1     5.00000000E+03   # m_0
     2     3.50000000E+02   # m_{1/2}
     3     1.50000000E+01   # tan(beta)
     4     1.00000000E+00   # sign(mu)
     5    -8.00000000E+03   # A_0
Block EXTPAR   # Non-universal SUSY breaking parameters
     0     2.14056166E+16   # Input scale
    21     3.01260450E+06   # Down type Higgs mass squared
    22     3.70496400E+07   #  Up  type Higgs mass squared
Block MASS   # Scalar and gaugino mass spectrum
#  PDG code   mass                 particle
         6     1.72500000E+02   #  top            
        24     8.04229965E+01   #  W^+
        25     1.24077599E+02   #  h^0            
        35     1.00666632E+03   #  H^0            
        36     1.00000000E+03   #  A^0            
        37     1.00322870E+03   #  H^+            
   1000001     4.98286621E+03   #  dnl            
   1000002     4.98221436E+03   #  upl            
   1000003     4.98286621E+03   #  stl            
   1000004     4.98221484E+03   #  chl            
   1000005     3.49163940E+03   #  b1             
   1000006     1.43195374E+03   #  t1             
   1000011     5.08206201E+03   #  el-            
   1000012     5.08672217E+03   #  nuel           
   1000013     5.08206201E+03   #  mul-           
   1000014     5.08672217E+03   #  numl           
   1000015     4.66283838E+03   #  tau1           
   1000016     5.01158057E+03   #  nutl           
   1000021     1.01785150E+03   #  glss           
   1000022     1.15617828E+02   #  z1ss           
   1000023    -1.61675156E+02   #  z2ss           
   1000024     1.44285980E+02   #  w1ss           
   1000025     1.78490265E+02   #  z3ss           
   1000035     3.41088440E+02   #  z4ss           
   1000037     3.32793121E+02   #  w2ss           
   1000039     1.00000002E+20   #  gvss
   2000001     4.97042090E+03   #  dnr            
   2000002     5.13976172E+03   #  upr            
   2000003     4.97042090E+03   #  str            
   2000004     5.13976172E+03   #  chr            
   2000005     4.81751660E+03   #  b2             
   2000006     3.46787524E+03   #  t2             
   2000011     4.82299756E+03   #  er-            
   2000013     4.82299756E+03   #  mur-           
   2000015     5.00551953E+03   #  tau2           
Block ALPHA   # Effective Higgs mixing parameter
         -6.81095496E-02   # alpha
Block STOPMIX   # stop mixing matrix
  1  1     4.76001129E-02   # O_{11}
  1  2     9.98866498E-01   # O_{12}
  2  1    -9.98866498E-01   # O_{21}
  2  2     4.76001129E-02   # O_{22}
Block SBOTMIX   # sbottom mixing matrix
  1  1     9.99994755E-01   # O_{11}
  1  2     3.23541183E-03   # O_{12}
  2  1    -3.23541183E-03   # O_{21}
  2  2     9.99994755E-01   # O_{22}
Block STAUMIX   # stau mixing matrix
  1  1     7.90869538E-03   # O_{11}
  1  2     9.99968708E-01   # O_{12}
  2  1    -9.99968708E-01   # O_{21}
  2  2     7.90869538E-03   # O_{22}
Block NMIX   # neutralino mixing matrix
  1  1     5.38721025E-01   #
  1  2    -2.24885717E-01   #
  1  3     6.37970448E-01   #
  1  4    -5.02195537E-01   #
  2  1     8.92612264E-02   #
  2  2    -1.04610704E-01   #
  2  3    -6.79527104E-01   #
  2  4    -7.20647216E-01   #
  3  1    -8.34586680E-01   #
  3  2    -2.38091394E-01   #
  3  3     3.25240761E-01   #
  3  4    -3.75494897E-01   #
  4  1     7.26481900E-02   #
  4  2    -9.39039767E-01   #
  4  3    -1.59547687E-01   #
  4  4     2.95755446E-01   #
Block UMIX   # chargino U mixing matrix
  1  1    -2.20365196E-01   # U_{11}
  1  2     9.75417435E-01   # U_{12}
  2  1    -9.75417435E-01   # U_{21}
  2  2    -2.20365196E-01   # U_{22}
Block VMIX   # chargino V mixing matrix
  1  1    -4.10197854E-01   # V_{11}
  1  2     9.11996543E-01   # V_{12}
  2  1    -9.11996543E-01   # V_{21}
  2  2    -4.10197854E-01   # V_{22}
Block GAUGE Q=  2.27265991E+03   #
     1     3.57524216E-01   # g`
     2     6.52381539E-01   # g_2
     3     1.21931791E+00   # g_3
Block YU Q=  2.27265991E+03   #
  3  3     8.38638723E-01   # y_t
Block YD Q=  2.27265991E+03   #
  3  3     1.95759282E-01   # y_b
Block YE Q=  2.27265991E+03   #
  3  3     1.51510522E-01   # y_tau
Block HMIX Q=  2.27265991E+03   # Higgs mixing parameters
     1     1.50000000E+02   # mu(Q)
     2     1.43663244E+01   # tan(beta)(Q)
     3     2.52212753E+02   # Higgs vev at Q
     4     1.00000000E+06   # m_A^2(Q)
Block MSOFT Q=  2.27265991E+03   # DRbar SUSY breaking parameters
     1     1.57774063E+02   # M_1(Q)          
     2     2.91735229E+02   # M_2(Q)          
     3     8.30158142E+02   # M_3(Q)          
    21     9.51344375E+05   # MHd^2(Q)        
    22    -2.61203711E+04   # MHu^2(Q)        
    31     5.06590381E+03   # MeL(Q)          
    32     5.06590381E+03   # MmuL(Q)         
    33     4.99278955E+03   # MtauL(Q)        
    34     4.81944678E+03   # MeR(Q)          
    35     4.81944678E+03   # MmuR(Q)         
    36     4.65979883E+03   # MtauR(Q)        
    41     4.91259277E+03   # MqL1(Q)         
    42     4.91259277E+03   # MqL2(Q)         
    43     3.45140649E+03   # MqL3(Q)         
    44     5.06810693E+03   # MuR(Q)          
    45     5.06810693E+03   # McR(Q)          
    46     1.49648633E+03   # MtR(Q)          
    47     4.90058398E+03   # MdR(Q)          
    48     4.90058398E+03   # MsR(Q)          
    49     4.76416357E+03   # MbR(Q)          
Block AU Q=  2.27265991E+03   #
  1  1    -3.46543506E+03   # A_u
  2  2    -3.46543506E+03   # A_c
  3  3    -3.46543506E+03   # A_t
Block AD Q=  2.27265991E+03   #
  1  1    -7.67724316E+03   # A_d
  2  2    -7.67724316E+03   # A_s
  3  3    -7.67724316E+03   # A_b
Block AE Q=  2.27265991E+03   #
  1  1    -7.85255420E+03   # A_e
  2  2    -7.85255420E+03   # A_mu
  3  3    -7.85255420E+03   # A_tau
#  ISAJET decay tables in SUSY Les Houches accord format
#  Created by ISALHD. Last revision: C. Balazs, 2005 May 25
Block DCINFO                           # Program information
     1   ISASUGRA from ISAJET          # Spectrum Calculator
     2   7.87   18-JUL-2017 13:55:55   # Version number
#         PDG         Width
DECAY         6  1.46776152E+00   # TP    decays
#          BR          NDA       ID1       ID2       ID3       ID4
      3.33333313E-01    3            2        -1         5             # TP     -->  UP     DB     BT          
      3.33333313E-01    3            4        -3         5             # TP     -->  CH     SB     BT          
      1.11111097E-01    3          -11        12         5             # TP     -->  E+     NUE    BT          
      1.11111097E-01    3          -13        14         5             # TP     -->  MU+    NUM    BT          
      1.11111097E-01    3          -15        16         5             # TP     -->  TAU+   NUT    BT          
#         PDG         Width
DECAY   1000021  4.56461357E-03   # GLSS  decays
#          BR          NDA       ID1       ID2       ID3       ID4
      2.28750141E-04    3      1000024         1        -2             # GLSS   -->  W1SS+  DN     UB          
      2.28750141E-04    3     -1000024         2        -1             # GLSS   -->  W1SS-  UP     DB          
      2.28750054E-04    3      1000024         3        -4             # GLSS   -->  W1SS+  ST     CB          
      2.28750054E-04    3     -1000024         4        -3             # GLSS   -->  W1SS-  CH     SB          
      2.18616545E-01    3      1000024         5        -6             # GLSS   -->  W1SS+  BT     TB          
      2.18616545E-01    3     -1000024         6        -5             # GLSS   -->  W1SS-  TP     BB          
      1.17958838E-03    3      1000037         1        -2             # GLSS   -->  W2SS+  DN     UB          
      1.17958838E-03    3     -1000037         2        -1             # GLSS   -->  W2SS-  UP     DB          
      1.17958826E-03    3      1000037         3        -4             # GLSS   -->  W2SS+  ST     CB          
      1.17958826E-03    3     -1000037         4        -3             # GLSS   -->  W2SS-  CH     SB          
      3.19687016E-02    3      1000037         5        -6             # GLSS   -->  W2SS+  BT     TB          
      3.19687016E-02    3     -1000037         6        -5             # GLSS   -->  W2SS-  TP     BB          
      5.19797718E-03    2      1000022        21                       # GLSS   -->  Z1SS   GL                 
      1.70795771E-04    3      1000022         2        -2             # GLSS   -->  Z1SS   UP     UB          
      1.60475800E-04    3      1000022         1        -1             # GLSS   -->  Z1SS   DN     DB          
      1.60475800E-04    3      1000022         3        -3             # GLSS   -->  Z1SS   ST     SB          
      1.70795771E-04    3      1000022         4        -4             # GLSS   -->  Z1SS   CH     CB          
      1.08323200E-03    3      1000022         5        -5             # GLSS   -->  Z1SS   BT     BB          
      9.91443545E-02    3      1000022         6        -6             # GLSS   -->  Z1SS   TP     TB          
      1.24101089E-02    2      1000023        21                       # GLSS   -->  Z2SS   GL                 
      7.42726797E-06    3      1000023         2        -2             # GLSS   -->  Z2SS   UP     UB          
      1.00917268E-05    3      1000023         1        -1             # GLSS   -->  Z2SS   DN     DB          
      1.00917268E-05    3      1000023         3        -3             # GLSS   -->  Z2SS   ST     SB          
      7.42726570E-06    3      1000023         4        -4             # GLSS   -->  Z2SS   CH     CB          
      6.19439466E-04    3      1000023         5        -5             # GLSS   -->  Z2SS   BT     BB          
      1.92605361E-01    3      1000023         6        -6             # GLSS   -->  Z2SS   TP     TB          
      5.27314562E-03    2      1000025        21                       # GLSS   -->  Z3SS   GL                 
      5.01038041E-04    3      1000025         2        -2             # GLSS   -->  Z3SS   UP     UB          
      1.05594874E-04    3      1000025         1        -1             # GLSS   -->  Z3SS   DN     DB          
      1.05594874E-04    3      1000025         3        -3             # GLSS   -->  Z3SS   ST     SB          
      5.01037983E-04    3      1000025         4        -4             # GLSS   -->  Z3SS   CH     CB          
      2.72311881E-04    3      1000025         5        -5             # GLSS   -->  Z3SS   BT     BB          
      1.44221663E-01    3      1000025         6        -6             # GLSS   -->  Z3SS   TP     TB          
      1.59093330E-03    2      1000035        21                       # GLSS   -->  Z4SS   GL                 
      5.49573044E-04    3      1000035         2        -2             # GLSS   -->  Z4SS   UP     UB          
      5.80091903E-04    3      1000035         1        -1             # GLSS   -->  Z4SS   DN     DB          
      5.80091903E-04    3      1000035         3        -3             # GLSS   -->  Z4SS   ST     SB          
      5.49572869E-04    3      1000035         4        -4             # GLSS   -->  Z4SS   CH     CB          
      2.53549824E-03    3      1000035         5        -5             # GLSS   -->  Z4SS   BT     BB          
      2.40719374E-02    3      1000035         6        -6             # GLSS   -->  Z4SS   TP     TB          
#         PDG         Width
DECAY   1000002  3.04305878E+02   # UPL   decays
#          BR          NDA       ID1       ID2       ID3       ID4
      1.09621079E-03    2      1000022         2                       # UPL    -->  Z1SS   UP                 
      5.35687548E-04    2      1000023         2                       # UPL    -->  Z2SS   UP                 
      1.05086705E-02    2      1000025         2                       # UPL    -->  Z3SS   UP                 
      5.85076138E-02    2      1000035         2                       # UPL    -->  Z4SS   UP                 
      7.92578101E-01    2      1000021         2                       # UPL    -->  GLSS   UP                 
      2.31532585E-02    2      1000024         1                       # UPL    -->  W1SS+  DN                 
      1.13620438E-01    2      1000037         1                       # UPL    -->  W2SS+  DN                 
#         PDG         Width
DECAY   1000001  3.04307983E+02   # DNL   decays
#          BR          NDA       ID1       ID2       ID3       ID4
      7.20911706E-03    2      1000022         1                       # DNL    -->  Z1SS   DN                 
      1.00641081E-03    2      1000023         1                       # DNL    -->  Z2SS   DN                 
      4.98921785E-04    2      1000025         1                       # DNL    -->  Z3SS   DN                 
      6.19285740E-02    2      1000035         1                       # DNL    -->  Z4SS   DN                 
      7.92685211E-01    2      1000021         1                       # DNL    -->  GLSS   DN                 
      6.68290723E-03    2     -1000024         2                       # DNL    -->  W1SS-  UP                 
      1.29988804E-01    2     -1000037         2                       # DNL    -->  W2SS-  UP                 
#         PDG         Width
DECAY   1000003  3.04307983E+02   # STL   decays
#          BR          NDA       ID1       ID2       ID3       ID4
      7.20911706E-03    2      1000022         3                       # STL    -->  Z1SS   ST                 
      1.00641081E-03    2      1000023         3                       # STL    -->  Z2SS   ST                 
      4.98921785E-04    2      1000025         3                       # STL    -->  Z3SS   ST                 
      6.19285740E-02    2      1000035         3                       # STL    -->  Z4SS   ST                 
      7.92685211E-01    2      1000021         3                       # STL    -->  GLSS   ST                 
      6.68290677E-03    2     -1000024         4                       # STL    -->  W1SS-  CH                 
      1.29988790E-01    2     -1000037         4                       # STL    -->  W2SS-  CH                 
#         PDG         Width
DECAY   1000004  3.04305878E+02   # CHL   decays
#          BR          NDA       ID1       ID2       ID3       ID4
      1.09621079E-03    2      1000022         4                       # CHL    -->  Z1SS   CH                 
      5.35687432E-04    2      1000023         4                       # CHL    -->  Z2SS   CH                 
      1.05086705E-02    2      1000025         4                       # CHL    -->  Z3SS   CH                 
      5.85076064E-02    2      1000035         4                       # CHL    -->  Z4SS   CH                 
      7.92578042E-01    2      1000021         4                       # CHL    -->  GLSS   CH                 
      2.31532622E-02    2      1000024         3                       # CHL    -->  W1SS+  ST                 
      1.13620460E-01    2      1000037         3                       # CHL    -->  W2SS+  ST                 
#         PDG         Width
DECAY   1000005  2.88295959E+02   # BT1   decays
#          BR          NDA       ID1       ID2       ID3       ID4
      9.30378120E-03    2      1000022         5                       # BT1    -->  Z1SS   BT                 
      5.17754070E-03    2      1000023         5                       # BT1    -->  Z2SS   BT                 
      1.37616682E-03    2      1000025         5                       # BT1    -->  Z3SS   BT                 
      4.55802605E-02    2      1000035         5                       # BT1    -->  Z4SS   BT                 
      5.51866293E-01    2      1000021         5                       # BT1    -->  GLSS   BT                 
      1.39146939E-01    2     -1000024         6                       # BT1    -->  W1SS-  TP                 
      1.22486264E-01    2     -1000037         6                       # BT1    -->  W2SS-  TP                 
      1.24973446E-01    2          -24   1000006                       # BT1    -->  W-     TP1                
      8.93130709E-05    2          -37   1000006                       # BT1    -->  H-     TP1                
#         PDG         Width
DECAY   1000006  5.88522987E+01   # TP1   decays
#          BR          NDA       ID1       ID2       ID3       ID4
      3.21005315E-01    2      1000021         6                       # TP1    -->  GLSS   TP                 
      9.71983373E-02    2      1000022         6                       # TP1    -->  Z1SS   TP                 
      1.63927391E-01    2      1000023         6                       # TP1    -->  Z2SS   TP                 
      8.04041699E-02    2      1000025         6                       # TP1    -->  Z3SS   TP                 
      2.08802242E-02    2      1000035         6                       # TP1    -->  Z4SS   TP                 
      2.75302142E-01    2      1000024         5                       # TP1    -->  W1SS+  BT                 
      4.12823968E-02    2      1000037         5                       # TP1    -->  W2SS+  BT                 
#         PDG         Width
DECAY   2000002  2.61033997E+02   # UPR   decays
#          BR          NDA       ID1       ID2       ID3       ID4
      1.29047707E-02    2      1000022         2                       # UPR    -->  Z1SS   UP                 
      3.53938725E-04    2      1000023         2                       # UPR    -->  Z2SS   UP                 
      3.09283659E-02    2      1000025         2                       # UPR    -->  Z3SS   UP                 
      2.32851002E-04    2      1000035         2                       # UPR    -->  Z4SS   UP                 
      9.55580056E-01    2      1000021         2                       # UPR    -->  GLSS   UP                 
#         PDG         Width
DECAY   2000001  2.43368774E+02   # DNR   decays
#          BR          NDA       ID1       ID2       ID3       ID4
      3.34612583E-03    2      1000022         1                       # DNR    -->  Z1SS   DN                 
      9.17679135E-05    2      1000023         1                       # DNR    -->  Z2SS   DN                 
      8.01875070E-03    2      1000025         1                       # DNR    -->  Z3SS   DN                 
      6.03440203E-05    2      1000035         1                       # DNR    -->  Z4SS   DN                 
      9.88483012E-01    2      1000021         1                       # DNR    -->  GLSS   DN                 
#         PDG         Width
DECAY   2000003  2.43368774E+02   # STR   decays
#          BR          NDA       ID1       ID2       ID3       ID4
      3.34612583E-03    2      1000022         3                       # STR    -->  Z1SS   ST                 
      9.17679135E-05    2      1000023         3                       # STR    -->  Z2SS   ST                 
      8.01875070E-03    2      1000025         3                       # STR    -->  Z3SS   ST                 
      6.03440203E-05    2      1000035         3                       # STR    -->  Z4SS   ST                 
      9.88483012E-01    2      1000021         3                       # STR    -->  GLSS   ST                 
#         PDG         Width
DECAY   2000004  2.61033966E+02   # CHR   decays
#          BR          NDA       ID1       ID2       ID3       ID4
      1.29047716E-02    2      1000022         4                       # CHR    -->  Z1SS   CH                 
      3.53938754E-04    2      1000023         4                       # CHR    -->  Z2SS   CH                 
      3.09283640E-02    2      1000025         4                       # CHR    -->  Z3SS   CH                 
      2.32851016E-04    2      1000035         4                       # CHR    -->  Z4SS   CH                 
      9.55580056E-01    2      1000021         4                       # CHR    -->  GLSS   CH                 
#         PDG         Width
DECAY   2000005  2.71162384E+02   # BT2   decays
#          BR          NDA       ID1       ID2       ID3       ID4
      8.61233473E-03    2      1000022         5                       # BT2    -->  Z1SS   BT                 
      6.64308108E-03    2      1000023         5                       # BT2    -->  Z2SS   BT                 
      8.48758500E-03    2      1000025         5                       # BT2    -->  Z3SS   BT                 
      4.43618541E-04    2      1000035         5                       # BT2    -->  Z4SS   BT                 
      8.57382417E-01    2      1000021         5                       # BT2    -->  GLSS   BT                 
      1.33888759E-02    2     -1000024         6                       # BT2    -->  W1SS-  TP                 
      7.46525649E-04    2     -1000037         6                       # BT2    -->  W2SS-  TP                 
      4.81697316E-06    2          -24   1000006                       # BT2    -->  W-     TP1                
      3.11775628E-04    2          -24   2000006                       # BT2    -->  W-     TP2                
      1.51107888E-04    2           23   1000005                       # BT2    -->  Z0     BT1                
      3.00674030E-04    2           25   1000005                       # BT2    -->  HL0    BT1                
      2.54878122E-02    2           36   1000005                       # BT2    -->  HA0    BT1                
      2.52513066E-02    2           35   1000005                       # BT2    -->  HH0    BT1                
      8.81277083E-05    2          -37   1000006                       # BT2    -->  H-     TP1                
      5.27000278E-02    2          -37   2000006                       # BT2    -->  H-     TP2                
#         PDG         Width
DECAY   2000006  2.94203552E+02   # TP2   decays
#          BR          NDA       ID1       ID2       ID3       ID4
      5.31269372E-01    2      1000021         6                       # TP2    -->  GLSS   TP                 
      2.13611834E-02    2      1000024         5                       # TP2    -->  W1SS+  BT                 
      8.57307166E-02    2      1000037         5                       # TP2    -->  W2SS+  BT                 
      6.00900128E-02    2           23   1000006                       # TP2    -->  Z0     TP1                
      9.40627158E-02    2           25   1000006                       # TP2    -->  HL0    TP1                
      4.96593639E-05    2           35   1000006                       # TP2    -->  HH0    TP1                
      4.40751610E-05    2           36   1000006                       # TP2    -->  HA0    TP1                
      3.82945128E-02    2      1000022         6                       # TP2    -->  Z1SS   TP                 
      8.10683891E-02    2      1000023         6                       # TP2    -->  Z2SS   TP                 
      3.02285887E-02    2      1000025         6                       # TP2    -->  Z3SS   TP                 
      5.78007363E-02    2      1000035         6                       # TP2    -->  Z4SS   TP                 
#         PDG         Width
DECAY   1000011  7.01052704E+01   # EL-   decays
#          BR          NDA       ID1       ID2       ID3       ID4
      1.54558662E-03    2      1000022        11                       # EL-    -->  Z1SS   E-                 
      9.39730729E-04    2      1000023        11                       # EL-    -->  Z2SS   E-                 
      1.47789270E-01    2      1000025        11                       # EL-    -->  Z3SS   E-                 
      2.44459197E-01    2      1000035        11                       # EL-    -->  Z4SS   E-                 
      2.95880958E-02    2     -1000024        12                       # EL-    -->  W1SS-  NUE                
      5.75678170E-01    2     -1000037        12                       # EL-    -->  W2SS-  NUE                
#         PDG         Width
DECAY   1000013  7.01052704E+01   # MUL-  decays
#          BR          NDA       ID1       ID2       ID3       ID4
      1.54558662E-03    2      1000022        13                       # MUL-   -->  Z1SS   MU-                
      9.39730729E-04    2      1000023        13                       # MUL-   -->  Z2SS   MU-                
      1.47789270E-01    2      1000025        13                       # MUL-   -->  Z3SS   MU-                
      2.44459197E-01    2      1000035        13                       # MUL-   -->  Z4SS   MU-                
      2.95880958E-02    2     -1000024        14                       # MUL-   -->  W1SS-  NUM                
      5.75678170E-01    2     -1000037        14                       # MUL-   -->  W2SS-  NUM                
#         PDG         Width
DECAY   1000015  2.81149979E+01   # TAU1- decays
#          BR          NDA       ID1       ID2       ID3       ID4
      2.78006852E-01    2      1000022        15                       # TAU1-  -->  Z1SS   TAU-               
      4.28891741E-02    2      1000023        15                       # TAU1-  -->  Z2SS   TAU-               
      5.93937933E-01    2      1000025        15                       # TAU1-  -->  Z3SS   TAU-               
      5.86353289E-03    2      1000035        15                       # TAU1-  -->  Z4SS   TAU-               
      7.65246078E-02    2     -1000024        16                       # TAU1-  -->  W1SS-  NUT                
      2.77788099E-03    2     -1000037        16                       # TAU1-  -->  W2SS-  NUT                
#         PDG         Width
DECAY   1000012  7.01934967E+01   # NUEL  decays
#          BR          NDA       ID1       ID2       ID3       ID4
      8.27072114E-02    2      1000022        12                       # NUEL   -->  Z1SS   NUE                
      7.18880445E-03    2      1000023        12                       # NUEL   -->  Z2SS   NUE                
      1.48099391E-02    2      1000025        12                       # NUEL   -->  Z3SS   NUE                
      2.89718747E-01    2      1000035        12                       # NUEL   -->  Z4SS   NUE                
      1.02487490E-01    2      1000024        11                       # NUEL   -->  W1SS+  E-                 
      5.03087819E-01    2      1000037        11                       # NUEL   -->  W2SS+  E-                 
#         PDG         Width
DECAY   1000014  7.01934967E+01   # NUML  decays
#          BR          NDA       ID1       ID2       ID3       ID4
      8.27072114E-02    2      1000022        14                       # NUML   -->  Z1SS   NUM                
      7.18880445E-03    2      1000023        14                       # NUML   -->  Z2SS   NUM                
      1.48099391E-02    2      1000025        14                       # NUML   -->  Z3SS   NUM                
      2.89718747E-01    2      1000035        14                       # NUML   -->  Z4SS   NUM                
      1.02487490E-01    2      1000024        13                       # NUML   -->  W1SS+  MU-                
      5.03087819E-01    2      1000037        13                       # NUML   -->  W2SS+  MU-                
#         PDG         Width
DECAY   1000016  7.15472565E+01   # NUTL  decays
#          BR          NDA       ID1       ID2       ID3       ID4
      7.99411610E-02    2      1000022        16                       # NUTL   -->  Z1SS   NUT                
      6.94817398E-03    2      1000023        16                       # NUTL   -->  Z2SS   NUT                
      1.43140173E-02    2      1000025        16                       # NUTL   -->  Z3SS   NUT                
      2.79961735E-01    2      1000035        16                       # NUTL   -->  Z4SS   NUT                
      1.30907014E-01    2      1000024        15                       # NUTL   -->  W1SS+  TAU-               
      4.87767935E-01    2      1000037        15                       # NUTL   -->  W2SS+  TAU-               
      1.59914649E-04    2           24   1000015                       # NUTL   -->  W+     TAU1-              
#         PDG         Width
DECAY   2000011  2.44743671E+01   # ER-   decays
#          BR          NDA       ID1       ID2       ID3       ID4
      2.90558070E-01    2      1000022        11                       # ER-    -->  Z1SS   E-                 
      7.96807744E-03    2      1000023        11                       # ER-    -->  Z2SS   E-                 
      6.96236670E-01    2      1000025        11                       # ER-    -->  Z3SS   E-                 
      5.23719611E-03    2      1000035        11                       # ER-    -->  Z4SS   E-                 
#         PDG         Width
DECAY   2000013  2.44743671E+01   # MUR-  decays
#          BR          NDA       ID1       ID2       ID3       ID4
      2.90558070E-01    2      1000022        13                       # MUR-   -->  Z1SS   MU-                
      7.96807744E-03    2      1000023        13                       # MUR-   -->  Z2SS   MU-                
      6.96236670E-01    2      1000025        13                       # MUR-   -->  Z3SS   MU-                
      5.23719611E-03    2      1000035        13                       # MUR-   -->  Z4SS   MU-                
#         PDG         Width
DECAY   2000015  7.14299927E+01   # TAU2- decays
#          BR          NDA       ID1       ID2       ID3       ID4
      1.46173639E-02    2      1000022        15                       # TAU2-  -->  Z1SS   TAU-               
      1.65304374E-02    2      1000023        15                       # TAU2-  -->  Z2SS   TAU-               
      1.46510407E-01    2      1000025        15                       # TAU2-  -->  Z3SS   TAU-               
      2.37322211E-01    2      1000035        15                       # TAU2-  -->  Z4SS   TAU-               
      2.81232782E-02    2     -1000024        16                       # TAU2-  -->  W1SS-  NUT                
      5.56783855E-01    2     -1000037        16                       # TAU2-  -->  W2SS-  NUT                
      7.49753672E-05    2           23   1000015                       # TAU2-  -->  Z0     TAU1-              
      3.74315423E-05    2           25   1000015                       # TAU2-  -->  HL0    TAU1-              
#         PDG         Width
DECAY   1000023  1.07348707E-04   # Z2SS  decays
#          BR          NDA       ID1       ID2       ID3       ID4
      5.73696161E-04    2      1000022        22                       # Z2SS   -->  Z1SS   GM                 
      5.12361387E-03    3     -1000024         2        -1             # Z2SS   -->  W1SS-  UP     DB          
      1.70787133E-03    3     -1000024        12       -11             # Z2SS   -->  W1SS-  NUE    E+          
      1.70787133E-03    3     -1000024        14       -13             # Z2SS   -->  W1SS-  NUM    MU+         
      5.12361387E-03    3      1000024         1        -2             # Z2SS   -->  W1SS+  DN     UB          
      1.70787133E-03    3      1000024        11       -12             # Z2SS   -->  W1SS+  E-     ANUE        
      1.70787133E-03    3      1000024        13       -14             # Z2SS   -->  W1SS+  MU-    ANUM        
      5.12361387E-03    3     -1000024         4        -3             # Z2SS   -->  W1SS-  CH     SB          
      1.70787133E-03    3     -1000024        16       -15             # Z2SS   -->  W1SS-  NUT    TAU+        
      5.12361387E-03    3      1000024         3        -4             # Z2SS   -->  W1SS+  ST     CB          
      1.70787133E-03    3      1000024        15       -16             # Z2SS   -->  W1SS+  TAU-   ANUT        
      1.16301253E-01    3      1000022         2        -2             # Z2SS   -->  Z1SS   UP     UB          
      1.49964765E-01    3      1000022         1        -1             # Z2SS   -->  Z1SS   DN     DB          
      1.49964765E-01    3      1000022         3        -3             # Z2SS   -->  Z1SS   ST     SB          
      1.16301253E-01    3      1000022         4        -4             # Z2SS   -->  Z1SS   CH     CB          
      1.31744444E-01    3      1000022         5        -5             # Z2SS   -->  Z1SS   BT     BB          
      3.40192840E-02    3      1000022        11       -11             # Z2SS   -->  Z1SS   E-     E+          
      3.40192840E-02    3      1000022        13       -13             # Z2SS   -->  Z1SS   MU-    MU+         
      3.32907178E-02    3      1000022        15       -15             # Z2SS   -->  Z1SS   TAU-   TAU+        
      6.76929206E-02    3      1000022        12       -12             # Z2SS   -->  Z1SS   NUE    ANUE        
      6.76929206E-02    3      1000022        14       -14             # Z2SS   -->  Z1SS   NUM    ANUM        
      6.76930100E-02    3      1000022        16       -16             # Z2SS   -->  Z1SS   NUT    ANUT        
#         PDG         Width
DECAY   1000025  4.10038374E-05   # Z3SS  decays
#          BR          NDA       ID1       ID2       ID3       ID4
      2.82840314E-03    2      1000022        22                       # Z3SS   -->  Z1SS   GM                 
      8.54210430E-06    2      1000023        22                       # Z3SS   -->  Z2SS   GM                 
      1.60597235E-01    3     -1000024         2        -1             # Z3SS   -->  W1SS-  UP     DB          
      5.35324104E-02    3     -1000024        12       -11             # Z3SS   -->  W1SS-  NUE    E+          
      5.35324104E-02    3     -1000024        14       -13             # Z3SS   -->  W1SS-  NUM    MU+         
      1.60597235E-01    3      1000024         1        -2             # Z3SS   -->  W1SS+  DN     UB          
      5.35324104E-02    3      1000024        11       -12             # Z3SS   -->  W1SS+  E-     ANUE        
      5.35324104E-02    3      1000024        13       -14             # Z3SS   -->  W1SS+  MU-    ANUM        
      1.60597235E-01    3     -1000024         4        -3             # Z3SS   -->  W1SS-  CH     SB          
      5.35324104E-02    3     -1000024        16       -15             # Z3SS   -->  W1SS-  NUT    TAU+        
      1.60597235E-01    3      1000024         3        -4             # Z3SS   -->  W1SS+  ST     CB          
      5.35324104E-02    3      1000024        15       -16             # Z3SS   -->  W1SS+  TAU-   ANUT        
      3.18709319E-03    3      1000022         2        -2             # Z3SS   -->  Z1SS   UP     UB          
      4.10611276E-03    3      1000022         1        -1             # Z3SS   -->  Z1SS   DN     DB          
      4.10611276E-03    3      1000022         3        -3             # Z3SS   -->  Z1SS   ST     SB          
      3.18709319E-03    3      1000022         4        -4             # Z3SS   -->  Z1SS   CH     CB          
      3.90785048E-03    3      1000022         5        -5             # Z3SS   -->  Z1SS   BT     BB          
      9.20270279E-04    3      1000022        11       -11             # Z3SS   -->  Z1SS   E-     E+          
      9.20270279E-04    3      1000022        13       -13             # Z3SS   -->  Z1SS   MU-    MU+         
      9.15590208E-04    3      1000022        15       -15             # Z3SS   -->  Z1SS   TAU-   TAU+        
      1.85671914E-03    3      1000022        12       -12             # Z3SS   -->  Z1SS   NUE    ANUE        
      1.85671914E-03    3      1000022        14       -14             # Z3SS   -->  Z1SS   NUM    ANUM        
      1.85684278E-03    3      1000022        16       -16             # Z3SS   -->  Z1SS   NUT    ANUT        
      8.87032424E-04    3      1000023         2        -2             # Z3SS   -->  Z2SS   UP     UB          
      1.14379753E-03    3      1000023         1        -1             # Z3SS   -->  Z2SS   DN     DB          
      1.14379753E-03    3      1000023         3        -3             # Z3SS   -->  Z2SS   ST     SB          
      8.87032424E-04    3      1000023         4        -4             # Z3SS   -->  Z2SS   CH     CB          
      4.05685132E-04    3      1000023         5        -5             # Z3SS   -->  Z2SS   BT     BB          
      2.59485707E-04    3      1000023        11       -11             # Z3SS   -->  Z2SS   E-     E+          
      2.59485707E-04    3      1000023        13       -13             # Z3SS   -->  Z2SS   MU-    MU+         
      2.23880183E-04    3      1000023        15       -15             # Z3SS   -->  Z2SS   TAU-   TAU+        
      5.16251253E-04    3      1000023        12       -12             # Z3SS   -->  Z2SS   NUE    ANUE        
      5.16251253E-04    3      1000023        14       -14             # Z3SS   -->  Z2SS   NUM    ANUM        
      5.16250730E-04    3      1000023        16       -16             # Z3SS   -->  Z2SS   NUT    ANUT        
#         PDG         Width
DECAY   1000035  1.87422466E+00   # Z4SS  decays
#          BR          NDA       ID1       ID2       ID3       ID4
      9.58606847E-07    2      1000022        22                       # Z4SS   -->  Z1SS   GM                 
      3.80247457E-06    2      1000023        22                       # Z4SS   -->  Z2SS   GM                 
      9.43595410E-07    2      1000025        22                       # Z4SS   -->  Z3SS   GM                 
      2.98437417E-01    2      1000024       -24                       # Z4SS   -->  W1SS+  W-                 
      2.98437417E-01    2     -1000024        24                       # Z4SS   -->  W1SS-  W+                 
      3.10995034E-08    3     -1000037         2        -1             # Z4SS   -->  W2SS-  UP     DB          
      1.03665005E-08    3     -1000037        12       -11             # Z4SS   -->  W2SS-  NUE    E+          
      1.03665005E-08    3     -1000037        14       -13             # Z4SS   -->  W2SS-  NUM    MU+         
      3.10995034E-08    3      1000037         1        -2             # Z4SS   -->  W2SS+  DN     UB          
      1.03665005E-08    3      1000037        11       -12             # Z4SS   -->  W2SS+  E-     ANUE        
      1.03665005E-08    3      1000037        13       -14             # Z4SS   -->  W2SS+  MU-    ANUM        
      3.10995034E-08    3     -1000037         4        -3             # Z4SS   -->  W2SS-  CH     SB          
      1.03665005E-08    3     -1000037        16       -15             # Z4SS   -->  W2SS-  NUT    TAU+        
      3.10995034E-08    3      1000037         3        -4             # Z4SS   -->  W2SS+  ST     CB          
      1.03665005E-08    3      1000037        15       -16             # Z4SS   -->  W2SS+  TAU-   ANUT        
      1.20745925E-02    2      1000022        23                       # Z4SS   -->  Z1SS   Z0                 
      2.25249887E-01    2      1000023        23                       # Z4SS   -->  Z2SS   Z0                 
      1.20400460E-02    2      1000025        23                       # Z4SS   -->  Z3SS   Z0                 
      4.81249832E-11    3      1000022         2        -2             # Z4SS   -->  Z1SS   UP     UB          
      3.25531158E-10    3      1000022         1        -1             # Z4SS   -->  Z1SS   DN     DB          
      3.25531158E-10    3      1000022         3        -3             # Z4SS   -->  Z1SS   ST     SB          
      4.81249658E-11    3      1000022         4        -4             # Z4SS   -->  Z1SS   CH     CB          
      8.89302001E-08    3      1000022         5        -5             # Z4SS   -->  Z1SS   BT     BB          
      7.23788304E-12    3      1000022        11       -11             # Z4SS   -->  Z1SS   E-     E+          
      7.23788304E-12    3      1000022        13       -13             # Z4SS   -->  Z1SS   MU-    MU+         
      1.67448260E-08    3      1000022        15       -15             # Z4SS   -->  Z1SS   TAU-   TAU+        
      2.73552958E-10    3      1000022        12       -12             # Z4SS   -->  Z1SS   NUE    ANUE        
      2.73552958E-10    3      1000022        14       -14             # Z4SS   -->  Z1SS   NUM    ANUM        
      2.90369895E-10    3      1000022        16       -16             # Z4SS   -->  Z1SS   NUT    ANUT        
      4.11433344E-12    3      1000023         2        -2             # Z4SS   -->  Z2SS   UP     UB          
      8.16270749E-12    3      1000023         1        -1             # Z4SS   -->  Z2SS   DN     DB          
      8.16270749E-12    3      1000023         3        -3             # Z4SS   -->  Z2SS   ST     SB          
      4.11433214E-12    3      1000023         4        -4             # Z4SS   -->  Z2SS   CH     CB          
      6.06091746E-08    3      1000023         5        -5             # Z4SS   -->  Z2SS   BT     BB          
      4.86901752E-13    3      1000023        11       -11             # Z4SS   -->  Z2SS   E-     E+          
      4.86901752E-13    3      1000023        13       -13             # Z4SS   -->  Z2SS   MU-    MU+         
      1.16522347E-08    3      1000023        15       -15             # Z4SS   -->  Z2SS   TAU-   TAU+        
      4.27136711E-12    3      1000023        12       -12             # Z4SS   -->  Z2SS   NUE    ANUE        
      4.27136711E-12    3      1000023        14       -14             # Z4SS   -->  Z2SS   NUM    ANUM        
      4.53410833E-12    3      1000023        16       -16             # Z4SS   -->  Z2SS   NUT    ANUT        
      1.45438286E-10    3      1000025         2        -2             # Z4SS   -->  Z3SS   UP     UB          
      7.32501039E-12    3      1000025         1        -1             # Z4SS   -->  Z3SS   DN     DB          
      7.32501039E-12    3      1000025         3        -3             # Z4SS   -->  Z3SS   ST     SB          
      1.45438231E-10    3      1000025         4        -4             # Z4SS   -->  Z3SS   CH     CB          
      1.01163904E-08    3      1000025         5        -5             # Z4SS   -->  Z3SS   BT     BB          
      1.35424935E-10    3      1000025        11       -11             # Z4SS   -->  Z3SS   E-     E+          
      1.35424935E-10    3      1000025        13       -13             # Z4SS   -->  Z3SS   MU-    MU+         
      2.09951434E-09    3      1000025        15       -15             # Z4SS   -->  Z3SS   TAU-   TAU+        
      1.57690354E-11    3      1000025        12       -12             # Z4SS   -->  Z3SS   NUE    ANUE        
      1.57690354E-11    3      1000025        14       -14             # Z4SS   -->  Z3SS   NUM    ANUM        
      1.67389731E-11    3      1000025        16       -16             # Z4SS   -->  Z3SS   NUT    ANUT        
      6.31439686E-02    2      1000022        25                       # Z4SS   -->  Z1SS   HL0                
      1.12226494E-02    2      1000023        25                       # Z4SS   -->  Z2SS   HL0                
      7.93883428E-02    2      1000025        25                       # Z4SS   -->  Z3SS   HL0                
#         PDG         Width
DECAY   1000024  1.66344125E-05   # W1SS+ decays
#          BR          NDA       ID1       ID2       ID3       ID4
      3.33332330E-01    3      1000022         2        -1             # W1SS+  -->  Z1SS   UP     DB          
      3.33332330E-01    3      1000022         4        -3             # W1SS+  -->  Z1SS   CH     SB          
      1.11111015E-01    3      1000022       -11        12             # W1SS+  -->  Z1SS   E+     NUE         
      1.11111015E-01    3      1000022       -13        14             # W1SS+  -->  Z1SS   MU+    NUM         
      1.11113302E-01    3      1000022       -15        16             # W1SS+  -->  Z1SS   TAU+   NUT         
#         PDG         Width
DECAY   1000037  1.73834753E+00   # W2SS+ decays
#          BR          NDA       ID1       ID2       ID3       ID4
      1.89874130E-10    3      1000022         2        -1             # W2SS+  -->  Z1SS   UP     DB          
      1.89874130E-10    3      1000022         4        -3             # W2SS+  -->  Z1SS   CH     SB          
      1.77584211E-10    3      1000022       -11        12             # W2SS+  -->  Z1SS   E+     NUE         
      1.77584211E-10    3      1000022       -13        14             # W2SS+  -->  Z1SS   MU+    NUM         
      1.96699972E-08    3      1000022       -15        16             # W2SS+  -->  Z1SS   TAU+   NUT         
      1.46025762E-01    2      1000022        24                       # W2SS+  -->  Z1SS   W+                 
      2.79418415E-11    3      1000023         2        -1             # W2SS+  -->  Z2SS   UP     DB          
      2.79418415E-11    3      1000023         4        -3             # W2SS+  -->  Z2SS   CH     SB          
      8.72048701E-12    3      1000023       -11        12             # W2SS+  -->  Z2SS   E+     NUE         
      8.72048701E-12    3      1000023       -13        14             # W2SS+  -->  Z2SS   MU+    NUM         
      8.96713459E-09    3      1000023       -15        16             # W2SS+  -->  Z2SS   TAU+   NUT         
      2.60704100E-01    2      1000023        24                       # W2SS+  -->  Z2SS   W+                 
      6.89701560E-11    3      1000025         2        -1             # W2SS+  -->  Z3SS   UP     DB          
      6.89701213E-11    3      1000025         4        -3             # W2SS+  -->  Z3SS   CH     SB          
      1.24827260E-10    3      1000025       -11        12             # W2SS+  -->  Z3SS   E+     NUE         
      1.24827260E-10    3      1000025       -13        14             # W2SS+  -->  Z3SS   MU+    NUM         
      2.56585131E-09    3      1000025       -15        16             # W2SS+  -->  Z3SS   TAU+   NUT         
      1.51928321E-01    2      1000025        24                       # W2SS+  -->  Z3SS   W+                 
      2.58099526E-01    2      1000024        23                       # W2SS+  -->  W1SS+  Z0                 
      3.88153676E-10    3      1000024         1        -1             # W2SS+  -->  W1SS+  DN     DB          
      3.88153509E-10    3      1000024         3        -3             # W2SS+  -->  W1SS+  ST     SB          
      1.28076591E-10    3      1000024         2        -2             # W2SS+  -->  W1SS+  UP     UB          
      1.28076591E-10    3      1000024         4        -4             # W2SS+  -->  W1SS+  CH     CB          
      3.94478200E-11    3      1000024        12       -12             # W2SS+  -->  W1SS+  NUE    ANUE        
      3.94478200E-11    3      1000024        14       -14             # W2SS+  -->  W1SS+  NUM    ANUM        
      5.57144053E-11    3      1000024        16       -16             # W2SS+  -->  W1SS+  NUT    ANUT        
      1.19050991E-10    3      1000024        11       -11             # W2SS+  -->  W1SS+  E-     E+          
      1.19050991E-10    3      1000024        13       -13             # W2SS+  -->  W1SS+  MU-    MU+         
      1.26371219E-10    3      1000024        15       -15             # W2SS+  -->  W1SS+  TAU-   TAU+        
      1.83242247E-01    2      1000024        25                       # W2SS+  -->  W1SS+  HL0                
#         PDG         Width
DECAY        25  3.80071090E-03   # HL0   decays
#          BR          NDA       ID1       ID2       ID3       ID4
      5.80729775E-09    2           11       -11                       # HL0    -->  E-     E+                 
      2.45193514E-04    2           13       -13                       # HL0    -->  MU-    MU+                
      7.01410770E-02    2           15       -15                       # HL0    -->  TAU-   TAU+               
      7.28051918E-06    2            1        -1                       # HL0    -->  DN     DB                 
      2.94169504E-03    2            3        -3                       # HL0    -->  ST     SB                 
      6.30232275E-01    2            5        -5                       # HL0    -->  BT     BB                 
      2.22497692E-06    2            2        -2                       # HL0    -->  UP     UB                 
      4.14016619E-02    2            4        -4                       # HL0    -->  CH     CB                 
      2.70701642E-03    2           22        22                       # HL0    -->  GM     GM                 
      5.26088327E-02    2           21        21                       # HL0    -->  GL     GL                 
      1.00099435E-02    3           24        11       -12             # HL0    -->  W+     E-     ANUE        
      1.00099435E-02    3           24        13       -14             # HL0    -->  W+     MU-    ANUM        
      1.00099435E-02    3           24        15       -16             # HL0    -->  W+     TAU-   ANUT        
      3.00298296E-02    3           24        -2         1             # HL0    -->  W+     UB     DN          
      3.00298296E-02    3           24        -4         3             # HL0    -->  W+     CB     ST          
      1.00099435E-02    3          -24       -11        12             # HL0    -->  W-     E+     NUE         
      1.00099435E-02    3          -24       -13        14             # HL0    -->  W-     MU+    NUM         
      1.00099435E-02    3          -24       -15        16             # HL0    -->  W-     TAU+   NUT         
      3.00298296E-02    3          -24         2        -1             # HL0    -->  W-     UP     DB          
      3.00298296E-02    3          -24         4        -3             # HL0    -->  W-     CH     SB          
      1.33590458E-03    3           23        12       -12             # HL0    -->  Z0     NUE    ANUE        
      1.33590458E-03    3           23        14       -14             # HL0    -->  Z0     NUM    ANUM        
      1.33590458E-03    3           23        16       -16             # HL0    -->  Z0     NUT    ANUT        
      6.72347320E-04    3           23        11       -11             # HL0    -->  Z0     E-     E+          
      6.72347320E-04    3           23        13       -13             # HL0    -->  Z0     MU-    MU+         
      6.72347320E-04    3           23        15       -15             # HL0    -->  Z0     TAU-   TAU+        
      2.30340473E-03    3           23         2        -2             # HL0    -->  Z0     UP     UB          
      2.30340473E-03    3           23         4        -4             # HL0    -->  Z0     CH     CB          
      2.96735298E-03    3           23         1        -1             # HL0    -->  Z0     DN     DB          
      2.96735298E-03    3           23         3        -3             # HL0    -->  Z0     ST     SB          
      2.96735298E-03    3           23         5        -5             # HL0    -->  Z0     BT     BB          
#         PDG         Width
DECAY        35  1.45957813E+01   # HH0   decays
#          BR          NDA       ID1       ID2       ID3       ID4
      2.63659339E-09    2           11       -11                       # HH0    -->  E-     E+                 
      1.11321722E-04    2           13       -13                       # HH0    -->  MU-    MU+                
      3.18836533E-02    2           15       -15                       # HH0    -->  TAU-   TAU+               
      3.22983874E-06    2            1        -1                       # HH0    -->  DN     DB                 
      1.30501832E-03    2            3        -3                       # HH0    -->  ST     SB                 
      1.96765855E-01    2            5        -5                       # HH0    -->  BT     BB                 
      2.13729850E-11    2            2        -2                       # HH0    -->  UP     UB                 
      3.00995595E-07    2            4        -4                       # HH0    -->  CH     CB                 
      1.37306973E-02    2            6        -6                       # HH0    -->  TP     TB                 
      4.12439789E-07    2           22        22                       # HH0    -->  GM     GM                 
      6.89977378E-06    2           21        21                       # HH0    -->  GL     GL                 
      5.20016074E-05    2           24       -24                       # HH0    -->  W+     W-                 
      2.64020546E-05    2           23        23                       # HH0    -->  Z0     Z0                 
      5.27073927E-02    2      1000022   1000022                       # HH0    -->  Z1SS   Z1SS               
      2.27868184E-02    2      1000022   1000023                       # HH0    -->  Z1SS   Z2SS               
      1.32420333E-04    2      1000022   1000025                       # HH0    -->  Z1SS   Z3SS               
      5.35661839E-02    2      1000022   1000035                       # HH0    -->  Z1SS   Z4SS               
      6.15471182E-03    2      1000023   1000023                       # HH0    -->  Z2SS   Z2SS               
      1.16267093E-02    2      1000023   1000025                       # HH0    -->  Z2SS   Z3SS               
      1.28775358E-01    2      1000023   1000035                       # HH0    -->  Z2SS   Z4SS               
      2.06426554E-03    2      1000025   1000025                       # HH0    -->  Z3SS   Z3SS               
      1.88186541E-02    2      1000025   1000035                       # HH0    -->  Z3SS   Z4SS               
      4.27863700E-03    2      1000035   1000035                       # HH0    -->  Z4SS   Z4SS               
      7.58768395E-02    2      1000024  -1000024                       # HH0    -->  W1SS+  W1SS-              
      7.36133987E-03    2      1000037  -1000037                       # HH0    -->  W2SS+  W2SS-              
      1.85891628E-01    2      1000024  -1000037                       # HH0    -->  W1SS+  W2SS-              
      1.85891628E-01    2     -1000024   1000037                       # HH0    -->  W1SS-  W2SS+              
      1.81612821E-04    2           25        25                       # HH0    -->  HL0    HL0                
#         PDG         Width
DECAY        36  1.44597445E+01   # HA0   decays
#          BR          NDA       ID1       ID2       ID3       ID4
      2.64432365E-09    2           11       -11                       # HA0    -->  E-     E+                 
      1.11648114E-04    2           13       -13                       # HA0    -->  MU-    MU+                
      3.19775306E-02    2           15       -15                       # HA0    -->  TAU-   TAU+               
      3.23948689E-06    2            1        -1                       # HA0    -->  DN     DB                 
      1.30891672E-03    2            3        -3                       # HA0    -->  ST     SB                 
      1.97362483E-01    2            5        -5                       # HA0    -->  BT     BB                 
      2.04747261E-11    2            2        -2                       # HA0    -->  UP     UB                 
      2.88572323E-07    2            4        -4                       # HA0    -->  CH     CB                 
      1.46217467E-02    2            6        -6                       # HA0    -->  TP     TB                 
      1.08596453E-06    2           22        22                       # HA0    -->  GM     GM                 
      2.16990702E-05    2           21        21                       # HA0    -->  GL     GL                 
      6.90063909E-02    2      1000022   1000022                       # HA0    -->  Z1SS   Z1SS               
      1.30923977E-02    2      1000022   1000023                       # HA0    -->  Z1SS   Z2SS               
      3.24958935E-04    2      1000022   1000025                       # HA0    -->  Z1SS   Z3SS               
      7.58227110E-02    2      1000022   1000035                       # HA0    -->  Z1SS   Z4SS               
      5.16512431E-03    2      1000023   1000023                       # HA0    -->  Z2SS   Z2SS               
      8.98888987E-03    2      1000023   1000025                       # HA0    -->  Z2SS   Z3SS               
      7.67946541E-02    2      1000023   1000035                       # HA0    -->  Z2SS   Z4SS               
      3.23325419E-03    2      1000025   1000025                       # HA0    -->  Z3SS   Z3SS               
      3.47940959E-02    2      1000025   1000035                       # HA0    -->  Z3SS   Z4SS               
      1.30530335E-02    2      1000035   1000035                       # HA0    -->  Z4SS   Z4SS               
      9.48969349E-02    2      1000024  -1000024                       # HA0    -->  W1SS+  W1SS-              
      2.24183425E-02    2      1000037  -1000037                       # HA0    -->  W2SS+  W2SS-              
      1.68475091E-01    2      1000024  -1000037                       # HA0    -->  W1SS+  W2SS-              
      1.68475091E-01    2     -1000024   1000037                       # HA0    -->  W1SS-  W2SS+              
      5.03665251E-05    2           25        23                       # HA0    -->  HL0    Z0                 
#         PDG         Width
DECAY        37  1.40128412E+01   # H+    decays
#          BR          NDA       ID1       ID2       ID3       ID4
      2.73746759E-09    2           12       -11                       # H+     -->  NUE    E+                 
      1.15580820E-04    2           14       -13                       # H+     -->  NUM    MU+                
      3.31039131E-02    2           16       -15                       # H+     -->  NUT    TAU+               
      3.08248946E-06    2            2        -1                       # H+     -->  UP     DB                 
      1.24574371E-03    2            4        -3                       # H+     -->  CH     SB                 
      1.90062046E-01    2            6        -5                       # H+     -->  TP     BB                 
      2.04198305E-02    2      1000024   1000022                       # H+     -->  W1SS+  Z1SS               
      1.96006689E-02    2      1000024   1000023                       # H+     -->  W1SS+  Z2SS               
      9.06578898E-02    2      1000024   1000025                       # H+     -->  W1SS+  Z3SS               
      1.95047602E-01    2      1000024   1000035                       # H+     -->  W1SS+  Z4SS               
      1.73438728E-01    2      1000037   1000022                       # H+     -->  W2SS+  Z1SS               
      1.94335714E-01    2      1000037   1000023                       # H+     -->  W2SS+  Z2SS               
      8.18321630E-02    2      1000037   1000025                       # H+     -->  W2SS+  Z3SS               
      8.49374337E-05    2      1000037   1000035                       # H+     -->  W2SS+  Z4SS               
      5.21205438E-05    2           25        24                       # H+     -->  HL0    W+                 
