#  ISAJET SUSY parameters in SUSY Les Houches Accord 2 format
#  Created by ISALHA 2.0 Last revision: H Baer 27 May 2014
Block SPINFO   # Program information
     1   ISASUGRA/ISASUSY from ISAJET   # Spectrum Calculator
     2   7.87   18-JUL-2017 13:55:55    # Version number
Block MODSEL   # Model selection
     1    13   # Non-universal supergravity model                  
Block SMINPUTS   # Standard Model inputs
     1     1.28000000E+02   # alpha_em^(-1)
     2     1.16570000E-05   # G_Fermi
     3     1.19999997E-01   # alpha_s(M_Z)
     4     9.11699982E+01   # m_{Z}(pole)
     5     4.19999981E+00   # m_{b}(m_{b})
     6     1.72500000E+02   # m_{top}(pole)
     7     1.77699995E+00   # m_{tau}(pole)
Block MINPAR   # SUSY breaking input parameters
     1     5.00000000E+03   # m_0
     2     3.00000000E+03   # m_{1/2}
     3     1.50000000E+01   # tan(beta)
     4     1.00000000E+00   # sign(mu)
     5    -8.00000000E+03   # A_0
Block EXTPAR   # Non-universal SUSY breaking parameters
     0     1.23345469E+16   # Input scale
    21     7.04298750E+04   # Down type Higgs mass squared
    22     5.76363160E+07   #  Up  type Higgs mass squared
Block MASS   # Scalar and gaugino mass spectrum
#  PDG code   mass                 particle
         6     1.72500000E+02   #  top            
        24     8.04229965E+01   #  W^+
        25     1.25384407E+02   #  h^0            
        35     1.00666840E+03   #  H^0            
        36     1.00000000E+03   #  A^0            
        37     1.00322870E+03   #  H^+            
   1000001     7.39398975E+03   #  dnl            
   1000002     7.39355078E+03   #  upl            
   1000003     7.39398975E+03   #  stl            
   1000004     7.39355078E+03   #  chl            
   1000005     5.80936475E+03   #  b1             
   1000006     3.61905981E+03   #  t1             
   1000011     5.48783887E+03   #  el-            
   1000012     5.48949658E+03   #  nuel           
   1000013     5.48783887E+03   #  mul-           
   1000014     5.48949658E+03   #  numl           
   1000015     4.65706055E+03   #  tau1           
   1000016     5.41574170E+03   #  nutl           
   1000021     6.30935059E+03   #  glss           
   1000022     1.74264374E+02   #  z1ss           
   1000023    -1.77919357E+02   #  z2ss           
   1000024     1.83011612E+02   #  w1ss           
   1000025     1.35050476E+03   #  z3ss           
   1000035     2.51401465E+03   #  z4ss           
   1000037     2.48540430E+03   #  w2ss           
   1000039     1.00000002E+20   #  gvss
   2000001     7.17343213E+03   #  dnr            
   2000002     7.38611084E+03   #  upr            
   2000003     7.17343213E+03   #  str            
   2000004     7.38611084E+03   #  chr            
   2000005     6.96488916E+03   #  b2             
   2000006     5.80542871E+03   #  t2             
   2000011     4.83134814E+03   #  er-            
   2000013     4.83134814E+03   #  mur-           
   2000015     5.41187695E+03   #  tau2           
Block ALPHA   # Effective Higgs mixing parameter
         -6.81471974E-02   # alpha
Block STOPMIX   # stop mixing matrix
  1  1     5.34453318E-02   # O_{11}
  1  2     9.98570800E-01   # O_{12}
  2  1    -9.98570800E-01   # O_{21}
  2  2     5.34453318E-02   # O_{22}
Block SBOTMIX   # sbottom mixing matrix
  1  1     9.99991000E-01   # O_{11}
  1  2     4.23813984E-03   # O_{12}
  2  1    -4.23813984E-03   # O_{21}
  2  2     9.99991000E-01   # O_{22}
Block STAUMIX   # stau mixing matrix
  1  1     4.96702921E-03   # O_{11}
  1  2     9.99987662E-01   # O_{12}
  2  1    -9.99987662E-01   # O_{21}
  2  2     4.96702921E-03   # O_{22}
Block NMIX   # neutralino mixing matrix
  1  1    -2.66689491E-02   #
  1  2     2.51254849E-02   #
  1  3    -7.10483670E-01   #
  1  4     7.02759087E-01   #
  2  1     1.80766974E-02   #
  2  2    -1.80467181E-02   #
  2  3    -7.03667045E-01   #
  2  4    -7.10070550E-01   #
  3  1     9.99469578E-01   #
  3  2     5.75457513E-03   #
  3  3    -6.20647613E-03   #
  3  4     3.14483568E-02   #
  4  1    -4.75758314E-03   #
  4  2     9.99504745E-01   #
  4  3     5.19073149E-03   #
  4  4    -3.06676719E-02   #
Block UMIX   # chargino U mixing matrix
  1  1    -6.66437764E-03   # U_{11}
  1  2     9.99977767E-01   # U_{12}
  2  1    -9.99977767E-01   # U_{21}
  2  2    -6.66437764E-03   # U_{22}
Block VMIX   # chargino V mixing matrix
  1  1    -4.43012230E-02   # V_{11}
  1  2     9.99018192E-01   # V_{12}
  2  1    -9.99018192E-01   # V_{21}
  2  2    -4.43012230E-02   # V_{22}
Block GAUGE Q=  4.50394727E+03   #
     1     3.57515693E-01   # g`
     2     6.52412713E-01   # g_2
     3     1.21974397E+00   # g_3
Block YU Q=  4.50394727E+03   #
  3  3     8.03192198E-01   # y_t
Block YD Q=  4.50394727E+03   #
  3  3     1.81641579E-01   # y_b
Block YE Q=  4.50394727E+03   #
  3  3     1.49019390E-01   # y_tau
Block HMIX Q=  4.50394727E+03   # Higgs mixing parameters
     1     1.70000000E+02   # mu(Q)
     2     1.42625923E+01   # tan(beta)(Q)
     3     2.52605408E+02   # Higgs vev at Q
     4     1.00000000E+06   # m_A^2(Q)
Block MSOFT Q=  4.50394727E+03   # DRbar SUSY breaking parameters
     1     1.35394910E+03   # M_1(Q)          
     2     2.42603003E+03   # M_2(Q)          
     3     5.91622168E+03   # M_3(Q)          
    21     9.63280438E+05   # MHd^2(Q)        
    22     6.97308828E+04   # MHu^2(Q)        
    31     5.46503418E+03   # MeL(Q)          
    32     5.46503418E+03   # MmuL(Q)         
    33     5.39330127E+03   # MtauL(Q)        
    34     4.82715234E+03   # MeR(Q)          
    35     4.82715234E+03   # MmuR(Q)         
    36     4.65703809E+03   # MtauR(Q)        
    41     7.09353857E+03   # MqL1(Q)         
    42     7.09353857E+03   # MqL2(Q)         
    43     5.61766504E+03   # MqL3(Q)         
    44     7.08587354E+03   # MuR(Q)          
    45     7.08587354E+03   # McR(Q)          
    46     3.61102734E+03   # MtR(Q)          
    47     6.86991895E+03   # MdR(Q)          
    48     6.86991895E+03   # MsR(Q)          
    49     6.78743701E+03   # MbR(Q)          
Block AU Q=  4.50394727E+03   #
  1  1    -7.75652490E+03   # A_u
  2  2    -7.75652490E+03   # A_c
  3  3    -7.75652490E+03   # A_t
Block AD Q=  4.50394727E+03   #
  1  1    -1.32809834E+04   # A_d
  2  2    -1.32809834E+04   # A_s
  3  3    -1.32809834E+04   # A_b
Block AE Q=  4.50394727E+03   #
  1  1    -9.29947363E+03   # A_e
  2  2    -9.29947363E+03   # A_mu
  3  3    -9.29947363E+03   # A_tau
#  ISAJET decay tables in SUSY Les Houches accord format
#  Created by ISALHD. Last revision: C. Balazs, 2005 May 25
Block DCINFO                           # Program information
     1   ISASUGRA from ISAJET          # Spectrum Calculator
     2   7.87   18-JUL-2017 13:55:55   # Version number
#         PDG         Width
DECAY         6  1.46776152E+00   # TP    decays
#          BR          NDA       ID1       ID2       ID3       ID4
      3.33333313E-01    3            2        -1         5             # TP     -->  UP     DB     BT          
      3.33333313E-01    3            4        -3         5             # TP     -->  CH     SB     BT          
      1.11111097E-01    3          -11        12         5             # TP     -->  E+     NUE    BT          
      1.11111097E-01    3          -13        14         5             # TP     -->  MU+    NUM    BT          
      1.11111097E-01    3          -15        16         5             # TP     -->  TAU+   NUT    BT          
#         PDG         Width
DECAY   1000021  6.02695465E+01   # GLSS  decays
#          BR          NDA       ID1       ID2       ID3       ID4
      5.64396373E-07    3      1000024         1        -2             # GLSS   -->  W1SS+  DN     UB          
      5.64396373E-07    3     -1000024         2        -1             # GLSS   -->  W1SS-  UP     DB          
      5.64396373E-07    3      1000024         3        -4             # GLSS   -->  W1SS+  ST     CB          
      5.64396373E-07    3     -1000024         4        -3             # GLSS   -->  W1SS-  CH     SB          
      3.50183909E-05    3      1000024         5        -6             # GLSS   -->  W1SS+  BT     TB          
      3.50183909E-05    3     -1000024         6        -5             # GLSS   -->  W1SS-  TP     BB          
      3.14001401E-04    3      1000037         1        -2             # GLSS   -->  W2SS+  DN     UB          
      3.14001401E-04    3     -1000037         2        -1             # GLSS   -->  W2SS-  UP     DB          
      3.14001401E-04    3      1000037         3        -4             # GLSS   -->  W2SS+  ST     CB          
      3.14001401E-04    3     -1000037         4        -3             # GLSS   -->  W2SS-  CH     SB          
      7.20502991E-09    3      1000037         5        -6             # GLSS   -->  W2SS+  BT     TB          
      7.20502991E-09    3     -1000037         6        -5             # GLSS   -->  W2SS-  TP     BB          
      2.74499701E-10    2      1000022        21                       # GLSS   -->  Z1SS   GL                 
      2.29112473E-07    3      1000022         2        -2             # GLSS   -->  Z1SS   UP     UB          
      2.93658729E-07    3      1000022         1        -1             # GLSS   -->  Z1SS   DN     DB          
      2.93658729E-07    3      1000022         3        -3             # GLSS   -->  Z1SS   ST     SB          
      2.29112473E-07    3      1000022         4        -4             # GLSS   -->  Z1SS   CH     CB          
      3.54984913E-05    3      1000022         5        -5             # GLSS   -->  Z1SS   BT     BB          
      1.36396019E-10    2      1000023        21                       # GLSS   -->  Z2SS   GL                 
      1.05360904E-07    3      1000023         2        -2             # GLSS   -->  Z2SS   UP     UB          
      1.36505577E-07    3      1000023         1        -1             # GLSS   -->  Z2SS   DN     DB          
      1.36505577E-07    3      1000023         3        -3             # GLSS   -->  Z2SS   ST     SB          
      1.05360904E-07    3      1000023         4        -4             # GLSS   -->  Z2SS   CH     CB          
      3.48736176E-05    3      1000023         5        -5             # GLSS   -->  Z2SS   BT     BB          
      2.58448722E-07    2      1000025        21                       # GLSS   -->  Z3SS   GL                 
      1.53071393E-04    3      1000025         2        -2             # GLSS   -->  Z3SS   UP     UB          
      5.23286326E-05    3      1000025         1        -1             # GLSS   -->  Z3SS   DN     DB          
      5.23286326E-05    3      1000025         3        -3             # GLSS   -->  Z3SS   ST     SB          
      1.53071393E-04    3      1000025         4        -4             # GLSS   -->  Z3SS   CH     CB          
      5.48610624E-05    3      1000025         5        -5             # GLSS   -->  Z3SS   BT     BB          
      2.06526723E-12    2      1000035        21                       # GLSS   -->  Z4SS   GL                 
      1.53800545E-04    3      1000035         2        -2             # GLSS   -->  Z4SS   UP     UB          
      1.54270587E-04    3      1000035         1        -1             # GLSS   -->  Z4SS   DN     DB          
      1.54270587E-04    3      1000035         3        -3             # GLSS   -->  Z4SS   ST     SB          
      1.53800545E-04    3      1000035         4        -4             # GLSS   -->  Z4SS   CH     CB          
      8.30913471E-09    3      1000035         5        -5             # GLSS   -->  Z4SS   BT     BB          
      2.34821141E-02    2     -1000005         5                       # GLSS   -->  BB1    BT                 
      2.34821141E-02    2      1000005        -5                       # GLSS   -->  BT1    BB                 
      4.51916754E-01    2     -1000006         6                       # GLSS   -->  TB1    TP                 
      4.51916754E-01    2      1000006        -6                       # GLSS   -->  TP1    TB                 
      2.33599730E-02    2     -2000006         6                       # GLSS   -->  TB2    TP                 
      2.33599730E-02    2      2000006        -6                       # GLSS   -->  TP2    TB                 
#         PDG         Width
DECAY   1000002  1.02151283E+02   # UPL   decays
#          BR          NDA       ID1       ID2       ID3       ID4
      1.24663769E-04    2      1000022         2                       # UPL    -->  Z1SS   UP                 
      6.60716323E-05    2      1000023         2                       # UPL    -->  Z2SS   UP                 
      1.01542305E-02    2      1000025         2                       # UPL    -->  Z3SS   UP                 
      2.37635911E-01    2      1000035         2                       # UPL    -->  Z4SS   UP                 
      2.72367716E-01    2      1000021         2                       # UPL    -->  GLSS   UP                 
      1.19440164E-03    2      1000024         1                       # UPL    -->  W1SS+  DN                 
      4.78457034E-01    2      1000037         1                       # UPL    -->  W2SS+  DN                 
#         PDG         Width
DECAY   1000001  1.02136803E+02   # DNL   decays
#          BR          NDA       ID1       ID2       ID3       ID4
      2.74156919E-04    2      1000022         1                       # DNL    -->  Z1SS   DN                 
      1.38850359E-04    2      1000023         1                       # DNL    -->  Z2SS   DN                 
      8.95624049E-03    2      1000025         1                       # DNL    -->  Z3SS   DN                 
      2.38521621E-01    2      1000035         1                       # DNL    -->  Z4SS   DN                 
      2.72594541E-01    2      1000021         1                       # DNL    -->  GLSS   DN                 
      2.70349519E-05    2     -1000024         2                       # DNL    -->  W1SS-  UP                 
      4.79487568E-01    2     -1000037         2                       # DNL    -->  W2SS-  UP                 
#         PDG         Width
DECAY   1000003  1.02136795E+02   # STL   decays
#          BR          NDA       ID1       ID2       ID3       ID4
      2.74156948E-04    2      1000022         3                       # STL    -->  Z1SS   ST                 
      1.38850373E-04    2      1000023         3                       # STL    -->  Z2SS   ST                 
      8.95624049E-03    2      1000025         3                       # STL    -->  Z3SS   ST                 
      2.38521636E-01    2      1000035         3                       # STL    -->  Z4SS   ST                 
      2.72594541E-01    2      1000021         3                       # STL    -->  GLSS   ST                 
      2.70349519E-05    2     -1000024         4                       # STL    -->  W1SS-  CH                 
      4.79487568E-01    2     -1000037         4                       # STL    -->  W2SS-  CH                 
#         PDG         Width
DECAY   1000004  1.02151260E+02   # CHL   decays
#          BR          NDA       ID1       ID2       ID3       ID4
      1.24663784E-04    2      1000022         4                       # CHL    -->  Z1SS   CH                 
      6.60716469E-05    2      1000023         4                       # CHL    -->  Z2SS   CH                 
      1.01542315E-02    2      1000025         4                       # CHL    -->  Z3SS   CH                 
      2.37635925E-01    2      1000035         4                       # CHL    -->  Z4SS   CH                 
      2.72367537E-01    2      1000021         4                       # CHL    -->  GLSS   CH                 
      1.19440199E-03    2      1000024         3                       # CHL    -->  W1SS+  ST                 
      4.78457153E-01    2      1000037         3                       # CHL    -->  W2SS+  ST                 
#         PDG         Width
DECAY   1000005  2.07795044E+02   # BT1   decays
#          BR          NDA       ID1       ID2       ID3       ID4
      9.85732395E-03    2      1000022         5                       # BT1    -->  Z1SS   BT                 
      9.59905609E-03    2      1000023         5                       # BT1    -->  Z2SS   BT                 
      3.31200543E-03    2      1000025         5                       # BT1    -->  Z3SS   BT                 
      7.77870640E-02    2      1000035         5                       # BT1    -->  Z4SS   BT                 
      3.39769065E-01    2     -1000024         6                       # BT1    -->  W1SS-  TP                 
      1.57627344E-01    2     -1000037         6                       # BT1    -->  W2SS-  TP                 
      4.01002586E-01    2          -24   1000006                       # BT1    -->  W-     TP1                
      1.04549946E-03    2          -37   1000006                       # BT1    -->  H-     TP1                
#         PDG         Width
DECAY   1000006  9.38990784E+01   # TP1   decays
#          BR          NDA       ID1       ID2       ID3       ID4
      2.31256574E-01    2      1000022         6                       # TP1    -->  Z1SS   TP                 
      2.36052692E-01    2      1000023         6                       # TP1    -->  Z2SS   TP                 
      6.43470287E-02    2      1000025         6                       # TP1    -->  Z3SS   TP                 
      7.15214981E-08    2      1000035         6                       # TP1    -->  Z4SS   TP                 
      4.68343675E-01    2      1000024         5                       # TP1    -->  W1SS+  BT                 
      1.66397662E-09    2      1000037         5                       # TP1    -->  W2SS+  BT                 
#         PDG         Width
DECAY   2000002  4.30977287E+01   # UPR   decays
#          BR          NDA       ID1       ID2       ID3       ID4
      2.75236409E-04    2      1000022         2                       # UPR    -->  Z1SS   UP                 
      1.26447936E-04    2      1000023         2                       # UPR    -->  Z2SS   UP                 
      3.61561179E-01    2      1000025         2                       # UPR    -->  Z3SS   UP                 
      6.85488658E-06    2      1000035         2                       # UPR    -->  Z4SS   UP                 
      6.38030291E-01    2      1000021         2                       # UPR    -->  GLSS   UP                 
#         PDG         Width
DECAY   2000001  2.25530949E+01   # DNR   decays
#          BR          NDA       ID1       ID2       ID3       ID4
      1.27695690E-04    2      1000022         1                       # DNR    -->  Z1SS   DN                 
      5.86652277E-05    2      1000023         1                       # DNR    -->  Z2SS   DN                 
      1.67059600E-01    2      1000025         1                       # DNR    -->  Z3SS   DN                 
      3.13057330E-06    2      1000035         1                       # DNR    -->  Z4SS   DN                 
      8.32750916E-01    2      1000021         1                       # DNR    -->  GLSS   DN                 
#         PDG         Width
DECAY   2000003  2.25530949E+01   # STR   decays
#          BR          NDA       ID1       ID2       ID3       ID4
      1.27695690E-04    2      1000022         3                       # STR    -->  Z1SS   ST                 
      5.86652277E-05    2      1000023         3                       # STR    -->  Z2SS   ST                 
      1.67059600E-01    2      1000025         3                       # STR    -->  Z3SS   ST                 
      3.13057330E-06    2      1000035         3                       # STR    -->  Z4SS   ST                 
      8.32750916E-01    2      1000021         3                       # STR    -->  GLSS   ST                 
#         PDG         Width
DECAY   2000004  4.30977020E+01   # CHR   decays
#          BR          NDA       ID1       ID2       ID3       ID4
      2.75236584E-04    2      1000022         4                       # CHR    -->  Z1SS   CH                 
      1.26447994E-04    2      1000023         4                       # CHR    -->  Z2SS   CH                 
      3.61561358E-01    2      1000025         4                       # CHR    -->  Z3SS   CH                 
      6.85489022E-06    2      1000035         4                       # CHR    -->  Z4SS   CH                 
      6.38030112E-01    2      1000021         4                       # CHR    -->  GLSS   CH                 
#         PDG         Width
DECAY   2000005  5.31249619E+01   # BT2   decays
#          BR          NDA       ID1       ID2       ID3       ID4
      4.57004160E-02    2      1000022         5                       # BT2    -->  Z1SS   BT                 
      4.48876321E-02    2      1000023         5                       # BT2    -->  Z2SS   BT                 
      6.85611218E-02    2      1000025         5                       # BT2    -->  Z3SS   BT                 
      1.80840598E-05    2      1000035         5                       # BT2    -->  Z4SS   BT                 
      2.16004401E-01    2      1000021         5                       # BT2    -->  GLSS   BT                 
      9.04226005E-02    2     -1000024         6                       # BT2    -->  W1SS-  TP                 
      3.18083548E-05    2     -1000037         6                       # BT2    -->  W2SS-  TP                 
      8.25317038E-05    2          -24   1000006                       # BT2    -->  W-     TP1                
      2.09278055E-03    2          -24   2000006                       # BT2    -->  W-     TP2                
      1.05114130E-03    2           23   1000005                       # BT2    -->  Z0     BT1                
      1.73445570E-03    2           25   1000005                       # BT2    -->  HL0    BT1                
      1.32403046E-01    2           36   1000005                       # BT2    -->  HA0    BT1                
      1.29685044E-01    2           35   1000005                       # BT2    -->  HH0    BT1                
      1.94715499E-03    2          -37   1000006                       # BT2    -->  H-     TP1                
      2.65377849E-01    2          -37   2000006                       # BT2    -->  H-     TP2                
#         PDG         Width
DECAY   2000006  2.26953918E+02   # TP2   decays
#          BR          NDA       ID1       ID2       ID3       ID4
      1.76872686E-02    2      1000024         5                       # TP2    -->  W1SS+  BT                 
      1.43769741E-01    2      1000037         5                       # TP2    -->  W2SS+  BT                 
      1.84502706E-01    2           23   1000006                       # TP2    -->  Z0     TP1                
      2.67584741E-01    2           25   1000006                       # TP2    -->  HL0    TP1                
      5.06684300E-04    2           35   1000006                       # TP2    -->  HH0    TP1                
      4.78662871E-04    2           36   1000006                       # TP2    -->  HA0    TP1                
      1.53380483E-01    2      1000022         6                       # TP2    -->  Z1SS   TP                 
      1.56680167E-01    2      1000023         6                       # TP2    -->  Z2SS   TP                 
      4.09364887E-03    2      1000025         6                       # TP2    -->  Z3SS   TP                 
      7.13159740E-02    2      1000035         6                       # TP2    -->  Z4SS   TP                 
#         PDG         Width
DECAY   1000011  4.98100204E+01   # EL-   decays
#          BR          NDA       ID1       ID2       ID3       ID4
      5.07131335E-05    2      1000022        11                       # EL-    -->  Z1SS   E-                 
      3.04490186E-05    2      1000023        11                       # EL-    -->  Z2SS   E-                 
      1.26110688E-01    2      1000025        11                       # EL-    -->  Z3SS   E-                 
      2.87738174E-01    2      1000035        11                       # EL-    -->  Z4SS   E-                 
      4.11035580E-05    2     -1000024        12                       # EL-    -->  W1SS-  NUE                
      5.86028934E-01    2     -1000037        12                       # EL-    -->  W2SS-  NUE                
#         PDG         Width
DECAY   1000013  4.98100204E+01   # MUL-  decays
#          BR          NDA       ID1       ID2       ID3       ID4
      5.07131335E-05    2      1000022        13                       # MUL-   -->  Z1SS   MU-                
      3.04490186E-05    2      1000023        13                       # MUL-   -->  Z2SS   MU-                
      1.26110688E-01    2      1000025        13                       # MUL-   -->  Z3SS   MU-                
      2.87738174E-01    2      1000035        13                       # MUL-   -->  Z4SS   MU-                
      4.11035580E-05    2     -1000024        14                       # MUL-   -->  W1SS-  NUM                
      5.86028934E-01    2     -1000037        14                       # MUL-   -->  W2SS-  NUM                
#         PDG         Width
DECAY   1000015  2.41967983E+01   # TAU1- decays
#          BR          NDA       ID1       ID2       ID3       ID4
      4.58562411E-02    2      1000022        15                       # TAU1-  -->  Z1SS   TAU-               
      4.44867909E-02    2      1000023        15                       # TAU1-  -->  Z2SS   TAU-               
      8.20320249E-01    2      1000025        15                       # TAU1-  -->  Z3SS   TAU-               
      1.53129658E-05    2      1000035        15                       # TAU1-  -->  Z4SS   TAU-               
      8.93118009E-02    2     -1000024        16                       # TAU1-  -->  W1SS-  NUT                
      9.58064265E-06    2     -1000037        16                       # TAU1-  -->  W2SS-  NUT                
#         PDG         Width
DECAY   1000012  4.98151703E+01   # NUEL  decays
#          BR          NDA       ID1       ID2       ID3       ID4
      7.32670771E-04    2      1000022        12                       # NUEL   -->  Z1SS   NUE                
      3.62434250E-04    2      1000023        12                       # NUEL   -->  Z2SS   NUE                
      1.20968759E-01    2      1000025        12                       # NUEL   -->  Z3SS   NUE                
      2.90916085E-01    2      1000035        12                       # NUEL   -->  Z4SS   NUE                
      1.81667996E-03    2      1000024        11                       # NUEL   -->  W1SS+  E-                 
      5.85203409E-01    2      1000037        11                       # NUEL   -->  W2SS+  E-                 
#         PDG         Width
DECAY   1000014  4.98151703E+01   # NUML  decays
#          BR          NDA       ID1       ID2       ID3       ID4
      7.32670771E-04    2      1000022        14                       # NUML   -->  Z1SS   NUM                
      3.62434250E-04    2      1000023        14                       # NUML   -->  Z2SS   NUM                
      1.20968759E-01    2      1000025        14                       # NUML   -->  Z3SS   NUM                
      2.90916085E-01    2      1000035        14                       # NUML   -->  Z4SS   NUM                
      1.81667996E-03    2      1000024        13                       # NUML   -->  W1SS+  MU-                
      5.85203409E-01    2      1000037        13                       # NUML   -->  W2SS+  MU-                
#         PDG         Width
DECAY   1000016  5.10711670E+01   # NUTL  decays
#          BR          NDA       ID1       ID2       ID3       ID4
      7.05011247E-04    2      1000022        16                       # NUTL   -->  Z1SS   NUT                
      3.48751026E-04    2      1000023        16                       # NUTL   -->  Z2SS   NUT                
      1.15997486E-01    2      1000025        16                       # NUTL   -->  Z3SS   NUT                
      2.75889069E-01    2      1000035        16                       # NUTL   -->  Z4SS   NUT                
      5.09828217E-02    2      1000024        15                       # NUTL   -->  W1SS+  TAU-               
      5.55208504E-01    2      1000037        15                       # NUTL   -->  W2SS+  TAU-               
      8.68402829E-04    2           24   1000015                       # NUTL   -->  W+     TAU1-              
#         PDG         Width
DECAY   2000011  2.08869286E+01   # ER-   decays
#          BR          NDA       ID1       ID2       ID3       ID4
      8.34590581E-04    2      1000022        11                       # ER-    -->  Z1SS   E-                 
      3.83399893E-04    2      1000023        11                       # ER-    -->  Z2SS   E-                 
      9.98767853E-01    2      1000025        11                       # ER-    -->  Z3SS   E-                 
      1.41610508E-05    2      1000035        11                       # ER-    -->  Z4SS   E-                 
#         PDG         Width
DECAY   2000013  2.08869286E+01   # MUR-  decays
#          BR          NDA       ID1       ID2       ID3       ID4
      8.34590581E-04    2      1000022        13                       # MUR-   -->  Z1SS   MU-                
      3.83399893E-04    2      1000023        13                       # MUR-   -->  Z2SS   MU-                
      9.98767853E-01    2      1000025        13                       # MUR-   -->  Z3SS   MU-                
      1.41610508E-05    2      1000035        13                       # MUR-   -->  Z4SS   MU-                
#         PDG         Width
DECAY   2000015  5.10094147E+01   # TAU2- decays
#          BR          NDA       ID1       ID2       ID3       ID4
      2.48791259E-02    2      1000022        15                       # TAU2-  -->  Z1SS   TAU-               
      2.44530831E-02    2      1000023        15                       # TAU2-  -->  Z2SS   TAU-               
      1.21012799E-01    2      1000025        15                       # TAU2-  -->  Z3SS   TAU-               
      2.72937119E-01    2      1000035        15                       # TAU2-  -->  Z4SS   TAU-               
      2.69226312E-05    2     -1000024        16                       # TAU2-  -->  W1SS-  NUT                
      5.56120396E-01    2     -1000037        16                       # TAU2-  -->  W2SS-  NUT                
      4.31969820E-04    2           23   1000015                       # TAU2-  -->  Z0     TAU1-              
      1.38684656E-04    2           25   1000015                       # TAU2-  -->  HL0    TAU1-              
#         PDG         Width
DECAY   1000023  5.92574767E-10   # Z2SS  decays
#          BR          NDA       ID1       ID2       ID3       ID4
      2.01921225E-01    2      1000022        22                       # Z2SS   -->  Z1SS   GM                 
      1.35035232E-01    3      1000022         2        -2             # Z2SS   -->  Z1SS   UP     UB          
      1.74128816E-01    3      1000022         1        -1             # Z2SS   -->  Z1SS   DN     DB          
      1.74128816E-01    3      1000022         3        -3             # Z2SS   -->  Z1SS   ST     SB          
      3.95010263E-02    3      1000022        11       -11             # Z2SS   -->  Z1SS   E-     E+          
      3.95010263E-02    3      1000022        13       -13             # Z2SS   -->  Z1SS   MU-    MU+         
      7.85946548E-02    3      1000022        12       -12             # Z2SS   -->  Z1SS   NUE    ANUE        
      7.85946548E-02    3      1000022        14       -14             # Z2SS   -->  Z1SS   NUM    ANUM        
      7.85946548E-02    3      1000022        16       -16             # Z2SS   -->  Z1SS   NUT    ANUT        
#         PDG         Width
DECAY   1000025  3.78606582E+00   # Z3SS  decays
#          BR          NDA       ID1       ID2       ID3       ID4
      7.38567252E-08    2      1000022        22                       # Z3SS   -->  Z1SS   GM                 
      7.13496746E-08    2      1000023        22                       # Z3SS   -->  Z2SS   GM                 
      2.09823981E-01    2      1000024       -24                       # Z3SS   -->  W1SS+  W-                 
      2.09823981E-01    2     -1000024        24                       # Z3SS   -->  W1SS-  W+                 
      3.78217436E-02    2      1000024       -37                       # Z3SS   -->  W1SS+  H-                 
      3.78217436E-02    2     -1000024        37                       # Z3SS   -->  W1SS-  H+                 
      6.40607700E-02    2      1000022        23                       # Z3SS   -->  Z1SS   Z0                 
      1.44515157E-01    2      1000023        23                       # Z3SS   -->  Z2SS   Z0                 
      1.35496364E-10    3      1000022         2        -2             # Z3SS   -->  Z1SS   UP     UB          
      2.63180554E-11    3      1000022         1        -1             # Z3SS   -->  Z1SS   DN     DB          
      2.63180554E-11    3      1000022         3        -3             # Z3SS   -->  Z1SS   ST     SB          
      1.35496364E-10    3      1000022         4        -4             # Z3SS   -->  Z1SS   CH     CB          
      5.71620706E-09    3      1000022         5        -5             # Z3SS   -->  Z1SS   BT     BB          
      1.23332233E-09    3      1000022        11       -11             # Z3SS   -->  Z1SS   E-     E+          
      1.23332233E-09    3      1000022        13       -13             # Z3SS   -->  Z1SS   MU-    MU+         
      1.15458519E-07    3      1000022        15       -15             # Z3SS   -->  Z1SS   TAU-   TAU+        
      3.22518373E-10    3      1000022        12       -12             # Z3SS   -->  Z1SS   NUE    ANUE        
      3.22518373E-10    3      1000022        14       -14             # Z3SS   -->  Z1SS   NUM    ANUM        
      3.40917961E-10    3      1000022        16       -16             # Z3SS   -->  Z1SS   NUT    ANUT        
      4.04403594E-11    3      1000023         2        -2             # Z3SS   -->  Z2SS   UP     UB          
      8.30319147E-12    3      1000023         1        -1             # Z3SS   -->  Z2SS   DN     DB          
      8.30319147E-12    3      1000023         3        -3             # Z3SS   -->  Z2SS   ST     SB          
      4.04403594E-11    3      1000023         4        -4             # Z3SS   -->  Z2SS   CH     CB          
      5.57229152E-09    3      1000023         5        -5             # Z3SS   -->  Z2SS   BT     BB          
      3.68346187E-10    3      1000023        11       -11             # Z3SS   -->  Z2SS   E-     E+          
      3.68346187E-10    3      1000023        13       -13             # Z3SS   -->  Z2SS   MU-    MU+         
      1.11625234E-07    3      1000023        15       -15             # Z3SS   -->  Z2SS   TAU-   TAU+        
      1.02918639E-10    3      1000023        12       -12             # Z3SS   -->  Z2SS   NUE    ANUE        
      1.02918639E-10    3      1000023        14       -14             # Z3SS   -->  Z2SS   NUM    ANUM        
      1.08810773E-10    3      1000023        16       -16             # Z3SS   -->  Z2SS   NUT    ANUT        
      1.52785584E-01    2      1000022        25                       # Z3SS   -->  Z1SS   HL0                
      2.65998412E-02    2      1000022        35                       # Z3SS   -->  Z1SS   HH0                
      1.03941755E-02    2      1000022        36                       # Z3SS   -->  Z1SS   HA0                
      6.98784143E-02    2      1000023        25                       # Z3SS   -->  Z2SS   HL0                
      9.39427502E-03    2      1000023        35                       # Z3SS   -->  Z2SS   HH0                
      2.70798597E-02    2      1000023        36                       # Z3SS   -->  Z2SS   HA0                
#         PDG         Width
DECAY   1000035  3.55163574E+01   # Z4SS  decays
#          BR          NDA       ID1       ID2       ID3       ID4
      4.22163794E-07    2      1000022        22                       # Z4SS   -->  Z1SS   GM                 
      6.42554767E-07    2      1000023        22                       # Z4SS   -->  Z2SS   GM                 
      5.13537490E-10    2      1000025        22                       # Z4SS   -->  Z3SS   GM                 
      1.49102136E-01    2      1000024       -24                       # Z4SS   -->  W1SS+  W-                 
      1.49102136E-01    2     -1000024        24                       # Z4SS   -->  W1SS-  W+                 
      1.02015764E-01    2      1000024       -37                       # Z4SS   -->  W1SS+  H-                 
      1.02015764E-01    2     -1000024        37                       # Z4SS   -->  W1SS-  H+                 
      9.90696776E-07    3     -1000037         2        -1             # Z4SS   -->  W2SS-  UP     DB          
      3.30232268E-07    3     -1000037        12       -11             # Z4SS   -->  W2SS-  NUE    E+          
      3.30232268E-07    3     -1000037        14       -13             # Z4SS   -->  W2SS-  NUM    MU+         
      9.90696776E-07    3      1000037         1        -2             # Z4SS   -->  W2SS+  DN     UB          
      3.30232268E-07    3      1000037        11       -12             # Z4SS   -->  W2SS+  E-     ANUE        
      3.30232268E-07    3      1000037        13       -14             # Z4SS   -->  W2SS+  MU-    ANUM        
      9.90696776E-07    3     -1000037         4        -3             # Z4SS   -->  W2SS-  CH     SB          
      3.30232268E-07    3     -1000037        16       -15             # Z4SS   -->  W2SS-  NUT    TAU+        
      9.90696776E-07    3      1000037         3        -4             # Z4SS   -->  W2SS+  ST     CB          
      3.30232268E-07    3      1000037        15       -16             # Z4SS   -->  W2SS+  TAU-   ANUT        
      4.64209430E-02    2      1000022        23                       # Z4SS   -->  Z1SS   Z0                 
      9.38973278E-02    2      1000023        23                       # Z4SS   -->  Z2SS   Z0                 
      4.65404119E-05    2      1000025        23                       # Z4SS   -->  Z3SS   Z0                 
      6.50419163E-10    3      1000022         2        -2             # Z4SS   -->  Z1SS   UP     UB          
      1.43471901E-09    3      1000022         1        -1             # Z4SS   -->  Z1SS   DN     DB          
      1.43471901E-09    3      1000022         3        -3             # Z4SS   -->  Z1SS   ST     SB          
      6.50419163E-10    3      1000022         4        -4             # Z4SS   -->  Z1SS   CH     CB          
      3.32864175E-07    3      1000022         5        -5             # Z4SS   -->  Z1SS   BT     BB          
      2.06965084E-10    3      1000022        11       -11             # Z4SS   -->  Z1SS   E-     E+          
      2.06965084E-10    3      1000022        13       -13             # Z4SS   -->  Z1SS   MU-    MU+         
      9.95363436E-08    3      1000022        15       -15             # Z4SS   -->  Z1SS   TAU-   TAU+        
      3.01580450E-09    3      1000022        12       -12             # Z4SS   -->  Z1SS   NUE    ANUE        
      3.01580450E-09    3      1000022        14       -14             # Z4SS   -->  Z1SS   NUM    ANUM        
      3.20033022E-09    3      1000022        16       -16             # Z4SS   -->  Z1SS   NUT    ANUT        
      2.67722094E-10    3      1000023         2        -2             # Z4SS   -->  Z2SS   UP     UB          
      5.64327141E-10    3      1000023         1        -1             # Z4SS   -->  Z2SS   DN     DB          
      5.64327141E-10    3      1000023         3        -3             # Z4SS   -->  Z2SS   ST     SB          
      2.67722094E-10    3      1000023         4        -4             # Z4SS   -->  Z2SS   CH     CB          
      3.23571328E-07    3      1000023         5        -5             # Z4SS   -->  Z2SS   BT     BB          
      9.72563835E-11    3      1000023        11       -11             # Z4SS   -->  Z2SS   E-     E+          
      9.72563835E-11    3      1000023        13       -13             # Z4SS   -->  Z2SS   MU-    MU+         
      9.73916485E-08    3      1000023        15       -15             # Z4SS   -->  Z2SS   TAU-   TAU+        
      1.16768306E-09    3      1000023        12       -12             # Z4SS   -->  Z2SS   NUE    ANUE        
      1.16768306E-09    3      1000023        14       -14             # Z4SS   -->  Z2SS   NUM    ANUM        
      1.23974608E-09    3      1000023        16       -16             # Z4SS   -->  Z2SS   NUT    ANUT        
      9.51505807E-09    3      1000025         2        -2             # Z4SS   -->  Z3SS   UP     UB          
      8.41646308E-09    3      1000025         1        -1             # Z4SS   -->  Z3SS   DN     DB          
      8.41646308E-09    3      1000025         3        -3             # Z4SS   -->  Z3SS   ST     SB          
      9.51505807E-09    3      1000025         4        -4             # Z4SS   -->  Z3SS   CH     CB          
      2.43275036E-08    3      1000025         5        -5             # Z4SS   -->  Z3SS   BT     BB          
      1.02268935E-07    3      1000025        11       -11             # Z4SS   -->  Z3SS   E-     E+          
      1.02268935E-07    3      1000025        13       -13             # Z4SS   -->  Z3SS   MU-    MU+         
      1.09049061E-07    3      1000025        15       -15             # Z4SS   -->  Z3SS   TAU-   TAU+        
      9.89468774E-08    3      1000025        12       -12             # Z4SS   -->  Z3SS   NUE    ANUE        
      9.89468774E-08    3      1000025        14       -14             # Z4SS   -->  Z3SS   NUM    ANUM        
      1.05302661E-07    3      1000025        16       -16             # Z4SS   -->  Z3SS   NUT    ANUT        
      9.48781222E-02    2      1000022        25                       # Z4SS   -->  Z1SS   HL0                
      5.35087138E-02    2      1000022        35                       # Z4SS   -->  Z1SS   HH0                
      5.04719317E-02    2      1000022        36                       # Z4SS   -->  Z1SS   HA0                
      5.56277521E-02    2      1000023        25                       # Z4SS   -->  Z2SS   HL0                
      4.93362881E-02    2      1000023        35                       # Z4SS   -->  Z2SS   HH0                
      5.29746152E-02    2      1000023        36                       # Z4SS   -->  Z2SS   HA0                
      5.89312811E-04    2      1000025        25                       # Z4SS   -->  Z3SS   HL0                
      3.72237787E-06    2      1000025        35                       # Z4SS   -->  Z3SS   HH0                
      4.37871506E-07    2      1000025        36                       # Z4SS   -->  Z3SS   HA0                
#         PDG         Width
DECAY   1000024  6.63469208E-08   # W1SS+ decays
#          BR          NDA       ID1       ID2       ID3       ID4
      3.11943203E-01    3      1000022         2        -1             # W1SS+  -->  Z1SS   UP     DB          
      3.11943203E-01    3      1000022         4        -3             # W1SS+  -->  Z1SS   CH     SB          
      1.03981085E-01    3      1000022       -11        12             # W1SS+  -->  Z1SS   E+     NUE         
      1.03981085E-01    3      1000022       -13        14             # W1SS+  -->  Z1SS   MU+    NUM         
      1.03982836E-01    3      1000022       -15        16             # W1SS+  -->  Z1SS   TAU+   NUT         
      2.13894248E-02    3      1000023         2        -1             # W1SS+  -->  Z2SS   UP     DB          
      2.13894248E-02    3      1000023         4        -3             # W1SS+  -->  Z2SS   CH     SB          
      7.12980982E-03    3      1000023       -11        12             # W1SS+  -->  Z2SS   E+     NUE         
      7.12980982E-03    3      1000023       -13        14             # W1SS+  -->  Z2SS   MU+    NUM         
      7.12992484E-03    3      1000023       -15        16             # W1SS+  -->  Z2SS   TAU+   NUT         
#         PDG         Width
DECAY   1000037  3.41758575E+01   # W2SS+ decays
#          BR          NDA       ID1       ID2       ID3       ID4
      1.60446889E-09    3      1000022         2        -1             # W2SS+  -->  Z1SS   UP     DB          
      1.60446889E-09    3      1000022         4        -3             # W2SS+  -->  Z1SS   CH     SB          
      2.62682454E-09    3      1000022       -11        12             # W2SS+  -->  Z1SS   E+     NUE         
      2.62682454E-09    3      1000022       -13        14             # W2SS+  -->  Z1SS   MU+    NUM         
      1.01018379E-07    3      1000022       -15        16             # W2SS+  -->  Z1SS   TAU+   NUT         
      1.39339298E-01    2      1000022        24                       # W2SS+  -->  Z1SS   W+                 
      1.05656676E-01    2      1000022        37                       # W2SS+  -->  Z1SS   H+                 
      1.04193854E-09    3      1000023         2        -1             # W2SS+  -->  Z2SS   UP     DB          
      1.04193854E-09    3      1000023         4        -3             # W2SS+  -->  Z2SS   CH     SB          
      1.49195256E-09    3      1000023       -11        12             # W2SS+  -->  Z2SS   E+     NUE         
      1.49195256E-09    3      1000023       -13        14             # W2SS+  -->  Z2SS   MU+    NUM         
      9.78468719E-08    3      1000023       -15        16             # W2SS+  -->  Z2SS   TAU+   NUT         
      1.36468247E-01    2      1000023        24                       # W2SS+  -->  Z2SS   W+                 
      1.03525706E-01    2      1000023        37                       # W2SS+  -->  Z2SS   H+                 
      1.66404455E-08    3      1000025         2        -1             # W2SS+  -->  Z3SS   UP     DB          
      1.66404455E-08    3      1000025         4        -3             # W2SS+  -->  Z3SS   CH     SB          
      1.86409352E-07    3      1000025       -11        12             # W2SS+  -->  Z3SS   E+     NUE         
      1.86409352E-07    3      1000025       -13        14             # W2SS+  -->  Z3SS   MU+    NUM         
      1.98547241E-07    3      1000025       -15        16             # W2SS+  -->  Z3SS   TAU+   NUT         
      5.63825946E-03    2      1000025        24                       # W2SS+  -->  Z3SS   W+                 
      3.65646451E-06    2      1000025        37                       # W2SS+  -->  Z3SS   H+                 
      1.45918801E-01    2      1000024        23                       # W2SS+  -->  W1SS+  Z0                 
      5.40983258E-09    3      1000024         1        -1             # W2SS+  -->  W1SS+  DN     DB          
      5.40983258E-09    3      1000024         3        -3             # W2SS+  -->  W1SS+  ST     SB          
      1.22630128E-10    3      1000024         2        -2             # W2SS+  -->  W1SS+  UP     UB          
      1.22630128E-10    3      1000024         4        -4             # W2SS+  -->  W1SS+  CH     CB          
      1.46562637E-10    3      1000024        12       -12             # W2SS+  -->  W1SS+  NUE    ANUE        
      1.46562637E-10    3      1000024        14       -14             # W2SS+  -->  W1SS+  NUM    ANUM        
      3.05689890E-10    3      1000024        16       -16             # W2SS+  -->  W1SS+  NUT    ANUT        
      6.45544107E-09    3      1000024        11       -11             # W2SS+  -->  W1SS+  E-     E+          
      6.45544107E-09    3      1000024        13       -13             # W2SS+  -->  W1SS+  MU-    MU+         
      6.85095580E-09    3      1000024        15       -15             # W2SS+  -->  W1SS+  TAU-   TAU+        
      1.54973567E-01    2      1000024        25                       # W2SS+  -->  W1SS+  HL0                
      1.03930265E-01    2      1000024        35                       # W2SS+  -->  W1SS+  HH0                
      1.04544699E-01    2      1000024        36                       # W2SS+  -->  W1SS+  HA0                
#         PDG         Width
DECAY        25  3.96844698E-03   # HL0   decays
#          BR          NDA       ID1       ID2       ID3       ID4
      5.62662139E-09    2           11       -11                       # HL0    -->  E-     E+                 
      2.37565109E-04    2           13       -13                       # HL0    -->  MU-    MU+                
      6.79605901E-02    2           15       -15                       # HL0    -->  TAU-   TAU+               
      7.05291995E-06    2            1        -1                       # HL0    -->  DN     DB                 
      2.84973346E-03    2            3        -3                       # HL0    -->  ST     SB                 
      6.10597908E-01    2            5        -5                       # HL0    -->  BT     BB                 
      2.15303271E-06    2            2        -2                       # HL0    -->  UP     UB                 
      3.99992540E-02    2            4        -4                       # HL0    -->  CH     CB                 
      2.65743514E-03    2           22        22                       # HL0    -->  GM     GM                 
      5.29706851E-02    2           21        21                       # HL0    -->  GL     GL                 
      1.11233722E-02    3           24        11       -12             # HL0    -->  W+     E-     ANUE        
      1.11233722E-02    3           24        13       -14             # HL0    -->  W+     MU-    ANUM        
      1.11233722E-02    3           24        15       -16             # HL0    -->  W+     TAU-   ANUT        
      3.33701149E-02    3           24        -2         1             # HL0    -->  W+     UB     DN          
      3.33701149E-02    3           24        -4         3             # HL0    -->  W+     CB     ST          
      1.11233722E-02    3          -24       -11        12             # HL0    -->  W-     E+     NUE         
      1.11233722E-02    3          -24       -13        14             # HL0    -->  W-     MU+    NUM         
      1.11233722E-02    3          -24       -15        16             # HL0    -->  W-     TAU+   NUT         
      3.33701149E-02    3          -24         2        -1             # HL0    -->  W-     UP     DB          
      3.33701149E-02    3          -24         4        -3             # HL0    -->  W-     CH     SB          
      1.53855328E-03    3           23        12       -12             # HL0    -->  Z0     NUE    ANUE        
      1.53855328E-03    3           23        14       -14             # HL0    -->  Z0     NUM    ANUM        
      1.53855328E-03    3           23        16       -16             # HL0    -->  Z0     NUT    ANUT        
      7.74338376E-04    3           23        11       -11             # HL0    -->  Z0     E-     E+          
      7.74338376E-04    3           23        13       -13             # HL0    -->  Z0     MU-    MU+         
      7.74338376E-04    3           23        15       -15             # HL0    -->  Z0     TAU-   TAU+        
      2.65281787E-03    3           23         2        -2             # HL0    -->  Z0     UP     UB          
      2.65281787E-03    3           23         4        -4             # HL0    -->  Z0     CH     CB          
      3.41748283E-03    3           23         1        -1             # HL0    -->  Z0     DN     DB          
      3.41748283E-03    3           23         3        -3             # HL0    -->  Z0     ST     SB          
      3.41748283E-03    3           23         5        -5             # HL0    -->  Z0     BT     BB          
#         PDG         Width
DECAY        35  3.55077600E+00   # HH0   decays
#          BR          NDA       ID1       ID2       ID3       ID4
      1.08379181E-08    2           11       -11                       # HH0    -->  E-     E+                 
      4.57596441E-04    2           13       -13                       # HH0    -->  MU-    MU+                
      1.31060198E-01    2           15       -15                       # HH0    -->  TAU-   TAU+               
      1.32764990E-05    2            1        -1                       # HH0    -->  DN     DB                 
      5.36437752E-03    2            3        -3                       # HH0    -->  ST     SB                 
      7.99342573E-01    2            5        -5                       # HH0    -->  BT     BB                 
      8.79527354E-11    2            2        -2                       # HH0    -->  UP     UB                 
      1.23863754E-06    2            4        -4                       # HH0    -->  CH     CB                 
      5.65037094E-02    2            6        -6                       # HH0    -->  TP     TB                 
      1.89799692E-07    2           22        22                       # HH0    -->  GM     GM                 
      2.48201486E-05    2           21        21                       # HH0    -->  GL     GL                 
      2.24328396E-04    2           24       -24                       # HH0    -->  W+     W-                 
      1.13895141E-04    2           23        23                       # HH0    -->  Z0     Z0                 
      1.36271713E-03    2      1000022   1000022                       # HH0    -->  Z1SS   Z1SS               
      1.44198420E-04    2      1000022   1000023                       # HH0    -->  Z1SS   Z2SS               
      8.61357083E-04    2      1000023   1000023                       # HH0    -->  Z2SS   Z2SS               
      3.69206816E-03    2      1000024  -1000024                       # HH0    -->  W1SS+  W1SS-              
      8.33398954E-04    2           25        25                       # HH0    -->  HL0    HL0                
#         PDG         Width
DECAY        36  3.54128361E+00   # HA0   decays
#          BR          NDA       ID1       ID2       ID3       ID4
      1.07972840E-08    2           11       -11                       # HA0    -->  E-     E+                 
      4.55880800E-04    2           13       -13                       # HA0    -->  MU-    MU+                
      1.30570427E-01    2           15       -15                       # HA0    -->  TAU-   TAU+               
      1.32274499E-05    2            1        -1                       # HA0    -->  DN     DB                 
      5.34455990E-03    2            3        -3                       # HA0    -->  ST     SB                 
      7.96425164E-01    2            5        -5                       # HA0    -->  BT     BB                 
      8.36022640E-11    2            2        -2                       # HA0    -->  UP     UB                 
      1.17829654E-06    2            4        -4                       # HA0    -->  CH     CB                 
      5.97034134E-02    2            6        -6                       # HA0    -->  TP     TB                 
      3.02019373E-07    2           22        22                       # HA0    -->  GM     GM                 
      7.74531436E-05    2           21        21                       # HA0    -->  GL     GL                 
      2.01377086E-03    2      1000022   1000022                       # HA0    -->  Z1SS   Z1SS               
      2.34766812E-05    2      1000022   1000023                       # HA0    -->  Z1SS   Z2SS               
      7.46034726E-04    2      1000023   1000023                       # HA0    -->  Z2SS   Z2SS               
      4.40953299E-03    2      1000024  -1000024                       # HA0    -->  W1SS+  W1SS-              
      2.15605469E-04    2           25        23                       # HA0    -->  HL0    Z0                 
#         PDG         Width
DECAY        37  3.11893654E+00   # H+    decays
#          BR          NDA       ID1       ID2       ID3       ID4
      1.22989672E-08    2           12       -11                       # H+     -->  NUE    E+                 
      5.19284571E-04    2           14       -13                       # H+     -->  NUM    MU+                
      1.48730129E-01    2           16       -15                       # H+     -->  NUT    TAU+               
      1.38490905E-05    2            2        -1                       # H+     -->  UP     DB                 
      5.59691060E-03    2            4        -3                       # H+     -->  CH     SB                 
      8.44604552E-01    2            6        -5                       # H+     -->  TP     BB                 
      2.13382082E-05    2      1000024   1000022                       # H+     -->  W1SS+  Z1SS               
      2.68418662E-04    2      1000024   1000023                       # H+     -->  W1SS+  Z2SS               
      2.45500269E-04    2           25        24                       # H+     -->  HL0    W+                 
