#  ISAJET SUSY parameters in SUSY Les Houches Accord 2 format
#  Created by ISALHA 2.0 Last revision: H Baer 27 May 2014
Block SPINFO   # Program information
     1   ISASUGRA/ISASUSY from ISAJET   # Spectrum Calculator
     2   7.87   18-JUL-2017 13:55:55    # Version number
Block MODSEL   # Model selection
     1    13   # Non-universal supergravity model                  
Block SMINPUTS   # Standard Model inputs
     1     1.28000000E+02   # alpha_em^(-1)
     2     1.16570000E-05   # G_Fermi
     3     1.19999997E-01   # alpha_s(M_Z)
     4     9.11699982E+01   # m_{Z}(pole)
     5     4.19999981E+00   # m_{b}(m_{b})
     6     1.72500000E+02   # m_{top}(pole)
     7     1.77699995E+00   # m_{tau}(pole)
Block MINPAR   # SUSY breaking input parameters
     1     5.00000000E+03   # m_0
     2     8.00000000E+02   # m_{1/2}
     3     1.50000000E+01   # tan(beta)
     4     1.00000000E+00   # sign(mu)
     5    -8.00000000E+03   # A_0
Block EXTPAR   # Non-universal SUSY breaking parameters
     0     1.74989520E+16   # Input scale
    21     2.90203050E+06   # Down type Higgs mass squared
    22     3.90822600E+07   #  Up  type Higgs mass squared
Block MASS   # Scalar and gaugino mass spectrum
#  PDG code   mass                 particle
         6     1.72500000E+02   #  top            
        24     8.04229965E+01   #  W^+
        25     1.24585312E+02   #  h^0            
        35     1.00666650E+03   #  H^0            
        36     1.00000000E+03   #  A^0            
        37     1.00322870E+03   #  H^+            
   1000001     5.17195215E+03   #  dnl            
   1000002     5.17132568E+03   #  upl            
   1000003     5.17195215E+03   #  stl            
   1000004     5.17132568E+03   #  chl            
   1000005     3.65745166E+03   #  b1             
   1000006     1.59383325E+03   #  t1             
   1000011     5.10875098E+03   #  el-            
   1000012     5.11343750E+03   #  nuel           
   1000013     5.10875098E+03   #  mul-           
   1000014     5.11343750E+03   #  numl           
   1000015     4.65848047E+03   #  tau1           
   1000016     5.03829102E+03   #  nutl           
   1000021     2.00960901E+03   #  glss           
   1000022     1.63018814E+02   #  z1ss           
   1000023    -1.79108582E+02   #  z2ss           
   1000024     1.76814087E+02   #  w1ss           
   1000025     3.63276215E+02   #  z3ss           
   1000035     7.02651733E+02   #  z4ss           
   1000037     6.91332886E+02   #  w2ss           
   1000039     1.00000002E+20   #  gvss
   2000001     5.14095850E+03   #  dnr            
   2000002     5.31489063E+03   #  upr            
   2000003     5.14095850E+03   #  str            
   2000004     5.31489111E+03   #  chr            
   2000005     4.97307275E+03   #  b2             
   2000006     3.63263599E+03   #  t2             
   2000011     4.82079688E+03   #  er-            
   2000013     4.82079688E+03   #  mur-           
   2000015     5.03215820E+03   #  tau2           
Block ALPHA   # Effective Higgs mixing parameter
         -6.81178197E-02   # alpha
Block STOPMIX   # stop mixing matrix
  1  1     5.42120449E-02   # O_{11}
  1  2     9.98529434E-01   # O_{12}
  2  1    -9.98529434E-01   # O_{21}
  2  2     5.42120449E-02   # O_{22}
Block SBOTMIX   # sbottom mixing matrix
  1  1     9.99994218E-01   # O_{11}
  1  2     3.40892607E-03   # O_{12}
  2  1    -3.40892607E-03   # O_{21}
  2  2     9.99994218E-01   # O_{22}
Block STAUMIX   # stau mixing matrix
  1  1     7.93229789E-03   # O_{11}
  1  2     9.99968529E-01   # O_{12}
  2  1    -9.99968529E-01   # O_{21}
  2  2     7.93229789E-03   # O_{22}
Block NMIX   # neutralino mixing matrix
  1  1     1.56697720E-01   #
  1  2    -1.10318191E-01   #
  1  3     7.13944912E-01   #
  1  4    -6.73467219E-01   #
  2  1     5.26334941E-02   #
  2  2    -5.72242327E-02   #
  2  3    -6.94823563E-01   #
  2  4    -7.14965045E-01   #
  3  1     9.86084104E-01   #
  3  2     3.83894593E-02   #
  3  3    -7.56064206E-02   #
  3  4     1.42996147E-01   #
  4  1     1.77071542E-02   #
  4  2    -9.91504729E-01   #
  4  3    -4.22618426E-02   #
  4  4     1.21732883E-01   #
Block UMIX   # chargino U mixing matrix
  1  1    -5.74314632E-02   # U_{11}
  1  2     9.98349428E-01   # U_{12}
  2  1    -9.98349428E-01   # U_{21}
  2  2    -5.74314632E-02   # U_{22}
Block VMIX   # chargino V mixing matrix
  1  1    -1.69251889E-01   # V_{11}
  1  2     9.85572815E-01   # V_{12}
  2  1    -9.85572815E-01   # V_{21}
  2  2    -1.69251889E-01   # V_{22}
Block GAUGE Q=  2.40280664E+03   #
     1     3.57516766E-01   # g`
     2     6.52403235E-01   # g_2
     3     1.21965921E+00   # g_3
Block YU Q=  2.40280664E+03   #
  3  3     8.26952696E-01   # y_t
Block YD Q=  2.40280664E+03   #
  3  3     1.92931131E-01   # y_b
Block YE Q=  2.40280664E+03   #
  3  3     1.50938824E-01   # y_tau
Block HMIX Q=  2.40280664E+03   # Higgs mixing parameters
     1     1.70000000E+02   # mu(Q)
     2     1.43599291E+01   # tan(beta)(Q)
     3     2.52247894E+02   # Higgs vev at Q
     4     1.00000000E+06   # m_A^2(Q)
Block MSOFT Q=  2.40280664E+03   # DRbar SUSY breaking parameters
     1     3.55742645E+02   # M_1(Q)          
     2     6.51126648E+02   # M_2(Q)          
     3     1.74692944E+03   # M_3(Q)          
    21     9.40075500E+05   # MHd^2(Q)        
    22    -6.78005156E+04   # MHu^2(Q)        
    31     5.09232764E+03   # MeL(Q)          
    32     5.09232764E+03   # MmuL(Q)         
    33     5.01921143E+03   # MtauL(Q)        
    34     4.81719922E+03   # MeR(Q)          
    35     4.81719922E+03   # MmuR(Q)         
    36     4.65579541E+03   # MtauR(Q)        
    41     5.08181689E+03   # MqL1(Q)         
    42     5.08181689E+03   # MqL2(Q)         
    43     3.60363062E+03   # MqL3(Q)         
    44     5.22416943E+03   # MuR(Q)          
    45     5.22416943E+03   # McR(Q)          
    46     1.60212854E+03   # MtR(Q)          
    47     5.05132227E+03   # MdR(Q)          
    48     5.05132227E+03   # MsR(Q)          
    49     4.92003125E+03   # MbR(Q)          
Block AU Q=  2.40280664E+03   #
  1  1    -4.27981348E+03   # A_u
  2  2    -4.27981348E+03   # A_c
  3  3    -4.27981348E+03   # A_t
Block AD Q=  2.40280664E+03   #
  1  1    -8.70944043E+03   # A_d
  2  2    -8.70944043E+03   # A_s
  3  3    -8.70944043E+03   # A_b
Block AE Q=  2.40280664E+03   #
  1  1    -8.10514111E+03   # A_e
  2  2    -8.10514111E+03   # A_mu
  3  3    -8.10514111E+03   # A_tau
#  ISAJET decay tables in SUSY Les Houches accord format
#  Created by ISALHD. Last revision: C. Balazs, 2005 May 25
Block DCINFO                           # Program information
     1   ISASUGRA from ISAJET          # Spectrum Calculator
     2   7.87   18-JUL-2017 13:55:55   # Version number
#         PDG         Width
DECAY         6  1.46776152E+00   # TP    decays
#          BR          NDA       ID1       ID2       ID3       ID4
      3.33333313E-01    3            2        -1         5             # TP     -->  UP     DB     BT          
      3.33333313E-01    3            4        -3         5             # TP     -->  CH     SB     BT          
      1.11111097E-01    3          -11        12         5             # TP     -->  E+     NUE    BT          
      1.11111097E-01    3          -13        14         5             # TP     -->  MU+    NUM    BT          
      1.11111097E-01    3          -15        16         5             # TP     -->  TAU+   NUT    BT          
#         PDG         Width
DECAY   1000021  5.24474287E+00   # GLSS  decays
#          BR          NDA       ID1       ID2       ID3       ID4
      7.84311169E-07    3      1000024         1        -2             # GLSS   -->  W1SS+  DN     UB          
      7.84311169E-07    3     -1000024         2        -1             # GLSS   -->  W1SS-  UP     DB          
      7.84311169E-07    3      1000024         3        -4             # GLSS   -->  W1SS+  ST     CB          
      7.84311169E-07    3     -1000024         4        -3             # GLSS   -->  W1SS-  CH     SB          
      1.61745324E-04    3      1000024         5        -6             # GLSS   -->  W1SS+  BT     TB          
      1.61745324E-04    3     -1000024         6        -5             # GLSS   -->  W1SS-  TP     BB          
      2.84717662E-05    3      1000037         1        -2             # GLSS   -->  W2SS+  DN     UB          
      2.84717662E-05    3     -1000037         2        -1             # GLSS   -->  W2SS-  UP     DB          
      2.84717662E-05    3      1000037         3        -4             # GLSS   -->  W2SS+  ST     CB          
      2.84717662E-05    3     -1000037         4        -3             # GLSS   -->  W2SS-  CH     SB          
      1.38089948E-04    3      1000037         5        -6             # GLSS   -->  W2SS+  BT     TB          
      1.38089948E-04    3     -1000037         6        -5             # GLSS   -->  W2SS-  TP     BB          
      2.87133275E-06    2      1000022        21                       # GLSS   -->  Z1SS   GL                 
      4.75913481E-07    3      1000022         2        -2             # GLSS   -->  Z1SS   UP     UB          
      5.87225486E-07    3      1000022         1        -1             # GLSS   -->  Z1SS   DN     DB          
      5.87225486E-07    3      1000022         3        -3             # GLSS   -->  Z1SS   ST     SB          
      4.75913367E-07    3      1000022         4        -4             # GLSS   -->  Z1SS   CH     CB          
      1.96677374E-05    3      1000022         5        -5             # GLSS   -->  Z1SS   BT     BB          
      1.37351439E-04    3      1000022         6        -6             # GLSS   -->  Z1SS   TP     TB          
      3.15714215E-06    2      1000023        21                       # GLSS   -->  Z2SS   GL                 
      6.82835335E-08    3      1000023         2        -2             # GLSS   -->  Z2SS   UP     UB          
      9.23320229E-08    3      1000023         1        -1             # GLSS   -->  Z2SS   DN     DB          
      9.23320229E-08    3      1000023         3        -3             # GLSS   -->  Z2SS   ST     SB          
      6.82835193E-08    3      1000023         4        -4             # GLSS   -->  Z2SS   CH     CB          
      1.67161688E-05    3      1000023         5        -5             # GLSS   -->  Z2SS   BT     BB          
      1.53007946E-04    3      1000023         6        -6             # GLSS   -->  Z2SS   TP     TB          
      3.56910224E-10    2      1000025        21                       # GLSS   -->  Z3SS   GL                 
      1.22068168E-05    3      1000025         2        -2             # GLSS   -->  Z3SS   UP     UB          
      3.67003190E-06    3      1000025         1        -1             # GLSS   -->  Z3SS   DN     DB          
      3.67003190E-06    3      1000025         3        -3             # GLSS   -->  Z3SS   ST     SB          
      1.22068141E-05    3      1000025         4        -4             # GLSS   -->  Z3SS   CH     CB          
      6.08863684E-06    3      1000025         5        -5             # GLSS   -->  Z3SS   BT     BB          
      8.57082068E-06    3      1000025         6        -6             # GLSS   -->  Z3SS   TP     TB          
      8.73471677E-08    2      1000035        21                       # GLSS   -->  Z4SS   GL                 
      1.37885563E-05    3      1000035         2        -2             # GLSS   -->  Z4SS   UP     UB          
      1.39613521E-05    3      1000035         1        -1             # GLSS   -->  Z4SS   DN     DB          
      1.39613521E-05    3      1000035         3        -3             # GLSS   -->  Z4SS   ST     SB          
      1.37885563E-05    3      1000035         4        -4             # GLSS   -->  Z4SS   CH     CB          
      6.63887040E-05    3      1000035         5        -5             # GLSS   -->  Z4SS   BT     BB          
      6.81932870E-05    3      1000035         6        -6             # GLSS   -->  Z4SS   TP     TB          
      4.99355763E-01    2     -1000006         6                       # GLSS   -->  TB1    TP                 
      4.99355763E-01    2      1000006        -6                       # GLSS   -->  TP1    TB                 
#         PDG         Width
DECAY   1000002  2.59601929E+02   # UPL   decays
#          BR          NDA       ID1       ID2       ID3       ID4
      5.57352614E-04    2      1000022         2                       # UPL    -->  Z1SS   UP                 
      1.89381710E-04    2      1000023         2                       # UPL    -->  Z2SS   UP                 
      3.98367317E-03    2      1000025         2                       # UPL    -->  Z3SS   UP                 
      7.88975284E-02    2      1000035         2                       # UPL    -->  Z4SS   UP                 
      7.54452646E-01    2      1000021         2                       # UPL    -->  GLSS   UP                 
      4.79277596E-03    2      1000024         1                       # UPL    -->  W1SS+  DN                 
      1.57126620E-01    2      1000037         1                       # UPL    -->  W2SS+  DN                 
#         PDG         Width
DECAY   1000001  2.59607269E+02   # DNL   decays
#          BR          NDA       ID1       ID2       ID3       ID4
      1.61763455E-03    2      1000022         1                       # DNL    -->  Z1SS   DN                 
      3.74051888E-04    2      1000023         1                       # DNL    -->  Z2SS   DN                 
      1.68061676E-03    2      1000025         1                       # DNL    -->  Z3SS   DN                 
      7.99456462E-02    2      1000035         1                       # DNL    -->  Z4SS   DN                 
      7.54585564E-01    2      1000021         1                       # DNL    -->  GLSS   DN                 
      5.51904202E-04    2     -1000024         2                       # DNL    -->  W1SS-  UP                 
      1.61244541E-01    2     -1000037         2                       # DNL    -->  W2SS-  UP                 
#         PDG         Width
DECAY   1000003  2.59607269E+02   # STL   decays
#          BR          NDA       ID1       ID2       ID3       ID4
      1.61763455E-03    2      1000022         3                       # STL    -->  Z1SS   ST                 
      3.74051888E-04    2      1000023         3                       # STL    -->  Z2SS   ST                 
      1.68061676E-03    2      1000025         3                       # STL    -->  Z3SS   ST                 
      7.99456462E-02    2      1000035         3                       # STL    -->  Z4SS   ST                 
      7.54585564E-01    2      1000021         3                       # STL    -->  GLSS   ST                 
      5.51904144E-04    2     -1000024         4                       # STL    -->  W1SS-  CH                 
      1.61244512E-01    2     -1000037         4                       # STL    -->  W2SS-  CH                 
#         PDG         Width
DECAY   1000004  2.59601868E+02   # CHL   decays
#          BR          NDA       ID1       ID2       ID3       ID4
      5.57352614E-04    2      1000022         4                       # CHL    -->  Z1SS   CH                 
      1.89381724E-04    2      1000023         4                       # CHL    -->  Z2SS   CH                 
      3.98367317E-03    2      1000025         4                       # CHL    -->  Z3SS   CH                 
      7.88975433E-02    2      1000035         4                       # CHL    -->  Z4SS   CH                 
      7.54452646E-01    2      1000021         4                       # CHL    -->  GLSS   CH                 
      4.79277736E-03    2      1000024         3                       # CHL    -->  W1SS+  ST                 
      1.57126665E-01    2      1000037         3                       # CHL    -->  W2SS+  ST                 
#         PDG         Width
DECAY   1000005  2.39891449E+02   # BT1   decays
#          BR          NDA       ID1       ID2       ID3       ID4
      7.27198878E-03    2      1000022         5                       # BT1    -->  Z1SS   BT                 
      5.96259953E-03    2      1000023         5                       # BT1    -->  Z2SS   BT                 
      1.33300701E-03    2      1000025         5                       # BT1    -->  Z3SS   BT                 
      5.89155890E-02    2      1000035         5                       # BT1    -->  Z4SS   BT                 
      4.02671874E-01    2      1000021         5                       # BT1    -->  GLSS   BT                 
      1.92225233E-01    2     -1000024         6                       # BT1    -->  W1SS-  TP                 
      1.24578908E-01    2     -1000037         6                       # BT1    -->  W2SS-  TP                 
      2.06837565E-01    2          -24   1000006                       # BT1    -->  W-     TP1                
      2.03265692E-04    2          -37   1000006                       # BT1    -->  H-     TP1                
#         PDG         Width
DECAY   1000006  4.32669792E+01   # TP1   decays
#          BR          NDA       ID1       ID2       ID3       ID4
      2.13090807E-01    2      1000022         6                       # TP1    -->  Z1SS   TP                 
      2.37245113E-01    2      1000023         6                       # TP1    -->  Z2SS   TP                 
      8.01280588E-02    2      1000025         6                       # TP1    -->  Z3SS   TP                 
      2.50962190E-03    2      1000035         6                       # TP1    -->  Z4SS   TP                 
      4.61976051E-01    2      1000024         5                       # TP1    -->  W1SS+  BT                 
      5.05042076E-03    2      1000037         5                       # TP1    -->  W2SS+  BT                 
#         PDG         Width
DECAY   2000002  2.16542160E+02   # UPR   decays
#          BR          NDA       ID1       ID2       ID3       ID4
      1.35980279E-03    2      1000022         2                       # UPR    -->  Z1SS   UP                 
      1.53357716E-04    2      1000023         2                       # UPR    -->  Z2SS   UP                 
      5.34476526E-02    2      1000025         2                       # UPR    -->  Z3SS   UP                 
      1.67938506E-05    2      1000035         2                       # UPR    -->  Z4SS   UP                 
      9.45022404E-01    2      1000021         2                       # UPR    -->  GLSS   UP                 
#         PDG         Width
DECAY   2000001  1.96864731E+02   # DNR   decays
#          BR          NDA       ID1       ID2       ID3       ID4
      3.61646235E-04    2      1000022         1                       # DNR    -->  Z1SS   DN                 
      4.07851403E-05    2      1000023         1                       # DNR    -->  Z2SS   DN                 
      1.42073287E-02    2      1000025         1                       # DNR    -->  Z3SS   DN                 
      4.45605792E-06    2      1000035         1                       # DNR    -->  Z4SS   DN                 
      9.85385776E-01    2      1000021         1                       # DNR    -->  GLSS   DN                 
#         PDG         Width
DECAY   2000003  1.96864731E+02   # STR   decays
#          BR          NDA       ID1       ID2       ID3       ID4
      3.61646235E-04    2      1000022         3                       # STR    -->  Z1SS   ST                 
      4.07851403E-05    2      1000023         3                       # STR    -->  Z2SS   ST                 
      1.42073287E-02    2      1000025         3                       # STR    -->  Z3SS   ST                 
      4.45605792E-06    2      1000035         3                       # STR    -->  Z4SS   ST                 
      9.85385776E-01    2      1000021         3                       # STR    -->  GLSS   ST                 
#         PDG         Width
DECAY   2000004  2.16542160E+02   # CHR   decays
#          BR          NDA       ID1       ID2       ID3       ID4
      1.35980255E-03    2      1000022         4                       # CHR    -->  Z1SS   CH                 
      1.53357701E-04    2      1000023         4                       # CHR    -->  Z2SS   CH                 
      5.34476526E-02    2      1000025         4                       # CHR    -->  Z3SS   CH                 
      1.67938524E-05    2      1000035         4                       # CHR    -->  Z4SS   CH                 
      9.45022404E-01    2      1000021         4                       # CHR    -->  GLSS   CH                 
#         PDG         Width
DECAY   2000005  2.27860535E+02   # BT2   decays
#          BR          NDA       ID1       ID2       ID3       ID4
      8.88476055E-03    2      1000022         5                       # BT2    -->  Z1SS   BT                 
      8.21125507E-03    2      1000023         5                       # BT2    -->  Z2SS   BT                 
      1.19718453E-02    2      1000025         5                       # BT2    -->  Z3SS   BT                 
      4.47444654E-05    2      1000035         5                       # BT2    -->  Z4SS   BT                 
      8.05614173E-01    2      1000021         5                       # BT2    -->  GLSS   BT                 
      1.67917944E-02    2     -1000024         6                       # BT2    -->  W1SS-  TP                 
      7.67394304E-05    2     -1000037         6                       # BT2    -->  W2SS-  TP                 
      8.65779384E-06    2          -24   1000006                       # BT2    -->  W-     TP1                
      4.10731212E-04    2          -24   2000006                       # BT2    -->  W-     TP2                
      1.98654699E-04    2           23   1000005                       # BT2    -->  Z0     BT1                
      4.31273773E-04    2           25   1000005                       # BT2    -->  HL0    BT1                
      3.62133607E-02    2           36   1000005                       # BT2    -->  HA0    BT1                
      3.58654447E-02    2           35   1000005                       # BT2    -->  HH0    BT1                
      2.42325244E-04    2          -37   1000006                       # BT2    -->  H-     TP1                
      7.50342309E-02    2          -37   2000006                       # BT2    -->  H-     TP2                
#         PDG         Width
DECAY   2000006  2.49604828E+02   # TP2   decays
#          BR          NDA       ID1       ID2       ID3       ID4
      3.73410493E-01    2      1000021         6                       # TP2    -->  GLSS   TP                 
      1.24561870E-02    2      1000024         5                       # TP2    -->  W1SS+  BT                 
      1.12834267E-01    2      1000037         5                       # TP2    -->  W2SS+  BT                 
      9.73554477E-02    2           23   1000006                       # TP2    -->  Z0     TP1                
      1.56646729E-01    2           25   1000006                       # TP2    -->  HL0    TP1                
      1.08426197E-04    2           35   1000006                       # TP2    -->  HH0    TP1                
      9.80900586E-05    2           36   1000006                       # TP2    -->  HA0    TP1                
      8.44351873E-02    2      1000022         6                       # TP2    -->  Z1SS   TP                 
      9.57719907E-02    2      1000023         6                       # TP2    -->  Z2SS   TP                 
      7.49974325E-03    2      1000025         6                       # TP2    -->  Z3SS   TP                 
      5.93834296E-02    2      1000035         6                       # TP2    -->  Z4SS   TP                 
#         PDG         Width
DECAY   1000011  6.86033630E+01   # EL-   decays
#          BR          NDA       ID1       ID2       ID3       ID4
      1.83107244E-04    2      1000022        11                       # EL-    -->  Z1SS   E-                 
      2.50354729E-04    2      1000023        11                       # EL-    -->  Z2SS   E-                 
      1.04514435E-01    2      1000025        11                       # EL-    -->  Z3SS   E-                 
      2.90813625E-01    2      1000035        11                       # EL-    -->  Z4SS   E-                 
      2.06286157E-03    2     -1000024        12                       # EL-    -->  W1SS-  NUE                
      6.02175593E-01    2     -1000037        12                       # EL-    -->  W2SS-  NUE                
#         PDG         Width
DECAY   1000013  6.86033630E+01   # MUL-  decays
#          BR          NDA       ID1       ID2       ID3       ID4
      1.83107244E-04    2      1000022        13                       # MUL-   -->  Z1SS   MU-                
      2.50354729E-04    2      1000023        13                       # MUL-   -->  Z2SS   MU-                
      1.04514435E-01    2      1000025        13                       # MUL-   -->  Z3SS   MU-                
      2.90813625E-01    2      1000035        13                       # MUL-   -->  Z4SS   MU-                
      2.06286157E-03    2     -1000024        14                       # MUL-   -->  W1SS-  NUM                
      6.02175593E-01    2     -1000037        14                       # MUL-   -->  W2SS-  NUM                
#         PDG         Width
DECAY   1000015  2.78313084E+01   # TAU1- decays
#          BR          NDA       ID1       ID2       ID3       ID4
      6.18286096E-02    2      1000022        15                       # TAU1-  -->  Z1SS   TAU-               
      4.04222868E-02    2      1000023        15                       # TAU1-  -->  Z2SS   TAU-               
      8.18058789E-01    2      1000025        15                       # TAU1-  -->  Z3SS   TAU-               
      2.79664149E-04    2      1000035        15                       # TAU1-  -->  Z4SS   TAU-               
      7.93664455E-02    2     -1000024        16                       # TAU1-  -->  W1SS-  NUT                
      4.41995508E-05    2     -1000037        16                       # TAU1-  -->  W2SS-  NUT                
#         PDG         Width
DECAY   1000012  6.86925354E+01   # NUEL  decays
#          BR          NDA       ID1       ID2       ID3       ID4
      1.20671140E-02    2      1000022        12                       # NUEL   -->  Z1SS   NUE                
      2.31999508E-03    2      1000023        12                       # NUEL   -->  Z2SS   NUE                
      7.86615908E-02    2      1000025        12                       # NUEL   -->  Z3SS   NUE                
      3.02364945E-01    2      1000035        12                       # NUEL   -->  Z4SS   NUE                
      1.79090835E-02    2      1000024        11                       # NUEL   -->  W1SS+  E-                 
      5.86677253E-01    2      1000037        11                       # NUEL   -->  W2SS+  E-                 
#         PDG         Width
DECAY   1000014  6.86925354E+01   # NUML  decays
#          BR          NDA       ID1       ID2       ID3       ID4
      1.20671140E-02    2      1000022        14                       # NUML   -->  Z1SS   NUM                
      2.31999508E-03    2      1000023        14                       # NUML   -->  Z2SS   NUM                
      7.86615908E-02    2      1000025        14                       # NUML   -->  Z3SS   NUM                
      3.02364945E-01    2      1000035        14                       # NUML   -->  Z4SS   NUM                
      1.79090835E-02    2      1000024        13                       # NUML   -->  W1SS+  MU-                
      5.86677253E-01    2      1000037        13                       # NUML   -->  W2SS+  MU-                
#         PDG         Width
DECAY   1000016  7.00166779E+01   # NUTL  decays
#          BR          NDA       ID1       ID2       ID3       ID4
      1.16642071E-02    2      1000022        16                       # NUTL   -->  Z1SS   NUT                
      2.24250462E-03    2      1000023        16                       # NUTL   -->  Z2SS   NUT                
      7.60166422E-02    2      1000025        16                       # NUTL   -->  Z3SS   NUT                
      2.91949213E-01    2      1000035        16                       # NUTL   -->  Z4SS   NUT                
      5.13153225E-02    2      1000024        15                       # NUTL   -->  W1SS+  TAU-               
      5.66598892E-01    2      1000037        15                       # NUTL   -->  W2SS+  TAU-               
      2.13232328E-04    2           24   1000015                       # NUTL   -->  W+     TAU1-              
#         PDG         Width
DECAY   2000011  2.42479382E+01   # ER-   decays
#          BR          NDA       ID1       ID2       ID3       ID4
      2.47727577E-02    2      1000022        11                       # ER-    -->  Z1SS   E-                 
      2.79361987E-03    2      1000023        11                       # ER-    -->  Z2SS   E-                 
      9.72129881E-01    2      1000025        11                       # ER-    -->  Z3SS   E-                 
      3.03730834E-04    2      1000035        11                       # ER-    -->  Z4SS   E-                 
#         PDG         Width
DECAY   2000013  2.42479382E+01   # MUR-  decays
#          BR          NDA       ID1       ID2       ID3       ID4
      2.47727577E-02    2      1000022        13                       # MUR-   -->  Z1SS   MU-                
      2.79361987E-03    2      1000023        13                       # MUR-   -->  Z2SS   MU-                
      9.72129881E-01    2      1000025        13                       # MUR-   -->  Z3SS   MU-                
      3.03730834E-04    2      1000035        13                       # MUR-   -->  Z4SS   MU-                
#         PDG         Width
DECAY   2000015  6.98960876E+01   # TAU2- decays
#          BR          NDA       ID1       ID2       ID3       ID4
      1.73571445E-02    2      1000022        15                       # TAU2-  -->  Z1SS   TAU-               
      1.68171395E-02    2      1000023        15                       # TAU2-  -->  Z2SS   TAU-               
      1.01281628E-01    2      1000025        15                       # TAU2-  -->  Z3SS   TAU-               
      2.80930728E-01    2      1000035        15                       # TAU2-  -->  Z4SS   TAU-               
      1.86554948E-03    2     -1000024        16                       # TAU2-  -->  W1SS-  NUT                
      5.81600726E-01    2     -1000037        16                       # TAU2-  -->  W2SS-  NUT                
      1.00851663E-04    2           23   1000015                       # TAU2-  -->  Z0     TAU1-              
      4.62702774E-05    2           25   1000015                       # TAU2-  -->  HL0    TAU1-              
#         PDG         Width
DECAY   1000023  8.85044017E-07   # Z2SS  decays
#          BR          NDA       ID1       ID2       ID3       ID4
      8.33055843E-03    2      1000022        22                       # Z2SS   -->  Z1SS   GM                 
      3.01210221E-05    3     -1000024         2        -1             # Z2SS   -->  W1SS-  UP     DB          
      1.00403404E-05    3     -1000024        12       -11             # Z2SS   -->  W1SS-  NUE    E+          
      1.00403404E-05    3     -1000024        14       -13             # Z2SS   -->  W1SS-  NUM    MU+         
      3.01210221E-05    3      1000024         1        -2             # Z2SS   -->  W1SS+  DN     UB          
      1.00403404E-05    3      1000024        11       -12             # Z2SS   -->  W1SS+  E-     ANUE        
      1.00403404E-05    3      1000024        13       -14             # Z2SS   -->  W1SS+  MU-    ANUM        
      1.31010383E-01    3      1000022         2        -2             # Z2SS   -->  Z1SS   UP     UB          
      1.68937325E-01    3      1000022         1        -1             # Z2SS   -->  Z1SS   DN     DB          
      1.68937325E-01    3      1000022         3        -3             # Z2SS   -->  Z1SS   ST     SB          
      1.31010383E-01    3      1000022         4        -4             # Z2SS   -->  Z1SS   CH     CB          
      5.36027141E-02    3      1000022         5        -5             # Z2SS   -->  Z1SS   BT     BB          
      3.83233391E-02    3      1000022        11       -11             # Z2SS   -->  Z1SS   E-     E+          
      3.83233391E-02    3      1000022        13       -13             # Z2SS   -->  Z1SS   MU-    MU+         
      3.26668732E-02    3      1000022        15       -15             # Z2SS   -->  Z1SS   TAU-   TAU+        
      7.62524381E-02    3      1000022        12       -12             # Z2SS   -->  Z1SS   NUE    ANUE        
      7.62524381E-02    3      1000022        14       -14             # Z2SS   -->  Z1SS   NUM    ANUM        
      7.62524530E-02    3      1000022        16       -16             # Z2SS   -->  Z1SS   NUT    ANUT        
#         PDG         Width
DECAY   1000025  5.55549026E-01   # Z3SS  decays
#          BR          NDA       ID1       ID2       ID3       ID4
      5.33415658E-08    2      1000022        22                       # Z3SS   -->  Z1SS   GM                 
      1.88315887E-08    2      1000023        22                       # Z3SS   -->  Z2SS   GM                 
      2.85734624E-01    2      1000024       -24                       # Z3SS   -->  W1SS+  W-                 
      2.85734624E-01    2     -1000024        24                       # Z3SS   -->  W1SS-  W+                 
      3.12353913E-02    2      1000022        23                       # Z3SS   -->  Z1SS   Z0                 
      2.01900616E-01    2      1000023        23                       # Z3SS   -->  Z2SS   Z0                 
      4.89206696E-11    3      1000022         2        -2             # Z3SS   -->  Z1SS   UP     UB          
      6.26971955E-12    3      1000022         1        -1             # Z3SS   -->  Z1SS   DN     DB          
      6.26971955E-12    3      1000022         3        -3             # Z3SS   -->  Z1SS   ST     SB          
      4.89206488E-11    3      1000022         4        -4             # Z3SS   -->  Z1SS   CH     CB          
      7.75437101E-08    3      1000022         5        -5             # Z3SS   -->  Z1SS   BT     BB          
      1.16607668E-10    3      1000022        11       -11             # Z3SS   -->  Z1SS   E-     E+          
      1.16607668E-10    3      1000022        13       -13             # Z3SS   -->  Z1SS   MU-    MU+         
      1.64032521E-08    3      1000022        15       -15             # Z3SS   -->  Z1SS   TAU-   TAU+        
      2.57273716E-11    3      1000022        12       -12             # Z3SS   -->  Z1SS   NUE    ANUE        
      2.57273716E-11    3      1000022        14       -14             # Z3SS   -->  Z1SS   NUM    ANUM        
      2.73014909E-11    3      1000022        16       -16             # Z3SS   -->  Z1SS   NUT    ANUT        
      1.69775663E-12    3      1000023         2        -2             # Z3SS   -->  Z2SS   UP     UB          
      2.95734764E-13    3      1000023         1        -1             # Z3SS   -->  Z2SS   DN     DB          
      2.95734764E-13    3      1000023         3        -3             # Z3SS   -->  Z2SS   ST     SB          
      1.69775609E-12    3      1000023         4        -4             # Z3SS   -->  Z2SS   CH     CB          
      6.08939388E-08    3      1000023         5        -5             # Z3SS   -->  Z2SS   BT     BB          
      3.86505238E-12    3      1000023        11       -11             # Z3SS   -->  Z2SS   E-     E+          
      3.86505238E-12    3      1000023        13       -13             # Z3SS   -->  Z2SS   MU-    MU+         
      1.27474502E-08    3      1000023        15       -15             # Z3SS   -->  Z2SS   TAU-   TAU+        
      1.38490348E-12    3      1000023        12       -12             # Z3SS   -->  Z2SS   NUE    ANUE        
      1.38490348E-12    3      1000023        14       -14             # Z3SS   -->  Z2SS   NUM    ANUM        
      1.46967020E-12    3      1000023        16       -16             # Z3SS   -->  Z2SS   NUT    ANUT        
      1.84558585E-01    2      1000022        25                       # Z3SS   -->  Z1SS   HL0                
      1.08359354E-02    2      1000023        25                       # Z3SS   -->  Z2SS   HL0                
#         PDG         Width
DECAY   1000035  5.66745520E+00   # Z4SS  decays
#          BR          NDA       ID1       ID2       ID3       ID4
      1.67284588E-06    2      1000022        22                       # Z4SS   -->  Z1SS   GM                 
      3.08851554E-06    2      1000023        22                       # Z4SS   -->  Z2SS   GM                 
      7.87665968E-08    2      1000025        22                       # Z4SS   -->  Z3SS   GM                 
      2.46038705E-01    2      1000024       -24                       # Z4SS   -->  W1SS+  W-                 
      2.46038705E-01    2     -1000024        24                       # Z4SS   -->  W1SS-  W+                 
      5.49718635E-08    3     -1000037         2        -1             # Z4SS   -->  W2SS-  UP     DB          
      1.83239539E-08    3     -1000037        12       -11             # Z4SS   -->  W2SS-  NUE    E+          
      1.83239539E-08    3     -1000037        14       -13             # Z4SS   -->  W2SS-  NUM    MU+         
      5.49718635E-08    3      1000037         1        -2             # Z4SS   -->  W2SS+  DN     UB          
      1.83239539E-08    3      1000037        11       -12             # Z4SS   -->  W2SS+  E-     ANUE        
      1.83239539E-08    3      1000037        13       -14             # Z4SS   -->  W2SS+  MU-    ANUM        
      5.49718635E-08    3     -1000037         4        -3             # Z4SS   -->  W2SS-  CH     SB          
      1.83239539E-08    3     -1000037        16       -15             # Z4SS   -->  W2SS-  NUT    TAU+        
      5.49718635E-08    3      1000037         3        -4             # Z4SS   -->  W2SS+  ST     CB          
      1.83239539E-08    3      1000037        15       -16             # Z4SS   -->  W2SS+  TAU-   ANUT        
      4.70168367E-02    2      1000022        23                       # Z4SS   -->  Z1SS   Z0                 
      2.16826111E-01    2      1000023        23                       # Z4SS   -->  Z2SS   Z0                 
      1.74804637E-03    2      1000025        23                       # Z4SS   -->  Z3SS   Z0                 
      3.49567070E-10    3      1000022         2        -2             # Z4SS   -->  Z1SS   UP     UB          
      1.02702069E-09    3      1000022         1        -1             # Z4SS   -->  Z1SS   DN     DB          
      1.02702069E-09    3      1000022         3        -3             # Z4SS   -->  Z1SS   ST     SB          
      3.49567070E-10    3      1000022         4        -4             # Z4SS   -->  Z1SS   CH     CB          
      3.54591339E-06    3      1000022         5        -5             # Z4SS   -->  Z1SS   BT     BB          
      1.08791968E-11    3      1000022        11       -11             # Z4SS   -->  Z1SS   E-     E+          
      1.08791968E-11    3      1000022        13       -13             # Z4SS   -->  Z1SS   MU-    MU+         
      6.99276256E-07    3      1000022        15       -15             # Z4SS   -->  Z1SS   TAU-   TAU+        
      7.24945659E-10    3      1000022        12       -12             # Z4SS   -->  Z1SS   NUE    ANUE        
      7.24945659E-10    3      1000022        14       -14             # Z4SS   -->  Z1SS   NUM    ANUM        
      7.69553421E-10    3      1000022        16       -16             # Z4SS   -->  Z1SS   NUT    ANUT        
      5.51859218E-11    3      1000023         2        -2             # Z4SS   -->  Z2SS   UP     UB          
      1.10358812E-10    3      1000023         1        -1             # Z4SS   -->  Z2SS   DN     DB          
      1.10358812E-10    3      1000023         3        -3             # Z4SS   -->  Z2SS   ST     SB          
      5.51859218E-11    3      1000023         4        -4             # Z4SS   -->  Z2SS   CH     CB          
      3.17651347E-06    3      1000023         5        -5             # Z4SS   -->  Z2SS   BT     BB          
      6.75711570E-12    3      1000023        11       -11             # Z4SS   -->  Z2SS   E-     E+          
      6.75711570E-12    3      1000023        13       -13             # Z4SS   -->  Z2SS   MU-    MU+         
      6.27176121E-07    3      1000023        15       -15             # Z4SS   -->  Z2SS   TAU-   TAU+        
      6.47737211E-11    3      1000023        12       -12             # Z4SS   -->  Z2SS   NUE    ANUE        
      6.47737211E-11    3      1000023        14       -14             # Z4SS   -->  Z2SS   NUM    ANUM        
      6.87652504E-11    3      1000023        16       -16             # Z4SS   -->  Z2SS   NUT    ANUT        
      5.84749527E-10    3      1000025         2        -2             # Z4SS   -->  Z3SS   UP     UB          
      2.49444798E-10    3      1000025         1        -1             # Z4SS   -->  Z3SS   DN     DB          
      2.49444798E-10    3      1000025         3        -3             # Z4SS   -->  Z3SS   ST     SB          
      5.84749527E-10    3      1000025         4        -4             # Z4SS   -->  Z3SS   CH     CB          
      1.03948592E-08    3      1000025         5        -5             # Z4SS   -->  Z3SS   BT     BB          
      1.41859824E-09    3      1000025        11       -11             # Z4SS   -->  Z3SS   E-     E+          
      1.41859824E-09    3      1000025        13       -13             # Z4SS   -->  Z3SS   MU-    MU+         
      3.36600681E-09    3      1000025        15       -15             # Z4SS   -->  Z3SS   TAU-   TAU+        
      1.10482201E-09    3      1000025        12       -12             # Z4SS   -->  Z3SS   NUE    ANUE        
      1.10482201E-09    3      1000025        14       -14             # Z4SS   -->  Z3SS   NUM    ANUM        
      1.17302157E-09    3      1000025        16       -16             # Z4SS   -->  Z3SS   NUT    ANUT        
      1.71643510E-01    2      1000022        25                       # Z4SS   -->  Z1SS   HL0                
      5.28935380E-02    2      1000023        25                       # Z4SS   -->  Z2SS   HL0                
      1.77816432E-02    2      1000025        25                       # Z4SS   -->  Z3SS   HL0                
#         PDG         Width
DECAY   1000024  5.83071142E-07   # W1SS+ decays
#          BR          NDA       ID1       ID2       ID3       ID4
      3.33332360E-01    3      1000022         2        -1             # W1SS+  -->  Z1SS   UP     DB          
      3.33332360E-01    3      1000022         4        -3             # W1SS+  -->  Z1SS   CH     SB          
      1.11111097E-01    3      1000022       -11        12             # W1SS+  -->  Z1SS   E+     NUE         
      1.11111097E-01    3      1000022       -13        14             # W1SS+  -->  Z1SS   MU+    NUM         
      1.11113131E-01    3      1000022       -15        16             # W1SS+  -->  Z1SS   TAU+   NUT         
#         PDG         Width
DECAY   1000037  5.57645750E+00   # W2SS+ decays
#          BR          NDA       ID1       ID2       ID3       ID4
      6.98096025E-10    3      1000022         2        -1             # W2SS+  -->  Z1SS   UP     DB          
      6.98096025E-10    3      1000022         4        -3             # W2SS+  -->  Z1SS   CH     SB          
      4.60530086E-10    3      1000022       -11        12             # W2SS+  -->  Z1SS   E+     NUE         
      4.60530086E-10    3      1000022       -13        14             # W2SS+  -->  Z1SS   MU+    NUM         
      6.57690862E-07    3      1000022       -15        16             # W2SS+  -->  Z1SS   TAU+   NUT         
      2.36252815E-01    2      1000022        24                       # W2SS+  -->  Z1SS   W+                 
      3.04813674E-10    3      1000023         2        -1             # W2SS+  -->  Z2SS   UP     DB          
      3.04813674E-10    3      1000023         4        -3             # W2SS+  -->  Z2SS   CH     SB          
      1.16774312E-10    3      1000023       -11        12             # W2SS+  -->  Z2SS   E+     NUE         
      1.16774312E-10    3      1000023       -13        14             # W2SS+  -->  Z2SS   MU+    NUM         
      5.52933386E-07    3      1000023       -15        16             # W2SS+  -->  Z2SS   TAU+   NUT         
      2.50781417E-01    2      1000023        24                       # W2SS+  -->  Z2SS   W+                 
      7.08951897E-10    3      1000025         2        -1             # W2SS+  -->  Z3SS   UP     DB          
      7.08951897E-10    3      1000025         4        -3             # W2SS+  -->  Z3SS   CH     SB          
      2.20897167E-09    3      1000025       -11        12             # W2SS+  -->  Z3SS   E+     NUE         
      2.20897167E-09    3      1000025       -13        14             # W2SS+  -->  Z3SS   MU+    NUM         
      4.05278167E-09    3      1000025       -15        16             # W2SS+  -->  Z3SS   TAU+   NUT         
      2.27266233E-02    2      1000025        24                       # W2SS+  -->  Z3SS   W+                 
      2.43226722E-01    2      1000024        23                       # W2SS+  -->  W1SS+  Z0                 
      1.95526884E-09    3      1000024         1        -1             # W2SS+  -->  W1SS+  DN     DB          
      1.95526884E-09    3      1000024         3        -3             # W2SS+  -->  W1SS+  ST     SB          
      2.30895067E-10    3      1000024         2        -2             # W2SS+  -->  W1SS+  UP     UB          
      2.30895067E-10    3      1000024         4        -4             # W2SS+  -->  W1SS+  CH     CB          
      8.08784359E-11    3      1000024        12       -12             # W2SS+  -->  W1SS+  NUE    ANUE        
      8.08784359E-11    3      1000024        14       -14             # W2SS+  -->  W1SS+  NUM    ANUM        
      1.17387142E-10    3      1000024        16       -16             # W2SS+  -->  W1SS+  NUT    ANUT        
      6.82033874E-10    3      1000024        11       -11             # W2SS+  -->  W1SS+  E-     E+          
      6.82033874E-10    3      1000024        13       -13             # W2SS+  -->  W1SS+  MU-    MU+         
      7.24014571E-10    3      1000024        15       -15             # W2SS+  -->  W1SS+  TAU-   TAU+        
      2.47011200E-01    2      1000024        25                       # W2SS+  -->  W1SS+  HL0                
#         PDG         Width
DECAY        25  3.86286387E-03   # HL0   decays
#          BR          NDA       ID1       ID2       ID3       ID4
      5.73863002E-09    2           11       -11                       # HL0    -->  E-     E+                 
      2.42294293E-04    2           13       -13                       # HL0    -->  MU-    MU+                
      6.93124011E-02    2           15       -15                       # HL0    -->  TAU-   TAU+               
      7.19399895E-06    2            1        -1                       # HL0    -->  DN     DB                 
      2.90673645E-03    2            3        -3                       # HL0    -->  ST     SB                 
      6.22769773E-01    2            5        -5                       # HL0    -->  BT     BB                 
      2.19800040E-06    2            2        -2                       # HL0    -->  UP     UB                 
      4.08743285E-02    2            4        -4                       # HL0    -->  CH     CB                 
      2.67554214E-03    2           22        22                       # HL0    -->  GM     GM                 
      5.26584350E-02    2           21        21                       # HL0    -->  GL     GL                 
      1.04381861E-02    3           24        11       -12             # HL0    -->  W+     E-     ANUE        
      1.04381861E-02    3           24        13       -14             # HL0    -->  W+     MU-    ANUM        
      1.04381861E-02    3           24        15       -16             # HL0    -->  W+     TAU-   ANUT        
      3.13145556E-02    3           24        -2         1             # HL0    -->  W+     UB     DN          
      3.13145556E-02    3           24        -4         3             # HL0    -->  W+     CB     ST          
      1.04381861E-02    3          -24       -11        12             # HL0    -->  W-     E+     NUE         
      1.04381861E-02    3          -24       -13        14             # HL0    -->  W-     MU+    NUM         
      1.04381861E-02    3          -24       -15        16             # HL0    -->  W-     TAU+   NUT         
      3.13145556E-02    3          -24         2        -1             # HL0    -->  W-     UP     DB          
      3.13145556E-02    3          -24         4        -3             # HL0    -->  W-     CH     SB          
      1.41318701E-03    3           23        12       -12             # HL0    -->  Z0     NUE    ANUE        
      1.41318701E-03    3           23        14       -14             # HL0    -->  Z0     NUM    ANUM        
      1.41318701E-03    3           23        16       -16             # HL0    -->  Z0     NUT    ANUT        
      7.11242843E-04    3           23        11       -11             # HL0    -->  Z0     E-     E+          
      7.11242843E-04    3           23        13       -13             # HL0    -->  Z0     MU-    MU+         
      7.11242843E-04    3           23        15       -15             # HL0    -->  Z0     TAU-   TAU+        
      2.43665767E-03    3           23         2        -2             # HL0    -->  Z0     UP     UB          
      2.43665767E-03    3           23         4        -4             # HL0    -->  Z0     CH     CB          
      3.13901529E-03    3           23         1        -1             # HL0    -->  Z0     DN     DB          
      3.13901529E-03    3           23         3        -3             # HL0    -->  Z0     ST     SB          
      3.13901529E-03    3           23         5        -5             # HL0    -->  Z0     BT     BB          
#         PDG         Width
DECAY        35  7.50249147E+00   # HH0   decays
#          BR          NDA       ID1       ID2       ID3       ID4
      5.12937648E-09    2           11       -11                       # HH0    -->  E-     E+                 
      2.16571527E-04    2           13       -13                       # HH0    -->  MU-    MU+                
      6.20282479E-02    2           15       -15                       # HH0    -->  TAU-   TAU+               
      6.28350972E-06    2            1        -1                       # HH0    -->  DN     DB                 
      2.53885589E-03    2            3        -3                       # HH0    -->  ST     SB                 
      3.80006552E-01    2            5        -5                       # HH0    -->  BT     BB                 
      4.15903284E-11    2            2        -2                       # HH0    -->  UP     UB                 
      5.85716350E-07    2            4        -4                       # HH0    -->  CH     CB                 
      2.67189760E-02    2            6        -6                       # HH0    -->  TP     TB                 
      2.46477470E-07    2           22        22                       # HH0    -->  GM     GM                 
      1.28667307E-05    2           21        21                       # HH0    -->  GL     GL                 
      1.02255544E-04    2           24       -24                       # HH0    -->  W+     W-                 
      5.19167843E-05    2           23        23                       # HH0    -->  Z0     Z0                 
      1.63959730E-02    2      1000022   1000022                       # HH0    -->  Z1SS   Z1SS               
      4.14178940E-03    2      1000022   1000023                       # HH0    -->  Z1SS   Z2SS               
      3.57064307E-02    2      1000022   1000025                       # HH0    -->  Z1SS   Z3SS               
      2.76667699E-02    2      1000022   1000035                       # HH0    -->  Z1SS   Z4SS               
      3.76637746E-03    2      1000023   1000023                       # HH0    -->  Z2SS   Z2SS               
      6.50308356E-02    2      1000023   1000025                       # HH0    -->  Z2SS   Z3SS               
      9.44165960E-02    2      1000023   1000035                       # HH0    -->  Z2SS   Z4SS               
      4.10010369E-04    2      1000025   1000025                       # HH0    -->  Z3SS   Z3SS               
      2.51569264E-02    2      1000024  -1000024                       # HH0    -->  W1SS+  W1SS-              
      1.27630562E-01    2      1000024  -1000037                       # HH0    -->  W1SS+  W2SS-              
      1.27630562E-01    2     -1000024   1000037                       # HH0    -->  W1SS-  W2SS+              
      3.63777683E-04    2           25        25                       # HH0    -->  HL0    HL0                
#         PDG         Width
DECAY        36  7.36266708E+00   # HA0   decays
#          BR          NDA       ID1       ID2       ID3       ID4
      5.19326004E-09    2           11       -11                       # HA0    -->  E-     E+                 
      2.19268812E-04    2           13       -13                       # HA0    -->  MU-    MU+                
      6.28015548E-02    2           15       -15                       # HA0    -->  TAU-   TAU+               
      6.36211735E-06    2            1        -1                       # HA0    -->  DN     DB                 
      2.57061771E-03    2            3        -3                       # HA0    -->  ST     SB                 
      3.84777755E-01    2            5        -5                       # HA0    -->  BT     BB                 
      4.02108798E-11    2            2        -2                       # HA0    -->  UP     UB                 
      5.66735139E-07    2            4        -4                       # HA0    -->  CH     CB                 
      2.87160501E-02    2            6        -6                       # HA0    -->  TP     TB                 
      4.85638374E-08    2           22        22                       # HA0    -->  GM     GM                 
      4.11711044E-05    2           21        21                       # HA0    -->  GL     GL                 
      2.39139609E-02    2      1000022   1000022                       # HA0    -->  Z1SS   Z1SS               
      1.80060184E-03    2      1000022   1000023                       # HA0    -->  Z1SS   Z2SS               
      6.07763790E-02    2      1000022   1000025                       # HA0    -->  Z1SS   Z3SS               
      9.56149399E-02    2      1000022   1000035                       # HA0    -->  Z1SS   Z4SS               
      3.30384588E-03    2      1000023   1000023                       # HA0    -->  Z2SS   Z2SS               
      3.68379094E-02    2      1000023   1000025                       # HA0    -->  Z2SS   Z3SS               
      2.16558911E-02    2      1000023   1000035                       # HA0    -->  Z2SS   Z4SS               
      1.43784645E-03    2      1000025   1000025                       # HA0    -->  Z3SS   Z3SS               
      3.17751914E-02    2      1000024  -1000024                       # HA0    -->  W1SS+  W1SS-              
      1.21825062E-01    2      1000024  -1000037                       # HA0    -->  W1SS+  W2SS-              
      1.21825062E-01    2     -1000024   1000037                       # HA0    -->  W1SS-  W2SS+              
      9.99410695E-05    2           25        23                       # HA0    -->  HL0    Z0                 
#         PDG         Width
DECAY        37  6.91894197E+00   # H+    decays
#          BR          NDA       ID1       ID2       ID3       ID4
      5.54415669E-09    2           12       -11                       # H+     -->  NUE    E+                 
      2.34084306E-04    2           14       -13                       # H+     -->  NUM    MU+                
      6.70449138E-02    2           16       -15                       # H+     -->  NUT    TAU+               
      6.24292488E-06    2            2        -1                       # H+     -->  UP     DB                 
      2.52298824E-03    2            4        -3                       # H+     -->  CH     SB                 
      3.82317066E-01    2            6        -5                       # H+     -->  TP     BB                 
      6.82228827E-04    2      1000024   1000022                       # H+     -->  W1SS+  Z1SS               
      3.92400846E-03    2      1000024   1000023                       # H+     -->  W1SS+  Z2SS               
      1.41714439E-01    2      1000024   1000025                       # H+     -->  W1SS+  Z3SS               
      1.23797342E-01    2      1000024   1000035                       # H+     -->  W1SS+  Z4SS               
      1.45818621E-01    2      1000037   1000022                       # H+     -->  W2SS+  Z1SS               
      1.31831467E-01    2      1000037   1000023                       # H+     -->  W2SS+  Z2SS               
      1.06653257E-04    2           25        24                       # H+     -->  HL0    W+                 
