#  ISAJET SUSY parameters in SUSY Les Houches Accord 2 format
#  Created by ISALHA 2.0 Last revision: H Baer 27 May 2014
Block SPINFO   # Program information
     1   ISASUGRA/ISASUSY from ISAJET   # Spectrum Calculator
     2   7.87   18-JUL-2017 13:55:55    # Version number
Block MODSEL   # Model selection
     1    13   # Non-universal supergravity model                  
Block SMINPUTS   # Standard Model inputs
     1     1.28000000E+02   # alpha_em^(-1)
     2     1.16570000E-05   # G_Fermi
     3     1.19999997E-01   # alpha_s(M_Z)
     4     9.11699982E+01   # m_{Z}(pole)
     5     4.19999981E+00   # m_{b}(m_{b})
     6     1.72500000E+02   # m_{top}(pole)
     7     1.77699995E+00   # m_{tau}(pole)
Block MINPAR   # SUSY breaking input parameters
     1     5.00000000E+03   # m_0
     2     8.00000000E+03   # m_{1/2}
     3     1.50000000E+01   # tan(beta)
     4     1.00000000E+00   # sign(mu)
     5    -8.00000000E+03   # A_0
Block EXTPAR   # Non-universal SUSY breaking parameters
     0     9.24289954E+15   # Input scale
    21    -1.97588740E+07   # Down type Higgs mass squared
    22     1.32109888E+08   #  Up  type Higgs mass squared
Block MASS   # Scalar and gaugino mass spectrum
#  PDG code   mass                 particle
         6     1.72500000E+02   #  top            
        24     8.04229965E+01   #  W^+
        25     1.25933640E+02   #  h^0            
        35     1.00666937E+03   #  H^0            
        36     1.00000000E+03   #  A^0            
        37     1.00322870E+03   #  H^+            
   1000001     1.45855156E+04   #  dnl            
   1000002     1.45852803E+04   #  upl            
   1000003     1.45855156E+04   #  stl            
   1000004     1.45852803E+04   #  chl            
   1000005     1.25628535E+04   #  b1             
   1000006     9.49442285E+03   #  t1             
   1000011     7.40463867E+03   #  el-            
   1000012     7.39224365E+03   #  nuel           
   1000013     7.40463867E+03   #  mul-           
   1000014     7.39224365E+03   #  numl           
   1000015     4.91787451E+03   #  tau1           
   1000016     7.30418066E+03   #  nutl           
   1000021     1.54301748E+04   #  glss           
   1000022     1.36043472E+02   #  z1ss           
   1000023    -1.37352310E+02   #  z2ss           
   1000024     1.43415482E+02   #  w1ss           
   1000025     3.68015747E+03   #  z3ss           
   1000035     6.68161328E+03   #  z4ss           
   1000037     6.60021240E+03   #  w2ss           
   1000039     1.00000002E+20   #  gvss
   2000001     1.38018984E+04   #  dnr            
   2000002     1.41573506E+04   #  upr            
   2000003     1.38018984E+04   #  str            
   2000004     1.41573506E+04   #  chr            
   2000005     1.35439854E+04   #  b2             
   2000006     1.26082783E+04   #  t2             
   2000011     5.10902637E+03   #  er-            
   2000013     5.10902637E+03   #  mur-           
   2000015     7.32110645E+03   #  tau2           
Block ALPHA   # Effective Higgs mixing parameter
         -6.81690499E-02   # alpha
Block STOPMIX   # stop mixing matrix
  1  1     3.04013882E-02   # O_{11}
  1  2     9.99537766E-01   # O_{12}
  2  1    -9.99537766E-01   # O_{21}
  2  2     3.04013882E-02   # O_{22}
Block SBOTMIX   # sbottom mixing matrix
  1  1     9.99972522E-01   # O_{11}
  1  2     7.41200522E-03   # O_{12}
  2  1    -7.41200522E-03   # O_{21}
  2  2     9.99972522E-01   # O_{22}
Block STAUMIX   # stau mixing matrix
  1  1     1.82528794E-03   # O_{11}
  1  2    -9.99998331E-01   # O_{12}
  2  1     9.99998331E-01   # O_{21}
  2  2     1.82528794E-03   # O_{22}
Block NMIX   # neutralino mixing matrix
  1  1    -8.62797443E-03   #
  1  2     8.57821852E-03   #
  1  3    -7.08752751E-01   #
  1  4     7.05352008E-01   #
  2  1    -6.96327072E-03   #
  2  2     6.69039134E-03   #
  2  3     7.05454469E-01   #
  2  4     7.08689570E-01   #
  3  1     9.99925315E-01   #
  3  2     5.28389215E-03   #
  3  3    -1.19586242E-03   #
  3  4     1.09653473E-02   #
  4  1     5.16327471E-03   #
  4  2    -9.99927044E-01   #
  4  3    -1.36667292E-03   #
  4  4     1.08509706E-02   #
Block UMIX   # chargino U mixing matrix
  1  1    -1.56965991E-03   # U_{11}
  1  2     9.99998748E-01   # U_{12}
  2  1    -9.99998748E-01   # U_{21}
  2  2    -1.56965991E-03   # U_{22}
Block VMIX   # chargino V mixing matrix
  1  1    -1.65668614E-02   # V_{11}
  1  2     9.99862731E-01   # V_{12}
  2  1    -9.99862731E-01   # V_{21}
  2  2    -1.65668614E-02   # V_{22}
Block GAUGE Q=  1.06333066E+04   #
     1     3.57523501E-01   # g`
     2     6.52377784E-01   # g_2
     3     1.21927297E+00   # g_3
Block YU Q=  1.06333066E+04   #
  3  3     7.83788502E-01   # y_t
Block YD Q=  1.06333066E+04   #
  3  3     1.70203179E-01   # y_b
Block YE Q=  1.06333066E+04   #
  3  3     1.47072747E-01   # y_tau
Block HMIX Q=  1.06333066E+04   # Higgs mixing parameters
     1     1.30000000E+02   # mu(Q)
     2     1.41386747E+01   # tan(beta)(Q)
     3     2.53292801E+02   # Higgs vev at Q
     4     1.00000000E+06   # m_A^2(Q)
Block MSOFT Q=  1.06333066E+04   # DRbar SUSY breaking parameters
     1     3.71996411E+03   # M_1(Q)          
     2     6.52526563E+03   # M_2(Q)          
     3     1.48760195E+04   # M_3(Q)          
    21     9.97118750E+05   # MHd^2(Q)        
    22     8.44217000E+05   # MHu^2(Q)        
    31     7.34800439E+03   # MeL(Q)          
    32     7.34800439E+03   # MmuL(Q)         
    33     7.26246777E+03   # MtauL(Q)        
    34     5.10082715E+03   # MeR(Q)          
    35     5.10082715E+03   # MmuR(Q)         
    36     4.90136133E+03   # MtauR(Q)        
    41     1.38572744E+04   # MqL1(Q)         
    42     1.38572744E+04   # MqL2(Q)         
    43     1.20923818E+04   # MqL3(Q)         
    44     1.34428672E+04   # MuR(Q)          
    45     1.34428672E+04   # McR(Q)          
    46     9.35028516E+03   # MtR(Q)          
    47     1.31006514E+04   # MdR(Q)          
    48     1.31006514E+04   # MsR(Q)          
    49     1.30387100E+04   # MbR(Q)          
Block AU Q=  1.06333066E+04   #
  1  1    -1.46137373E+04   # A_u
  2  2    -1.46137373E+04   # A_c
  3  3    -1.46137373E+04   # A_t
Block AD Q=  1.06333066E+04   #
  1  1    -2.24255469E+04   # A_d
  2  2    -2.24255469E+04   # A_s
  3  3    -2.24255469E+04   # A_b
Block AE Q=  1.06333066E+04   #
  1  1    -1.18667734E+04   # A_e
  2  2    -1.18667734E+04   # A_mu
  3  3    -1.18667734E+04   # A_tau
#  ISAJET decay tables in SUSY Les Houches accord format
#  Created by ISALHD. Last revision: C. Balazs, 2005 May 25
Block DCINFO                           # Program information
     1   ISASUGRA from ISAJET          # Spectrum Calculator
     2   7.87   18-JUL-2017 13:55:55   # Version number
#         PDG         Width
DECAY         6  1.46776152E+00   # TP    decays
#          BR          NDA       ID1       ID2       ID3       ID4
      3.33333313E-01    3            2        -1         5             # TP     -->  UP     DB     BT          
      3.33333313E-01    3            4        -3         5             # TP     -->  CH     SB     BT          
      1.11111097E-01    3          -11        12         5             # TP     -->  E+     NUE    BT          
      1.11111097E-01    3          -13        14         5             # TP     -->  MU+    NUM    BT          
      1.11111097E-01    3          -15        16         5             # TP     -->  TAU+   NUT    BT          
#         PDG         Width
DECAY   1000021  2.32357208E+02   # GLSS  decays
#          BR          NDA       ID1       ID2       ID3       ID4
      6.77261967E-03    2     -1000002         2                       # GLSS   -->  UBL    UP                 
      6.77261967E-03    2      1000002        -2                       # GLSS   -->  UPL    UB                 
      6.76895166E-03    2     -1000001         1                       # GLSS   -->  DBL    DN                 
      6.76895166E-03    2      1000001        -1                       # GLSS   -->  DNL    DB                 
      1.49353752E-02    2     -2000002         2                       # GLSS   -->  UBR    UP                 
      1.49353752E-02    2      2000002        -2                       # GLSS   -->  UPR    UB                 
      2.38581877E-02    2     -2000001         1                       # GLSS   -->  DBR    DN                 
      2.38581877E-02    2      2000001        -1                       # GLSS   -->  DNR    DB                 
      6.76895166E-03    2     -1000003         3                       # GLSS   -->  SBL    ST                 
      6.76895166E-03    2      1000003        -3                       # GLSS   -->  STL    SB                 
      2.38581877E-02    2     -2000003         3                       # GLSS   -->  SBR    ST                 
      2.38581877E-02    2      2000003        -3                       # GLSS   -->  STR    SB                 
      6.77261176E-03    2     -1000004         4                       # GLSS   -->  CBL    CH                 
      6.77261176E-03    2      1000004        -4                       # GLSS   -->  CHL    CB                 
      1.49353687E-02    2     -2000004         4                       # GLSS   -->  CBR    CH                 
      1.49353687E-02    2      2000004        -4                       # GLSS   -->  CHR    CB                 
      6.78424537E-02    2     -1000005         5                       # GLSS   -->  BB1    BT                 
      6.78424537E-02    2      1000005        -5                       # GLSS   -->  BT1    BB                 
      3.14536542E-02    2     -2000005         5                       # GLSS   -->  BB2    BT                 
      3.14536542E-02    2      2000005        -5                       # GLSS   -->  BT2    BB                 
      2.29939044E-01    2     -1000006         6                       # GLSS   -->  TB1    TP                 
      2.29939044E-01    2      1000006        -6                       # GLSS   -->  TP1    TB                 
      6.60945773E-02    2     -2000006         6                       # GLSS   -->  TB2    TP                 
      6.60945773E-02    2      2000006        -6                       # GLSS   -->  TP2    TB                 
#         PDG         Width
DECAY   1000002  1.17829041E+02   # UPL   decays
#          BR          NDA       ID1       ID2       ID3       ID4
      2.55085888E-05    2      1000022         2                       # UPL    -->  Z1SS   UP                 
      1.52736102E-05    2      1000023         2                       # UPL    -->  Z2SS   UP                 
      1.62276048E-02    2      1000025         2                       # UPL    -->  Z3SS   UP                 
      3.24635029E-01    2      1000035         2                       # UPL    -->  Z4SS   UP                 
      2.85957212E-04    2      1000024         1                       # UPL    -->  W1SS+  DN                 
      6.58810616E-01    2      1000037         1                       # UPL    -->  W2SS+  DN                 
#         PDG         Width
DECAY   1000001  1.17762642E+02   # DNL   decays
#          BR          NDA       ID1       ID2       ID3       ID4
      5.37955239E-05    2      1000022         1                       # DNL    -->  Z1SS   DN                 
      3.30782132E-05    2      1000023         1                       # DNL    -->  Z2SS   DN                 
      1.44673279E-02    2      1000025         1                       # DNL    -->  Z3SS   DN                 
      3.26060355E-01    2      1000035         1                       # DNL    -->  Z4SS   DN                 
      2.56852331E-06    2     -1000024         2                       # DNL    -->  W1SS-  UP                 
      6.59382880E-01    2     -1000037         2                       # DNL    -->  W2SS-  UP                 
#         PDG         Width
DECAY   1000003  1.17762634E+02   # STL   decays
#          BR          NDA       ID1       ID2       ID3       ID4
      5.37955275E-05    2      1000022         3                       # STL    -->  Z1SS   ST                 
      3.30782168E-05    2      1000023         3                       # STL    -->  Z2SS   ST                 
      1.44673288E-02    2      1000025         3                       # STL    -->  Z3SS   ST                 
      3.26060355E-01    2      1000035         3                       # STL    -->  Z4SS   ST                 
      2.56852331E-06    2     -1000024         4                       # STL    -->  W1SS-  CH                 
      6.59382880E-01    2     -1000037         4                       # STL    -->  W2SS-  CH                 
#         PDG         Width
DECAY   1000004  1.17829041E+02   # CHL   decays
#          BR          NDA       ID1       ID2       ID3       ID4
      2.55085924E-05    2      1000022         4                       # CHL    -->  Z1SS   CH                 
      1.52736102E-05    2      1000023         4                       # CHL    -->  Z2SS   CH                 
      1.62276048E-02    2      1000025         4                       # CHL    -->  Z3SS   CH                 
      3.24635029E-01    2      1000035         4                       # CHL    -->  Z4SS   CH                 
      2.85957212E-04    2      1000024         3                       # CHL    -->  W1SS+  ST                 
      6.58810616E-01    2      1000037         3                       # CHL    -->  W2SS+  ST                 
#         PDG         Width
DECAY   1000005  3.30868591E+02   # BT1   decays
#          BR          NDA       ID1       ID2       ID3       ID4
      1.16922352E-02    2      1000022         5                       # BT1    -->  Z1SS   BT                 
      1.15622720E-02    2      1000023         5                       # BT1    -->  Z2SS   BT                 
      4.22803918E-03    2      1000025         5                       # BT1    -->  Z3SS   BT                 
      8.23326632E-02    2      1000035         5                       # BT1    -->  Z4SS   BT                 
      4.37281728E-01    2     -1000024         6                       # BT1    -->  W1SS-  TP                 
      1.67605147E-01    2     -1000037         6                       # BT1    -->  W2SS-  TP                 
      2.83950508E-01    2          -24   1000006                       # BT1    -->  W-     TP1                
      1.34743343E-03    2          -37   1000006                       # BT1    -->  H-     TP1                
#         PDG         Width
DECAY   1000006  2.34225403E+02   # TP1   decays
#          BR          NDA       ID1       ID2       ID3       ID4
      2.32393697E-01    2      1000022         6                       # TP1    -->  Z1SS   TP                 
      2.34576359E-01    2      1000023         6                       # TP1    -->  Z2SS   TP                 
      6.60772994E-02    2      1000025         6                       # TP1    -->  Z3SS   TP                 
      6.96739426E-06    2      1000035         6                       # TP1    -->  Z4SS   TP                 
      4.66934562E-01    2      1000024         5                       # TP1    -->  W1SS+  BT                 
      1.10659803E-05    2      1000037         5                       # TP1    -->  W2SS+  BT                 
#         PDG         Width
DECAY   2000002  2.78248730E+01   # UPR   decays
#          BR          NDA       ID1       ID2       ID3       ID4
      8.56056722E-05    2      1000022         2                       # UPR    -->  Z1SS   UP                 
      5.57583371E-05    2      1000023         2                       # UPR    -->  Z2SS   UP                 
      9.99840140E-01    2      1000025         2                       # UPR    -->  Z3SS   UP                 
      1.85245608E-05    2      1000035         2                       # UPR    -->  Z4SS   UP                 
#         PDG         Width
DECAY   2000001  6.73038912E+00   # DNR   decays
#          BR          NDA       ID1       ID2       ID3       ID4
      8.62557717E-05    2      1000022         1                       # DNR    -->  Z1SS   DN                 
      5.61817687E-05    2      1000023         1                       # DNR    -->  Z2SS   DN                 
      9.99839485E-01    2      1000025         1                       # DNR    -->  Z3SS   DN                 
      1.81114683E-05    2      1000035         1                       # DNR    -->  Z4SS   DN                 
#         PDG         Width
DECAY   2000003  6.73038912E+00   # STR   decays
#          BR          NDA       ID1       ID2       ID3       ID4
      8.62557717E-05    2      1000022         3                       # STR    -->  Z1SS   ST                 
      5.61817687E-05    2      1000023         3                       # STR    -->  Z2SS   ST                 
      9.99839485E-01    2      1000025         3                       # STR    -->  Z3SS   ST                 
      1.81114683E-05    2      1000035         3                       # STR    -->  Z4SS   ST                 
#         PDG         Width
DECAY   2000004  2.78248730E+01   # CHR   decays
#          BR          NDA       ID1       ID2       ID3       ID4
      8.56056722E-05    2      1000022         4                       # CHR    -->  Z1SS   CH                 
      5.57583444E-05    2      1000023         4                       # CHR    -->  Z2SS   CH                 
      9.99840140E-01    2      1000025         4                       # CHR    -->  Z3SS   CH                 
      1.85245608E-05    2      1000035         4                       # CHR    -->  Z4SS   CH                 
#         PDG         Width
DECAY   2000005  2.35705166E+01   # BT2   decays
#          BR          NDA       ID1       ID2       ID3       ID4
      1.76469073E-01    2      1000022         5                       # BT2    -->  Z1SS   BT                 
      1.75050735E-01    2      1000023         5                       # BT2    -->  Z2SS   BT                 
      2.78512210E-01    2      1000025         5                       # BT2    -->  Z3SS   BT                 
      9.22818581E-05    2      1000035         5                       # BT2    -->  Z4SS   BT                 
      3.51706862E-01    2     -1000024         6                       # BT2    -->  W1SS-  TP                 
      1.72735570E-04    2     -1000037         6                       # BT2    -->  W2SS-  TP                 
      4.57950111E-04    2          -24   1000006                       # BT2    -->  W-     TP1                
      8.83942191E-03    2          -24   2000006                       # BT2    -->  W-     TP2                
      5.13030728E-03    2           23   1000005                       # BT2    -->  Z0     BT1                
      2.19131354E-03    2           25   1000005                       # BT2    -->  HL0    BT1                
      1.37713936E-03    2          -37   1000006                       # BT2    -->  H-     TP1                
#         PDG         Width
DECAY   2000006  3.58534637E+02   # TP2   decays
#          BR          NDA       ID1       ID2       ID3       ID4
      2.15980094E-02    2      1000024         5                       # TP2    -->  W1SS+  BT                 
      1.56023741E-01    2      1000037         5                       # TP2    -->  W2SS+  BT                 
      1.37932166E-01    2           23   1000006                       # TP2    -->  Z0     TP1                
      1.97362751E-01    2           25   1000006                       # TP2    -->  HL0    TP1                
      6.57640747E-04    2           35   1000006                       # TP2    -->  HH0    TP1                
      6.25324261E-04    2           36   1000006                       # TP2    -->  HA0    TP1                
      2.01436833E-01    2      1000022         6                       # TP2    -->  Z1SS   TP                 
      2.03367874E-01    2      1000023         6                       # TP2    -->  Z2SS   TP                 
      4.55468334E-03    2      1000025         6                       # TP2    -->  Z3SS   TP                 
      7.64408931E-02    2      1000035         6                       # TP2    -->  Z4SS   TP                 
#         PDG         Width
DECAY   1000011  9.14269066E+00   # EL-   decays
#          BR          NDA       ID1       ID2       ID3       ID4
      5.01336253E-05    2      1000022        11                       # EL-    -->  Z1SS   E-                 
      2.79290362E-05    2      1000023        11                       # EL-    -->  Z2SS   E-                 
      5.95095038E-01    2      1000025        11                       # EL-    -->  Z3SS   E-                 
      1.16947882E-01    2      1000035        11                       # EL-    -->  Z4SS   E-                 
      1.67863836E-05    2     -1000024        12                       # EL-    -->  W1SS-  NUE                
      2.87862211E-01    2     -1000037        12                       # EL-    -->  W2SS-  NUE                
#         PDG         Width
DECAY   1000013  9.14269066E+00   # MUL-  decays
#          BR          NDA       ID1       ID2       ID3       ID4
      5.01336253E-05    2      1000022        13                       # MUL-   -->  Z1SS   MU-                
      2.79290362E-05    2      1000023        13                       # MUL-   -->  Z2SS   MU-                
      5.95095038E-01    2      1000025        13                       # MUL-   -->  Z3SS   MU-                
      1.16947882E-01    2      1000035        13                       # MUL-   -->  Z4SS   MU-                
      1.67863836E-05    2     -1000024        14                       # MUL-   -->  W1SS-  NUM                
      2.87862211E-01    2     -1000037        14                       # MUL-   -->  W2SS-  NUM                
#         PDG         Width
DECAY   1000015  9.33131599E+00   # TAU1- decays
#          BR          NDA       ID1       ID2       ID3       ID4
      1.20937347E-01    2      1000022        15                       # TAU1-  -->  Z1SS   TAU-               
      1.19787931E-01    2      1000023        15                       # TAU1-  -->  Z2SS   TAU-               
      5.18916607E-01    2      1000025        15                       # TAU1-  -->  Z3SS   TAU-               
      2.40358159E-01    2     -1000024        16                       # TAU1-  -->  W1SS-  NUT                
#         PDG         Width
DECAY   1000012  8.84831524E+00   # NUEL  decays
#          BR          NDA       ID1       ID2       ID3       ID4
      6.23539323E-04    2      1000022        12                       # NUEL   -->  Z1SS   NUE                
      3.88738146E-04    2      1000023        12                       # NUEL   -->  Z2SS   NUE                
      5.89403689E-01    2      1000025        12                       # NUEL   -->  Z3SS   NUE                
      1.18450001E-01    2      1000035        12                       # NUEL   -->  Z4SS   NUE                
      1.92890665E-03    2      1000024        11                       # NUEL   -->  W1SS+  E-                 
      2.89205194E-01    2      1000037        11                       # NUEL   -->  W2SS+  E-                 
#         PDG         Width
DECAY   1000014  8.84831524E+00   # NUML  decays
#          BR          NDA       ID1       ID2       ID3       ID4
      6.23539323E-04    2      1000022        14                       # NUML   -->  Z1SS   NUM                
      3.88738146E-04    2      1000023        14                       # NUML   -->  Z2SS   NUM                
      5.89403689E-01    2      1000025        14                       # NUML   -->  Z3SS   NUM                
      1.18450001E-01    2      1000035        14                       # NUML   -->  Z4SS   NUM                
      1.92890665E-03    2      1000024        13                       # NUML   -->  W1SS+  MU-                
      2.89205194E-01    2      1000037        13                       # NUML   -->  W2SS+  MU-                
#         PDG         Width
DECAY   1000016  1.58620148E+01   # NUTL  decays
#          BR          NDA       ID1       ID2       ID3       ID4
      3.43679945E-04    2      1000022        16                       # NUTL   -->  Z1SS   NUT                
      2.14263069E-04    2      1000023        16                       # NUTL   -->  Z2SS   NUT                
      3.19697589E-01    2      1000025        16                       # NUTL   -->  Z3SS   NUT                
      5.19140102E-02    2      1000035        16                       # NUTL   -->  Z4SS   NUT                
      2.11273029E-01    2      1000024        15                       # NUTL   -->  W1SS+  TAU-               
      1.30454659E-01    2      1000037        15                       # NUTL   -->  W2SS+  TAU-               
      8.68728664E-03    2           24   1000015                       # NUTL   -->  W+     TAU1-              
      2.77415484E-01    2           37   1000015                       # NUTL   -->  H+     TAU1-              
#         PDG         Width
DECAY   2000011  6.01771498E+00   # ER-   decays
#          BR          NDA       ID1       ID2       ID3       ID4
      3.21001367E-04    2      1000022        11                       # ER-    -->  Z1SS   E-                 
      2.09075864E-04    2      1000023        11                       # ER-    -->  Z2SS   E-                 
      9.99469876E-01    2      1000025        11                       # ER-    -->  Z3SS   E-                 
      4.14409655E-19    3      1000015        11       -15             # ER-    -->  TAU1-  E-     TAU+        
      6.28705449E-19    3     -1000015        11        15             # ER-    -->  TAU1+  E-     TAU-        
      5.69458424E-29    3      1000015        12       -16             # ER-    -->  TAU1-  NUE    ANUT        
#         PDG         Width
DECAY   2000013  6.01771498E+00   # MUR-  decays
#          BR          NDA       ID1       ID2       ID3       ID4
      3.21001367E-04    2      1000022        13                       # MUR-   -->  Z1SS   MU-                
      2.09075864E-04    2      1000023        13                       # MUR-   -->  Z2SS   MU-                
      9.99469876E-01    2      1000025        13                       # MUR-   -->  Z3SS   MU-                
      4.14409655E-19    3      1000015        13       -15             # MUR-   -->  TAU1-  MU-    TAU+        
      6.28705449E-19    3     -1000015        13        15             # MUR-   -->  TAU1+  MU-    TAU-        
      5.39000770E-24    3      1000015        14       -16             # MUR-   -->  TAU1-  NUM    ANUT        
#         PDG         Width
DECAY   2000015  1.61574516E+01   # TAU2- decays
#          BR          NDA       ID1       ID2       ID3       ID4
      1.03962645E-01    2      1000022        15                       # TAU2-  -->  Z1SS   TAU-               
      1.02945335E-01    2      1000023        15                       # TAU2-  -->  Z2SS   TAU-               
      3.27944547E-01    2      1000025        15                       # TAU2-  -->  Z3SS   TAU-               
      5.29262051E-02    2      1000035        15                       # TAU2-  -->  Z4SS   TAU-               
      1.51683462E-05    2     -1000024        16                       # TAU2-  -->  W1SS-  NUT                
      1.33733302E-01    2     -1000037        16                       # TAU2-  -->  W2SS-  NUT                
      4.39869380E-03    2           23   1000015                       # TAU2-  -->  Z0     TAU1-              
      9.46622633E-04    2           25   1000015                       # TAU2-  -->  HL0    TAU1-              
      1.36680901E-01    2           36   1000015                       # TAU2-  -->  HA0    TAU1-              
      1.36446670E-01    2           35   1000015                       # TAU2-  -->  HH0    TAU1-              
#         PDG         Width
DECAY   1000023  8.20295221E-12   # Z2SS  decays
#          BR          NDA       ID1       ID2       ID3       ID4
      7.28372931E-01    2      1000022        22                       # Z2SS   -->  Z1SS   GM                 
      5.87855391E-02    3      1000022         2        -2             # Z2SS   -->  Z1SS   UP     UB          
      7.58043453E-02    3      1000022         1        -1             # Z2SS   -->  Z1SS   DN     DB          
      1.71961747E-02    3      1000022        11       -11             # Z2SS   -->  Z1SS   E-     E+          
      1.71961747E-02    3      1000022        13       -13             # Z2SS   -->  Z1SS   MU-    MU+         
      3.42149809E-02    3      1000022        12       -12             # Z2SS   -->  Z1SS   NUE    ANUE        
      3.42149809E-02    3      1000022        14       -14             # Z2SS   -->  Z1SS   NUM    ANUM        
      3.42149809E-02    3      1000022        16       -16             # Z2SS   -->  Z1SS   NUT    ANUT        
#         PDG         Width
DECAY   1000025  1.62451401E+01   # Z3SS  decays
#          BR          NDA       ID1       ID2       ID3       ID4
      1.57208415E-08    2      1000022        22                       # Z3SS   -->  Z1SS   GM                 
      1.68072543E-08    2      1000023        22                       # Z3SS   -->  Z2SS   GM                 
      1.23624936E-01    2      1000024       -24                       # Z3SS   -->  W1SS+  W-                 
      1.23624936E-01    2     -1000024        24                       # Z3SS   -->  W1SS-  W+                 
      1.24346085E-01    2      1000024       -37                       # Z3SS   -->  W1SS+  H-                 
      1.24346085E-01    2     -1000024        37                       # Z3SS   -->  W1SS-  H+                 
      4.77872640E-02    2      1000022        23                       # Z3SS   -->  Z1SS   Z0                 
      7.47466758E-02    2      1000023        23                       # Z3SS   -->  Z2SS   Z0                 
      3.75513717E-11    3      1000022         2        -2             # Z3SS   -->  Z1SS   UP     UB          
      7.14916190E-12    3      1000022         1        -1             # Z3SS   -->  Z1SS   DN     DB          
      7.14916190E-12    3      1000022         3        -3             # Z3SS   -->  Z1SS   ST     SB          
      3.75513717E-11    3      1000022         4        -4             # Z3SS   -->  Z1SS   CH     CB          
      1.35526825E-08    3      1000022         5        -5             # Z3SS   -->  Z1SS   BT     BB          
      5.54285551E-09    3      1000022        11       -11             # Z3SS   -->  Z1SS   E-     E+          
      5.54285551E-09    3      1000022        13       -13             # Z3SS   -->  Z1SS   MU-    MU+         
      4.75548859E-06    3      1000022        15       -15             # Z3SS   -->  Z1SS   TAU-   TAU+        
      4.51263499E-10    3      1000022        12       -12             # Z3SS   -->  Z1SS   NUE    ANUE        
      4.51263499E-10    3      1000022        14       -14             # Z3SS   -->  Z1SS   NUM    ANUM        
      4.76150508E-10    3      1000022        16       -16             # Z3SS   -->  Z1SS   NUT    ANUT        
      2.11169138E-11    3      1000023         2        -2             # Z3SS   -->  Z2SS   UP     UB          
      3.89268522E-12    3      1000023         1        -1             # Z3SS   -->  Z2SS   DN     DB          
      3.89268522E-12    3      1000023         3        -3             # Z3SS   -->  Z2SS   ST     SB          
      2.11169138E-11    3      1000023         4        -4             # Z3SS   -->  Z2SS   CH     CB          
      1.34204123E-08    3      1000023         5        -5             # Z3SS   -->  Z2SS   BT     BB          
      3.20903171E-09    3      1000023        11       -11             # Z3SS   -->  Z2SS   E-     E+          
      3.20903171E-09    3      1000023        13       -13             # Z3SS   -->  Z2SS   MU-    MU+         
      4.70885516E-06    3      1000023        15       -15             # Z3SS   -->  Z2SS   TAU-   TAU+        
      2.46321186E-10    3      1000023        12       -12             # Z3SS   -->  Z2SS   NUE    ANUE        
      2.46321186E-10    3      1000023        14       -14             # Z3SS   -->  Z2SS   NUM    ANUM        
      2.59986588E-10    3      1000023        16       -16             # Z3SS   -->  Z2SS   NUT    ANUT        
      8.55187550E-02    2      1000022        25                       # Z3SS   -->  Z1SS   HL0                
      5.66913709E-02    2      1000022        35                       # Z3SS   -->  Z1SS   HH0                
      6.33868128E-02    2      1000022        36                       # Z3SS   -->  Z1SS   HA0                
      5.65938763E-02    2      1000023        25                       # Z3SS   -->  Z2SS   HL0                
      6.28650114E-02    2      1000023        35                       # Z3SS   -->  Z2SS   HH0                
      5.64586669E-02    2      1000023        36                       # Z3SS   -->  Z2SS   HA0                
#         PDG         Width
DECAY   1000035  1.10188919E+02   # Z4SS  decays
#          BR          NDA       ID1       ID2       ID3       ID4
      8.63668248E-09    2      1000022        22                       # Z4SS   -->  Z1SS   GM                 
      9.00261465E-09    2      1000023        22                       # Z4SS   -->  Z2SS   GM                 
      3.90742994E-09    2      1000025        22                       # Z4SS   -->  Z3SS   GM                 
      1.39808819E-01    2      1000024       -24                       # Z4SS   -->  W1SS+  W-                 
      1.39808819E-01    2     -1000024        24                       # Z4SS   -->  W1SS-  W+                 
      1.20515183E-01    2      1000024       -37                       # Z4SS   -->  W1SS+  H-                 
      1.20515183E-01    2     -1000024        37                       # Z4SS   -->  W1SS-  H+                 
      3.96486996E-07    2      1000037       -24                       # Z4SS   -->  W2SS+  W-                 
      3.96486996E-07    2     -1000037        24                       # Z4SS   -->  W2SS-  W+                 
      3.98392454E-02    2      1000022        23                       # Z4SS   -->  Z1SS   Z0                 
      6.67583644E-02    2      1000023        23                       # Z4SS   -->  Z2SS   Z0                 
      4.16055263E-06    2      1000025        23                       # Z4SS   -->  Z3SS   Z0                 
      2.28263575E-10    3      1000022         2        -2             # Z4SS   -->  Z1SS   UP     UB          
      4.82893836E-10    3      1000022         1        -1             # Z4SS   -->  Z1SS   DN     DB          
      4.82893836E-10    3      1000022         3        -3             # Z4SS   -->  Z1SS   ST     SB          
      2.28263575E-10    3      1000022         4        -4             # Z4SS   -->  Z1SS   CH     CB          
      6.42343537E-07    3      1000022         5        -5             # Z4SS   -->  Z1SS   BT     BB          
      7.85598808E-10    3      1000022        11       -11             # Z4SS   -->  Z1SS   E-     E+          
      7.85598808E-10    3      1000022        13       -13             # Z4SS   -->  Z1SS   MU-    MU+         
      3.10804717E-06    3      1000022        15       -15             # Z4SS   -->  Z1SS   TAU-   TAU+        
      9.70522862E-09    3      1000022        12       -12             # Z4SS   -->  Z1SS   NUE    ANUE        
      9.70522862E-09    3      1000022        14       -14             # Z4SS   -->  Z1SS   NUM    ANUM        
      1.06713864E-08    3      1000022        16       -16             # Z4SS   -->  Z1SS   NUT    ANUT        
      1.26739619E-10    3      1000023         2        -2             # Z4SS   -->  Z2SS   UP     UB          
      2.75338807E-10    3      1000023         1        -1             # Z4SS   -->  Z2SS   DN     DB          
      2.75338807E-10    3      1000023         3        -3             # Z4SS   -->  Z2SS   ST     SB          
      1.26739619E-10    3      1000023         4        -4             # Z4SS   -->  Z2SS   CH     CB          
      6.35844231E-07    3      1000023         5        -5             # Z4SS   -->  Z2SS   BT     BB          
      4.16214785E-10    3      1000023        11       -11             # Z4SS   -->  Z2SS   E-     E+          
      4.16214785E-10    3      1000023        13       -13             # Z4SS   -->  Z2SS   MU-    MU+         
      3.07747678E-06    3      1000023        15       -15             # Z4SS   -->  Z2SS   TAU-   TAU+        
      5.75532511E-09    3      1000023        12       -12             # Z4SS   -->  Z2SS   NUE    ANUE        
      5.75532511E-09    3      1000023        14       -14             # Z4SS   -->  Z2SS   NUM    ANUM        
      6.33709529E-09    3      1000023        16       -16             # Z4SS   -->  Z2SS   NUT    ANUT        
      2.71743215E-08    3      1000025         2        -2             # Z4SS   -->  Z3SS   UP     UB          
      2.42968774E-08    3      1000025         1        -1             # Z4SS   -->  Z3SS   DN     DB          
      2.42968774E-08    3      1000025         3        -3             # Z4SS   -->  Z3SS   ST     SB          
      2.71743215E-08    3      1000025         4        -4             # Z4SS   -->  Z3SS   CH     CB          
      4.91914953E-08    3      1000025         5        -5             # Z4SS   -->  Z3SS   BT     BB          
      4.10612029E-06    3      1000025        11       -11             # Z4SS   -->  Z3SS   E-     E+          
      4.10612029E-06    3      1000025        13       -13             # Z4SS   -->  Z3SS   MU-    MU+         
      4.57805390E-06    3      1000025        15       -15             # Z4SS   -->  Z3SS   TAU-   TAU+        
      4.05982200E-06    3      1000025        12       -12             # Z4SS   -->  Z3SS   NUE    ANUE        
      4.05982200E-06    3      1000025        14       -14             # Z4SS   -->  Z3SS   NUM    ANUM        
      4.55847885E-06    3      1000025        16       -16             # Z4SS   -->  Z3SS   NUT    ANUT        
      7.54408762E-02    2      1000022        25                       # Z4SS   -->  Z1SS   HL0                
      5.54540381E-02    2      1000022        35                       # Z4SS   -->  Z1SS   HH0                
      6.68338835E-02    2      1000022        36                       # Z4SS   -->  Z1SS   HA0                
      5.33815101E-02    2      1000023        25                       # Z4SS   -->  Z2SS   HL0                
      6.64141327E-02    2      1000023        35                       # Z4SS   -->  Z2SS   HH0                
      5.51253259E-02    2      1000023        36                       # Z4SS   -->  Z2SS   HA0                
      6.16868492E-05    2      1000025        25                       # Z4SS   -->  Z3SS   HL0                
      1.23072311E-07    2      1000025        35                       # Z4SS   -->  Z3SS   HH0                
      1.40427204E-07    2      1000025        36                       # Z4SS   -->  Z3SS   HA0                
      7.09155302E-07    2      2000011       -11                       # Z4SS   -->  ER-    E+                 
      7.09155302E-07    2     -2000011        11                       # Z4SS   -->  ER+    E-                 
      7.09155302E-07    2      2000013       -13                       # Z4SS   -->  MUR-   MU+                
      7.09155302E-07    2     -2000013        13                       # Z4SS   -->  MUR+   MU-                
      1.00091609E-06    2      1000015       -15                       # Z4SS   -->  TAU1-  TAU+               
      1.00091609E-06    2     -1000015        15                       # Z4SS   -->  TAU1+  TAU-               
#         PDG         Width
DECAY   1000024  3.61802215E-08   # W1SS+ decays
#          BR          NDA       ID1       ID2       ID3       ID4
      2.41403311E-01    3      1000022         2        -1             # W1SS+  -->  Z1SS   UP     DB          
      2.41403311E-01    3      1000022         4        -3             # W1SS+  -->  Z1SS   CH     SB          
      8.04677680E-02    3      1000022       -11        12             # W1SS+  -->  Z1SS   E+     NUE         
      8.04677680E-02    3      1000022       -13        14             # W1SS+  -->  Z1SS   MU+    NUM         
      8.04689452E-02    3      1000022       -15        16             # W1SS+  -->  Z1SS   TAU+   NUT         
      9.19294506E-02    3      1000023         2        -1             # W1SS+  -->  Z2SS   UP     DB          
      9.19294506E-02    3      1000023         4        -3             # W1SS+  -->  Z2SS   CH     SB          
      3.06431502E-02    3      1000023       -11        12             # W1SS+  -->  Z2SS   E+     NUE         
      3.06431502E-02    3      1000023       -13        14             # W1SS+  -->  Z2SS   MU+    NUM         
      3.06435730E-02    3      1000023       -15        16             # W1SS+  -->  Z2SS   TAU+   NUT         
#         PDG         Width
DECAY   1000037  1.05395485E+02   # W2SS+ decays
#          BR          NDA       ID1       ID2       ID3       ID4
      6.46513731E-10    3      1000022         2        -1             # W2SS+  -->  Z1SS   UP     DB          
      6.46513731E-10    3      1000022         4        -3             # W2SS+  -->  Z1SS   CH     SB          
      9.44628731E-09    3      1000022       -11        12             # W2SS+  -->  Z1SS   E+     NUE         
      9.44628731E-09    3      1000022       -13        14             # W2SS+  -->  Z1SS   MU+    NUM         
      2.93969379E-06    3      1000022       -15        16             # W2SS+  -->  Z1SS   TAU+   NUT         
      1.07820742E-01    2      1000022        24                       # W2SS+  -->  Z1SS   W+                 
      1.25656202E-01    2      1000022        37                       # W2SS+  -->  Z1SS   H+                 
      4.23268420E-10    3      1000023         2        -1             # W2SS+  -->  Z2SS   UP     DB          
      4.23268420E-10    3      1000023         4        -3             # W2SS+  -->  Z2SS   CH     SB          
      6.00054006E-09    3      1000023       -11        12             # W2SS+  -->  Z2SS   E+     NUE         
      6.00054006E-09    3      1000023       -13        14             # W2SS+  -->  Z2SS   MU+    NUM         
      2.90759726E-06    3      1000023       -15        16             # W2SS+  -->  Z2SS   TAU+   NUT         
      1.03641018E-01    2      1000023        24                       # W2SS+  -->  Z2SS   W+                 
      1.24483816E-01    2      1000023        37                       # W2SS+  -->  Z2SS   H+                 
      4.73656812E-08    3      1000025         2        -1             # W2SS+  -->  Z3SS   UP     DB          
      4.73656812E-08    3      1000025         4        -3             # W2SS+  -->  Z3SS   CH     SB          
      7.18825277E-06    3      1000025       -11        12             # W2SS+  -->  Z3SS   E+     NUE         
      7.18825277E-06    3      1000025       -13        14             # W2SS+  -->  Z3SS   MU+    NUM         
      8.00722501E-06    3      1000025       -15        16             # W2SS+  -->  Z3SS   TAU+   NUT         
      3.16162109E-02    2      1000025        24                       # W2SS+  -->  Z3SS   W+                 
      2.14342407E-07    2      1000025        37                       # W2SS+  -->  Z3SS   H+                 
      2.50359960E-07    2     -1000015        16                       # W2SS+  -->  TAU1+  NUT                
      1.24326840E-01    2      1000024        23                       # W2SS+  -->  W1SS+  Z0                 
      2.41692710E-09    3      1000024         1        -1             # W2SS+  -->  W1SS+  DN     DB          
      2.41692710E-09    3      1000024         3        -3             # W2SS+  -->  W1SS+  ST     SB          
      2.17010906E-11    3      1000024         2        -2             # W2SS+  -->  W1SS+  UP     UB          
      2.17010906E-11    3      1000024         4        -4             # W2SS+  -->  W1SS+  CH     CB          
      2.42781267E-10    3      1000024        12       -12             # W2SS+  -->  W1SS+  NUE    ANUE        
      2.42781267E-10    3      1000024        14       -14             # W2SS+  -->  W1SS+  NUM    ANUM        
      2.73788121E-08    3      1000024        11       -11             # W2SS+  -->  W1SS+  E-     E+          
      2.73788121E-08    3      1000024        13       -13             # W2SS+  -->  W1SS+  MU-    MU+         
      3.00074063E-08    3      1000024        15       -15             # W2SS+  -->  W1SS+  TAU-   TAU+        
      1.32444665E-01    2      1000024        25                       # W2SS+  -->  W1SS+  HL0                
      1.24943100E-01    2      1000024        35                       # W2SS+  -->  W1SS+  HH0                
      1.25038534E-01    2      1000024        36                       # W2SS+  -->  W1SS+  HA0                
#         PDG         Width
DECAY        25  4.04539984E-03   # HL0   decays
#          BR          NDA       ID1       ID2       ID3       ID4
      5.54731816E-09    2           11       -11                       # HL0    -->  E-     E+                 
      2.34216815E-04    2           13       -13                       # HL0    -->  MU-    MU+                
      6.70034364E-02    2           15       -15                       # HL0    -->  TAU-   TAU+               
      6.95306744E-06    2            1        -1                       # HL0    -->  DN     DB                 
      2.80938810E-03    2            3        -3                       # HL0    -->  ST     SB                 
      6.01980627E-01    2            5        -5                       # HL0    -->  BT     BB                 
      2.12118630E-06    2            2        -2                       # HL0    -->  UP     UB                 
      3.93814817E-02    2            4        -4                       # HL0    -->  CH     CB                 
      2.64756219E-03    2           22        22                       # HL0    -->  GM     GM                 
      5.32394052E-02    2           21        21                       # HL0    -->  GL     GL                 
      1.16052162E-02    3           24        11       -12             # HL0    -->  W+     E-     ANUE        
      1.16052162E-02    3           24        13       -14             # HL0    -->  W+     MU-    ANUM        
      1.16052162E-02    3           24        15       -16             # HL0    -->  W+     TAU-   ANUT        
      3.48156467E-02    3           24        -2         1             # HL0    -->  W+     UB     DN          
      3.48156467E-02    3           24        -4         3             # HL0    -->  W+     CB     ST          
      1.16052162E-02    3          -24       -11        12             # HL0    -->  W-     E+     NUE         
      1.16052162E-02    3          -24       -13        14             # HL0    -->  W-     MU+    NUM         
      1.16052162E-02    3          -24       -15        16             # HL0    -->  W-     TAU+   NUT         
      3.48156467E-02    3          -24         2        -1             # HL0    -->  W-     UP     DB          
      3.48156467E-02    3          -24         4        -3             # HL0    -->  W-     CH     SB          
      1.62770704E-03    3           23        12       -12             # HL0    -->  Z0     NUE    ANUE        
      1.62770704E-03    3           23        14       -14             # HL0    -->  Z0     NUM    ANUM        
      1.62770704E-03    3           23        16       -16             # HL0    -->  Z0     NUT    ANUT        
      8.19208566E-04    3           23        11       -11             # HL0    -->  Z0     E-     E+          
      8.19208566E-04    3           23        13       -13             # HL0    -->  Z0     MU-    MU+         
      8.19208566E-04    3           23        15       -15             # HL0    -->  Z0     TAU-   TAU+        
      2.80653895E-03    3           23         2        -2             # HL0    -->  Z0     UP     UB          
      2.80653895E-03    3           23         4        -4             # HL0    -->  Z0     CH     CB          
      3.61551391E-03    3           23         1        -1             # HL0    -->  Z0     DN     DB          
      3.61551391E-03    3           23         3        -3             # HL0    -->  Z0     ST     SB          
      3.61551391E-03    3           23         5        -5             # HL0    -->  Z0     BT     BB          
#         PDG         Width
DECAY        35  3.53240585E+00   # HH0   decays
#          BR          NDA       ID1       ID2       ID3       ID4
      1.08942588E-08    2           11       -11                       # HH0    -->  E-     E+                 
      4.59975214E-04    2           13       -13                       # HH0    -->  MU-    MU+                
      1.31741509E-01    2           15       -15                       # HH0    -->  TAU-   TAU+               
      1.33455151E-05    2            1        -1                       # HH0    -->  DN     DB                 
      5.39226364E-03    2            3        -3                       # HH0    -->  ST     SB                 
      8.03436220E-01    2            5        -5                       # HH0    -->  BT     BB                 
      8.84668380E-11    2            2        -2                       # HH0    -->  UP     UB                 
      1.24587746E-06    2            4        -4                       # HH0    -->  CH     CB                 
      5.68339936E-02    2            6        -6                       # HH0    -->  TP     TB                 
      1.51559064E-07    2           22        22                       # HH0    -->  GM     GM                 
      2.31597096E-05    2           21        21                       # HH0    -->  GL     GL                 
      2.31780417E-04    2           24       -24                       # HH0    -->  W+     W-                 
      1.17678654E-04    2           23        23                       # HH0    -->  Z0     Z0                 
      1.65014193E-04    2      1000022   1000022                       # HH0    -->  Z1SS   Z1SS               
      1.09973298E-05    2      1000022   1000023                       # HH0    -->  Z1SS   Z2SS               
      1.33664158E-04    2      1000023   1000023                       # HH0    -->  Z2SS   Z2SS               
      5.69801428E-04    2      1000024  -1000024                       # HH0    -->  W1SS+  W1SS-              
      8.69166921E-04    2           25        25                       # HH0    -->  HL0    HL0                
#         PDG         Width
DECAY        36  3.51902962E+00   # HA0   decays
#          BR          NDA       ID1       ID2       ID3       ID4
      1.08655644E-08    2           11       -11                       # HA0    -->  E-     E+                 
      4.58763738E-04    2           13       -13                       # HA0    -->  MU-    MU+                
      1.31396145E-01    2           15       -15                       # HA0    -->  TAU-   TAU+               
      1.33110998E-05    2            1        -1                       # HA0    -->  DN     DB                 
      5.37835807E-03    2            3        -3                       # HA0    -->  ST     SB                 
      8.01400125E-01    2            5        -5                       # HA0    -->  BT     BB                 
      8.41309522E-11    2            2        -2                       # HA0    -->  UP     UB                 
      1.18574792E-06    2            4        -4                       # HA0    -->  CH     CB                 
      6.00809716E-02    2            6        -6                       # HA0    -->  TP     TB                 
      3.27902058E-07    2           22        22                       # HA0    -->  GM     GM                 
      7.09699161E-05    2           21        21                       # HA0    -->  GL     GL                 
      2.32278035E-04    2      1000022   1000022                       # HA0    -->  Z1SS   Z1SS               
      7.10300867E-07    2      1000022   1000023                       # HA0    -->  Z1SS   Z2SS               
      1.09751811E-04    2      1000023   1000023                       # HA0    -->  Z2SS   Z2SS               
      6.34158845E-04    2      1000024  -1000024                       # HA0    -->  W1SS+  W1SS-              
      2.22919756E-04    2           25        23                       # HA0    -->  HL0    Z0                 
#         PDG         Width
DECAY        37  3.11796856E+00   # H+    decays
#          BR          NDA       ID1       ID2       ID3       ID4
      1.23027855E-08    2           12       -11                       # H+     -->  NUE    E+                 
      5.19445806E-04    2           14       -13                       # H+     -->  NUM    MU+                
      1.48776308E-01    2           16       -15                       # H+     -->  NUT    TAU+               
      1.38533906E-05    2            2        -1                       # H+     -->  UP     DB                 
      5.59864799E-03    2            4        -3                       # H+     -->  CH     SB                 
      8.44806492E-01    2            6        -5                       # H+     -->  TP     BB                 
      7.07177014E-06    2      1000024   1000022                       # H+     -->  W1SS+  Z1SS               
      2.58550663E-05    2      1000024   1000023                       # H+     -->  W1SS+  Z2SS               
      2.52313243E-04    2           25        24                       # H+     -->  HL0    W+                 
