#  ISAJET SUSY parameters in SUSY Les Houches Accord 2 format
#  Created by ISALHA 2.0 Last revision: H Baer 27 May 2014
Block SPINFO   # Program information
     1   ISASUGRA/ISASUSY from ISAJET   # Spectrum Calculator
     2   7.87   18-JUL-2017 13:55:55    # Version number
Block MODSEL   # Model selection
     1    13   # Non-universal supergravity model                  
Block SMINPUTS   # Standard Model inputs
     1     1.28000000E+02   # alpha_em^(-1)
     2     1.16570000E-05   # G_Fermi
     3     1.19999997E-01   # alpha_s(M_Z)
     4     9.11699982E+01   # m_{Z}(pole)
     5     4.19999981E+00   # m_{b}(m_{b})
     6     1.72500000E+02   # m_{top}(pole)
     7     1.77699995E+00   # m_{tau}(pole)
Block MINPAR   # SUSY breaking input parameters
     1     5.00000000E+03   # m_0
     2     8.00000000E+03   # m_{1/2}
     3     1.50000000E+01   # tan(beta)
     4     1.00000000E+00   # sign(mu)
     5    -8.00000000E+03   # A_0
Block EXTPAR   # Non-universal SUSY breaking parameters
     0     9.28961268E+15   # Input scale
    21    -1.97431640E+07   # Down type Higgs mass squared
    22     1.32273720E+08   #  Up  type Higgs mass squared
Block MASS   # Scalar and gaugino mass spectrum
#  PDG code   mass                 particle
         6     1.72500000E+02   #  top            
        24     8.04229965E+01   #  W^+
        25     1.25945175E+02   #  h^0            
        35     1.00666943E+03   #  H^0            
        36     1.00000000E+03   #  A^0            
        37     1.00322870E+03   #  H^+            
   1000001     1.45869854E+04   #  dnl            
   1000002     1.45867500E+04   #  upl            
   1000003     1.45869854E+04   #  stl            
   1000004     1.45867500E+04   #  chl            
   1000005     1.25626445E+04   #  b1             
   1000006     9.49250586E+03   #  t1             
   1000011     7.40593262E+03   #  el-            
   1000012     7.39354199E+03   #  nuel           
   1000013     7.40593262E+03   #  mul-           
   1000014     7.39354199E+03   #  numl           
   1000015     4.91704932E+03   #  tau1           
   1000016     7.30547656E+03   #  nutl           
   1000021     1.54324092E+04   #  glss           
   1000022     1.15102890E+02   #  z1ss           
   1000023    -1.16408859E+02   #  z2ss           
   1000024     1.21564796E+02   #  w1ss           
   1000025     3.67857178E+03   #  z3ss           
   1000035     6.68054736E+03   #  z4ss           
   1000037     6.59911865E+03   #  w2ss           
   1000039     1.00000002E+20   #  gvss
   2000001     1.38015225E+04   #  dnr            
   2000002     1.41593545E+04   #  upr            
   2000003     1.38015225E+04   #  str            
   2000004     1.41593545E+04   #  chr            
   2000005     1.35441885E+04   #  b2             
   2000006     1.26080186E+04   #  t2             
   2000011     5.10818555E+03   #  er-            
   2000013     5.10818555E+03   #  mur-           
   2000015     7.32238379E+03   #  tau2           
Block ALPHA   # Effective Higgs mixing parameter
         -6.81698471E-02   # alpha
Block STOPMIX   # stop mixing matrix
  1  1     3.03873289E-02   # O_{11}
  1  2     9.99538183E-01   # O_{12}
  2  1    -9.99538183E-01   # O_{21}
  2  2     3.03873289E-02   # O_{22}
Block SBOTMIX   # sbottom mixing matrix
  1  1     9.99978304E-01   # O_{11}
  1  2     6.58815447E-03   # O_{12}
  2  1    -6.58815447E-03   # O_{21}
  2  2     9.99978304E-01   # O_{22}
Block STAUMIX   # stau mixing matrix
  1  1     1.83935463E-03   # O_{11}
  1  2    -9.99998331E-01   # O_{12}
  2  1     9.99998331E-01   # O_{21}
  2  2     1.83935463E-03   # O_{22}
Block NMIX   # neutralino mixing matrix
  1  1    -8.57879221E-03   #
  1  2     8.55296012E-03   #
  1  3    -7.09052801E-01   #
  1  4     7.05051184E-01   #
  2  1    -7.00534135E-03   #
  2  2     6.71340898E-03   #
  2  3     7.05152988E-01   #
  2  4     7.08988726E-01   #
  3  1     9.99924839E-01   #
  3  2     5.36448509E-03   #
  3  3    -1.13605394E-03   #
  3  4     1.09591233E-02   #
  4  1     5.24405763E-03   #
  4  2    -9.99926507E-01   #
  4  3    -1.33693917E-03   #
  4  4     1.08497171E-02   #
Block UMIX   # chargino U mixing matrix
  1  1    -1.50981685E-03   # U_{11}
  1  2     9.99998868E-01   # U_{12}
  2  1    -9.99998868E-01   # U_{21}
  2  2    -1.50981685E-03   # U_{22}
Block VMIX   # chargino V mixing matrix
  1  1    -1.65685304E-02   # V_{11}
  1  2     9.99862731E-01   # V_{12}
  2  1    -9.99862731E-01   # V_{21}
  2  2    -1.65685304E-02   # V_{22}
Block GAUGE Q=  1.06323613E+04   #
     1     3.57525229E-01   # g`
     2     6.52378500E-01   # g_2
     3     1.21927214E+00   # g_3
Block YU Q=  1.06323613E+04   #
  3  3     7.83854902E-01   # y_t
Block YD Q=  1.06323613E+04   #
  3  3     1.70417488E-01   # y_b
Block YE Q=  1.06323613E+04   #
  3  3     1.47040442E-01   # y_tau
Block HMIX Q=  1.06323613E+04   # Higgs mixing parameters
     1     1.10000000E+02   # mu(Q)
     2     1.41384487E+01   # tan(beta)(Q)
     3     2.53292801E+02   # Higgs vev at Q
     4     1.00000000E+06   # m_A^2(Q)
Block MSOFT Q=  1.06323613E+04   # DRbar SUSY breaking parameters
     1     3.71835400E+03   # M_1(Q)          
     2     6.52416553E+03   # M_2(Q)          
     3     1.48783818E+04   # M_3(Q)          
    21     1.01229156E+06   # MHd^2(Q)        
    22     9.21556313E+05   # MHu^2(Q)        
    31     7.34930420E+03   # MeL(Q)          
    32     7.34930420E+03   # MmuL(Q)         
    33     7.26376465E+03   # MtauL(Q)        
    34     5.10001953E+03   # MeR(Q)          
    35     5.10001953E+03   # MmuR(Q)         
    36     4.90054053E+03   # MtauR(Q)        
    41     1.38586572E+04   # MqL1(Q)         
    42     1.38586572E+04   # MqL2(Q)         
    43     1.20923340E+04   # MqL3(Q)         
    44     1.34447686E+04   # MuR(Q)          
    45     1.34447686E+04   # McR(Q)          
    46     9.34865820E+03   # MtR(Q)          
    47     1.31002695E+04   # MdR(Q)          
    48     1.31002695E+04   # MsR(Q)          
    49     1.30390674E+04   # MbR(Q)          
Block AU Q=  1.06323613E+04   #
  1  1    -1.46140547E+04   # A_u
  2  2    -1.46140547E+04   # A_c
  3  3    -1.46140547E+04   # A_t
Block AD Q=  1.06323613E+04   #
  1  1    -2.24276699E+04   # A_d
  2  2    -2.24276699E+04   # A_s
  3  3    -2.24276699E+04   # A_b
Block AE Q=  1.06323613E+04   #
  1  1    -1.18688223E+04   # A_e
  2  2    -1.18688223E+04   # A_mu
  3  3    -1.18688223E+04   # A_tau
#  ISAJET decay tables in SUSY Les Houches accord format
#  Created by ISALHD. Last revision: C. Balazs, 2005 May 25
Block DCINFO                           # Program information
     1   ISASUGRA from ISAJET          # Spectrum Calculator
     2   7.87   18-JUL-2017 13:55:55   # Version number
#         PDG         Width
DECAY         6  1.46776152E+00   # TP    decays
#          BR          NDA       ID1       ID2       ID3       ID4
      3.33333313E-01    3            2        -1         5             # TP     -->  UP     DB     BT          
      3.33333313E-01    3            4        -3         5             # TP     -->  CH     SB     BT          
      1.11111097E-01    3          -11        12         5             # TP     -->  E+     NUE    BT          
      1.11111097E-01    3          -13        14         5             # TP     -->  MU+    NUM    BT          
      1.11111097E-01    3          -15        16         5             # TP     -->  TAU+   NUT    BT          
#         PDG         Width
DECAY   1000021  2.32665756E+02   # GLSS  decays
#          BR          NDA       ID1       ID2       ID3       ID4
      6.77453587E-03    2     -1000002         2                       # GLSS   -->  UBL    UP                 
      6.77453587E-03    2      1000002        -2                       # GLSS   -->  UPL    UB                 
      6.77086925E-03    2     -1000001         1                       # GLSS   -->  DBL    DN                 
      6.77086925E-03    2      1000001        -1                       # GLSS   -->  DNL    DB                 
      1.49185890E-02    2     -2000002         2                       # GLSS   -->  UBR    UP                 
      1.49185890E-02    2      2000002        -2                       # GLSS   -->  UPR    UB                 
      2.38953866E-02    2     -2000001         1                       # GLSS   -->  DBR    DN                 
      2.38953866E-02    2      2000001        -1                       # GLSS   -->  DNR    DB                 
      6.77086879E-03    2     -1000003         3                       # GLSS   -->  SBL    ST                 
      6.77086879E-03    2      1000003        -3                       # GLSS   -->  STL    SB                 
      2.38953866E-02    2     -2000003         3                       # GLSS   -->  SBR    ST                 
      2.38953866E-02    2      2000003        -3                       # GLSS   -->  STR    SB                 
      6.77452749E-03    2     -1000004         4                       # GLSS   -->  CBL    CH                 
      6.77452749E-03    2      1000004        -4                       # GLSS   -->  CHL    CB                 
      1.49185807E-02    2     -2000004         4                       # GLSS   -->  CBR    CH                 
      1.49185807E-02    2      2000004        -4                       # GLSS   -->  CHR    CB                 
      6.78477958E-02    2     -1000005         5                       # GLSS   -->  BB1    BT                 
      6.78477958E-02    2      1000005        -5                       # GLSS   -->  BT1    BB                 
      3.14707570E-02    2     -2000005         5                       # GLSS   -->  BB2    BT                 
      3.14707570E-02    2      2000005        -5                       # GLSS   -->  BT2    BB                 
      2.29859322E-01    2     -1000006         6                       # GLSS   -->  TB1    TP                 
      2.29859322E-01    2      1000006        -6                       # GLSS   -->  TP1    TB                 
      6.61033466E-02    2     -2000006         6                       # GLSS   -->  TB2    TP                 
      6.61033466E-02    2      2000006        -6                       # GLSS   -->  TP2    TB                 
#         PDG         Width
DECAY   1000002  1.17873520E+02   # UPL   decays
#          BR          NDA       ID1       ID2       ID3       ID4
      2.53845028E-05    2      1000022         2                       # UPL    -->  Z1SS   UP                 
      1.53566252E-05    2      1000023         2                       # UPL    -->  Z2SS   UP                 
      1.62393246E-02    2      1000025         2                       # UPL    -->  Z3SS   UP                 
      3.24624956E-01    2      1000035         2                       # UPL    -->  Z4SS   UP                 
      2.85951275E-04    2      1000024         1                       # UPL    -->  W1SS+  DN                 
      6.58809006E-01    2      1000037         1                       # UPL    -->  W2SS+  DN                 
#         PDG         Width
DECAY   1000001  1.17806229E+02   # DNL   decays
#          BR          NDA       ID1       ID2       ID3       ID4
      5.34214669E-05    2      1000022         1                       # DNL    -->  Z1SS   DN                 
      3.33265634E-05    2      1000023         1                       # DNL    -->  Z2SS   DN                 
      1.44524090E-02    2      1000025         1                       # DNL    -->  Z3SS   DN                 
      3.26072037E-01    2      1000035         1                       # DNL    -->  Z4SS   DN                 
      2.37589711E-06    2     -1000024         2                       # DNL    -->  W1SS-  UP                 
      6.59386456E-01    2     -1000037         2                       # DNL    -->  W2SS-  UP                 
#         PDG         Width
DECAY   1000003  1.17806229E+02   # STL   decays
#          BR          NDA       ID1       ID2       ID3       ID4
      5.34214669E-05    2      1000022         3                       # STL    -->  Z1SS   ST                 
      3.33265634E-05    2      1000023         3                       # STL    -->  Z2SS   ST                 
      1.44524090E-02    2      1000025         3                       # STL    -->  Z3SS   ST                 
      3.26072037E-01    2      1000035         3                       # STL    -->  Z4SS   ST                 
      2.37589711E-06    2     -1000024         4                       # STL    -->  W1SS-  CH                 
      6.59386456E-01    2     -1000037         4                       # STL    -->  W2SS-  CH                 
#         PDG         Width
DECAY   1000004  1.17873520E+02   # CHL   decays
#          BR          NDA       ID1       ID2       ID3       ID4
      2.53845028E-05    2      1000022         4                       # CHL    -->  Z1SS   CH                 
      1.53566252E-05    2      1000023         4                       # CHL    -->  Z2SS   CH                 
      1.62393264E-02    2      1000025         4                       # CHL    -->  Z3SS   CH                 
      3.24624956E-01    2      1000035         4                       # CHL    -->  Z4SS   CH                 
      2.85951275E-04    2      1000024         3                       # CHL    -->  W1SS+  ST                 
      6.58809006E-01    2      1000037         3                       # CHL    -->  W2SS+  ST                 
#         PDG         Width
DECAY   1000005  3.31007965E+02   # BT1   decays
#          BR          NDA       ID1       ID2       ID3       ID4
      1.17262639E-02    2      1000022         5                       # BT1    -->  Z1SS   BT                 
      1.15781473E-02    2      1000023         5                       # BT1    -->  Z2SS   BT                 
      4.22293227E-03    2      1000025         5                       # BT1    -->  Z3SS   BT                 
      8.23185444E-02    2      1000035         5                       # BT1    -->  Z4SS   BT                 
      4.37192649E-01    2     -1000024         6                       # BT1    -->  W1SS-  TP                 
      1.67572096E-01    2     -1000037         6                       # BT1    -->  W2SS-  TP                 
      2.83977807E-01    2          -24   1000006                       # BT1    -->  W-     TP1                
      1.41163403E-03    2          -37   1000006                       # BT1    -->  H-     TP1                
#         PDG         Width
DECAY   1000006  2.34240204E+02   # TP1   decays
#          BR          NDA       ID1       ID2       ID3       ID4
      2.32196406E-01    2      1000022         6                       # TP1    -->  Z1SS   TP                 
      2.34774187E-01    2      1000023         6                       # TP1    -->  Z2SS   TP                 
      6.60704821E-02    2      1000025         6                       # TP1    -->  Z3SS   TP                 
      6.96325924E-06    2      1000035         6                       # TP1    -->  Z4SS   TP                 
      4.66940939E-01    2      1000024         5                       # TP1    -->  W1SS+  BT                 
      1.10265028E-05    2      1000037         5                       # TP1    -->  W2SS+  BT                 
#         PDG         Width
DECAY   2000002  2.78334084E+01   # UPR   decays
#          BR          NDA       ID1       ID2       ID3       ID4
      8.46229450E-05    2      1000022         2                       # UPR    -->  Z1SS   UP                 
      5.64278198E-05    2      1000023         2                       # UPR    -->  Z2SS   UP                 
      9.99839842E-01    2      1000025         2                       # UPR    -->  Z3SS   UP                 
      1.91121871E-05    2      1000035         2                       # UPR    -->  Z4SS   UP                 
#         PDG         Width
DECAY   2000001  6.73103237E+00   # DNR   decays
#          BR          NDA       ID1       ID2       ID3       ID4
      8.52694357E-05    2      1000022         1                       # DNR    -->  Z1SS   DN                 
      5.68588985E-05    2      1000023         1                       # DNR    -->  Z2SS   DN                 
      9.99839187E-01    2      1000025         1                       # DNR    -->  Z3SS   DN                 
      1.86833659E-05    2      1000035         1                       # DNR    -->  Z4SS   DN                 
#         PDG         Width
DECAY   2000003  6.73103237E+00   # STR   decays
#          BR          NDA       ID1       ID2       ID3       ID4
      8.52694357E-05    2      1000022         3                       # STR    -->  Z1SS   ST                 
      5.68588985E-05    2      1000023         3                       # STR    -->  Z2SS   ST                 
      9.99839187E-01    2      1000025         3                       # STR    -->  Z3SS   ST                 
      1.86833659E-05    2      1000035         3                       # STR    -->  Z4SS   ST                 
#         PDG         Width
DECAY   2000004  2.78334064E+01   # CHR   decays
#          BR          NDA       ID1       ID2       ID3       ID4
      8.46229523E-05    2      1000022         4                       # CHR    -->  Z1SS   CH                 
      5.64278271E-05    2      1000023         4                       # CHR    -->  Z2SS   CH                 
      9.99839842E-01    2      1000025         4                       # CHR    -->  Z3SS   CH                 
      1.91121890E-05    2      1000035         4                       # CHR    -->  Z4SS   CH                 
#         PDG         Width
DECAY   2000005  2.35399227E+01   # BT2   decays
#          BR          NDA       ID1       ID2       ID3       ID4
      1.77323520E-01    2      1000022         5                       # BT2    -->  Z1SS   BT                 
      1.75574049E-01    2      1000023         5                       # BT2    -->  Z2SS   BT                 
      2.78918922E-01    2      1000025         5                       # BT2    -->  Z3SS   BT                 
      7.51520929E-05    2      1000035         5                       # BT2    -->  Z4SS   BT                 
      3.53013277E-01    2     -1000024         6                       # BT2    -->  W1SS-  TP                 
      1.37915689E-04    2     -1000037         6                       # BT2    -->  W2SS-  TP                 
      3.62411811E-04    2          -24   1000006                       # BT2    -->  W-     TP1                
      7.00280163E-03    2          -24   2000006                       # BT2    -->  W-     TP2                
      4.06351173E-03    2           23   1000005                       # BT2    -->  Z0     BT1                
      2.14283564E-03    2           25   1000005                       # BT2    -->  HL0    BT1                
      1.38561742E-03    2          -37   1000006                       # BT2    -->  H-     TP1                
#         PDG         Width
DECAY   2000006  3.58669098E+02   # TP2   decays
#          BR          NDA       ID1       ID2       ID3       ID4
      2.16453020E-02    2      1000024         5                       # TP2    -->  W1SS+  BT                 
      1.55996278E-01    2      1000037         5                       # TP2    -->  W2SS+  BT                 
      1.37941092E-01    2           23   1000006                       # TP2    -->  Z0     TP1                
      1.97358996E-01    2           25   1000006                       # TP2    -->  HL0    TP1                
      6.88481494E-04    2           35   1000006                       # TP2    -->  HH0    TP1                
      6.55453594E-04    2           36   1000006                       # TP2    -->  HA0    TP1                
      2.01228976E-01    2      1000022         6                       # TP2    -->  Z1SS   TP                 
      2.03503326E-01    2      1000023         6                       # TP2    -->  Z2SS   TP                 
      4.55716439E-03    2      1000025         6                       # TP2    -->  Z3SS   TP                 
      7.64248893E-02    2      1000035         6                       # TP2    -->  Z4SS   TP                 
#         PDG         Width
DECAY   1000011  9.17023087E+00   # EL-   decays
#          BR          NDA       ID1       ID2       ID3       ID4
      5.00476344E-05    2      1000022        11                       # EL-    -->  Z1SS   E-                 
      2.78533807E-05    2      1000023        11                       # EL-    -->  Z2SS   E-                 
      5.94054878E-01    2      1000025        11                       # EL-    -->  Z3SS   E-                 
      1.17290772E-01    2      1000035        11                       # EL-    -->  Z4SS   E-                 
      1.54901627E-05    2     -1000024        12                       # EL-    -->  W1SS-  NUE                
      2.88560897E-01    2     -1000037        12                       # EL-    -->  W2SS-  NUE                
#         PDG         Width
DECAY   1000013  9.17023087E+00   # MUL-  decays
#          BR          NDA       ID1       ID2       ID3       ID4
      5.00476344E-05    2      1000022        13                       # MUL-   -->  Z1SS   MU-                
      2.78533807E-05    2      1000023        13                       # MUL-   -->  Z2SS   MU-                
      5.94054878E-01    2      1000025        13                       # MUL-   -->  Z3SS   MU-                
      1.17290772E-01    2      1000035        13                       # MUL-   -->  Z4SS   MU-                
      1.54901627E-05    2     -1000024        14                       # MUL-   -->  W1SS-  NUM                
      2.88560897E-01    2     -1000037        14                       # MUL-   -->  W2SS-  NUM                
#         PDG         Width
DECAY   1000015  9.33637333E+00   # TAU1- decays
#          BR          NDA       ID1       ID2       ID3       ID4
      1.20952561E-01    2      1000022        15                       # TAU1-  -->  Z1SS   TAU-               
      1.19604230E-01    2      1000023        15                       # TAU1-  -->  Z2SS   TAU-               
      5.19242764E-01    2      1000025        15                       # TAU1-  -->  Z3SS   TAU-               
      2.40200460E-01    2     -1000024        16                       # TAU1-  -->  W1SS-  NUT                
#         PDG         Width
DECAY   1000012  8.87260437E+00   # NUEL  decays
#          BR          NDA       ID1       ID2       ID3       ID4
      6.17187121E-04    2      1000022        12                       # NUEL   -->  Z1SS   NUE                
      3.91227717E-04    2      1000023        12                       # NUEL   -->  Z2SS   NUE                
      5.88188469E-01    2      1000025        12                       # NUEL   -->  Z3SS   NUE                
      1.18864663E-01    2      1000035        12                       # NUEL   -->  Z4SS   NUE                
      1.92476041E-03    2      1000024        11                       # NUEL   -->  W1SS+  E-                 
      2.90013820E-01    2      1000037        11                       # NUEL   -->  W2SS+  E-                 
#         PDG         Width
DECAY   1000014  8.87260437E+00   # NUML  decays
#          BR          NDA       ID1       ID2       ID3       ID4
      6.17187121E-04    2      1000022        14                       # NUML   -->  Z1SS   NUM                
      3.91227717E-04    2      1000023        14                       # NUML   -->  Z2SS   NUM                
      5.88188469E-01    2      1000025        14                       # NUML   -->  Z3SS   NUM                
      1.18864663E-01    2      1000035        14                       # NUML   -->  Z4SS   NUM                
      1.92476041E-03    2      1000024        13                       # NUML   -->  W1SS+  MU-                
      2.90013820E-01    2      1000037        13                       # NUML   -->  W2SS+  MU-                
#         PDG         Width
DECAY   1000016  1.58919783E+01   # NUTL  decays
#          BR          NDA       ID1       ID2       ID3       ID4
      3.40471597E-04    2      1000022        16                       # NUTL   -->  Z1SS   NUT                
      2.15820924E-04    2      1000023        16                       # NUTL   -->  Z2SS   NUT                
      3.19320679E-01    2      1000025        16                       # NUTL   -->  Z3SS   NUT                
      5.21885343E-02    2      1000035        16                       # NUTL   -->  Z4SS   NUT                
      2.10868731E-01    2      1000024        15                       # NUTL   -->  W1SS+  TAU-               
      1.31028205E-01    2      1000037        15                       # NUTL   -->  W2SS+  TAU-               
      8.82491842E-03    2           24   1000015                       # NUTL   -->  W+     TAU1-              
      2.77212650E-01    2           37   1000015                       # NUTL   -->  H+     TAU1-              
#         PDG         Width
DECAY   2000011  6.02362394E+00   # ER-   decays
#          BR          NDA       ID1       ID2       ID3       ID4
      3.17116501E-04    2      1000022        11                       # ER-    -->  Z1SS   E-                 
      2.11453560E-04    2      1000023        11                       # ER-    -->  Z2SS   E-                 
      9.99471426E-01    2      1000025        11                       # ER-    -->  Z3SS   E-                 
      4.38033131E-19    3      1000015        11       -15             # ER-    -->  TAU1-  E-     TAU+        
      6.67058815E-19    3     -1000015        11        15             # ER-    -->  TAU1+  E-     TAU-        
      6.19227885E-29    3      1000015        12       -16             # ER-    -->  TAU1-  NUE    ANUT        
#         PDG         Width
DECAY   2000013  6.02362394E+00   # MUR-  decays
#          BR          NDA       ID1       ID2       ID3       ID4
      3.17116501E-04    2      1000022        13                       # MUR-   -->  Z1SS   MU-                
      2.11453560E-04    2      1000023        13                       # MUR-   -->  Z2SS   MU-                
      9.99471426E-01    2      1000025        13                       # MUR-   -->  Z3SS   MU-                
      4.38033131E-19    3      1000015        13       -15             # MUR-   -->  TAU1-  MU-    TAU+        
      6.67058815E-19    3     -1000015        13        15             # MUR-   -->  TAU1+  MU-    TAU-        
      5.28715996E-24    3      1000015        14       -16             # MUR-   -->  TAU1-  NUM    ANUT        
#         PDG         Width
DECAY   2000015  1.61886749E+01   # TAU2- decays
#          BR          NDA       ID1       ID2       ID3       ID4
      1.03844374E-01    2      1000022        15                       # TAU2-  -->  Z1SS   TAU-               
      1.02653302E-01    2      1000023        15                       # TAU2-  -->  Z2SS   TAU-               
      3.27732116E-01    2      1000025        15                       # TAU2-  -->  Z3SS   TAU-               
      5.31809330E-02    2      1000035        15                       # TAU2-  -->  Z4SS   TAU-               
      1.42969393E-05    2     -1000024        16                       # TAU2-  -->  W1SS-  NUT                
      1.34288117E-01    2     -1000037        16                       # TAU2-  -->  W2SS-  NUT                
      4.46802238E-03    2           23   1000015                       # TAU2-  -->  Z0     TAU1-              
      9.05678084E-04    2           25   1000015                       # TAU2-  -->  HL0    TAU1-              
      1.36573121E-01    2           36   1000015                       # TAU2-  -->  HA0    TAU1-              
      1.36340126E-01    2           35   1000015                       # TAU2-  -->  HH0    TAU1-              
#         PDG         Width
DECAY   1000023  7.92947132E-12   # Z2SS  decays
#          BR          NDA       ID1       ID2       ID3       ID4
      7.24302828E-01    2      1000022        22                       # Z2SS   -->  Z1SS   GM                 
      5.96663728E-02    3      1000022         2        -2             # Z2SS   -->  Z1SS   UP     UB          
      7.69401863E-02    3      1000022         1        -1             # Z2SS   -->  Z1SS   DN     DB          
      1.74538437E-02    3      1000022        11       -11             # Z2SS   -->  Z1SS   E-     E+          
      1.74538437E-02    3      1000022        13       -13             # Z2SS   -->  Z1SS   MU-    MU+         
      3.47276554E-02    3      1000022        12       -12             # Z2SS   -->  Z1SS   NUE    ANUE        
      3.47276554E-02    3      1000022        14       -14             # Z2SS   -->  Z1SS   NUM    ANUM        
      3.47276554E-02    3      1000022        16       -16             # Z2SS   -->  Z1SS   NUT    ANUT        
#         PDG         Width
DECAY   1000025  1.62369308E+01   # Z3SS  decays
#          BR          NDA       ID1       ID2       ID3       ID4
      1.57098246E-08    2      1000022        22                       # Z3SS   -->  Z1SS   GM                 
      1.68446981E-08    2      1000023        22                       # Z3SS   -->  Z2SS   GM                 
      1.23450577E-01    2      1000024       -24                       # Z3SS   -->  W1SS+  W-                 
      1.23450577E-01    2     -1000024        24                       # Z3SS   -->  W1SS-  W+                 
      1.24596238E-01    2      1000024       -37                       # Z3SS   -->  W1SS+  H-                 
      1.24596238E-01    2     -1000024        37                       # Z3SS   -->  W1SS-  H+                 
      4.82824668E-02    2      1000022        23                       # Z3SS   -->  Z1SS   Z0                 
      7.40211383E-02    2      1000023        23                       # Z3SS   -->  Z2SS   Z0                 
      3.68109120E-11    3      1000022         2        -2             # Z3SS   -->  Z1SS   UP     UB          
      7.02439842E-12    3      1000022         1        -1             # Z3SS   -->  Z1SS   DN     DB          
      7.02439842E-12    3      1000022         3        -3             # Z3SS   -->  Z1SS   ST     SB          
      3.68109120E-11    3      1000022         4        -4             # Z3SS   -->  Z1SS   CH     CB          
      1.36143488E-08    3      1000022         5        -5             # Z3SS   -->  Z1SS   BT     BB          
      5.44204015E-09    3      1000022        11       -11             # Z3SS   -->  Z1SS   E-     E+          
      5.44204015E-09    3      1000022        13       -13             # Z3SS   -->  Z1SS   MU-    MU+         
      4.76224341E-06    3      1000022        15       -15             # Z3SS   -->  Z1SS   TAU-   TAU+        
      4.43577980E-10    3      1000022        12       -12             # Z3SS   -->  Z1SS   NUE    ANUE        
      4.43577980E-10    3      1000022        14       -14             # Z3SS   -->  Z1SS   NUM    ANUM        
      4.68039552E-10    3      1000022        16       -16             # Z3SS   -->  Z1SS   NUT    ANUT        
      2.16198379E-11    3      1000023         2        -2             # Z3SS   -->  Z2SS   UP     UB          
      3.97463572E-12    3      1000023         1        -1             # Z3SS   -->  Z2SS   DN     DB          
      3.97463572E-12    3      1000023         3        -3             # Z3SS   -->  Z2SS   ST     SB          
      2.16198379E-11    3      1000023         4        -4             # Z3SS   -->  Z2SS   CH     CB          
      1.34594913E-08    3      1000023         5        -5             # Z3SS   -->  Z2SS   BT     BB          
      3.28129346E-09    3      1000023        11       -11             # Z3SS   -->  Z2SS   E-     E+          
      3.28129346E-09    3      1000023        13       -13             # Z3SS   -->  Z2SS   MU-    MU+         
      4.70788154E-06    3      1000023        15       -15             # Z3SS   -->  Z2SS   TAU-   TAU+        
      2.51059146E-10    3      1000023        12       -12             # Z3SS   -->  Z2SS   NUE    ANUE        
      2.51059146E-10    3      1000023        14       -14             # Z3SS   -->  Z2SS   NUM    ANUM        
      2.64974653E-10    3      1000023        16       -16             # Z3SS   -->  Z2SS   NUT    ANUT        
      8.45353156E-02    2      1000022        25                       # Z3SS   -->  Z1SS   HL0                
      5.60878813E-02    2      1000022        35                       # Z3SS   -->  Z1SS   HH0                
      6.42567426E-02    2      1000022        36                       # Z3SS   -->  Z1SS   HA0                
      5.73290847E-02    2      1000023        25                       # Z3SS   -->  Z2SS   HL0                
      6.36343956E-02    2      1000023        35                       # Z3SS   -->  Z2SS   HH0                
      5.57498373E-02    2      1000023        36                       # Z3SS   -->  Z2SS   HA0                
#         PDG         Width
DECAY   1000035  1.10199013E+02   # Z4SS  decays
#          BR          NDA       ID1       ID2       ID3       ID4
      8.62400462E-09    2      1000022        22                       # Z4SS   -->  Z1SS   GM                 
      9.00837094E-09    2      1000023        22                       # Z4SS   -->  Z2SS   GM                 
      3.89305344E-09    2      1000025        22                       # Z4SS   -->  Z3SS   GM                 
      1.39783502E-01    2      1000024       -24                       # Z4SS   -->  W1SS+  W-                 
      1.39783502E-01    2     -1000024        24                       # Z4SS   -->  W1SS-  W+                 
      1.20580435E-01    2      1000024       -37                       # Z4SS   -->  W1SS+  H-                 
      1.20580435E-01    2     -1000024        37                       # Z4SS   -->  W1SS-  H+                 
      4.06215861E-07    2      1000037       -24                       # Z4SS   -->  W2SS+  W-                 
      4.06215861E-07    2     -1000037        24                       # Z4SS   -->  W2SS-  W+                 
      4.00276184E-02    2      1000022        23                       # Z4SS   -->  Z1SS   Z0                 
      6.64512739E-02    2      1000023        23                       # Z4SS   -->  Z2SS   Z0                 
      4.16355715E-06    2      1000025        23                       # Z4SS   -->  Z3SS   Z0                 
      2.25836752E-10    3      1000022         2        -2             # Z4SS   -->  Z1SS   UP     UB          
      4.76781503E-10    3      1000022         1        -1             # Z4SS   -->  Z1SS   DN     DB          
      4.76781503E-10    3      1000022         3        -3             # Z4SS   -->  Z1SS   ST     SB          
      2.25836752E-10    3      1000022         4        -4             # Z4SS   -->  Z1SS   CH     CB          
      6.44465274E-07    3      1000022         5        -5             # Z4SS   -->  Z1SS   BT     BB          
      7.81625598E-10    3      1000022        11       -11             # Z4SS   -->  Z1SS   E-     E+          
      7.81625598E-10    3      1000022        13       -13             # Z4SS   -->  Z1SS   MU-    MU+         
      3.10186670E-06    3      1000022        15       -15             # Z4SS   -->  Z1SS   TAU-   TAU+        
      9.57323731E-09    3      1000022        12       -12             # Z4SS   -->  Z1SS   NUE    ANUE        
      9.57323731E-09    3      1000022        14       -14             # Z4SS   -->  Z1SS   NUM    ANUM        
      1.05258291E-08    3      1000022        16       -16             # Z4SS   -->  Z1SS   NUT    ANUT        
      1.28140221E-10    3      1000023         2        -2             # Z4SS   -->  Z2SS   UP     UB          
      2.78969764E-10    3      1000023         1        -1             # Z4SS   -->  Z2SS   DN     DB          
      2.78969764E-10    3      1000023         3        -3             # Z4SS   -->  Z2SS   ST     SB          
      1.28140221E-10    3      1000023         4        -4             # Z4SS   -->  Z2SS   CH     CB          
      6.36900495E-07    3      1000023         5        -5             # Z4SS   -->  Z2SS   BT     BB          
      4.16844448E-10    3      1000023        11       -11             # Z4SS   -->  Z2SS   E-     E+          
      4.16844448E-10    3      1000023        13       -13             # Z4SS   -->  Z2SS   MU-    MU+         
      3.06615334E-06    3      1000023        15       -15             # Z4SS   -->  Z2SS   TAU-   TAU+        
      5.81595438E-09    3      1000023        12       -12             # Z4SS   -->  Z2SS   NUE    ANUE        
      5.81595438E-09    3      1000023        14       -14             # Z4SS   -->  Z2SS   NUM    ANUM        
      6.40223163E-09    3      1000023        16       -16             # Z4SS   -->  Z2SS   NUT    ANUT        
      2.71920566E-08    3      1000025         2        -2             # Z4SS   -->  Z3SS   UP     UB          
      2.42712304E-08    3      1000025         1        -1             # Z4SS   -->  Z3SS   DN     DB          
      2.42712304E-08    3      1000025         3        -3             # Z4SS   -->  Z3SS   ST     SB          
      2.71920566E-08    3      1000025         4        -4             # Z4SS   -->  Z3SS   CH     CB          
      4.91635319E-08    3      1000025         5        -5             # Z4SS   -->  Z3SS   BT     BB          
      4.09718541E-06    3      1000025        11       -11             # Z4SS   -->  Z3SS   E-     E+          
      4.09718541E-06    3      1000025        13       -13             # Z4SS   -->  Z3SS   MU-    MU+         
      4.56738826E-06    3      1000025        15       -15             # Z4SS   -->  Z3SS   TAU-   TAU+        
      4.04921002E-06    3      1000025        12       -12             # Z4SS   -->  Z3SS   NUE    ANUE        
      4.04921002E-06    3      1000025        14       -14             # Z4SS   -->  Z3SS   NUM    ANUM        
      4.54570545E-06    3      1000025        16       -16             # Z4SS   -->  Z3SS   NUT    ANUT        
      7.49193877E-02    2      1000022        25                       # Z4SS   -->  Z1SS   HL0                
      5.51572219E-02    2      1000022        35                       # Z4SS   -->  Z1SS   HH0                
      6.73184544E-02    2      1000022        36                       # Z4SS   -->  Z1SS   HA0                
      5.37729971E-02    2      1000023        25                       # Z4SS   -->  Z2SS   HL0                
      6.67966083E-02    2      1000023        35                       # Z4SS   -->  Z2SS   HH0                
      5.47237881E-02    2      1000023        36                       # Z4SS   -->  Z2SS   HA0                
      6.15833778E-05    2      1000025        25                       # Z4SS   -->  Z3SS   HL0                
      1.00563270E-07    2      1000025        35                       # Z4SS   -->  Z3SS   HH0                
      1.33592550E-07    2      1000025        36                       # Z4SS   -->  Z3SS   HA0                
      7.31356295E-07    2      2000011       -11                       # Z4SS   -->  ER-    E+                 
      7.31356295E-07    2     -2000011        11                       # Z4SS   -->  ER+    E-                 
      7.31356295E-07    2      2000013       -13                       # Z4SS   -->  MUR-   MU+                
      7.31356295E-07    2     -2000013        13                       # Z4SS   -->  MUR+   MU-                
      1.02840420E-06    2      1000015       -15                       # Z4SS   -->  TAU1-  TAU+               
      1.02840420E-06    2     -1000015        15                       # Z4SS   -->  TAU1+  TAU-               
#         PDG         Width
DECAY   1000024  1.79398061E-08   # W1SS+ decays
#          BR          NDA       ID1       ID2       ID3       ID4
      2.50947833E-01    3      1000022         2        -1             # W1SS+  -->  Z1SS   UP     DB          
      2.50947833E-01    3      1000022         4        -3             # W1SS+  -->  Z1SS   CH     SB          
      8.36492851E-02    3      1000022       -11        12             # W1SS+  -->  Z1SS   E+     NUE         
      8.36492851E-02    3      1000022       -13        14             # W1SS+  -->  Z1SS   MU+    NUM         
      8.36503282E-02    3      1000022       -15        16             # W1SS+  -->  Z1SS   TAU+   NUT         
      8.23851451E-02    3      1000023         2        -1             # W1SS+  -->  Z2SS   UP     DB          
      8.23851451E-02    3      1000023         4        -3             # W1SS+  -->  Z2SS   CH     SB          
      2.74617150E-02    3      1000023       -11        12             # W1SS+  -->  Z2SS   E+     NUE         
      2.74617150E-02    3      1000023       -13        14             # W1SS+  -->  Z2SS   MU+    NUM         
      2.74616480E-02    3      1000023       -15        16             # W1SS+  -->  Z2SS   TAU+   NUT         
#         PDG         Width
DECAY   1000037  1.05491737E+02   # W2SS+ decays
#          BR          NDA       ID1       ID2       ID3       ID4
      6.45303089E-10    3      1000022         2        -1             # W2SS+  -->  Z1SS   UP     DB          
      6.45303089E-10    3      1000022         4        -3             # W2SS+  -->  Z1SS   CH     SB          
      9.36993771E-09    3      1000022       -11        12             # W2SS+  -->  Z1SS   E+     NUE         
      9.36993771E-09    3      1000022       -13        14             # W2SS+  -->  Z1SS   MU+    NUM         
      2.93191079E-06    3      1000022       -15        16             # W2SS+  -->  Z1SS   TAU+   NUT         
      1.07805513E-01    2      1000022        24                       # W2SS+  -->  Z1SS   W+                 
      1.25733569E-01    2      1000022        37                       # W2SS+  -->  Z1SS   H+                 
      4.23489160E-10    3      1000023         2        -1             # W2SS+  -->  Z2SS   UP     DB          
      4.23489160E-10    3      1000023         4        -3             # W2SS+  -->  Z2SS   CH     SB          
      6.01973982E-09    3      1000023       -11        12             # W2SS+  -->  Z2SS   E+     NUE         
      6.01973982E-09    3      1000023       -13        14             # W2SS+  -->  Z2SS   MU+    NUM         
      2.89508353E-06    3      1000023       -15        16             # W2SS+  -->  Z2SS   TAU+   NUT         
      1.03237584E-01    2      1000023        24                       # W2SS+  -->  Z2SS   W+                 
      1.24350674E-01    2      1000023        37                       # W2SS+  -->  Z2SS   H+                 
      4.73180073E-08    3      1000025         2        -1             # W2SS+  -->  Z3SS   UP     DB          
      4.73180073E-08    3      1000025         4        -3             # W2SS+  -->  Z3SS   CH     SB          
      7.16576187E-06    3      1000025       -11        12             # W2SS+  -->  Z3SS   E+     NUE         
      7.16576187E-06    3      1000025       -13        14             # W2SS+  -->  Z3SS   MU+    NUM         
      7.98095607E-06    3      1000025       -15        16             # W2SS+  -->  Z3SS   TAU+   NUT         
      3.25785950E-02    2      1000025        24                       # W2SS+  -->  Z3SS   W+                 
      1.86710466E-07    2      1000025        37                       # W2SS+  -->  Z3SS   H+                 
      2.50104449E-07    2     -1000015        16                       # W2SS+  -->  TAU1+  NUT                
      1.24143414E-01    2      1000024        23                       # W2SS+  -->  W1SS+  Z0                 
      2.41437870E-09    3      1000024         1        -1             # W2SS+  -->  W1SS+  DN     DB          
      2.41437870E-09    3      1000024         3        -3             # W2SS+  -->  W1SS+  ST     SB          
      2.00527268E-11    3      1000024         2        -2             # W2SS+  -->  W1SS+  UP     UB          
      2.00527268E-11    3      1000024         4        -4             # W2SS+  -->  W1SS+  CH     CB          
      2.23974617E-10    3      1000024        12       -12             # W2SS+  -->  W1SS+  NUE    ANUE        
      2.23974617E-10    3      1000024        14       -14             # W2SS+  -->  W1SS+  NUM    ANUM        
      2.73048109E-08    3      1000024        11       -11             # W2SS+  -->  W1SS+  E-     E+          
      2.73048109E-08    3      1000024        13       -13             # W2SS+  -->  W1SS+  MU-    MU+         
      2.99225391E-08    3      1000024        15       -15             # W2SS+  -->  W1SS+  TAU-   TAU+        
      1.32183835E-01    2      1000024        25                       # W2SS+  -->  W1SS+  HL0                
      1.24922730E-01    2      1000024        35                       # W2SS+  -->  W1SS+  HH0                
      1.25015438E-01    2      1000024        36                       # W2SS+  -->  W1SS+  HA0                
#         PDG         Width
DECAY        25  4.04700963E-03   # HL0   decays
#          BR          NDA       ID1       ID2       ID3       ID4
      5.54574964E-09    2           11       -11                       # HL0    -->  E-     E+                 
      2.34150575E-04    2           13       -13                       # HL0    -->  MU-    MU+                
      6.69845045E-02    2           15       -15                       # HL0    -->  TAU-   TAU+               
      6.95109156E-06    2            1        -1                       # HL0    -->  DN     DB                 
      2.80858972E-03    2            3        -3                       # HL0    -->  ST     SB                 
      6.01810157E-01    2            5        -5                       # HL0    -->  BT     BB                 
      2.12053351E-06    2            2        -2                       # HL0    -->  UP     UB                 
      3.93688194E-02    2            4        -4                       # HL0    -->  CH     CB                 
      2.64799083E-03    2           22        22                       # HL0    -->  GM     GM                 
      5.32282442E-02    2           21        21                       # HL0    -->  GL     GL                 
      1.16155604E-02    3           24        11       -12             # HL0    -->  W+     E-     ANUE        
      1.16155604E-02    3           24        13       -14             # HL0    -->  W+     MU-    ANUM        
      1.16155604E-02    3           24        15       -16             # HL0    -->  W+     TAU-   ANUT        
      3.48466858E-02    3           24        -2         1             # HL0    -->  W+     UB     DN          
      3.48466858E-02    3           24        -4         3             # HL0    -->  W+     CB     ST          
      1.16155604E-02    3          -24       -11        12             # HL0    -->  W-     E+     NUE         
      1.16155604E-02    3          -24       -13        14             # HL0    -->  W-     MU+    NUM         
      1.16155604E-02    3          -24       -15        16             # HL0    -->  W-     TAU+   NUT         
      3.48466858E-02    3          -24         2        -1             # HL0    -->  W-     UP     DB          
      3.48466858E-02    3          -24         4        -3             # HL0    -->  W-     CH     SB          
      1.62962335E-03    3           23        12       -12             # HL0    -->  Z0     NUE    ANUE        
      1.62962335E-03    3           23        14       -14             # HL0    -->  Z0     NUM    ANUM        
      1.62962335E-03    3           23        16       -16             # HL0    -->  Z0     NUT    ANUT        
      8.20173067E-04    3           23        11       -11             # HL0    -->  Z0     E-     E+          
      8.20173067E-04    3           23        13       -13             # HL0    -->  Z0     MU-    MU+         
      8.20173067E-04    3           23        15       -15             # HL0    -->  Z0     TAU-   TAU+        
      2.80984305E-03    3           23         2        -2             # HL0    -->  Z0     UP     UB          
      2.80984305E-03    3           23         4        -4             # HL0    -->  Z0     CH     CB          
      3.61977052E-03    3           23         1        -1             # HL0    -->  Z0     DN     DB          
      3.61977052E-03    3           23         3        -3             # HL0    -->  Z0     ST     SB          
      3.61977052E-03    3           23         5        -5             # HL0    -->  Z0     BT     BB          
#         PDG         Width
DECAY        35  3.53260303E+00   # HH0   decays
#          BR          NDA       ID1       ID2       ID3       ID4
      1.08936504E-08    2           11       -11                       # HH0    -->  E-     E+                 
      4.59949544E-04    2           13       -13                       # HH0    -->  MU-    MU+                
      1.31734148E-01    2           15       -15                       # HH0    -->  TAU-   TAU+               
      1.33447702E-05    2            1        -1                       # HH0    -->  DN     DB                 
      5.39196236E-03    2            3        -3                       # HH0    -->  ST     SB                 
      8.03412497E-01    2            5        -5                       # HH0    -->  BT     BB                 
      8.84639723E-11    2            2        -2                       # HH0    -->  UP     UB                 
      1.24583710E-06    2            4        -4                       # HH0    -->  CH     CB                 
      5.68321608E-02    2            6        -6                       # HH0    -->  TP     TB                 
      1.50746587E-07    2           22        22                       # HH0    -->  GM     GM                 
      2.31536233E-05    2           21        21                       # HH0    -->  GL     GL                 
      2.31998405E-04    2           24       -24                       # HH0    -->  W+     W-                 
      1.17789335E-04    2           23        23                       # HH0    -->  Z0     Z0                 
      1.69406194E-04    2      1000022   1000022                       # HH0    -->  Z1SS   Z1SS               
      1.05732306E-05    2      1000022   1000023                       # HH0    -->  Z1SS   Z2SS               
      1.39338168E-04    2      1000023   1000023                       # HH0    -->  Z2SS   Z2SS               
      5.91572898E-04    2      1000024  -1000024                       # HH0    -->  W1SS+  W1SS-              
      8.70778749E-04    2           25        25                       # HH0    -->  HL0    HL0                
#         PDG         Width
DECAY        36  3.51914310E+00   # HA0   decays
#          BR          NDA       ID1       ID2       ID3       ID4
      1.08652145E-08    2           11       -11                       # HA0    -->  E-     E+                 
      4.58748953E-04    2           13       -13                       # HA0    -->  MU-    MU+                
      1.31391913E-01    2           15       -15                       # HA0    -->  TAU-   TAU+               
      1.33106705E-05    2            1        -1                       # HA0    -->  DN     DB                 
      5.37818484E-03    2            3        -3                       # HA0    -->  ST     SB                 
      8.01395357E-01    2            5        -5                       # HA0    -->  BT     BB                 
      8.41282391E-11    2            2        -2                       # HA0    -->  UP     UB                 
      1.18570972E-06    2            4        -4                       # HA0    -->  CH     CB                 
      6.00790344E-02    2            6        -6                       # HA0    -->  TP     TB                 
      3.28965996E-07    2           22        22                       # HA0    -->  GM     GM                 
      7.10407985E-05    2           21        21                       # HA0    -->  GL     GL                 
      2.33226296E-04    2      1000022   1000022                       # HA0    -->  Z1SS   Z1SS               
      6.03839908E-07    2      1000022   1000023                       # HA0    -->  Z1SS   Z2SS               
      1.11869602E-04    2      1000023   1000023                       # HA0    -->  Z2SS   Z2SS               
      6.41911523E-04    2      1000024  -1000024                       # HA0    -->  W1SS+  W1SS-              
      2.23132593E-04    2           25        23                       # HA0    -->  HL0    Z0                 
#         PDG         Width
DECAY        37  3.11803508E+00   # H+    decays
#          BR          NDA       ID1       ID2       ID3       ID4
      1.23025226E-08    2           12       -11                       # H+     -->  NUE    E+                 
      5.19434747E-04    2           14       -13                       # H+     -->  NUM    MU+                
      1.48773134E-01    2           16       -15                       # H+     -->  NUT    TAU+               
      1.38530950E-05    2            2        -1                       # H+     -->  UP     DB                 
      5.59852878E-03    2            4        -3                       # H+     -->  CH     SB                 
      8.44809115E-01    2            6        -5                       # H+     -->  TP     BB                 
      7.64659035E-06    2      1000024   1000022                       # H+     -->  W1SS+  Z1SS               
      2.56610856E-05    2      1000024   1000023                       # H+     -->  W1SS+  Z2SS               
      2.52556958E-04    2           25        24                       # H+     -->  HL0    W+                 
