#
#                              ======================
#                              | THE SUSYHIT OUTPUT |
#                              ======================
#
#
#              ------------------------------------------------------
#              |     This is the output of the SUSY-HIT package     |
#              |  created by A.Djouadi, M.Muehlleitner and M.Spira. |
#              |  In case of problems with SUSY-HIT email to        |
#              |           margarete.muehlleitner@kit.edu           |
#              |           michael.spira@psi.ch                     |
#              |           abdelhak.djouadi@cern.ch                 |
#              ------------------------------------------------------
#
#              ------------------------------------------------------
#              |  SUSY Les Houches Accord - MSSM Spectrum + Decays  |
#              |              based on the decay programs           |
#              |                                                    |
#              |                     SDECAY 1.5                     |
#              |                                                    |
#              |  Authors: M.Muhlleitner, A.Djouadi and Y.Mambrini  |
#              |  Ref.:    Comput.Phys.Commun.168(2005)46           |
#              |           [hep-ph/0311167]                         |
#              |                                                    |
#              |                     HDECAY 3.4                     |
#              |                                                    |
#              |  By: A.Djouadi,J.Kalinowski,M.Muhlleitner,M.Spira  |
#              |  Ref.:    Comput.Phys.Commun.108(1998)56           |
#              |           [hep-ph/9704448]                         |
#              |                                                    |
#              |                                                    |
#              |  If not stated otherwise all DRbar couplings and   |
#              |  soft SUSY breaking masses are given at the scale  |
#              |  Q=  0.15954543E+04
#              |                                                    |
#              ------------------------------------------------------
#
#
BLOCK DCINFO  # Decay Program information
     1   SDECAY/HDECAY # decay calculator
     2   1.5  /3.4    # version number
#
BLOCK SPINFO  # Spectrum calculator information
     1    SOFTSUSY    # spectrum calculator                
     2    3.7.3       # version number                     
#
BLOCK MODSEL  # Model selection
     1     0   #  nonUniversal                                     
#
BLOCK SMINPUTS  # Standard Model inputs
         1     1.27934000E+02   # alpha_em^-1(M_Z)^MSbar
         2     1.16639000E-05   # G_F [GeV^-2]
         3     1.17200000E-01   # alpha_S(M_Z)^MSbar
         4     9.11870000E+01   # M_Z pole mass
         5     4.19000000E+00   # mb(mb)^MSbar
         6     1.72500000E+02   # mt pole mass
         7     1.77690000E+00   # mtau pole mass
#
BLOCK MINPAR  # Input parameters - minimal models
         3     2.00000000E+01   # tanb                
#
BLOCK EXTPAR  # Input parameters - non-minimal models
         0    -1.00000000E+00   # Set                 
         1     1.49900000E+02   # M_1(MX)             
         2     2.99900000E+02   # M_2(MX)             
         3     2.20000000E+03   # M_3(MX)             
        11     2.94338000E+03   # At(MX)              
        12     0.00000000E+00   # Ab(MX)              
        13     0.00000000E+00   # Atau(MX)            
        23    -3.00000000E+03   # mu(MX)              
        25     2.00000000E+01   # tan                 
        26     3.00000000E+03   # mA(pole)            
        31     3.00000000E+03   # meL(MX)             
        32     3.00000000E+03   # mmuL(MX)            
        33     3.00000000E+03   # mtauL(MX)           
        34     3.00000000E+03   # meR(MX)             
        35     3.00000000E+03   # mmuR(MX)            
        36     3.00000000E+03   # mtauR(MX)           
        41     3.00000000E+03   # mqL1(MX)            
        42     3.00000000E+03   # mqL2(MX)            
        43     8.49900000E+02   # mqL3(MX)            
        44     3.00000000E+03   # muR(MX)             
        45     3.00000000E+03   # mcR(MX)             
        46     3.00000000E+03   # mtR(MX)             
        47     3.00000000E+03   # mdR(MX)             
        48     3.00000000E+03   # msR(MX)             
        49     3.00000000E+03   # mbR(MX)             
#
BLOCK MASS  # Mass Spectrum
# PDG code           mass       particle
        24     8.03966231E+01   # W+
        25     1.25132100E+02   # h
        35     3.00004805E+03   # H
        36     2.99999994E+03   # A
        37     3.00109317E+03   # H+
         5     4.81337004E+00   # b-quark pole mass calculated from mb(mb)_Msbar
   1000001     3.03881149E+03   # ~d_L
   2000001     3.03358480E+03   # ~d_R
   1000002     3.03789906E+03   # ~u_L
   2000002     3.03517938E+03   # ~u_R
   1000003     3.03881149E+03   # ~s_L
   2000003     3.03358480E+03   # ~s_R
   1000004     3.03789906E+03   # ~c_L
   2000004     3.03517938E+03   # ~c_R
   1000005     9.46110987E+02   # ~b_1
   2000005     3.03156991E+03   # ~b_2
   1000006     9.43912187E+02   # ~t_1
   2000006     3.02369237E+03   # ~t_2
   1000011     3.00658346E+03   # ~e_L
   2000011     3.00155996E+03   # ~e_R
   1000012     3.00518964E+03   # ~nu_eL
   1000013     3.00658346E+03   # ~mu_L
   2000013     3.00155996E+03   # ~mu_R
   1000014     3.00518964E+03   # ~nu_muL
   1000015     2.98605071E+03   # ~tau_1
   2000015     3.02184005E+03   # ~tau_2
   1000016     3.00513027E+03   # ~nu_tauL
   1000021     2.34804005E+03   # ~g
   1000022     1.51143363E+02   # ~chi_10
   1000023     3.22745340E+02   # ~chi_20
   1000025    -2.99695874E+03   # ~chi_30
   1000035     2.99697327E+03   # ~chi_40
   1000024     3.22907418E+02   # ~chi_1+
   1000037     2.99790081E+03   # ~chi_2+
#
BLOCK NMIX  # Neutralino Mixing Matrix
  1  1     9.99891835E-01   # N_11
  1  2     3.81692557E-04   # N_12
  1  3    -1.47028351E-02   # N_13
  1  4     3.31792106E-07   # N_14
  2  1     1.66854340E-06   # N_21
  2  2     9.99659390E-01   # N_22
  2  3     2.60651325E-02   # N_23
  2  4     1.30892639E-03   # N_24
  3  1     1.03997141E-02   # N_31
  3  2    -1.93540627E-02   # N_32
  3  3     7.06764134E-01   # N_33
  3  4     7.07108001E-01   # N_34
  4  1    -1.04002401E-02   # N_41
  4  2     1.75036851E-02   # N_42
  4  3    -7.06816026E-01   # N_43
  4  4     7.07104350E-01   # N_44
#
BLOCK UMIX  # Chargino Mixing Matrix U
  1  1     9.99320842E-01   # U_11
  1  2     3.68490897E-02   # U_12
  2  1    -3.68490897E-02   # U_21
  2  2     9.99320842E-01   # U_22
#
BLOCK VMIX  # Chargino Mixing Matrix V
  1  1     9.99998290E-01   # V_11
  1  2    -1.84922187E-03   # V_12
  2  1    -1.84922187E-03   # V_21
  2  2    -9.99998290E-01   # V_22
#
BLOCK STOPMIX  # Stop Mixing Matrix
  1  1     9.98510140E-01   # cos(theta_t)
  1  2    -5.45664761E-02   # sin(theta_t)
  2  1     5.45664761E-02   # -sin(theta_t)
  2  2     9.98510140E-01   # cos(theta_t)
#
BLOCK SBOTMIX  # Sbottom Mixing Matrix
  1  1     9.99709057E-01   # cos(theta_b)
  1  2    -2.41205587E-02   # sin(theta_b)
  2  1     2.41205587E-02   # -sin(theta_b)
  2  2     9.99709057E-01   # cos(theta_b)
#
BLOCK STAUMIX  # Stau Mixing Matrix
  1  1    -7.06928868E-01   # cos(theta_tau)
  1  2     7.07284650E-01   # sin(theta_tau)
  2  1    -7.07284650E-01   # -sin(theta_tau)
  2  2    -7.06928868E-01   # cos(theta_tau)
#
BLOCK ALPHA  # Higgs mixing
          -5.00162002E-02   # Mixing angle in the neutral Higgs boson sector
#
BLOCK HMIX Q=  1.59545428E+03  # DRbar Higgs Parameters
         1    -3.00000000E+03   # mu(Q)MSSM           
         2     2.00000000E+01   # tan                 
         3     2.43947616E+02   # higgs               
         4     1.03460817E+07   # mA^2(Q)MSSM         
#
BLOCK GAUGE Q=  1.59545428E+03  # The gauge couplings
     1     3.62357967E-01   # gprime(Q) DRbar
     2     6.38880276E-01   # g(Q) DRbar
     3     1.02495117E+00   # g3(Q) DRbar
#
BLOCK AU Q=  1.59545428E+03  # The trilinear couplings
  1  1     2.42050940E-06   # A_u(Q) DRbar
  2  2     2.42054689E-06   # A_c(Q) DRbar
  3  3     2.94338000E+03   # A_t(Q) DRbar
#
BLOCK AD Q=  1.59545428E+03  # The trilinear couplings
  1  1     8.44162260E-07   # A_d(Q) DRbar
  2  2     8.44265618E-07   # A_s(Q) DRbar
  3  3     1.75676680E-06   # A_b(Q) DRbar
#
BLOCK AE Q=  1.59545428E+03  # The trilinear couplings
  1  1     3.84330733E-07   # A_e(Q) DRbar
  2  2     3.84349932E-07   # A_mu(Q) DRbar
  3  3     3.89805180E-07   # A_tau(Q) DRbar
#
BLOCK Yu Q=  1.59545428E+03  # The Yukawa couplings
  1  1     0.00000000E+00   # y_u(Q) DRbar
  2  2     0.00000000E+00   # y_c(Q) DRbar
  3  3     8.51493355E-01   # y_t(Q) DRbar
#
BLOCK Yd Q=  1.59545428E+03  # The Yukawa couplings
  1  1     0.00000000E+00   # y_d(Q) DRbar
  2  2     0.00000000E+00   # y_s(Q) DRbar
  3  3     3.86520808E-01   # y_b(Q) DRbar
#
BLOCK Ye Q=  1.59545428E+03  # The Yukawa couplings
  1  1     0.00000000E+00   # y_e(Q) DRbar
  2  2     0.00000000E+00   # y_mu(Q) DRbar
  3  3     2.02910178E-01   # y_tau(Q) DRbar
#
BLOCK MSOFT Q=  1.59545428E+03  # The soft SUSY breaking masses at the scale Q
         1     1.49900000E+02   # M_1(Q)              
         2     2.99900000E+02   # M_2(Q)              
         3     2.20000000E+03   # M_3(Q)              
        21    -3.74693059E+04   # M^2_Hd              
        22    -9.04633894E+06   # M^2_Hu              
        31     3.00000000E+03   # M_eL                
        32     3.00000000E+03   # M_muL               
        33     3.00000000E+03   # M_tauL              
        34     3.00000000E+03   # M_eR                
        35     3.00000000E+03   # M_muR               
        36     3.00000000E+03   # M_tauR              
        41     3.00000000E+03   # M_q1L               
        42     3.00000000E+03   # M_q2L               
        43     8.49899993E+02   # M_q3L               
        44     3.00000000E+03   # M_uR                
        45     3.00000000E+03   # M_cR                
        46     3.00000000E+03   # M_tR                
        47     3.00000000E+03   # M_dR                
        48     3.00000000E+03   # M_sR                
        49     3.00000000E+03   # M_bR                
#
#
#
#                             =================
#                             |The decay table|
#                             =================
#
# - The QCD corrections to the decays gluino -> squark  + quark
#                                     squark -> gaugino + quark_prime
#                                     squark -> squark_prime + Higgs
#                                     squark -> gluino  + quark
#   are included.
#
# - The multi-body decays for the inos, stops and sbottoms are included.
#
# - The loop induced decays for the gluino, neutralinos and stops
#   are included.
#
# - The SUSY decays of the top quark are included.
#
#
#         PDG            Width
DECAY         6     1.41697840E+00   # top decays
#          BR         NDA      ID1       ID2
     1.00000000E+00    2           5        24   # BR(t ->  b    W+)
#
#         PDG            Width
DECAY   1000021     6.69555563E+01   # gluino decays
#          BR         NDA      ID1       ID2
     2.47948573E-01    2     1000005        -5   # BR(~g -> ~b_1  bb)
     2.47948573E-01    2    -1000005         5   # BR(~g -> ~b_1* b )
     2.52051427E-01    2     1000006        -6   # BR(~g -> ~t_1  tb)
     2.52051427E-01    2    -1000006         6   # BR(~g -> ~t_1* t )
#
#         PDG            Width
DECAY   1000006     9.07937903E+00   # stop1 decays
#          BR         NDA      ID1       ID2
     1.41041726E-02    2     1000022         6   # BR(~t_1 -> ~chi_10 t )
     3.11499017E-01    2     1000023         6   # BR(~t_1 -> ~chi_20 t )
     6.74396811E-01    2     1000024         5   # BR(~t_1 -> ~chi_1+ b )
#
#         PDG            Width
DECAY   2000006     1.14253187E+02   # stop2 decays
#          BR         NDA      ID1       ID2
     5.77809374E-02    2     1000022         6   # BR(~t_2 -> ~chi_10 t )
     2.89241001E-04    2     1000023         6   # BR(~t_2 -> ~chi_20 t )
     0.00000000E+00    2     1000025         6   # BR(~t_2 -> ~chi_30 t )
     5.81806229E-04    2     1000024         5   # BR(~t_2 -> ~chi_1+ b )
     1.18539271E-04    2     1000037         5   # BR(~t_2 -> ~chi_2+ b )
     2.97243054E-01    2     1000021         6   # BR(~t_2 -> ~g      t )
     1.67665498E-01    2     1000006        25   # BR(~t_2 -> ~t_1    h )
     1.60868571E-01    2     1000006        23   # BR(~t_2 -> ~t_1    Z )
     3.15452353E-01    2     1000005        24   # BR(~t_2 -> ~b_1    W+)
#
#         PDG            Width
DECAY   1000005     8.90884267E+00   # sbottom1 decays
#          BR         NDA      ID1       ID2
     1.51818451E-02    2     1000022         5   # BR(~b_1 -> ~chi_10 b )
     3.45853493E-01    2     1000023         5   # BR(~b_1 -> ~chi_20 b )
     6.38964661E-01    2    -1000024         6   # BR(~b_1 -> ~chi_1- t )
#
#         PDG            Width
DECAY   2000005     5.40854434E+01   # sbottom2 decays
#          BR         NDA      ID1       ID2
     3.07643672E-02    2     1000022         5   # BR(~b_2 -> ~chi_10 b )
     2.93856908E-07    2     1000023         5   # BR(~b_2 -> ~chi_20 b )
     4.60196437E-05    2     1000025         5   # BR(~b_2 -> ~chi_30 b )
     4.52993761E-05    2     1000035         5   # BR(~b_2 -> ~chi_40 b )
     4.59742639E-07    2    -1000024         6   # BR(~b_2 -> ~chi_1- t )
     6.43061299E-01    2     1000021         5   # BR(~b_2 -> ~g      b )
     7.22097163E-02    2     1000005        25   # BR(~b_2 -> ~b_1    h )
     1.03459717E-01    2     1000005        23   # BR(~b_2 -> ~b_1    Z )
     1.50412828E-01    2     1000006       -24   # BR(~b_2 -> ~t_1    W-)
#
#         PDG            Width
DECAY   1000002     7.01584355E+01   # sup_L decays
#          BR         NDA      ID1       ID2
     5.97582507E-03    2     1000022         2   # BR(~u_L -> ~chi_10 u)
     1.63724684E-01    2     1000023         2   # BR(~u_L -> ~chi_20 u)
     4.17446036E-08    2     1000025         2   # BR(~u_L -> ~chi_30 u)
     3.33092445E-08    2     1000035         2   # BR(~u_L -> ~chi_40 u)
     3.27664090E-01    2     1000024         1   # BR(~u_L -> ~chi_1+ d)
     9.02576633E-10    2     1000037         1   # BR(~u_L -> ~chi_2+ d)
     5.02635325E-01    2     1000021         2   # BR(~u_L -> ~g      u)
#
#         PDG            Width
DECAY   2000002     4.17201821E+01   # sup_R decays
#          BR         NDA      ID1       ID2
     1.59991134E-01    2     1000022         2   # BR(~u_R -> ~chi_10 u)
     4.38243737E-13    2     1000023         2   # BR(~u_R -> ~chi_20 u)
     1.25775208E-08    2     1000025         2   # BR(~u_R -> ~chi_30 u)
     1.25695069E-08    2     1000035         2   # BR(~u_R -> ~chi_40 u)
     8.40008841E-01    2     1000021         2   # BR(~u_R -> ~g      u)
#
#         PDG            Width
DECAY   1000001     7.02086350E+01   # sdown_L decays
#          BR         NDA      ID1       ID2
     5.92536339E-03    2     1000022         1   # BR(~d_L -> ~chi_10 d)
     1.63660084E-01    2     1000023         1   # BR(~d_L -> ~chi_20 d)
     6.54392501E-08    2     1000025         1   # BR(~d_L -> ~chi_30 d)
     5.45370370E-08    2     1000035         1   # BR(~d_L -> ~chi_40 d)
     3.27091596E-01    2    -1000024         2   # BR(~d_L -> ~chi_1- u)
     3.74062621E-07    2    -1000037         2   # BR(~d_L -> ~chi_2- u)
     5.03322462E-01    2     1000021         1   # BR(~d_L -> ~g      d)
#
#         PDG            Width
DECAY   2000001     3.65850047E+01   # sdown_R decays
#          BR         NDA      ID1       ID2
     4.55871247E-02    2     1000022         1   # BR(~d_R -> ~chi_10 d)
     1.24868870E-13    2     1000023         1   # BR(~d_R -> ~chi_20 d)
     3.30250182E-09    2     1000025         1   # BR(~d_R -> ~chi_30 d)
     3.30029079E-09    2     1000035         1   # BR(~d_R -> ~chi_40 d)
     9.54412869E-01    2     1000021         1   # BR(~d_R -> ~g      d)
#
#         PDG            Width
DECAY   1000004     7.01584355E+01   # scharm_L decays
#          BR         NDA      ID1       ID2
     5.97582507E-03    2     1000022         4   # BR(~c_L -> ~chi_10 c)
     1.63724684E-01    2     1000023         4   # BR(~c_L -> ~chi_20 c)
     4.17446036E-08    2     1000025         4   # BR(~c_L -> ~chi_30 c)
     3.33092445E-08    2     1000035         4   # BR(~c_L -> ~chi_40 c)
     3.27664090E-01    2     1000024         3   # BR(~c_L -> ~chi_1+ s)
     9.02576633E-10    2     1000037         3   # BR(~c_L -> ~chi_2+ s)
     5.02635325E-01    2     1000021         4   # BR(~c_L -> ~g      c)
#
#         PDG            Width
DECAY   2000004     4.17201821E+01   # scharm_R decays
#          BR         NDA      ID1       ID2
     1.59991134E-01    2     1000022         4   # BR(~c_R -> ~chi_10 c)
     4.38243737E-13    2     1000023         4   # BR(~c_R -> ~chi_20 c)
     1.25775208E-08    2     1000025         4   # BR(~c_R -> ~chi_30 c)
     1.25695069E-08    2     1000035         4   # BR(~c_R -> ~chi_40 c)
     8.40008841E-01    2     1000021         4   # BR(~c_R -> ~g      c)
#
#         PDG            Width
DECAY   1000003     7.02086350E+01   # sstrange_L decays
#          BR         NDA      ID1       ID2
     5.92536339E-03    2     1000022         3   # BR(~s_L -> ~chi_10 s)
     1.63660084E-01    2     1000023         3   # BR(~s_L -> ~chi_20 s)
     6.54392501E-08    2     1000025         3   # BR(~s_L -> ~chi_30 s)
     5.45370370E-08    2     1000035         3   # BR(~s_L -> ~chi_40 s)
     3.27091596E-01    2    -1000024         4   # BR(~s_L -> ~chi_1- c)
     3.74062621E-07    2    -1000037         4   # BR(~s_L -> ~chi_2- c)
     5.03322462E-01    2     1000021         3   # BR(~s_L -> ~g      s)
#
#         PDG            Width
DECAY   2000003     3.65850047E+01   # sstrange_R decays
#          BR         NDA      ID1       ID2
     4.55871247E-02    2     1000022         3   # BR(~s_R -> ~chi_10 s)
     1.24868870E-13    2     1000023         3   # BR(~s_R -> ~chi_20 s)
     3.30250182E-09    2     1000025         3   # BR(~s_R -> ~chi_30 s)
     3.30029079E-09    2     1000035         3   # BR(~s_R -> ~chi_40 s)
     9.54412869E-01    2     1000021         3   # BR(~s_R -> ~g      s)
#
#         PDG            Width
DECAY   1000011     3.96525979E+01   # selectron_L decays
#          BR         NDA      ID1       ID2
     9.86438476E-02    2     1000022        11   # BR(~e_L -> ~chi_10 e-)
     3.00592820E-01    2     1000023        11   # BR(~e_L -> ~chi_20 e-)
     2.27742648E-09    2     1000025        11   # BR(~e_L -> ~chi_30 e-)
     1.68893351E-09    2     1000035        11   # BR(~e_L -> ~chi_40 e-)
     6.00763301E-01    2    -1000024        12   # BR(~e_L -> ~chi_1- nu_e)
     2.78091175E-08    2    -1000037        12   # BR(~e_L -> ~chi_2- nu_e)
#
#         PDG            Width
DECAY   2000011     1.55985284E+01   # selectron_R decays
#          BR         NDA      ID1       ID2
     9.99999998E-01    2     1000022        11   # BR(~e_R -> ~chi_10 e-)
     2.73447029E-12    2     1000023        11   # BR(~e_R -> ~chi_20 e-)
     1.02044101E-09    2     1000025        11   # BR(~e_R -> ~chi_30 e-)
     1.01411385E-09    2     1000035        11   # BR(~e_R -> ~chi_40 e-)
#
#         PDG            Width
DECAY   1000013     3.96525979E+01   # smuon_L decays
#          BR         NDA      ID1       ID2
     9.86438476E-02    2     1000022        13   # BR(~mu_L -> ~chi_10 mu-)
     3.00592820E-01    2     1000023        13   # BR(~mu_L -> ~chi_20 mu-)
     2.27742648E-09    2     1000025        13   # BR(~mu_L -> ~chi_30 mu-)
     1.68893351E-09    2     1000035        13   # BR(~mu_L -> ~chi_40 mu-)
     6.00763301E-01    2    -1000024        14   # BR(~mu_L -> ~chi_1- nu_mu)
     2.78091175E-08    2    -1000037        14   # BR(~mu_L -> ~chi_2- nu_mu)
#
#         PDG            Width
DECAY   2000013     1.55985284E+01   # smuon_R decays
#          BR         NDA      ID1       ID2
     9.99999998E-01    2     1000022        13   # BR(~mu_R -> ~chi_10 mu-)
     2.73447029E-12    2     1000023        13   # BR(~mu_R -> ~chi_20 mu-)
     1.02044101E-09    2     1000025        13   # BR(~mu_R -> ~chi_30 mu-)
     1.01411385E-09    2     1000035        13   # BR(~mu_R -> ~chi_40 mu-)
#
#         PDG            Width
DECAY   1000015     2.79016417E+01   # stau_1 decays
#          BR         NDA      ID1       ID2
     3.49403330E-01    2     1000022        15   # BR(~tau_1 -> ~chi_10  tau-)
     2.16986925E-01    2     1000023        15   # BR(~tau_1 -> ~chi_20  tau-)
     4.33609745E-01    2    -1000024        16   # BR(~tau_1 -> ~chi_1-  nu_tau)
#
#         PDG            Width
DECAY   2000015     2.73286980E+01   # stau_2 decays
#          BR         NDA      ID1       ID2
     3.57521661E-01    2     1000022        15   # BR(~tau_2 -> ~chi_10  tau-)
     2.14266739E-01    2     1000023        15   # BR(~tau_2 -> ~chi_20  tau-)
     1.40546263E-05    2     1000025        15   # BR(~tau_2 -> ~chi_30  tau-)
     1.21069556E-05    2     1000035        15   # BR(~tau_2 -> ~chi_40  tau-)
     4.28171414E-01    2    -1000024        16   # BR(~tau_2 -> ~chi_1-  nu_tau)
     1.40247414E-05    2    -1000037        16   # BR(~tau_2 -> ~chi_2-  nu_tau)
#
#         PDG            Width
DECAY   1000012     3.96551598E+01   # snu_eL decays
#          BR         NDA      ID1       ID2
     9.83262167E-02    2     1000022        12   # BR(~nu_eL -> ~chi_10 nu_e)
     3.00426422E-01    2     1000023        12   # BR(~nu_eL -> ~chi_20 nu_e)
     5.87140333E-09    2     1000025        12   # BR(~nu_eL -> ~chi_30 nu_e)
     5.02484016E-09    2     1000035        12   # BR(~nu_eL -> ~chi_40 nu_e)
     6.01247351E-01    2     1000024        11   # BR(~nu_eL -> ~chi_1+ e-)
     4.93966175E-11    2     1000037        11   # BR(~nu_eL -> ~chi_2+ e-)
#
#         PDG            Width
DECAY   1000014     3.96551598E+01   # snu_muL decays
#          BR         NDA      ID1       ID2
     9.83262167E-02    2     1000022        14   # BR(~nu_muL -> ~chi_10 nu_mu)
     3.00426422E-01    2     1000023        14   # BR(~nu_muL -> ~chi_20 nu_mu)
     5.87140333E-09    2     1000025        14   # BR(~nu_muL -> ~chi_30 nu_mu)
     5.02484016E-09    2     1000035        14   # BR(~nu_muL -> ~chi_40 nu_mu)
     6.01247351E-01    2     1000024        13   # BR(~nu_muL -> ~chi_1+ mu-)
     4.93966175E-11    2     1000037        13   # BR(~nu_muL -> ~chi_2+ mu-)
#
#         PDG            Width
DECAY   1000016     3.96577178E+01   # snu_tauL decays
#          BR         NDA      ID1       ID2
     9.83179124E-02    2     1000022        16   # BR(~nu_tauL -> ~chi_10 nu_tau)
     3.00400832E-01    2     1000023        16   # BR(~nu_tauL -> ~chi_20 nu_tau)
     5.78686242E-09    2     1000025        16   # BR(~nu_tauL -> ~chi_30 nu_tau)
     4.95236145E-09    2     1000035        16   # BR(~nu_tauL -> ~chi_40 nu_tau)
     6.01279862E-01    2     1000024        15   # BR(~nu_tauL -> ~chi_1+ tau-)
     1.38353748E-06    2     1000037        15   # BR(~nu_tauL -> ~chi_2+ tau-)
#
#         PDG            Width
DECAY   1000024     1.42335678E-06   # chargino1+ decays
#          BR         NDA      ID1       ID2
     1.00000000E+00    2     1000022        24   # BR(~chi_1+ -> ~chi_10  W+)
#
#         PDG            Width
DECAY   1000037     8.90100032E+01   # chargino2+ decays
#          BR         NDA      ID1       ID2
     1.36074395E-01    2     1000006        -5   # BR(~chi_2+ -> ~t_1     bb)
     6.50380319E-01    2    -1000005         6   # BR(~chi_2+ -> ~b_1*    t )
     3.35195372E-07    2    -1000015        16   # BR(~chi_2+ -> ~tau_1+  nu_tau)
     6.41033995E-02    2     1000024        23   # BR(~chi_2+ -> ~chi_1+  Z )
     2.04228816E-02    2     1000022        24   # BR(~chi_2+ -> ~chi_10  W+)
     6.24383393E-02    2     1000023        24   # BR(~chi_2+ -> ~chi_20  W+)
     6.65803311E-02    2     1000024        25   # BR(~chi_2+ -> ~chi_1+  h )
#
#         PDG            Width
DECAY   1000022     0.00000000E+00   # neutralino1 decays
#
#         PDG            Width
DECAY   1000023     1.31316077E-06   # neutralino2 decays
#          BR         NDA      ID1       ID2
     7.23116325E-01    2     1000022        23   # BR(~chi_20 -> ~chi_10   Z )
     2.76883675E-01    2     1000022        25   # BR(~chi_20 -> ~chi_10   h )
#
#         PDG            Width
DECAY   1000025     8.86028311E+01   # neutralino3 decays
#          BR         NDA      ID1       ID2
     1.05026000E-02    2     1000022        23   # BR(~chi_30 -> ~chi_10   Z )
     2.89598946E-02    2     1000023        23   # BR(~chi_30 -> ~chi_20   Z )
     6.27452912E-02    2     1000024       -24   # BR(~chi_30 -> ~chi_1+   W-)
     6.27452912E-02    2    -1000024        24   # BR(~chi_30 -> ~chi_1-   W+)
     8.89581125E-03    2     1000022        25   # BR(~chi_30 -> ~chi_10   h )
     2.42088617E-02    2     1000023        25   # BR(~chi_30 -> ~chi_20   h )
     3.33552269E-01    2     1000006        -6   # BR(~chi_30 -> ~t_1      tb)
     3.33552269E-01    2    -1000006         6   # BR(~chi_30 -> ~t_1*     t )
     6.74184692E-02    2     1000005        -5   # BR(~chi_30 -> ~b_1      bb)
     6.74184692E-02    2    -1000005         5   # BR(~chi_30 -> ~b_1*     b )
     3.86615113E-07    2     1000015       -15   # BR(~chi_30 -> ~tau_1-   tau+)
     3.86615113E-07    2    -1000015        15   # BR(~chi_30 -> ~tau_1+   tau-)
#
#         PDG            Width
DECAY   1000035     8.98666117E+01   # neutralino4 decays
#          BR         NDA      ID1       ID2
     1.03614680E-02    2     1000022        23   # BR(~chi_40 -> ~chi_10   Z )
     3.49620809E-02    2     1000023        23   # BR(~chi_40 -> ~chi_20   Z )
     6.18560618E-02    2     1000024       -24   # BR(~chi_40 -> ~chi_1+   W-)
     6.18560618E-02    2    -1000024        24   # BR(~chi_40 -> ~chi_1-   W+)
     1.31155154E-02    2     1000022        25   # BR(~chi_40 -> ~chi_10   h )
     4.49733618E-02    2     1000023        25   # BR(~chi_40 -> ~chi_20   h )
     3.19952835E-01    2     1000006        -6   # BR(~chi_40 -> ~t_1      tb)
     3.19952835E-01    2    -1000006         6   # BR(~chi_40 -> ~t_1*     t )
     6.64846129E-02    2     1000005        -5   # BR(~chi_40 -> ~b_1      bb)
     6.64846129E-02    2    -1000005         5   # BR(~chi_40 -> ~b_1*     b )
     2.76746731E-07    2     1000015       -15   # BR(~chi_40 -> ~tau_1-   tau+)
     2.76746731E-07    2    -1000015        15   # BR(~chi_40 -> ~tau_1+   tau-)
#
#         PDG            Width
DECAY        25     3.64494159E-03   # h decays
#          BR         NDA      ID1       ID2
     5.62485622E-01    2           5        -5   # BR(h -> b       bb     )
     7.12198397E-02    2         -15        15   # BR(h -> tau+    tau-   )
     2.52119700E-04    2         -13        13   # BR(h -> mu+     mu-    )
     5.35016490E-04    2           3        -3   # BR(h -> s       sb     )
     2.32461845E-02    2           4        -4   # BR(h -> c       cb     )
     7.56451345E-02    2          21        21   # BR(h -> g       g      )
     2.59249451E-03    2          22        22   # BR(h -> gam     gam    )
     1.73447964E-03    2          22        23   # BR(h -> Z       gam    )
     2.33096238E-01    2          24       -24   # BR(h -> W+      W-     )
     2.91928700E-02    2          23        23   # BR(h -> Z       Z      )
#
#         PDG            Width
DECAY        35     3.58461643E+01   # H decays
#          BR         NDA      ID1       ID2
     8.97524749E-01    2           5        -5   # BR(H -> b       bb     )
     6.93724426E-02    2         -15        15   # BR(H -> tau+    tau-   )
     2.45284379E-04    2         -13        13   # BR(H -> mu+     mu-    )
     3.01210451E-04    2           3        -3   # BR(H -> s       sb     )
     8.44337897E-08    2           4        -4   # BR(H -> c       cb     )
     8.42280912E-03    2           6        -6   # BR(H -> t       tb     )
     1.08385572E-05    2          21        21   # BR(H -> g       g      )
     5.56467521E-08    2          22        22   # BR(H -> gam     gam    )
     3.44453173E-09    2          23        22   # BR(H -> Z       gam    )
     8.22398847E-07    2          24       -24   # BR(H -> W+      W-     )
     4.10692212E-07    2          23        23   # BR(H -> Z       Z      )
     5.77520226E-06    2          25        25   # BR(H -> h       h      )
     8.17980142E-25    2          36        36   # BR(H -> A       A      )
     8.30794309E-20    2          23        36   # BR(H -> Z       A      )
     9.00208395E-04    2     1000024  -1000024   # BR(H -> ~chi_1+ ~chi_1-)
     4.31220890E-05    2     1000022   1000022   # BR(H -> ~chi_10 ~chi_10)
     4.50141368E-04    2     1000023   1000023   # BR(H -> ~chi_20 ~chi_20)
     2.79847907E-04    2     1000022   1000023   # BR(H -> ~chi_10 ~chi_20)
     2.24368904E-02    2     1000006  -1000006   # BR(H -> ~t_1    ~t_1*  )
     5.30360379E-06    2     1000005  -1000005   # BR(H -> ~b_1    ~b_1*  )
#
#         PDG            Width
DECAY        36     3.50469832E+01   # A decays
#          BR         NDA      ID1       ID2
     9.18022317E-01    2           5        -5   # BR(A -> b       bb     )
     7.09537238E-02    2         -15        15   # BR(A -> tau+    tau-   )
     2.50875061E-04    2         -13        13   # BR(A -> mu+     mu-    )
     3.08126670E-04    2           3        -3   # BR(A -> s       sb     )
     8.69489787E-08    2           4        -4   # BR(A -> c       cb     )
     8.66894493E-03    2           6        -6   # BR(A -> t       tb     )
     2.55292132E-05    2          21        21   # BR(A -> g       g      )
     6.48116906E-08    2          22        22   # BR(A -> gam     gam    )
     2.51291212E-08    2          23        22   # BR(A -> Z       gam    )
     8.38003227E-07    2          23        25   # BR(A -> Z       h      )
     9.55825152E-04    2     1000024  -1000024   # BR(A -> ~chi_1+ ~chi_1-)
     4.45575269E-05    2     1000022   1000022   # BR(A -> ~chi_10 ~chi_10)
     4.77922244E-04    2     1000023   1000023   # BR(A -> ~chi_20 ~chi_20)
     2.91163278E-04    2     1000022   1000023   # BR(A -> ~chi_10 ~chi_20)
#
#         PDG            Width
DECAY        37     3.83272319E+01   # H+ decays
#          BR         NDA      ID1       ID2
     1.46444108E-03    2           4        -5   # BR(H+ -> c       bb     )
     6.49047694E-02    2         -15        16   # BR(H+ -> tau+    nu_tau )
     2.29487434E-04    2         -13        14   # BR(H+ -> mu+     nu_mu  )
     9.37241139E-06    2           2        -5   # BR(H+ -> u       bb     )
     1.34863885E-05    2           2        -3   # BR(H+ -> u       sb     )
     2.77458378E-04    2           4        -3   # BR(H+ -> c       sb     )
     9.21725493E-01    2           6        -5   # BR(H+ -> t       bb     )
     7.67601067E-07    2          24        25   # BR(H+ -> W+      h      )
     5.36066168E-14    2          24        36   # BR(H+ -> W+      A      )
     5.28538755E-04    2     1000024   1000022   # BR(H+ -> ~chi_1+ ~chi_10)
     5.89648558E-15    2     1000024   1000023   # BR(H+ -> ~chi_1+ ~chi_20)
     1.08461860E-02    2     1000006  -1000005   # BR(H+ -> ~t_1    ~b_1*  )
