#
#                              ======================
#                              | THE SUSYHIT OUTPUT |
#                              ======================
#
#
#              ------------------------------------------------------
#              |     This is the output of the SUSY-HIT package     |
#              |  created by A.Djouadi, M.Muehlleitner and M.Spira. |
#              |  In case of problems with SUSY-HIT email to        |
#              |           margarete.muehlleitner@kit.edu           |
#              |           michael.spira@psi.ch                     |
#              |           abdelhak.djouadi@cern.ch                 |
#              ------------------------------------------------------
#
#              ------------------------------------------------------
#              |  SUSY Les Houches Accord - MSSM Spectrum + Decays  |
#              |              based on the decay programs           |
#              |                                                    |
#              |                     SDECAY 1.5                     |
#              |                                                    |
#              |  Authors: M.Muhlleitner, A.Djouadi and Y.Mambrini  |
#              |  Ref.:    Comput.Phys.Commun.168(2005)46           |
#              |           [hep-ph/0311167]                         |
#              |                                                    |
#              |                     HDECAY 3.4                     |
#              |                                                    |
#              |  By: A.Djouadi,J.Kalinowski,M.Muhlleitner,M.Spira  |
#              |  Ref.:    Comput.Phys.Commun.108(1998)56           |
#              |           [hep-ph/9704448]                         |
#              |                                                    |
#              |                                                    |
#              |  If not stated otherwise all DRbar couplings and   |
#              |  soft SUSY breaking masses are given at the scale  |
#              |  Q=  0.16871732E+04
#              |                                                    |
#              ------------------------------------------------------
#
#
BLOCK DCINFO  # Decay Program information
     1   SDECAY/HDECAY # decay calculator
     2   1.5  /3.4    # version number
#
BLOCK SPINFO  # Spectrum calculator information
     1    SOFTSUSY    # spectrum calculator                
     2    3.7.3       # version number                     
#
BLOCK MODSEL  # Model selection
     1     0   #  nonUniversal                                     
#
BLOCK SMINPUTS  # Standard Model inputs
         1     1.27934000E+02   # alpha_em^-1(M_Z)^MSbar
         2     1.16639000E-05   # G_F [GeV^-2]
         3     1.17200000E-01   # alpha_S(M_Z)^MSbar
         4     9.11870000E+01   # M_Z pole mass
         5     4.19000000E+00   # mb(mb)^MSbar
         6     1.72500000E+02   # mt pole mass
         7     1.77690000E+00   # mtau pole mass
#
BLOCK MINPAR  # Input parameters - minimal models
         3     2.00000000E+01   # tanb                
#
BLOCK EXTPAR  # Input parameters - non-minimal models
         0    -1.00000000E+00   # Set                 
         1     1.49900000E+02   # M_1(MX)             
         2     2.99900000E+02   # M_2(MX)             
         3     2.20000000E+03   # M_3(MX)             
        11     3.24338000E+03   # At(MX)              
        12     0.00000000E+00   # Ab(MX)              
        13     0.00000000E+00   # Atau(MX)            
        23     3.00000000E+03   # mu(MX)              
        25     2.00000000E+01   # tan                 
        26     3.00000000E+03   # mA(pole)            
        31     3.00000000E+03   # meL(MX)             
        32     3.00000000E+03   # mmuL(MX)            
        33     3.00000000E+03   # mtauL(MX)           
        34     3.00000000E+03   # meR(MX)             
        35     3.00000000E+03   # mmuR(MX)            
        36     3.00000000E+03   # mtauR(MX)           
        41     3.00000000E+03   # mqL1(MX)            
        42     3.00000000E+03   # mqL2(MX)            
        43     9.49900000E+02   # mqL3(MX)            
        44     3.00000000E+03   # muR(MX)             
        45     3.00000000E+03   # mcR(MX)             
        46     3.00000000E+03   # mtR(MX)             
        47     3.00000000E+03   # mdR(MX)             
        48     3.00000000E+03   # msR(MX)             
        49     3.00000000E+03   # mbR(MX)             
#
BLOCK MASS  # Mass Spectrum
# PDG code           mass       particle
        24     8.03979941E+01   # W+
        25     1.24948120E+02   # h
        35     3.00007468E+03   # H
        36     2.99999995E+03   # A
        37     3.00089598E+03   # H+
         5     4.81337004E+00   # b-quark pole mass calculated from mb(mb)_Msbar
   1000001     3.04200528E+03   # ~d_L
   2000001     3.03687958E+03   # ~d_R
   1000002     3.04109661E+03   # ~u_L
   2000002     3.03781558E+03   # ~u_R
   1000003     3.04200528E+03   # ~s_L
   2000003     3.03687958E+03   # ~s_R
   1000004     3.04109661E+03   # ~c_L
   2000004     3.03781558E+03   # ~c_R
   1000005     1.05024129E+03   # ~b_1
   2000005     3.03581054E+03   # ~b_2
   1000006     1.04648253E+03   # ~t_1
   2000006     3.01879063E+03   # ~t_2
   1000011     3.00626693E+03   # ~e_L
   2000011     3.00223019E+03   # ~e_R
   1000012     3.00487524E+03   # ~nu_eL
   1000013     3.00626693E+03   # ~mu_L
   2000013     3.00223019E+03   # ~mu_R
   1000014     3.00487524E+03   # ~nu_muL
   1000015     2.98567811E+03   # ~tau_1
   2000015     3.02186312E+03   # ~tau_2
   1000016     3.00458477E+03   # ~nu_tauL
   1000021     2.35219826E+03   # ~g
   1000022     1.50361024E+02   # ~chi_10
   1000023     3.20883264E+02   # ~chi_20
   1000025    -2.99472345E+03   # ~chi_30
   1000035     2.99530959E+03   # ~chi_40
   1000024     3.21045341E+02   # ~chi_1+
   1000037     2.99593378E+03   # ~chi_2+
#
BLOCK NMIX  # Neutralino Mixing Matrix
  1  1     9.99888368E-01   # N_11
  1  2    -1.15084461E-03   # N_12
  1  3     1.48237478E-02   # N_13
  1  4    -1.47770697E-03   # N_14
  2  1     1.54640834E-03   # N_21
  2  2     9.99644957E-01   # N_22
  2  3    -2.63093777E-02   # N_23
  2  4     3.92237374E-03   # N_24
  3  1    -9.41593903E-03   # N_31
  3  2     1.58431373E-02   # N_32
  3  3     7.06842385E-01   # N_33
  3  4     7.07130948E-01   # N_34
  4  1    -1.14978377E-02   # N_41
  4  2     2.13922955E-02   # N_42
  4  3     7.06726196E-01   # N_43
  4  4    -7.07070190E-01   # N_44
#
BLOCK UMIX  # Chargino Mixing Matrix U
  1  1     9.99306824E-01   # U_11
  1  2    -3.72272889E-02   # U_12
  2  1     3.72272889E-02   # U_21
  2  2     9.99306824E-01   # U_22
#
BLOCK VMIX  # Chargino Mixing Matrix V
  1  1     9.99984591E-01   # V_11
  1  2    -5.55132114E-03   # V_12
  2  1     5.55132114E-03   # V_21
  2  2     9.99984591E-01   # V_22
#
BLOCK STOPMIX  # Stop Mixing Matrix
  1  1     9.98447751E-01   # cos(theta_t)
  1  2    -5.56963960E-02   # sin(theta_t)
  2  1     5.56963960E-02   # -sin(theta_t)
  2  2     9.98447751E-01   # cos(theta_t)
#
BLOCK SBOTMIX  # Sbottom Mixing Matrix
  1  1     9.99907189E-01   # cos(theta_b)
  1  2     1.36240004E-02   # sin(theta_b)
  2  1    -1.36240004E-02   # -sin(theta_b)
  2  2     9.99907189E-01   # cos(theta_b)
#
BLOCK STAUMIX  # Stau Mixing Matrix
  1  1     7.06933690E-01   # cos(theta_tau)
  1  2     7.07279830E-01   # sin(theta_tau)
  2  1    -7.07279830E-01   # -sin(theta_tau)
  2  2     7.06933690E-01   # cos(theta_tau)
#
BLOCK ALPHA  # Higgs mixing
          -5.01746529E-02   # Mixing angle in the neutral Higgs boson sector
#
BLOCK HMIX Q=  1.68717322E+03  # DRbar Higgs Parameters
         1     3.00000000E+03   # mu(Q)MSSM           
         2     2.00000000E+01   # tan                 
         3     2.43928627E+02   # higgs               
         4     7.76494933E+06   # mA^2(Q)MSSM         
#
BLOCK GAUGE Q=  1.68717322E+03  # The gauge couplings
     1     3.62568266E-01   # gprime(Q) DRbar
     2     6.39093511E-01   # g(Q) DRbar
     3     1.02372089E+00   # g3(Q) DRbar
#
BLOCK AU Q=  1.68717322E+03  # The trilinear couplings
  1  1     2.70291684E-06   # A_u(Q) DRbar
  2  2     2.70295545E-06   # A_c(Q) DRbar
  3  3     3.24338000E+03   # A_t(Q) DRbar
#
BLOCK AD Q=  1.68717322E+03  # The trilinear couplings
  1  1     6.88523153E-07   # A_d(Q) DRbar
  2  2     6.88654405E-07   # A_s(Q) DRbar
  3  3     1.57480965E-06   # A_b(Q) DRbar
#
BLOCK AE Q=  1.68717322E+03  # The trilinear couplings
  1  1     0.00000000E+00   # A_e(Q) DRbar
  2  2     1.49545261E-07   # A_mu(Q) DRbar
  3  3     1.51357578E-07   # A_tau(Q) DRbar
#
BLOCK Yu Q=  1.68717322E+03  # The Yukawa couplings
  1  1     0.00000000E+00   # y_u(Q) DRbar
  2  2     0.00000000E+00   # y_c(Q) DRbar
  3  3     8.50457737E-01   # y_t(Q) DRbar
#
BLOCK Yd Q=  1.68717322E+03  # The Yukawa couplings
  1  1     0.00000000E+00   # y_d(Q) DRbar
  2  2     0.00000000E+00   # y_s(Q) DRbar
  3  3     2.13459676E-01   # y_b(Q) DRbar
#
BLOCK Ye Q=  1.68717322E+03  # The Yukawa couplings
  1  1     0.00000000E+00   # y_e(Q) DRbar
  2  2     0.00000000E+00   # y_mu(Q) DRbar
  3  3     2.05841847E-01   # y_tau(Q) DRbar
#
BLOCK MSOFT Q=  1.68717322E+03  # The soft SUSY breaking masses at the scale Q
         1     1.49900000E+02   # M_1(Q)              
         2     2.99900000E+02   # M_2(Q)              
         3     2.20000000E+03   # M_3(Q)              
        21    -8.23045314E+04   # M^2_Hd              
        22    -9.03162024E+06   # M^2_Hu              
        31     3.00000000E+03   # M_eL                
        32     3.00000000E+03   # M_muL               
        33     3.00000000E+03   # M_tauL              
        34     3.00000000E+03   # M_eR                
        35     3.00000000E+03   # M_muR               
        36     3.00000000E+03   # M_tauR              
        41     3.00000000E+03   # M_q1L               
        42     3.00000000E+03   # M_q2L               
        43     9.49899994E+02   # M_q3L               
        44     3.00000000E+03   # M_uR                
        45     3.00000000E+03   # M_cR                
        46     3.00000000E+03   # M_tR                
        47     3.00000000E+03   # M_dR                
        48     3.00000000E+03   # M_sR                
        49     3.00000000E+03   # M_bR                
#
#
#
#                             =================
#                             |The decay table|
#                             =================
#
# - The QCD corrections to the decays gluino -> squark  + quark
#                                     squark -> gaugino + quark_prime
#                                     squark -> squark_prime + Higgs
#                                     squark -> gluino  + quark
#   are included.
#
# - The multi-body decays for the inos, stops and sbottoms are included.
#
# - The loop induced decays for the gluino, neutralinos and stops
#   are included.
#
# - The SUSY decays of the top quark are included.
#
#
#         PDG            Width
DECAY         6     1.41786388E+00   # top decays
#          BR         NDA      ID1       ID2
     1.00000000E+00    2           5        24   # BR(t ->  b    W+)
#
#         PDG            Width
DECAY   1000021     6.14758336E+01   # gluino decays
#          BR         NDA      ID1       ID2
     2.47653240E-01    2     1000005        -5   # BR(~g -> ~b_1  bb)
     2.47653240E-01    2    -1000005         5   # BR(~g -> ~b_1* b )
     2.52346760E-01    2     1000006        -6   # BR(~g -> ~t_1  tb)
     2.52346760E-01    2    -1000006         6   # BR(~g -> ~t_1* t )
#
#         PDG            Width
DECAY   1000006     1.05918533E+01   # stop1 decays
#          BR         NDA      ID1       ID2
     1.34908697E-02    2     1000022         6   # BR(~t_1 -> ~chi_10 t )
     3.15763461E-01    2     1000023         6   # BR(~t_1 -> ~chi_20 t )
     6.70745669E-01    2     1000024         5   # BR(~t_1 -> ~chi_1+ b )
#
#         PDG            Width
DECAY   2000006     1.10932121E+02   # stop2 decays
#          BR         NDA      ID1       ID2
     5.94941753E-02    2     1000022         6   # BR(~t_2 -> ~chi_10 t )
     3.66598209E-04    2     1000023         6   # BR(~t_2 -> ~chi_20 t )
     0.00000000E+00    2     1000025         6   # BR(~t_2 -> ~chi_30 t )
     7.36318664E-04    2     1000024         5   # BR(~t_2 -> ~chi_1+ b )
     9.50845160E-05    2     1000037         5   # BR(~t_2 -> ~chi_2+ b )
     2.99689408E-01    2     1000021         6   # BR(~t_2 -> ~g      t )
     1.67444814E-01    2     1000006        25   # BR(~t_2 -> ~t_1    h )
     1.59660641E-01    2     1000006        23   # BR(~t_2 -> ~t_1    Z )
     3.12512961E-01    2     1000005        24   # BR(~t_2 -> ~b_1    W+)
#
#         PDG            Width
DECAY   1000005     1.04705409E+01   # sbottom1 decays
#          BR         NDA      ID1       ID2
     1.45004924E-02    2     1000022         5   # BR(~b_1 -> ~chi_10 b )
     3.41789813E-01    2     1000023         5   # BR(~b_1 -> ~chi_20 b )
     6.43709695E-01    2    -1000024         6   # BR(~b_1 -> ~chi_1- t )
#
#         PDG            Width
DECAY   2000005     4.17619044E+01   # sbottom2 decays
#          BR         NDA      ID1       ID2
     3.99954635E-02    2     1000022         5   # BR(~b_2 -> ~chi_10 b )
     3.98298225E-07    2     1000023         5   # BR(~b_2 -> ~chi_20 b )
     2.51920272E-05    2     1000025         5   # BR(~b_2 -> ~chi_30 b )
     2.47627614E-05    2     1000035         5   # BR(~b_2 -> ~chi_40 b )
     4.74942538E-07    2    -1000024         6   # BR(~b_2 -> ~chi_1- t )
     8.31974054E-01    2     1000021         5   # BR(~b_2 -> ~g      b )
     2.80689044E-02    2     1000005        25   # BR(~b_2 -> ~b_1    h )
     4.10054984E-02    2     1000005        23   # BR(~b_2 -> ~b_1    Z )
     5.89052516E-02    2     1000006       -24   # BR(~b_2 -> ~t_1    W-)
#
#         PDG            Width
DECAY   1000002     7.01281656E+01   # sup_L decays
#          BR         NDA      ID1       ID2
     5.89596979E-03    2     1000022         2   # BR(~u_L -> ~chi_10 u)
     1.64232640E-01    2     1000023         2   # BR(~u_L -> ~chi_20 u)
     3.47706506E-08    2     1000025         2   # BR(~u_L -> ~chi_30 u)
     6.33556146E-08    2     1000035         2   # BR(~u_L -> ~chi_40 u)
     3.28489201E-01    2     1000024         1   # BR(~u_L -> ~chi_1+ d)
     1.02950018E-08    2     1000037         1   # BR(~u_L -> ~chi_2+ d)
     5.01382081E-01    2     1000021         2   # BR(~u_L -> ~g      u)
#
#         PDG            Width
DECAY   2000002     4.15867180E+01   # sup_R decays
#          BR         NDA      ID1       ID2
     1.60853110E-01    2     1000022         2   # BR(~u_R -> ~chi_10 u)
     3.78552515E-07    2     1000023         2   # BR(~u_R -> ~chi_20 u)
     1.30583272E-08    2     1000025         2   # BR(~u_R -> ~chi_30 u)
     1.89604353E-08    2     1000035         2   # BR(~u_R -> ~chi_40 u)
     8.39146480E-01    2     1000021         2   # BR(~u_R -> ~g      u)
#
#         PDG            Width
DECAY   1000001     7.01779877E+01   # sdown_L decays
#          BR         NDA      ID1       ID2
     6.03885671E-03    2     1000022         1   # BR(~d_L -> ~chi_10 d)
     1.63976580E-01    2     1000023         1   # BR(~d_L -> ~chi_20 d)
     5.66496966E-08    2     1000025         1   # BR(~d_L -> ~chi_30 d)
     9.88751666E-08    2     1000035         1   # BR(~d_L -> ~chi_40 d)
     3.27916096E-01    2    -1000024         2   # BR(~d_L -> ~chi_1- u)
     4.80738630E-07    2    -1000037         2   # BR(~d_L -> ~chi_2- u)
     5.02067831E-01    2     1000021         1   # BR(~d_L -> ~g      d)
#
#         PDG            Width
DECAY   2000001     3.64940297E+01   # sdown_R decays
#          BR         NDA      ID1       ID2
     4.58103346E-02    2     1000022         1   # BR(~d_R -> ~chi_10 d)
     1.07809149E-07    2     1000023         1   # BR(~d_R -> ~chi_20 d)
     3.56595400E-09    2     1000025         1   # BR(~d_R -> ~chi_30 d)
     5.17459769E-09    2     1000035         1   # BR(~d_R -> ~chi_40 d)
     9.54189549E-01    2     1000021         1   # BR(~d_R -> ~g      d)
#
#         PDG            Width
DECAY   1000004     7.01281656E+01   # scharm_L decays
#          BR         NDA      ID1       ID2
     5.89596979E-03    2     1000022         4   # BR(~c_L -> ~chi_10 c)
     1.64232640E-01    2     1000023         4   # BR(~c_L -> ~chi_20 c)
     3.47706506E-08    2     1000025         4   # BR(~c_L -> ~chi_30 c)
     6.33556146E-08    2     1000035         4   # BR(~c_L -> ~chi_40 c)
     3.28489201E-01    2     1000024         3   # BR(~c_L -> ~chi_1+ s)
     1.02950018E-08    2     1000037         3   # BR(~c_L -> ~chi_2+ s)
     5.01382081E-01    2     1000021         4   # BR(~c_L -> ~g      c)
#
#         PDG            Width
DECAY   2000004     4.15867180E+01   # scharm_R decays
#          BR         NDA      ID1       ID2
     1.60853110E-01    2     1000022         4   # BR(~c_R -> ~chi_10 c)
     3.78552515E-07    2     1000023         4   # BR(~c_R -> ~chi_20 c)
     1.30583272E-08    2     1000025         4   # BR(~c_R -> ~chi_30 c)
     1.89604353E-08    2     1000035         4   # BR(~c_R -> ~chi_40 c)
     8.39146480E-01    2     1000021         4   # BR(~c_R -> ~g      c)
#
#         PDG            Width
DECAY   1000003     7.01779877E+01   # sstrange_L decays
#          BR         NDA      ID1       ID2
     6.03885671E-03    2     1000022         3   # BR(~s_L -> ~chi_10 s)
     1.63976580E-01    2     1000023         3   # BR(~s_L -> ~chi_20 s)
     5.66496966E-08    2     1000025         3   # BR(~s_L -> ~chi_30 s)
     9.88751666E-08    2     1000035         3   # BR(~s_L -> ~chi_40 s)
     3.27916096E-01    2    -1000024         4   # BR(~s_L -> ~chi_1- c)
     4.80738630E-07    2    -1000037         4   # BR(~s_L -> ~chi_2- c)
     5.02067831E-01    2     1000021         3   # BR(~s_L -> ~g      s)
#
#         PDG            Width
DECAY   2000003     3.64940297E+01   # sstrange_R decays
#          BR         NDA      ID1       ID2
     4.58103346E-02    2     1000022         3   # BR(~s_R -> ~chi_10 s)
     1.07809149E-07    2     1000023         3   # BR(~s_R -> ~chi_20 s)
     3.56595400E-09    2     1000025         3   # BR(~s_R -> ~chi_30 s)
     5.17459769E-09    2     1000035         3   # BR(~s_R -> ~chi_40 s)
     9.54189549E-01    2     1000021         3   # BR(~s_R -> ~g      s)
#
#         PDG            Width
DECAY   1000011     3.96852156E+01   # selectron_L decays
#          BR         NDA      ID1       ID2
     9.81390835E-02    2     1000022        11   # BR(~e_L -> ~chi_10 e-)
     3.01112380E-01    2     1000023        11   # BR(~e_L -> ~chi_20 e-)
     1.99399824E-09    2     1000025        11   # BR(~e_L -> ~chi_30 e-)
     3.60283578E-09    2     1000035        11   # BR(~e_L -> ~chi_40 e-)
     6.00748491E-01    2    -1000024        12   # BR(~e_L -> ~chi_1- nu_e)
     4.01750950E-08    2    -1000037        12   # BR(~e_L -> ~chi_2- nu_e)
#
#         PDG            Width
DECAY   2000011     1.56209099E+01   # selectron_R decays
#          BR         NDA      ID1       ID2
     9.99997646E-01    2     1000022        11   # BR(~e_R -> ~chi_10 e-)
     2.34934150E-06    2     1000023        11   # BR(~e_R -> ~chi_20 e-)
     2.22327321E-09    2     1000025        11   # BR(~e_R -> ~chi_30 e-)
     2.81817234E-09    2     1000035        11   # BR(~e_R -> ~chi_40 e-)
#
#         PDG            Width
DECAY   1000013     3.96852156E+01   # smuon_L decays
#          BR         NDA      ID1       ID2
     9.81390835E-02    2     1000022        13   # BR(~mu_L -> ~chi_10 mu-)
     3.01112380E-01    2     1000023        13   # BR(~mu_L -> ~chi_20 mu-)
     1.99399824E-09    2     1000025        13   # BR(~mu_L -> ~chi_30 mu-)
     3.60283578E-09    2     1000035        13   # BR(~mu_L -> ~chi_40 mu-)
     6.00748491E-01    2    -1000024        14   # BR(~mu_L -> ~chi_1- nu_mu)
     4.01750950E-08    2    -1000037        14   # BR(~mu_L -> ~chi_2- nu_mu)
#
#         PDG            Width
DECAY   2000013     1.56209099E+01   # smuon_R decays
#          BR         NDA      ID1       ID2
     9.99997646E-01    2     1000022        13   # BR(~mu_R -> ~chi_10 mu-)
     2.34934150E-06    2     1000023        13   # BR(~mu_R -> ~chi_20 mu-)
     2.22327321E-09    2     1000025        13   # BR(~mu_R -> ~chi_30 mu-)
     2.81817234E-09    2     1000035        13   # BR(~mu_R -> ~chi_40 mu-)
#
#         PDG            Width
DECAY   1000015     2.79385966E+01   # stau_1 decays
#          BR         NDA      ID1       ID2
     3.49014923E-01    2     1000022        15   # BR(~tau_1 -> ~chi_10  tau-)
     2.17358531E-01    2     1000023        15   # BR(~tau_1 -> ~chi_20  tau-)
     4.33626546E-01    2    -1000024        16   # BR(~tau_1 -> ~chi_1-  nu_tau)
#
#         PDG            Width
DECAY   2000015     2.73445612E+01   # stau_2 decays
#          BR         NDA      ID1       ID2
     3.57287639E-01    2     1000022        15   # BR(~tau_2 -> ~chi_10  tau-)
     2.14605106E-01    2     1000023        15   # BR(~tau_2 -> ~chi_20  tau-)
     1.48101879E-05    2     1000025        15   # BR(~tau_2 -> ~chi_30  tau-)
     1.65018333E-05    2     1000035        15   # BR(~tau_2 -> ~chi_40  tau-)
     4.28059044E-01    2    -1000024        16   # BR(~tau_2 -> ~chi_1-  nu_tau)
     1.68976034E-05    2    -1000037        16   # BR(~tau_2 -> ~chi_2-  nu_tau)
#
#         PDG            Width
DECAY   1000012     3.96882599E+01   # snu_eL decays
#          BR         NDA      ID1       ID2
     9.88848973E-02    2     1000022        12   # BR(~nu_eL -> ~chi_10 nu_e)
     2.99888876E-01    2     1000023        12   # BR(~nu_eL -> ~chi_20 nu_e)
     6.28162917E-09    2     1000025        12   # BR(~nu_eL -> ~chi_30 nu_e)
     9.68562251E-09    2     1000035        12   # BR(~nu_eL -> ~chi_40 nu_e)
     6.01226210E-01    2     1000024        11   # BR(~nu_eL -> ~chi_1+ e-)
     6.69494104E-10    2     1000037        11   # BR(~nu_eL -> ~chi_2+ e-)
#
#         PDG            Width
DECAY   1000014     3.96882599E+01   # snu_muL decays
#          BR         NDA      ID1       ID2
     9.88848973E-02    2     1000022        14   # BR(~nu_muL -> ~chi_10 nu_mu)
     2.99888876E-01    2     1000023        14   # BR(~nu_muL -> ~chi_20 nu_mu)
     6.28162917E-09    2     1000025        14   # BR(~nu_muL -> ~chi_30 nu_mu)
     9.68562251E-09    2     1000035        14   # BR(~nu_muL -> ~chi_40 nu_mu)
     6.01226210E-01    2     1000024        13   # BR(~nu_muL -> ~chi_1+ mu-)
     6.69494104E-10    2     1000037        13   # BR(~nu_muL -> ~chi_2+ mu-)
#
#         PDG            Width
DECAY   1000016     3.96876824E+01   # snu_tauL decays
#          BR         NDA      ID1       ID2
     9.88766813E-02    2     1000022        16   # BR(~nu_tauL -> ~chi_10 nu_tau)
     2.99862912E-01    2     1000023        16   # BR(~nu_tauL -> ~chi_20 nu_tau)
     5.92853468E-09    2     1000025        16   # BR(~nu_tauL -> ~chi_30 nu_tau)
     9.10821933E-09    2     1000035        16   # BR(~nu_tauL -> ~chi_40 nu_tau)
     6.01258314E-01    2     1000024        15   # BR(~nu_tauL -> ~chi_1+ tau-)
     2.07729952E-06    2     1000037        15   # BR(~nu_tauL -> ~chi_2+ tau-)
#
#         PDG            Width
DECAY   1000024     2.66400768E-05   # chargino1+ decays
#          BR         NDA      ID1       ID2
     1.00000000E+00    2     1000022        24   # BR(~chi_1+ -> ~chi_10  W+)
#
#         PDG            Width
DECAY   1000037     7.85474707E+01   # chargino2+ decays
#          BR         NDA      ID1       ID2
     4.66919776E-02    2     1000006        -5   # BR(~chi_2+ -> ~t_1     bb)
     7.01907694E-01    2    -1000005         6   # BR(~chi_2+ -> ~b_1*    t )
     2.93410016E-07    2    -1000015        16   # BR(~chi_2+ -> ~tau_1+  nu_tau)
     7.55279050E-02    2     1000024        23   # BR(~chi_2+ -> ~chi_1+  Z )
     2.34695239E-02    2     1000022        24   # BR(~chi_2+ -> ~chi_10  W+)
     7.36837412E-02    2     1000023        24   # BR(~chi_2+ -> ~chi_20  W+)
     7.87188651E-02    2     1000024        25   # BR(~chi_2+ -> ~chi_1+  h )
#
#         PDG            Width
DECAY   1000022     0.00000000E+00   # neutralino1 decays
#
#         PDG            Width
DECAY   1000023     1.89904040E-05   # neutralino2 decays
#          BR         NDA      ID1       ID2
     4.94519205E-02    2     1000022        23   # BR(~chi_20 -> ~chi_10   Z )
     9.50548080E-01    2     1000022        25   # BR(~chi_20 -> ~chi_10   h )
#
#         PDG            Width
DECAY   1000025     7.88764676E+01   # neutralino3 decays
#          BR         NDA      ID1       ID2
     1.44862450E-02    2     1000022        23   # BR(~chi_30 -> ~chi_10   Z )
     4.84779492E-02    2     1000023        23   # BR(~chi_30 -> ~chi_20   Z )
     7.32445388E-02    2     1000024       -24   # BR(~chi_30 -> ~chi_1+   W-)
     7.32445388E-02    2    -1000024        24   # BR(~chi_30 -> ~chi_1-   W+)
     1.00545368E-02    2     1000022        25   # BR(~chi_30 -> ~chi_10   h )
     2.71809334E-02    2     1000023        25   # BR(~chi_30 -> ~chi_20   h )
     3.54533607E-01    2     1000006        -6   # BR(~chi_30 -> ~t_1      tb)
     3.54533607E-01    2    -1000006         6   # BR(~chi_30 -> ~t_1*     t )
     2.21218075E-02    2     1000005        -5   # BR(~chi_30 -> ~b_1      bb)
     2.21218075E-02    2    -1000005         5   # BR(~chi_30 -> ~b_1*     b )
     2.14284262E-07    2     1000015       -15   # BR(~chi_30 -> ~tau_1-   tau+)
     2.14284262E-07    2    -1000015        15   # BR(~chi_30 -> ~tau_1+   tau-)
#
#         PDG            Width
DECAY   1000035     7.78945577E+01   # neutralino4 decays
#          BR         NDA      ID1       ID2
     9.83844347E-03    2     1000022        23   # BR(~chi_40 -> ~chi_10   Z )
     2.69511383E-02    2     1000023        23   # BR(~chi_40 -> ~chi_20   Z )
     7.41944570E-02    2     1000024       -24   # BR(~chi_40 -> ~chi_1+   W-)
     7.41944570E-02    2    -1000024        24   # BR(~chi_40 -> ~chi_1-   W+)
     1.52155799E-02    2     1000022        25   # BR(~chi_40 -> ~chi_10   h )
     5.17419970E-02    2     1000023        25   # BR(~chi_40 -> ~chi_20   h )
     3.51502535E-01    2     1000006        -6   # BR(~chi_40 -> ~t_1      tb)
     3.51502535E-01    2    -1000006         6   # BR(~chi_40 -> ~t_1*     t )
     2.24290731E-02    2     1000005        -5   # BR(~chi_40 -> ~b_1      bb)
     2.24290731E-02    2    -1000005         5   # BR(~chi_40 -> ~b_1*     b )
     3.55640292E-07    2     1000015       -15   # BR(~chi_40 -> ~tau_1-   tau+)
     3.55640292E-07    2    -1000015        15   # BR(~chi_40 -> ~tau_1+   tau-)
#
#         PDG            Width
DECAY        25     4.77931606E-03   # h decays
#          BR         NDA      ID1       ID2
     6.70360291E-01    2           5        -5   # BR(h -> b       bb     )
     5.45795967E-02    2         -15        15   # BR(h -> tau+    tau-   )
     1.93213584E-04    2         -13        13   # BR(h -> mu+     mu-    )
     4.10097153E-04    2           3        -3   # BR(h -> s       sb     )
     1.77074217E-02    2           4        -4   # BR(h -> c       cb     )
     5.75152080E-02    2          21        21   # BR(h -> g       g      )
     1.96690555E-03    2          22        22   # BR(h -> gam     gam    )
     1.30129835E-03    2          22        23   # BR(h -> Z       gam    )
     1.74208357E-01    2          24       -24   # BR(h -> W+      W-     )
     2.17576107E-02    2          23        23   # BR(h -> Z       Z      )
#
#         PDG            Width
DECAY        35     1.41204200E+01   # H decays
#          BR         NDA      ID1       ID2
     7.39763214E-01    2           5        -5   # BR(H -> b       bb     )
     1.76107972E-01    2         -15        15   # BR(H -> tau+    tau-   )
     6.22675705E-04    2         -13        13   # BR(H -> mu+     mu-    )
     7.64647841E-04    2           3        -3   # BR(H -> s       sb     )
     2.15704781E-07    2           4        -4   # BR(H -> c       cb     )
     2.15179320E-02    2           6        -6   # BR(H -> t       tb     )
     2.61649217E-05    2          21        21   # BR(H -> g       g      )
     1.25790487E-08    2          22        22   # BR(H -> gam     gam    )
     8.30411898E-09    2          23        22   # BR(H -> Z       gam    )
     2.92218153E-05    2          24       -24   # BR(H -> W+      W-     )
     1.45928876E-05    2          23        23   # BR(H -> Z       Z      )
     7.86256154E-05    2          25        25   # BR(H -> h       h      )
    -4.99316563E-23    2          36        36   # BR(H -> A       A      )
     1.22002152E-19    2          23        36   # BR(H -> Z       A      )
     2.28807214E-03    2     1000024  -1000024   # BR(H -> ~chi_1+ ~chi_1-)
     1.10802076E-04    2     1000022   1000022   # BR(H -> ~chi_10 ~chi_10)
     1.14020303E-03    2     1000023   1000023   # BR(H -> ~chi_20 ~chi_20)
     7.13910105E-04    2     1000022   1000023   # BR(H -> ~chi_10 ~chi_20)
     5.68164050E-02    2     1000006  -1000006   # BR(H -> ~t_1    ~t_1*  )
     5.32440750E-06    2     1000005  -1000005   # BR(H -> ~b_1    ~b_1*  )
#
#         PDG            Width
DECAY        36     1.33227660E+01   # A decays
#          BR         NDA      ID1       ID2
     7.84137977E-01    2           5        -5   # BR(A -> b       bb     )
     1.86651479E-01    2         -15        15   # BR(A -> tau+    tau-   )
     6.59954103E-04    2         -13        13   # BR(A -> mu+     mu-    )
     8.10560679E-04    2           3        -3   # BR(A -> s       sb     )
     2.28728734E-07    2           4        -4   # BR(A -> c       cb     )
     2.28046014E-02    2           6        -6   # BR(A -> t       tb     )
     6.71573686E-05    2          21        21   # BR(A -> g       g      )
     3.13007506E-08    2          22        22   # BR(A -> gam     gam    )
     6.61205059E-08    2          23        22   # BR(A -> Z       gam    )
     3.08550828E-05    2          23        25   # BR(A -> Z       h      )
     2.61852501E-03    2     1000024  -1000024   # BR(A -> ~chi_1+ ~chi_1-)
     1.21021575E-04    2     1000022   1000022   # BR(A -> ~chi_10 ~chi_10)
     1.30483042E-03    2     1000023   1000023   # BR(A -> ~chi_20 ~chi_20)
     7.92711856E-04    2     1000022   1000023   # BR(A -> ~chi_10 ~chi_20)
#
#         PDG            Width
DECAY        37     1.04081949E+01   # H+ decays
#          BR         NDA      ID1       ID2
     1.10467609E-03    2           4        -5   # BR(H+ -> c       bb     )
     2.38990211E-01    2         -15        16   # BR(H+ -> tau+    nu_tau )
     8.45011093E-04    2         -13        14   # BR(H+ -> mu+     nu_mu  )
     7.06991598E-06    2           2        -5   # BR(H+ -> u       bb     )
     4.96595595E-05    2           2        -3   # BR(H+ -> u       sb     )
     1.02165683E-03    2           4        -3   # BR(H+ -> c       sb     )
     7.18078305E-01    2           6        -5   # BR(H+ -> t       bb     )
     3.95554486E-05    2          24        25   # BR(H+ -> W+      h      )
     7.30169165E-14    2          24        36   # BR(H+ -> W+      A      )
     1.97759285E-03    2     1000024   1000022   # BR(H+ -> ~chi_1+ ~chi_10)
     4.71099641E-09    2     1000024   1000023   # BR(H+ -> ~chi_1+ ~chi_20)
     3.78862578E-02    2     1000006  -1000005   # BR(H+ -> ~t_1    ~b_1*  )
