#
#                              ======================
#                              | THE SUSYHIT OUTPUT |
#                              ======================
#
#
#              ------------------------------------------------------
#              |     This is the output of the SUSY-HIT package     |
#              |  created by A.Djouadi, M.Muehlleitner and M.Spira. |
#              |  In case of problems with SUSY-HIT email to        |
#              |           margarete.muehlleitner@kit.edu           |
#              |           michael.spira@psi.ch                     |
#              |           abdelhak.djouadi@cern.ch                 |
#              ------------------------------------------------------
#
#              ------------------------------------------------------
#              |  SUSY Les Houches Accord - MSSM Spectrum + Decays  |
#              |              based on the decay programs           |
#              |                                                    |
#              |                     SDECAY 1.5a                    |
#              |                                                    |
#              |  Authors: M.Muhlleitner, A.Djouadi and Y.Mambrini  |
#              |  Ref.:    Comput.Phys.Commun.168(2005)46           |
#              |           [hep-ph/0311167]                         |
#              |                                                    |
#              |                     HDECAY 3.4                     |
#              |                                                    |
#              |  By: A.Djouadi,J.Kalinowski,M.Muhlleitner,M.Spira  |
#              |  Ref.:    Comput.Phys.Commun.108(1998)56           |
#              |           [hep-ph/9704448]                         |
#              |                                                    |
#              |                                                    |
#              |  If not stated otherwise all DRbar couplings and   |
#              |  soft SUSY breaking masses are given at the scale  |
#              |  Q=  0.91187600E+02
#              |                                                    |
#              ------------------------------------------------------
#
#
BLOCK DCINFO  # Decay Program information
     1   SDECAY/HDECAY # decay calculator
     2   1.5a /3.4    # version number
#
BLOCK SPINFO  # Spectrum calculator information
     1   SuSpect     # RGE +Spectrum calculator            
     2   2.43         # version number                     
#
BLOCK MODSEL  # Model selection
     1     2   # GMSB                                              
#
BLOCK SMINPUTS  # Standard Model inputs
         1     1.27932904E+02   # alpha_em^-1(M_Z)^MSbar
         2     1.16639000E-05   # G_F [GeV^-2]
         3     1.17200000E-01   # alpha_S(M_Z)^MSbar
         4     9.11870000E+01   # M_Z pole mass
         5     4.25000000E+00   # mb(mb)^MSbar
         6     1.72900000E+02   # mt pole mass
         7     1.77700000E+00   # mtau pole mass
#
BLOCK MINPAR  # Input parameters - minimal models
#
BLOCK EXTPAR  # Input parameters - non-minimal models
         0     9.11876000E+01   # EWSB                
         1     4.55832221E+02   # M_1                 
         2     3.00000000E+03   # M_2                 
         3     2.80000000E+03   # M_3                 
        11     0.00000000E+00   # A_t                 
        12     0.00000000E+00   # A_b                 
        13     0.00000000E+00   # A_tau               
        14     0.00000000E+00   # A_u                 
        15     0.00000000E+00   # A_d                 
        16     0.00000000E+00   # A_e                 
        23    -4.50000000E+02   # mu(EWSB)            
        25     1.50000000E+00   # tanbeta(in)         
        26     2.00000000E+03   # MA_pole             
        31     5.00000000E+03   # M_eL                
        32     5.00000000E+03   # M_muL               
        33     5.00000000E+03   # M_tauL              
        34     5.00000000E+03   # M_eR                
        35     5.00000000E+03   # M_muR               
        36     5.00000000E+03   # M_tauR              
        41     5.00000000E+03   # M_q1L               
        42     5.00000000E+03   # M_q2L               
        43     5.00000000E+03   # M_q3L               
        44     5.00000000E+03   # M_uR                
        45     5.00000000E+03   # M_cR                
        46     5.00000000E+03   # M_tR                
        47     5.00000000E+03   # M_dR                
        48     5.00000000E+03   # M_sR                
        49     5.00000000E+03   # M_bR                
#
BLOCK MASS  # Mass Spectrum
# PDG code           mass       particle
        24     8.05387989E+01   # W+
        25     1.25000000E+02   # h
        35     2.00414670E+03   # H
        36     2.00000000E+03   # A
        37     2.00186747E+03   # H+
         5     4.87877839E+00   # b-quark pole mass calculated from mb(mb)_Msbar
   1000001     5.00013292E+03   # ~d_L
   2000001     5.00002530E+03   # ~d_R
   1000002     4.99989238E+03   # ~u_L
   2000002     4.99994939E+03   # ~u_R
   1000003     5.00013292E+03   # ~s_L
   2000003     5.00002530E+03   # ~s_R
   1000004     4.99989238E+03   # ~c_L
   2000004     4.99994939E+03   # ~c_R
   1000005     4.99989034E+03   # ~b_1
   2000005     5.00026933E+03   # ~b_2
   1000006     4.99767074E+03   # ~t_1
   2000006     5.00679942E+03   # ~t_2
   1000011     5.00008231E+03   # ~e_L
   2000011     5.00007591E+03   # ~e_R
   1000012     4.99984177E+03   # ~nu_eL
   1000013     5.00008231E+03   # ~mu_L
   2000013     5.00007591E+03   # ~mu_R
   1000014     4.99984177E+03   # ~nu_muL
   1000015     4.99995948E+03   # ~tau_1
   2000015     5.00019938E+03   # ~tau_2
   1000016     4.99984177E+03   # ~nu_tauL
   1000021     2.80000000E+03   # ~g
   1000022     4.44352041E+02   # ~chi_10
   1000023    -4.53828153E+02   # ~chi_20
   1000025     4.63471498E+02   # ~chi_30
   1000035     3.00183683E+03   # ~chi_40
   1000024     4.51647872E+02   # ~chi_1+
   1000037     3.00183653E+03   # ~chi_2+
   1000039     4.25622875E-09   # ~gravitino
#
BLOCK NMIX  # Neutralino Mixing Matrix
  1  1     5.38338539E-01   # N_11
  1  2    -4.30464597E-03   # N_12
  1  3    -6.14400870E-01   # N_13
  1  4    -5.76788226E-01   # N_14
  2  1     4.78322889E-02   # N_21
  2  2    -2.24250818E-02   # N_22
  2  3     7.05520986E-01   # N_23
  2  4    -7.06717289E-01   # N_24
  3  1     8.41370029E-01   # N_31
  3  2     4.51059574E-03   # N_32
  3  3     3.53011955E-01   # N_33
  3  4     4.09217166E-01   # N_34
  4  1     4.05190016E-04   # N_41
  4  2    -9.99729083E-01   # N_42
  4  3    -1.15874326E-02   # N_43
  4  4     2.01823431E-02   # N_44
#
BLOCK UMIX  # Chargino Mixing Matrix U
  1  1    -1.63798405E-02   # U_11
  1  2     9.99865841E-01   # U_12
  2  1     9.99865841E-01   # U_21
  2  2     1.63798405E-02   # U_22
#
BLOCK VMIX  # Chargino Mixing Matrix V
  1  1     2.85404182E-02   # V_11
  1  2    -9.99592639E-01   # V_12
  2  1     9.99592639E-01   # V_21
  2  2     2.85404182E-02   # V_22
#
BLOCK STOPMIX  # Stop Mixing Matrix
  1  1     7.09310355E-01   # cos(theta_t)
  1  2    -7.04896319E-01   # sin(theta_t)
  2  1     7.04896319E-01   # -sin(theta_t)
  2  2     7.09310355E-01   # cos(theta_t)
#
BLOCK SBOTMIX  # Sbottom Mixing Matrix
  1  1    -5.98349865E-01   # cos(theta_b)
  1  2     8.01234946E-01   # sin(theta_b)
  2  1    -8.01234946E-01   # -sin(theta_b)
  2  2    -5.98349865E-01   # cos(theta_b)
#
BLOCK STAUMIX  # Stau Mixing Matrix
  1  1    -6.97611417E-01   # cos(theta_tau)
  1  2     7.16476316E-01   # sin(theta_tau)
  2  1    -7.16476316E-01   # -sin(theta_tau)
  2  2    -6.97611417E-01   # cos(theta_tau)
#
BLOCK ALPHA  # Higgs mixing
          -5.90205515E-01   # Mixing angle in the neutral Higgs boson sector
#
BLOCK HMIX Q=  9.11876000E+01  # DRbar Higgs Parameters
         1    -4.50000000E+02   # mu(Q)               
         2     1.49999979E+00   # tanbeta(Q)          
         3     2.51743907E+02   # vev(Q)              
         4     4.13229180E+06   # MA^2(Q)             
#
BLOCK GAUGE Q=  9.11876000E+01  # The gauge couplings
     1     3.52956822E-01   # gprime(Q) DRbar
     2     6.28283859E-01   # g(Q) DRbar
     3     1.07510946E+00   # g3(Q) DRbar
#
BLOCK AU Q=  9.11876000E+01  # The trilinear couplings
  1  1     0.00000000E+00   # A_u(Q) DRbar
  2  2     0.00000000E+00   # A_c(Q) DRbar
  3  3     0.00000000E+00   # A_t(Q) DRbar
#
BLOCK AD Q=  9.11876000E+01  # The trilinear couplings
  1  1     0.00000000E+00   # A_d(Q) DRbar
  2  2     0.00000000E+00   # A_s(Q) DRbar
  3  3     0.00000000E+00   # A_b(Q) DRbar
#
BLOCK AE Q=  9.11876000E+01  # The trilinear couplings
  1  1     0.00000000E+00   # A_e(Q) DRbar
  2  2     0.00000000E+00   # A_mu(Q) DRbar
  3  3     0.00000000E+00   # A_tau(Q) DRbar
#
BLOCK Yu Q=  9.11876000E+01  # The Yukawa couplings
  1  1     0.00000000E+00   # y_u(Q) DRbar
  2  2     0.00000000E+00   # y_c(Q) DRbar
  3  3     1.02765840E+00   # y_t(Q) DRbar
#
BLOCK Yd Q=  9.11876000E+01  # The Yukawa couplings
  1  1     0.00000000E+00   # y_d(Q) DRbar
  2  2     0.00000000E+00   # y_s(Q) DRbar
  3  3     2.72616800E-02   # y_b(Q) DRbar
#
BLOCK Ye Q=  9.11876000E+01  # The Yukawa couplings
  1  1     0.00000000E+00   # y_e(Q) DRbar
  2  2     0.00000000E+00   # y_mu(Q) DRbar
  3  3     1.79910614E-02   # y_tau(Q) DRbar
#
BLOCK MSOFT Q=  9.11876000E+01  # The soft SUSY breaking masses at the scale Q
         1     4.55832221E+02   # M_1                 
         2     3.00000000E+03   # M_2                 
         3     2.80000000E+03   # M_3                 
        14     0.00000000E+00   # A_u                 
        15     0.00000000E+00   # A_d                 
        16     0.00000000E+00   # A_e                 
        21     2.83676440E+06   # M^2_Hd              
        22    -5.47089713E+06   # M^2_Hu              
        31     5.00000000E+03   # M_eL                
        32     5.00000000E+03   # M_muL               
        33     5.00000000E+03   # M_tauL              
        34     5.00000000E+03   # M_eR                
        35     5.00000000E+03   # M_muR               
        36     5.00000000E+03   # M_tauR              
        41     5.00000000E+03   # M_q1L               
        42     5.00000000E+03   # M_q2L               
        43     5.00000000E+03   # M_q3L               
        44     5.00000000E+03   # M_uR                
        45     5.00000000E+03   # M_cR                
        46     5.00000000E+03   # M_tR                
        47     5.00000000E+03   # M_dR                
        48     5.00000000E+03   # M_sR                
        49     5.00000000E+03   # M_bR                
#
#
#
#                             =================
#                             |The decay table|
#                             =================
#
# - The QCD corrections to the decays gluino -> squark  + quark
#                                     squark -> gaugino + quark_prime
#                                     squark -> squark_prime + Higgs
#                                     squark -> gluino  + quark
#   are included.
#
# - The multi-body decays for the inos, stops and sbottoms are included.
#
# - The loop induced decays for the gluino, neutralinos and stops
#   are included.
#
# - The SUSY decays of the top quark are included.
#
# - Possible decays of the NLSP in GMSB models are included.
#
#
#         PDG            Width
DECAY         6     1.37543235E+00   # top decays
#          BR         NDA      ID1       ID2
     1.00000000E+00    2           5        24   # BR(t ->  b    W+)
#
#         PDG            Width
DECAY   1000021     2.43848304E-02   # gluino decays
#          BR         NDA      ID1       ID2
     2.60082548E-03    2     1000022        21   # BR(~g -> ~chi_10 g)
     3.86160226E-03    2     1000023        21   # BR(~g -> ~chi_20 g)
     1.29165216E-03    2     1000025        21   # BR(~g -> ~chi_30 g)
#          BR         NDA      ID1       ID2
     0.00000000E+00    2     1000039        21   # BR(~g -> ~G      g)
#           BR         NDA      ID1       ID2       ID3
     1.92141307E-03    3     1000022         1        -1   # BR(~g -> ~chi_10 d  db)
     3.00644353E-05    3     1000023         1        -1   # BR(~g -> ~chi_20 d  db)
     4.52025287E-03    3     1000025         1        -1   # BR(~g -> ~chi_30 d  db)
     6.38983201E-03    3     1000022         2        -2   # BR(~g -> ~chi_10 u  ub)
     3.37374253E-05    3     1000023         2        -2   # BR(~g -> ~chi_20 u  ub)
     1.55988720E-02    3     1000025         2        -2   # BR(~g -> ~chi_30 u  ub)
     1.92141307E-03    3     1000022         3        -3   # BR(~g -> ~chi_10 s  sb)
     3.00644353E-05    3     1000023         3        -3   # BR(~g -> ~chi_20 s  sb)
     4.52025287E-03    3     1000025         3        -3   # BR(~g -> ~chi_30 s  sb)
     6.38983201E-03    3     1000022         4        -4   # BR(~g -> ~chi_10 c  cb)
     3.37374253E-05    3     1000023         4        -4   # BR(~g -> ~chi_20 c  cb)
     1.55988720E-02    3     1000025         4        -4   # BR(~g -> ~chi_30 c  cb)
     2.05900590E-03    3     1000022         5        -5   # BR(~g -> ~chi_10 b  bb)
     1.97022598E-04    3     1000023         5        -5   # BR(~g -> ~chi_20 b  bb)
     4.55387935E-03    3     1000025         5        -5   # BR(~g -> ~chi_30 b  bb)
     1.46855946E-01    3     1000022         6        -6   # BR(~g -> ~chi_10 t  tb)
     2.19253594E-01    3     1000023         6        -6   # BR(~g -> ~chi_20 t  tb)
     9.96941960E-02    3     1000025         6        -6   # BR(~g -> ~chi_30 t  tb)
     2.60368517E-05    3     1000024         1        -2   # BR(~g -> ~chi_1+ d  ub)
     2.60368517E-05    3    -1000024         2        -1   # BR(~g -> ~chi_1- u  db)
     2.60368517E-05    3     1000024         3        -4   # BR(~g -> ~chi_1+ s  cb)
     2.60368517E-05    3    -1000024         4        -3   # BR(~g -> ~chi_1- c  sb)
     2.31045620E-01    3     1000024         5        -6   # BR(~g -> ~chi_1+ b  tb)
     2.31045620E-01    3    -1000024         6        -5   # BR(~g -> ~chi_1- t  bb)
#
#         PDG            Width
DECAY   1000006     2.43678723E+02   # stop1 decays
#          BR         NDA      ID1       ID2
     7.64679514E-02    2     1000022         6   # BR(~t_1 -> ~chi_10 t )
     1.38407341E-01    2     1000023         6   # BR(~t_1 -> ~chi_20 t )
     9.35251261E-02    2     1000025         6   # BR(~t_1 -> ~chi_30 t )
     1.70941254E-02    2     1000035         6   # BR(~t_1 -> ~chi_40 t )
     1.40450861E-01    2     1000024         5   # BR(~t_1 -> ~chi_1+ b )
     3.41296589E-02    2     1000037         5   # BR(~t_1 -> ~chi_2+ b )
     4.99924936E-01    2     1000021         6   # BR(~t_1 -> ~g      t )
#
#         PDG            Width
DECAY   2000006     2.58459678E+02   # stop2 decays
#          BR         NDA      ID1       ID2
     1.22144563E-01    2     1000022         6   # BR(~t_2 -> ~chi_10 t )
     1.42835963E-01    2     1000023         6   # BR(~t_2 -> ~chi_20 t )
     3.37400957E-02    2     1000025         6   # BR(~t_2 -> ~chi_30 t )
     1.40602171E-02    2     1000035         6   # BR(~t_2 -> ~chi_40 t )
     1.41536053E-01    2     1000024         5   # BR(~t_2 -> ~chi_1+ b )
     2.80581049E-02    2     1000037         5   # BR(~t_2 -> ~chi_2+ b )
     5.17625003E-01    2     1000021         6   # BR(~t_2 -> ~g      t )
#
#         PDG            Width
DECAY   1000005     1.86608738E+02   # sbottom1 decays
#          BR         NDA      ID1       ID2
     3.58741727E-03    2     1000022         5   # BR(~b_1 -> ~chi_10 b )
     2.88245984E-06    2     1000023         5   # BR(~b_1 -> ~chi_20 b )
     4.77978682E-03    2     1000025         5   # BR(~b_1 -> ~chi_30 b )
     2.29272576E-02    2     1000035         5   # BR(~b_1 -> ~chi_40 b )
     2.38050342E-01    2    -1000024         6   # BR(~b_1 -> ~chi_1- t )
     4.59523391E-02    2    -1000037         6   # BR(~b_1 -> ~chi_2- t )
     6.84699975E-01    2     1000021         5   # BR(~b_1 -> ~g      b )
#
#         PDG            Width
DECAY   2000005     1.66577854E+02   # sbottom2 decays
#          BR         NDA      ID1       ID2
     1.95294976E-03    2     1000022         5   # BR(~b_2 -> ~chi_10 b )
     4.38776866E-04    2     1000023         5   # BR(~b_2 -> ~chi_20 b )
     8.34075407E-03    2     1000025         5   # BR(~b_2 -> ~chi_30 b )
     2.09478210E-02    2     1000035         5   # BR(~b_2 -> ~chi_40 b )
     1.57574828E-01    2    -1000024         6   # BR(~b_2 -> ~chi_1- t )
     4.19683907E-02    2    -1000037         6   # BR(~b_2 -> ~chi_2- t )
     7.68776480E-01    2     1000021         5   # BR(~b_2 -> ~g      b )
#
#         PDG            Width
DECAY   1000002     1.51886838E+02   # sup_L decays
#          BR         NDA      ID1       ID2
     1.13515403E-03    2     1000022         2   # BR(~u_L -> ~chi_10 u)
     2.20945031E-05    2     1000023         2   # BR(~u_L -> ~chi_20 u)
     3.19714519E-03    2     1000025         2   # BR(~u_L -> ~chi_30 u)
     5.11213741E-02    2     1000035         2   # BR(~u_L -> ~chi_40 u)
     1.98469191E-04    2     1000024         1   # BR(~u_L -> ~chi_1+ d)
     1.02230382E-01    2     1000037         1   # BR(~u_L -> ~chi_2+ d)
     8.42095381E-01    2     1000021         2   # BR(~u_L -> ~g      u)
#
#         PDG            Width
DECAY   2000002     1.38284631E+02   # sup_R decays
#          BR         NDA      ID1       ID2
     2.17686243E-02    2     1000022         2   # BR(~u_R -> ~chi_10 u)
     1.71743131E-04    2     1000023         2   # BR(~u_R -> ~chi_20 u)
     5.31026866E-02    2     1000025         2   # BR(~u_R -> ~chi_30 u)
     5.17597734E-09    2     1000035         2   # BR(~u_R -> ~chi_40 u)
     9.24956941E-01    2     1000021         2   # BR(~u_R -> ~g      u)
#
#         PDG            Width
DECAY   1000001     1.51892978E+02   # sdown_L decays
#          BR         NDA      ID1       ID2
     1.34673949E-03    2     1000022         1   # BR(~d_L -> ~chi_10 d)
     1.19962779E-04    2     1000023         1   # BR(~d_L -> ~chi_20 d)
     2.85115020E-03    2     1000025         1   # BR(~d_L -> ~chi_30 d)
     5.11428010E-02    2     1000035         1   # BR(~d_L -> ~chi_40 d)
     6.53726828E-05    2    -1000024         2   # BR(~d_L -> ~chi_1- u)
     1.02298082E-01    2    -1000037         2   # BR(~d_L -> ~chi_2- u)
     8.42175892E-01    2     1000021         1   # BR(~d_L -> ~g      d)
#
#         PDG            Width
DECAY   2000001     1.30507187E+02   # sdown_R decays
#          BR         NDA      ID1       ID2
     5.76656833E-03    2     1000022         1   # BR(~d_R -> ~chi_10 d)
     4.54952278E-05    2     1000023         1   # BR(~d_R -> ~chi_20 d)
     1.40670480E-02    2     1000025         1   # BR(~d_R -> ~chi_30 d)
     1.37117607E-09    2     1000035         1   # BR(~d_R -> ~chi_40 d)
     9.80120887E-01    2     1000021         1   # BR(~d_R -> ~g      d)
#
#         PDG            Width
DECAY   1000004     1.51886838E+02   # scharm_L decays
#          BR         NDA      ID1       ID2
     1.13515403E-03    2     1000022         4   # BR(~c_L -> ~chi_10 c)
     2.20945031E-05    2     1000023         4   # BR(~c_L -> ~chi_20 c)
     3.19714519E-03    2     1000025         4   # BR(~c_L -> ~chi_30 c)
     5.11213741E-02    2     1000035         4   # BR(~c_L -> ~chi_40 c)
     1.98469191E-04    2     1000024         3   # BR(~c_L -> ~chi_1+ s)
     1.02230382E-01    2     1000037         3   # BR(~c_L -> ~chi_2+ s)
     8.42095381E-01    2     1000021         4   # BR(~c_L -> ~g      c)
#
#         PDG            Width
DECAY   2000004     1.38284631E+02   # scharm_R decays
#          BR         NDA      ID1       ID2
     2.17686243E-02    2     1000022         4   # BR(~c_R -> ~chi_10 c)
     1.71743131E-04    2     1000023         4   # BR(~c_R -> ~chi_20 c)
     5.31026866E-02    2     1000025         4   # BR(~c_R -> ~chi_30 c)
     5.17597734E-09    2     1000035         4   # BR(~c_R -> ~chi_40 c)
     9.24956941E-01    2     1000021         4   # BR(~c_R -> ~g      c)
#
#         PDG            Width
DECAY   1000003     1.51892978E+02   # sstrange_L decays
#          BR         NDA      ID1       ID2
     1.34673949E-03    2     1000022         3   # BR(~s_L -> ~chi_10 s)
     1.19962779E-04    2     1000023         3   # BR(~s_L -> ~chi_20 s)
     2.85115020E-03    2     1000025         3   # BR(~s_L -> ~chi_30 s)
     5.11428010E-02    2     1000035         3   # BR(~s_L -> ~chi_40 s)
     6.53726828E-05    2    -1000024         4   # BR(~s_L -> ~chi_1- c)
     1.02298082E-01    2    -1000037         4   # BR(~s_L -> ~chi_2- c)
     8.42175892E-01    2     1000021         3   # BR(~s_L -> ~g      s)
#
#         PDG            Width
DECAY   2000003     1.30507187E+02   # sstrange_R decays
#          BR         NDA      ID1       ID2
     5.76656833E-03    2     1000022         3   # BR(~s_R -> ~chi_10 s)
     4.54952278E-05    2     1000023         3   # BR(~s_R -> ~chi_20 s)
     1.40670480E-02    2     1000025         3   # BR(~s_R -> ~chi_30 s)
     1.37117607E-09    2     1000035         3   # BR(~s_R -> ~chi_40 s)
     9.80120887E-01    2     1000021         3   # BR(~s_R -> ~g      s)
#
#         PDG            Width
DECAY   1000011     3.02026308E+01   # selectron_L decays
#          BR         NDA      ID1       ID2
     5.68653260E-02    2     1000022        11   # BR(~e_L -> ~chi_10 e-)
     1.26391684E-05    2     1000023        11   # BR(~e_L -> ~chi_20 e-)
     1.45480311E-01    2     1000025        11   # BR(~e_L -> ~chi_30 e-)
     2.65637006E-01    2     1000035        11   # BR(~e_L -> ~chi_40 e-)
     3.43144970E-04    2    -1000024        12   # BR(~e_L -> ~chi_1- nu_e)
     5.31661573E-01    2    -1000037        12   # BR(~e_L -> ~chi_2- nu_e)
#
#         PDG            Width
DECAY   2000011     2.43703481E+01   # selectron_R decays
#          BR         NDA      ID1       ID2
     2.90096183E-01    2     1000022        11   # BR(~e_R -> ~chi_10 e-)
     2.28862844E-03    2     1000023        11   # BR(~e_R -> ~chi_20 e-)
     7.07615120E-01    2     1000025        11   # BR(~e_R -> ~chi_30 e-)
     6.82985944E-08    2     1000035        11   # BR(~e_R -> ~chi_40 e-)
#
#         PDG            Width
DECAY   1000013     3.02026308E+01   # smuon_L decays
#          BR         NDA      ID1       ID2
     5.68653260E-02    2     1000022        13   # BR(~mu_L -> ~chi_10 mu-)
     1.26391684E-05    2     1000023        13   # BR(~mu_L -> ~chi_20 mu-)
     1.45480311E-01    2     1000025        13   # BR(~mu_L -> ~chi_30 mu-)
     2.65637006E-01    2     1000035        13   # BR(~mu_L -> ~chi_40 mu-)
     3.43144970E-04    2    -1000024        14   # BR(~mu_L -> ~chi_1- nu_mu)
     5.31661573E-01    2    -1000037        14   # BR(~mu_L -> ~chi_2- nu_mu)
#
#         PDG            Width
DECAY   2000013     2.43703481E+01   # smuon_R decays
#          BR         NDA      ID1       ID2
     2.90096183E-01    2     1000022        13   # BR(~mu_R -> ~chi_10 mu-)
     2.28862844E-03    2     1000023        13   # BR(~mu_R -> ~chi_20 mu-)
     7.07615120E-01    2     1000025        13   # BR(~mu_R -> ~chi_30 mu-)
     6.82985944E-08    2     1000035        13   # BR(~mu_R -> ~chi_40 mu-)
#
#         PDG            Width
DECAY   1000015     2.72390336E+01   # stau_1 decays
#          BR         NDA      ID1       ID2
     1.69758899E-01    2     1000022        15   # BR(~tau_1 -> ~chi_10  tau-)
     6.38517599E-04    2     1000023        15   # BR(~tau_1 -> ~chi_20  tau-)
     3.98867103E-01    2     1000025        15   # BR(~tau_1 -> ~chi_30  tau-)
     1.43467479E-01    2     1000035        15   # BR(~tau_1 -> ~chi_40  tau-)
     1.17094736E-04    2    -1000024        16   # BR(~tau_1 -> ~chi_1-  nu_tau)
     2.87143617E-01    2    -1000037        16   # BR(~tau_1 -> ~chi_2-  nu_tau)
     7.29083406E-06    2     1000039        15   # BR(~tau_1 -> ~G       tau-)
#
#         PDG            Width
DECAY   2000015     2.74291610E+01   # stau_2 decays
#          BR         NDA      ID1       ID2
     1.52651213E-01    2     1000022        15   # BR(~tau_2 -> ~chi_10  tau-)
     2.56281501E-03    2     1000023        15   # BR(~tau_2 -> ~chi_20  tau-)
     3.93079213E-01    2     1000025        15   # BR(~tau_2 -> ~chi_30  tau-)
     1.50023813E-01    2     1000035        15   # BR(~tau_2 -> ~chi_40  tau-)
     1.41604164E-03    2    -1000024        16   # BR(~tau_2 -> ~chi_1-  nu_tau)
     3.00266905E-01    2    -1000037        16   # BR(~tau_2 -> ~chi_2-  nu_tau)
#
#         PDG            Width
DECAY   1000012     3.02008022E+01   # snu_eL decays
#          BR         NDA      ID1       ID2
     6.01977587E-02    2     1000022        12   # BR(~nu_eL -> ~chi_10 nu_e)
     1.55378865E-03    2     1000023        12   # BR(~nu_eL -> ~chi_20 nu_e)
     1.40033082E-01    2     1000025        12   # BR(~nu_eL -> ~chi_30 nu_e)
     2.65853519E-01    2     1000035        12   # BR(~nu_eL -> ~chi_40 nu_e)
     1.04179838E-03    2     1000024        11   # BR(~nu_eL -> ~chi_1+ e-)
     5.31320053E-01    2     1000037        11   # BR(~nu_eL -> ~chi_2+ e-)
#
#         PDG            Width
DECAY   1000014     3.02008022E+01   # snu_muL decays
#          BR         NDA      ID1       ID2
     6.01977587E-02    2     1000022        14   # BR(~nu_muL -> ~chi_10 nu_mu)
     1.55378865E-03    2     1000023        14   # BR(~nu_muL -> ~chi_20 nu_mu)
     1.40033082E-01    2     1000025        14   # BR(~nu_muL -> ~chi_30 nu_mu)
     2.65853519E-01    2     1000035        14   # BR(~nu_muL -> ~chi_40 nu_mu)
     1.04179838E-03    2     1000024        13   # BR(~nu_muL -> ~chi_1+ mu-)
     5.31320053E-01    2     1000037        13   # BR(~nu_muL -> ~chi_2+ mu-)
#
#         PDG            Width
DECAY   1000016     3.02324740E+01   # snu_tauL decays
#          BR         NDA      ID1       ID2
     6.01346950E-02    2     1000022        16   # BR(~nu_tauL -> ~chi_10 nu_tau)
     1.55216088E-03    2     1000023        16   # BR(~nu_tauL -> ~chi_20 nu_tau)
     1.39886382E-01    2     1000025        16   # BR(~nu_tauL -> ~chi_30 nu_tau)
     2.65575009E-01    2     1000035        16   # BR(~nu_tauL -> ~chi_40 nu_tau)
     2.08819451E-03    2     1000024        15   # BR(~nu_tauL -> ~chi_1+ tau-)
     5.30763559E-01    2     1000037        15   # BR(~nu_tauL -> ~chi_2+ tau-)
#
#         PDG            Width
DECAY   1000024     1.53327087E-08   # chargino1+ decays
#          BR         NDA      ID1       ID2
     3.44018466E-02    2     1000039        24   # BR(~chi_1+ -> ~G       W+)
#           BR         NDA      ID1       ID2       ID3
     3.50989598E-01    3     1000022         2        -1   # BR(~chi_1+ -> ~chi_10 u    db)
     2.92708545E-01    3     1000022         4        -3   # BR(~chi_1+ -> ~chi_10 c    sb)
     1.16997171E-01    3     1000022       -11        12   # BR(~chi_1+ -> ~chi_10 e+   nu_e)
     1.16874663E-01    3     1000022       -13        14   # BR(~chi_1+ -> ~chi_10 mu+  nu_mu)
     8.80281772E-02    3     1000022       -15        16   # BR(~chi_1+ -> ~chi_10 tau+ nu_tau)
#
#         PDG            Width
DECAY   1000037     2.67356526E+01   # chargino2+ decays
#          BR         NDA      ID1       ID2
     1.58871637E-01    2     1000024        23   # BR(~chi_2+ -> ~chi_1+  Z )
     1.05656478E-01    2     1000022        24   # BR(~chi_2+ -> ~chi_10  W+)
     1.54118538E-01    2     1000023        24   # BR(~chi_2+ -> ~chi_20  W+)
     5.01567848E-02    2     1000025        24   # BR(~chi_2+ -> ~chi_30  W+)
     1.59395575E-01    2     1000024        25   # BR(~chi_2+ -> ~chi_1+  h )
     9.27670485E-02    2     1000024        35   # BR(~chi_2+ -> ~chi_1+  H )
     9.31492166E-02    2     1000024        36   # BR(~chi_2+ -> ~chi_1+  A )
     6.69790548E-02    2     1000022        37   # BR(~chi_2+ -> ~chi_10  H+)
     9.27503266E-02    2     1000023        37   # BR(~chi_2+ -> ~chi_20  H+)
     2.61547643E-02    2     1000025        37   # BR(~chi_2+ -> ~chi_30  H+)
     5.77669910E-07    2     1000039        24   # BR(~chi_2+ -> ~G       W+)
     1.20179375E-11    2     1000039        37   # BR(~chi_2+ -> ~G       H+)
#
#         PDG            Width
DECAY   1000022     1.0E-05   # neutralino1 decays
#          BR         NDA      ID1       ID2
     4.12610213E-01    2     1000039        22   # BR(~chi_10 -> ~G        gam)
     1.29188705E-01    2     1000039        23   # BR(~chi_10 -> ~G        Z)
     4.58201083E-01    2     1000039        25   # BR(~chi_10 -> ~G        h)
#
#         PDG            Width
DECAY   1000023     1.0E-05   # neutralino2 decays
#          BR         NDA      ID1       ID2
     1.56394363E-02    2     1000022        22   # BR(~chi_20 -> ~chi_10 gam)
#          BR         NDA      ID1       ID2
     2.71773930E-05    2     1000039        22   # BR(~chi_20 -> ~G        gam)
     1.17584044E-02    2     1000039        23   # BR(~chi_20 -> ~G        Z)
     3.97388111E-04    2     1000039        25   # BR(~chi_20 -> ~G        h)
#           BR         NDA      ID1       ID2       ID3
     1.37776051E-01    3     1000022        -2         2   # BR(~chi_20 -> ~chi_10 ub      u)
     1.78356910E-01    3     1000022        -1         1   # BR(~chi_20 -> ~chi_10 db      d)
     1.18780551E-01    3     1000022        -4         4   # BR(~chi_20 -> ~chi_10 cb      c)
     1.77769812E-01    3     1000022        -3         3   # BR(~chi_20 -> ~chi_10 sb      s)
     4.07141032E-02    3     1000022       -11        11   # BR(~chi_20 -> ~chi_10 e+      e-)
     4.06881797E-02    3     1000022       -13        13   # BR(~chi_20 -> ~chi_10 mu+     mu-)
     3.26836426E-02    3     1000022       -15        15   # BR(~chi_20 -> ~chi_10 tau+    tau-)
     8.12975486E-02    3     1000022       -12        12   # BR(~chi_20 -> ~chi_10 nu_eb   nu_e)
     8.12975486E-02    3     1000022       -14        14   # BR(~chi_20 -> ~chi_10 nu_mub  nu_mu)
     8.12975486E-02    3     1000022       -16        16   # BR(~chi_20 -> ~chi_10 nu_taub nu_tau)
     4.29385745E-04    3     1000024        -2         1   # BR(~chi_20 -> ~chi_1+ ub      d)
     4.29385745E-04    3    -1000024        -1         2   # BR(~chi_20 -> ~chi_1- db      u)
     4.18352844E-05    3     1000024        -4         3   # BR(~chi_20 -> ~chi_1+ cb      s)
     4.18352844E-05    3    -1000024        -3         4   # BR(~chi_20 -> ~chi_1- sb      c)
     1.43128598E-04    3     1000024       -12        11   # BR(~chi_20 -> ~chi_1+ nu_eb   e-)
     1.43128598E-04    3    -1000024        12       -11   # BR(~chi_20 -> ~chi_1- nu_e    e+)
     1.41468600E-04    3     1000024       -14        13   # BR(~chi_20 -> ~chi_1+ nu_mub  mu-)
     1.41468600E-04    3    -1000024        14       -13   # BR(~chi_20 -> ~chi_1- nu_mu   mu+)
     2.03090322E-06    3     1000024       -16        15   # BR(~chi_20 -> ~chi_1+ nu_taub tau-)
     2.03090322E-06    3    -1000024        16       -15   # BR(~chi_20 -> ~chi_1- nu_tau  tau+)
#
#         PDG            Width
DECAY   1000025     1.0E-05   # neutralino3 decays
#          BR         NDA      ID1       ID2
     8.72033440E-01    2     1000022        22   # BR(~chi_30 -> ~chi_10 gam)
     2.61266833E-02    2     1000023        22   # BR(~chi_30 -> ~chi_20 gam)
#          BR         NDA      ID1       ID2
     4.52292621E-04    2     1000039        22   # BR(~chi_30 -> ~G        gam)
     1.26324581E-04    2     1000039        23   # BR(~chi_30 -> ~G        Z)
     8.88774471E-05    2     1000039        25   # BR(~chi_30 -> ~G        h)
#           BR         NDA      ID1       ID2       ID3
     1.87083336E-04    3     1000022        -2         2   # BR(~chi_30 -> ~chi_10 ub      u)
     2.43421476E-04    3     1000022        -1         1   # BR(~chi_30 -> ~chi_10 db      d)
     1.73957170E-04    3     1000022        -4         4   # BR(~chi_30 -> ~chi_10 cb      c)
     2.43140457E-04    3     1000022        -3         3   # BR(~chi_30 -> ~chi_10 sb      s)
     1.09137254E-04    3     1000022        -5         5   # BR(~chi_30 -> ~chi_10 bb      b)
     5.65339031E-05    3     1000022       -11        11   # BR(~chi_30 -> ~chi_10 e+      e-)
     5.65082150E-05    3     1000022       -13        13   # BR(~chi_30 -> ~chi_10 mu+     mu-)
     4.97913326E-05    3     1000022       -15        15   # BR(~chi_30 -> ~chi_10 tau+    tau-)
     1.10445215E-04    3     1000022       -12        12   # BR(~chi_30 -> ~chi_10 nu_eb   nu_e)
     1.10445215E-04    3     1000022       -14        14   # BR(~chi_30 -> ~chi_10 nu_mub  nu_mu)
     1.10445215E-04    3     1000022       -16        16   # BR(~chi_30 -> ~chi_10 nu_taub nu_tau)
     1.60874475E-03    3     1000023        -2         2   # BR(~chi_30 -> ~chi_20 ub      u)
     2.08263527E-03    3     1000023        -1         1   # BR(~chi_30 -> ~chi_20 db      d)
     1.39446618E-03    3     1000023        -4         4   # BR(~chi_30 -> ~chi_20 cb      c)
     2.07601600E-03    3     1000023        -3         3   # BR(~chi_30 -> ~chi_20 sb      s)
     4.75437658E-04    3     1000023       -11        11   # BR(~chi_30 -> ~chi_20 e+      e-)
     4.75145176E-04    3     1000023       -13        13   # BR(~chi_30 -> ~chi_20 mu+     mu-)
     3.85005911E-04    3     1000023       -15        15   # BR(~chi_30 -> ~chi_20 tau+    tau-)
     9.49255948E-04    3     1000023       -12        12   # BR(~chi_30 -> ~chi_20 nu_eb   nu_e)
     9.49255948E-04    3     1000023       -14        14   # BR(~chi_30 -> ~chi_20 nu_mub  nu_mu)
     9.49255948E-04    3     1000023       -16        16   # BR(~chi_30 -> ~chi_20 nu_taub nu_tau)
     1.52501781E-02    3     1000024        -2         1   # BR(~chi_30 -> ~chi_1+ ub      d)
     1.52501781E-02    3    -1000024        -1         2   # BR(~chi_30 -> ~chi_1- db      u)
     1.42189158E-02    3     1000024        -4         3   # BR(~chi_30 -> ~chi_1+ cb      s)
     1.42189158E-02    3    -1000024        -3         4   # BR(~chi_30 -> ~chi_1- sb      c)
     5.08332026E-03    3     1000024       -12        11   # BR(~chi_30 -> ~chi_1+ nu_eb   e-)
     5.08332026E-03    3    -1000024        12       -11   # BR(~chi_30 -> ~chi_1- nu_e    e+)
     5.08129185E-03    3     1000024       -14        13   # BR(~chi_30 -> ~chi_1+ nu_mub  mu-)
     5.08129185E-03    3    -1000024        14       -13   # BR(~chi_30 -> ~chi_1- nu_mu   mu+)
     4.55442139E-03    3     1000024       -16        15   # BR(~chi_30 -> ~chi_1+ nu_taub tau-)
     4.55442139E-03    3    -1000024        16       -15   # BR(~chi_30 -> ~chi_1- nu_tau  tau+)
#
#         PDG            Width
DECAY   1000035     2.67360072E+01   # neutralino4 decays
#          BR         NDA      ID1       ID2
     1.03582241E-01    2     1000022        23   # BR(~chi_40 -> ~chi_10   Z )
     1.08580182E-02    2     1000023        23   # BR(~chi_40 -> ~chi_20   Z )
     4.46223665E-02    2     1000025        23   # BR(~chi_40 -> ~chi_30   Z )
     1.54770062E-01    2     1000024       -24   # BR(~chi_40 -> ~chi_1+   W-)
     1.54770062E-01    2    -1000024        24   # BR(~chi_40 -> ~chi_1-   W+)
     4.79805495E-03    2     1000022        25   # BR(~chi_40 -> ~chi_10   h )
     6.56165243E-02    2     1000022        35   # BR(~chi_40 -> ~chi_10   H )
     1.20536102E-03    2     1000022        36   # BR(~chi_40 -> ~chi_10   A )
     1.47989186E-01    2     1000023        25   # BR(~chi_40 -> ~chi_20   h )
     1.10805706E-03    2     1000023        35   # BR(~chi_40 -> ~chi_20   H )
     9.17377392E-02    2     1000023        36   # BR(~chi_40 -> ~chi_20   A )
     6.81333978E-03    2     1000025        25   # BR(~chi_40 -> ~chi_30   h )
     2.60100488E-02    2     1000025        35   # BR(~chi_40 -> ~chi_30   H )
     9.52363531E-05    2     1000025        36   # BR(~chi_40 -> ~chi_30   A )
     9.30115623E-02    2     1000024       -37   # BR(~chi_40 -> ~chi_1+   H-)
     9.30115623E-02    2    -1000024        37   # BR(~chi_40 -> ~chi_1-   H+)
     1.38714453E-07    2     1000039        22   # BR(~chi_40 -> ~G        gam)
     4.38899663E-07    2     1000039        23   # BR(~chi_40 -> ~G        Z)
     3.06355925E-11    2     1000039        25   # BR(~chi_40 -> ~G        h)
     1.18956063E-11    2     1000039        35   # BR(~chi_40 -> ~G        H)
     6.68895712E-14    2     1000039        36   # BR(~chi_40 -> ~G        A)
#
#         PDG            Width
DECAY        25     4.08021265E-03   # h decays
#          BR         NDA      ID1       ID2
     6.17191981E-01    2           5        -5   # BR(h -> b       bb     )
     6.38347835E-02    2         -15        15   # BR(h -> tau+    tau-   )
     2.25951624E-04    2         -13        13   # BR(h -> mu+     mu-    )
     4.78811788E-04    2           3        -3   # BR(h -> s       sb     )
     2.06566654E-02    2           4        -4   # BR(h -> c       cb     )
     6.70734934E-02    2          21        21   # BR(h -> g       g      )
     2.29615069E-03    2          22        22   # BR(h -> gam     gam    )
     1.53943897E-03    2          22        23   # BR(h -> Z       gam    )
     2.01051206E-01    2          24       -24   # BR(h -> W+      W-     )
     2.56515182E-02    2          23        23   # BR(h -> Z       Z      )
#
#         PDG            Width
DECAY        35     3.95408859E+01   # H decays
#          BR         NDA      ID1       ID2
     1.41393646E-03    2           5        -5   # BR(H -> b       bb     )
     2.35656062E-04    2         -15        15   # BR(H -> tau+    tau-   )
     8.33131913E-07    2         -13        13   # BR(H -> mu+     mu-    )
     1.06670305E-06    2           3        -3   # BR(H -> s       sb     )
     9.62684194E-06    2           4        -4   # BR(H -> c       cb     )
     9.52535084E-01    2           6        -6   # BR(H -> t       tb     )
     7.62787088E-04    2          21        21   # BR(H -> g       g      )
     2.54641666E-06    2          22        22   # BR(H -> gam     gam    )
     1.10863783E-06    2          23        22   # BR(H -> Z       gam    )
     3.21063460E-04    2          24       -24   # BR(H -> W+      W-     )
     1.60093845E-04    2          23        23   # BR(H -> Z       Z      )
     8.65622702E-04    2          25        25   # BR(H -> h       h      )
     8.34603467E-24    2          36        36   # BR(H -> A       A      )
     3.34559392E-11    2          23        36   # BR(H -> Z       A      )
     4.09015013E-12    2          24       -37   # BR(H -> W+      H-     )
     4.09015013E-12    2         -24        37   # BR(H -> W-      H+     )
     6.54073091E-05    2     1000024  -1000024   # BR(H -> ~chi_1+ ~chi_1-)
     1.80839765E-02    2     1000022   1000022   # BR(H -> ~chi_10 ~chi_10)
     2.60142085E-05    2     1000023   1000023   # BR(H -> ~chi_20 ~chi_20)
     1.59675064E-02    2     1000025   1000025   # BR(H -> ~chi_30 ~chi_30)
     5.05720409E-05    2     1000022   1000023   # BR(H -> ~chi_10 ~chi_20)
     7.16735278E-03    2     1000022   1000025   # BR(H -> ~chi_10 ~chi_30)
     2.32974512E-03    2     1000023   1000025   # BR(H -> ~chi_20 ~chi_30)
#
#         PDG            Width
DECAY        36     3.99759906E+01   # A decays
#          BR         NDA      ID1       ID2
     1.41701722E-03    2           5        -5   # BR(A -> b       bb     )
     2.33295442E-04    2         -15        15   # BR(A -> tau+    tau-   )
     8.24783665E-07    2         -13        13   # BR(A -> mu+     mu-    )
     1.08735819E-06    2           3        -3   # BR(A -> s       sb     )
     9.52872510E-06    2           4        -4   # BR(A -> c       cb     )
     9.53656395E-01    2           6        -6   # BR(A -> t       tb     )
     9.02653895E-04    2          21        21   # BR(A -> g       g      )
     3.13173202E-06    2          22        22   # BR(A -> gam     gam    )
     1.29306272E-06    2          23        22   # BR(A -> Z       gam    )
     3.12971622E-04    2          23        25   # BR(A -> Z       h      )
     4.09532480E-04    2     1000024  -1000024   # BR(A -> ~chi_1+ ~chi_1-)
     1.17518511E-03    2     1000022   1000022   # BR(A -> ~chi_10 ~chi_10)
     8.32074917E-04    2     1000023   1000023   # BR(A -> ~chi_20 ~chi_20)
     3.28694368E-04    2     1000025   1000025   # BR(A -> ~chi_30 ~chi_30)
     1.14813053E-02    2     1000022   1000023   # BR(A -> ~chi_10 ~chi_20)
     8.07166479E-04    2     1000022   1000025   # BR(A -> ~chi_10 ~chi_30)
     2.84278425E-02    2     1000023   1000025   # BR(A -> ~chi_20 ~chi_30)
#
#         PDG            Width
DECAY        37     3.91754923E+01   # H+ decays
#          BR         NDA      ID1       ID2
     2.27609247E-06    2           4        -5   # BR(H+ -> c       bb     )
     2.38284807E-04    2         -15        16   # BR(H+ -> tau+    nu_tau )
     8.42422870E-07    2         -13        14   # BR(H+ -> mu+     nu_mu  )
     1.44714972E-08    2           2        -5   # BR(H+ -> u       bb     )
     5.21701054E-08    2           2        -3   # BR(H+ -> u       sb     )
     1.03950906E-05    2           4        -3   # BR(H+ -> c       sb     )
     9.55474656E-01    2           6        -5   # BR(H+ -> t       bb     )
     3.20717795E-04    2          24        25   # BR(H+ -> W+      h      )
     7.62322055E-13    2          24        36   # BR(H+ -> W+      A      )
     1.21915957E-02    2     1000024   1000022   # BR(H+ -> ~chi_1+ ~chi_10)
     1.09283037E-04    2     1000024   1000023   # BR(H+ -> ~chi_1+ ~chi_20)
     3.16518821E-02    2     1000024   1000025   # BR(H+ -> ~chi_1+ ~chi_30)
